0.000000 0.000000 0.000000 0.000000 0.000000 0.000000 0.000000 0.000000 0.000000 0.000000 0.000000 0.000000 0.000000 0.000000 0.000000 0.000000 0.000000 0.000000 0.000000 0.000000 0.000000 0.000000 0.000000 0.000000 0.000000 0.000000 0.000000 0.000000 0.000000 0.000000 0.000000 0.000000 0.000000 0.000000 0.000000 0.000000 0.000000 0.000000 0.000000 0.000000 0.000000 0.000000 0.000000 0.000000 0.000000 0.000000 0.000000 0.000000 0.000000 0.000000 0.000000 0.000000 0.000000 0.000000 0.000000 0.000000 0.000000 0.000000 0.000000 0.000000 0.000000 0.000000 0.000000 0.000000 0.000000 0.000000 0.000000 0.000000 0.000000 0.000000 0.000000 0.000000 0.000000 0.000000 0.000000 0.000000 0.000000 0.000000 0.000000 0.000000 0.000000 0.000000 0.000000 0.000000 0.000000 0.000000 0.000000 0.000000 0.000000 0.000000 0.000000 0.000000 0.000000 0.000000 0.000000 0.000000 0.000000 0.000000 0.000000 0.000000 0.000000 0.000000 0.000000
0.000000 0.000000 0.000000 0.000000 0.000000 0.000000 0.000000 0.000000 0.000000 0.000000 0.000000 0.000000 0.000000 0.000000 0.000000 0.000000 0.000000 0.000000 0.000000 0.000000 0.000000 0.000000 0.000000 0.000000 0.000000 0.000000 0.000000 0.000000 0.000000 0.000000 0.000000 0.000000 0.000000 0.000000 0.000000 0.000000 0.000000 0.000000 0.000000 0.000000 0.000000 0.000000 0.000000 0.000000 0.000000 0.000000 0.000000 0.000000 0.000000 0.000000 0.000000 0.000000 0.000000 0.000000 0.000000 0.000000 0.000000 0.000000 0.000000 0.000000 0.000000 0.000000 0.000000 0.000000 0.000000 0.000000 0.000000 0.000000 0.000000 0.000000 0.000000 0.000000 0.000000 0.000000 0.000000 0.000000 0.000000 0.000000 0.000000 0.000000 0.000000 0.000000 0.000000 0.000000 0.000000 0.000000 0.000000 0.000000 0.000000 0.000000 0.000000 0.000000 0.000000 0.000000 0.000000 0.000000 0.000000 0.000000 0.000000 0.000000 0.000000 0.000000 0.000000
0.000000 0.000000 0.000000 0.000000 0.000000 0.000000 0.000000 0.000000 0.000000 0.000000 0.000000 0.000000 0.000000 0.000000 0.000000 0.000000 0.000000 0.000000 0.000000 0.000000 0.000000 0.000000 0.000000 0.000000 0.000000 0.000000 0.000000 0.000000 0.000000 0.000000 0.000000 0.000000 0.000000 0.000000 0.000000 0.000000 0.000000 0.000000 0.000000 0.000000 0.000000 0.000000 0.000000 0.000000 0.000000 0.000000 0.000000 0.000000 0.000000 0.000000 0.000000 0.000000 0.000000 0.000000 0.000000 0.000000 0.000000 0.000000 0.000000 0.000000 0.000000 0.000000 0.000000 0.000000 0.000000 0.000000 0.000000 0.000000 0.000000 0.000000 0.000000 0.000000 0.000000 0.000000 0.000000 0.000000 0.000000 0.000000 0.000000 0.000000 0.000000 0.000000 0.000000 0.000000 0.000000 0.000000 0.000000 0.000000 0.000000 0.000000 0.000000 0.000000 0.000000 0.000000 0.000000 0.000000 0.000000 0.000000 0.000000 0.000000 0.000000 0.000000 0.000000
0.000000 0.000000 0.000000 0.000000 0.000000 0.000000 0.000000 0.000000 0.000000 0.000000 0.000000 0.000000 0.000000 0.000000 0.000000 0.000000 0.000000 0.000000 0.000000 0.000000 0.000000 0.000000 0.000000 0.000000 0.000000 0.000000 0.000000 0.000000 0.000000 0.000000 0.000000 0.000000 0.000000 0.000000 0.000000 0.000000 0.000000 0.000000 0.000000 0.000000 0.000000 0.000000 0.000000 0.000000 0.000000 0.000000 0.000000 0.000000 0.000000 0.000000 0.000000 0.000000 0.000000 0.000000 0.000000 0.000000 0.000000 0.000000 0.000000 0.000000 0.000000 0.000000 0.000000 0.000000 0.000000 0.000000 0.000000 0.000000 0.000000 0.000000 0.000000 0.000000 0.000000 0.000000 0.000000 0.000000 0.000000 0.000000 0.000000 0.000000 0.000000 0.000000 0.000000 0.000000 0.000000 0.000000 0.000000 0.000000 0.000000 0.000000 0.000000 0.000000 0.000000 0.000000 0.000000 0.000000 0.000000 0.000000 0.000000 0.000000 0.000000 0.000000 0.000000
0.000000 0.000000 0.000000 0.000000 0.000000 0.000000 0.000000 0.000000 0.000000 0.000000 0.000000 28.932573 28.932573 28.932573 28.932573 28.932573 28.932573 28.932573 28.932573 28.932573 28.932573 0.000000 0.000000 0.000000 0.000000 0.000000 0.000000 0.000000 0.000000 0.000000 0.000000 0.000000 0.000000 0.000000 0.000000 0.000000 0.000000 0.000000 0.000000 0.000000 0.000000 0.000000 0.000000 0.000000 0.000000 0.000000 0.000000 0.000000 0.000000 0.000000 0.000000 0.000000 0.000000 0.000000 0.000000 0.000000 0.000000 0.000000 0.000000 0.000000 0.000000 0.000000 0.000000 0.000000 0.000000 0.000000 0.000000 0.000000 0.000000 0.000000 0.000000 0.000000 0.000000 0.000000 0.000000 0.000000 0.000000 0.000000 0.000000 0.000000 0.000000 0.000000 0.000000 0.000000 0.000000 0.000000 0.000000 0.000000 0.000000 0.000000 0.000000 0.000000 0.000000 0.000000 0.000000 0.000000 0.000000 0.000000 0.000000 0.000000 0.000000 0.000000 0.000000
0.000000 0.000000 0.000000 0.000000 0.000000 0.000000 0.000000 0.000000 0.000000 0.000000 0.000000 28.932573 28.932573 28.932573 28.932573 28.932573 28.932573 28.932573 28.932573 28.932573 28.932573 0.000000 0.000000 0.000000 0.000000 0.000000 0.000000 0.000000 0.000000 0.000000 0.000000 0.000000 0.000000 0.000000 0.000000 0.000000 0.000000 0.000000 0.000000 0.000000 0.000000 0.000000 0.000000 0.000000 0.000000 0.000000 0.000000 0.000000 0.000000 0.000000 0.000000 0.000000 0.000000 0.000000 0.000000 0.000000 0.000000 0.000000 0.000000 0.000000 0.000000 0.000000 0.000000 0.000000 0.000000 0.000000 0.000000 0.000000 0.000000 0.000000 0.000000 0.000000 0.000000 0.000000 0.000000 0.000000 0.000000 0.000000 0.000000 0.000000 0.000000 0.000000 0.000000 0.000000 0.000000 0.000000 0.000000 0.000000 0.000000 0.000000 0.000000 0.000000 0.000000 0.000000 0.000000 0.000000 0.000000 0.000000 0.000000 0.000000 0.000000 0.000000 0.000000
0.000000 0.000000 0.000000 0.000000 0.000000 0.000000 0.000000 0.000000 0.000000 0.000000 0.000000 28.932573 28.932573 28.932573 28.932573 28.932573 28.932573 28.932573 28.932573 28.932573 28.932573 0.000000 0.000000 9.284069 9.284069 9.284069 9.284069 9.284069 0.000000 0.000000 0.000000 0.000000 0.000000 0.000000 0.000000 0.000000 0.000000 46.804303 46.804303 46.804303 46.804303 46.804303 46.804303 46.804303 46.804303 46.804303 46.804303 46.804303 46.804303 0.000000 0.000000 0.000000 0.000000 0.000000 0.000000 0.000000 0.000000 32.999002 32.999002 32.999002 32.999002 32.999002 32.999002 32.999002 32.999002 32.999002 0.000000 0.000000 0.000000 0.000000 0.000000 0.000000 0.000000 0.000000 0.000000 0.000000 0.000000 0.000000 0.000000 0.000000 0.000000 0.000000 0.000000 0.000000 0.000000 0.000000 0.000000 0.000000 0.000000 0.000000 0.000000 0.000000 0.000000 0.000000 0.000000 0.000000 0.000000 0.000000 0.000000 0.000000 0.000000 0.000000 0.000000
0.000000 0.000000 0.000000 0.000000 0.000000 0.000000 0.000000 0.000000 0.000000 0.000000 0.000000 28.932573 28.932573 28.932573 28.932573 28.932573 28.932573 28.932573 28.932573 28.932573 28.932573 0.000000 0.000000 9.284069 9.284069 9.284069 9.284069 9.284069 0.000000 0.000000 0.000000 0.000000 0.000000 0.000000 0.000000 0.000000 0.000000 46.804303 46.804303 46.804303 46.804303 46.804303 46.804303 46.804303 46.804303 46.804303 46.804303 46.804303 46.804303 0.000000 0.000000 0.000000 0.000000 0.000000 0.000000 0.000000 0.000000 32.999002 32.999002 32.999002 32.999002 32.999002 32.999002 32.999002 32.999002 32.999002 0.000000 0.000000 0.000000 0.000000 0.000000 0.000000 0.000000 0.000000 0.000000 0.000000 0.000000 0.000000 0.000000 0.000000 0.000000 0.000000 0.000000 0.000000 0.000000 0.000000 0.000000 0.000000 0.000000 0.000000 0.000000 0.000000 0.000000 0.000000 0.000000 0.000000 0.000000 0.000000 0.000000 0.000000 0.000000 0.000000 0.000000
0.000000 0.000000 0.000000 0.000000 0.000000 0.000000 0.000000 0.000000 0.000000 0.000000 0.000000 28.932573 28.932573 28.932573 28.932573 28.932573 28.932573 28.932573 28.932573 28.932573 28.932573 0.000000 0.000000 9.284069 9.284069 9.284069 9.284069 9.284069 0.000000 0.000000 0.000000 0.000000 0.000000 0.000000 0.000000 0.000000 0.000000 46.804303 46.804303 46.804303 46.804303 46.804303 46.804303 46.804303 46.804303 46.804303 46.804303 46.804303 46.804303 0.000000 0.000000 0.000000 0.000000 0.000000 0.000000 0.000000 0.000000 32.999002 32.999002 32.999002 32.999002 32.999002 32.999002 32.999002 32.999002 32.999002 0.000000 0.000000 0.000000 0.000000 0.000000 0.000000 0.000000 0.000000 0.000000 0.000000 0.000000 0.000000 0.000000 0.000000 0.000000 0.000000 0.000000 0.000000 0.000000 0.000000 0.000000 0.000000 0.000000 0.000000 0.000000 0.000000 0.000000 0.000000 0.000000 0.000000 0.000000 0.000000 0.000000 0.000000 0.000000 0.000000 0.000000
0.000000 0.000000 0.000000 0.000000 0.000000 0.000000 0.000000 0.000000 0.000000 0.000000 0.000000 28.932573 28.932573 28.932573 28.932573 28.932573 28.932573 28.932573 28.932573 28.932573 28.932573 0.000000 0.000000 9.284069 9.284069 9.284069 9.284069 9.284069 0.000000 0.000000 0.000000 0.000000 0.000000 0.000000 0.000000 0.000000 0.000000 46.804303 46.804303 46.804303 46.804303 46.804303 46.804303 46.804303 46.804303 46.804303 46.804303 46.804303 46.804303 0.000000 0.000000 0.000000 0.000000 0.000000 0.000000 0.000000 0.000000 32.999002 32.999002 32.999002 32.999002 32.999002 32.999002 32.999002 32.999002 32.999002 0.000000 0.000000 0.000000 0.000000 0.000000 0.000000 0.000000 0.000000 0.000000 0.000000 0.000000 0.000000 0.000000 0.000000 0.000000 0.000000 0.000000 0.000000 0.000000 0.000000 0.000000 0.000000 0.000000 0.000000 0.000000 0.000000 0.000000 0.000000 0.000000 0.000000 0.000000 0.000000 0.000000 0.000000 0.000000 0.000000 0.000000
0.000000 0.000000 0.000000 0.000000 0.000000 0.000000 0.000000 0.000000 0.000000 0.000000 0.000000 28.932573 28.932573 28.932573 28.932573 28.932573 28.932573 28.932573 28.932573 28.932573 28.932573 0.000000 0.000000 9.284069 9.284069 9.284069 9.284069 9.284069 0.000000 0.000000 0.000000 0.000000 0.000000 0.000000 0.000000 0.000000 0.000000 46.804303 46.804303 46.804303 46.804303 46.804303 46.804303 46.804303 46.804303 46.804303 46.804303 46.804303 46.804303 0.000000 0.000000 0.000000 0.000000 0.000000 0.000000 0.000000 0.000000 32.999002 32.999002 32.999002 32.999002 32.999002 32.999002 32.999002 32.999002 32.999002 0.000000 0.000000 0.000000 0.000000 0.000000 0.000000 0.000000 0.000000 0.000000 0.000000 0.000000 0.000000 0.000000 0.000000 0.000000 0.000000 0.000000 0.000000 0.000000 0.000000 0.000000 0.000000 0.000000 0.000000 0.000000 0.000000 0.000000 0.000000 0.000000 0.000000 0.000000 0.000000 0.000000 0.000000 0.000000 0.000000 0.000000
0.000000 0.000000 0.000000 0.000000 0.000000 0.000000 0.000000 0.000000 0.000000 0.000000 0.000000 28.932573 28.932573 28.932573 28.932573 28.932573 28.932573 28.932573 28.932573 28.932573 28.932573 0.000000 0.000000 9.284069 9.284069 9.284069 9.284069 9.284069 0.000000 0.000000 0.000000 0.000000 0.000000 0.000000 0.000000 0.000000 0.000000 46.804303 46.804303 46.804303 46.804303 46.804303 46.804303 46.804303 46.804303 46.804303 46.804303 46.804303 46.804303 0.000000 0.000000 0.000000 0.000000 0.000000 0.000000 0.000000 0.000000 32.999002 32.999002 32.999002 32.999002 32.999002 32.999002 32.999002 32.999002 32.999002 0.000000 0.000000 0.000000 0.000000 0.000000 0.000000 0.000000 0.000000 0.000000 0.000000 0.000000 0.000000 0.000000 0.000000 0.000000 0.000000 0.000000 0.000000 0.000000 0.000000 0.000000 0.000000 0.000000 0.000000 0.000000 0.000000 0.000000 0.000000 0.000000 0.000000 0.000000 0.000000 0.000000 0.000000 0.000000 0.000000 0.000000
0.000000 0.000000 0.000000 0.000000 0.000000 0.000000 0.000000 0.000000 0.000000 0.000000 0.000000 28.932573 28.932573 28.932573 28.932573 28.932573 28.932573 28.932573 28.932573 28.932573 28.932573 0.000000 0.000000 9.284069 9.284069 9.284069 9.284069 9.284069 0.000000 0.000000 0.000000 0.000000 0.000000 0.000000 0.000000 0.000000 0.000000 46.804303 46.804303 46.804303 46.804303 46.804303 46.804303 46.804303 46.804303 46.804303 46.804303 46.804303 46.804303 0.000000 0.000000 0.000000 0.000000 0.000000 0.000000 0.000000 0.000000 32.999002 32.999002 32.999002 32.999002 32.999002 32.999002 32.999002 32.999002 32.999002 0.000000 0.000000 0.000000 0.000000 0.000000 0.000000 0.000000 0.000000 0.000000 0.000000 0.000000 0.000000 0.000000 0.000000 0.000000 0.000000 0.000000 0.000000 0.000000 0.000000 0.000000 0.000000 0.000000 0.000000 0.000000 0.000000 0.000000 0.000000 0.000000 0.000000 0.000000 0.000000 0.000000 0.000000 0.000000 0.000000 0.000000
0.000000 0.000000 0.000000 0.000000 0.000000 0.000000 0.000000 0.000000 0.000000 0.000000 0.000000 28.932573 28.932573 28.932573 28.932573 28.932573 28.932573 28.932573 28.932573 28.932573 28.932573 0.000000 0.000000 9.284069 9.284069 9.284069 9.284069 9.284069 0.000000 0.000000 0.000000 0.000000 0.000000 0.000000 0.000000 0.000000 0.000000 46.804303 46.804303 46.804303 46.804303 46.804303 46.804303 46.804303 46.804303 46.804303 46.804303 46.804303 46.804303 0.000000 0.000000 0.000000 0.000000 0.000000 0.000000 0.000000 0.000000 32.999002 32.999002 32.999002 32.999002 32.999002 32.999002 32.999002 32.999002 32.999002 0.000000 0.000000 0.000000 0.000000 0.000000 0.000000 0.000000 0.000000 0.000000 0.000000 0.000000 0.000000 0.000000 0.000000 0.000000 0.000000 0.000000 0.000000 0.000000 0.000000 0.000000 0.000000 0.000000 0.000000 0.000000 0.000000 0.000000 0.000000 0.000000 0.000000 0.000000 0.000000 0.000000 0.000000 0.000000 0.000000 0.000000
0.000000 0.000000 0.000000 0.000000 0.000000 0.000000 0.000000 0.000000 0.000000 0.000000 0.000000 28.932573 28.932573 28.932573 28.932573 28.932573 28.932573 28.932573 28.932573 28.932573 28.932573 0.000000 0.000000 0.000000 0.000000 0.000000 0.000000 0.000000 0.000000 0.000000 0.000000 0.000000 0.000000 0.000000 0.000000 0.000000 0.000000 46.804303 46.804303 46.804303 46.804303 46.804303 46.804303 46.804303 46.804303 46.804303 46.804303 46.804303 46.804303 0.000000 0.000000 0.000000 0.000000 0.000000 0.000000 0.000000 0.000000 32.999002 32.999002 32.999002 32.999002 32.999002 32.999002 32.999002 32.999002 32.999002 0.000000 0.000000 0.000000 0.000000 0.000000 0.000000 0.000000 0.000000 0.000000 0.000000 0.000000 0.000000 0.000000 0.000000 0.000000 0.000000 0.000000 0.000000 0.000000 0.000000 0.000000 0.000000 0.000000 0.000000 0.000000 0.000000 0.000000 0.000000 0.000000 0.000000 0.000000 0.000000 0.000000 0.000000 0.000000 0.000000 0.000000
0.000000 0.000000 0.000000 0.000000 0.000000 0.000000 0.000000 0.000000 0.000000 0.000000 0.000000 20.809565 20.809565 20.809565 20.809565 20.809565 20.809565 20.809565 20.809565 20.809565 20.809565 17.378769 17.378769 17.378769 17.378769 17.378769 17.378769 17.378769 17.378769 17.378769 0.000000 0.000000 0.000000 0.000000 0.000000 0.000000 0.000000 46.804303 46.804303 46.804303 46.804303 46.804303 46.804303 46.804303 46.804303 46.804303 46.804303 46.804303 46.804303 0.000000 0.000000 0.000000 0.000000 0.000000 0.000000 0.000000 0.000000 32.999002 32.999002 32.999002 32.999002 32.999002 32.999002 32.999002 32.999002 32.999002 0.000000 0.000000 0.000000 0.000000 0.000000 0.000000 0.000000 0.000000 0.000000 0.000000 0.000000 0.000000 0.000000 0.000000 0.000000 0.000000 0.000000 0.000000 0.000000 0.000000 0.000000 0.000000 0.000000 0.000000 0.000000 0.000000 0.000000 0.000000 0.000000 0.000000 0.000000 0.000000 0.000000 0.000000 0.000000 0.000000 0.000000
0.000000 0.000000 0.000000 0.000000 0.000000 0.000000 0.000000 0.000000 0.000000 0.000000 0.000000 20.809565 20.809565 20.809565 20.809565 20.809565 20.809565 20.809565 20.809565 20.809565 20.809565 17.378769 17.378769 17.378769 17.378769 17.378769 17.378769 17.378769 17.378769 17.378769 0.000000 0.000000 0.000000 0.000000 0.000000 0.000000 0.000000 46.804303 46.804303 46.804303 46.804303 46.804303 46.804303 46.804303 46.804303 46.804303 46.804303 46.804303 46.804303 0.000000 0.000000 0.000000 0.000000 0.000000 0.000000 0.000000 0.000000 32.999002 32.999002 32.999002 32.999002 32.999002 32.999002 32.999002 32.999002 32.999002 0.000000 0.000000 0.000000 0.000000 0.000000 0.000000 0.000000 0.000000 0.000000 0.000000 0.000000 0.000000 0.000000 0.000000 0.000000 0.000000 0.000000 0.000000 0.000000 0.000000 0.000000 0.000000 0.000000 0.000000 0.000000 0.000000 0.000000 0.000000 0.000000 0.000000 0.000000 0.000000 0.000000 0.000000 0.000000 0.000000 0.000000
0.000000 0.000000 0.000000 0.000000 0.000000 0.000000 2.895540 2.895540 2.895540 0.000000 0.000000 20.809565 20.809565 20.809565 20.809565 20.809565 20.809565 20.809565 20.809565 20.809565 20.809565 17.378769 17.378769 17.378769 17.378769 17.378769 17.378769 17.378769 17.378769 17.378769 0.000000 0.000000 0.000000 0.000000 0.000000 0.000000 0.000000 46.804303 46.804303 46.804303 46.804303 46.804303 46.804303 46.804303 46.804303 46.804303 46.804303 46.804303 46.804303 0.000000 0.000000 0.000000 0.000000 0.000000 0.000000 0.000000 0.000000 32.999002 32.999002 32.999002 32.999002 32.999002 32.999002 32.999002 32.999002 32.999002 0.000000 0.000000 0.000000 0.000000 0.000000 0.000000 0.000000 0.000000 0.000000 0.000000 0.000000 0.000000 0.000000 0.000000 0.000000 0.000000 0.000000 0.000000 0.000000 0.000000 0.000000 0.000000 0.000000 0.000000 0.000000 0.000000 0.000000 0.000000 0.000000 0.000000 0.000000 0.000000 0.000000 0.000000 0.000000 0.000000 0.000000
0.000000 0.000000 0.000000 0.000000 0.000000 0.000000 2.895540 2.895540 2.895540 0.000000 0.000000 20.809565 20.809565 20.809565 20.809565 20.809565 20.809565 20.809565 20.809565 20.809565 20.809565 17.378769 17.378769 17.378769 17.378769 17.378769 17.378769 17.378769 17.378769 17.378769 0.000000 0.000000 0.000000 0.000000 0.000000 0.000000 0.000000 46.804303 46.804303 46.804303 46.804303 46.804303 46.804303 46.804303 46.804303 46.804303 46.804303 46.804303 46.804303 0.000000 0.000000 0.000000 0.000000 0.000000 0.000000 0.000000 0.000000 32.999002 32.999002 32.999002 32.999002 32.999002 32.999002 32.999002 32.999002 32.999002 0.000000 0.000000 0.000000 0.000000 0.000000 0.000000 0.000000 0.000000 0.000000 0.000000 0.000000 0.000000 0.000000 0.000000 0.000000 0.000000 0.000000 0.000000 0.000000 0.000000 0.000000 0.000000 0.000000 0.000000 0.000000 0.000000 0.000000 0.000000 0.000000 0.000000 0.000000 0.000000 0.000000 0.000000 0.000000 0.000000 0.000000
0.000000 0.000000 0.000000 0.000000 0.000000 0.000000 2.895540 2.895540 2.895540 0.000000 0.000000 20.809565 20.809565 20.809565 20.809565 20.809565 20.809565 20.809565 20.809565 20.809565 20.809565 17.378769 17.378769 17.378769 17.378769 17.378769 17.378769 17.378769 17.378769 17.378769 0.000000 0.000000 0.000000 0.000000 0.000000 0.000000 0.000000 46.804303 46.804303 46.804303 46.804303 46.804303 46.804303 46.804303 46.804303 46.804303 46.804303 46.804303 46.804303 0.000000 0.000000 0.000000 0.000000 0.000000 0.000000 0.000000 0.000000 32.999002 32.999002 32.999002 32.999002 32.999002 32.999002 32.999002 32.999002 32.999002 0.000000 0.000000 0.000000 0.000000 0.000000 0.000000 0.000000 0.000000 0.000000 0.000000 0.000000 0.000000 0.000000 0.000000 0.000000 0.000000 0.000000 0.000000 0.000000 0.000000 0.000000 0.000000 0.000000 0.000000 0.000000 0.000000 0.000000 0.000000 0.000000 0.000000 0.000000 0.000000 0.000000 0.000000 0.000000 0.000000 0.000000
0.000000 0.000000 0.000000 0.000000 0.000000 0.000000 2.895540 2.895540 2.895540 0.000000 0.000000 20.809565 20.809565 20.809565 20.809565 20.809565 20.809565 20.809565 20.809565 20.809565 20.809565 17.378769 17.378769 17.378769 17.378769 17.378769 17.378769 17.378769 17.378769 17.378769 0.000000 0.000000 0.000000 0.000000 0.000000 0.000000 0.000000 46.804303 46.804303 46.804303 46.804303 46.804303 46.804303 46.804303 46.804303 46.804303 46.804303 46.804303 46.804303 0.000000 0.000000 0.000000 0.000000 0.000000 0.000000 0.000000 0.000000 32.999002 32.999002 32.999002 32.999002 32.999002 32.999002 32.999002 32.999002 32.999002 0.000000 0.000000 0.000000 0.000000 0.000000 0.000000 0.000000 0.000000 0.000000 0.000000 0.000000 0.000000 0.000000 0.000000 0.000000 0.000000 0.000000 0.000000 0.000000 0.000000 0.000000 0.000000 0.000000 0.000000 0.000000 0.000000 0.000000 0.000000 0.000000 0.000000 0.000000 0.000000 0.000000 0.000000 0.000000 0.000000 0.000000
0.000000 0.000000 0.000000 0.000000 0.000000 0.000000 2.895540 2.895540 2.895540 0.000000 0.000000 20.809565 20.809565 20.809565 20.809565 20.809565 20.809565 20.809565 20.809565 20.809565 20.809565 17.378769 17.378769 17.378769 17.378769 17.378769 17.378769 17.378769 17.378769 17.378769 0.000000 0.000000 0.000000 0.000000 0.000000 0.000000 0.000000 46.804303 46.804303 46.804303 46.804303 46.804303 46.804303 46.804303 46.804303 46.804303 46.804303 46.804303 46.804303 0.000000 0.000000 0.000000 0.000000 0.000000 0.000000 0.000000 0.000000 32.999002 32.999002 32.999002 32.999002 32.999002 32.999002 32.999002 32.999002 32.999002 0.000000 0.000000 0.000000 0.000000 0.000000 0.000000 0.000000 0.000000 0.000000 0.000000 0.000000 0.000000 0.000000 0.000000 0.000000 0.000000 0.000000 0.000000 0.000000 0.000000 0.000000 0.000000 0.000000 0.000000 0.000000 0.000000 0.000000 0.000000 0.000000 0.000000 0.000000 0.000000 0.000000 0.000000 0.000000 0.000000 0.000000
0.000000 0.000000 0.000000 0.000000 0.000000 0.000000 0.000000 0.000000 0.000000 0.000000 0.000000 20.809565 20.809565 20.809565 20.809565 20.809565 20.809565 20.809565 20.809565 20.809565 20.809565 17.378769 17.378769 17.378769 17.378769 17.378769 17.378769 17.378769 17.378769 17.378769 0.000000 0.000000 0.000000 0.000000 0.000000 0.000000 0.000000 0.000000 0.000000 0.000000 0.000000 0.000000 0.000000 0.000000 0.000000 0.000000 0.000000 0.000000 0.000000 0.000000 0.000000 0.000000 0.000000 0.000000 0.000000 0.000000 0.000000 0.000000 0.000000 0.000000 0.000000 0.000000 0.000000 0.000000 0.000000 0.000000 0.000000 0.000000 0.000000 0.000000 0.000000 0.000000 0.000000 0.000000 0.000000 0.000000 0.000000 0.000000 0.000000 0.000000 0.000000 0.000000 0.000000 0.000000 0.000000 0.000000 0.000000 0.000000 0.000000 0.000000 0.000000 0.000000 0.000000 0.000000 0.000000 0.000000 0.000000 0.000000 0.000000 0.000000 0.000000 0.000000 0.000000
0.000000 0.000000 0.000000 0.000000 0.000000 0.000000 0.000000 0.000000 0.000000 0.000000 0.000000 20.809565 20.809565 20.809565 20.809565 20.809565 20.809565 20.809565 20.809565 20.809565 20.809565 17.378769 17.378769 17.378769 17.378769 17.378769 17.378769 17.378769 17.378769 17.378769 0.000000 0.000000 0.000000 0.000000 0.000000 0.000000 0.000000 0.000000 0.000000 0.000000 0.000000 0.000000 0.000000 0.000000 0.000000 0.000000 0.000000 0.000000 0.000000 0.000000 0.000000 0.000000 0.000000 0.000000 0.000000 0.000000 0.000000 0.000000 0.000000 0.000000 0.000000 0.000000 0.000000 0.000000 0.000000 0.000000 0.000000 0.000000 0.000000 0.000000 0.000000 0.000000 0.000000 0.000000 0.000000 0.000000 0.000000 0.000000 0.000000 0.000000 0.000000 0.000000 0.000000 0.000000 0.000000 0.000000 0.000000 0.000000 0.000000 0.000000 0.000000 0.000000 0.000000 0.000000 0.000000 0.000000 0.000000 0.000000 0.000000 0.000000 0.000000 0.000000 0.000000
0.000000 0.000000 0.000000 0.000000 0.000000 0.000000 0.000000 0.000000 0.000000 0.000000 0.000000 0.000000 0.000000 0.000000 0.000000 0.000000 0.000000 0.000000 0.000000 0.000000 0.000000 0.000000 0.000000 0.000000 0.000000 0.000000 0.000000 0.000000 0.000000 0.000000 0.000000 0.000000 0.000000 0.000000 0.000000 0.000000 0.000000 0.000000 0.000000 0.000000 0.000000 0.000000 0.000000 0.000000 0.000000 0.000000 0.000000 0.000000 0.000000 0.000000 0.000000 0.000000 0.000000 0.000000 0.000000 0.000000 0.000000 0.000000 0.000000 0.000000 0.000000 0.000000 0.000000 0.000000 0.000000 0.000000 0.000000 0.000000 0.000000 0.000000 0.000000 0.000000 0.000000 0.000000 0.000000 0.000000 0.000000 0.000000 0.000000 0.000000 0.000000 0.000000 0.000000 0.000000 0.000000 0.000000 0.000000 0.000000 0.000000 0.000000 0.000000 0.000000 0.000000 0.000000 0.000000 0.000000 0.000000 0.000000 0.000000 0.000000 0.000000 0.000000 0.000000
0.000000 0.000000 0.000000 0.000000 0.000000 0.000000 0.000000 0.000000 0.000000 0.000000 0.000000 0.000000 0.000000 0.000000 0.000000 0.000000 0.000000 0.000000 0.000000 0.000000 0.000000 0.000000 0.000000 0.000000 0.000000 0.000000 0.000000 0.000000 0.000000 0.000000 0.000000 0.000000 0.000000 0.000000 0.000000 0.000000 0.000000 0.000000 0.000000 0.000000 0.000000 0.000000 0.000000 0.000000 0.000000 0.000000 0.000000 0.000000 0.000000 0.000000 0.000000 0.000000 0.000000 0.000000 0.000000 0.000000 0.000000 0.000000 0.000000 0.000000 0.000000 0.000000 0.000000 0.000000 0.000000 0.000000 0.000000 0.000000 0.000000 0.000000 0.000000 0.000000 0.000000 0.000000 0.000000 0.000000 0.000000 0.000000 0.000000 0.000000 0.000000 0.000000 0.000000 0.000000 0.000000 0.000000 0.000000 0.000000 0.000000 0.000000 0.000000 0.000000 0.000000 0.000000 0.000000 0.000000 0.000000 0.000000 0.000000 0.000000 0.000000 0.000000 0.000000
0.000000 0.000000 0.000000 0.000000 0.000000 0.000000 0.000000 0.000000 0.000000 0.000000 0.000000 0.000000 0.000000 0.000000 0.000000 0.000000 0.000000 0.000000 0.000000 0.000000 0.000000 0.000000 0.000000 0.000000 0.000000 0.000000 0.000000 0.000000 0.000000 0.000000 0.000000 0.000000 0.000000 0.000000 0.000000 0.000000 0.000000 0.000000 0.000000 0.000000 0.000000 0.000000 0.000000 0.000000 0.000000 0.000000 0.000000 0.000000 0.000000 0.000000 0.000000 0.000000 0.000000 0.000000 0.000000 0.000000 0.000000 0.000000 0.000000 0.000000 0.000000 0.000000 0.000000 0.000000 0.000000 0.000000 0.000000 0.000000 0.000000 0.000000 0.000000 0.000000 0.000000 0.000000 0.000000 0.000000 0.000000 0.000000 0.000000 0.000000 0.000000 0.000000 0.000000 0.000000 0.000000 0.000000 0.000000 0.000000 0.000000 0.000000 0.000000 0.000000 0.000000 0.000000 0.000000 0.000000 0.000000 0.000000 0.000000 0.000000 0.000000 0.000000 0.000000
0.000000 0.000000 0.000000 0.000000 0.000000 0.000000 0.000000 0.000000 0.000000 0.000000 0.000000 0.000000 0.000000 0.000000 0.000000 0.000000 0.000000 0.000000 0.000000 0.000000 0.000000 0.000000 0.000000 0.000000 0.000000 0.000000 0.000000 0.000000 0.000000 0.000000 0.000000 0.000000 0.000000 0.000000 0.000000 0.000000 0.000000 0.000000 0.000000 0.000000 0.000000 0.000000 0.000000 0.000000 0.000000 0.000000 0.000000 0.000000 0.000000 0.000000 0.000000 0.000000 0.000000 0.000000 0.000000 0.000000 0.000000 0.000000 0.000000 0.000000 0.000000 0.000000 0.000000 0.000000 0.000000 0.000000 0.000000 0.000000 0.000000 0.000000 0.000000 0.000000 0.000000 0.000000 0.000000 0.000000 0.000000 0.000000 0.000000 0.000000 0.000000 0.000000 0.000000 0.000000 0.000000 0.000000 0.000000 0.000000 0.000000 0.000000 0.000000 0.000000 0.000000 0.000000 0.000000 0.000000 0.000000 0.000000 0.000000 0.000000 0.000000 0.000000 0.000000
0.000000 0.000000 0.000000 0.000000 0.000000 0.000000 0.000000 0.000000 0.000000 0.000000 0.000000 0.000000 0.000000 0.000000 0.000000 0.000000 0.000000 0.000000 0.000000 0.000000 0.000000 0.000000 0.000000 0.000000 0.000000 0.000000 0.000000 0.000000 0.000000 0.000000 0.000000 0.000000 0.000000 0.000000 0.000000 0.000000 0.000000 0.000000 0.000000 0.000000 0.000000 0.000000 0.000000 0.000000 0.000000 0.000000 0.000000 0.000000 0.000000 0.000000 0.000000 0.000000 0.000000 0.000000 0.000000 0.000000 0.000000 0.000000 0.000000 0.000000 0.000000 0.000000 0.000000 0.000000 0.000000 0.000000 0.000000 0.000000 0.000000 0.000000 0.000000 0.000000 0.000000 0.000000 0.000000 0.000000 0.000000 0.000000 0.000000 0.000000 0.000000 0.000000 0.000000 0.000000 0.000000 0.000000 0.000000 0.000000 0.000000 0.000000 0.000000 0.000000 0.000000 0.000000 0.000000 0.000000 0.000000 0.000000 0.000000 0.000000 0.000000 0.000000 0.000000
0.000000 0.000000 0.000000 0.000000 29.190779 29.190779 29.190779 29.190779 29.190779 29.190779 29.190779 29.190779 29.190779 29.190779 0.000000 0.000000 0.000000 0.000000 0.000000 0.000000 0.000000 0.000000 0.000000 0.000000 0.000000 0.000000 0.000000 0.000000 0.000000 0.000000 0.000000 0.000000 0.000000 0.000000 0.000000 0.000000 0.000000 0.000000 0.000000 0.000000 0.000000 0.000000 0.000000 0.000000 0.000000 0.000000 0.000000 0.000000 0.000000 0.000000 0.000000 0.000000 0.000000 0.000000 0.000000 0.000000 0.000000 0.000000 0.000000 0.000000 0.000000 0.000000 0.000000 0.000000 0.000000 0.000000 0.000000 0.000000 0.000000 0.000000 0.000000 0.000000 0.000000 27.045811 27.045811 27.045811 27.045811 27.045811 27.045811 27.045811 27.045811 27.045811 29.547352 29.547352 29.547352 29.547352 29.547352 29.547352 29.547352 29.547352 29.547352 29.547352 20.791017 20.791017 20.791017 20.791017 20.791017 20.791017 20.791017 0.000000 0.000000 0.000000 0.000000
0.000000 0.000000 0.000000 0.000000 29.190779 29.190779 29.190779 29.190779 29.190779 29.190779 29.190779 29.190779 29.190779 29.190779 0.000000 0.000000 0.000000 0.000000 0.000000 0.000000 0.000000 0.000000 0.000000 0.000000 0.000000 0.000000 0.000000 0.000000 0.000000 0.000000 0.000000 0.000000 0.000000 0.000000 0.000000 0.000000 0.000000 0.000000 0.000000 0.000000 0.000000 0.000000 0.000000 0.000000 0.000000 0.000000 0.000000 0.000000 0.000000 0.000000 0.000000 0.000000 0.000000 0.000000 0.000000 0.000000 0.000000 0.000000 0.000000 0.000000 0.000000 0.000000 0.000000 0.000000 0.000000 0.000000 0.000000 0.000000 0.000000 0.000000 0.000000 0.000000 0.000000 27.045811 27.045811 27.045811 27.045811 27.045811 27.045811 27.045811 27.045811 27.045811 29.547352 29.547352 29.547352 29.547352 29.547352 29.547352 29.547352 29.547352 29.547352 29.547352 20.791017 20.791017 20.791017 20.791017 20.791017 20.791017 20.791017 0.000000 0.000000 0.000000 0.000000
0.000000 0.000000 0.000000 0.000000 29.190779 29.190779 29.190779 29.190779 29.190779 29.190779 29.190779 29.190779 29.190779 29.190779 0.000000 0.000000 0.000000 0.000000 0.000000 0.000000 0.000000 0.000000 0.000000 0.000000 0.000000 0.000000 0.000000 0.000000 0.000000 0.000000 0.000000 0.000000 0.000000 0.000000 0.000000 0.000000 0.000000 0.000000 0.000000 0.000000 0.000000 0.000000 0.000000 0.000000 0.000000 0.000000 0.000000 0.000000 0.000000 0.000000 0.000000 0.000000 0.000000 0.000000 0.000000 0.000000 0.000000 0.000000 0.000000 0.000000 0.000000 0.000000 0.000000 0.000000 0.000000 0.000000 0.000000 0.000000 0.000000 0.000000 0.000000 0.000000 0.000000 27.045811 27.045811 27.045811 27.045811 27.045811 27.045811 27.045811 27.045811 27.045811 29.547352 29.547352 29.547352 29.547352 29.547352 29.547352 29.547352 29.547352 29.547352 29.547352 20.791017 20.791017 20.791017 20.791017 20.791017 20.791017 20.791017 0.000000 0.000000 0.000000 0.000000
0.000000 0.000000 0.000000 0.000000 29.190779 29.190779 29.190779 29.190779 29.190779 29.190779 29.190779 29.190779 29.190779 29.190779 0.000000 0.000000 0.000000 0.000000 0.000000 0.000000 0.000000 0.000000 0.000000 0.000000 0.000000 0.000000 0.000000 0.000000 0.000000 0.000000 0.000000 0.000000 0.000000 0.000000 0.000000 0.000000 0.000000 0.000000 0.000000 0.000000 0.000000 0.000000 0.000000 0.000000 0.000000 0.000000 0.000000 0.000000 0.000000 0.000000 0.000000 0.000000 0.000000 0.000000 0.000000 0.000000 0.000000 0.000000 0.000000 0.000000 0.000000 0.000000 0.000000 0.000000 0.000000 0.000000 0.000000 0.000000 0.000000 0.000000 0.000000 0.000000 0.000000 27.045811 27.045811 27.045811 27.045811 27.045811 27.045811 27.045811 27.045811 27.045811 29.547352 29.547352 29.547352 29.547352 29.547352 29.547352 29.547352 29.547352 29.547352 29.547352 20.791017 20.791017 20.791017 20.791017 20.791017 20.791017 20.791017 0.000000 0.000000 0.000000 0.000000
0.000000 0.000000 0.000000 0.000000 29.190779 29.190779 29.190779 29.190779 29.190779 29.190779 29.190779 29.190779 29.190779 29.190779 0.000000 0.000000 0.000000 0.000000 0.000000 0.000000 0.000000 0.000000 0.000000 0.000000 0.000000 0.000000 0.000000 0.000000 0.000000 0.000000 0.000000 0.000000 0.000000 0.000000 0.000000 0.000000 0.000000 0.000000 0.000000 0.000000 0.000000 0.000000 0.000000 0.000000 0.000000 0.000000 0.000000 0.000000 0.000000 0.000000 0.000000 0.000000 0.000000 0.000000 0.000000 0.000000 0.000000 0.000000 0.000000 0.000000 0.000000 0.000000 0.000000 0.000000 0.000000 0.000000 0.000000 0.000000 0.000000 0.000000 0.000000 0.000000 0.000000 27.045811 27.045811 27.045811 27.045811 27.045811 27.045811 27.045811 27.045811 27.045811 29.547352 29.547352 29.547352 29.547352 29.547352 29.547352 29.547352 29.547352 29.547352 29.547352 20.791017 20.791017 20.791017 20.791017 20.791017 20.791017 20.791017 0.000000 0.000000 0.000000 0.000000
0.000000 0.000000 0.000000 0.000000 29.190779 29.190779 29.190779 29.190779 29.190779 29.190779 29.190779 29.190779 29.190779 29.190779 0.000000 0.000000 0.000000 0.000000 0.000000 0.000000 0.000000 0.000000 0.000000 0.000000 0.000000 0.000000 0.000000 0.000000 0.000000 0.000000 0.000000 0.000000 0.000000 0.000000 0.000000 0.000000 0.000000 0.000000 0.000000 0.000000 0.000000 0.000000 0.000000 0.000000 0.000000 0.000000 0.000000 0.000000 0.000000 0.000000 0.000000 0.000000 0.000000 0.000000 0.000000 0.000000 0.000000 0.000000 0.000000 0.000000 0.000000 0.000000 0.000000 0.000000 0.000000 0.000000 0.000000 0.000000 0.000000 0.000000 0.000000 0.000000 0.000000 27.045811 27.045811 27.045811 27.045811 27.045811 27.045811 27.045811 27.045811 27.045811 29.547352 29.547352 29.547352 29.547352 29.547352 29.547352 29.547352 29.547352 29.547352 29.547352 20.791017 20.791017 20.791017 20.791017 20.791017 20.791017 20.791017 0.000000 0.000000 0.000000 0.000000
0.000000 0.000000 0.000000 0.000000 29.190779 29.190779 29.190779 29.190779 29.190779 29.190779 29.190779 29.190779 29.190779 29.190779 0.000000 0.000000 0.000000 0.000000 0.000000 0.000000 0.000000 0.000000 0.000000 0.000000 0.000000 0.000000 0.000000 0.000000 0.000000 0.000000 0.000000 0.000000 0.000000 0.000000 0.000000 0.000000 0.000000 0.000000 0.000000 0.000000 0.000000 0.000000 0.000000 0.000000 0.000000 0.000000 0.000000 0.000000 0.000000 0.000000 0.000000 0.000000 0.000000 0.000000 0.000000 0.000000 0.000000 0.000000 0.000000 0.000000 0.000000 0.000000 0.000000 0.000000 0.000000 0.000000 0.000000 0.000000 0.000000 0.000000 0.000000 0.000000 0.000000 27.045811 27.045811 27.045811 27.045811 27.045811 27.045811 27.045811 27.045811 27.045811 29.547352 29.547352 29.547352 29.547352 29.547352 29.547352 29.547352 29.547352 29.547352 29.547352 20.791017 20.791017 20.791017 20.791017 20.791017 20.791017 20.791017 0.000000 0.000000 0.000000 0.000000
0.000000 0.000000 0.000000 0.000000 29.190779 29.190779 29.190779 29.190779 29.190779 29.190779 29.190779 29.190779 29.190779 29.190779 0.000000 0.000000 0.000000 0.000000 0.000000 0.000000 0.000000 0.000000 0.000000 0.000000 0.000000 0.000000 0.000000 0.000000 0.000000 0.000000 0.000000 0.000000 0.000000 0.000000 0.000000 0.000000 0.000000 0.000000 0.000000 0.000000 0.000000 0.000000 0.000000 0.000000 0.000000 0.000000 0.000000 0.000000 0.000000 0.000000 0.000000 0.000000 0.000000 0.000000 0.000000 0.000000 0.000000 0.000000 0.000000 0.000000 0.000000 0.000000 0.000000 0.000000 0.000000 0.000000 0.000000 0.000000 0.000000 0.000000 0.000000 0.000000 0.000000 27.045811 27.045811 27.045811 27.045811 27.045811 27.045811 27.045811 27.045811 27.045811 29.547352 29.547352 29.547352 29.547352 29.547352 29.547352 29.547352 29.547352 29.547352 29.547352 20.791017 20.791017 20.791017 20.791017 20.791017 20.791017 20.791017 0.000000 0.000000 0.000000 0.000000
0.000000 0.000000 0.000000 0.000000 29.190779 29.190779 29.190779 29.190779 29.190779 29.190779 29.190779 29.190779 29.190779 29.190779 0.000000 0.000000 0.000000 0.000000 0.000000 0.000000 0.000000 0.000000 0.000000 0.000000 0.000000 0.000000 0.000000 0.000000 0.000000 0.000000 0.000000 0.000000 0.000000 0.000000 0.000000 0.000000 0.000000 0.000000 0.000000 0.000000 0.000000 0.000000 0.000000 0.000000 0.000000 0.000000 0.000000 0.000000 0.000000 0.000000 0.000000 0.000000 0.000000 0.000000 0.000000 0.000000 0.000000 0.000000 0.000000 0.000000 0.000000 0.000000 0.000000 0.000000 0.000000 0.000000 0.000000 0.000000 0.000000 0.000000 0.000000 0.000000 0.000000 27.045811 27.045811 27.045811 27.045811 27.045811 27.045811 27.045811 27.045811 27.045811 29.547352 29.547352 29.547352 29.547352 29.547352 29.547352 29.547352 29.547352 29.547352 29.547352 20.791017 20.791017 20.791017 20.791017 20.791017 20.791017 20.791017 0.000000 0.000000 0.000000 0.000000
0.000000 0.000000 0.000000 0.000000 29.190779 29.190779 29.190779 29.190779 29.190779 29.190779 29.190779 29.190779 29.190779 29.190779 0.000000 0.000000 0.000000 0.000000 0.000000 0.000000 0.000000 0.000000 0.000000 0.000000 0.000000 0.000000 0.000000 0.000000 0.000000 0.000000 0.000000 0.000000 0.000000 0.000000 0.000000 0.000000 0.000000 0.000000 0.000000 0.000000 0.000000 0.000000 0.000000 0.000000 0.000000 0.000000 0.000000 0.000000 0.000000 0.000000 0.000000 0.000000 0.000000 0.000000 0.000000 0.000000 0.000000 0.000000 0.000000 0.000000 0.000000 0.000000 0.000000 0.000000 0.000000 0.000000 0.000000 0.000000 0.000000 0.000000 0.000000 0.000000 0.000000 27.045811 27.045811 27.045811 27.045811 27.045811 27.045811 27.045811 27.045811 27.045811 29.547352 29.547352 29.547352 29.547352 29.547352 29.547352 29.547352 29.547352 29.547352 29.547352 20.791017 20.791017 20.791017 20.791017 20.791017 20.791017 20.791017 0.000000 0.000000 0.000000 0.000000
0.000000 0.000000 0.000000 0.000000 29.190779 29.190779 29.190779 29.190779 29.190779 29.190779 29.190779 29.190779 29.190779 29.190779 0.000000 0.000000 0.000000 0.000000 0.000000 0.000000 0.000000 0.000000 0.000000 0.000000 0.000000 0.000000 0.000000 0.000000 0.000000 0.000000 0.000000 0.000000 0.000000 0.000000 0.000000 0.000000 0.000000 0.000000 0.000000 0.000000 0.000000 0.000000 0.000000 0.000000 0.000000 0.000000 0.000000 0.000000 0.000000 0.000000 0.000000 0.000000 0.000000 0.000000 0.000000 0.000000 0.000000 0.000000 0.000000 0.000000 0.000000 0.000000 0.000000 0.000000 0.000000 0.000000 0.000000 0.000000 0.000000 0.000000 0.000000 0.000000 0.000000 27.045811 27.045811 27.045811 27.045811 27.045811 27.045811 27.045811 27.045811 27.045811 29.547352 29.547352 29.547352 29.547352 29.547352 29.547352 29.547352 29.547352 29.547352 29.547352 20.791017 20.791017 20.791017 20.791017 20.791017 20.791017 20.791017 0.000000 0.000000 0.000000 0.000000
0.000000 0.000000 0.000000 0.000000 29.190779 29.190779 29.190779 29.190779 29.190779 29.190779 29.190779 29.190779 29.190779 29.190779 0.000000 0.000000 0.000000 0.000000 0.000000 0.000000 0.000000 0.000000 0.000000 0.000000 0.000000 0.000000 0.000000 0.000000 0.000000 0.000000 0.000000 0.000000 0.000000 0.000000 0.000000 0.000000 0.000000 0.000000 0.000000 0.000000 0.000000 0.000000 0.000000 0.000000 0.000000 0.000000 0.000000 0.000000 0.000000 0.000000 0.000000 0.000000 0.000000 0.000000 0.000000 0.000000 0.000000 0.000000 0.000000 0.000000 0.000000 0.000000 0.000000 0.000000 0.000000 0.000000 0.000000 0.000000 0.000000 0.000000 0.000000 0.000000 0.000000 27.045811 27.045811 27.045811 27.045811 27.045811 27.045811 27.045811 27.045811 27.045811 29.547352 29.547352 29.547352 29.547352 29.547352 29.547352 29.547352 29.547352 29.547352 29.547352 20.791017 20.791017 20.791017 20.791017 20.791017 20.791017 20.791017 0.000000 0.000000 0.000000 0.000000
0.000000 0.000000 0.000000 0.000000 0.000000 0.000000 0.000000 0.000000 0.000000 0.000000 0.000000 0.000000 0.000000 0.000000 0.000000 0.000000 0.000000 0.000000 0.000000 0.000000 0.000000 0.000000 0.000000 0.000000 0.000000 0.000000 0.000000 0.000000 0.000000 0.000000 0.000000 0.000000 0.000000 0.000000 0.000000 0.000000 0.000000 0.000000 0.000000 0.000000 0.000000 0.000000 0.000000 0.000000 0.000000 0.000000 0.000000 0.000000 0.000000 0.000000 0.000000 0.000000 0.000000 0.000000 0.000000 0.000000 0.000000 0.000000 0.000000 0.000000 0.000000 0.000000 0.000000 0.000000 0.000000 0.000000 0.000000 0.000000 0.000000 0.000000 0.000000 0.000000 0.000000 0.000000 0.000000 0.000000 0.000000 0.000000 0.000000 0.000000 0.000000 0.000000 0.000000 0.000000 0.000000 0.000000 0.000000 0.000000 0.000000 0.000000 0.000000 0.000000 0.000000 0.000000 0.000000 0.000000 0.000000 0.000000 0.000000 0.000000 0.000000 0.000000 0.000000
0.000000 0.000000 0.000000 0.000000 0.000000 0.000000 0.000000 0.000000 0.000000 0.000000 0.000000 0.000000 0.000000 0.000000 0.000000 0.000000 0.000000 0.000000 0.000000 0.000000 0.000000 0.000000 0.000000 0.000000 0.000000 0.000000 0.000000 0.000000 0.000000 0.000000 0.000000 0.000000 0.000000 0.000000 0.000000 0.000000 0.000000 0.000000 0.000000 0.000000 0.000000 0.000000 0.000000 0.000000 0.000000 0.000000 0.000000 0.000000 0.000000 0.000000 0.000000 0.000000 0.000000 0.000000 0.000000 0.000000 0.000000 0.000000 0.000000 0.000000 0.000000 0.000000 0.000000 0.000000 0.000000 0.000000 0.000000 0.000000 0.000000 0.000000 0.000000 0.000000 0.000000 0.000000 0.000000 0.000000 0.000000 0.000000 0.000000 0.000000 0.000000 0.000000 0.000000 0.000000 0.000000 0.000000 0.000000 0.000000 0.000000 0.000000 0.000000 0.000000 0.000000 0.000000 0.000000 0.000000 0.000000 0.000000 0.000000 0.000000 0.000000 0.000000 0.000000
0.000000 0.000000 0.000000 0.000000 0.000000 0.000000 0.000000 0.000000 0.000000 0.000000 0.000000 0.000000 0.000000 0.000000 0.000000 0.000000 0.000000 0.000000 0.000000 0.000000 0.000000 0.000000 0.000000 0.000000 0.000000 0.000000 0.000000 0.000000 0.000000 0.000000 0.000000 0.000000 0.000000 0.000000 0.000000 0.000000 0.000000 0.000000 0.000000 0.000000 0.000000 0.000000 0.000000 0.000000 0.000000 0.000000 0.000000 0.000000 0.000000 0.000000 0.000000 0.000000 0.000000 0.000000 0.000000 0.000000 0.000000 0.000000 0.000000 0.000000 0.000000 0.000000 0.000000 0.000000 0.000000 0.000000 0.000000 0.000000 0.000000 0.000000 0.000000 0.000000 0.000000 0.000000 0.000000 0.000000 0.000000 0.000000 0.000000 0.000000 0.000000 0.000000 0.000000 0.000000 0.000000 0.000000 0.000000 0.000000 0.000000 0.000000 0.000000 0.000000 0.000000 0.000000 0.000000 0.000000 0.000000 0.000000 0.000000 0.000000 0.000000 0.000000 0.000000
0.000000 0.000000 0.000000 0.000000 0.000000 0.000000 0.000000 0.000000 0.000000 0.000000 0.000000 0.000000 0.000000 0.000000 0.000000 0.000000 0.000000 0.000000 0.000000 0.000000 0.000000 0.000000 0.000000 0.000000 0.000000 0.000000 0.000000 0.000000 0.000000 0.000000 0.000000 0.000000 0.000000 0.000000 0.000000 0.000000 0.000000 0.000000 0.000000 0.000000 0.000000 0.000000 0.000000 0.000000 0.000000 0.000000 0.000000 0.000000 0.000000 0.000000 0.000000 0.000000 0.000000 0.000000 0.000000 0.000000 0.000000 0.000000 0.000000 0.000000 0.000000 0.000000 0.000000 0.000000 0.000000 0.000000 0.000000 0.000000 0.000000 0.000000 0.000000 0.000000 0.000000 0.000000 0.000000 0.000000 0.000000 0.000000 0.000000 0.000000 0.000000 0.000000 0.000000 0.000000 0.000000 0.000000 0.000000 0.000000 0.000000 0.000000 0.000000 0.000000 0.000000 0.000000 0.000000 0.000000 0.000000 0.000000 0.000000 0.000000 0.000000 0.000000 0.000000
0.000000 0.000000 0.000000 0.000000 0.000000 0.000000 0.000000 0.000000 0.000000 0.000000 0.000000 0.000000 0.000000 0.000000 0.000000 0.000000 0.000000 0.000000 0.000000 0.000000 0.000000 0.000000 0.000000 0.000000 0.000000 0.000000 0.000000 0.000000 0.000000 0.000000 0.000000 0.000000 0.000000 0.000000 0.000000 0.000000 0.000000 0.000000 0.000000 0.000000 0.000000 0.000000 0.000000 0.000000 0.000000 0.000000 0.000000 0.000000 0.000000 0.000000 0.000000 0.000000 0.000000 0.000000 0.000000 0.000000 0.000000 0.000000 0.000000 0.000000 0.000000 0.000000 0.000000 0.000000 0.000000 0.000000 0.000000 0.000000 0.000000 0.000000 0.000000 0.000000 0.000000 0.000000 0.000000 0.000000 0.000000 0.000000 0.000000 0.000000 0.000000 0.000000 0.000000 0.000000 0.000000 0.000000 0.000000 0.000000 0.000000 0.000000 0.000000 0.000000 0.000000 0.000000 0.000000 0.000000 0.000000 0.000000 0.000000 0.000000 0.000000 0.000000 0.000000
0.000000 0.000000 0.000000 0.000000 0.000000 0.000000 0.000000 0.000000 0.000000 0.000000 0.000000 0.000000 19.341355 19.341355 19.341355 19.341355 19.341355 19.341355 19.341355 25.989295 25.989295 25.989295 25.989295 25.989295 25.989295 25.989295 25.989295 25.989295 25.989295 25.989295 0.000000 0.000000 0.000000 0.000000 0.000000 0.000000 0.000000 0.000000 0.000000 0.000000 0.000000 0.000000 0.000000 0.000000 0.000000 0.000000 0.000000 0.000000 0.000000 0.000000 0.000000 0.000000 0.000000 0.000000 0.000000 32.424922 32.424922 32.424922 32.424922 32.424922 32.424922 32.424922 32.424922 32.424922 32.424922 32.424922 32.424922 32.424922 0.000000 0.000000 0.000000 0.000000 0.000000 0.000000 0.000000 0.000000 0.000000 0.000000 0.000000 0.000000 0.000000 0.000000 0.000000 0.000000 0.000000 0.000000 0.000000 0.000000 0.000000 0.000000 0.000000 0.000000 0.000000 0.000000 0.000000 0.000000 0.000000 0.000000 0.000000 0.000000 0.000000 0.000000 0.000000
0.000000 0.000000 0.000000 0.000000 0.000000 0.000000 0.000000 0.000000 0.000000 0.000000 0.000000 0.000000 19.341355 19.341355 19.341355 19.341355 19.341355 19.341355 19.341355 25.989295 25.989295 25.989295 25.989295 25.989295 25.989295 25.989295 25.989295 25.989295 25.989295 25.989295 0.000000 0.000000 0.000000 0.000000 0.000000 0.000000 0.000000 0.000000 0.000000 0.000000 0.000000 0.000000 0.000000 0.000000 0.000000 0.000000 0.000000 0.000000 0.000000 0.000000 0.000000 0.000000 0.000000 0.000000 0.000000 32.424922 32.424922 32.424922 32.424922 32.424922 32.424922 32.424922 32.424922 32.424922 32.424922 32.424922 32.424922 32.424922 0.000000 0.000000 0.000000 0.000000 0.000000 0.000000 0.000000 0.000000 0.000000 0.000000 0.000000 0.000000 0.000000 0.000000 0.000000 0.000000 0.000000 0.000000 0.000000 0.000000 0.000000 0.000000 0.000000 0.000000 0.000000 0.000000 0.000000 0.000000 0.000000 0.000000 0.000000 0.000000 0.000000 0.000000 0.000000
0.000000 0.000000 0.000000 0.000000 0.000000 0.000000 6.147031 6.147031 6.147031 6.147031 0.000000 0.000000 19.341355 19.341355 19.341355 19.341355 19.341355 19.341355 19.341355 25.989295 25.989295 25.989295 25.989295 25.989295 25.989295 25.989295 25.989295 25.989295 25.989295 25.989295 0.000000 0.000000 0.000000 0.000000 0.000000 0.000000 0.000000 26.355327 26.355327 26.355327 26.355327 26.355327 26.355327 26.355327 26.355327 26.355327 26.355327 26.355327 26.355327 0.000000 0.000000 0.000000 0.000000 0.000000 0.000000 32.424922 32.424922 32.424922 32.424922 32.424922 32.424922 32.424922 32.424922 32.424922 32.424922 32.424922 32.424922 32.424922 0.000000 0.000000 0.000000 0.000000 0.000000 0.000000 0.000000 27.751783 27.751783 27.751783 27.751783 27.751783 27.751783 27.751783 27.751783 27.751783 27.751783 27.751783 0.000000 0.000000 0.000000 19.759944 19.759944 19.759944 19.759944 19.759944 19.759944 19.759944 19.759944 0.000000 0.000000 0.000000 0.000000 0.000000 0.000000
0.000000 0.000000 0.000000 0.000000 0.000000 0.000000 6.147031 6.147031 6.147031 6.147031 0.000000 0.000000 19.341355 19.341355 19.341355 19.341355 19.341355 19.341355 19.341355 25.989295 25.989295 25.989295 25.989295 25.989295 25.989295 25.989295 25.989295 25.989295 25.989295 25.989295 0.000000 0.000000 0.000000 0.000000 0.000000 0.000000 0.000000 26.355327 26.355327 26.355327 26.355327 26.355327 26.355327 26.355327 26.355327 26.355327 26.355327 26.355327 26.355327 0.000000 0.000000 0.000000 0.000000 0.000000 0.000000 32.424922 32.424922 32.424922 32.424922 32.424922 32.424922 32.424922 32.424922 32.424922 32.424922 32.424922 32.424922 32.424922 0.000000 0.000000 0.000000 0.000000 0.000000 0.000000 0.000000 27.751783 27.751783 27.751783 27.751783 27.751783 27.751783 27.751783 27.751783 27.751783 27.751783 27.751783 0.000000 0.000000 0.000000 19.759944 19.759944 19.759944 19.759944 19.759944 19.759944 19.759944 19.759944 0.000000 0.000000 0.000000 0.000000 0.000000 0.000000
0.000000 0.000000 0.000000 0.000000 0.000000 0.000000 6.147031 6.147031 6.147031 6.147031 0.000000 0.000000 19.341355 19.341355 19.341355 19.341355 19.341355 19.341355 19.341355 25.989295 25.989295 25.989295 25.989295 25.989295 25.989295 25.989295 25.989295 25.989295 25.989295 25.989295 0.000000 0.000000 0.000000 0.000000 0.000000 0.000000 0.000000 26.355327 26.355327 26.355327 26.355327 26.355327 26.355327 26.355327 26.355327 26.355327 26.355327 26.355327 26.355327 0.000000 0.000000 0.000000 0.000000 0.000000 0.000000 32.424922 32.424922 32.424922 32.424922 32.424922 32.424922 32.424922 32.424922 32.424922 32.424922 32.424922 32.424922 32.424922 0.000000 0.000000 0.000000 0.000000 0.000000 0.000000 0.000000 27.751783 27.751783 27.751783 27.751783 27.751783 27.751783 27.751783 27.751783 27.751783 27.751783 27.751783 0.000000 0.000000 0.000000 19.759944 19.759944 19.759944 19.759944 19.759944 19.759944 19.759944 19.759944 0.000000 0.000000 0.000000 0.000000 0.000000 0.000000
0.000000 0.000000 0.000000 0.000000 0.000000 0.000000 6.147031 6.147031 6.147031 6.147031 0.000000 0.000000 19.341355 19.341355 19.341355 19.341355 19.341355 19.341355 19.341355 25.989295 25.989295 25.989295 25.989295 25.989295 25.989295 25.989295 25.989295 25.989295 25.989295 25.989295 0.000000 0.000000 0.000000 0.000000 0.000000 0.000000 0.000000 26.355327 26.355327 26.355327 26.355327 26.355327 26.355327 26.355327 26.355327 26.355327 26.355327 26.355327 26.355327 0.000000 0.000000 0.000000 0.000000 0.000000 0.000000 32.424922 32.424922 32.424922 32.424922 32.424922 32.424922 32.424922 32.424922 32.424922 32.424922 32.424922 32.424922 32.424922 0.000000 0.000000 0.000000 0.000000 0.000000 0.000000 0.000000 27.751783 27.751783 27.751783 27.751783 27.751783 27.751783 27.751783 27.751783 27.751783 27.751783 27.751783 0.000000 0.000000 0.000000 19.759944 19.759944 19.759944 19.759944 19.759944 19.759944 19.759944 19.759944 0.000000 0.000000 0.000000 0.000000 0.000000 0.000000
0.000000 0.000000 0.000000 0.000000 0.000000 0.000000 6.147031 6.147031 6.147031 6.147031 0.000000 0.000000 19.341355 19.341355 19.341355 19.341355 19.341355 19.341355 19.341355 25.989295 25.989295 25.989295 25.989295 25.989295 25.989295 25.989295 25.989295 25.989295 25.989295 25.989295 0.000000 0.000000 0.000000 0.000000 0.000000 0.000000 0.000000 26.355327 26.355327 26.355327 26.355327 26.355327 26.355327 26.355327 26.355327 26.355327 26.355327 26.355327 26.355327 0.000000 0.000000 0.000000 0.000000 0.000000 0.000000 32.424922 32.424922 32.424922 32.424922 32.424922 32.424922 32.424922 32.424922 32.424922 32.424922 32.424922 32.424922 32.424922 0.000000 0.000000 0.000000 0.000000 0.000000 0.000000 0.000000 27.751783 27.751783 27.751783 27.751783 27.751783 27.751783 27.751783 27.751783 27.751783 27.751783 27.751783 0.000000 0.000000 0.000000 19.759944 19.759944 19.759944 19.759944 19.759944 19.759944 19.759944 19.759944 0.000000 0.000000 0.000000 0.000000 0.000000 0.000000
0.000000 0.000000 0.000000 0.000000 0.000000 0.000000 6.147031 6.147031 6.147031 6.147031 0.000000 0.000000 19.341355 19.341355 19.341355 19.341355 19.341355 19.341355 19.341355 25.989295 25.989295 25.989295 25.989295 25.989295 25.989295 25.989295 25.989295 25.989295 25.989295 25.989295 0.000000 0.000000 0.000000 0.000000 0.000000 0.000000 0.000000 26.355327 26.355327 26.355327 26.355327 26.355327 26.355327 26.355327 26.355327 26.355327 26.355327 26.355327 26.355327 0.000000 0.000000 0.000000 0.000000 0.000000 0.000000 32.424922 32.424922 32.424922 32.424922 32.424922 32.424922 32.424922 32.424922 32.424922 32.424922 32.424922 32.424922 32.424922 0.000000 0.000000 0.000000 0.000000 0.000000 0.000000 0.000000 27.751783 27.751783 27.751783 27.751783 27.751783 27.751783 27.751783 27.751783 27.751783 27.751783 27.751783 0.000000 0.000000 0.000000 19.759944 19.759944 19.759944 19.759944 19.759944 19.759944 19.759944 19.759944 0.000000 0.000000 0.000000 0.000000 0.000000 0.000000
0.000000 0.000000 0.000000 0.000000 0.000000 0.000000 6.147031 6.147031 6.147031 6.147031 0.000000 0.000000 19.341355 19.341355 19.341355 19.341355 19.341355 19.341355 19.341355 25.989295 25.989295 25.989295 25.989295 25.989295 25.989295 25.989295 25.989295 25.989295 25.989295 25.989295 0.000000 0.000000 0.000000 0.000000 0.000000 0.000000 0.000000 26.355327 26.355327 26.355327 26.355327 26.355327 26.355327 26.355327 26.355327 26.355327 26.355327 26.355327 26.355327 0.000000 0.000000 0.000000 0.000000 0.000000 0.000000 32.424922 32.424922 32.424922 32.424922 32.424922 32.424922 32.424922 32.424922 32.424922 32.424922 32.424922 32.424922 32.424922 0.000000 0.000000 0.000000 0.000000 0.000000 0.000000 0.000000 27.751783 27.751783 27.751783 27.751783 27.751783 27.751783 27.751783 27.751783 27.751783 27.751783 27.751783 0.000000 0.000000 0.000000 19.759944 19.759944 19.759944 19.759944 19.759944 19.759944 19.759944 19.759944 0.000000 0.000000 0.000000 0.000000 0.000000 0.000000
0.000000 0.000000 0.000000 0.000000 0.000000 0.000000 0.000000 0.000000 0.000000 0.000000 0.000000 0.000000 19.341355 19.341355 19.341355 19.341355 19.341355 19.341355 19.341355 25.989295 25.989295 25.989295 25.989295 25.989295 25.989295 25.989295 25.989295 25.989295 25.989295 25.989295 0.000000 0.000000 0.000000 0.000000 0.000000 0.000000 0.000000 26.355327 26.355327 26.355327 26.355327 26.355327 26.355327 26.355327 26.355327 26.355327 26.355327 26.355327 26.355327 0.000000 0.000000 0.000000 0.000000 0.000000 0.000000 32.424922 32.424922 32.424922 32.424922 32.424922 32.424922 32.424922 32.424922 32.424922 32.424922 32.424922 32.424922 32.424922 0.000000 0.000000 0.000000 0.000000 0.000000 0.000000 0.000000 27.751783 27.751783 27.751783 27.751783 27.751783 27.751783 27.751783 27.751783 27.751783 27.751783 27.751783 0.000000 0.000000 0.000000 19.759944 19.759944 19.759944 19.759944 19.759944 19.759944 19.759944 19.759944 0.000000 0.000000 0.000000 0.000000 0.000000 0.000000
0.000000 0.000000 0.000000 0.000000 0.000000 0.000000 0.000000 0.000000 0.000000 0.000000 0.000000 0.000000 19.341355 19.341355 19.341355 19.341355 19.341355 19.341355 19.341355 25.989295 25.989295 25.989295 25.989295 25.989295 25.989295 25.989295 25.989295 25.989295 25.989295 25.989295 0.000000 0.000000 0.000000 0.000000 0.000000 0.000000 0.000000 26.355327 26.355327 26.355327 26.355327 26.355327 26.355327 26.355327 26.355327 26.355327 26.355327 26.355327 26.355327 0.000000 0.000000 0.000000 0.000000 0.000000 0.000000 32.424922 32.424922 32.424922 32.424922 32.424922 32.424922 32.424922 32.424922 32.424922 32.424922 32.424922 32.424922 32.424922 0.000000 0.000000 0.000000 0.000000 0.000000 0.000000 0.000000 27.751783 27.751783 27.751783 27.751783 27.751783 27.751783 27.751783 27.751783 27.751783 27.751783 27.751783 0.000000 0.000000 0.000000 19.759944 19.759944 19.759944 19.759944 19.759944 19.759944 19.759944 19.759944 0.000000 0.000000 0.000000 0.000000 0.000000 0.000000
0.000000 0.000000 0.000000 0.000000 0.000000 0.000000 0.000000 0.000000 0.000000 0.000000 0.000000 0.000000 0.000000 0.000000 0.000000 0.000000 0.000000 0.000000 0.000000 21.205569 21.205569 21.205569 21.205569 21.205569 21.205569 21.205569 21.205569 21.205569 21.205569 21.205569 0.000000 0.000000 0.000000 0.000000 0.000000 0.000000 0.000000 0.000000 0.000000 0.000000 0.000000 0.000000 0.000000 0.000000 0.000000 0.000000 0.000000 0.000000 0.000000 0.000000 0.000000 0.000000 0.000000 0.000000 0.000000 32.806364 32.806364 32.806364 32.806364 32.806364 32.806364 32.806364 32.806364 32.806364 32.806364 32.806364 32.806364 32.806364 0.000000 0.000000 0.000000 0.000000 0.000000 0.000000 0.000000 27.751783 27.751783 27.751783 27.751783 27.751783 27.751783 27.751783 27.751783 27.751783 27.751783 27.751783 0.000000 0.000000 0.000000 19.759944 19.759944 19.759944 19.759944 19.759944 19.759944 19.759944 19.759944 0.000000 0.000000 0.000000 0.000000 0.000000 0.000000
0.000000 0.000000 0.000000 0.000000 0.000000 0.000000 4.391306 4.391306 4.391306 4.391306 0.000000 0.000000 0.000000 0.000000 4.534369 4.534369 4.534369 4.534369 0.000000 21.205569 21.205569 21.205569 21.205569 21.205569 21.205569 21.205569 21.205569 21.205569 21.205569 21.205569 0.000000 0.000000 0.000000 0.000000 0.000000 0.000000 0.000000 0.000000 0.000000 0.000000 0.000000 0.000000 0.000000 0.000000 0.000000 0.000000 0.000000 0.000000 0.000000 0.000000 0.000000 0.000000 0.000000 0.000000 0.000000 32.806364 32.806364 32.806364 32.806364 32.806364 32.806364 32.806364 32.806364 32.806364 32.806364 32.806364 32.806364 32.806364 0.000000 0.000000 0.000000 0.000000 0.000000 0.000000 0.000000 0.000000 0.000000 0.000000 0.000000 0.000000 0.000000 0.000000 0.000000 0.000000 0.000000 0.000000 0.000000 0.000000 0.000000 0.000000 0.000000 0.000000 0.000000 0.000000 0.000000 0.000000 0.000000 0.000000 0.000000 0.000000 0.000000 0.000000 0.000000
0.000000 0.000000 0.000000 0.000000 0.000000 0.000000 4.391306 4.391306 4.391306 4.391306 0.000000 0.000000 0.000000 0.000000 4.534369 4.534369 4.534369 4.534369 0.000000 21.205569 21.205569 21.205569 21.205569 21.205569 21.205569 21.205569 21.205569 21.205569 21.205569 21.205569 0.000000 0.000000 0.000000 0.000000 0.000000 0.000000 0.000000 0.000000 0.000000 0.000000 0.000000 0.000000 0.000000 0.000000 0.000000 0.000000 0.000000 0.000000 0.000000 0.000000 0.000000 0.000000 0.000000 0.000000 0.000000 32.806364 32.806364 32.806364 32.806364 32.806364 32.806364 32.806364 32.806364 32.806364 32.806364 32.806364 32.806364 32.806364 0.000000 0.000000 0.000000 0.000000 0.000000 0.000000 0.000000 0.000000 0.000000 0.000000 0.000000 0.000000 0.000000 0.000000 0.000000 0.000000 0.000000 0.000000 0.000000 0.000000 0.000000 0.000000 0.000000 0.000000 0.000000 0.000000 0.000000 0.000000 0.000000 0.000000 0.000000 0.000000 0.000000 0.000000 0.000000
0.000000 0.000000 0.000000 0.000000 0.000000 0.000000 4.391306 4.391306 4.391306 4.391306 0.000000 0.000000 0.000000 0.000000 4.534369 4.534369 4.534369 4.534369 0.000000 21.205569 21.205569 21.205569 21.205569 21.205569 21.205569 21.205569 21.205569 21.205569 21.205569 21.205569 0.000000 0.000000 0.000000 0.000000 0.000000 0.000000 0.000000 0.000000 0.000000 0.000000 0.000000 0.000000 0.000000 0.000000 0.000000 0.000000 0.000000 0.000000 0.000000 0.000000 0.000000 0.000000 0.000000 0.000000 0.000000 32.806364 32.806364 32.806364 32.806364 32.806364 32.806364 32.806364 32.806364 32.806364 32.806364 32.806364 32.806364 32.806364 0.000000 0.000000 0.000000 0.000000 0.000000 0.000000 0.000000 0.000000 0.000000 0.000000 0.000000 0.000000 0.000000 0.000000 0.000000 0.000000 0.000000 0.000000 0.000000 0.000000 0.000000 0.000000 0.000000 0.000000 0.000000 0.000000 0.000000 0.000000 0.000000 0.000000 0.000000 0.000000 0.000000 0.000000 0.000000
0.000000 0.000000 0.000000 0.000000 0.000000 0.000000 4.391306 4.391306 4.391306 4.391306 0.000000 0.000000 0.000000 0.000000 4.534369 4.534369 4.534369 4.534369 0.000000 21.205569 21.205569 21.205569 21.205569 21.205569 21.205569 21.205569 21.205569 21.205569 21.205569 21.205569 0.000000 0.000000 0.000000 0.000000 0.000000 0.000000 0.000000 0.000000 0.000000 0.000000 0.000000 0.000000 0.000000 0.000000 0.000000 0.000000 0.000000 0.000000 0.000000 0.000000 0.000000 0.000000 0.000000 0.000000 0.000000 32.806364 32.806364 32.806364 32.806364 32.806364 32.806364 32.806364 32.806364 32.806364 32.806364 32.806364 32.806364 32.806364 0.000000 0.000000 0.000000 0.000000 0.000000 0.000000 0.000000 0.000000 0.000000 0.000000 0.000000 0.000000 0.000000 0.000000 0.000000 0.000000 0.000000 0.000000 0.000000 0.000000 0.000000 0.000000 0.000000 0.000000 0.000000 0.000000 0.000000 0.000000 0.000000 0.000000 0.000000 0.000000 0.000000 0.000000 0.000000
0.000000 0.000000 0.000000 0.000000 0.000000 0.000000 4.391306 4.391306 4.391306 4.391306 0.000000 0.000000 0.000000 0.000000 4.534369 4.534369 4.534369 4.534369 0.000000 21.205569 21.205569 21.205569 21.205569 21.205569 21.205569 21.205569 21.205569 21.205569 21.205569 21.205569 0.000000 0.000000 0.000000 0.000000 0.000000 0.000000 0.000000 0.000000 0.000000 0.000000 0.000000 0.000000 0.000000 0.000000 0.000000 0.000000 0.000000 0.000000 0.000000 0.000000 0.000000 0.000000 0.000000 0.000000 0.000000 32.806364 32.806364 32.806364 32.806364 32.806364 32.806364 32.806364 32.806364 32.806364 32.806364 32.806364 32.806364 32.806364 0.000000 0.000000 0.000000 0.000000 0.000000 0.000000 0.000000 29.580245 29.580245 29.580245 29.580245 29.580245 29.580245 29.580245 29.580245 29.580245 29.580245 29.580245 0.000000 0.000000 0.000000 0.000000 0.000000 0.000000 0.000000 0.000000 0.000000 0.000000 0.000000 0.000000 0.000000 0.000000 0.000000 0.000000 0.000000
0.000000 0.000000 0.000000 0.000000 0.000000 0.000000 0.000000 0.000000 0.000000 0.000000 0.000000 0.000000 0.000000 0.000000 0.000000 0.000000 0.000000 0.000000 0.000000 21.205569 21.205569 21.205569 21.205569 21.205569 21.205569 21.205569 21.205569 21.205569 21.205569 21.205569 0.000000 0.000000 0.000000 0.000000 0.000000 0.000000 0.000000 0.000000 0.000000 0.000000 0.000000 0.000000 0.000000 0.000000 0.000000 0.000000 0.000000 0.000000 0.000000 0.000000 0.000000 0.000000 0.000000 0.000000 0.000000 32.806364 32.806364 32.806364 32.806364 32.806364 32.806364 32.806364 32.806364 32.806364 32.806364 32.806364 32.806364 32.806364 0.000000 0.000000 0.000000 0.000000 0.000000 0.000000 0.000000 29.580245 29.580245 29.580245 29.580245 29.580245 29.580245 29.580245 29.580245 29.580245 29.580245 29.580245 0.000000 0.000000 0.000000 0.000000 0.000000 0.000000 0.000000 0.000000 0.000000 0.000000 0.000000 0.000000 0.000000 0.000000 0.000000 0.000000 0.000000
0.000000 0.000000 0.000000 0.000000 0.000000 0.000000 0.000000 0.000000 0.000000 0.000000 0.000000 0.000000 0.000000 0.000000 0.000000 0.000000 0.000000 0.000000 0.000000 21.205569 21.205569 21.205569 21.205569 21.205569 21.205569 21.205569 21.205569 21.205569 21.205569 21.205569 0.000000 0.000000 0.000000 0.000000 0.000000 0.000000 0.000000 0.000000 0.000000 0.000000 0.000000 0.000000 0.000000 0.000000 0.000000 0.000000 0.000000 0.000000 0.000000 0.000000 0.000000 0.000000 0.000000 0.000000 0.000000 32.806364 32.806364 32.806364 32.806364 32.806364 32.806364 32.806364 32.806364 32.806364 32.806364 32.806364 32.806364 32.806364 0.000000 0.000000 0.000000 0.000000 0.000000 0.000000 0.000000 29.580245 29.580245 29.580245 29.580245 29.580245 29.580245 29.580245 29.580245 29.580245 29.580245 29.580245 0.000000 0.000000 0.000000 0.000000 0.000000 0.000000 0.000000 0.000000 0.000000 0.000000 0.000000 0.000000 0.000000 0.000000 0.000000 0.000000 0.000000
0.000000 0.000000 0.000000 0.000000 0.000000 0.000000 0.000000 0.000000 0.000000 0.000000 0.000000 0.000000 17.979501 17.979501 17.979501 17.979501 17.979501 17.979501 17.979501 0.000000 0.000000 0.000000 0.000000 0.000000 0.000000 0.000000 0.000000 0.000000 0.000000 0.000000 0.000000 0.000000 0.000000 0.000000 0.000000 0.000000 0.000000 0.000000 0.000000 0.000000 0.000000 0.000000 0.000000 0.000000 0.000000 0.000000 0.000000 0.000000 0.000000 0.000000 0.000000 0.000000 0.000000 0.000000 0.000000 32.806364 32.806364 32.806364 32.806364 32.806364 32.806364 32.806364 32.806364 32.806364 32.806364 32.806364 32.806364 32.806364 0.000000 0.000000 0.000000 0.000000 0.000000 0.000000 0.000000 29.580245 29.580245 29.580245 29.580245 29.580245 29.580245 29.580245 29.580245 29.580245 29.580245 29.580245 0.000000 0.000000 0.000000 0.000000 0.000000 0.000000 0.000000 0.000000 0.000000 0.000000 0.000000 0.000000 0.000000 0.000000 0.000000 0.000000 0.000000
0.000000 0.000000 0.000000 0.000000 0.000000 0.000000 0.000000 0.000000 0.000000 0.000000 0.000000 0.000000 17.979501 17.979501 17.979501 17.979501 17.979501 17.979501 17.979501 0.000000 0.000000 0.000000 0.000000 0.000000 0.000000 0.000000 0.000000 0.000000 0.000000 0.000000 0.000000 0.000000 0.000000 0.000000 0.000000 0.000000 0.000000 0.000000 0.000000 0.000000 0.000000 0.000000 0.000000 0.000000 0.000000 0.000000 0.000000 0.000000 0.000000 0.000000 0.000000 0.000000 0.000000 0.000000 0.000000 32.806364 32.806364 32.806364 32.806364 32.806364 32.806364 32.806364 32.806364 32.806364 32.806364 32.806364 32.806364 32.806364 0.000000 0.000000 0.000000 0.000000 0.000000 0.000000 0.000000 29.580245 29.580245 29.580245 29.580245 29.580245 29.580245 29.580245 29.580245 29.580245 29.580245 29.580245 0.000000 0.000000 0.000000 0.000000 0.000000 0.000000 0.000000 0.000000 0.000000 0.000000 0.000000 0.000000 0.000000 0.000000 0.000000 0.000000 0.000000
0.000000 0.000000 0.000000 0.000000 0.000000 0.000000 5.475404 5.475404 5.475404 5.475404 0.000000 0.000000 17.979501 17.979501 17.979501 17.979501 17.979501 17.979501 17.979501 0.000000 0.000000 0.000000 0.000000 0.000000 0.000000 0.000000 0.000000 0.000000 0.000000 0.000000 0.000000 0.000000 0.000000 0.000000 0.000000 0.000000 0.000000 0.000000 0.000000 0.000000 0.000000 0.000000 0.000000 0.000000 0.000000 0.000000 0.000000 0.000000 0.000000 0.000000 0.000000 0.000000 0.000000 0.000000 0.000000 32.806364 32.806364 32.806364 32.806364 32.806364 32.806364 32.806364 32.806364 32.806364 32.806364 32.806364 32.806364 32.806364 0.000000 0.000000 0.000000 0.000000 0.000000 0.000000 0.000000 29.580245 29.580245 29.580245 29.580245 29.580245 29.580245 29.580245 29.580245 29.580245 29.580245 29.580245 0.000000 0.000000 0.000000 0.000000 0.000000 0.000000 0.000000 0.000000 0.000000 0.000000 0.000000 0.000000 0.000000 0.000000 0.000000 0.000000 0.000000
0.000000 0.000000 0.000000 0.000000 0.000000 0.000000 5.475404 5.475404 5.475404 5.475404 0.000000 0.000000 17.979501 17.979501 17.979501 17.979501 17.979501 17.979501 17.979501 0.000000 0.000000 0.000000 0.000000 0.000000 0.000000 0.000000 0.000000 0.000000 0.000000 0.000000 0.000000 0.000000 0.000000 0.000000 0.000000 0.000000 0.000000 0.000000 0.000000 0.000000 0.000000 0.000000 0.000000 0.000000 0.000000 0.000000 0.000000 0.000000 0.000000 0.000000 0.000000 0.000000 0.000000 0.000000 0.000000 19.772789 19.772789 19.772789 19.772789 19.772789 19.772789 19.772789 19.772789 19.772789 19.772789 19.772789 19.772789 19.772789 0.000000 0.000000 0.000000 0.000000 0.000000 0.000000 0.000000 29.580245 29.580245 29.580245 29.580245 29.580245 29.580245 29.580245 29.580245 29.580245 29.580245 29.580245 0.000000 0.000000 0.000000 0.000000 0.000000 0.000000 0.000000 0.000000 0.000000 0.000000 0.000000 0.000000 0.000000 0.000000 0.000000 0.000000 0.000000
0.000000 0.000000 0.000000 0.000000 0.000000 0.000000 5.475404 5.475404 5.475404 5.475404 0.000000 0.000000 17.979501 17.979501 17.979501 17.979501 17.979501 17.979501 17.979501 0.000000 0.000000 0.000000 0.000000 0.000000 0.000000 0.000000 0.000000 0.000000 0.000000 0.000000 0.000000 0.000000 0.000000 0.000000 0.000000 0.000000 0.000000 0.000000 0.000000 0.000000 0.000000 0.000000 0.000000 0.000000 0.000000 0.000000 0.000000 0.000000 0.000000 0.000000 0.000000 0.000000 0.000000 0.000000 0.000000 19.772789 19.772789 19.772789 19.772789 19.772789 19.772789 19.772789 19.772789 19.772789 19.772789 19.772789 19.772789 19.772789 0.000000 0.000000 0.000000 0.000000 0.000000 0.000000 0.000000 29.580245 29.580245 29.580245 29.580245 29.580245 29.580245 29.580245 29.580245 29.580245 29.580245 29.580245 0.000000 0.000000 0.000000 0.000000 0.000000 0.000000 0.000000 0.000000 0.000000 0.000000 0.000000 0.000000 0.000000 0.000000 0.000000 0.000000 0.000000
0.000000 0.000000 0.000000 0.000000 0.000000 0.000000 5.475404 5.475404 5.475404 5.475404 0.000000 0.000000 17.979501 17.979501 17.979501 17.979501 17.979501 17.979501 17.979501 0.000000 0.000000 0.000000 0.000000 0.000000 0.000000 0.000000 0.000000 0.000000 0.000000 0.000000 0.000000 0.000000 0.000000 0.000000 0.000000 0.000000 0.000000 0.000000 0.000000 0.000000 0.000000 0.000000 0.000000 0.000000 0.000000 0.000000 0.000000 0.000000 0.000000 0.000000 0.000000 0.000000 0.000000 0.000000 0.000000 19.772789 19.772789 19.772789 19.772789 19.772789 19.772789 19.772789 19.772789 19.772789 19.772789 19.772789 19.772789 19.772789 0.000000 0.000000 0.000000 0.000000 0.000000 0.000000 0.000000 29.580245 29.580245 29.580245 29.580245 29.580245 29.580245 29.580245 29.580245 29.580245 29.580245 29.580245 0.000000 0.000000 0.000000 0.000000 0.000000 0.000000 0.000000 0.000000 0.000000 0.000000 0.000000 0.000000 0.000000 0.000000 0.000000 0.000000 0.000000
0.000000 0.000000 0.000000 0.000000 0.000000 0.000000 5.475404 5.475404 5.475404 5.475404 0.000000 0.000000 17.979501 17.979501 17.979501 17.979501 17.979501 17.979501 17.979501 0.000000 0.000000 0.000000 0.000000 0.000000 0.000000 0.000000 0.000000 0.000000 0.000000 0.000000 0.000000 0.000000 0.000000 0.000000 0.000000 0.000000 0.000000 0.000000 0.000000 0.000000 0.000000 0.000000 0.000000 0.000000 0.000000 0.000000 0.000000 0.000000 0.000000 0.000000 0.000000 0.000000 0.000000 0.000000 0.000000 19.772789 19.772789 19.772789 19.772789 19.772789 19.772789 19.772789 19.772789 19.772789 19.772789 19.772789 19.772789 19.772789 0.000000 0.000000 0.000000 0.000000 0.000000 0.000000 0.000000 29.580245 29.580245 29.580245 29.580245 29.580245 29.580245 29.580245 29.580245 29.580245 29.580245 29.580245 0.000000 0.000000 0.000000 0.000000 0.000000 0.000000 0.000000 0.000000 0.000000 0.000000 0.000000 0.000000 0.000000 0.000000 0.000000 0.000000 0.000000
0.000000 0.000000 0.000000 0.000000 0.000000 0.000000 5.475404 5.475404 5.475404 5.475404 0.000000 0.000000 17.979501 17.979501 17.979501 17.979501 17.979501 17.979501 17.979501 0.000000 0.000000 0.000000 0.000000 0.000000 0.000000 0.000000 0.000000 0.000000 0.000000 0.000000 0.000000 0.000000 0.000000 0.000000 0.000000 0.000000 0.000000 0.000000 0.000000 0.000000 0.000000 0.000000 0.000000 0.000000 0.000000 0.000000 0.000000 0.000000 0.000000 0.000000 0.000000 0.000000 0.000000 0.000000 0.000000 19.772789 19.772789 19.772789 19.772789 19.772789 19.772789 19.772789 19.772789 19.772789 19.772789 19.772789 19.772789 19.772789 0.000000 0.000000 0.000000 0.000000 0.000000 0.000000 0.000000 29.580245 29.580245 29.580245 29.580245 29.580245 29.580245 29.580245 29.580245 29.580245 29.580245 29.580245 0.000000 0.000000 0.000000 0.000000 0.000000 0.000000 0.000000 0.000000 0.000000 0.000000 0.000000 0.000000 0.000000 0.000000 0.000000 0.000000 0.000000
0.000000 0.000000 0.000000 0.000000 0.000000 0.000000 0.000000 0.000000 0.000000 0.000000 0.000000 0.000000 17.979501 17.979501 17.979501 17.979501 17.979501 17.979501 17.979501 0.000000 0.000000 0.000000 0.000000 0.000000 0.000000 0.000000 0.000000 0.000000 0.000000 0.000000 0.000000 0.000000 0.000000 0.000000 0.000000 0.000000 0.000000 0.000000 0.000000 0.000000 0.000000 0.000000 0.000000 0.000000 0.000000 0.000000 0.000000 0.000000 0.000000 0.000000 0.000000 0.000000 0.000000 0.000000 0.000000 19.772789 19.772789 19.772789 19.772789 19.772789 19.772789 19.772789 19.772789 19.772789 19.772789 19.772789 19.772789 19.772789 0.000000 0.000000 0.000000 0.000000 0.000000 0.000000 0.000000 0.000000 0.000000 0.000000 0.000000 0.000000 0.000000 0.000000 0.000000 0.000000 0.000000 0.000000 0.000000 0.000000 0.000000 0.000000 0.000000 0.000000 0.000000 0.000000 0.000000 0.000000 0.000000 0.000000 0.000000 0.000000 0.000000 0.000000 0.000000
0.000000 0.000000 0.000000 0.000000 0.000000 0.000000 0.000000 0.000000 0.000000 0.000000 0.000000 0.000000 17.979501 17.979501 17.979501 17.979501 17.979501 17.979501 17.979501 0.000000 0.000000 0.000000 0.000000 0.000000 0.000000 0.000000 0.000000 0.000000 0.000000 0.000000 0.000000 0.000000 0.000000 0.000000 0.000000 0.000000 0.000000 0.000000 0.000000 0.000000 0.000000 0.000000 0.000000 0.000000 0.000000 0.000000 0.000000 0.000000 0.000000 0.000000 0.000000 0.000000 0.000000 0.000000 0.000000 19.772789 19.772789 19.772789 19.772789 19.772789 19.772789 19.772789 19.772789 19.772789 19.772789 19.772789 19.772789 19.772789 0.000000 0.000000 0.000000 0.000000 0.000000 0.000000 0.000000 0.000000 0.000000 0.000000 0.000000 0.000000 0.000000 0.000000 0.000000 0.000000 0.000000 0.000000 0.000000 0.000000 0.000000 0.000000 0.000000 0.000000 0.000000 0.000000 0.000000 0.000000 0.000000 0.000000 0.000000 0.000000 0.000000 0.000000 0.000000
0.000000 0.000000 0.000000 0.000000 0.000000 0.000000 0.000000 0.000000 0.000000 0.000000 0.000000 0.000000 0.000000 0.000000 0.000000 0.000000 0.000000 0.000000 0.000000 0.000000 0.000000 0.000000 0.000000 0.000000 0.000000 0.000000 0.000000 0.000000 0.000000 0.000000 0.000000 0.000000 0.000000 0.000000 0.000000 0.000000 0.000000 0.000000 0.000000 0.000000 0.000000 0.000000 0.000000 0.000000 0.000000 0.000000 0.000000 0.000000 0.000000 0.000000 0.000000 0.000000 0.000000 0.000000 0.000000 0.000000 0.000000 0.000000 0.000000 0.000000 0.000000 0.000000 0.000000 0.000000 0.000000 0.000000 0.000000 0.000000 0.000000 0.000000 0.000000 0.000000 0.000000 0.000000 0.000000 0.000000 0.000000 0.000000 0.000000 0.000000 0.000000 0.000000 0.000000 0.000000 0.000000 0.000000 0.000000 0.000000 0.000000 0.000000 0.000000 0.000000 0.000000 0.000000 0.000000 0.000000 0.000000 0.000000 0.000000 0.000000 0.000000 0.000000 0.000000
0.000000 0.000000 0.000000 0.000000 0.000000 0.000000 0.000000 0.000000 0.000000 0.000000 0.000000 0.000000 0.000000 0.000000 0.000000 0.000000 0.000000 0.000000 0.000000 0.000000 0.000000 0.000000 0.000000 0.000000 0.000000 0.000000 0.000000 0.000000 0.000000 0.000000 0.000000 0.000000 0.000000 0.000000 0.000000 0.000000 0.000000 0.000000 0.000000 0.000000 0.000000 0.000000 0.000000 0.000000 0.000000 0.000000 0.000000 0.000000 0.000000 0.000000 0.000000 0.000000 0.000000 0.000000 0.000000 0.000000 0.000000 0.000000 0.000000 0.000000 0.000000 0.000000 0.000000 0.000000 0.000000 0.000000 0.000000 0.000000 0.000000 0.000000 0.000000 0.000000 0.000000 0.000000 0.000000 0.000000 0.000000 0.000000 0.000000 0.000000 0.000000 0.000000 0.000000 0.000000 0.000000 0.000000 0.000000 0.000000 0.000000 0.000000 0.000000 0.000000 0.000000 0.000000 0.000000 0.000000 0.000000 0.000000 0.000000 0.000000 0.000000 0.000000 0.000000
0.000000 0.000000 0.000000 0.000000 0.000000 0.000000 0.000000 0.000000 0.000000 0.000000 0.000000 0.000000 0.000000 0.000000 0.000000 0.000000 0.000000 0.000000 0.000000 0.000000 0.000000 0.000000 0.000000 0.000000 0.000000 0.000000 0.000000 0.000000 0.000000 0.000000 0.000000 0.000000 0.000000 0.000000 0.000000 0.000000 0.000000 0.000000 0.000000 0.000000 0.000000 0.000000 0.000000 0.000000 0.000000 0.000000 0.000000 0.000000 0.000000 0.000000 0.000000 0.000000 0.000000 0.000000 0.000000 0.000000 0.000000 0.000000 0.000000 0.000000 0.000000 0.000000 0.000000 0.000000 0.000000 0.000000 0.000000 0.000000 0.000000 0.000000 0.000000 0.000000 0.000000 0.000000 0.000000 0.000000 0.000000 0.000000 0.000000 0.000000 0.000000 0.000000 0.000000 0.000000 0.000000 0.000000 0.000000 0.000000 0.000000 0.000000 0.000000 0.000000 0.000000 0.000000 0.000000 0.000000 0.000000 0.000000 0.000000 0.000000 0.000000 0.000000 0.000000
0.000000 0.000000 0.000000 0.000000 0.000000 0.000000 0.000000 0.000000 0.000000 0.000000 0.000000 0.000000 0.000000 0.000000 0.000000 0.000000 0.000000 0.000000 0.000000 0.000000 0.000000 0.000000 0.000000 0.000000 0.000000 0.000000 0.000000 0.000000 0.000000 0.000000 0.000000 0.000000 0.000000 0.000000 0.000000 0.000000 0.000000 0.000000 0.000000 0.000000 0.000000 0.000000 0.000000 0.000000 0.000000 0.000000 0.000000 0.000000 0.000000 0.000000 0.000000 0.000000 0.000000 0.000000 0.000000 0.000000 0.000000 0.000000 0.000000 0.000000 0.000000 0.000000 0.000000 0.000000 0.000000 0.000000 0.000000 0.000000 0.000000 0.000000 0.000000 0.000000 0.000000 0.000000 0.000000 0.000000 0.000000 0.000000 0.000000 0.000000 0.000000 0.000000 0.000000 0.000000 0.000000 0.000000 0.000000 0.000000 0.000000 0.000000 0.000000 0.000000 0.000000 0.000000 0.000000 0.000000 0.000000 0.000000 0.000000 0.000000 0.000000 0.000000 0.000000
0.000000 0.000000 0.000000 0.000000 0.000000 0.000000 0.000000 0.000000 0.000000 0.000000 0.000000 0.000000 0.000000 0.000000 0.000000 0.000000 0.000000 0.000000 0.000000 0.000000 0.000000 0.000000 0.000000 0.000000 0.000000 0.000000 0.000000 0.000000 0.000000 0.000000 0.000000 0.000000 0.000000 0.000000 0.000000 0.000000 0.000000 0.000000 0.000000 0.000000 0.000000 0.000000 0.000000 0.000000 0.000000 0.000000 0.000000 0.000000 0.000000 0.000000 0.000000 0.000000 0.000000 0.000000 0.000000 0.000000 0.000000 0.000000 0.000000 0.000000 0.000000 0.000000 0.000000 0.000000 0.000000 0.000000 0.000000 0.000000 0.000000 0.000000 0.000000 0.000000 0.000000 0.000000 0.000000 0.000000 0.000000 0.000000 0.000000 0.000000 0.000000 0.000000 0.000000 0.000000 0.000000 0.000000 0.000000 0.000000 0.000000 0.000000 0.000000 0.000000 0.000000 0.000000 0.000000 0.000000 0.000000 0.000000 0.000000 0.000000 0.000000 0.000000 0.000000
0.000000 0.000000 0.000000 0.000000 0.000000 0.000000 0.000000 0.000000 0.000000 0.000000 0.000000 0.000000 0.000000 0.000000 0.000000 0.000000 0.000000 0.000000 0.000000 0.000000 0.000000 22.779013 22.779013 22.779013 22.779013 22.779013 22.779013 22.779013 22.779013 22.779013 0.000000 0.000000 0.000000 0.000000 0.000000 0.000000 0.000000 0.000000 0.000000 0.000000 0.000000 0.000000 0.000000 0.000000 0.000000 0.000000 0.000000 0.000000 0.000000 0.000000 0.000000 0.000000 0.000000 0.000000 0.000000 0.000000 0.000000 0.000000 0.000000 0.000000 0.000000 0.000000 0.000000 0.000000 0.000000 0.000000 0.000000 0.000000 0.000000 0.000000 0.000000 0.000000 0.000000 0.000000 0.000000 0.000000 0.000000 0.000000 0.000000 0.000000 0.000000 0.000000 0.000000 0.000000 0.000000 0.000000 0.000000 0.000000 0.000000 0.000000 0.000000 0.000000 0.000000 0.000000 0.000000 0.000000 0.000000 0.000000 0.000000 0.000000 0.000000 0.000000 0.000000
0.000000 0.000000 0.000000 0.000000 0.000000 0.000000 0.000000 0.000000 0.000000 0.000000 0.000000 0.000000 0.000000 0.000000 0.000000 0.000000 0.000000 0.000000 0.000000 0.000000 0.000000 22.779013 22.779013 22.779013 22.779013 22.779013 22.779013 22.779013 22.779013 22.779013 0.000000 0.000000 0.000000 0.000000 0.000000 0.000000 0.000000 0.000000 0.000000 0.000000 0.000000 0.000000 0.000000 0.000000 0.000000 0.000000 0.000000 0.000000 0.000000 0.000000 0.000000 0.000000 0.000000 0.000000 0.000000 0.000000 0.000000 0.000000 0.000000 0.000000 0.000000 0.000000 0.000000 0.000000 0.000000 0.000000 0.000000 0.000000 0.000000 0.000000 0.000000 0.000000 0.000000 0.000000 0.000000 0.000000 0.000000 0.000000 0.000000 0.000000 0.000000 0.000000 0.000000 0.000000 0.000000 0.000000 0.000000 0.000000 0.000000 0.000000 0.000000 0.000000 0.000000 0.000000 0.000000 0.000000 0.000000 0.000000 0.000000 0.000000 0.000000 0.000000 0.000000
0.000000 0.000000 0.000000 0.000000 0.000000 0.000000 5.215276 5.215276 5.215276 0.000000 0.000000 0.000000 0.000000 12.132049 12.132049 12.132049 12.132049 12.132049 12.132049 0.000000 0.000000 22.779013 22.779013 22.779013 22.779013 22.779013 22.779013 22.779013 22.779013 22.779013 0.000000 0.000000 0.000000 0.000000 0.000000 0.000000 0.000000 43.867643 43.867643 43.867643 43.867643 43.867643 43.867643 43.867643 43.867643 43.867643 43.867643 43.867643 43.867643 0.000000 0.000000 0.000000 0.000000 0.000000 0.000000 0.000000 0.000000 0.000000 0.000000 0.000000 0.000000 0.000000 0.000000 0.000000 0.000000 0.000000 0.000000 0.000000 0.000000 0.000000 0.000000 0.000000 0.000000 0.000000 0.000000 3.159199 3.159199 0.000000 0.000000 0.000000 0.000000 0.000000 0.000000 0.000000 0.000000 0.000000 0.000000 0.000000 0.000000 0.000000 0.000000 0.000000 0.000000 0.000000 0.000000 0.000000 0.000000 0.000000 0.000000 0.000000 0.000000 0.000000 0.000000
0.000000 0.000000 0.000000 0.000000 0.000000 0.000000 5.215276 5.215276 5.215276 0.000000 0.000000 0.000000 0.000000 12.132049 12.132049 12.132049 12.132049 12.132049 12.132049 0.000000 0.000000 22.779013 22.779013 22.779013 22.779013 22.779013 22.779013 22.779013 22.779013 22.779013 0.000000 0.000000 0.000000 0.000000 0.000000 0.000000 0.000000 43.867643 43.867643 43.867643 43.867643 43.867643 43.867643 43.867643 43.867643 43.867643 43.867643 43.867643 43.867643 0.000000 0.000000 0.000000 0.000000 0.000000 0.000000 0.000000 0.000000 0.000000 0.000000 0.000000 0.000000 0.000000 0.000000 0.000000 0.000000 0.000000 0.000000 0.000000 0.000000 0.000000 0.000000 0.000000 0.000000 0.000000 0.000000 3.159199 3.159199 0.000000 0.000000 0.000000 0.000000 0.000000 0.000000 0.000000 0.000000 0.000000 0.000000 0.000000 0.000000 0.000000 0.000000 0.000000 0.000000 0.000000 0.000000 0.000000 0.000000 0.000000 0.000000 0.000000 0.000000 0.000000 0.000000
0.000000 0.000000 0.000000 0.000000 0.000000 0.000000 5.215276 5.215276 5.215276 0.000000 0.000000 0.000000 0.000000 12.132049 12.132049 12.132049 12.132049 12.132049 12.132049 0.000000 0.000000 22.779013 22.779013 22.779013 22.779013 22.779013 22.779013 22.779013 22.779013 22.779013 0.000000 0.000000 0.000000 0.000000 0.000000 0.000000 0.000000 43.867643 43.867643 43.867643 43.867643 43.867643 43.867643 43.867643 43.867643 43.867643 43.867643 43.867643 43.867643 0.000000 0.000000 0.000000 0.000000 0.000000 0.000000 0.000000 0.000000 0.000000 0.000000 0.000000 0.000000 0.000000 0.000000 0.000000 0.000000 0.000000 0.000000 0.000000 0.000000 0.000000 0.000000 0.000000 0.000000 0.000000 0.000000 3.159199 3.159199 0.000000 0.000000 0.000000 0.000000 0.000000 0.000000 0.000000 0.000000 0.000000 0.000000 0.000000 0.000000 0.000000 0.000000 0.000000 0.000000 0.000000 0.000000 0.000000 0.000000 0.000000 0.000000 0.000000 0.000000 0.000000 0.000000
0.000000 0.000000 0.000000 0.000000 0.000000 0.000000 5.215276 5.215276 5.215276 0.000000 0.000000 0.000000 0.000000 12.132049 12.132049 12.132049 12.132049 12.132049 12.132049 0.000000 0.000000 22.779013 22.779013 22.779013 22.779013 22.779013 22.779013 22.779013 22.779013 22.779013 0.000000 0.000000 0.000000 0.000000 0.000000 0.000000 0.000000 43.867643 43.867643 43.867643 43.867643 43.867643 43.867643 43.867643 43.867643 43.867643 43.867643 43.867643 43.867643 0.000000 0.000000 0.000000 0.000000 0.000000 0.000000 0.000000 0.000000 0.000000 0.000000 0.000000 0.000000 0.000000 0.000000 0.000000 0.000000 0.000000 0.000000 0.000000 0.000000 0.000000 0.000000 0.000000 0.000000 0.000000 0.000000 3.159199 3.159199 0.000000 0.000000 0.000000 0.000000 0.000000 0.000000 0.000000 0.000000 0.000000 0.000000 0.000000 0.000000 0.000000 0.000000 0.000000 0.000000 0.000000 0.000000 0.000000 0.000000 0.000000 0.000000 0.000000 0.000000 0.000000 0.000000
0.000000 0.000000 0.000000 0.000000 0.000000 0.000000 5.215276 5.215276 5.215276 0.000000 0.000000 0.000000 0.000000 12.132049 12.132049 12.132049 12.132049 12.132049 12.132049 0.000000 0.000000 22.779013 22.779013 22.779013 22.779013 22.779013 22.779013 22.779013 22.779013 22.779013 0.000000 0.000000 0.000000 0.000000 0.000000 0.000000 0.000000 43.867643 43.867643 43.867643 43.867643 43.867643 43.867643 43.867643 43.867643 43.867643 43.867643 43.867643 43.867643 0.000000 0.000000 0.000000 0.000000 0.000000 0.000000 0.000000 0.000000 0.000000 0.000000 0.000000 0.000000 0.000000 0.000000 0.000000 0.000000 0.000000 0.000000 0.000000 0.000000 0.000000 0.000000 0.000000 0.000000 0.000000 0.000000 3.159199 3.159199 0.000000 0.000000 0.000000 0.000000 0.000000 0.000000 0.000000 0.000000 0.000000 0.000000 0.000000 0.000000 0.000000 0.000000 0.000000 0.000000 0.000000 0.000000 0.000000 0.000000 0.000000 0.000000 0.000000 0.000000 0.000000 0.000000
0.000000 0.000000 0.000000 0.000000 0.000000 0.000000 5.215276 5.215276 5.215276 0.000000 0.000000 0.000000 0.000000 12.132049 12.132049 12.132049 12.132049 12.132049 12.132049 0.000000 0.000000 22.779013 22.779013 22.779013 22.779013 22.779013 22.779013 22.779013 22.779013 22.779013 0.000000 0.000000 0.000000 0.000000 0.000000 0.000000 0.000000 43.867643 43.867643 43.867643 43.867643 43.867643 43.867643 43.867643 43.867643 43.867643 43.867643 43.867643 43.867643 0.000000 0.000000 0.000000 0.000000 0.000000 0.000000 0.000000 0.000000 0.000000 0.000000 0.000000 0.000000 0.000000 0.000000 0.000000 0.000000 0.000000 0.000000 0.000000 0.000000 0.000000 0.000000 0.000000 0.000000 0.000000 0.000000 0.000000 0.000000 0.000000 0.000000 0.000000 0.000000 0.000000 0.000000 0.000000 0.000000 0.000000 0.000000 0.000000 0.000000 0.000000 0.000000 0.000000 0.000000 0.000000 0.000000 0.000000 0.000000 0.000000 0.000000 0.000000 0.000000 0.000000 0.000000
0.000000 0.000000 0.000000 0.000000 0.000000 0.000000 5.215276 5.215276 5.215276 0.000000 0.000000 0.000000 0.000000 12.132049 12.132049 12.132049 12.132049 12.132049 12.132049 0.000000 0.000000 22.779013 22.779013 22.779013 22.779013 22.779013 22.779013 22.779013 22.779013 22.779013 0.000000 0.000000 0.000000 0.000000 0.000000 0.000000 0.000000 43.867643 43.867643 43.867643 43.867643 43.867643 43.867643 43.867643 43.867643 43.867643 43.867643 43.867643 43.867643 0.000000 0.000000 0.000000 0.000000 0.000000 0.000000 0.000000 0.000000 0.000000 0.000000 0.000000 0.000000 0.000000 0.000000 0.000000 0.000000 0.000000 0.000000 0.000000 0.000000 0.000000 0.000000 0.000000 0.000000 0.000000 0.000000 0.000000 0.000000 0.000000 0.000000 0.000000 0.000000 0.000000 0.000000 0.000000 0.000000 0.000000 0.000000 0.000000 0.000000 0.000000 0.000000 0.000000 0.000000 0.000000 0.000000 0.000000 0.000000 0.000000 0.000000 0.000000 0.000000 0.000000 0.000000
0.000000 0.000000 0.000000 0.000000 0.000000 0.000000 0.000000 0.000000 0.000000 0.000000 0.000000 0.000000 0.000000 0.000000 0.000000 0.000000 0.000000 0.000000 0.000000 0.000000 0.000000 22.779013 22.779013 22.779013 22.779013 22.779013 22.779013 22.779013 22.779013 22.779013 0.000000 0.000000 0.000000 0.000000 0.000000 0.000000 0.000000 43.867643 43.867643 43.867643 43.867643 43.867643 43.867643 43.867643 43.867643 43.867643 43.867643 43.867643 43.867643 0.000000 0.000000 0.000000 0.000000 0.000000 0.000000 0.000000 0.000000 0.000000 0.000000 0.000000 0.000000 0.000000 0.000000 0.000000 0.000000 0.000000 0.000000 0.000000 0.000000 0.000000 0.000000 0.000000 0.000000 15.727429 15.727429 15.727429 15.727429 15.727429 15.727429 0.000000 0.000000 0.000000 0.000000 0.000000 0.000000 0.000000 0.000000 0.000000 0.000000 0.000000 0.000000 0.000000 0.000000 0.000000 0.000000 0.000000 0.000000 0.000000 0.000000 0.000000 0.000000 0.000000 0.000000
0.000000 0.000000 0.000000 0.000000 0.000000 0.000000 0.000000 0.000000 0.000000 0.000000 0.000000 0.000000 0.000000 0.000000 0.000000 0.000000 0.000000 0.000000 0.000000 0.000000 0.000000 22.779013 22.779013 22.779013 22.779013 22.779013 22.779013 22.779013 22.779013 22.779013 0.000000 0.000000 0.000000 0.000000 0.000000 0.000000 0.000000 43.867643 43.867643 43.867643 43.867643 43.867643 43.867643 43.867643 43.867643 43.867643 43.867643 43.867643 43.867643 0.000000 0.000000 0.000000 0.000000 0.000000 0.000000 0.000000 0.000000 0.000000 0.000000 0.000000 0.000000 0.000000 0.000000 0.000000 0.000000 0.000000 0.000000 0.000000 0.000000 0.000000 0.000000 0.000000 0.000000 15.727429 15.727429 15.727429 15.727429 15.727429 15.727429 0.000000 0.000000 0.000000 0.000000 0.000000 0.000000 0.000000 0.000000 0.000000 0.000000 0.000000 0.000000 0.000000 0.000000 0.000000 0.000000 0.000000 0.000000 0.000000 0.000000 0.000000 0.000000 0.000000 0.000000
0.000000 0.000000 0.000000 0.000000 12.107178 12.107178 12.107178 12.107178 12.107178 12.107178 12.107178 19.067862 19.067862 19.067862 19.067862 19.067862 19.067862 19.067862 19.067862 19.067862 19.067862 15.331549 15.331549 15.331549 15.331549 15.331549 15.331549 15.331549 15.331549 15.331549 0.000000 0.000000 0.000000 0.000000 0.000000 0.000000 0.000000 43.867643 43.867643 43.867643 43.867643 43.867643 43.867643 43.867643 43.867643 43.867643 43.867643 43.867643 43.867643 0.000000 0.000000 0.000000 0.000000 0.000000 0.000000 0.000000 0.000000 0.000000 0.000000 0.000000 0.000000 0.000000 0.000000 0.000000 0.000000 0.000000 0.000000 0.000000 0.000000 0.000000 0.000000 0.000000 0.000000 15.727429 15.727429 15.727429 15.727429 15.727429 15.727429 0.000000 0.000000 0.000000 0.000000 0.000000 0.000000 0.000000 0.000000 0.000000 0.000000 0.000000 0.000000 0.000000 0.000000 0.000000 0.000000 0.000000 0.000000 0.000000 0.000000 0.000000 0.000000 0.000000 0.000000
0.000000 0.000000 0.000000 0.000000 12.107178 12.107178 12.107178 12.107178 12.107178 12.107178 12.107178 19.067862 19.067862 19.067862 19.067862 19.067862 19.067862 19.067862 19.067862 19.067862 19.067862 15.331549 15.331549 15.331549 15.331549 15.331549 15.331549 15.331549 15.331549 15.331549 0.000000 0.000000 0.000000 0.000000 0.000000 0.000000 0.000000 43.867643 43.867643 43.867643 43.867643 43.867643 43.867643 43.867643 43.867643 43.867643 43.867643 43.867643 43.867643 0.000000 0.000000 0.000000 0.000000 0.000000 0.000000 0.000000 0.000000 0.000000 0.000000 0.000000 0.000000 0.000000 0.000000 0.000000 0.000000 0.000000 0.000000 0.000000 0.000000 0.000000 0.000000 0.000000 0.000000 15.727429 15.727429 15.727429 15.727429 15.727429 15.727429 0.000000 0.000000 0.000000 0.000000 0.000000 0.000000 0.000000 0.000000 0.000000 0.000000 0.000000 0.000000 0.000000 0.000000 0.000000 0.000000 0.000000 0.000000 0.000000 0.000000 0.000000 0.000000 0.000000 0.000000
0.000000 0.000000 0.000000 0.000000 12.107178 12.107178 12.107178 12.107178 12.107178 12.107178 12.107178 19.067862 19.067862 19.067862 19.067862 19.067862 19.067862 19.067862 19.067862 19.067862 19.067862 15.331549 15.331549 15.331549 15.331549 15.331549 15.331549 15.331549 15.331549 15.331549 0.000000 0.000000 0.000000 0.000000 0.000000 0.000000 0.000000 43.867643 43.867643 43.867643 43.867643 43.867643 43.867643 43.867643 43.867643 43.867643 43.867643 43.867643 43.867643 0.000000 0.000000 0.000000 0.000000 0.000000 0.000000 0.000000 0.000000 0.000000 0.000000 0.000000 0.000000 0.000000 0.000000 0.000000 0.000000 0.000000 0.000000 0.000000 0.000000 0.000000 0.000000 0.000000 0.000000 15.727429 15.727429 15.727429 15.727429 15.727429 15.727429 0.000000 0.000000 0.000000 0.000000 0.000000 0.000000 0.000000 0.000000 0.000000 0.000000 0.000000 0.000000 0.000000 0.000000 0.000000 0.000000 0.000000 0.000000 0.000000 0.000000 0.000000 0.000000 0.000000 0.000000
0.000000 0.000000 0.000000 0.000000 12.107178 12.107178 12.107178 12.107178 12.107178 12.107178 12.107178 19.067862 19.067862 19.067862 19.067862 19.067862 19.067862 19.067862 19.067862 19.067862 19.067862 15.331549 15.331549 15.331549 15.331549 15.331549 15.331549 15.331549 15.331549 15.331549 0.000000 0.000000 0.000000 0.000000 0.000000 0.000000 0.000000 43.867643 43.867643 43.867643 43.867643 43.867643 43.867643 43.867643 43.867643 43.867643 43.867643 43.867643 43.867643 0.000000 0.000000 0.000000 0.000000 0.000000 0.000000 0.000000 0.000000 0.000000 0.000000 0.000000 0.000000 0.000000 0.000000 0.000000 0.000000 0.000000 0.000000 0.000000 0.000000 0.000000 0.000000 0.000000 0.000000 15.727429 15.727429 15.727429 15.727429 15.727429 15.727429 0.000000 0.000000 0.000000 0.000000 0.000000 0.000000 0.000000 0.000000 0.000000 0.000000 0.000000 0.000000 0.000000 0.000000 0.000000 0.000000 0.000000 0.000000 0.000000 0.000000 0.000000 0.000000 0.000000 0.000000
0.000000 0.000000 0.000000 0.000000 12.107178 12.107178 12.107178 12.107178 12.107178 12.107178 12.107178 19.067862 19.067862 19.067862 19.067862 19.067862 19.067862 19.067862 19.067862 19.067862 19.067862 15.331549 15.331549 15.331549 15.331549 15.331549 15.331549 15.331549 15.331549 15.331549 0.000000 0.000000 0.000000 0.000000 0.000000 0.000000 0.000000 43.867643 43.867643 43.867643 43.867643 43.867643 43.867643 43.867643 43.867643 43.867643 43.867643 43.867643 43.867643 0.000000 0.000000 0.000000 0.000000 0.000000 0.000000 0.000000 0.000000 0.000000 0.000000 0.000000 0.000000 0.000000 0.000000 0.000000 0.000000 0.000000 0.000000 0.000000 0.000000 0.000000 0.000000 0.000000 0.000000 15.727429 15.727429 15.727429 15.727429 15.727429 15.727429 0.000000 0.000000 0.000000 0.000000 0.000000 0.000000 0.000000 0.000000 0.000000 0.000000 0.000000 0.000000 0.000000 0.000000 0.000000 0.000000 0.000000 0.000000 0.000000 0.000000 0.000000 0.000000 0.000000 0.000000
0.000000 0.000000 0.000000 0.000000 12.107178 12.107178 12.107178 12.107178 12.107178 12.107178 12.107178 19.067862 19.067862 19.067862 19.067862 19.067862 19.067862 19.067862 19.067862 19.067862 19.067862 15.331549 15.331549 15.331549 15.331549 15.331549 15.331549 15.331549 15.331549 15.331549 0.000000 0.000000 0.000000 0.000000 0.000000 0.000000 0.000000 43.867643 43.867643 43.867643 43.867643 43.867643 43.867643 43.867643 43.867643 43.867643 43.867643 43.867643 43.867643 0.000000 0.000000 0.000000 0.000000 0.000000 0.000000 0.000000 0.000000 0.000000 0.000000 0.000000 0.000000 0.000000 0.000000 0.000000 0.000000 0.000000 0.000000 0.000000 0.000000 0.000000 0.000000 0.000000 0.000000 15.727429 15.727429 15.727429 15.727429 15.727429 15.727429 0.000000 0.000000 0.000000 0.000000 0.000000 0.000000 0.000000 0.000000 0.000000 0.000000 0.000000 0.000000 0.000000 0.000000 0.000000 0.000000 0.000000 0.000000 0.000000 0.000000 0.000000 0.000000 0.000000 0.000000
0.000000 0.000000 0.000000 0.000000 12.107178 12.107178 12.107178 12.107178 12.107178 12.107178 12.107178 19.067862 19.067862 19.067862 19.067862 19.067862 19.067862 19.067862 19.067862 19.067862 19.067862 15.331549 15.331549 15.331549 15.331549 15.331549 15.331549 15.331549 15.331549 15.331549 0.000000 0.000000 0.000000 0.000000 0.000000 0.000000 0.000000 0.000000 0.000000 0.000000 0.000000 0.000000 0.000000 0.000000 0.000000 0.000000 0.000000 0.000000 0.000000 0.000000 0.000000 0.000000 0.000000 0.000000 0.000000 0.000000 0.000000 0.000000 0.000000 0.000000 0.000000 0.000000 0.000000 0.000000 0.000000 0.000000 0.000000 0.000000 0.000000 0.000000 0.000000 0.000000 0.000000 15.727429 15.727429 15.727429 15.727429 15.727429 15.727429 0.000000 0.000000 0.000000 0.000000 0.000000 0.000000 0.000000 0.000000 0.000000 0.000000 0.000000 0.000000 0.000000 0.000000 0.000000 0.000000 0.000000 0.000000 0.000000 0.000000 0.000000 0.000000 0.000000 0.000000
0.000000 0.000000 0.000000 0.000000 12.107178 12.107178 12.107178 12.107178 12.107178 12.107178 12.107178 19.067862 19.067862 19.067862 19.067862 19.067862 19.067862 19.067862 19.067862 19.067862 19.067862 15.331549 15.331549 15.331549 15.331549 15.331549 15.331549 15.331549 15.331549 15.331549 0.000000 0.000000 0.000000 0.000000 0.000000 0.000000 0.000000 0.000000 0.000000 0.000000 0.000000 0.000000 0.000000 0.000000 0.000000 0.000000 0.000000 0.000000 0.000000 0.000000 0.000000 0.000000 0.000000 0.000000 0.000000 0.000000 0.000000 0.000000 0.000000 0.000000 0.000000 0.000000 0.000000 0.000000 0.000000 0.000000 0.000000 0.000000 0.000000 0.000000 0.000000 0.000000 0.000000 15.727429 15.727429 15.727429 15.727429 15.727429 15.727429 0.000000 0.000000 0.000000 0.000000 0.000000 0.000000 0.000000 0.000000 0.000000 0.000000 0.000000 0.000000 0.000000 0.000000 0.000000 0.000000 0.000000 0.000000 0.000000 0.000000 0.000000 0.000000 0.000000 0.000000
0.000000 0.000000 0.000000 0.000000 0.000000 0.000000 0.000000 0.000000 0.000000 0.000000 0.000000 0.000000 0.000000 0.000000 0.000000 0.000000 0.000000 0.000000 0.000000 0.000000 0.000000 0.000000 0.000000 0.000000 0.000000 0.000000 0.000000 0.000000 0.000000 0.000000 0.000000 0.000000 0.000000 0.000000 0.000000 0.000000 0.000000 0.000000 0.000000 0.000000 0.000000 0.000000 0.000000 0.000000 0.000000 0.000000 0.000000 0.000000 0.000000 0.000000 0.000000 0.000000 0.000000 0.000000 0.000000 0.000000 0.000000 0.000000 0.000000 0.000000 0.000000 0.000000 0.000000 0.000000 0.000000 0.000000 0.000000 0.000000 0.000000 0.000000 0.000000 0.000000 0.000000 0.000000 0.000000 0.000000 0.000000 0.000000 0.000000 0.000000 0.000000 0.000000 0.000000 0.000000 0.000000 0.000000 0.000000 0.000000 0.000000 0.000000 0.000000 0.000000 0.000000 0.000000 0.000000 0.000000 0.000000 0.000000 0.000000 0.000000 0.000000 0.000000 0.000000
0.000000 0.000000 0.000000 0.000000 0.000000 0.000000 0.000000 0.000000 0.000000 0.000000 0.000000 0.000000 0.000000 0.000000 0.000000 0.000000 0.000000 0.000000 0.000000 0.000000 0.000000 0.000000 0.000000 0.000000 0.000000 0.000000 0.000000 0.000000 0.000000 0.000000 0.000000 0.000000 0.000000 0.000000 0.000000 0.000000 0.000000 0.000000 0.000000 0.000000 0.000000 0.000000 0.000000 0.000000 0.000000 0.000000 0.000000 0.000000 0.000000 0.000000 0.000000 0.000000 0.000000 0.000000 0.000000 0.000000 0.000000 0.000000 0.000000 0.000000 0.000000 0.000000 0.000000 0.000000 0.000000 0.000000 0.000000 0.000000 0.000000 0.000000 0.000000 0.000000 0.000000 0.000000 0.000000 0.000000 0.000000 0.000000 0.000000 0.000000 0.000000 0.000000 0.000000 0.000000 0.000000 0.000000 0.000000 0.000000 0.000000 0.000000 0.000000 0.000000 0.000000 0.000000 0.000000 0.000000 0.000000 0.000000 0.000000 0.000000 0.000000 0.000000 0.000000
0.000000 0.000000 0.000000 0.000000 0.000000 0.000000 0.000000 0.000000 0.000000 0.000000 0.000000 0.000000 0.000000 0.000000 0.000000 0.000000 0.000000 0.000000 0.000000 0.000000 0.000000 0.000000 0.000000 0.000000 0.000000 0.000000 0.000000 0.000000 0.000000 0.000000 0.000000 0.000000 0.000000 0.000000 0.000000 0.000000 0.000000 0.000000 0.000000 0.000000 0.000000 0.000000 0.000000 0.000000 0.000000 0.000000 0.000000 0.000000 0.000000 0.000000 0.000000 0.000000 0.000000 0.000000 0.000000 0.000000 0.000000 0.000000 0.000000 0.000000 0.000000 0.000000 0.000000 0.000000 0.000000 0.000000 0.000000 0.000000 0.000000 0.000000 0.000000 0.000000 0.000000 0.000000 0.000000 0.000000 0.000000 0.000000 0.000000 0.000000 0.000000 0.000000 0.000000 0.000000 0.000000 0.000000 0.000000 0.000000 0.000000 0.000000 0.000000 0.000000 0.000000 0.000000 0.000000 0.000000 0.000000 0.000000 0.000000 0.000000 0.000000 0.000000 0.000000
0.000000 0.000000 0.000000 0.000000 0.000000 0.000000 0.000000 0.000000 0.000000 0.000000 0.000000 0.000000 0.000000 0.000000 0.000000 0.000000 0.000000 0.000000 0.000000 0.000000 0.000000 0.000000 0.000000 0.000000 0.000000 0.000000 0.000000 0.000000 0.000000 0.000000 0.000000 0.000000 0.000000 0.000000 0.000000 0.000000 0.000000 0.000000 0.000000 0.000000 0.000000 0.000000 0.000000 0.000000 0.000000 0.000000 0.000000 0.000000 0.000000 0.000000 0.000000 0.000000 0.000000 0.000000 0.000000 0.000000 0.000000 0.000000 0.000000 0.000000 0.000000 0.000000 0.000000 0.000000 0.000000 0.000000 0.000000 0.000000 0.000000 0.000000 0.000000 0.000000 0.000000 0.000000 0.000000 0.000000 0.000000 0.000000 0.000000 0.000000 0.000000 0.000000 0.000000 0.000000 0.000000 0.000000 0.000000 0.000000 0.000000 0.000000 0.000000 0.000000 0.000000 0.000000 0.000000 0.000000 0.000000 0.000000 0.000000 0.000000 0.000000 0.000000 0.000000
