0.000000 0.000000 0.000000 0.000000 0.000000 0.000000 0.000000 0.000000 0.000000 0.000000 0.000000 0.000000 0.000000 0.000000 0.000000 0.000000 0.000000 0.000000 0.000000 0.000000 0.000000 0.000000 0.000000 0.000000 0.000000 0.000000 0.000000 0.000000 0.000000 0.000000 0.000000 0.000000 0.000000 0.000000 0.000000 0.000000 0.000000 0.000000 0.000000 0.000000 0.000000 0.000000 0.000000 0.000000 0.000000 0.000000 0.000000 0.000000 0.000000 0.000000 0.000000 0.000000 0.000000 0.000000 0.000000 0.000000 0.000000 0.000000 0.000000 0.000000 0.000000 0.000000 0.000000 0.000000 0.000000 0.000000 0.000000 0.000000 0.000000 0.000000 0.000000 0.000000 0.000000 0.000000 0.000000 0.000000 0.000000 0.000000 0.000000 0.000000 0.000000 0.000000 0.000000 0.000000 0.000000 0.000000 0.000000 0.000000 0.000000 0.000000 0.000000 0.000000 0.000000 0.000000 0.000000 0.000000 0.000000 0.000000 0.000000 0.000000 0.000000 0.000000 0.000000
0.000000 0.000000 0.000000 0.000000 0.000000 0.000000 0.000000 0.000000 0.000000 0.000000 0.000000 0.000000 0.000000 0.000000 0.000000 0.000000 0.000000 0.000000 0.000000 0.000000 0.000000 0.000000 0.000000 0.000000 0.000000 0.000000 0.000000 0.000000 0.000000 0.000000 0.000000 0.000000 0.000000 0.000000 0.000000 0.000000 0.000000 0.000000 0.000000 0.000000 0.000000 0.000000 0.000000 0.000000 0.000000 0.000000 0.000000 0.000000 0.000000 0.000000 0.000000 0.000000 0.000000 0.000000 0.000000 0.000000 0.000000 0.000000 0.000000 0.000000 0.000000 0.000000 0.000000 0.000000 0.000000 0.000000 0.000000 0.000000 0.000000 0.000000 0.000000 0.000000 0.000000 0.000000 0.000000 0.000000 0.000000 0.000000 0.000000 0.000000 0.000000 0.000000 0.000000 0.000000 0.000000 0.000000 0.000000 0.000000 0.000000 0.000000 0.000000 0.000000 0.000000 0.000000 0.000000 0.000000 0.000000 0.000000 0.000000 0.000000 0.000000 0.000000 0.000000
0.000000 0.000000 0.000000 0.000000 0.000000 0.000000 0.000000 0.000000 0.000000 0.000000 0.000000 0.000000 0.000000 0.000000 0.000000 0.000000 0.000000 0.000000 0.000000 0.000000 0.000000 0.000000 0.000000 0.000000 0.000000 0.000000 0.000000 0.000000 0.000000 0.000000 0.000000 0.000000 0.000000 0.000000 0.000000 0.000000 0.000000 0.000000 0.000000 0.000000 0.000000 0.000000 0.000000 0.000000 0.000000 0.000000 0.000000 0.000000 0.000000 0.000000 0.000000 0.000000 0.000000 0.000000 0.000000 0.000000 0.000000 0.000000 0.000000 0.000000 0.000000 0.000000 0.000000 0.000000 0.000000 0.000000 0.000000 0.000000 0.000000 0.000000 0.000000 0.000000 0.000000 0.000000 0.000000 0.000000 0.000000 0.000000 0.000000 0.000000 0.000000 0.000000 0.000000 0.000000 0.000000 0.000000 0.000000 0.000000 0.000000 0.000000 0.000000 0.000000 0.000000 0.000000 0.000000 0.000000 0.000000 0.000000 0.000000 0.000000 0.000000 0.000000 0.000000
0.000000 0.000000 0.000000 0.000000 0.000000 0.000000 0.000000 0.000000 0.000000 0.000000 0.000000 0.000000 0.000000 0.000000 0.000000 0.000000 0.000000 0.000000 0.000000 0.000000 0.000000 0.000000 0.000000 0.000000 0.000000 0.000000 0.000000 0.000000 0.000000 0.000000 0.000000 0.000000 0.000000 0.000000 0.000000 0.000000 0.000000 0.000000 0.000000 0.000000 0.000000 0.000000 0.000000 0.000000 0.000000 0.000000 0.000000 0.000000 0.000000 0.000000 0.000000 0.000000 0.000000 0.000000 0.000000 0.000000 0.000000 0.000000 0.000000 0.000000 0.000000 0.000000 0.000000 0.000000 0.000000 0.000000 0.000000 0.000000 0.000000 0.000000 0.000000 0.000000 0.000000 0.000000 0.000000 0.000000 0.000000 0.000000 0.000000 0.000000 0.000000 0.000000 0.000000 0.000000 0.000000 0.000000 0.000000 0.000000 0.000000 0.000000 0.000000 0.000000 0.000000 0.000000 0.000000 0.000000 0.000000 0.000000 0.000000 0.000000 0.000000 0.000000 0.000000
0.000000 0.000000 0.000000 0.000000 0.000000 0.000000 0.000000 0.000000 0.000000 0.000000 0.000000 16.884321 16.884321 16.884321 16.884321 16.884321 16.884321 26.815178 26.815178 26.815178 26.815178 26.815178 26.815178 26.815178 26.815178 26.815178 26.815178 26.815178 0.000000 0.000000 0.000000 0.000000 0.000000 0.000000 0.000000 0.000000 0.000000 0.000000 0.000000 0.000000 0.000000 0.000000 0.000000 0.000000 0.000000 0.000000 0.000000 0.000000 0.000000 0.000000 0.000000 17.059697 17.059697 17.059697 17.059697 17.059697 17.059697 17.059697 16.425701 16.425701 16.425701 16.425701 16.425701 16.425701 16.425701 0.000000 0.000000 0.000000 0.000000 0.000000 0.000000 0.000000 0.000000 0.000000 0.000000 0.000000 0.000000 0.000000 0.000000 0.000000 0.000000 0.000000 0.000000 0.000000 0.000000 0.000000 0.000000 0.000000 0.000000 0.000000 0.000000 0.000000 0.000000 0.000000 0.000000 0.000000 0.000000 0.000000 0.000000 0.000000 0.000000 0.000000 0.000000
0.000000 0.000000 0.000000 0.000000 0.000000 0.000000 0.000000 0.000000 0.000000 0.000000 0.000000 16.884321 16.884321 16.884321 16.884321 16.884321 16.884321 26.815178 26.815178 26.815178 26.815178 26.815178 26.815178 26.815178 26.815178 26.815178 26.815178 26.815178 0.000000 0.000000 0.000000 0.000000 0.000000 0.000000 0.000000 0.000000 0.000000 0.000000 0.000000 0.000000 0.000000 0.000000 0.000000 0.000000 0.000000 0.000000 0.000000 0.000000 0.000000 0.000000 0.000000 17.059697 17.059697 17.059697 17.059697 17.059697 17.059697 17.059697 16.425701 16.425701 16.425701 16.425701 16.425701 16.425701 16.425701 0.000000 0.000000 0.000000 0.000000 0.000000 0.000000 0.000000 0.000000 0.000000 0.000000 0.000000 0.000000 0.000000 0.000000 0.000000 0.000000 0.000000 0.000000 0.000000 0.000000 0.000000 0.000000 0.000000 0.000000 0.000000 0.000000 0.000000 0.000000 0.000000 0.000000 0.000000 0.000000 0.000000 0.000000 0.000000 0.000000 0.000000 0.000000
0.000000 0.000000 0.000000 0.000000 0.000000 0.000000 0.000000 0.000000 0.000000 0.000000 0.000000 16.884321 16.884321 16.884321 16.884321 16.884321 16.884321 26.815178 26.815178 26.815178 26.815178 26.815178 26.815178 26.815178 26.815178 26.815178 26.815178 26.815178 0.000000 0.000000 0.000000 0.000000 0.000000 0.000000 0.000000 16.264081 16.264081 16.264081 16.264081 16.264081 16.264081 16.264081 16.264081 16.264081 16.264081 0.000000 0.000000 0.000000 0.000000 0.000000 0.000000 17.059697 17.059697 17.059697 17.059697 17.059697 17.059697 17.059697 16.425701 16.425701 16.425701 16.425701 16.425701 16.425701 16.425701 0.000000 0.000000 0.000000 0.000000 0.000000 0.000000 0.000000 0.000000 0.000000 0.000000 0.000000 0.000000 0.000000 0.000000 12.793815 12.793815 12.793815 12.793815 12.793815 12.793815 12.793815 0.000000 0.000000 0.000000 0.000000 11.911517 11.911517 11.911517 11.911517 11.911517 11.911517 11.911517 0.000000 0.000000 0.000000 0.000000 0.000000 0.000000
0.000000 0.000000 0.000000 0.000000 0.000000 0.000000 0.000000 0.000000 0.000000 0.000000 0.000000 16.884321 16.884321 16.884321 16.884321 16.884321 16.884321 26.815178 26.815178 26.815178 26.815178 26.815178 26.815178 26.815178 26.815178 26.815178 26.815178 26.815178 0.000000 0.000000 0.000000 0.000000 0.000000 0.000000 0.000000 16.264081 16.264081 16.264081 16.264081 16.264081 16.264081 16.264081 16.264081 16.264081 16.264081 0.000000 0.000000 0.000000 0.000000 0.000000 0.000000 17.059697 17.059697 17.059697 17.059697 17.059697 17.059697 17.059697 16.425701 16.425701 16.425701 16.425701 16.425701 16.425701 16.425701 0.000000 0.000000 0.000000 0.000000 0.000000 0.000000 0.000000 0.000000 0.000000 0.000000 0.000000 0.000000 0.000000 0.000000 12.793815 12.793815 12.793815 12.793815 12.793815 12.793815 12.793815 0.000000 0.000000 0.000000 0.000000 11.911517 11.911517 11.911517 11.911517 11.911517 11.911517 11.911517 0.000000 0.000000 0.000000 0.000000 0.000000 0.000000
0.000000 0.000000 0.000000 0.000000 0.000000 0.000000 0.000000 0.000000 0.000000 0.000000 0.000000 16.884321 16.884321 16.884321 16.884321 16.884321 16.884321 26.815178 26.815178 26.815178 26.815178 26.815178 26.815178 26.815178 26.815178 26.815178 26.815178 26.815178 0.000000 0.000000 0.000000 0.000000 0.000000 0.000000 0.000000 16.264081 16.264081 16.264081 16.264081 16.264081 16.264081 16.264081 16.264081 16.264081 16.264081 0.000000 0.000000 0.000000 0.000000 0.000000 0.000000 17.059697 17.059697 17.059697 17.059697 17.059697 17.059697 17.059697 16.425701 16.425701 16.425701 16.425701 16.425701 16.425701 16.425701 0.000000 0.000000 0.000000 0.000000 0.000000 0.000000 0.000000 0.000000 0.000000 0.000000 0.000000 0.000000 0.000000 0.000000 12.793815 12.793815 12.793815 12.793815 12.793815 12.793815 12.793815 0.000000 0.000000 0.000000 0.000000 11.911517 11.911517 11.911517 11.911517 11.911517 11.911517 11.911517 0.000000 0.000000 0.000000 0.000000 0.000000 0.000000
0.000000 0.000000 0.000000 0.000000 0.000000 0.000000 0.000000 0.000000 0.000000 0.000000 0.000000 16.884321 16.884321 16.884321 16.884321 16.884321 16.884321 26.815178 26.815178 26.815178 26.815178 26.815178 26.815178 26.815178 26.815178 26.815178 26.815178 26.815178 0.000000 0.000000 0.000000 0.000000 0.000000 0.000000 0.000000 16.264081 16.264081 16.264081 16.264081 16.264081 16.264081 16.264081 16.264081 16.264081 16.264081 0.000000 0.000000 0.000000 0.000000 0.000000 0.000000 17.059697 17.059697 17.059697 17.059697 17.059697 17.059697 17.059697 16.425701 16.425701 16.425701 16.425701 16.425701 16.425701 16.425701 0.000000 0.000000 0.000000 0.000000 0.000000 0.000000 0.000000 0.000000 0.000000 0.000000 0.000000 0.000000 0.000000 0.000000 12.793815 12.793815 12.793815 12.793815 12.793815 12.793815 12.793815 0.000000 0.000000 0.000000 0.000000 11.911517 11.911517 11.911517 11.911517 11.911517 11.911517 11.911517 0.000000 0.000000 0.000000 0.000000 0.000000 0.000000
0.000000 0.000000 0.000000 0.000000 0.000000 0.000000 0.000000 0.000000 0.000000 0.000000 0.000000 16.884321 16.884321 16.884321 16.884321 16.884321 16.884321 26.815178 26.815178 26.815178 26.815178 26.815178 26.815178 26.815178 26.815178 26.815178 26.815178 26.815178 0.000000 0.000000 0.000000 0.000000 0.000000 0.000000 0.000000 16.264081 16.264081 16.264081 16.264081 16.264081 16.264081 16.264081 16.264081 16.264081 16.264081 0.000000 0.000000 0.000000 0.000000 0.000000 0.000000 17.059697 17.059697 17.059697 17.059697 17.059697 17.059697 17.059697 16.425701 16.425701 16.425701 16.425701 16.425701 16.425701 16.425701 0.000000 0.000000 0.000000 0.000000 0.000000 0.000000 0.000000 0.000000 0.000000 0.000000 0.000000 0.000000 0.000000 0.000000 12.793815 12.793815 12.793815 12.793815 12.793815 12.793815 12.793815 0.000000 0.000000 0.000000 0.000000 11.911517 11.911517 11.911517 11.911517 11.911517 11.911517 11.911517 0.000000 0.000000 0.000000 0.000000 0.000000 0.000000
0.000000 0.000000 0.000000 0.000000 0.000000 0.000000 0.000000 0.000000 0.000000 0.000000 0.000000 16.884321 16.884321 16.884321 16.884321 16.884321 16.884321 26.815178 26.815178 26.815178 26.815178 26.815178 26.815178 26.815178 26.815178 26.815178 26.815178 26.815178 0.000000 0.000000 0.000000 0.000000 0.000000 0.000000 0.000000 16.264081 16.264081 16.264081 16.264081 16.264081 16.264081 16.264081 16.264081 16.264081 16.264081 0.000000 0.000000 0.000000 0.000000 0.000000 0.000000 17.059697 17.059697 17.059697 17.059697 17.059697 17.059697 17.059697 16.425701 16.425701 16.425701 16.425701 16.425701 16.425701 16.425701 0.000000 0.000000 0.000000 0.000000 0.000000 0.000000 0.000000 0.000000 0.000000 0.000000 0.000000 0.000000 0.000000 0.000000 12.793815 12.793815 12.793815 12.793815 12.793815 12.793815 12.793815 0.000000 0.000000 0.000000 0.000000 11.911517 11.911517 11.911517 11.911517 11.911517 11.911517 11.911517 0.000000 0.000000 0.000000 0.000000 0.000000 0.000000
0.000000 0.000000 0.000000 0.000000 0.000000 0.000000 0.000000 0.000000 0.000000 0.000000 0.000000 16.884321 16.884321 16.884321 16.884321 16.884321 16.884321 26.815178 26.815178 26.815178 26.815178 26.815178 26.815178 26.815178 26.815178 26.815178 26.815178 26.815178 0.000000 0.000000 0.000000 0.000000 0.000000 0.000000 0.000000 16.264081 16.264081 16.264081 16.264081 16.264081 16.264081 16.264081 16.264081 16.264081 16.264081 0.000000 0.000000 0.000000 0.000000 0.000000 0.000000 17.059697 17.059697 17.059697 17.059697 17.059697 17.059697 17.059697 16.425701 16.425701 16.425701 16.425701 16.425701 16.425701 16.425701 0.000000 0.000000 0.000000 0.000000 0.000000 0.000000 0.000000 0.000000 0.000000 0.000000 0.000000 0.000000 0.000000 0.000000 12.793815 12.793815 12.793815 12.793815 12.793815 12.793815 12.793815 0.000000 0.000000 0.000000 0.000000 11.911517 11.911517 11.911517 11.911517 11.911517 11.911517 11.911517 0.000000 0.000000 0.000000 0.000000 0.000000 0.000000
0.000000 0.000000 0.000000 0.000000 0.000000 0.000000 0.000000 0.000000 0.000000 0.000000 0.000000 16.884321 16.884321 16.884321 16.884321 16.884321 16.884321 26.815178 26.815178 26.815178 26.815178 26.815178 26.815178 26.815178 26.815178 26.815178 26.815178 26.815178 0.000000 0.000000 0.000000 0.000000 0.000000 0.000000 0.000000 0.000000 0.000000 0.000000 0.000000 0.000000 0.000000 0.000000 0.000000 0.000000 0.000000 0.000000 0.000000 0.000000 0.000000 0.000000 0.000000 17.059697 17.059697 17.059697 17.059697 17.059697 17.059697 17.059697 16.425701 16.425701 16.425701 16.425701 16.425701 16.425701 16.425701 0.000000 0.000000 0.000000 0.000000 0.000000 0.000000 0.000000 0.000000 0.000000 0.000000 0.000000 0.000000 0.000000 0.000000 0.000000 0.000000 0.000000 0.000000 0.000000 0.000000 0.000000 0.000000 0.000000 0.000000 0.000000 0.000000 0.000000 0.000000 0.000000 0.000000 0.000000 0.000000 0.000000 0.000000 0.000000 0.000000 0.000000 0.000000
0.000000 0.000000 0.000000 0.000000 0.000000 0.000000 0.000000 0.000000 0.000000 0.000000 0.000000 0.000000 0.000000 0.000000 0.000000 0.000000 0.000000 0.000000 0.000000 0.000000 0.000000 0.000000 0.000000 0.000000 0.000000 0.000000 0.000000 0.000000 0.000000 0.000000 0.000000 0.000000 0.000000 0.000000 0.000000 0.000000 0.000000 0.000000 0.000000 0.000000 0.000000 0.000000 0.000000 0.000000 0.000000 0.000000 0.000000 0.000000 0.000000 0.000000 0.000000 0.000000 0.000000 0.000000 0.000000 0.000000 0.000000 0.000000 0.000000 0.000000 0.000000 0.000000 0.000000 0.000000 0.000000 0.000000 0.000000 0.000000 0.000000 0.000000 0.000000 0.000000 0.000000 0.000000 0.000000 0.000000 0.000000 0.000000 0.000000 0.000000 0.000000 0.000000 0.000000 0.000000 0.000000 0.000000 0.000000 0.000000 0.000000 0.000000 0.000000 0.000000 0.000000 0.000000 0.000000 0.000000 0.000000 0.000000 0.000000 0.000000 0.000000 0.000000 0.000000
0.000000 0.000000 0.000000 0.000000 0.000000 0.000000 0.000000 0.000000 0.000000 0.000000 0.000000 0.000000 0.000000 0.000000 0.000000 0.000000 0.000000 0.000000 0.000000 0.000000 0.000000 0.000000 0.000000 0.000000 0.000000 0.000000 0.000000 0.000000 0.000000 0.000000 0.000000 0.000000 0.000000 0.000000 0.000000 0.000000 0.000000 0.000000 0.000000 0.000000 0.000000 0.000000 0.000000 0.000000 0.000000 0.000000 0.000000 0.000000 0.000000 0.000000 0.000000 0.000000 0.000000 0.000000 0.000000 0.000000 0.000000 0.000000 0.000000 0.000000 0.000000 0.000000 0.000000 0.000000 0.000000 0.000000 0.000000 0.000000 0.000000 0.000000 0.000000 0.000000 0.000000 0.000000 0.000000 0.000000 0.000000 0.000000 0.000000 0.000000 0.000000 0.000000 0.000000 0.000000 0.000000 0.000000 0.000000 0.000000 0.000000 0.000000 0.000000 0.000000 0.000000 0.000000 0.000000 0.000000 0.000000 0.000000 0.000000 0.000000 0.000000 0.000000 0.000000
0.000000 0.000000 0.000000 0.000000 0.000000 0.000000 0.000000 0.000000 0.000000 0.000000 0.000000 0.000000 0.000000 0.000000 0.000000 0.000000 0.000000 0.000000 0.000000 0.000000 0.000000 0.000000 0.000000 0.000000 0.000000 0.000000 0.000000 0.000000 0.000000 0.000000 0.000000 0.000000 0.000000 0.000000 0.000000 0.000000 0.000000 0.000000 0.000000 0.000000 0.000000 0.000000 0.000000 0.000000 0.000000 0.000000 0.000000 0.000000 0.000000 0.000000 0.000000 0.000000 0.000000 0.000000 0.000000 0.000000 0.000000 0.000000 0.000000 0.000000 0.000000 0.000000 0.000000 0.000000 0.000000 0.000000 0.000000 0.000000 0.000000 0.000000 0.000000 0.000000 0.000000 0.000000 0.000000 0.000000 0.000000 0.000000 0.000000 0.000000 0.000000 0.000000 0.000000 0.000000 0.000000 0.000000 0.000000 0.000000 0.000000 0.000000 0.000000 0.000000 0.000000 0.000000 0.000000 0.000000 0.000000 0.000000 0.000000 0.000000 0.000000 0.000000 0.000000
0.000000 0.000000 0.000000 0.000000 0.000000 0.000000 0.000000 0.000000 0.000000 0.000000 0.000000 0.000000 0.000000 0.000000 0.000000 0.000000 0.000000 0.000000 0.000000 0.000000 0.000000 0.000000 0.000000 0.000000 0.000000 0.000000 0.000000 0.000000 0.000000 0.000000 0.000000 0.000000 0.000000 0.000000 0.000000 0.000000 0.000000 0.000000 0.000000 0.000000 0.000000 0.000000 0.000000 0.000000 0.000000 0.000000 0.000000 0.000000 0.000000 0.000000 0.000000 0.000000 0.000000 0.000000 0.000000 0.000000 0.000000 0.000000 0.000000 0.000000 0.000000 0.000000 0.000000 0.000000 0.000000 0.000000 0.000000 0.000000 0.000000 0.000000 0.000000 0.000000 0.000000 0.000000 0.000000 0.000000 0.000000 0.000000 0.000000 0.000000 0.000000 0.000000 0.000000 0.000000 0.000000 0.000000 0.000000 0.000000 0.000000 0.000000 0.000000 0.000000 0.000000 0.000000 0.000000 0.000000 0.000000 0.000000 0.000000 0.000000 0.000000 0.000000 0.000000
0.000000 0.000000 0.000000 0.000000 0.000000 0.000000 0.000000 0.000000 0.000000 0.000000 0.000000 0.000000 0.000000 0.000000 0.000000 0.000000 0.000000 0.000000 0.000000 0.000000 0.000000 0.000000 0.000000 0.000000 0.000000 0.000000 0.000000 0.000000 0.000000 0.000000 0.000000 0.000000 0.000000 0.000000 0.000000 0.000000 0.000000 0.000000 0.000000 0.000000 0.000000 0.000000 0.000000 0.000000 0.000000 0.000000 0.000000 0.000000 0.000000 0.000000 0.000000 0.000000 0.000000 0.000000 0.000000 0.000000 0.000000 0.000000 0.000000 0.000000 0.000000 0.000000 0.000000 0.000000 0.000000 0.000000 0.000000 0.000000 0.000000 0.000000 0.000000 0.000000 0.000000 0.000000 0.000000 0.000000 0.000000 0.000000 0.000000 0.000000 0.000000 0.000000 0.000000 0.000000 0.000000 0.000000 0.000000 0.000000 0.000000 0.000000 0.000000 0.000000 0.000000 0.000000 0.000000 0.000000 0.000000 0.000000 0.000000 0.000000 0.000000 0.000000 0.000000
0.000000 0.000000 0.000000 0.000000 0.000000 0.000000 0.000000 0.000000 0.000000 0.000000 0.000000 0.000000 0.000000 0.000000 0.000000 0.000000 0.000000 0.000000 0.000000 0.000000 0.000000 0.000000 0.000000 0.000000 0.000000 0.000000 0.000000 0.000000 0.000000 0.000000 0.000000 0.000000 0.000000 20.151741 20.151741 20.151741 20.151741 20.151741 20.151741 0.000000 0.000000 0.000000 0.000000 0.000000 0.000000 0.000000 0.000000 0.000000 0.000000 0.000000 0.000000 0.000000 0.000000 0.000000 0.000000 0.000000 0.000000 0.000000 0.000000 0.000000 0.000000 0.000000 0.000000 0.000000 0.000000 0.000000 0.000000 0.000000 0.000000 0.000000 0.000000 0.000000 0.000000 0.000000 0.000000 0.000000 0.000000 0.000000 0.000000 0.000000 0.000000 0.000000 0.000000 0.000000 0.000000 0.000000 0.000000 0.000000 0.000000 0.000000 0.000000 0.000000 0.000000 0.000000 0.000000 0.000000 0.000000 0.000000 0.000000 0.000000 0.000000 0.000000 0.000000
0.000000 0.000000 0.000000 0.000000 0.000000 0.000000 0.000000 0.000000 0.000000 0.000000 0.000000 0.000000 0.000000 0.000000 0.000000 0.000000 0.000000 0.000000 0.000000 0.000000 0.000000 0.000000 0.000000 0.000000 0.000000 0.000000 0.000000 0.000000 0.000000 0.000000 0.000000 0.000000 0.000000 20.151741 20.151741 20.151741 20.151741 20.151741 20.151741 0.000000 0.000000 0.000000 0.000000 0.000000 0.000000 0.000000 0.000000 0.000000 0.000000 0.000000 0.000000 0.000000 0.000000 0.000000 0.000000 0.000000 0.000000 0.000000 0.000000 0.000000 0.000000 0.000000 0.000000 0.000000 0.000000 0.000000 0.000000 0.000000 0.000000 0.000000 0.000000 0.000000 0.000000 0.000000 0.000000 0.000000 0.000000 0.000000 0.000000 0.000000 0.000000 0.000000 0.000000 0.000000 0.000000 0.000000 0.000000 0.000000 0.000000 0.000000 0.000000 0.000000 0.000000 0.000000 0.000000 0.000000 0.000000 0.000000 0.000000 0.000000 0.000000 0.000000 0.000000
0.000000 0.000000 0.000000 0.000000 0.000000 0.000000 14.830430 14.830430 14.830430 14.830430 14.830430 14.830430 14.830430 0.000000 0.000000 0.000000 0.000000 18.902096 18.902096 18.902096 18.902096 18.902096 18.902096 18.902096 18.902096 18.902096 0.000000 0.000000 0.000000 0.000000 0.000000 0.000000 0.000000 20.151741 20.151741 20.151741 20.151741 20.151741 20.151741 0.000000 0.000000 0.000000 0.000000 0.000000 0.000000 0.000000 0.000000 0.000000 0.000000 0.000000 0.000000 0.000000 0.000000 14.682308 14.682308 14.682308 14.682308 14.682308 14.682308 14.682308 0.000000 0.000000 0.000000 0.000000 14.275444 14.275444 14.275444 14.275444 14.275444 14.275444 0.000000 0.000000 0.000000 0.000000 0.000000 0.000000 0.000000 0.000000 0.000000 15.727403 15.727403 15.727403 15.727403 15.727403 15.727403 15.727403 0.000000 0.000000 0.000000 0.000000 14.800344 14.800344 14.800344 14.800344 14.800344 14.800344 14.800344 0.000000 0.000000 0.000000 0.000000 0.000000 0.000000
0.000000 0.000000 0.000000 0.000000 0.000000 0.000000 14.830430 14.830430 14.830430 14.830430 14.830430 14.830430 14.830430 0.000000 0.000000 0.000000 0.000000 18.902096 18.902096 18.902096 18.902096 18.902096 18.902096 18.902096 18.902096 18.902096 0.000000 0.000000 0.000000 0.000000 0.000000 0.000000 0.000000 20.151741 20.151741 20.151741 20.151741 20.151741 20.151741 0.000000 0.000000 0.000000 0.000000 0.000000 0.000000 0.000000 0.000000 0.000000 0.000000 0.000000 0.000000 0.000000 0.000000 14.682308 14.682308 14.682308 14.682308 14.682308 14.682308 14.682308 0.000000 0.000000 0.000000 0.000000 14.275444 14.275444 14.275444 14.275444 14.275444 14.275444 0.000000 0.000000 0.000000 0.000000 0.000000 0.000000 0.000000 0.000000 0.000000 15.727403 15.727403 15.727403 15.727403 15.727403 15.727403 15.727403 0.000000 0.000000 0.000000 0.000000 14.800344 14.800344 14.800344 14.800344 14.800344 14.800344 14.800344 0.000000 0.000000 0.000000 0.000000 0.000000 0.000000
0.000000 0.000000 0.000000 0.000000 0.000000 0.000000 14.830430 14.830430 14.830430 14.830430 14.830430 14.830430 14.830430 0.000000 0.000000 0.000000 0.000000 18.902096 18.902096 18.902096 18.902096 18.902096 18.902096 18.902096 18.902096 18.902096 0.000000 0.000000 0.000000 0.000000 0.000000 0.000000 0.000000 20.151741 20.151741 20.151741 20.151741 20.151741 20.151741 0.000000 0.000000 0.000000 0.000000 0.000000 0.000000 0.000000 0.000000 0.000000 0.000000 0.000000 0.000000 0.000000 0.000000 14.682308 14.682308 14.682308 14.682308 14.682308 14.682308 14.682308 0.000000 0.000000 0.000000 0.000000 14.275444 14.275444 14.275444 14.275444 14.275444 14.275444 0.000000 0.000000 0.000000 0.000000 0.000000 0.000000 0.000000 0.000000 0.000000 15.727403 15.727403 15.727403 15.727403 15.727403 15.727403 15.727403 0.000000 0.000000 0.000000 0.000000 14.800344 14.800344 14.800344 14.800344 14.800344 14.800344 14.800344 0.000000 0.000000 0.000000 0.000000 0.000000 0.000000
0.000000 0.000000 0.000000 0.000000 0.000000 0.000000 14.830430 14.830430 14.830430 14.830430 14.830430 14.830430 14.830430 0.000000 0.000000 0.000000 0.000000 18.902096 18.902096 18.902096 18.902096 18.902096 18.902096 18.902096 18.902096 18.902096 0.000000 0.000000 0.000000 0.000000 0.000000 0.000000 0.000000 20.151741 20.151741 20.151741 20.151741 20.151741 20.151741 0.000000 0.000000 0.000000 0.000000 0.000000 0.000000 0.000000 0.000000 0.000000 0.000000 0.000000 0.000000 0.000000 0.000000 14.682308 14.682308 14.682308 14.682308 14.682308 14.682308 14.682308 0.000000 0.000000 0.000000 0.000000 14.275444 14.275444 14.275444 14.275444 14.275444 14.275444 0.000000 0.000000 0.000000 0.000000 0.000000 0.000000 0.000000 0.000000 0.000000 15.727403 15.727403 15.727403 15.727403 15.727403 15.727403 15.727403 0.000000 0.000000 0.000000 0.000000 14.800344 14.800344 14.800344 14.800344 14.800344 14.800344 14.800344 0.000000 0.000000 0.000000 0.000000 0.000000 0.000000
0.000000 0.000000 0.000000 0.000000 0.000000 0.000000 14.830430 14.830430 14.830430 14.830430 14.830430 14.830430 14.830430 0.000000 0.000000 0.000000 0.000000 18.902096 18.902096 18.902096 18.902096 18.902096 18.902096 18.902096 18.902096 18.902096 0.000000 0.000000 0.000000 0.000000 0.000000 0.000000 0.000000 20.151741 20.151741 20.151741 20.151741 20.151741 20.151741 0.000000 0.000000 0.000000 0.000000 0.000000 0.000000 0.000000 0.000000 0.000000 0.000000 0.000000 0.000000 0.000000 0.000000 14.682308 14.682308 14.682308 14.682308 14.682308 14.682308 14.682308 0.000000 0.000000 0.000000 0.000000 14.275444 14.275444 14.275444 14.275444 14.275444 14.275444 0.000000 0.000000 0.000000 0.000000 0.000000 0.000000 0.000000 0.000000 0.000000 15.727403 15.727403 15.727403 15.727403 15.727403 15.727403 15.727403 0.000000 0.000000 0.000000 0.000000 14.800344 14.800344 14.800344 14.800344 14.800344 14.800344 14.800344 0.000000 0.000000 0.000000 0.000000 0.000000 0.000000
0.000000 0.000000 0.000000 0.000000 0.000000 0.000000 14.830430 14.830430 14.830430 14.830430 14.830430 14.830430 14.830430 0.000000 0.000000 0.000000 0.000000 18.902096 18.902096 18.902096 18.902096 18.902096 18.902096 18.902096 18.902096 18.902096 0.000000 0.000000 0.000000 0.000000 0.000000 0.000000 0.000000 20.151741 20.151741 20.151741 20.151741 20.151741 20.151741 0.000000 0.000000 0.000000 0.000000 0.000000 0.000000 0.000000 0.000000 0.000000 0.000000 0.000000 0.000000 0.000000 0.000000 14.682308 14.682308 14.682308 14.682308 14.682308 14.682308 14.682308 0.000000 0.000000 0.000000 0.000000 14.275444 14.275444 14.275444 14.275444 14.275444 14.275444 0.000000 0.000000 0.000000 0.000000 0.000000 0.000000 0.000000 0.000000 0.000000 15.727403 15.727403 15.727403 15.727403 15.727403 15.727403 15.727403 0.000000 0.000000 0.000000 0.000000 14.800344 14.800344 14.800344 14.800344 14.800344 14.800344 14.800344 0.000000 0.000000 0.000000 0.000000 0.000000 0.000000
0.000000 0.000000 0.000000 0.000000 0.000000 0.000000 14.830430 14.830430 14.830430 14.830430 14.830430 14.830430 14.830430 0.000000 0.000000 0.000000 0.000000 18.902096 18.902096 18.902096 18.902096 18.902096 18.902096 18.902096 18.902096 18.902096 0.000000 0.000000 0.000000 0.000000 0.000000 0.000000 0.000000 20.151741 20.151741 20.151741 20.151741 20.151741 20.151741 0.000000 0.000000 0.000000 0.000000 0.000000 0.000000 0.000000 0.000000 0.000000 0.000000 0.000000 0.000000 0.000000 0.000000 14.682308 14.682308 14.682308 14.682308 14.682308 14.682308 14.682308 0.000000 0.000000 0.000000 0.000000 14.275444 14.275444 14.275444 14.275444 14.275444 14.275444 0.000000 0.000000 0.000000 0.000000 0.000000 0.000000 0.000000 0.000000 0.000000 15.727403 15.727403 15.727403 15.727403 15.727403 15.727403 15.727403 0.000000 0.000000 0.000000 0.000000 14.800344 14.800344 14.800344 14.800344 14.800344 14.800344 14.800344 0.000000 0.000000 0.000000 0.000000 0.000000 0.000000
0.000000 0.000000 0.000000 0.000000 0.000000 0.000000 14.830430 14.830430 14.830430 14.830430 14.830430 14.830430 14.830430 0.000000 0.000000 0.000000 0.000000 18.902096 18.902096 18.902096 18.902096 18.902096 18.902096 18.902096 18.902096 18.902096 0.000000 0.000000 0.000000 0.000000 0.000000 0.000000 0.000000 20.151741 20.151741 20.151741 20.151741 20.151741 20.151741 0.000000 0.000000 0.000000 0.000000 0.000000 0.000000 0.000000 0.000000 0.000000 0.000000 0.000000 0.000000 0.000000 0.000000 14.682308 14.682308 14.682308 14.682308 14.682308 14.682308 14.682308 0.000000 0.000000 0.000000 0.000000 14.275444 14.275444 14.275444 14.275444 14.275444 14.275444 0.000000 0.000000 0.000000 0.000000 0.000000 0.000000 0.000000 0.000000 0.000000 15.727403 15.727403 15.727403 15.727403 15.727403 15.727403 15.727403 0.000000 0.000000 0.000000 0.000000 14.800344 14.800344 14.800344 14.800344 14.800344 14.800344 14.800344 0.000000 0.000000 0.000000 0.000000 0.000000 0.000000
0.000000 0.000000 0.000000 0.000000 0.000000 0.000000 14.830430 14.830430 14.830430 14.830430 14.830430 14.830430 14.830430 0.000000 0.000000 0.000000 0.000000 18.902096 18.902096 18.902096 18.902096 18.902096 18.902096 18.902096 18.902096 18.902096 0.000000 0.000000 0.000000 0.000000 0.000000 0.000000 0.000000 20.151741 20.151741 20.151741 20.151741 20.151741 20.151741 0.000000 0.000000 0.000000 0.000000 0.000000 0.000000 0.000000 0.000000 0.000000 0.000000 0.000000 0.000000 0.000000 0.000000 14.682308 14.682308 14.682308 14.682308 14.682308 14.682308 14.682308 0.000000 0.000000 0.000000 0.000000 14.275444 14.275444 14.275444 14.275444 14.275444 14.275444 0.000000 0.000000 0.000000 0.000000 0.000000 0.000000 0.000000 0.000000 0.000000 15.727403 15.727403 15.727403 15.727403 15.727403 15.727403 15.727403 0.000000 0.000000 0.000000 0.000000 14.800344 14.800344 14.800344 14.800344 14.800344 14.800344 14.800344 0.000000 0.000000 0.000000 0.000000 0.000000 0.000000
0.000000 0.000000 0.000000 0.000000 0.000000 0.000000 0.000000 0.000000 0.000000 0.000000 0.000000 0.000000 0.000000 0.000000 0.000000 0.000000 0.000000 0.000000 0.000000 0.000000 0.000000 0.000000 0.000000 0.000000 0.000000 0.000000 0.000000 0.000000 0.000000 0.000000 0.000000 0.000000 0.000000 20.151741 20.151741 20.151741 20.151741 20.151741 20.151741 0.000000 0.000000 0.000000 0.000000 0.000000 0.000000 0.000000 0.000000 0.000000 0.000000 0.000000 0.000000 0.000000 0.000000 14.682308 14.682308 14.682308 14.682308 14.682308 14.682308 14.682308 0.000000 0.000000 0.000000 0.000000 14.275444 14.275444 14.275444 14.275444 14.275444 14.275444 0.000000 0.000000 0.000000 0.000000 0.000000 0.000000 0.000000 0.000000 0.000000 0.000000 0.000000 0.000000 0.000000 0.000000 0.000000 0.000000 0.000000 0.000000 0.000000 0.000000 0.000000 0.000000 0.000000 0.000000 0.000000 0.000000 0.000000 0.000000 0.000000 0.000000 0.000000 0.000000 0.000000
0.000000 0.000000 0.000000 0.000000 0.000000 0.000000 0.000000 0.000000 0.000000 0.000000 0.000000 0.000000 0.000000 0.000000 0.000000 0.000000 0.000000 0.000000 0.000000 0.000000 0.000000 0.000000 0.000000 0.000000 0.000000 0.000000 0.000000 0.000000 0.000000 0.000000 0.000000 0.000000 0.000000 20.151741 20.151741 20.151741 20.151741 20.151741 20.151741 0.000000 0.000000 0.000000 0.000000 0.000000 0.000000 0.000000 0.000000 0.000000 0.000000 0.000000 0.000000 0.000000 0.000000 0.000000 0.000000 0.000000 0.000000 0.000000 0.000000 0.000000 0.000000 0.000000 0.000000 0.000000 0.000000 0.000000 0.000000 0.000000 0.000000 0.000000 0.000000 0.000000 0.000000 0.000000 0.000000 0.000000 0.000000 0.000000 0.000000 0.000000 0.000000 0.000000 0.000000 0.000000 0.000000 0.000000 0.000000 0.000000 0.000000 0.000000 0.000000 0.000000 0.000000 0.000000 0.000000 0.000000 0.000000 0.000000 0.000000 0.000000 0.000000 0.000000 0.000000
0.000000 0.000000 0.000000 0.000000 0.000000 0.000000 0.000000 0.000000 0.000000 0.000000 0.000000 0.000000 0.000000 0.000000 0.000000 0.000000 0.000000 0.000000 0.000000 0.000000 0.000000 0.000000 0.000000 0.000000 0.000000 0.000000 0.000000 0.000000 0.000000 0.000000 0.000000 0.000000 0.000000 11.715314 11.715314 11.715314 11.715314 11.715314 11.715314 12.571172 12.571172 12.571172 12.571172 12.571172 12.571172 12.571172 0.000000 0.000000 0.000000 0.000000 0.000000 0.000000 0.000000 0.000000 0.000000 0.000000 0.000000 0.000000 0.000000 0.000000 0.000000 0.000000 0.000000 0.000000 0.000000 0.000000 0.000000 0.000000 0.000000 0.000000 0.000000 0.000000 0.000000 0.000000 0.000000 0.000000 0.000000 0.000000 0.000000 0.000000 0.000000 0.000000 0.000000 0.000000 0.000000 0.000000 0.000000 0.000000 0.000000 0.000000 0.000000 0.000000 0.000000 0.000000 0.000000 0.000000 0.000000 0.000000 0.000000 0.000000 0.000000 0.000000 0.000000
0.000000 0.000000 0.000000 0.000000 0.000000 0.000000 0.000000 0.000000 0.000000 0.000000 0.000000 0.000000 0.000000 0.000000 0.000000 0.000000 0.000000 0.000000 0.000000 0.000000 0.000000 0.000000 0.000000 0.000000 0.000000 0.000000 0.000000 0.000000 0.000000 0.000000 0.000000 0.000000 0.000000 11.715314 11.715314 11.715314 11.715314 11.715314 11.715314 12.571172 12.571172 12.571172 12.571172 12.571172 12.571172 12.571172 0.000000 0.000000 0.000000 0.000000 0.000000 0.000000 0.000000 0.000000 0.000000 0.000000 0.000000 0.000000 0.000000 0.000000 0.000000 0.000000 0.000000 0.000000 0.000000 0.000000 0.000000 0.000000 0.000000 0.000000 0.000000 0.000000 0.000000 0.000000 0.000000 0.000000 0.000000 0.000000 0.000000 0.000000 0.000000 0.000000 0.000000 0.000000 0.000000 0.000000 0.000000 0.000000 0.000000 0.000000 0.000000 0.000000 0.000000 0.000000 0.000000 0.000000 0.000000 0.000000 0.000000 0.000000 0.000000 0.000000 0.000000
0.000000 0.000000 0.000000 0.000000 0.000000 0.000000 25.476568 25.476568 25.476568 25.476568 25.476568 25.476568 25.476568 0.000000 0.000000 0.000000 0.000000 0.000000 0.000000 0.000000 0.000000 0.000000 0.000000 0.000000 0.000000 0.000000 0.000000 0.000000 0.000000 0.000000 0.000000 0.000000 0.000000 11.715314 11.715314 11.715314 11.715314 11.715314 11.715314 12.571172 12.571172 12.571172 12.571172 12.571172 12.571172 12.571172 0.000000 0.000000 0.000000 0.000000 0.000000 0.000000 0.000000 0.000000 0.000000 0.000000 0.000000 0.000000 0.000000 0.000000 0.000000 0.000000 0.000000 0.000000 0.000000 0.000000 0.000000 0.000000 0.000000 0.000000 0.000000 0.000000 0.000000 0.000000 0.000000 0.000000 0.000000 0.000000 0.000000 0.000000 0.000000 0.000000 0.000000 0.000000 0.000000 0.000000 0.000000 0.000000 0.000000 0.000000 26.907955 26.907955 26.907955 26.907955 26.907955 26.907955 26.907955 0.000000 0.000000 0.000000 0.000000 0.000000 0.000000
0.000000 0.000000 0.000000 0.000000 0.000000 0.000000 25.476568 25.476568 25.476568 25.476568 25.476568 25.476568 25.476568 0.000000 0.000000 0.000000 0.000000 0.000000 0.000000 0.000000 0.000000 0.000000 0.000000 0.000000 0.000000 0.000000 0.000000 0.000000 0.000000 0.000000 0.000000 0.000000 0.000000 11.715314 11.715314 11.715314 11.715314 11.715314 11.715314 12.571172 12.571172 12.571172 12.571172 12.571172 12.571172 12.571172 0.000000 0.000000 0.000000 0.000000 0.000000 0.000000 0.000000 22.256070 22.256070 22.256070 22.256070 22.256070 22.256070 22.256070 0.000000 0.000000 0.000000 0.000000 0.000000 0.000000 0.000000 0.000000 0.000000 0.000000 0.000000 0.000000 0.000000 0.000000 0.000000 0.000000 0.000000 0.000000 0.000000 0.000000 0.000000 0.000000 0.000000 0.000000 0.000000 0.000000 0.000000 0.000000 0.000000 0.000000 26.907955 26.907955 26.907955 26.907955 26.907955 26.907955 26.907955 0.000000 0.000000 0.000000 0.000000 0.000000 0.000000
0.000000 0.000000 0.000000 0.000000 0.000000 0.000000 25.476568 25.476568 25.476568 25.476568 25.476568 25.476568 25.476568 0.000000 0.000000 0.000000 0.000000 0.000000 0.000000 0.000000 0.000000 0.000000 0.000000 0.000000 0.000000 0.000000 0.000000 0.000000 0.000000 0.000000 0.000000 0.000000 0.000000 11.715314 11.715314 11.715314 11.715314 11.715314 11.715314 12.571172 12.571172 12.571172 12.571172 12.571172 12.571172 12.571172 0.000000 0.000000 0.000000 0.000000 0.000000 0.000000 0.000000 22.256070 22.256070 22.256070 22.256070 22.256070 22.256070 22.256070 0.000000 0.000000 0.000000 0.000000 0.000000 0.000000 0.000000 0.000000 0.000000 0.000000 0.000000 0.000000 0.000000 0.000000 0.000000 0.000000 0.000000 0.000000 0.000000 0.000000 0.000000 0.000000 0.000000 0.000000 0.000000 0.000000 0.000000 0.000000 0.000000 0.000000 26.907955 26.907955 26.907955 26.907955 26.907955 26.907955 26.907955 0.000000 0.000000 0.000000 0.000000 0.000000 0.000000
0.000000 0.000000 0.000000 0.000000 0.000000 0.000000 25.476568 25.476568 25.476568 25.476568 25.476568 25.476568 25.476568 0.000000 0.000000 0.000000 0.000000 0.000000 0.000000 0.000000 0.000000 0.000000 0.000000 0.000000 0.000000 0.000000 0.000000 0.000000 0.000000 0.000000 0.000000 0.000000 0.000000 11.715314 11.715314 11.715314 11.715314 11.715314 11.715314 12.571172 12.571172 12.571172 12.571172 12.571172 12.571172 12.571172 0.000000 0.000000 0.000000 0.000000 0.000000 0.000000 0.000000 22.256070 22.256070 22.256070 22.256070 22.256070 22.256070 22.256070 0.000000 0.000000 0.000000 0.000000 0.000000 0.000000 0.000000 0.000000 0.000000 0.000000 0.000000 0.000000 0.000000 0.000000 0.000000 0.000000 0.000000 0.000000 0.000000 0.000000 0.000000 0.000000 0.000000 0.000000 0.000000 0.000000 0.000000 0.000000 0.000000 0.000000 26.907955 26.907955 26.907955 26.907955 26.907955 26.907955 26.907955 0.000000 0.000000 0.000000 0.000000 0.000000 0.000000
0.000000 0.000000 0.000000 0.000000 0.000000 0.000000 25.476568 25.476568 25.476568 25.476568 25.476568 25.476568 25.476568 0.000000 0.000000 0.000000 0.000000 0.000000 0.000000 0.000000 0.000000 0.000000 0.000000 0.000000 0.000000 0.000000 0.000000 0.000000 0.000000 0.000000 0.000000 0.000000 0.000000 11.715314 11.715314 11.715314 11.715314 11.715314 11.715314 12.571172 12.571172 12.571172 12.571172 12.571172 12.571172 12.571172 0.000000 0.000000 0.000000 0.000000 0.000000 0.000000 0.000000 22.256070 22.256070 22.256070 22.256070 22.256070 22.256070 22.256070 0.000000 0.000000 0.000000 0.000000 0.000000 0.000000 0.000000 0.000000 0.000000 0.000000 0.000000 0.000000 0.000000 0.000000 0.000000 0.000000 0.000000 0.000000 0.000000 0.000000 0.000000 0.000000 0.000000 0.000000 0.000000 0.000000 0.000000 0.000000 0.000000 0.000000 26.907955 26.907955 26.907955 26.907955 26.907955 26.907955 26.907955 0.000000 0.000000 0.000000 0.000000 0.000000 0.000000
0.000000 0.000000 0.000000 0.000000 0.000000 0.000000 25.476568 25.476568 25.476568 25.476568 25.476568 25.476568 25.476568 0.000000 0.000000 0.000000 0.000000 0.000000 0.000000 0.000000 0.000000 0.000000 0.000000 0.000000 0.000000 0.000000 0.000000 0.000000 0.000000 0.000000 0.000000 0.000000 0.000000 11.715314 11.715314 11.715314 11.715314 11.715314 11.715314 12.571172 12.571172 12.571172 12.571172 12.571172 12.571172 12.571172 0.000000 0.000000 0.000000 0.000000 0.000000 0.000000 0.000000 22.256070 22.256070 22.256070 22.256070 22.256070 22.256070 22.256070 0.000000 0.000000 0.000000 0.000000 0.000000 0.000000 0.000000 0.000000 0.000000 0.000000 0.000000 0.000000 0.000000 0.000000 0.000000 0.000000 0.000000 0.000000 0.000000 0.000000 0.000000 0.000000 0.000000 0.000000 0.000000 0.000000 0.000000 0.000000 0.000000 0.000000 26.907955 26.907955 26.907955 26.907955 26.907955 26.907955 26.907955 0.000000 0.000000 0.000000 0.000000 0.000000 0.000000
0.000000 0.000000 0.000000 0.000000 0.000000 0.000000 25.476568 25.476568 25.476568 25.476568 25.476568 25.476568 25.476568 0.000000 0.000000 0.000000 0.000000 0.000000 0.000000 0.000000 0.000000 0.000000 0.000000 0.000000 0.000000 0.000000 0.000000 0.000000 0.000000 0.000000 0.000000 0.000000 0.000000 17.651237 17.651237 17.651237 17.651237 17.651237 17.651237 18.940742 18.940742 18.940742 18.940742 18.940742 18.940742 18.940742 0.000000 0.000000 0.000000 0.000000 0.000000 0.000000 0.000000 22.256070 22.256070 22.256070 22.256070 22.256070 22.256070 22.256070 0.000000 0.000000 0.000000 0.000000 0.000000 0.000000 0.000000 0.000000 0.000000 0.000000 0.000000 0.000000 0.000000 0.000000 0.000000 0.000000 0.000000 0.000000 0.000000 0.000000 0.000000 0.000000 0.000000 0.000000 0.000000 0.000000 0.000000 0.000000 0.000000 0.000000 26.907955 26.907955 26.907955 26.907955 26.907955 26.907955 26.907955 0.000000 0.000000 0.000000 0.000000 0.000000 0.000000
0.000000 0.000000 0.000000 0.000000 0.000000 0.000000 25.476568 25.476568 25.476568 25.476568 25.476568 25.476568 25.476568 0.000000 0.000000 0.000000 0.000000 0.000000 0.000000 0.000000 0.000000 0.000000 0.000000 0.000000 0.000000 0.000000 0.000000 0.000000 0.000000 0.000000 0.000000 0.000000 0.000000 17.651237 17.651237 17.651237 17.651237 17.651237 17.651237 18.940742 18.940742 18.940742 18.940742 18.940742 18.940742 18.940742 0.000000 0.000000 0.000000 0.000000 0.000000 0.000000 0.000000 22.256070 22.256070 22.256070 22.256070 22.256070 22.256070 22.256070 0.000000 0.000000 0.000000 0.000000 0.000000 0.000000 0.000000 0.000000 0.000000 0.000000 0.000000 0.000000 0.000000 0.000000 0.000000 0.000000 0.000000 0.000000 0.000000 0.000000 0.000000 0.000000 0.000000 0.000000 0.000000 0.000000 0.000000 0.000000 0.000000 0.000000 26.907955 26.907955 26.907955 26.907955 26.907955 26.907955 26.907955 0.000000 0.000000 0.000000 0.000000 0.000000 0.000000
0.000000 0.000000 0.000000 0.000000 0.000000 0.000000 25.476568 25.476568 25.476568 25.476568 25.476568 25.476568 25.476568 0.000000 0.000000 0.000000 0.000000 0.000000 0.000000 0.000000 0.000000 0.000000 0.000000 0.000000 0.000000 0.000000 0.000000 0.000000 0.000000 0.000000 0.000000 0.000000 0.000000 17.651237 17.651237 17.651237 17.651237 17.651237 17.651237 18.940742 18.940742 18.940742 18.940742 18.940742 18.940742 18.940742 0.000000 0.000000 0.000000 0.000000 0.000000 0.000000 0.000000 22.256070 22.256070 22.256070 22.256070 22.256070 22.256070 22.256070 0.000000 0.000000 0.000000 0.000000 0.000000 0.000000 0.000000 0.000000 0.000000 0.000000 0.000000 0.000000 0.000000 0.000000 0.000000 0.000000 0.000000 0.000000 0.000000 0.000000 0.000000 0.000000 0.000000 0.000000 0.000000 0.000000 0.000000 0.000000 0.000000 0.000000 26.907955 26.907955 26.907955 26.907955 26.907955 26.907955 26.907955 0.000000 0.000000 0.000000 0.000000 0.000000 0.000000
0.000000 0.000000 0.000000 0.000000 0.000000 0.000000 25.476568 25.476568 25.476568 25.476568 25.476568 25.476568 25.476568 0.000000 0.000000 0.000000 0.000000 0.000000 0.000000 0.000000 0.000000 0.000000 0.000000 0.000000 0.000000 0.000000 0.000000 0.000000 0.000000 0.000000 0.000000 0.000000 0.000000 17.651237 17.651237 17.651237 17.651237 17.651237 17.651237 18.940742 18.940742 18.940742 18.940742 18.940742 18.940742 18.940742 0.000000 0.000000 0.000000 0.000000 0.000000 0.000000 0.000000 22.256070 22.256070 22.256070 22.256070 22.256070 22.256070 22.256070 0.000000 0.000000 0.000000 0.000000 0.000000 0.000000 0.000000 0.000000 0.000000 0.000000 0.000000 0.000000 0.000000 0.000000 0.000000 0.000000 0.000000 0.000000 0.000000 0.000000 0.000000 0.000000 0.000000 0.000000 0.000000 0.000000 0.000000 0.000000 0.000000 0.000000 26.907955 26.907955 26.907955 26.907955 26.907955 26.907955 26.907955 0.000000 0.000000 0.000000 0.000000 0.000000 0.000000
0.000000 0.000000 0.000000 0.000000 0.000000 0.000000 25.476568 25.476568 25.476568 25.476568 25.476568 25.476568 25.476568 0.000000 0.000000 0.000000 0.000000 0.000000 0.000000 0.000000 0.000000 0.000000 0.000000 0.000000 0.000000 0.000000 0.000000 0.000000 0.000000 0.000000 0.000000 0.000000 0.000000 17.651237 17.651237 17.651237 17.651237 17.651237 17.651237 18.940742 18.940742 18.940742 18.940742 18.940742 18.940742 18.940742 0.000000 0.000000 0.000000 0.000000 0.000000 0.000000 0.000000 22.256070 22.256070 22.256070 22.256070 22.256070 22.256070 22.256070 0.000000 0.000000 0.000000 0.000000 0.000000 0.000000 0.000000 0.000000 0.000000 0.000000 0.000000 0.000000 0.000000 0.000000 0.000000 0.000000 0.000000 0.000000 0.000000 0.000000 0.000000 0.000000 0.000000 0.000000 0.000000 0.000000 0.000000 0.000000 0.000000 0.000000 26.907955 26.907955 26.907955 26.907955 26.907955 26.907955 26.907955 0.000000 0.000000 0.000000 0.000000 0.000000 0.000000
0.000000 0.000000 0.000000 0.000000 0.000000 0.000000 25.476568 25.476568 25.476568 25.476568 25.476568 25.476568 25.476568 0.000000 0.000000 0.000000 0.000000 0.000000 0.000000 0.000000 0.000000 0.000000 0.000000 0.000000 0.000000 0.000000 0.000000 0.000000 0.000000 0.000000 0.000000 0.000000 0.000000 17.651237 17.651237 17.651237 17.651237 17.651237 17.651237 18.940742 18.940742 18.940742 18.940742 18.940742 18.940742 18.940742 0.000000 0.000000 0.000000 0.000000 0.000000 0.000000 0.000000 22.256070 22.256070 22.256070 22.256070 22.256070 22.256070 22.256070 0.000000 0.000000 0.000000 0.000000 0.000000 0.000000 0.000000 0.000000 0.000000 0.000000 0.000000 0.000000 0.000000 0.000000 0.000000 0.000000 0.000000 0.000000 0.000000 0.000000 0.000000 0.000000 0.000000 0.000000 0.000000 0.000000 0.000000 0.000000 0.000000 0.000000 26.907955 26.907955 26.907955 26.907955 26.907955 26.907955 26.907955 0.000000 0.000000 0.000000 0.000000 0.000000 0.000000
0.000000 0.000000 0.000000 0.000000 0.000000 0.000000 25.476568 25.476568 25.476568 25.476568 25.476568 25.476568 25.476568 0.000000 0.000000 0.000000 0.000000 0.000000 0.000000 0.000000 0.000000 0.000000 0.000000 0.000000 0.000000 0.000000 0.000000 0.000000 0.000000 0.000000 0.000000 0.000000 0.000000 17.651237 17.651237 17.651237 17.651237 17.651237 17.651237 18.940742 18.940742 18.940742 18.940742 18.940742 18.940742 18.940742 0.000000 0.000000 0.000000 0.000000 0.000000 0.000000 0.000000 22.256070 22.256070 22.256070 22.256070 22.256070 22.256070 22.256070 0.000000 0.000000 0.000000 0.000000 0.000000 0.000000 0.000000 0.000000 0.000000 0.000000 0.000000 0.000000 0.000000 0.000000 0.000000 0.000000 0.000000 0.000000 0.000000 0.000000 0.000000 0.000000 0.000000 0.000000 0.000000 0.000000 0.000000 0.000000 0.000000 0.000000 26.907955 26.907955 26.907955 26.907955 26.907955 26.907955 26.907955 0.000000 0.000000 0.000000 0.000000 0.000000 0.000000
0.000000 0.000000 0.000000 0.000000 0.000000 0.000000 25.476568 25.476568 25.476568 25.476568 25.476568 25.476568 25.476568 0.000000 0.000000 0.000000 0.000000 0.000000 0.000000 0.000000 0.000000 0.000000 0.000000 0.000000 0.000000 0.000000 0.000000 0.000000 0.000000 0.000000 0.000000 0.000000 0.000000 17.651237 17.651237 17.651237 17.651237 17.651237 17.651237 18.940742 18.940742 18.940742 18.940742 18.940742 18.940742 18.940742 0.000000 0.000000 0.000000 0.000000 0.000000 0.000000 0.000000 22.256070 22.256070 22.256070 22.256070 22.256070 22.256070 22.256070 0.000000 0.000000 0.000000 0.000000 0.000000 0.000000 0.000000 0.000000 0.000000 0.000000 0.000000 0.000000 0.000000 0.000000 0.000000 0.000000 0.000000 0.000000 0.000000 0.000000 0.000000 0.000000 0.000000 0.000000 0.000000 0.000000 0.000000 0.000000 0.000000 0.000000 26.907955 26.907955 26.907955 26.907955 26.907955 26.907955 26.907955 0.000000 0.000000 0.000000 0.000000 0.000000 0.000000
0.000000 0.000000 0.000000 0.000000 0.000000 0.000000 25.476568 25.476568 25.476568 25.476568 25.476568 25.476568 25.476568 0.000000 0.000000 0.000000 0.000000 0.000000 0.000000 0.000000 0.000000 0.000000 0.000000 0.000000 0.000000 0.000000 0.000000 0.000000 0.000000 0.000000 0.000000 0.000000 0.000000 17.651237 17.651237 17.651237 17.651237 17.651237 17.651237 18.940742 18.940742 18.940742 18.940742 18.940742 18.940742 18.940742 0.000000 0.000000 0.000000 0.000000 0.000000 0.000000 0.000000 22.256070 22.256070 22.256070 22.256070 22.256070 22.256070 22.256070 0.000000 0.000000 0.000000 0.000000 0.000000 0.000000 0.000000 0.000000 0.000000 0.000000 0.000000 0.000000 0.000000 0.000000 0.000000 0.000000 0.000000 0.000000 0.000000 0.000000 0.000000 0.000000 0.000000 0.000000 0.000000 0.000000 0.000000 0.000000 0.000000 0.000000 26.907955 26.907955 26.907955 26.907955 26.907955 26.907955 26.907955 0.000000 0.000000 0.000000 0.000000 0.000000 0.000000
0.000000 0.000000 0.000000 0.000000 0.000000 0.000000 0.000000 0.000000 0.000000 0.000000 0.000000 0.000000 0.000000 0.000000 0.000000 0.000000 0.000000 0.000000 0.000000 0.000000 0.000000 0.000000 0.000000 0.000000 0.000000 0.000000 0.000000 0.000000 0.000000 0.000000 0.000000 0.000000 0.000000 17.651237 17.651237 17.651237 17.651237 17.651237 17.651237 18.940742 18.940742 18.940742 18.940742 18.940742 18.940742 18.940742 0.000000 0.000000 0.000000 0.000000 0.000000 0.000000 0.000000 0.000000 0.000000 0.000000 0.000000 0.000000 0.000000 0.000000 0.000000 0.000000 0.000000 0.000000 0.000000 0.000000 0.000000 0.000000 0.000000 0.000000 0.000000 0.000000 0.000000 0.000000 0.000000 0.000000 0.000000 0.000000 0.000000 0.000000 0.000000 0.000000 0.000000 0.000000 0.000000 0.000000 0.000000 0.000000 0.000000 0.000000 0.000000 0.000000 0.000000 0.000000 0.000000 0.000000 0.000000 0.000000 0.000000 0.000000 0.000000 0.000000 0.000000
0.000000 0.000000 0.000000 0.000000 0.000000 0.000000 0.000000 0.000000 0.000000 0.000000 0.000000 0.000000 0.000000 0.000000 0.000000 0.000000 0.000000 0.000000 0.000000 0.000000 0.000000 0.000000 0.000000 0.000000 0.000000 0.000000 0.000000 0.000000 0.000000 0.000000 0.000000 0.000000 0.000000 17.651237 17.651237 17.651237 17.651237 17.651237 17.651237 18.940742 18.940742 18.940742 18.940742 18.940742 18.940742 18.940742 0.000000 0.000000 0.000000 0.000000 0.000000 0.000000 0.000000 0.000000 0.000000 0.000000 0.000000 0.000000 0.000000 0.000000 0.000000 0.000000 0.000000 0.000000 0.000000 0.000000 0.000000 0.000000 0.000000 0.000000 0.000000 0.000000 0.000000 0.000000 0.000000 0.000000 0.000000 0.000000 0.000000 0.000000 0.000000 0.000000 0.000000 0.000000 0.000000 0.000000 0.000000 0.000000 0.000000 0.000000 0.000000 0.000000 0.000000 0.000000 0.000000 0.000000 0.000000 0.000000 0.000000 0.000000 0.000000 0.000000 0.000000
0.000000 0.000000 0.000000 0.000000 0.000000 0.000000 0.000000 0.000000 0.000000 0.000000 0.000000 0.000000 0.000000 0.000000 0.000000 0.000000 0.000000 0.000000 0.000000 0.000000 0.000000 0.000000 0.000000 0.000000 0.000000 0.000000 0.000000 0.000000 0.000000 0.000000 0.000000 0.000000 0.000000 0.000000 0.000000 0.000000 0.000000 0.000000 0.000000 0.000000 0.000000 0.000000 0.000000 0.000000 0.000000 0.000000 0.000000 0.000000 0.000000 0.000000 0.000000 0.000000 0.000000 0.000000 0.000000 0.000000 0.000000 0.000000 0.000000 0.000000 0.000000 0.000000 0.000000 0.000000 0.000000 0.000000 0.000000 0.000000 0.000000 0.000000 0.000000 0.000000 0.000000 0.000000 0.000000 0.000000 0.000000 0.000000 0.000000 0.000000 0.000000 0.000000 0.000000 0.000000 0.000000 0.000000 0.000000 0.000000 0.000000 0.000000 0.000000 0.000000 0.000000 0.000000 0.000000 0.000000 0.000000 0.000000 0.000000 0.000000 0.000000 0.000000 0.000000
0.000000 0.000000 0.000000 0.000000 0.000000 0.000000 0.000000 0.000000 0.000000 0.000000 0.000000 0.000000 0.000000 0.000000 0.000000 0.000000 0.000000 0.000000 0.000000 0.000000 0.000000 0.000000 0.000000 0.000000 0.000000 0.000000 0.000000 0.000000 0.000000 0.000000 0.000000 0.000000 0.000000 0.000000 0.000000 0.000000 0.000000 0.000000 0.000000 0.000000 0.000000 0.000000 0.000000 0.000000 0.000000 0.000000 0.000000 0.000000 0.000000 0.000000 0.000000 0.000000 0.000000 0.000000 0.000000 0.000000 0.000000 0.000000 0.000000 0.000000 0.000000 0.000000 0.000000 0.000000 0.000000 0.000000 0.000000 0.000000 0.000000 0.000000 0.000000 0.000000 0.000000 0.000000 0.000000 0.000000 0.000000 0.000000 0.000000 0.000000 0.000000 0.000000 0.000000 0.000000 0.000000 0.000000 0.000000 0.000000 0.000000 0.000000 0.000000 0.000000 0.000000 0.000000 0.000000 0.000000 0.000000 0.000000 0.000000 0.000000 0.000000 0.000000 0.000000
0.000000 0.000000 0.000000 0.000000 0.000000 0.000000 0.000000 0.000000 0.000000 0.000000 0.000000 0.000000 0.000000 0.000000 0.000000 0.000000 0.000000 0.000000 0.000000 0.000000 0.000000 0.000000 0.000000 0.000000 0.000000 0.000000 0.000000 0.000000 0.000000 0.000000 0.000000 0.000000 0.000000 0.000000 0.000000 0.000000 0.000000 0.000000 0.000000 0.000000 0.000000 0.000000 0.000000 0.000000 0.000000 0.000000 0.000000 0.000000 0.000000 0.000000 0.000000 0.000000 0.000000 0.000000 0.000000 0.000000 0.000000 0.000000 0.000000 0.000000 0.000000 0.000000 0.000000 0.000000 0.000000 0.000000 0.000000 0.000000 0.000000 0.000000 0.000000 0.000000 0.000000 0.000000 0.000000 0.000000 0.000000 0.000000 0.000000 0.000000 0.000000 0.000000 0.000000 0.000000 0.000000 0.000000 0.000000 0.000000 0.000000 0.000000 0.000000 0.000000 0.000000 0.000000 0.000000 0.000000 0.000000 0.000000 0.000000 0.000000 0.000000 0.000000 0.000000
0.000000 0.000000 0.000000 0.000000 0.000000 0.000000 0.000000 0.000000 0.000000 0.000000 0.000000 0.000000 0.000000 0.000000 0.000000 0.000000 0.000000 0.000000 0.000000 0.000000 0.000000 0.000000 0.000000 0.000000 0.000000 0.000000 0.000000 0.000000 0.000000 0.000000 0.000000 0.000000 0.000000 0.000000 0.000000 0.000000 0.000000 0.000000 0.000000 0.000000 0.000000 0.000000 0.000000 0.000000 0.000000 0.000000 0.000000 0.000000 0.000000 0.000000 0.000000 0.000000 0.000000 0.000000 0.000000 0.000000 0.000000 0.000000 0.000000 0.000000 0.000000 0.000000 0.000000 0.000000 0.000000 0.000000 0.000000 0.000000 0.000000 0.000000 0.000000 0.000000 0.000000 0.000000 0.000000 0.000000 0.000000 0.000000 0.000000 0.000000 0.000000 0.000000 0.000000 0.000000 0.000000 0.000000 0.000000 0.000000 0.000000 0.000000 0.000000 0.000000 0.000000 0.000000 0.000000 0.000000 0.000000 0.000000 0.000000 0.000000 0.000000 0.000000 0.000000
0.000000 0.000000 0.000000 0.000000 0.000000 0.000000 0.000000 0.000000 0.000000 0.000000 0.000000 0.000000 0.000000 0.000000 0.000000 0.000000 0.000000 0.000000 0.000000 0.000000 0.000000 0.000000 0.000000 0.000000 0.000000 0.000000 0.000000 0.000000 0.000000 0.000000 0.000000 0.000000 0.000000 0.000000 0.000000 0.000000 0.000000 0.000000 0.000000 0.000000 0.000000 0.000000 0.000000 0.000000 0.000000 0.000000 0.000000 0.000000 0.000000 0.000000 0.000000 0.000000 0.000000 0.000000 0.000000 0.000000 0.000000 0.000000 0.000000 0.000000 0.000000 0.000000 0.000000 0.000000 0.000000 0.000000 0.000000 0.000000 0.000000 0.000000 0.000000 0.000000 0.000000 0.000000 0.000000 0.000000 0.000000 0.000000 0.000000 0.000000 0.000000 0.000000 0.000000 0.000000 0.000000 0.000000 0.000000 0.000000 0.000000 0.000000 0.000000 0.000000 0.000000 0.000000 0.000000 0.000000 0.000000 0.000000 0.000000 0.000000 0.000000 0.000000 0.000000
0.000000 0.000000 0.000000 0.000000 18.410580 18.410580 18.410580 18.410580 18.410580 18.410580 18.410580 18.410580 18.410580 18.410580 18.410580 18.410580 18.410580 0.000000 0.000000 0.000000 0.000000 0.000000 0.000000 0.000000 0.000000 0.000000 0.000000 0.000000 0.000000 0.000000 0.000000 0.000000 0.000000 12.042831 12.042831 12.042831 12.042831 12.042831 12.042831 12.042831 12.499776 12.499776 12.499776 12.499776 12.499776 12.499776 0.000000 0.000000 0.000000 0.000000 0.000000 0.000000 0.000000 0.000000 0.000000 0.000000 0.000000 0.000000 0.000000 0.000000 0.000000 0.000000 0.000000 0.000000 0.000000 0.000000 0.000000 0.000000 0.000000 0.000000 0.000000 0.000000 0.000000 0.000000 0.000000 0.000000 0.000000 0.000000 0.000000 0.000000 0.000000 0.000000 0.000000 0.000000 0.000000 0.000000 0.000000 0.000000 0.000000 0.000000 0.000000 0.000000 0.000000 0.000000 0.000000 0.000000 0.000000 0.000000 0.000000 0.000000 0.000000 0.000000 0.000000
0.000000 0.000000 0.000000 0.000000 18.410580 18.410580 18.410580 18.410580 18.410580 18.410580 18.410580 18.410580 18.410580 18.410580 18.410580 18.410580 18.410580 0.000000 0.000000 0.000000 0.000000 0.000000 0.000000 0.000000 0.000000 0.000000 0.000000 0.000000 0.000000 0.000000 0.000000 0.000000 0.000000 12.042831 12.042831 12.042831 12.042831 12.042831 12.042831 12.042831 12.499776 12.499776 12.499776 12.499776 12.499776 12.499776 0.000000 0.000000 0.000000 0.000000 0.000000 0.000000 0.000000 0.000000 0.000000 0.000000 0.000000 0.000000 0.000000 0.000000 0.000000 0.000000 0.000000 0.000000 0.000000 0.000000 0.000000 0.000000 0.000000 0.000000 0.000000 0.000000 0.000000 0.000000 0.000000 0.000000 0.000000 0.000000 0.000000 0.000000 0.000000 0.000000 0.000000 0.000000 0.000000 0.000000 0.000000 0.000000 0.000000 0.000000 0.000000 0.000000 0.000000 0.000000 0.000000 0.000000 0.000000 0.000000 0.000000 0.000000 0.000000 0.000000 0.000000
0.000000 0.000000 0.000000 0.000000 18.410580 18.410580 18.410580 18.410580 18.410580 18.410580 18.410580 18.410580 18.410580 18.410580 18.410580 18.410580 18.410580 0.000000 4.563580 4.563580 4.563580 4.563580 4.563580 4.563580 4.563580 4.563580 0.000000 0.000000 0.000000 0.000000 0.000000 0.000000 0.000000 12.042831 12.042831 12.042831 12.042831 12.042831 12.042831 12.042831 12.499776 12.499776 12.499776 12.499776 12.499776 12.499776 0.000000 0.000000 0.000000 0.000000 0.000000 0.000000 0.000000 10.909093 10.909093 10.909093 10.909093 10.909093 10.909093 10.909093 0.000000 0.000000 0.000000 10.856947 10.856947 10.856947 10.856947 10.856947 10.856947 10.856947 0.000000 0.000000 0.000000 0.000000 0.000000 0.000000 0.000000 0.000000 0.000000 20.682414 20.682414 20.682414 20.682414 20.682414 20.682414 20.682414 20.682414 0.000000 0.000000 0.000000 0.000000 0.000000 0.000000 0.000000 0.000000 0.000000 0.000000 0.000000 0.000000 0.000000 0.000000 0.000000 0.000000
0.000000 0.000000 0.000000 0.000000 18.410580 18.410580 18.410580 18.410580 18.410580 18.410580 18.410580 18.410580 18.410580 18.410580 18.410580 18.410580 18.410580 0.000000 4.563580 4.563580 4.563580 4.563580 4.563580 4.563580 4.563580 4.563580 0.000000 0.000000 0.000000 0.000000 0.000000 0.000000 0.000000 12.042831 12.042831 12.042831 12.042831 12.042831 12.042831 12.042831 12.499776 12.499776 12.499776 12.499776 12.499776 12.499776 0.000000 0.000000 0.000000 0.000000 0.000000 0.000000 0.000000 10.909093 10.909093 10.909093 10.909093 10.909093 10.909093 10.909093 0.000000 0.000000 0.000000 10.856947 10.856947 10.856947 10.856947 10.856947 10.856947 10.856947 0.000000 0.000000 0.000000 0.000000 0.000000 0.000000 0.000000 0.000000 0.000000 20.682414 20.682414 20.682414 20.682414 20.682414 20.682414 20.682414 20.682414 0.000000 0.000000 0.000000 0.000000 0.000000 0.000000 0.000000 0.000000 0.000000 0.000000 0.000000 0.000000 0.000000 0.000000 0.000000 0.000000
0.000000 0.000000 0.000000 0.000000 18.410580 18.410580 18.410580 18.410580 18.410580 18.410580 18.410580 18.410580 18.410580 18.410580 18.410580 18.410580 18.410580 0.000000 0.000000 0.000000 0.000000 0.000000 0.000000 0.000000 0.000000 0.000000 0.000000 0.000000 0.000000 0.000000 0.000000 0.000000 0.000000 12.042831 12.042831 12.042831 12.042831 12.042831 12.042831 12.042831 12.499776 12.499776 12.499776 12.499776 12.499776 12.499776 0.000000 0.000000 0.000000 0.000000 0.000000 0.000000 0.000000 10.909093 10.909093 10.909093 10.909093 10.909093 10.909093 10.909093 0.000000 0.000000 0.000000 10.856947 10.856947 10.856947 10.856947 10.856947 10.856947 10.856947 0.000000 0.000000 0.000000 0.000000 0.000000 0.000000 0.000000 0.000000 0.000000 20.682414 20.682414 20.682414 20.682414 20.682414 20.682414 20.682414 20.682414 0.000000 0.000000 0.000000 0.000000 0.000000 0.000000 0.000000 0.000000 0.000000 0.000000 0.000000 0.000000 0.000000 0.000000 0.000000 0.000000
0.000000 0.000000 0.000000 0.000000 18.410580 18.410580 18.410580 18.410580 18.410580 18.410580 18.410580 18.410580 18.410580 18.410580 18.410580 18.410580 18.410580 0.000000 0.000000 0.000000 0.000000 0.000000 0.000000 0.000000 0.000000 0.000000 0.000000 0.000000 0.000000 0.000000 0.000000 0.000000 0.000000 12.042831 12.042831 12.042831 12.042831 12.042831 12.042831 12.042831 12.499776 12.499776 12.499776 12.499776 12.499776 12.499776 0.000000 0.000000 0.000000 0.000000 0.000000 0.000000 0.000000 10.909093 10.909093 10.909093 10.909093 10.909093 10.909093 10.909093 0.000000 0.000000 0.000000 10.856947 10.856947 10.856947 10.856947 10.856947 10.856947 10.856947 0.000000 0.000000 0.000000 0.000000 0.000000 0.000000 0.000000 0.000000 0.000000 20.682414 20.682414 20.682414 20.682414 20.682414 20.682414 20.682414 20.682414 0.000000 0.000000 0.000000 0.000000 0.000000 0.000000 0.000000 0.000000 0.000000 0.000000 0.000000 0.000000 0.000000 0.000000 0.000000 0.000000
0.000000 0.000000 0.000000 0.000000 0.000000 0.000000 0.000000 0.000000 0.000000 0.000000 0.000000 0.000000 0.000000 0.000000 0.000000 0.000000 0.000000 0.000000 0.000000 0.000000 0.000000 0.000000 0.000000 0.000000 0.000000 0.000000 0.000000 0.000000 0.000000 0.000000 0.000000 0.000000 0.000000 12.042831 12.042831 12.042831 12.042831 12.042831 12.042831 12.042831 12.499776 12.499776 12.499776 12.499776 12.499776 12.499776 0.000000 0.000000 0.000000 0.000000 0.000000 0.000000 0.000000 10.909093 10.909093 10.909093 10.909093 10.909093 10.909093 10.909093 0.000000 0.000000 0.000000 10.856947 10.856947 10.856947 10.856947 10.856947 10.856947 10.856947 0.000000 0.000000 0.000000 0.000000 0.000000 0.000000 0.000000 0.000000 0.000000 20.682414 20.682414 20.682414 20.682414 20.682414 20.682414 20.682414 20.682414 0.000000 0.000000 0.000000 0.000000 0.000000 0.000000 0.000000 0.000000 0.000000 0.000000 0.000000 0.000000 0.000000 0.000000 0.000000 0.000000
0.000000 0.000000 0.000000 0.000000 0.000000 0.000000 0.000000 0.000000 0.000000 0.000000 0.000000 0.000000 0.000000 0.000000 0.000000 0.000000 0.000000 0.000000 0.000000 0.000000 0.000000 0.000000 0.000000 0.000000 0.000000 0.000000 0.000000 0.000000 0.000000 0.000000 0.000000 0.000000 0.000000 13.070162 13.070162 13.070162 13.070162 13.070162 13.070162 13.070162 13.566088 13.566088 13.566088 13.566088 13.566088 13.566088 0.000000 0.000000 0.000000 0.000000 0.000000 0.000000 0.000000 10.909093 10.909093 10.909093 10.909093 10.909093 10.909093 10.909093 0.000000 0.000000 0.000000 10.856947 10.856947 10.856947 10.856947 10.856947 10.856947 10.856947 0.000000 0.000000 0.000000 0.000000 0.000000 0.000000 0.000000 0.000000 0.000000 20.682414 20.682414 20.682414 20.682414 20.682414 20.682414 20.682414 20.682414 0.000000 0.000000 0.000000 0.000000 0.000000 0.000000 0.000000 0.000000 0.000000 0.000000 0.000000 0.000000 0.000000 0.000000 0.000000 0.000000
0.000000 0.000000 0.000000 0.000000 0.000000 0.000000 0.000000 0.000000 0.000000 0.000000 0.000000 0.000000 0.000000 0.000000 0.000000 0.000000 0.000000 0.000000 0.000000 0.000000 0.000000 0.000000 0.000000 0.000000 0.000000 0.000000 0.000000 0.000000 0.000000 0.000000 0.000000 0.000000 0.000000 13.070162 13.070162 13.070162 13.070162 13.070162 13.070162 13.070162 13.566088 13.566088 13.566088 13.566088 13.566088 13.566088 0.000000 0.000000 0.000000 0.000000 0.000000 0.000000 0.000000 10.909093 10.909093 10.909093 10.909093 10.909093 10.909093 10.909093 0.000000 0.000000 0.000000 10.856947 10.856947 10.856947 10.856947 10.856947 10.856947 10.856947 0.000000 0.000000 0.000000 0.000000 0.000000 0.000000 0.000000 0.000000 0.000000 20.682414 20.682414 20.682414 20.682414 20.682414 20.682414 20.682414 20.682414 0.000000 0.000000 0.000000 0.000000 0.000000 0.000000 0.000000 0.000000 0.000000 0.000000 0.000000 0.000000 0.000000 0.000000 0.000000 0.000000
0.000000 0.000000 0.000000 0.000000 0.000000 0.000000 0.000000 0.000000 0.000000 0.000000 0.000000 0.000000 0.000000 0.000000 0.000000 0.000000 0.000000 0.000000 0.000000 0.000000 0.000000 0.000000 0.000000 0.000000 0.000000 0.000000 0.000000 0.000000 0.000000 0.000000 0.000000 0.000000 0.000000 13.070162 13.070162 13.070162 13.070162 13.070162 13.070162 13.070162 13.566088 13.566088 13.566088 13.566088 13.566088 13.566088 0.000000 0.000000 0.000000 0.000000 0.000000 0.000000 0.000000 0.000000 0.000000 0.000000 0.000000 0.000000 0.000000 0.000000 0.000000 0.000000 0.000000 0.000000 0.000000 0.000000 0.000000 0.000000 0.000000 0.000000 0.000000 0.000000 0.000000 0.000000 0.000000 0.000000 0.000000 0.000000 0.000000 20.682414 20.682414 20.682414 20.682414 20.682414 20.682414 20.682414 20.682414 0.000000 0.000000 0.000000 0.000000 0.000000 0.000000 0.000000 0.000000 0.000000 0.000000 0.000000 0.000000 0.000000 0.000000 0.000000 0.000000
0.000000 0.000000 0.000000 0.000000 0.000000 0.000000 0.000000 0.000000 0.000000 0.000000 0.000000 0.000000 0.000000 0.000000 0.000000 0.000000 0.000000 0.000000 0.000000 0.000000 0.000000 0.000000 0.000000 0.000000 0.000000 0.000000 0.000000 0.000000 0.000000 0.000000 0.000000 0.000000 0.000000 13.070162 13.070162 13.070162 13.070162 13.070162 13.070162 13.070162 13.566088 13.566088 13.566088 13.566088 13.566088 13.566088 0.000000 0.000000 0.000000 0.000000 0.000000 0.000000 0.000000 0.000000 0.000000 0.000000 0.000000 0.000000 0.000000 0.000000 0.000000 0.000000 0.000000 0.000000 0.000000 0.000000 0.000000 0.000000 0.000000 0.000000 0.000000 0.000000 0.000000 0.000000 0.000000 0.000000 0.000000 0.000000 0.000000 20.682414 20.682414 20.682414 20.682414 20.682414 20.682414 20.682414 20.682414 0.000000 0.000000 0.000000 0.000000 0.000000 0.000000 0.000000 0.000000 0.000000 0.000000 0.000000 0.000000 0.000000 0.000000 0.000000 0.000000
0.000000 0.000000 0.000000 0.000000 0.000000 0.000000 0.000000 0.000000 0.000000 0.000000 0.000000 0.000000 0.000000 0.000000 0.000000 0.000000 0.000000 0.000000 0.000000 0.000000 0.000000 0.000000 0.000000 0.000000 0.000000 0.000000 0.000000 0.000000 0.000000 0.000000 0.000000 0.000000 0.000000 13.070162 13.070162 13.070162 13.070162 13.070162 13.070162 13.070162 13.566088 13.566088 13.566088 13.566088 13.566088 13.566088 0.000000 0.000000 0.000000 0.000000 0.000000 0.000000 0.000000 0.000000 0.000000 0.000000 0.000000 0.000000 0.000000 0.000000 0.000000 0.000000 0.000000 0.000000 0.000000 0.000000 0.000000 0.000000 0.000000 0.000000 0.000000 0.000000 0.000000 0.000000 0.000000 0.000000 0.000000 0.000000 0.000000 20.682414 20.682414 20.682414 20.682414 20.682414 20.682414 20.682414 20.682414 0.000000 0.000000 0.000000 0.000000 0.000000 0.000000 0.000000 0.000000 0.000000 0.000000 0.000000 0.000000 0.000000 0.000000 0.000000 0.000000
0.000000 0.000000 0.000000 0.000000 0.000000 0.000000 0.000000 0.000000 0.000000 0.000000 0.000000 0.000000 0.000000 0.000000 0.000000 0.000000 0.000000 0.000000 0.000000 0.000000 0.000000 0.000000 0.000000 0.000000 0.000000 0.000000 0.000000 0.000000 0.000000 0.000000 0.000000 0.000000 0.000000 13.070162 13.070162 13.070162 13.070162 13.070162 13.070162 13.070162 13.566088 13.566088 13.566088 13.566088 13.566088 13.566088 0.000000 0.000000 0.000000 0.000000 0.000000 0.000000 0.000000 0.000000 0.000000 0.000000 0.000000 0.000000 0.000000 0.000000 0.000000 0.000000 0.000000 0.000000 0.000000 0.000000 0.000000 0.000000 0.000000 0.000000 0.000000 0.000000 0.000000 0.000000 0.000000 0.000000 0.000000 0.000000 0.000000 0.000000 0.000000 0.000000 0.000000 0.000000 0.000000 0.000000 0.000000 0.000000 0.000000 0.000000 0.000000 0.000000 0.000000 0.000000 0.000000 0.000000 0.000000 0.000000 0.000000 0.000000 0.000000 0.000000 0.000000
0.000000 0.000000 0.000000 0.000000 0.000000 0.000000 0.000000 0.000000 0.000000 0.000000 0.000000 0.000000 0.000000 0.000000 0.000000 0.000000 0.000000 0.000000 0.000000 0.000000 0.000000 0.000000 0.000000 0.000000 0.000000 0.000000 0.000000 0.000000 0.000000 0.000000 0.000000 0.000000 0.000000 13.070162 13.070162 13.070162 13.070162 13.070162 13.070162 13.070162 13.566088 13.566088 13.566088 13.566088 13.566088 13.566088 0.000000 0.000000 0.000000 0.000000 0.000000 0.000000 0.000000 0.000000 0.000000 0.000000 0.000000 0.000000 0.000000 0.000000 0.000000 0.000000 0.000000 0.000000 0.000000 0.000000 0.000000 0.000000 0.000000 0.000000 0.000000 0.000000 0.000000 0.000000 0.000000 0.000000 0.000000 0.000000 0.000000 0.000000 0.000000 0.000000 0.000000 0.000000 0.000000 0.000000 0.000000 0.000000 0.000000 0.000000 0.000000 0.000000 0.000000 0.000000 0.000000 0.000000 0.000000 0.000000 0.000000 0.000000 0.000000 0.000000 0.000000
0.000000 0.000000 0.000000 0.000000 31.563674 31.563674 31.563674 31.563674 31.563674 31.563674 31.563674 31.563674 31.563674 31.563674 31.563674 31.563674 31.563674 29.148114 29.148114 29.148114 29.148114 29.148114 29.148114 29.148114 29.148114 29.148114 29.148114 29.148114 0.000000 0.000000 0.000000 0.000000 0.000000 13.070162 13.070162 13.070162 13.070162 13.070162 13.070162 13.070162 13.566088 13.566088 13.566088 13.566088 13.566088 13.566088 0.000000 0.000000 0.000000 0.000000 0.000000 0.000000 0.000000 0.000000 0.000000 0.000000 0.000000 0.000000 0.000000 0.000000 0.000000 0.000000 0.000000 0.000000 0.000000 0.000000 0.000000 0.000000 0.000000 0.000000 0.000000 0.000000 0.000000 0.000000 0.000000 0.000000 0.000000 0.000000 0.000000 0.000000 0.000000 0.000000 0.000000 0.000000 0.000000 0.000000 0.000000 0.000000 0.000000 0.000000 0.000000 0.000000 0.000000 0.000000 0.000000 0.000000 0.000000 0.000000 0.000000 0.000000 0.000000 0.000000 0.000000
0.000000 0.000000 0.000000 0.000000 31.563674 31.563674 31.563674 31.563674 31.563674 31.563674 31.563674 31.563674 31.563674 31.563674 31.563674 31.563674 31.563674 29.148114 29.148114 29.148114 29.148114 29.148114 29.148114 29.148114 29.148114 29.148114 29.148114 29.148114 0.000000 0.000000 0.000000 0.000000 0.000000 14.890523 14.890523 14.890523 14.890523 14.890523 14.890523 14.890523 15.455519 15.455519 15.455519 15.455519 15.455519 15.455519 0.000000 0.000000 0.000000 0.000000 0.000000 0.000000 0.000000 0.000000 0.000000 0.000000 0.000000 0.000000 0.000000 0.000000 0.000000 0.000000 0.000000 0.000000 0.000000 0.000000 0.000000 0.000000 0.000000 0.000000 0.000000 0.000000 0.000000 0.000000 0.000000 0.000000 0.000000 0.000000 0.000000 0.000000 0.000000 0.000000 0.000000 0.000000 0.000000 0.000000 0.000000 0.000000 0.000000 0.000000 0.000000 0.000000 0.000000 0.000000 0.000000 0.000000 0.000000 0.000000 0.000000 0.000000 0.000000 0.000000 0.000000
0.000000 0.000000 0.000000 0.000000 31.563674 31.563674 31.563674 31.563674 31.563674 31.563674 31.563674 31.563674 31.563674 31.563674 31.563674 31.563674 31.563674 29.148114 29.148114 29.148114 29.148114 29.148114 29.148114 29.148114 29.148114 29.148114 29.148114 29.148114 0.000000 0.000000 0.000000 0.000000 0.000000 14.890523 14.890523 14.890523 14.890523 14.890523 14.890523 14.890523 15.455519 15.455519 15.455519 15.455519 15.455519 15.455519 0.000000 0.000000 0.000000 0.000000 0.000000 0.000000 0.000000 0.000000 0.000000 0.000000 0.000000 0.000000 0.000000 0.000000 0.000000 0.000000 0.000000 0.000000 0.000000 0.000000 0.000000 0.000000 0.000000 0.000000 0.000000 0.000000 0.000000 0.000000 0.000000 0.000000 0.000000 0.000000 0.000000 0.000000 0.000000 0.000000 0.000000 0.000000 0.000000 0.000000 0.000000 0.000000 0.000000 0.000000 11.251019 11.251019 11.251019 11.251019 11.251019 11.251019 11.251019 0.000000 0.000000 0.000000 0.000000 0.000000 0.000000
0.000000 0.000000 0.000000 0.000000 31.563674 31.563674 31.563674 31.563674 31.563674 31.563674 31.563674 31.563674 31.563674 31.563674 31.563674 31.563674 31.563674 29.148114 29.148114 29.148114 29.148114 29.148114 29.148114 29.148114 29.148114 29.148114 29.148114 29.148114 0.000000 0.000000 0.000000 0.000000 0.000000 14.890523 14.890523 14.890523 14.890523 14.890523 14.890523 14.890523 15.455519 15.455519 15.455519 15.455519 15.455519 15.455519 0.000000 0.000000 0.000000 0.000000 0.000000 0.000000 0.000000 0.000000 0.000000 0.000000 0.000000 0.000000 0.000000 0.000000 0.000000 0.000000 0.000000 0.000000 0.000000 0.000000 0.000000 0.000000 0.000000 0.000000 0.000000 0.000000 0.000000 0.000000 0.000000 0.000000 0.000000 0.000000 0.000000 0.000000 0.000000 0.000000 0.000000 0.000000 0.000000 0.000000 0.000000 0.000000 0.000000 0.000000 11.251019 11.251019 11.251019 11.251019 11.251019 11.251019 11.251019 0.000000 0.000000 0.000000 0.000000 0.000000 0.000000
0.000000 0.000000 0.000000 0.000000 31.563674 31.563674 31.563674 31.563674 31.563674 31.563674 31.563674 31.563674 31.563674 31.563674 31.563674 31.563674 31.563674 29.148114 29.148114 29.148114 29.148114 29.148114 29.148114 29.148114 29.148114 29.148114 29.148114 29.148114 0.000000 0.000000 0.000000 0.000000 0.000000 14.890523 14.890523 14.890523 14.890523 14.890523 14.890523 14.890523 15.455519 15.455519 15.455519 15.455519 15.455519 15.455519 0.000000 0.000000 0.000000 0.000000 0.000000 0.000000 0.000000 0.000000 0.000000 0.000000 0.000000 0.000000 0.000000 0.000000 0.000000 0.000000 0.000000 0.000000 0.000000 0.000000 0.000000 0.000000 0.000000 0.000000 0.000000 0.000000 0.000000 0.000000 0.000000 0.000000 0.000000 0.000000 0.000000 0.000000 0.000000 0.000000 0.000000 0.000000 0.000000 0.000000 0.000000 0.000000 0.000000 0.000000 11.251019 11.251019 11.251019 11.251019 11.251019 11.251019 11.251019 0.000000 0.000000 0.000000 0.000000 0.000000 0.000000
0.000000 0.000000 0.000000 0.000000 31.563674 31.563674 31.563674 31.563674 31.563674 31.563674 31.563674 31.563674 31.563674 31.563674 31.563674 31.563674 31.563674 29.148114 29.148114 29.148114 29.148114 29.148114 29.148114 29.148114 29.148114 29.148114 29.148114 29.148114 0.000000 0.000000 0.000000 0.000000 0.000000 14.890523 14.890523 14.890523 14.890523 14.890523 14.890523 14.890523 15.455519 15.455519 15.455519 15.455519 15.455519 15.455519 0.000000 0.000000 0.000000 0.000000 0.000000 0.000000 0.000000 0.000000 0.000000 0.000000 0.000000 0.000000 0.000000 0.000000 0.000000 0.000000 0.000000 0.000000 0.000000 0.000000 0.000000 0.000000 0.000000 0.000000 0.000000 0.000000 0.000000 0.000000 0.000000 0.000000 0.000000 0.000000 0.000000 0.000000 0.000000 0.000000 0.000000 0.000000 0.000000 0.000000 0.000000 0.000000 0.000000 0.000000 11.251019 11.251019 11.251019 11.251019 11.251019 11.251019 11.251019 0.000000 0.000000 0.000000 0.000000 0.000000 0.000000
0.000000 0.000000 0.000000 0.000000 31.563674 31.563674 31.563674 31.563674 31.563674 31.563674 31.563674 31.563674 31.563674 31.563674 31.563674 31.563674 31.563674 29.148114 29.148114 29.148114 29.148114 29.148114 29.148114 29.148114 29.148114 29.148114 29.148114 29.148114 0.000000 0.000000 0.000000 0.000000 0.000000 14.890523 14.890523 14.890523 14.890523 14.890523 14.890523 14.890523 15.455519 15.455519 15.455519 15.455519 15.455519 15.455519 0.000000 0.000000 0.000000 0.000000 0.000000 0.000000 0.000000 0.000000 0.000000 0.000000 0.000000 0.000000 0.000000 0.000000 0.000000 0.000000 0.000000 0.000000 0.000000 0.000000 0.000000 0.000000 0.000000 0.000000 0.000000 0.000000 0.000000 0.000000 0.000000 0.000000 0.000000 0.000000 0.000000 0.000000 0.000000 0.000000 0.000000 0.000000 0.000000 0.000000 0.000000 0.000000 0.000000 0.000000 11.251019 11.251019 11.251019 11.251019 11.251019 11.251019 11.251019 0.000000 0.000000 0.000000 0.000000 0.000000 0.000000
0.000000 0.000000 0.000000 0.000000 31.563674 31.563674 31.563674 31.563674 31.563674 31.563674 31.563674 31.563674 31.563674 31.563674 31.563674 31.563674 31.563674 29.148114 29.148114 29.148114 29.148114 29.148114 29.148114 29.148114 29.148114 29.148114 29.148114 29.148114 0.000000 0.000000 0.000000 0.000000 0.000000 14.890523 14.890523 14.890523 14.890523 14.890523 14.890523 14.890523 15.455519 15.455519 15.455519 15.455519 15.455519 15.455519 0.000000 0.000000 0.000000 0.000000 0.000000 0.000000 0.000000 0.000000 0.000000 0.000000 0.000000 0.000000 0.000000 0.000000 0.000000 0.000000 0.000000 0.000000 0.000000 0.000000 0.000000 0.000000 0.000000 0.000000 0.000000 0.000000 0.000000 0.000000 0.000000 0.000000 0.000000 0.000000 0.000000 0.000000 0.000000 0.000000 0.000000 0.000000 0.000000 0.000000 0.000000 0.000000 0.000000 0.000000 11.251019 11.251019 11.251019 11.251019 11.251019 11.251019 11.251019 0.000000 0.000000 0.000000 0.000000 0.000000 0.000000
0.000000 0.000000 0.000000 0.000000 31.563674 31.563674 31.563674 31.563674 31.563674 31.563674 31.563674 31.563674 31.563674 31.563674 31.563674 31.563674 31.563674 29.148114 29.148114 29.148114 29.148114 29.148114 29.148114 29.148114 29.148114 29.148114 29.148114 29.148114 0.000000 0.000000 0.000000 0.000000 0.000000 14.890523 14.890523 14.890523 14.890523 14.890523 14.890523 14.890523 15.455519 15.455519 15.455519 15.455519 15.455519 15.455519 0.000000 0.000000 0.000000 0.000000 0.000000 0.000000 0.000000 0.000000 0.000000 0.000000 0.000000 0.000000 0.000000 0.000000 0.000000 0.000000 0.000000 0.000000 0.000000 0.000000 0.000000 0.000000 0.000000 0.000000 0.000000 0.000000 0.000000 0.000000 0.000000 0.000000 0.000000 0.000000 0.000000 0.000000 0.000000 0.000000 0.000000 0.000000 0.000000 0.000000 0.000000 0.000000 0.000000 0.000000 11.251019 11.251019 11.251019 11.251019 11.251019 11.251019 11.251019 0.000000 0.000000 0.000000 0.000000 0.000000 0.000000
0.000000 0.000000 0.000000 0.000000 31.563674 31.563674 31.563674 31.563674 31.563674 31.563674 31.563674 31.563674 31.563674 31.563674 31.563674 31.563674 31.563674 29.148114 29.148114 29.148114 29.148114 29.148114 29.148114 29.148114 29.148114 29.148114 29.148114 29.148114 0.000000 0.000000 0.000000 0.000000 0.000000 14.890523 14.890523 14.890523 14.890523 14.890523 14.890523 14.890523 15.455519 15.455519 15.455519 15.455519 15.455519 15.455519 0.000000 0.000000 0.000000 0.000000 0.000000 0.000000 0.000000 0.000000 0.000000 0.000000 0.000000 0.000000 0.000000 0.000000 0.000000 0.000000 0.000000 0.000000 0.000000 0.000000 0.000000 0.000000 0.000000 0.000000 0.000000 0.000000 0.000000 0.000000 0.000000 0.000000 0.000000 0.000000 0.000000 0.000000 0.000000 0.000000 0.000000 0.000000 0.000000 0.000000 0.000000 0.000000 0.000000 0.000000 0.000000 0.000000 0.000000 0.000000 0.000000 0.000000 0.000000 0.000000 0.000000 0.000000 0.000000 0.000000 0.000000
0.000000 0.000000 0.000000 0.000000 31.563674 31.563674 31.563674 31.563674 31.563674 31.563674 31.563674 31.563674 31.563674 31.563674 31.563674 31.563674 31.563674 29.148114 29.148114 29.148114 29.148114 29.148114 29.148114 29.148114 29.148114 29.148114 29.148114 29.148114 0.000000 0.000000 0.000000 0.000000 0.000000 14.890523 14.890523 14.890523 14.890523 14.890523 14.890523 14.890523 15.455519 15.455519 15.455519 15.455519 15.455519 15.455519 0.000000 0.000000 0.000000 0.000000 0.000000 0.000000 0.000000 0.000000 0.000000 0.000000 0.000000 0.000000 0.000000 0.000000 0.000000 0.000000 0.000000 0.000000 0.000000 0.000000 0.000000 0.000000 0.000000 0.000000 0.000000 0.000000 0.000000 0.000000 0.000000 0.000000 0.000000 0.000000 0.000000 0.000000 0.000000 0.000000 0.000000 0.000000 0.000000 0.000000 0.000000 0.000000 0.000000 0.000000 0.000000 0.000000 0.000000 0.000000 0.000000 0.000000 0.000000 0.000000 0.000000 0.000000 0.000000 0.000000 0.000000
0.000000 0.000000 0.000000 0.000000 0.000000 0.000000 0.000000 0.000000 0.000000 0.000000 0.000000 0.000000 0.000000 0.000000 0.000000 0.000000 0.000000 0.000000 0.000000 0.000000 0.000000 0.000000 0.000000 0.000000 0.000000 0.000000 0.000000 0.000000 0.000000 0.000000 0.000000 0.000000 0.000000 0.000000 0.000000 0.000000 0.000000 0.000000 0.000000 0.000000 0.000000 0.000000 0.000000 0.000000 0.000000 0.000000 0.000000 0.000000 0.000000 0.000000 0.000000 0.000000 0.000000 0.000000 0.000000 0.000000 0.000000 0.000000 0.000000 0.000000 0.000000 0.000000 0.000000 0.000000 0.000000 0.000000 0.000000 0.000000 0.000000 0.000000 0.000000 0.000000 0.000000 0.000000 0.000000 0.000000 0.000000 0.000000 0.000000 0.000000 0.000000 0.000000 0.000000 0.000000 0.000000 0.000000 0.000000 0.000000 0.000000 0.000000 0.000000 0.000000 0.000000 0.000000 0.000000 0.000000 0.000000 0.000000 0.000000 0.000000 0.000000 0.000000 0.000000
0.000000 0.000000 0.000000 0.000000 0.000000 0.000000 0.000000 0.000000 0.000000 0.000000 0.000000 0.000000 0.000000 0.000000 0.000000 0.000000 0.000000 0.000000 0.000000 0.000000 0.000000 0.000000 0.000000 0.000000 0.000000 0.000000 0.000000 0.000000 0.000000 0.000000 0.000000 0.000000 0.000000 0.000000 0.000000 0.000000 0.000000 0.000000 0.000000 0.000000 0.000000 0.000000 0.000000 0.000000 0.000000 0.000000 0.000000 0.000000 0.000000 0.000000 0.000000 0.000000 0.000000 0.000000 0.000000 0.000000 0.000000 0.000000 0.000000 0.000000 0.000000 0.000000 0.000000 0.000000 0.000000 0.000000 0.000000 0.000000 0.000000 0.000000 0.000000 0.000000 0.000000 0.000000 0.000000 0.000000 0.000000 0.000000 0.000000 0.000000 0.000000 0.000000 0.000000 0.000000 0.000000 0.000000 0.000000 0.000000 0.000000 0.000000 0.000000 0.000000 0.000000 0.000000 0.000000 0.000000 0.000000 0.000000 0.000000 0.000000 0.000000 0.000000 0.000000
0.000000 0.000000 0.000000 0.000000 0.000000 0.000000 0.000000 0.000000 0.000000 0.000000 0.000000 0.000000 0.000000 0.000000 0.000000 0.000000 0.000000 0.000000 0.000000 0.000000 0.000000 0.000000 0.000000 0.000000 0.000000 0.000000 0.000000 0.000000 0.000000 0.000000 0.000000 0.000000 0.000000 0.000000 0.000000 0.000000 0.000000 0.000000 0.000000 0.000000 0.000000 0.000000 0.000000 0.000000 0.000000 0.000000 0.000000 0.000000 0.000000 0.000000 0.000000 0.000000 0.000000 0.000000 0.000000 0.000000 0.000000 0.000000 0.000000 0.000000 0.000000 0.000000 0.000000 0.000000 0.000000 0.000000 0.000000 0.000000 0.000000 0.000000 0.000000 0.000000 0.000000 0.000000 0.000000 0.000000 0.000000 0.000000 0.000000 0.000000 0.000000 0.000000 0.000000 0.000000 0.000000 0.000000 0.000000 0.000000 0.000000 0.000000 0.000000 0.000000 0.000000 0.000000 0.000000 0.000000 0.000000 0.000000 0.000000 0.000000 0.000000 0.000000 0.000000
0.000000 0.000000 0.000000 0.000000 0.000000 0.000000 0.000000 0.000000 0.000000 0.000000 0.000000 0.000000 0.000000 0.000000 0.000000 0.000000 0.000000 0.000000 0.000000 0.000000 0.000000 0.000000 0.000000 0.000000 0.000000 0.000000 0.000000 0.000000 0.000000 0.000000 0.000000 0.000000 0.000000 0.000000 0.000000 0.000000 0.000000 0.000000 0.000000 0.000000 0.000000 0.000000 0.000000 0.000000 0.000000 0.000000 0.000000 0.000000 0.000000 0.000000 0.000000 0.000000 0.000000 0.000000 0.000000 0.000000 0.000000 0.000000 0.000000 0.000000 0.000000 0.000000 0.000000 0.000000 0.000000 0.000000 0.000000 0.000000 0.000000 0.000000 0.000000 0.000000 0.000000 0.000000 0.000000 0.000000 0.000000 0.000000 0.000000 0.000000 0.000000 0.000000 0.000000 0.000000 0.000000 0.000000 0.000000 0.000000 0.000000 0.000000 0.000000 0.000000 0.000000 0.000000 0.000000 0.000000 0.000000 0.000000 0.000000 0.000000 0.000000 0.000000 0.000000
0.000000 0.000000 0.000000 0.000000 0.000000 0.000000 0.000000 0.000000 0.000000 0.000000 0.000000 0.000000 0.000000 0.000000 0.000000 0.000000 0.000000 0.000000 0.000000 0.000000 0.000000 0.000000 0.000000 0.000000 0.000000 0.000000 0.000000 0.000000 0.000000 0.000000 0.000000 0.000000 0.000000 0.000000 0.000000 0.000000 0.000000 0.000000 0.000000 0.000000 0.000000 0.000000 0.000000 0.000000 0.000000 0.000000 0.000000 0.000000 0.000000 0.000000 0.000000 0.000000 0.000000 0.000000 0.000000 0.000000 0.000000 0.000000 0.000000 0.000000 0.000000 0.000000 0.000000 0.000000 0.000000 0.000000 0.000000 0.000000 0.000000 0.000000 0.000000 0.000000 0.000000 0.000000 0.000000 0.000000 0.000000 0.000000 0.000000 0.000000 0.000000 0.000000 0.000000 0.000000 0.000000 0.000000 0.000000 0.000000 0.000000 0.000000 0.000000 0.000000 0.000000 0.000000 0.000000 0.000000 0.000000 0.000000 0.000000 0.000000 0.000000 0.000000 0.000000
0.000000 0.000000 0.000000 0.000000 13.082474 13.082474 13.082474 13.082474 13.082474 13.082474 13.082474 13.082474 13.082474 10.871570 10.871570 10.871570 10.871570 10.871570 10.871570 10.871570 12.192384 12.192384 12.192384 12.192384 12.192384 12.192384 12.192384 12.192384 0.000000 0.000000 0.000000 0.000000 0.000000 0.000000 0.000000 0.000000 0.000000 0.000000 0.000000 11.707344 11.707344 11.707344 11.707344 11.707344 11.707344 11.707344 0.000000 0.000000 0.000000 0.000000 0.000000 0.000000 0.000000 0.000000 0.000000 0.000000 0.000000 0.000000 0.000000 0.000000 0.000000 0.000000 0.000000 0.000000 0.000000 0.000000 0.000000 0.000000 0.000000 0.000000 0.000000 0.000000 0.000000 0.000000 0.000000 0.000000 0.000000 0.000000 0.000000 0.000000 0.000000 0.000000 0.000000 0.000000 0.000000 0.000000 0.000000 0.000000 0.000000 0.000000 0.000000 0.000000 0.000000 0.000000 0.000000 0.000000 0.000000 0.000000 0.000000 0.000000 0.000000 0.000000 0.000000
0.000000 0.000000 0.000000 0.000000 13.082474 13.082474 13.082474 13.082474 13.082474 13.082474 13.082474 13.082474 13.082474 10.871570 10.871570 10.871570 10.871570 10.871570 10.871570 10.871570 12.192384 12.192384 12.192384 12.192384 12.192384 12.192384 12.192384 12.192384 0.000000 0.000000 0.000000 0.000000 0.000000 0.000000 0.000000 0.000000 0.000000 0.000000 0.000000 11.707344 11.707344 11.707344 11.707344 11.707344 11.707344 11.707344 0.000000 0.000000 0.000000 0.000000 0.000000 0.000000 0.000000 0.000000 0.000000 0.000000 0.000000 0.000000 0.000000 0.000000 0.000000 0.000000 0.000000 0.000000 0.000000 0.000000 0.000000 0.000000 0.000000 0.000000 0.000000 0.000000 0.000000 0.000000 0.000000 0.000000 0.000000 0.000000 0.000000 0.000000 0.000000 0.000000 0.000000 0.000000 0.000000 0.000000 0.000000 0.000000 0.000000 0.000000 0.000000 0.000000 0.000000 0.000000 0.000000 0.000000 0.000000 0.000000 0.000000 0.000000 0.000000 0.000000 0.000000
0.000000 0.000000 0.000000 0.000000 13.082474 13.082474 13.082474 13.082474 13.082474 13.082474 13.082474 13.082474 13.082474 10.871570 10.871570 10.871570 10.871570 10.871570 10.871570 10.871570 12.192384 12.192384 12.192384 12.192384 12.192384 12.192384 12.192384 12.192384 0.000000 0.000000 0.000000 0.000000 0.000000 0.000000 0.000000 0.000000 0.000000 0.000000 0.000000 11.707344 11.707344 11.707344 11.707344 11.707344 11.707344 11.707344 0.000000 0.000000 0.000000 0.000000 0.000000 0.000000 0.000000 0.000000 0.000000 0.000000 0.000000 0.000000 0.000000 0.000000 0.000000 0.000000 0.000000 0.000000 0.000000 0.000000 0.000000 0.000000 0.000000 0.000000 0.000000 0.000000 0.000000 0.000000 0.000000 0.000000 0.000000 0.000000 0.000000 0.000000 0.000000 0.000000 0.000000 0.000000 0.000000 0.000000 0.000000 0.000000 0.000000 0.000000 0.000000 0.000000 0.000000 0.000000 0.000000 0.000000 0.000000 0.000000 0.000000 0.000000 0.000000 0.000000 0.000000
0.000000 0.000000 0.000000 0.000000 13.082474 13.082474 13.082474 13.082474 13.082474 13.082474 13.082474 13.082474 13.082474 10.871570 10.871570 10.871570 10.871570 10.871570 10.871570 10.871570 12.192384 12.192384 12.192384 12.192384 12.192384 12.192384 12.192384 12.192384 0.000000 0.000000 0.000000 0.000000 0.000000 0.000000 0.000000 0.000000 0.000000 0.000000 0.000000 11.707344 11.707344 11.707344 11.707344 11.707344 11.707344 11.707344 0.000000 0.000000 0.000000 0.000000 0.000000 0.000000 0.000000 0.000000 0.000000 0.000000 0.000000 0.000000 0.000000 0.000000 0.000000 0.000000 0.000000 0.000000 0.000000 0.000000 0.000000 0.000000 0.000000 0.000000 0.000000 0.000000 0.000000 0.000000 0.000000 0.000000 0.000000 0.000000 0.000000 0.000000 0.000000 0.000000 0.000000 0.000000 0.000000 0.000000 0.000000 0.000000 0.000000 0.000000 0.000000 0.000000 0.000000 0.000000 0.000000 0.000000 0.000000 0.000000 0.000000 0.000000 0.000000 0.000000 0.000000
0.000000 0.000000 0.000000 0.000000 13.082474 13.082474 13.082474 13.082474 13.082474 13.082474 13.082474 13.082474 13.082474 10.871570 10.871570 10.871570 10.871570 10.871570 10.871570 10.871570 12.192384 12.192384 12.192384 12.192384 12.192384 12.192384 12.192384 12.192384 0.000000 0.000000 0.000000 0.000000 0.000000 0.000000 0.000000 0.000000 0.000000 0.000000 0.000000 11.707344 11.707344 11.707344 11.707344 11.707344 11.707344 11.707344 0.000000 0.000000 0.000000 0.000000 0.000000 0.000000 0.000000 0.000000 0.000000 0.000000 0.000000 0.000000 0.000000 0.000000 0.000000 0.000000 0.000000 0.000000 0.000000 0.000000 0.000000 0.000000 0.000000 0.000000 0.000000 0.000000 0.000000 0.000000 0.000000 0.000000 0.000000 0.000000 0.000000 0.000000 0.000000 0.000000 0.000000 0.000000 0.000000 0.000000 0.000000 0.000000 0.000000 0.000000 0.000000 0.000000 0.000000 0.000000 0.000000 0.000000 0.000000 0.000000 0.000000 0.000000 0.000000 0.000000 0.000000
0.000000 0.000000 0.000000 0.000000 13.082474 13.082474 13.082474 13.082474 13.082474 13.082474 13.082474 13.082474 13.082474 10.871570 10.871570 10.871570 10.871570 10.871570 10.871570 10.871570 12.192384 12.192384 12.192384 12.192384 12.192384 12.192384 12.192384 12.192384 0.000000 0.000000 0.000000 0.000000 0.000000 0.000000 0.000000 0.000000 0.000000 0.000000 0.000000 11.707344 11.707344 11.707344 11.707344 11.707344 11.707344 11.707344 0.000000 0.000000 0.000000 0.000000 0.000000 0.000000 0.000000 0.000000 0.000000 0.000000 0.000000 0.000000 0.000000 0.000000 0.000000 0.000000 0.000000 0.000000 0.000000 0.000000 0.000000 0.000000 0.000000 0.000000 0.000000 0.000000 0.000000 0.000000 0.000000 0.000000 0.000000 0.000000 0.000000 0.000000 0.000000 0.000000 0.000000 0.000000 0.000000 0.000000 0.000000 0.000000 0.000000 0.000000 0.000000 0.000000 0.000000 0.000000 0.000000 0.000000 0.000000 0.000000 0.000000 0.000000 0.000000 0.000000 0.000000
0.000000 0.000000 0.000000 0.000000 13.969204 13.969204 13.969204 13.969204 13.969204 13.969204 13.969204 13.969204 13.969204 11.608445 11.608445 11.608445 11.608445 11.608445 11.608445 11.608445 13.018783 13.018783 13.018783 13.018783 13.018783 13.018783 13.018783 13.018783 0.000000 0.000000 0.000000 0.000000 0.000000 0.000000 0.000000 0.000000 0.000000 0.000000 0.000000 11.707344 11.707344 11.707344 11.707344 11.707344 11.707344 11.707344 0.000000 0.000000 0.000000 0.000000 0.000000 0.000000 0.000000 0.000000 0.000000 0.000000 0.000000 0.000000 0.000000 0.000000 0.000000 0.000000 0.000000 0.000000 0.000000 0.000000 0.000000 0.000000 0.000000 0.000000 0.000000 0.000000 0.000000 0.000000 0.000000 0.000000 0.000000 0.000000 0.000000 0.000000 0.000000 0.000000 0.000000 0.000000 0.000000 0.000000 0.000000 0.000000 0.000000 0.000000 0.000000 0.000000 0.000000 0.000000 0.000000 0.000000 0.000000 0.000000 0.000000 0.000000 0.000000 0.000000 0.000000
0.000000 0.000000 0.000000 0.000000 13.969204 13.969204 13.969204 13.969204 13.969204 13.969204 13.969204 13.969204 13.969204 11.608445 11.608445 11.608445 11.608445 11.608445 11.608445 11.608445 13.018783 13.018783 13.018783 13.018783 13.018783 13.018783 13.018783 13.018783 0.000000 0.000000 0.000000 0.000000 0.000000 0.000000 0.000000 0.000000 0.000000 0.000000 0.000000 0.000000 0.000000 0.000000 0.000000 0.000000 0.000000 0.000000 0.000000 0.000000 0.000000 0.000000 0.000000 0.000000 0.000000 0.000000 0.000000 0.000000 0.000000 0.000000 0.000000 0.000000 0.000000 0.000000 0.000000 0.000000 0.000000 0.000000 0.000000 0.000000 0.000000 0.000000 0.000000 0.000000 0.000000 0.000000 0.000000 0.000000 0.000000 0.000000 0.000000 0.000000 0.000000 0.000000 0.000000 0.000000 0.000000 0.000000 0.000000 0.000000 0.000000 0.000000 0.000000 0.000000 0.000000 0.000000 0.000000 0.000000 0.000000 0.000000 0.000000 0.000000 0.000000 0.000000 0.000000
0.000000 0.000000 0.000000 0.000000 13.969204 13.969204 13.969204 13.969204 13.969204 13.969204 13.969204 13.969204 13.969204 11.608445 11.608445 11.608445 11.608445 11.608445 11.608445 11.608445 13.018783 13.018783 13.018783 13.018783 13.018783 13.018783 13.018783 13.018783 0.000000 0.000000 0.000000 0.000000 0.000000 0.000000 0.000000 0.000000 0.000000 0.000000 0.000000 0.000000 0.000000 0.000000 0.000000 0.000000 0.000000 0.000000 0.000000 0.000000 0.000000 0.000000 0.000000 0.000000 0.000000 0.000000 0.000000 0.000000 0.000000 0.000000 0.000000 0.000000 0.000000 0.000000 0.000000 0.000000 0.000000 0.000000 0.000000 0.000000 0.000000 0.000000 0.000000 0.000000 0.000000 0.000000 0.000000 0.000000 0.000000 0.000000 0.000000 0.000000 0.000000 0.000000 0.000000 0.000000 0.000000 0.000000 0.000000 0.000000 0.000000 0.000000 0.000000 0.000000 0.000000 0.000000 0.000000 0.000000 0.000000 0.000000 0.000000 0.000000 0.000000 0.000000 0.000000
0.000000 0.000000 0.000000 0.000000 13.969204 13.969204 13.969204 13.969204 13.969204 13.969204 13.969204 13.969204 13.969204 11.608445 11.608445 11.608445 11.608445 11.608445 11.608445 11.608445 13.018783 13.018783 13.018783 13.018783 13.018783 13.018783 13.018783 13.018783 0.000000 0.000000 0.000000 0.000000 0.000000 0.000000 0.000000 0.000000 0.000000 0.000000 0.000000 0.000000 0.000000 0.000000 0.000000 0.000000 0.000000 0.000000 0.000000 0.000000 0.000000 0.000000 0.000000 0.000000 0.000000 0.000000 0.000000 0.000000 0.000000 0.000000 0.000000 0.000000 0.000000 0.000000 0.000000 0.000000 0.000000 0.000000 0.000000 0.000000 0.000000 0.000000 0.000000 0.000000 0.000000 0.000000 0.000000 0.000000 0.000000 0.000000 0.000000 0.000000 0.000000 0.000000 0.000000 0.000000 0.000000 0.000000 0.000000 0.000000 0.000000 0.000000 0.000000 0.000000 0.000000 0.000000 0.000000 0.000000 0.000000 0.000000 0.000000 0.000000 0.000000 0.000000 0.000000
0.000000 0.000000 0.000000 0.000000 13.969204 13.969204 13.969204 13.969204 13.969204 13.969204 13.969204 13.969204 13.969204 11.608445 11.608445 11.608445 11.608445 11.608445 11.608445 11.608445 13.018783 13.018783 13.018783 13.018783 13.018783 13.018783 13.018783 13.018783 0.000000 0.000000 0.000000 0.000000 0.000000 0.000000 0.000000 0.000000 0.000000 0.000000 0.000000 0.000000 0.000000 0.000000 0.000000 0.000000 0.000000 0.000000 0.000000 0.000000 0.000000 0.000000 0.000000 0.000000 0.000000 0.000000 0.000000 0.000000 0.000000 0.000000 0.000000 0.000000 0.000000 0.000000 0.000000 0.000000 0.000000 0.000000 0.000000 0.000000 0.000000 0.000000 0.000000 0.000000 0.000000 0.000000 0.000000 0.000000 0.000000 0.000000 0.000000 0.000000 0.000000 0.000000 0.000000 0.000000 0.000000 0.000000 0.000000 0.000000 0.000000 0.000000 0.000000 0.000000 0.000000 0.000000 0.000000 0.000000 0.000000 0.000000 0.000000 0.000000 0.000000 0.000000 0.000000
0.000000 0.000000 0.000000 0.000000 13.969204 13.969204 13.969204 13.969204 13.969204 13.969204 13.969204 13.969204 13.969204 11.608445 11.608445 11.608445 11.608445 11.608445 11.608445 11.608445 13.018783 13.018783 13.018783 13.018783 13.018783 13.018783 13.018783 13.018783 0.000000 0.000000 0.000000 0.000000 0.000000 0.000000 0.000000 0.000000 0.000000 0.000000 0.000000 0.000000 0.000000 0.000000 0.000000 0.000000 0.000000 0.000000 0.000000 0.000000 0.000000 0.000000 0.000000 0.000000 0.000000 0.000000 0.000000 0.000000 0.000000 0.000000 0.000000 0.000000 0.000000 0.000000 0.000000 0.000000 0.000000 0.000000 0.000000 0.000000 0.000000 0.000000 0.000000 0.000000 0.000000 0.000000 0.000000 0.000000 0.000000 0.000000 0.000000 0.000000 0.000000 0.000000 0.000000 0.000000 0.000000 0.000000 0.000000 0.000000 0.000000 0.000000 0.000000 0.000000 0.000000 0.000000 0.000000 0.000000 0.000000 0.000000 0.000000 0.000000 0.000000 0.000000 0.000000
0.000000 0.000000 0.000000 0.000000 13.969204 13.969204 13.969204 13.969204 13.969204 13.969204 13.969204 13.969204 13.969204 11.608445 11.608445 11.608445 11.608445 11.608445 11.608445 11.608445 13.018783 13.018783 13.018783 13.018783 13.018783 13.018783 13.018783 13.018783 0.000000 0.000000 0.000000 0.000000 0.000000 0.000000 0.000000 0.000000 0.000000 0.000000 0.000000 0.000000 0.000000 0.000000 0.000000 0.000000 0.000000 0.000000 0.000000 0.000000 0.000000 0.000000 0.000000 0.000000 0.000000 0.000000 0.000000 0.000000 0.000000 0.000000 0.000000 0.000000 0.000000 0.000000 0.000000 0.000000 0.000000 0.000000 0.000000 0.000000 0.000000 0.000000 0.000000 0.000000 0.000000 0.000000 0.000000 0.000000 0.000000 0.000000 0.000000 0.000000 0.000000 0.000000 0.000000 0.000000 0.000000 0.000000 0.000000 0.000000 0.000000 0.000000 0.000000 0.000000 0.000000 0.000000 0.000000 0.000000 0.000000 0.000000 0.000000 0.000000 0.000000 0.000000 0.000000
0.000000 0.000000 0.000000 0.000000 0.000000 0.000000 0.000000 0.000000 0.000000 0.000000 0.000000 0.000000 0.000000 0.000000 0.000000 0.000000 0.000000 0.000000 0.000000 0.000000 0.000000 0.000000 0.000000 0.000000 0.000000 0.000000 0.000000 0.000000 0.000000 0.000000 0.000000 0.000000 0.000000 0.000000 0.000000 0.000000 0.000000 0.000000 0.000000 0.000000 0.000000 0.000000 0.000000 0.000000 0.000000 0.000000 0.000000 0.000000 0.000000 0.000000 0.000000 0.000000 0.000000 0.000000 0.000000 0.000000 0.000000 0.000000 0.000000 0.000000 0.000000 0.000000 0.000000 0.000000 0.000000 0.000000 0.000000 0.000000 0.000000 0.000000 0.000000 0.000000 0.000000 0.000000 0.000000 0.000000 0.000000 0.000000 0.000000 0.000000 0.000000 0.000000 0.000000 0.000000 0.000000 0.000000 0.000000 0.000000 0.000000 0.000000 0.000000 0.000000 0.000000 0.000000 0.000000 0.000000 0.000000 0.000000 0.000000 0.000000 0.000000 0.000000 0.000000
0.000000 0.000000 0.000000 0.000000 0.000000 0.000000 0.000000 0.000000 0.000000 0.000000 0.000000 0.000000 0.000000 0.000000 0.000000 0.000000 0.000000 0.000000 0.000000 0.000000 0.000000 0.000000 0.000000 0.000000 0.000000 0.000000 0.000000 0.000000 0.000000 0.000000 0.000000 0.000000 0.000000 0.000000 0.000000 0.000000 0.000000 0.000000 0.000000 0.000000 0.000000 0.000000 0.000000 0.000000 0.000000 0.000000 0.000000 0.000000 0.000000 0.000000 0.000000 0.000000 0.000000 0.000000 0.000000 0.000000 0.000000 0.000000 0.000000 0.000000 0.000000 0.000000 0.000000 0.000000 0.000000 0.000000 0.000000 0.000000 0.000000 0.000000 0.000000 0.000000 0.000000 0.000000 0.000000 0.000000 0.000000 0.000000 0.000000 0.000000 0.000000 0.000000 0.000000 0.000000 0.000000 0.000000 0.000000 0.000000 0.000000 0.000000 0.000000 0.000000 0.000000 0.000000 0.000000 0.000000 0.000000 0.000000 0.000000 0.000000 0.000000 0.000000 0.000000
0.000000 0.000000 0.000000 0.000000 0.000000 0.000000 0.000000 0.000000 0.000000 0.000000 0.000000 0.000000 0.000000 0.000000 0.000000 0.000000 0.000000 0.000000 0.000000 0.000000 0.000000 0.000000 0.000000 0.000000 0.000000 0.000000 0.000000 0.000000 0.000000 0.000000 0.000000 0.000000 0.000000 0.000000 0.000000 0.000000 0.000000 0.000000 0.000000 0.000000 0.000000 0.000000 0.000000 0.000000 0.000000 0.000000 0.000000 0.000000 0.000000 0.000000 0.000000 0.000000 0.000000 0.000000 0.000000 0.000000 0.000000 0.000000 0.000000 0.000000 0.000000 0.000000 0.000000 0.000000 0.000000 0.000000 0.000000 0.000000 0.000000 0.000000 0.000000 0.000000 0.000000 0.000000 0.000000 0.000000 0.000000 0.000000 0.000000 0.000000 0.000000 0.000000 0.000000 0.000000 0.000000 0.000000 0.000000 0.000000 0.000000 0.000000 0.000000 0.000000 0.000000 0.000000 0.000000 0.000000 0.000000 0.000000 0.000000 0.000000 0.000000 0.000000 0.000000
0.000000 0.000000 0.000000 0.000000 0.000000 0.000000 0.000000 0.000000 0.000000 0.000000 0.000000 0.000000 0.000000 0.000000 0.000000 0.000000 0.000000 0.000000 0.000000 0.000000 0.000000 0.000000 0.000000 0.000000 0.000000 0.000000 0.000000 0.000000 0.000000 0.000000 0.000000 0.000000 0.000000 0.000000 0.000000 0.000000 0.000000 0.000000 0.000000 0.000000 0.000000 0.000000 0.000000 0.000000 0.000000 0.000000 0.000000 0.000000 0.000000 0.000000 0.000000 0.000000 0.000000 0.000000 0.000000 0.000000 0.000000 0.000000 0.000000 0.000000 0.000000 0.000000 0.000000 0.000000 0.000000 0.000000 0.000000 0.000000 0.000000 0.000000 0.000000 0.000000 0.000000 0.000000 0.000000 0.000000 0.000000 0.000000 0.000000 0.000000 0.000000 0.000000 0.000000 0.000000 0.000000 0.000000 0.000000 0.000000 0.000000 0.000000 0.000000 0.000000 0.000000 0.000000 0.000000 0.000000 0.000000 0.000000 0.000000 0.000000 0.000000 0.000000 0.000000
