0.000000 0.000000 0.000000 0.000000 0.000000 0.000000 0.000000 0.000000 0.000000 0.000000 0.000000 0.000000 0.000000 0.000000 0.000000 0.000000 0.000000 0.000000 0.000000 0.000000 0.000000 0.000000 0.000000 0.000000 0.000000 0.000000 0.000000 0.000000 0.000000 0.000000 0.000000 0.000000 0.000000 0.000000 0.000000 0.000000 0.000000 0.000000 0.000000 0.000000 0.000000 0.000000 0.000000 0.000000 0.000000 0.000000 0.000000 0.000000 0.000000 0.000000 0.000000 0.000000 0.000000 0.000000 0.000000 0.000000 0.000000 0.000000 0.000000 0.000000 0.000000 0.000000 0.000000 0.000000 0.000000 0.000000 0.000000 0.000000 0.000000 0.000000 0.000000 0.000000 0.000000 0.000000 0.000000 0.000000 0.000000 0.000000 0.000000 0.000000 0.000000 0.000000 0.000000 0.000000 0.000000 0.000000 0.000000 0.000000 0.000000 0.000000 0.000000 0.000000 0.000000 0.000000 0.000000 0.000000 0.000000 0.000000 0.000000 0.000000 0.000000 0.000000 0.000000
0.000000 0.000000 0.000000 0.000000 0.000000 0.000000 0.000000 0.000000 0.000000 0.000000 0.000000 0.000000 0.000000 0.000000 0.000000 0.000000 0.000000 0.000000 0.000000 0.000000 0.000000 0.000000 0.000000 0.000000 0.000000 0.000000 0.000000 0.000000 0.000000 0.000000 0.000000 0.000000 0.000000 0.000000 0.000000 0.000000 0.000000 0.000000 0.000000 0.000000 0.000000 0.000000 0.000000 0.000000 0.000000 0.000000 0.000000 0.000000 0.000000 0.000000 0.000000 0.000000 0.000000 0.000000 0.000000 0.000000 0.000000 0.000000 0.000000 0.000000 0.000000 0.000000 0.000000 0.000000 0.000000 0.000000 0.000000 0.000000 0.000000 0.000000 0.000000 0.000000 0.000000 0.000000 0.000000 0.000000 0.000000 0.000000 0.000000 0.000000 0.000000 0.000000 0.000000 0.000000 0.000000 0.000000 0.000000 0.000000 0.000000 0.000000 0.000000 0.000000 0.000000 0.000000 0.000000 0.000000 0.000000 0.000000 0.000000 0.000000 0.000000 0.000000 0.000000
0.000000 0.000000 0.000000 0.000000 0.000000 0.000000 0.000000 0.000000 0.000000 0.000000 0.000000 0.000000 0.000000 0.000000 0.000000 0.000000 0.000000 0.000000 0.000000 0.000000 0.000000 0.000000 0.000000 0.000000 0.000000 0.000000 0.000000 0.000000 0.000000 0.000000 0.000000 0.000000 0.000000 0.000000 0.000000 0.000000 0.000000 0.000000 0.000000 0.000000 0.000000 0.000000 0.000000 0.000000 0.000000 0.000000 0.000000 0.000000 0.000000 0.000000 0.000000 0.000000 0.000000 0.000000 0.000000 0.000000 0.000000 0.000000 0.000000 0.000000 0.000000 0.000000 0.000000 0.000000 0.000000 0.000000 0.000000 0.000000 0.000000 0.000000 0.000000 0.000000 0.000000 0.000000 0.000000 0.000000 0.000000 0.000000 0.000000 0.000000 0.000000 0.000000 0.000000 0.000000 0.000000 0.000000 0.000000 0.000000 0.000000 0.000000 0.000000 0.000000 0.000000 0.000000 0.000000 0.000000 0.000000 0.000000 0.000000 0.000000 0.000000 0.000000 0.000000
0.000000 0.000000 0.000000 0.000000 0.000000 0.000000 0.000000 0.000000 0.000000 0.000000 0.000000 0.000000 0.000000 0.000000 0.000000 0.000000 0.000000 0.000000 0.000000 0.000000 0.000000 0.000000 0.000000 0.000000 0.000000 0.000000 0.000000 0.000000 0.000000 0.000000 0.000000 0.000000 0.000000 0.000000 0.000000 0.000000 0.000000 0.000000 0.000000 0.000000 0.000000 0.000000 0.000000 0.000000 0.000000 0.000000 0.000000 0.000000 0.000000 0.000000 0.000000 0.000000 0.000000 0.000000 0.000000 0.000000 0.000000 0.000000 0.000000 0.000000 0.000000 0.000000 0.000000 0.000000 0.000000 0.000000 0.000000 0.000000 0.000000 0.000000 0.000000 0.000000 0.000000 0.000000 0.000000 0.000000 0.000000 0.000000 0.000000 0.000000 0.000000 0.000000 0.000000 0.000000 0.000000 0.000000 0.000000 0.000000 0.000000 0.000000 0.000000 0.000000 0.000000 0.000000 0.000000 0.000000 0.000000 0.000000 0.000000 0.000000 0.000000 0.000000 0.000000
0.000000 0.000000 0.000000 0.000000 0.000000 0.000000 0.000000 0.000000 0.000000 0.000000 0.000000 0.000000 0.000000 0.000000 0.000000 0.000000 0.000000 0.000000 0.000000 0.000000 0.000000 0.000000 0.000000 0.000000 0.000000 0.000000 0.000000 0.000000 0.000000 0.000000 0.000000 0.000000 0.000000 18.503550 18.503550 18.503550 18.503550 18.503550 18.503550 18.503550 22.206998 22.206998 22.206998 22.206998 22.206998 22.206998 22.206998 22.206998 0.000000 0.000000 0.000000 0.000000 0.000000 0.000000 0.000000 0.000000 0.000000 0.000000 0.000000 0.000000 0.000000 0.000000 0.000000 0.000000 0.000000 0.000000 0.000000 0.000000 0.000000 0.000000 0.000000 0.000000 0.000000 0.000000 0.000000 0.000000 0.000000 0.000000 0.000000 0.000000 0.000000 0.000000 15.002540 15.002540 15.002540 15.002540 15.002540 15.002540 15.002540 15.002540 17.020464 17.020464 17.020464 17.020464 17.020464 17.020464 17.020464 17.020464 17.020464 0.000000 0.000000 0.000000 0.000000
0.000000 0.000000 0.000000 0.000000 0.000000 0.000000 0.000000 0.000000 0.000000 0.000000 0.000000 0.000000 0.000000 0.000000 0.000000 0.000000 0.000000 0.000000 0.000000 0.000000 0.000000 0.000000 0.000000 0.000000 0.000000 0.000000 0.000000 0.000000 0.000000 0.000000 0.000000 0.000000 0.000000 18.503550 18.503550 18.503550 18.503550 18.503550 18.503550 18.503550 22.206998 22.206998 22.206998 22.206998 22.206998 22.206998 22.206998 22.206998 0.000000 0.000000 0.000000 0.000000 0.000000 0.000000 0.000000 0.000000 0.000000 0.000000 0.000000 0.000000 0.000000 0.000000 0.000000 0.000000 0.000000 0.000000 0.000000 0.000000 0.000000 0.000000 0.000000 0.000000 0.000000 0.000000 0.000000 0.000000 0.000000 0.000000 0.000000 0.000000 0.000000 0.000000 15.002540 15.002540 15.002540 15.002540 15.002540 15.002540 15.002540 15.002540 17.020464 17.020464 17.020464 17.020464 17.020464 17.020464 17.020464 17.020464 17.020464 0.000000 0.000000 0.000000 0.000000
0.000000 0.000000 0.000000 0.000000 0.000000 0.000000 14.470969 14.470969 14.470969 14.470969 14.470969 14.470969 14.470969 14.470969 14.470969 0.000000 0.000000 0.000000 0.000000 0.000000 0.000000 0.000000 0.000000 0.000000 0.000000 0.000000 0.000000 0.000000 0.000000 0.000000 0.000000 0.000000 0.000000 18.503550 18.503550 18.503550 18.503550 18.503550 18.503550 18.503550 22.206998 22.206998 22.206998 22.206998 22.206998 22.206998 22.206998 22.206998 0.000000 0.000000 0.000000 0.000000 0.000000 0.000000 0.000000 27.874861 27.874861 27.874861 27.874861 27.874861 27.874861 27.874861 27.874861 27.874861 27.874861 0.000000 0.000000 0.000000 0.000000 18.062300 18.062300 18.062300 18.062300 18.062300 18.062300 0.000000 0.000000 0.000000 0.000000 0.000000 0.000000 0.000000 15.002540 15.002540 15.002540 15.002540 15.002540 15.002540 15.002540 15.002540 17.020464 17.020464 17.020464 17.020464 17.020464 17.020464 17.020464 17.020464 17.020464 0.000000 0.000000 0.000000 0.000000
0.000000 0.000000 0.000000 0.000000 0.000000 0.000000 14.470969 14.470969 14.470969 14.470969 14.470969 14.470969 14.470969 14.470969 14.470969 0.000000 0.000000 0.000000 0.000000 0.000000 0.000000 0.000000 0.000000 0.000000 0.000000 0.000000 0.000000 0.000000 0.000000 0.000000 0.000000 0.000000 0.000000 18.503550 18.503550 18.503550 18.503550 18.503550 18.503550 18.503550 22.206998 22.206998 22.206998 22.206998 22.206998 22.206998 22.206998 22.206998 0.000000 0.000000 0.000000 0.000000 0.000000 0.000000 0.000000 27.874861 27.874861 27.874861 27.874861 27.874861 27.874861 27.874861 27.874861 27.874861 27.874861 0.000000 0.000000 0.000000 0.000000 18.062300 18.062300 18.062300 18.062300 18.062300 18.062300 0.000000 0.000000 0.000000 0.000000 0.000000 0.000000 0.000000 15.002540 15.002540 15.002540 15.002540 15.002540 15.002540 15.002540 15.002540 17.020464 17.020464 17.020464 17.020464 17.020464 17.020464 17.020464 17.020464 17.020464 0.000000 0.000000 0.000000 0.000000
0.000000 0.000000 0.000000 0.000000 0.000000 0.000000 14.470969 14.470969 14.470969 14.470969 14.470969 14.470969 14.470969 14.470969 14.470969 0.000000 0.000000 0.000000 0.000000 0.000000 0.000000 0.000000 0.000000 0.000000 0.000000 0.000000 0.000000 0.000000 0.000000 0.000000 0.000000 0.000000 0.000000 18.503550 18.503550 18.503550 18.503550 18.503550 18.503550 18.503550 22.206998 22.206998 22.206998 22.206998 22.206998 22.206998 22.206998 22.206998 0.000000 0.000000 0.000000 0.000000 0.000000 0.000000 0.000000 27.874861 27.874861 27.874861 27.874861 27.874861 27.874861 27.874861 27.874861 27.874861 27.874861 0.000000 0.000000 0.000000 0.000000 18.062300 18.062300 18.062300 18.062300 18.062300 18.062300 0.000000 0.000000 0.000000 0.000000 0.000000 0.000000 0.000000 15.002540 15.002540 15.002540 15.002540 15.002540 15.002540 15.002540 15.002540 17.020464 17.020464 17.020464 17.020464 17.020464 17.020464 17.020464 17.020464 17.020464 0.000000 0.000000 0.000000 0.000000
0.000000 0.000000 0.000000 0.000000 0.000000 0.000000 14.470969 14.470969 14.470969 14.470969 14.470969 14.470969 14.470969 14.470969 14.470969 0.000000 0.000000 0.000000 0.000000 0.000000 0.000000 0.000000 0.000000 0.000000 0.000000 0.000000 0.000000 0.000000 0.000000 0.000000 0.000000 0.000000 0.000000 18.503550 18.503550 18.503550 18.503550 18.503550 18.503550 18.503550 22.206998 22.206998 22.206998 22.206998 22.206998 22.206998 22.206998 22.206998 0.000000 0.000000 0.000000 0.000000 0.000000 0.000000 0.000000 27.874861 27.874861 27.874861 27.874861 27.874861 27.874861 27.874861 27.874861 27.874861 27.874861 0.000000 0.000000 0.000000 0.000000 18.062300 18.062300 18.062300 18.062300 18.062300 18.062300 0.000000 0.000000 0.000000 0.000000 0.000000 0.000000 0.000000 15.002540 15.002540 15.002540 15.002540 15.002540 15.002540 15.002540 15.002540 17.020464 17.020464 17.020464 17.020464 17.020464 17.020464 17.020464 17.020464 17.020464 0.000000 0.000000 0.000000 0.000000
0.000000 0.000000 0.000000 0.000000 0.000000 0.000000 14.470969 14.470969 14.470969 14.470969 14.470969 14.470969 14.470969 14.470969 14.470969 0.000000 0.000000 0.000000 0.000000 0.000000 0.000000 0.000000 0.000000 0.000000 0.000000 0.000000 0.000000 0.000000 0.000000 0.000000 0.000000 0.000000 0.000000 18.503550 18.503550 18.503550 18.503550 18.503550 18.503550 18.503550 22.206998 22.206998 22.206998 22.206998 22.206998 22.206998 22.206998 22.206998 0.000000 0.000000 0.000000 0.000000 0.000000 0.000000 0.000000 27.874861 27.874861 27.874861 27.874861 27.874861 27.874861 27.874861 27.874861 27.874861 27.874861 0.000000 0.000000 0.000000 0.000000 18.062300 18.062300 18.062300 18.062300 18.062300 18.062300 0.000000 0.000000 0.000000 0.000000 0.000000 0.000000 0.000000 15.002540 15.002540 15.002540 15.002540 15.002540 15.002540 15.002540 15.002540 17.020464 17.020464 17.020464 17.020464 17.020464 17.020464 17.020464 17.020464 17.020464 0.000000 0.000000 0.000000 0.000000
0.000000 0.000000 0.000000 0.000000 0.000000 0.000000 14.470969 14.470969 14.470969 14.470969 14.470969 14.470969 14.470969 14.470969 14.470969 0.000000 0.000000 0.000000 0.000000 0.000000 0.000000 0.000000 0.000000 0.000000 0.000000 0.000000 0.000000 0.000000 0.000000 0.000000 0.000000 0.000000 0.000000 18.503550 18.503550 18.503550 18.503550 18.503550 18.503550 18.503550 22.206998 22.206998 22.206998 22.206998 22.206998 22.206998 22.206998 22.206998 0.000000 0.000000 0.000000 0.000000 0.000000 0.000000 0.000000 27.874861 27.874861 27.874861 27.874861 27.874861 27.874861 27.874861 27.874861 27.874861 27.874861 0.000000 0.000000 0.000000 0.000000 18.062300 18.062300 18.062300 18.062300 18.062300 18.062300 0.000000 0.000000 0.000000 0.000000 0.000000 0.000000 0.000000 15.002540 15.002540 15.002540 15.002540 15.002540 15.002540 15.002540 15.002540 17.020464 17.020464 17.020464 17.020464 17.020464 17.020464 17.020464 17.020464 17.020464 0.000000 0.000000 0.000000 0.000000
0.000000 0.000000 0.000000 0.000000 0.000000 0.000000 14.470969 14.470969 14.470969 14.470969 14.470969 14.470969 14.470969 14.470969 14.470969 0.000000 0.000000 0.000000 0.000000 0.000000 0.000000 0.000000 0.000000 0.000000 0.000000 0.000000 0.000000 0.000000 0.000000 0.000000 0.000000 0.000000 0.000000 18.503550 18.503550 18.503550 18.503550 18.503550 18.503550 18.503550 22.206998 22.206998 22.206998 22.206998 22.206998 22.206998 22.206998 22.206998 0.000000 0.000000 0.000000 0.000000 0.000000 0.000000 0.000000 27.874861 27.874861 27.874861 27.874861 27.874861 27.874861 27.874861 27.874861 27.874861 27.874861 0.000000 0.000000 0.000000 0.000000 18.062300 18.062300 18.062300 18.062300 18.062300 18.062300 0.000000 0.000000 0.000000 0.000000 0.000000 0.000000 0.000000 0.000000 0.000000 0.000000 0.000000 0.000000 0.000000 0.000000 0.000000 19.794625 19.794625 19.794625 19.794625 19.794625 19.794625 19.794625 19.794625 19.794625 0.000000 0.000000 0.000000 0.000000
0.000000 0.000000 0.000000 0.000000 0.000000 0.000000 0.000000 0.000000 0.000000 0.000000 0.000000 0.000000 0.000000 0.000000 0.000000 0.000000 0.000000 0.000000 0.000000 0.000000 0.000000 0.000000 0.000000 0.000000 0.000000 0.000000 0.000000 0.000000 0.000000 0.000000 0.000000 0.000000 0.000000 18.503550 18.503550 18.503550 18.503550 18.503550 18.503550 18.503550 22.206998 22.206998 22.206998 22.206998 22.206998 22.206998 22.206998 22.206998 0.000000 0.000000 0.000000 0.000000 0.000000 0.000000 0.000000 27.874861 27.874861 27.874861 27.874861 27.874861 27.874861 27.874861 27.874861 27.874861 27.874861 0.000000 0.000000 0.000000 0.000000 18.062300 18.062300 18.062300 18.062300 18.062300 18.062300 0.000000 0.000000 0.000000 0.000000 0.000000 0.000000 0.000000 0.000000 0.000000 0.000000 0.000000 0.000000 0.000000 0.000000 0.000000 19.794625 19.794625 19.794625 19.794625 19.794625 19.794625 19.794625 19.794625 19.794625 0.000000 0.000000 0.000000 0.000000
0.000000 0.000000 0.000000 0.000000 0.000000 0.000000 0.000000 0.000000 0.000000 0.000000 0.000000 0.000000 0.000000 0.000000 0.000000 0.000000 0.000000 0.000000 0.000000 0.000000 0.000000 0.000000 0.000000 0.000000 0.000000 0.000000 0.000000 0.000000 0.000000 0.000000 0.000000 0.000000 0.000000 18.503550 18.503550 18.503550 18.503550 18.503550 18.503550 18.503550 22.206998 22.206998 22.206998 22.206998 22.206998 22.206998 22.206998 22.206998 0.000000 0.000000 0.000000 0.000000 0.000000 0.000000 0.000000 27.874861 27.874861 27.874861 27.874861 27.874861 27.874861 27.874861 27.874861 27.874861 27.874861 0.000000 0.000000 0.000000 0.000000 18.062300 18.062300 18.062300 18.062300 18.062300 18.062300 0.000000 0.000000 0.000000 0.000000 0.000000 0.000000 0.000000 0.000000 0.000000 0.000000 0.000000 0.000000 0.000000 0.000000 0.000000 19.794625 19.794625 19.794625 19.794625 19.794625 19.794625 19.794625 19.794625 19.794625 0.000000 0.000000 0.000000 0.000000
0.000000 0.000000 0.000000 0.000000 0.000000 0.000000 0.000000 0.000000 0.000000 0.000000 0.000000 0.000000 0.000000 0.000000 0.000000 0.000000 0.000000 0.000000 0.000000 0.000000 0.000000 0.000000 0.000000 0.000000 0.000000 0.000000 0.000000 0.000000 0.000000 0.000000 0.000000 0.000000 0.000000 14.438052 14.438052 14.438052 14.438052 14.438052 14.438052 14.438052 0.000000 0.000000 0.000000 0.000000 0.000000 0.000000 0.000000 0.000000 0.000000 0.000000 0.000000 0.000000 0.000000 0.000000 0.000000 27.874861 27.874861 27.874861 27.874861 27.874861 27.874861 27.874861 27.874861 27.874861 27.874861 0.000000 0.000000 0.000000 0.000000 18.062300 18.062300 18.062300 18.062300 18.062300 18.062300 0.000000 0.000000 0.000000 0.000000 0.000000 0.000000 0.000000 0.000000 0.000000 0.000000 0.000000 0.000000 0.000000 0.000000 0.000000 19.794625 19.794625 19.794625 19.794625 19.794625 19.794625 19.794625 19.794625 19.794625 0.000000 0.000000 0.000000 0.000000
0.000000 0.000000 0.000000 0.000000 0.000000 0.000000 28.142350 28.142350 28.142350 28.142350 28.142350 28.142350 28.142350 28.142350 28.142350 0.000000 0.000000 0.000000 0.000000 24.608271 24.608271 24.608271 24.608271 24.608271 24.608271 24.608271 0.000000 0.000000 0.000000 0.000000 0.000000 0.000000 0.000000 14.438052 14.438052 14.438052 14.438052 14.438052 14.438052 14.438052 0.000000 0.000000 0.000000 0.000000 0.000000 0.000000 0.000000 0.000000 0.000000 0.000000 0.000000 0.000000 0.000000 0.000000 0.000000 27.874861 27.874861 27.874861 27.874861 27.874861 27.874861 27.874861 27.874861 27.874861 27.874861 0.000000 0.000000 0.000000 0.000000 18.062300 18.062300 18.062300 18.062300 18.062300 18.062300 0.000000 0.000000 0.000000 0.000000 0.000000 0.000000 0.000000 0.000000 0.000000 0.000000 0.000000 0.000000 0.000000 0.000000 0.000000 19.794625 19.794625 19.794625 19.794625 19.794625 19.794625 19.794625 19.794625 19.794625 0.000000 0.000000 0.000000 0.000000
0.000000 0.000000 0.000000 0.000000 0.000000 0.000000 28.142350 28.142350 28.142350 28.142350 28.142350 28.142350 28.142350 28.142350 28.142350 0.000000 0.000000 0.000000 0.000000 24.608271 24.608271 24.608271 24.608271 24.608271 24.608271 24.608271 0.000000 0.000000 0.000000 0.000000 0.000000 0.000000 0.000000 14.438052 14.438052 14.438052 14.438052 14.438052 14.438052 14.438052 0.000000 0.000000 0.000000 0.000000 0.000000 0.000000 0.000000 0.000000 0.000000 0.000000 0.000000 0.000000 0.000000 0.000000 0.000000 0.000000 0.000000 0.000000 0.000000 0.000000 0.000000 0.000000 0.000000 0.000000 0.000000 0.000000 0.000000 0.000000 0.000000 0.000000 0.000000 0.000000 0.000000 0.000000 0.000000 0.000000 0.000000 0.000000 0.000000 0.000000 0.000000 0.000000 0.000000 0.000000 0.000000 0.000000 0.000000 0.000000 0.000000 0.000000 19.794625 19.794625 19.794625 19.794625 19.794625 19.794625 19.794625 19.794625 19.794625 0.000000 0.000000 0.000000 0.000000
0.000000 0.000000 0.000000 0.000000 0.000000 0.000000 28.142350 28.142350 28.142350 28.142350 28.142350 28.142350 28.142350 28.142350 28.142350 0.000000 0.000000 0.000000 0.000000 24.608271 24.608271 24.608271 24.608271 24.608271 24.608271 24.608271 0.000000 0.000000 0.000000 0.000000 0.000000 0.000000 0.000000 14.438052 14.438052 14.438052 14.438052 14.438052 14.438052 14.438052 0.000000 0.000000 0.000000 0.000000 0.000000 0.000000 0.000000 0.000000 0.000000 0.000000 0.000000 0.000000 0.000000 0.000000 0.000000 0.000000 0.000000 0.000000 0.000000 0.000000 0.000000 0.000000 0.000000 0.000000 0.000000 0.000000 0.000000 0.000000 0.000000 0.000000 0.000000 0.000000 0.000000 0.000000 0.000000 0.000000 0.000000 0.000000 0.000000 0.000000 0.000000 0.000000 0.000000 0.000000 0.000000 0.000000 0.000000 0.000000 0.000000 0.000000 19.794625 19.794625 19.794625 19.794625 19.794625 19.794625 19.794625 19.794625 19.794625 0.000000 0.000000 0.000000 0.000000
0.000000 0.000000 0.000000 0.000000 0.000000 0.000000 28.142350 28.142350 28.142350 28.142350 28.142350 28.142350 28.142350 28.142350 28.142350 0.000000 0.000000 0.000000 0.000000 24.608271 24.608271 24.608271 24.608271 24.608271 24.608271 24.608271 0.000000 0.000000 0.000000 0.000000 0.000000 0.000000 0.000000 14.438052 14.438052 14.438052 14.438052 14.438052 14.438052 14.438052 0.000000 0.000000 0.000000 0.000000 0.000000 0.000000 0.000000 0.000000 0.000000 0.000000 0.000000 0.000000 0.000000 0.000000 0.000000 0.000000 0.000000 0.000000 0.000000 0.000000 0.000000 0.000000 0.000000 0.000000 0.000000 0.000000 0.000000 0.000000 0.000000 0.000000 0.000000 0.000000 0.000000 0.000000 0.000000 0.000000 0.000000 0.000000 0.000000 0.000000 0.000000 0.000000 0.000000 0.000000 0.000000 0.000000 0.000000 0.000000 0.000000 0.000000 19.794625 19.794625 19.794625 19.794625 19.794625 19.794625 19.794625 19.794625 19.794625 0.000000 0.000000 0.000000 0.000000
0.000000 0.000000 0.000000 0.000000 0.000000 0.000000 28.142350 28.142350 28.142350 28.142350 28.142350 28.142350 28.142350 28.142350 28.142350 0.000000 0.000000 0.000000 0.000000 24.608271 24.608271 24.608271 24.608271 24.608271 24.608271 24.608271 0.000000 0.000000 0.000000 0.000000 0.000000 0.000000 0.000000 14.438052 14.438052 14.438052 14.438052 14.438052 14.438052 14.438052 0.000000 0.000000 0.000000 0.000000 0.000000 0.000000 0.000000 0.000000 0.000000 0.000000 0.000000 0.000000 0.000000 0.000000 0.000000 0.000000 0.000000 0.000000 0.000000 0.000000 0.000000 0.000000 0.000000 0.000000 0.000000 0.000000 0.000000 0.000000 0.000000 0.000000 0.000000 0.000000 0.000000 0.000000 0.000000 0.000000 0.000000 0.000000 0.000000 0.000000 0.000000 0.000000 0.000000 0.000000 0.000000 0.000000 0.000000 0.000000 0.000000 0.000000 19.794625 19.794625 19.794625 19.794625 19.794625 19.794625 19.794625 19.794625 19.794625 0.000000 0.000000 0.000000 0.000000
0.000000 0.000000 0.000000 0.000000 0.000000 0.000000 28.142350 28.142350 28.142350 28.142350 28.142350 28.142350 28.142350 28.142350 28.142350 0.000000 0.000000 0.000000 0.000000 24.608271 24.608271 24.608271 24.608271 24.608271 24.608271 24.608271 0.000000 0.000000 0.000000 0.000000 0.000000 0.000000 0.000000 14.438052 14.438052 14.438052 14.438052 14.438052 14.438052 14.438052 0.000000 0.000000 0.000000 0.000000 0.000000 0.000000 0.000000 0.000000 0.000000 0.000000 0.000000 0.000000 0.000000 0.000000 0.000000 0.000000 0.000000 0.000000 0.000000 0.000000 0.000000 0.000000 0.000000 0.000000 0.000000 0.000000 0.000000 0.000000 0.000000 0.000000 0.000000 0.000000 0.000000 0.000000 0.000000 0.000000 0.000000 0.000000 0.000000 0.000000 0.000000 0.000000 0.000000 0.000000 0.000000 0.000000 0.000000 0.000000 0.000000 0.000000 24.140456 24.140456 24.140456 24.140456 24.140456 24.140456 24.140456 24.140456 24.140456 0.000000 0.000000 0.000000 0.000000
0.000000 0.000000 0.000000 0.000000 0.000000 0.000000 28.142350 28.142350 28.142350 28.142350 28.142350 28.142350 28.142350 28.142350 28.142350 0.000000 0.000000 0.000000 0.000000 24.608271 24.608271 24.608271 24.608271 24.608271 24.608271 24.608271 0.000000 0.000000 0.000000 0.000000 0.000000 0.000000 0.000000 14.438052 14.438052 14.438052 14.438052 14.438052 14.438052 14.438052 0.000000 0.000000 0.000000 0.000000 0.000000 0.000000 0.000000 0.000000 0.000000 0.000000 0.000000 0.000000 0.000000 0.000000 0.000000 0.000000 0.000000 0.000000 0.000000 0.000000 0.000000 0.000000 0.000000 0.000000 0.000000 0.000000 0.000000 0.000000 0.000000 0.000000 0.000000 0.000000 0.000000 0.000000 0.000000 0.000000 0.000000 0.000000 0.000000 0.000000 0.000000 0.000000 0.000000 0.000000 0.000000 0.000000 0.000000 0.000000 0.000000 0.000000 24.140456 24.140456 24.140456 24.140456 24.140456 24.140456 24.140456 24.140456 24.140456 0.000000 0.000000 0.000000 0.000000
0.000000 0.000000 0.000000 0.000000 0.000000 0.000000 28.142350 28.142350 28.142350 28.142350 28.142350 28.142350 28.142350 28.142350 28.142350 0.000000 0.000000 0.000000 0.000000 24.608271 24.608271 24.608271 24.608271 24.608271 24.608271 24.608271 0.000000 0.000000 0.000000 0.000000 0.000000 0.000000 0.000000 14.438052 14.438052 14.438052 14.438052 14.438052 14.438052 14.438052 0.000000 0.000000 0.000000 0.000000 0.000000 0.000000 0.000000 0.000000 0.000000 0.000000 0.000000 0.000000 0.000000 0.000000 0.000000 0.000000 0.000000 0.000000 0.000000 0.000000 0.000000 0.000000 0.000000 0.000000 0.000000 0.000000 0.000000 0.000000 0.000000 0.000000 0.000000 0.000000 0.000000 0.000000 0.000000 0.000000 0.000000 0.000000 0.000000 0.000000 0.000000 0.000000 0.000000 0.000000 0.000000 0.000000 0.000000 0.000000 0.000000 0.000000 24.140456 24.140456 24.140456 24.140456 24.140456 24.140456 24.140456 24.140456 24.140456 0.000000 0.000000 0.000000 0.000000
0.000000 0.000000 0.000000 0.000000 0.000000 0.000000 28.142350 28.142350 28.142350 28.142350 28.142350 28.142350 28.142350 28.142350 28.142350 0.000000 0.000000 0.000000 0.000000 24.608271 24.608271 24.608271 24.608271 24.608271 24.608271 24.608271 0.000000 0.000000 0.000000 0.000000 0.000000 0.000000 0.000000 11.167715 11.167715 11.167715 11.167715 11.167715 11.167715 11.167715 13.402911 13.402911 13.402911 13.402911 13.402911 13.402911 13.402911 13.402911 0.000000 0.000000 0.000000 0.000000 0.000000 0.000000 0.000000 0.000000 0.000000 0.000000 0.000000 0.000000 0.000000 0.000000 0.000000 0.000000 0.000000 0.000000 0.000000 0.000000 0.000000 0.000000 0.000000 0.000000 0.000000 0.000000 0.000000 0.000000 0.000000 0.000000 0.000000 0.000000 0.000000 0.000000 0.000000 0.000000 0.000000 0.000000 0.000000 0.000000 0.000000 0.000000 24.140456 24.140456 24.140456 24.140456 24.140456 24.140456 24.140456 24.140456 24.140456 0.000000 0.000000 0.000000 0.000000
0.000000 0.000000 0.000000 0.000000 0.000000 0.000000 28.142350 28.142350 28.142350 28.142350 28.142350 28.142350 28.142350 28.142350 28.142350 0.000000 0.000000 0.000000 0.000000 24.608271 24.608271 24.608271 24.608271 24.608271 24.608271 24.608271 0.000000 0.000000 0.000000 0.000000 0.000000 0.000000 0.000000 11.167715 11.167715 11.167715 11.167715 11.167715 11.167715 11.167715 13.402911 13.402911 13.402911 13.402911 13.402911 13.402911 13.402911 13.402911 0.000000 0.000000 0.000000 0.000000 0.000000 0.000000 0.000000 0.000000 0.000000 0.000000 0.000000 0.000000 0.000000 0.000000 0.000000 0.000000 0.000000 0.000000 0.000000 0.000000 0.000000 0.000000 0.000000 0.000000 0.000000 0.000000 0.000000 0.000000 0.000000 0.000000 0.000000 0.000000 0.000000 0.000000 0.000000 0.000000 0.000000 0.000000 0.000000 0.000000 0.000000 0.000000 24.140456 24.140456 24.140456 24.140456 24.140456 24.140456 24.140456 24.140456 24.140456 0.000000 0.000000 0.000000 0.000000
0.000000 0.000000 0.000000 0.000000 0.000000 0.000000 28.142350 28.142350 28.142350 28.142350 28.142350 28.142350 28.142350 28.142350 28.142350 0.000000 0.000000 0.000000 0.000000 24.608271 24.608271 24.608271 24.608271 24.608271 24.608271 24.608271 0.000000 0.000000 0.000000 0.000000 0.000000 0.000000 0.000000 11.167715 11.167715 11.167715 11.167715 11.167715 11.167715 11.167715 13.402911 13.402911 13.402911 13.402911 13.402911 13.402911 13.402911 13.402911 0.000000 0.000000 0.000000 0.000000 0.000000 0.000000 0.000000 0.000000 0.000000 0.000000 0.000000 0.000000 0.000000 0.000000 0.000000 0.000000 0.000000 0.000000 0.000000 0.000000 0.000000 0.000000 0.000000 0.000000 0.000000 0.000000 0.000000 0.000000 0.000000 0.000000 0.000000 0.000000 0.000000 0.000000 0.000000 0.000000 0.000000 0.000000 0.000000 0.000000 0.000000 0.000000 24.140456 24.140456 24.140456 24.140456 24.140456 24.140456 24.140456 24.140456 24.140456 0.000000 0.000000 0.000000 0.000000
0.000000 0.000000 0.000000 0.000000 0.000000 0.000000 28.142350 28.142350 28.142350 28.142350 28.142350 28.142350 28.142350 28.142350 28.142350 0.000000 0.000000 0.000000 0.000000 24.608271 24.608271 24.608271 24.608271 24.608271 24.608271 24.608271 0.000000 0.000000 0.000000 0.000000 0.000000 0.000000 0.000000 11.167715 11.167715 11.167715 11.167715 11.167715 11.167715 11.167715 13.402911 13.402911 13.402911 13.402911 13.402911 13.402911 13.402911 13.402911 0.000000 0.000000 0.000000 0.000000 0.000000 0.000000 0.000000 0.000000 0.000000 0.000000 0.000000 0.000000 0.000000 0.000000 0.000000 0.000000 0.000000 0.000000 0.000000 0.000000 0.000000 0.000000 0.000000 0.000000 0.000000 0.000000 0.000000 0.000000 0.000000 0.000000 0.000000 0.000000 0.000000 0.000000 0.000000 0.000000 0.000000 0.000000 0.000000 0.000000 0.000000 0.000000 24.140456 24.140456 24.140456 24.140456 24.140456 24.140456 24.140456 24.140456 24.140456 0.000000 0.000000 0.000000 0.000000
0.000000 0.000000 0.000000 0.000000 0.000000 0.000000 28.142350 28.142350 28.142350 28.142350 28.142350 28.142350 28.142350 28.142350 28.142350 0.000000 0.000000 0.000000 0.000000 24.608271 24.608271 24.608271 24.608271 24.608271 24.608271 24.608271 0.000000 0.000000 0.000000 0.000000 0.000000 0.000000 0.000000 11.167715 11.167715 11.167715 11.167715 11.167715 11.167715 11.167715 13.402911 13.402911 13.402911 13.402911 13.402911 13.402911 13.402911 13.402911 0.000000 0.000000 0.000000 0.000000 0.000000 0.000000 0.000000 0.000000 0.000000 0.000000 0.000000 0.000000 0.000000 0.000000 0.000000 0.000000 0.000000 0.000000 0.000000 0.000000 0.000000 0.000000 0.000000 0.000000 0.000000 0.000000 0.000000 0.000000 0.000000 0.000000 0.000000 0.000000 0.000000 0.000000 0.000000 0.000000 0.000000 0.000000 0.000000 0.000000 0.000000 0.000000 24.140456 24.140456 24.140456 24.140456 24.140456 24.140456 24.140456 24.140456 24.140456 0.000000 0.000000 0.000000 0.000000
0.000000 0.000000 0.000000 0.000000 0.000000 0.000000 28.142350 28.142350 28.142350 28.142350 28.142350 28.142350 28.142350 28.142350 28.142350 0.000000 0.000000 0.000000 0.000000 24.608271 24.608271 24.608271 24.608271 24.608271 24.608271 24.608271 0.000000 0.000000 0.000000 0.000000 0.000000 0.000000 0.000000 11.167715 11.167715 11.167715 11.167715 11.167715 11.167715 11.167715 13.402911 13.402911 13.402911 13.402911 13.402911 13.402911 13.402911 13.402911 0.000000 0.000000 0.000000 0.000000 0.000000 0.000000 0.000000 0.000000 0.000000 0.000000 0.000000 0.000000 0.000000 0.000000 0.000000 0.000000 0.000000 0.000000 0.000000 0.000000 0.000000 0.000000 0.000000 0.000000 0.000000 0.000000 0.000000 0.000000 0.000000 0.000000 0.000000 0.000000 0.000000 0.000000 0.000000 0.000000 0.000000 0.000000 0.000000 0.000000 0.000000 0.000000 24.140456 24.140456 24.140456 24.140456 24.140456 24.140456 24.140456 24.140456 24.140456 0.000000 0.000000 0.000000 0.000000
0.000000 0.000000 0.000000 0.000000 0.000000 0.000000 0.000000 0.000000 0.000000 0.000000 0.000000 0.000000 0.000000 0.000000 0.000000 0.000000 0.000000 0.000000 0.000000 0.000000 0.000000 0.000000 0.000000 0.000000 0.000000 0.000000 0.000000 0.000000 0.000000 0.000000 0.000000 0.000000 0.000000 11.167715 11.167715 11.167715 11.167715 11.167715 11.167715 11.167715 13.402911 13.402911 13.402911 13.402911 13.402911 13.402911 13.402911 13.402911 0.000000 0.000000 0.000000 0.000000 0.000000 0.000000 0.000000 0.000000 0.000000 0.000000 0.000000 0.000000 0.000000 0.000000 0.000000 0.000000 0.000000 0.000000 0.000000 0.000000 0.000000 0.000000 0.000000 0.000000 0.000000 0.000000 0.000000 0.000000 0.000000 0.000000 0.000000 0.000000 0.000000 0.000000 0.000000 0.000000 0.000000 0.000000 0.000000 0.000000 0.000000 0.000000 24.140456 24.140456 24.140456 24.140456 24.140456 24.140456 24.140456 24.140456 24.140456 0.000000 0.000000 0.000000 0.000000
0.000000 0.000000 0.000000 0.000000 0.000000 0.000000 0.000000 0.000000 0.000000 0.000000 0.000000 0.000000 0.000000 0.000000 0.000000 0.000000 0.000000 0.000000 0.000000 0.000000 0.000000 0.000000 0.000000 0.000000 0.000000 0.000000 0.000000 0.000000 0.000000 0.000000 0.000000 0.000000 0.000000 0.000000 0.000000 0.000000 0.000000 0.000000 0.000000 0.000000 0.000000 0.000000 0.000000 0.000000 0.000000 0.000000 0.000000 0.000000 0.000000 0.000000 0.000000 0.000000 0.000000 0.000000 0.000000 0.000000 0.000000 0.000000 0.000000 0.000000 0.000000 0.000000 0.000000 0.000000 0.000000 0.000000 0.000000 0.000000 0.000000 0.000000 0.000000 0.000000 0.000000 0.000000 0.000000 0.000000 0.000000 0.000000 0.000000 0.000000 0.000000 0.000000 0.000000 0.000000 0.000000 0.000000 0.000000 0.000000 0.000000 0.000000 0.000000 0.000000 0.000000 0.000000 0.000000 0.000000 0.000000 0.000000 0.000000 0.000000 0.000000 0.000000 0.000000
0.000000 0.000000 0.000000 0.000000 0.000000 0.000000 0.000000 0.000000 0.000000 0.000000 0.000000 0.000000 0.000000 0.000000 0.000000 0.000000 0.000000 0.000000 0.000000 0.000000 0.000000 0.000000 0.000000 0.000000 0.000000 0.000000 0.000000 0.000000 0.000000 0.000000 0.000000 0.000000 0.000000 0.000000 0.000000 0.000000 0.000000 0.000000 0.000000 0.000000 0.000000 0.000000 0.000000 0.000000 0.000000 0.000000 0.000000 0.000000 0.000000 0.000000 0.000000 0.000000 0.000000 0.000000 0.000000 0.000000 0.000000 0.000000 0.000000 0.000000 0.000000 0.000000 0.000000 0.000000 0.000000 0.000000 0.000000 0.000000 0.000000 0.000000 0.000000 0.000000 0.000000 0.000000 0.000000 0.000000 0.000000 0.000000 0.000000 0.000000 0.000000 0.000000 0.000000 0.000000 0.000000 0.000000 0.000000 0.000000 0.000000 0.000000 0.000000 0.000000 0.000000 0.000000 0.000000 0.000000 0.000000 0.000000 0.000000 0.000000 0.000000 0.000000 0.000000
0.000000 0.000000 0.000000 0.000000 0.000000 0.000000 0.000000 0.000000 0.000000 0.000000 0.000000 0.000000 0.000000 0.000000 0.000000 0.000000 0.000000 0.000000 0.000000 0.000000 0.000000 0.000000 0.000000 0.000000 0.000000 0.000000 0.000000 0.000000 0.000000 0.000000 0.000000 0.000000 0.000000 0.000000 0.000000 0.000000 0.000000 0.000000 0.000000 0.000000 0.000000 0.000000 0.000000 0.000000 0.000000 0.000000 0.000000 0.000000 0.000000 0.000000 0.000000 0.000000 0.000000 0.000000 0.000000 0.000000 0.000000 0.000000 0.000000 0.000000 0.000000 0.000000 0.000000 0.000000 0.000000 0.000000 0.000000 0.000000 0.000000 0.000000 0.000000 0.000000 0.000000 0.000000 0.000000 0.000000 0.000000 0.000000 0.000000 0.000000 0.000000 0.000000 0.000000 0.000000 0.000000 0.000000 0.000000 0.000000 0.000000 0.000000 0.000000 0.000000 0.000000 0.000000 0.000000 0.000000 0.000000 0.000000 0.000000 0.000000 0.000000 0.000000 0.000000
0.000000 0.000000 0.000000 0.000000 0.000000 0.000000 0.000000 0.000000 0.000000 0.000000 0.000000 0.000000 0.000000 0.000000 0.000000 0.000000 0.000000 0.000000 0.000000 0.000000 0.000000 0.000000 0.000000 0.000000 0.000000 0.000000 0.000000 0.000000 0.000000 0.000000 0.000000 0.000000 0.000000 0.000000 0.000000 0.000000 0.000000 0.000000 0.000000 0.000000 0.000000 0.000000 0.000000 0.000000 0.000000 0.000000 0.000000 0.000000 0.000000 0.000000 0.000000 0.000000 0.000000 0.000000 0.000000 0.000000 0.000000 0.000000 0.000000 0.000000 0.000000 0.000000 0.000000 0.000000 0.000000 0.000000 0.000000 0.000000 0.000000 0.000000 0.000000 0.000000 0.000000 0.000000 0.000000 0.000000 0.000000 0.000000 0.000000 0.000000 0.000000 0.000000 0.000000 0.000000 0.000000 0.000000 0.000000 0.000000 0.000000 0.000000 0.000000 0.000000 0.000000 0.000000 0.000000 0.000000 0.000000 0.000000 0.000000 0.000000 0.000000 0.000000 0.000000
0.000000 0.000000 0.000000 0.000000 0.000000 0.000000 0.000000 0.000000 0.000000 0.000000 0.000000 0.000000 0.000000 0.000000 0.000000 0.000000 0.000000 0.000000 0.000000 0.000000 0.000000 0.000000 0.000000 0.000000 0.000000 0.000000 0.000000 0.000000 0.000000 0.000000 0.000000 0.000000 0.000000 0.000000 0.000000 0.000000 0.000000 0.000000 0.000000 0.000000 0.000000 0.000000 0.000000 0.000000 0.000000 0.000000 0.000000 0.000000 0.000000 0.000000 0.000000 0.000000 0.000000 0.000000 0.000000 0.000000 0.000000 0.000000 0.000000 0.000000 0.000000 0.000000 0.000000 0.000000 0.000000 0.000000 0.000000 0.000000 0.000000 0.000000 0.000000 0.000000 0.000000 0.000000 0.000000 0.000000 0.000000 0.000000 0.000000 0.000000 0.000000 0.000000 0.000000 0.000000 0.000000 0.000000 0.000000 0.000000 0.000000 0.000000 0.000000 0.000000 0.000000 0.000000 0.000000 0.000000 0.000000 0.000000 0.000000 0.000000 0.000000 0.000000 0.000000
0.000000 0.000000 0.000000 0.000000 0.000000 0.000000 0.000000 0.000000 0.000000 0.000000 0.000000 0.000000 0.000000 0.000000 0.000000 0.000000 0.000000 0.000000 0.000000 0.000000 0.000000 0.000000 0.000000 0.000000 0.000000 0.000000 0.000000 0.000000 0.000000 0.000000 0.000000 0.000000 0.000000 0.000000 0.000000 0.000000 0.000000 0.000000 0.000000 0.000000 0.000000 0.000000 0.000000 0.000000 0.000000 0.000000 0.000000 0.000000 0.000000 0.000000 0.000000 0.000000 0.000000 0.000000 0.000000 0.000000 0.000000 0.000000 0.000000 17.961285 17.961285 17.961285 17.961285 17.961285 17.961285 17.961285 26.888996 26.888996 26.888996 26.888996 26.888996 26.888996 26.888996 26.888996 26.888996 26.888996 26.888996 0.000000 0.000000 0.000000 0.000000 0.000000 0.000000 0.000000 0.000000 0.000000 0.000000 0.000000 0.000000 0.000000 0.000000 0.000000 10.444702 10.444702 10.444702 10.444702 10.444702 10.444702 10.444702 0.000000 0.000000 0.000000 0.000000
0.000000 0.000000 0.000000 0.000000 0.000000 0.000000 0.000000 0.000000 0.000000 0.000000 0.000000 0.000000 0.000000 0.000000 0.000000 0.000000 0.000000 0.000000 0.000000 0.000000 0.000000 0.000000 0.000000 0.000000 0.000000 0.000000 0.000000 0.000000 0.000000 0.000000 0.000000 0.000000 0.000000 0.000000 0.000000 0.000000 0.000000 0.000000 0.000000 0.000000 0.000000 0.000000 0.000000 0.000000 0.000000 0.000000 0.000000 0.000000 0.000000 0.000000 0.000000 0.000000 0.000000 0.000000 0.000000 0.000000 0.000000 0.000000 0.000000 17.961285 17.961285 17.961285 17.961285 17.961285 17.961285 17.961285 26.888996 26.888996 26.888996 26.888996 26.888996 26.888996 26.888996 26.888996 26.888996 26.888996 26.888996 0.000000 0.000000 0.000000 0.000000 0.000000 0.000000 0.000000 0.000000 0.000000 0.000000 0.000000 0.000000 0.000000 0.000000 0.000000 10.444702 10.444702 10.444702 10.444702 10.444702 10.444702 10.444702 0.000000 0.000000 0.000000 0.000000
0.000000 0.000000 0.000000 0.000000 0.000000 0.000000 4.023986 4.023986 4.023986 4.023986 4.023986 0.000000 0.000000 0.000000 0.000000 0.000000 0.000000 0.000000 0.000000 0.000000 0.000000 0.000000 0.000000 0.000000 0.000000 0.000000 0.000000 0.000000 0.000000 0.000000 0.000000 0.000000 0.000000 0.000000 0.000000 0.000000 0.000000 0.000000 0.000000 0.000000 0.000000 0.000000 0.000000 0.000000 0.000000 0.000000 0.000000 0.000000 0.000000 0.000000 0.000000 0.000000 0.000000 0.000000 0.000000 0.000000 0.000000 0.000000 0.000000 17.961285 17.961285 17.961285 17.961285 17.961285 17.961285 17.961285 26.888996 26.888996 26.888996 26.888996 26.888996 26.888996 26.888996 26.888996 26.888996 26.888996 26.888996 0.000000 0.000000 0.000000 0.000000 0.000000 0.000000 0.000000 0.000000 0.000000 0.000000 0.000000 0.000000 0.000000 0.000000 0.000000 10.444702 10.444702 10.444702 10.444702 10.444702 10.444702 10.444702 0.000000 0.000000 0.000000 0.000000
0.000000 0.000000 0.000000 0.000000 0.000000 0.000000 4.023986 4.023986 4.023986 4.023986 4.023986 0.000000 0.000000 0.000000 0.000000 0.000000 0.000000 0.000000 0.000000 0.000000 0.000000 0.000000 0.000000 0.000000 0.000000 0.000000 0.000000 0.000000 0.000000 0.000000 0.000000 0.000000 0.000000 0.000000 0.000000 0.000000 0.000000 0.000000 0.000000 0.000000 0.000000 0.000000 0.000000 0.000000 0.000000 0.000000 0.000000 0.000000 0.000000 0.000000 0.000000 0.000000 0.000000 0.000000 0.000000 0.000000 0.000000 0.000000 0.000000 17.961285 17.961285 17.961285 17.961285 17.961285 17.961285 17.961285 26.888996 26.888996 26.888996 26.888996 26.888996 26.888996 26.888996 26.888996 26.888996 26.888996 26.888996 0.000000 0.000000 0.000000 0.000000 0.000000 0.000000 0.000000 0.000000 0.000000 0.000000 0.000000 0.000000 0.000000 0.000000 0.000000 10.444702 10.444702 10.444702 10.444702 10.444702 10.444702 10.444702 0.000000 0.000000 0.000000 0.000000
0.000000 0.000000 0.000000 0.000000 0.000000 0.000000 4.023986 4.023986 4.023986 4.023986 4.023986 0.000000 0.000000 0.000000 0.000000 0.000000 0.000000 0.000000 0.000000 0.000000 0.000000 0.000000 0.000000 0.000000 0.000000 0.000000 0.000000 0.000000 0.000000 0.000000 0.000000 0.000000 0.000000 0.000000 0.000000 0.000000 0.000000 0.000000 0.000000 0.000000 0.000000 0.000000 0.000000 0.000000 0.000000 0.000000 0.000000 0.000000 0.000000 0.000000 0.000000 0.000000 0.000000 0.000000 0.000000 0.000000 0.000000 0.000000 0.000000 17.961285 17.961285 17.961285 17.961285 17.961285 17.961285 17.961285 26.888996 26.888996 26.888996 26.888996 26.888996 26.888996 26.888996 26.888996 26.888996 26.888996 26.888996 0.000000 0.000000 0.000000 0.000000 0.000000 0.000000 0.000000 0.000000 0.000000 0.000000 0.000000 0.000000 0.000000 0.000000 0.000000 10.444702 10.444702 10.444702 10.444702 10.444702 10.444702 10.444702 0.000000 0.000000 0.000000 0.000000
0.000000 0.000000 0.000000 0.000000 0.000000 0.000000 4.023986 4.023986 4.023986 4.023986 4.023986 0.000000 0.000000 0.000000 0.000000 0.000000 0.000000 0.000000 0.000000 0.000000 0.000000 0.000000 0.000000 0.000000 0.000000 0.000000 0.000000 0.000000 0.000000 0.000000 0.000000 0.000000 0.000000 0.000000 0.000000 0.000000 0.000000 0.000000 0.000000 0.000000 0.000000 0.000000 0.000000 0.000000 0.000000 0.000000 0.000000 0.000000 0.000000 0.000000 0.000000 0.000000 0.000000 0.000000 0.000000 0.000000 0.000000 0.000000 0.000000 17.961285 17.961285 17.961285 17.961285 17.961285 17.961285 17.961285 26.888996 26.888996 26.888996 26.888996 26.888996 26.888996 26.888996 26.888996 26.888996 26.888996 26.888996 0.000000 0.000000 0.000000 0.000000 0.000000 0.000000 0.000000 0.000000 0.000000 0.000000 0.000000 0.000000 0.000000 0.000000 0.000000 10.444702 10.444702 10.444702 10.444702 10.444702 10.444702 10.444702 0.000000 0.000000 0.000000 0.000000
0.000000 0.000000 0.000000 0.000000 0.000000 0.000000 0.000000 0.000000 0.000000 0.000000 0.000000 0.000000 0.000000 0.000000 0.000000 0.000000 0.000000 0.000000 0.000000 0.000000 0.000000 0.000000 0.000000 0.000000 0.000000 0.000000 0.000000 0.000000 0.000000 0.000000 0.000000 0.000000 0.000000 0.000000 0.000000 0.000000 0.000000 0.000000 0.000000 0.000000 0.000000 0.000000 0.000000 0.000000 0.000000 0.000000 0.000000 0.000000 0.000000 0.000000 0.000000 0.000000 0.000000 0.000000 0.000000 0.000000 0.000000 0.000000 0.000000 17.961285 17.961285 17.961285 17.961285 17.961285 17.961285 17.961285 26.888996 26.888996 26.888996 26.888996 26.888996 26.888996 26.888996 26.888996 26.888996 26.888996 26.888996 0.000000 0.000000 0.000000 0.000000 0.000000 0.000000 0.000000 0.000000 0.000000 0.000000 0.000000 0.000000 0.000000 0.000000 0.000000 10.444702 10.444702 10.444702 10.444702 10.444702 10.444702 10.444702 0.000000 0.000000 0.000000 0.000000
0.000000 0.000000 0.000000 0.000000 0.000000 0.000000 0.000000 0.000000 0.000000 0.000000 0.000000 0.000000 0.000000 0.000000 0.000000 0.000000 0.000000 0.000000 0.000000 0.000000 0.000000 0.000000 0.000000 0.000000 0.000000 0.000000 0.000000 0.000000 0.000000 0.000000 0.000000 0.000000 0.000000 0.000000 0.000000 0.000000 0.000000 0.000000 0.000000 0.000000 0.000000 0.000000 0.000000 0.000000 0.000000 0.000000 0.000000 0.000000 0.000000 0.000000 0.000000 0.000000 0.000000 0.000000 0.000000 0.000000 0.000000 0.000000 0.000000 17.961285 17.961285 17.961285 17.961285 17.961285 17.961285 17.961285 26.888996 26.888996 26.888996 26.888996 26.888996 26.888996 26.888996 26.888996 26.888996 26.888996 26.888996 0.000000 0.000000 0.000000 0.000000 0.000000 17.744097 17.744097 17.744097 17.744097 17.744097 17.744097 17.744097 17.744097 17.744097 17.744097 11.823058 11.823058 11.823058 11.823058 11.823058 11.823058 11.823058 0.000000 0.000000 0.000000 0.000000
0.000000 0.000000 0.000000 0.000000 18.039756 18.039756 18.039756 18.039756 18.039756 18.039756 18.039756 18.039756 21.279602 21.279602 21.279602 21.279602 21.279602 21.279602 21.279602 21.279602 21.279602 21.279602 0.000000 0.000000 0.000000 0.000000 0.000000 0.000000 0.000000 0.000000 0.000000 0.000000 0.000000 0.000000 0.000000 0.000000 0.000000 0.000000 0.000000 0.000000 0.000000 0.000000 0.000000 0.000000 0.000000 0.000000 0.000000 0.000000 0.000000 0.000000 0.000000 0.000000 0.000000 0.000000 0.000000 0.000000 0.000000 0.000000 0.000000 17.961285 17.961285 17.961285 17.961285 17.961285 17.961285 17.961285 26.888996 26.888996 26.888996 26.888996 26.888996 26.888996 26.888996 26.888996 26.888996 26.888996 26.888996 0.000000 0.000000 0.000000 0.000000 0.000000 17.744097 17.744097 17.744097 17.744097 17.744097 17.744097 17.744097 17.744097 17.744097 17.744097 11.823058 11.823058 11.823058 11.823058 11.823058 11.823058 11.823058 0.000000 0.000000 0.000000 0.000000
0.000000 0.000000 0.000000 0.000000 18.039756 18.039756 18.039756 18.039756 18.039756 18.039756 18.039756 18.039756 21.279602 21.279602 21.279602 21.279602 21.279602 21.279602 21.279602 21.279602 21.279602 21.279602 0.000000 0.000000 0.000000 0.000000 0.000000 0.000000 0.000000 0.000000 0.000000 0.000000 0.000000 0.000000 0.000000 0.000000 0.000000 0.000000 0.000000 0.000000 0.000000 0.000000 0.000000 0.000000 0.000000 0.000000 0.000000 0.000000 0.000000 0.000000 0.000000 0.000000 0.000000 0.000000 0.000000 0.000000 0.000000 0.000000 0.000000 17.961285 17.961285 17.961285 17.961285 17.961285 17.961285 17.961285 26.888996 26.888996 26.888996 26.888996 26.888996 26.888996 26.888996 26.888996 26.888996 26.888996 26.888996 0.000000 0.000000 0.000000 0.000000 0.000000 17.744097 17.744097 17.744097 17.744097 17.744097 17.744097 17.744097 17.744097 17.744097 17.744097 11.823058 11.823058 11.823058 11.823058 11.823058 11.823058 11.823058 0.000000 0.000000 0.000000 0.000000
0.000000 0.000000 0.000000 0.000000 18.039756 18.039756 18.039756 18.039756 18.039756 18.039756 18.039756 18.039756 21.279602 21.279602 21.279602 21.279602 21.279602 21.279602 21.279602 21.279602 21.279602 21.279602 0.000000 0.000000 0.000000 0.000000 0.000000 0.000000 0.000000 0.000000 0.000000 0.000000 0.000000 10.680963 10.680963 10.680963 10.680963 10.680963 10.680963 10.680963 0.000000 0.000000 0.000000 0.000000 0.000000 0.000000 0.000000 0.000000 0.000000 0.000000 0.000000 0.000000 0.000000 0.000000 0.000000 0.000000 0.000000 0.000000 0.000000 17.961285 17.961285 17.961285 17.961285 17.961285 17.961285 17.961285 26.888996 26.888996 26.888996 26.888996 26.888996 26.888996 26.888996 26.888996 26.888996 26.888996 26.888996 0.000000 0.000000 0.000000 0.000000 0.000000 17.744097 17.744097 17.744097 17.744097 17.744097 17.744097 17.744097 17.744097 17.744097 17.744097 11.823058 11.823058 11.823058 11.823058 11.823058 11.823058 11.823058 0.000000 0.000000 0.000000 0.000000
0.000000 0.000000 0.000000 0.000000 18.039756 18.039756 18.039756 18.039756 18.039756 18.039756 18.039756 18.039756 21.279602 21.279602 21.279602 21.279602 21.279602 21.279602 21.279602 21.279602 21.279602 21.279602 0.000000 0.000000 0.000000 0.000000 0.000000 0.000000 0.000000 0.000000 0.000000 0.000000 0.000000 10.680963 10.680963 10.680963 10.680963 10.680963 10.680963 10.680963 0.000000 0.000000 0.000000 0.000000 0.000000 0.000000 0.000000 0.000000 0.000000 0.000000 0.000000 0.000000 0.000000 0.000000 0.000000 0.000000 0.000000 0.000000 0.000000 0.000000 0.000000 0.000000 0.000000 0.000000 0.000000 0.000000 16.969451 16.969451 16.969451 16.969451 16.969451 16.969451 16.969451 16.969451 16.969451 16.969451 16.969451 0.000000 0.000000 0.000000 0.000000 0.000000 17.744097 17.744097 17.744097 17.744097 17.744097 17.744097 17.744097 17.744097 17.744097 17.744097 11.823058 11.823058 11.823058 11.823058 11.823058 11.823058 11.823058 0.000000 0.000000 0.000000 0.000000
0.000000 0.000000 0.000000 0.000000 18.039756 18.039756 18.039756 18.039756 18.039756 18.039756 18.039756 18.039756 21.279602 21.279602 21.279602 21.279602 21.279602 21.279602 21.279602 21.279602 21.279602 21.279602 0.000000 0.000000 0.000000 0.000000 0.000000 0.000000 0.000000 0.000000 0.000000 0.000000 0.000000 10.680963 10.680963 10.680963 10.680963 10.680963 10.680963 10.680963 0.000000 0.000000 0.000000 0.000000 0.000000 0.000000 0.000000 0.000000 0.000000 0.000000 0.000000 0.000000 0.000000 0.000000 0.000000 0.000000 0.000000 0.000000 0.000000 0.000000 0.000000 0.000000 0.000000 0.000000 0.000000 0.000000 16.969451 16.969451 16.969451 16.969451 16.969451 16.969451 16.969451 16.969451 16.969451 16.969451 16.969451 0.000000 0.000000 0.000000 0.000000 0.000000 17.744097 17.744097 17.744097 17.744097 17.744097 17.744097 17.744097 17.744097 17.744097 17.744097 11.823058 11.823058 11.823058 11.823058 11.823058 11.823058 11.823058 0.000000 0.000000 0.000000 0.000000
0.000000 0.000000 0.000000 0.000000 18.039756 18.039756 18.039756 18.039756 18.039756 18.039756 18.039756 18.039756 21.279602 21.279602 21.279602 21.279602 21.279602 21.279602 21.279602 21.279602 21.279602 21.279602 0.000000 0.000000 0.000000 0.000000 0.000000 0.000000 0.000000 0.000000 0.000000 0.000000 0.000000 10.680963 10.680963 10.680963 10.680963 10.680963 10.680963 10.680963 0.000000 0.000000 0.000000 0.000000 0.000000 0.000000 0.000000 0.000000 0.000000 0.000000 0.000000 0.000000 0.000000 0.000000 0.000000 0.000000 0.000000 0.000000 0.000000 0.000000 0.000000 2.335096 2.335096 2.335096 2.335096 0.000000 16.969451 16.969451 16.969451 16.969451 16.969451 16.969451 16.969451 16.969451 16.969451 16.969451 16.969451 0.000000 0.000000 0.000000 0.000000 0.000000 17.744097 17.744097 17.744097 17.744097 17.744097 17.744097 17.744097 17.744097 17.744097 17.744097 11.823058 11.823058 11.823058 11.823058 11.823058 11.823058 11.823058 0.000000 0.000000 0.000000 0.000000
0.000000 0.000000 0.000000 0.000000 18.039756 18.039756 18.039756 18.039756 18.039756 18.039756 18.039756 18.039756 21.279602 21.279602 21.279602 21.279602 21.279602 21.279602 21.279602 21.279602 21.279602 21.279602 0.000000 0.000000 0.000000 0.000000 0.000000 0.000000 0.000000 0.000000 0.000000 0.000000 0.000000 10.680963 10.680963 10.680963 10.680963 10.680963 10.680963 10.680963 0.000000 0.000000 0.000000 0.000000 0.000000 0.000000 0.000000 0.000000 0.000000 0.000000 0.000000 0.000000 0.000000 0.000000 0.000000 0.000000 0.000000 0.000000 0.000000 0.000000 0.000000 2.335096 2.335096 2.335096 2.335096 0.000000 16.969451 16.969451 16.969451 16.969451 16.969451 16.969451 16.969451 16.969451 16.969451 16.969451 16.969451 0.000000 0.000000 0.000000 0.000000 0.000000 25.321890 25.321890 25.321890 25.321890 25.321890 25.321890 25.321890 25.321890 25.321890 25.321890 16.872213 16.872213 16.872213 16.872213 16.872213 16.872213 16.872213 0.000000 0.000000 0.000000 0.000000
0.000000 0.000000 0.000000 0.000000 18.039756 18.039756 18.039756 18.039756 18.039756 18.039756 18.039756 18.039756 21.279602 21.279602 21.279602 21.279602 21.279602 21.279602 21.279602 21.279602 21.279602 21.279602 0.000000 0.000000 0.000000 0.000000 0.000000 0.000000 0.000000 0.000000 0.000000 0.000000 0.000000 10.680963 10.680963 10.680963 10.680963 10.680963 10.680963 10.680963 0.000000 0.000000 0.000000 0.000000 0.000000 0.000000 0.000000 0.000000 0.000000 0.000000 0.000000 0.000000 0.000000 0.000000 0.000000 0.000000 0.000000 0.000000 0.000000 0.000000 0.000000 2.335096 2.335096 2.335096 2.335096 0.000000 16.969451 16.969451 16.969451 16.969451 16.969451 16.969451 16.969451 16.969451 16.969451 16.969451 16.969451 0.000000 0.000000 0.000000 0.000000 0.000000 25.321890 25.321890 25.321890 25.321890 25.321890 25.321890 25.321890 25.321890 25.321890 25.321890 16.872213 16.872213 16.872213 16.872213 16.872213 16.872213 16.872213 0.000000 0.000000 0.000000 0.000000
0.000000 0.000000 0.000000 0.000000 18.039756 18.039756 18.039756 18.039756 18.039756 18.039756 18.039756 18.039756 21.279602 21.279602 21.279602 21.279602 21.279602 21.279602 21.279602 21.279602 21.279602 21.279602 0.000000 0.000000 0.000000 0.000000 0.000000 0.000000 0.000000 0.000000 0.000000 0.000000 0.000000 10.680963 10.680963 10.680963 10.680963 10.680963 10.680963 10.680963 0.000000 0.000000 0.000000 0.000000 0.000000 0.000000 0.000000 0.000000 0.000000 0.000000 0.000000 0.000000 0.000000 0.000000 0.000000 0.000000 0.000000 0.000000 0.000000 0.000000 0.000000 0.000000 0.000000 0.000000 0.000000 0.000000 16.969451 16.969451 16.969451 16.969451 16.969451 16.969451 16.969451 16.969451 16.969451 16.969451 16.969451 0.000000 0.000000 0.000000 0.000000 0.000000 25.321890 25.321890 25.321890 25.321890 25.321890 25.321890 25.321890 25.321890 25.321890 25.321890 16.872213 16.872213 16.872213 16.872213 16.872213 16.872213 16.872213 0.000000 0.000000 0.000000 0.000000
0.000000 0.000000 0.000000 0.000000 13.133650 13.133650 13.133650 13.133650 13.133650 13.133650 13.133650 13.133650 0.000000 0.000000 0.000000 0.000000 0.000000 0.000000 0.000000 0.000000 0.000000 0.000000 10.241238 10.241238 10.241238 10.241238 10.241238 10.241238 0.000000 0.000000 0.000000 0.000000 0.000000 11.230621 11.230621 11.230621 11.230621 11.230621 11.230621 11.230621 0.000000 0.000000 0.000000 0.000000 0.000000 0.000000 0.000000 0.000000 0.000000 0.000000 0.000000 0.000000 0.000000 0.000000 0.000000 0.000000 0.000000 0.000000 0.000000 0.000000 0.000000 0.000000 0.000000 0.000000 0.000000 0.000000 16.969451 16.969451 16.969451 16.969451 16.969451 16.969451 16.969451 16.969451 16.969451 16.969451 16.969451 0.000000 0.000000 0.000000 0.000000 0.000000 25.321890 25.321890 25.321890 25.321890 25.321890 25.321890 25.321890 25.321890 25.321890 25.321890 16.872213 16.872213 16.872213 16.872213 16.872213 16.872213 16.872213 0.000000 0.000000 0.000000 0.000000
0.000000 0.000000 0.000000 0.000000 13.133650 13.133650 13.133650 13.133650 13.133650 13.133650 13.133650 13.133650 0.000000 0.000000 0.000000 0.000000 0.000000 0.000000 0.000000 0.000000 0.000000 0.000000 10.241238 10.241238 10.241238 10.241238 10.241238 10.241238 0.000000 0.000000 0.000000 0.000000 0.000000 11.230621 11.230621 11.230621 11.230621 11.230621 11.230621 11.230621 0.000000 0.000000 0.000000 0.000000 0.000000 0.000000 0.000000 0.000000 0.000000 0.000000 0.000000 0.000000 0.000000 0.000000 0.000000 0.000000 0.000000 0.000000 0.000000 10.652136 10.652136 10.652136 10.652136 10.652136 10.652136 10.652136 0.000000 0.000000 0.000000 0.000000 0.000000 0.000000 0.000000 0.000000 0.000000 0.000000 0.000000 0.000000 0.000000 0.000000 0.000000 0.000000 25.321890 25.321890 25.321890 25.321890 25.321890 25.321890 25.321890 25.321890 25.321890 25.321890 16.872213 16.872213 16.872213 16.872213 16.872213 16.872213 16.872213 0.000000 0.000000 0.000000 0.000000
0.000000 0.000000 0.000000 0.000000 13.133650 13.133650 13.133650 13.133650 13.133650 13.133650 13.133650 13.133650 0.000000 0.000000 4.178497 4.178497 4.178497 4.178497 4.178497 4.178497 0.000000 0.000000 10.241238 10.241238 10.241238 10.241238 10.241238 10.241238 0.000000 0.000000 0.000000 0.000000 0.000000 11.230621 11.230621 11.230621 11.230621 11.230621 11.230621 11.230621 0.000000 0.000000 0.000000 0.000000 0.000000 0.000000 0.000000 0.000000 0.000000 0.000000 0.000000 0.000000 0.000000 0.000000 0.000000 0.000000 0.000000 0.000000 0.000000 10.652136 10.652136 10.652136 10.652136 10.652136 10.652136 10.652136 0.000000 0.000000 0.000000 0.000000 0.000000 0.000000 0.000000 0.000000 0.000000 0.000000 0.000000 0.000000 0.000000 0.000000 0.000000 0.000000 25.321890 25.321890 25.321890 25.321890 25.321890 25.321890 25.321890 25.321890 25.321890 25.321890 16.872213 16.872213 16.872213 16.872213 16.872213 16.872213 16.872213 0.000000 0.000000 0.000000 0.000000
0.000000 0.000000 0.000000 0.000000 13.133650 13.133650 13.133650 13.133650 13.133650 13.133650 13.133650 13.133650 0.000000 0.000000 4.178497 4.178497 4.178497 4.178497 4.178497 4.178497 0.000000 0.000000 10.241238 10.241238 10.241238 10.241238 10.241238 10.241238 0.000000 0.000000 0.000000 0.000000 0.000000 11.230621 11.230621 11.230621 11.230621 11.230621 11.230621 11.230621 0.000000 0.000000 0.000000 0.000000 0.000000 0.000000 0.000000 0.000000 0.000000 0.000000 0.000000 0.000000 0.000000 0.000000 0.000000 1.568787 1.568787 0.000000 0.000000 10.652136 10.652136 10.652136 10.652136 10.652136 10.652136 10.652136 0.000000 0.000000 4.148113 4.148113 4.148113 4.148113 4.148113 4.148113 4.148113 0.000000 0.000000 0.000000 0.000000 0.000000 0.000000 0.000000 25.321890 25.321890 25.321890 25.321890 25.321890 25.321890 25.321890 25.321890 25.321890 25.321890 16.872213 16.872213 16.872213 16.872213 16.872213 16.872213 16.872213 0.000000 0.000000 0.000000 0.000000
0.000000 0.000000 0.000000 0.000000 13.133650 13.133650 13.133650 13.133650 13.133650 13.133650 13.133650 13.133650 0.000000 0.000000 4.178497 4.178497 4.178497 4.178497 4.178497 4.178497 0.000000 0.000000 10.241238 10.241238 10.241238 10.241238 10.241238 10.241238 0.000000 0.000000 0.000000 0.000000 0.000000 11.230621 11.230621 11.230621 11.230621 11.230621 11.230621 11.230621 0.000000 0.000000 0.000000 0.000000 0.000000 0.000000 0.000000 0.000000 0.000000 0.000000 0.000000 0.000000 0.000000 0.000000 0.000000 1.568787 1.568787 0.000000 0.000000 10.652136 10.652136 10.652136 10.652136 10.652136 10.652136 10.652136 0.000000 0.000000 4.148113 4.148113 4.148113 4.148113 4.148113 4.148113 4.148113 0.000000 0.000000 0.000000 0.000000 0.000000 0.000000 0.000000 25.321890 25.321890 25.321890 25.321890 25.321890 25.321890 25.321890 25.321890 25.321890 25.321890 16.872213 16.872213 16.872213 16.872213 16.872213 16.872213 16.872213 0.000000 0.000000 0.000000 0.000000
0.000000 0.000000 0.000000 0.000000 13.133650 13.133650 13.133650 13.133650 13.133650 13.133650 13.133650 13.133650 0.000000 0.000000 0.000000 0.000000 0.000000 0.000000 0.000000 0.000000 0.000000 0.000000 10.241238 10.241238 10.241238 10.241238 10.241238 10.241238 0.000000 0.000000 0.000000 0.000000 0.000000 11.230621 11.230621 11.230621 11.230621 11.230621 11.230621 11.230621 0.000000 0.000000 0.000000 0.000000 0.000000 0.000000 0.000000 0.000000 0.000000 0.000000 0.000000 0.000000 0.000000 0.000000 0.000000 0.000000 0.000000 0.000000 0.000000 10.652136 10.652136 10.652136 10.652136 10.652136 10.652136 10.652136 0.000000 0.000000 0.000000 0.000000 0.000000 0.000000 0.000000 0.000000 0.000000 0.000000 0.000000 0.000000 0.000000 0.000000 0.000000 0.000000 25.321890 25.321890 25.321890 25.321890 25.321890 25.321890 25.321890 25.321890 25.321890 25.321890 16.872213 16.872213 16.872213 16.872213 16.872213 16.872213 16.872213 0.000000 0.000000 0.000000 0.000000
0.000000 0.000000 0.000000 0.000000 13.133650 13.133650 13.133650 13.133650 13.133650 13.133650 13.133650 13.133650 0.000000 0.000000 0.000000 0.000000 0.000000 0.000000 0.000000 0.000000 0.000000 0.000000 10.241238 10.241238 10.241238 10.241238 10.241238 10.241238 0.000000 0.000000 0.000000 0.000000 0.000000 11.230621 11.230621 11.230621 11.230621 11.230621 11.230621 11.230621 0.000000 0.000000 0.000000 0.000000 0.000000 0.000000 0.000000 0.000000 0.000000 0.000000 0.000000 0.000000 0.000000 0.000000 0.000000 0.000000 0.000000 0.000000 0.000000 10.652136 10.652136 10.652136 10.652136 10.652136 10.652136 10.652136 0.000000 0.000000 0.000000 0.000000 0.000000 0.000000 0.000000 0.000000 0.000000 0.000000 0.000000 0.000000 0.000000 0.000000 0.000000 0.000000 25.321890 25.321890 25.321890 25.321890 25.321890 25.321890 25.321890 25.321890 25.321890 25.321890 16.872213 16.872213 16.872213 16.872213 16.872213 16.872213 16.872213 0.000000 0.000000 0.000000 0.000000
0.000000 0.000000 0.000000 0.000000 0.000000 0.000000 0.000000 0.000000 0.000000 0.000000 0.000000 0.000000 0.000000 0.000000 0.000000 0.000000 0.000000 0.000000 0.000000 0.000000 0.000000 0.000000 0.000000 0.000000 0.000000 0.000000 0.000000 0.000000 0.000000 0.000000 0.000000 0.000000 0.000000 0.000000 0.000000 0.000000 0.000000 0.000000 0.000000 0.000000 0.000000 0.000000 0.000000 0.000000 0.000000 0.000000 0.000000 0.000000 0.000000 0.000000 0.000000 0.000000 0.000000 0.000000 0.000000 0.000000 0.000000 0.000000 0.000000 0.000000 0.000000 0.000000 0.000000 0.000000 0.000000 0.000000 0.000000 0.000000 0.000000 0.000000 0.000000 0.000000 0.000000 0.000000 0.000000 0.000000 0.000000 0.000000 0.000000 0.000000 0.000000 0.000000 0.000000 0.000000 0.000000 0.000000 0.000000 0.000000 0.000000 0.000000 0.000000 0.000000 0.000000 0.000000 0.000000 0.000000 0.000000 0.000000 0.000000 0.000000 0.000000 0.000000 0.000000
0.000000 0.000000 0.000000 0.000000 0.000000 0.000000 0.000000 0.000000 0.000000 0.000000 0.000000 0.000000 0.000000 0.000000 0.000000 0.000000 0.000000 0.000000 0.000000 0.000000 0.000000 0.000000 0.000000 0.000000 0.000000 0.000000 0.000000 0.000000 0.000000 0.000000 0.000000 0.000000 0.000000 0.000000 0.000000 0.000000 0.000000 0.000000 0.000000 0.000000 0.000000 0.000000 0.000000 0.000000 0.000000 0.000000 0.000000 0.000000 0.000000 0.000000 0.000000 0.000000 0.000000 0.000000 0.000000 0.000000 0.000000 0.000000 0.000000 0.000000 0.000000 0.000000 0.000000 0.000000 0.000000 0.000000 0.000000 0.000000 0.000000 0.000000 0.000000 0.000000 0.000000 0.000000 0.000000 0.000000 0.000000 0.000000 0.000000 0.000000 0.000000 0.000000 0.000000 0.000000 0.000000 0.000000 0.000000 0.000000 0.000000 0.000000 0.000000 0.000000 0.000000 0.000000 0.000000 0.000000 0.000000 0.000000 0.000000 0.000000 0.000000 0.000000 0.000000
0.000000 0.000000 0.000000 0.000000 0.000000 0.000000 0.000000 0.000000 0.000000 0.000000 0.000000 0.000000 0.000000 0.000000 0.000000 0.000000 0.000000 0.000000 0.000000 0.000000 0.000000 0.000000 0.000000 0.000000 0.000000 0.000000 0.000000 0.000000 0.000000 0.000000 0.000000 0.000000 0.000000 0.000000 0.000000 0.000000 0.000000 0.000000 0.000000 0.000000 0.000000 0.000000 0.000000 0.000000 0.000000 0.000000 0.000000 0.000000 0.000000 0.000000 0.000000 0.000000 0.000000 0.000000 0.000000 0.000000 0.000000 0.000000 0.000000 0.000000 0.000000 0.000000 0.000000 0.000000 0.000000 0.000000 0.000000 0.000000 0.000000 0.000000 0.000000 0.000000 0.000000 0.000000 0.000000 0.000000 0.000000 0.000000 0.000000 0.000000 0.000000 0.000000 0.000000 0.000000 0.000000 0.000000 0.000000 0.000000 0.000000 0.000000 0.000000 0.000000 0.000000 0.000000 0.000000 0.000000 0.000000 0.000000 0.000000 0.000000 0.000000 0.000000 0.000000
0.000000 0.000000 0.000000 0.000000 0.000000 0.000000 0.000000 0.000000 0.000000 0.000000 0.000000 0.000000 0.000000 0.000000 0.000000 0.000000 0.000000 0.000000 0.000000 0.000000 0.000000 0.000000 0.000000 0.000000 0.000000 0.000000 0.000000 0.000000 0.000000 0.000000 0.000000 0.000000 0.000000 0.000000 0.000000 0.000000 0.000000 0.000000 0.000000 0.000000 0.000000 0.000000 0.000000 0.000000 0.000000 0.000000 0.000000 0.000000 0.000000 0.000000 0.000000 0.000000 0.000000 0.000000 0.000000 0.000000 0.000000 0.000000 0.000000 0.000000 0.000000 0.000000 0.000000 0.000000 0.000000 0.000000 0.000000 0.000000 0.000000 0.000000 0.000000 0.000000 0.000000 0.000000 0.000000 0.000000 0.000000 0.000000 0.000000 0.000000 0.000000 0.000000 0.000000 0.000000 0.000000 0.000000 0.000000 0.000000 0.000000 0.000000 0.000000 0.000000 0.000000 0.000000 0.000000 0.000000 0.000000 0.000000 0.000000 0.000000 0.000000 0.000000 0.000000
0.000000 0.000000 0.000000 0.000000 0.000000 0.000000 0.000000 0.000000 0.000000 0.000000 0.000000 0.000000 0.000000 0.000000 0.000000 0.000000 0.000000 0.000000 0.000000 0.000000 0.000000 0.000000 0.000000 0.000000 0.000000 0.000000 0.000000 0.000000 0.000000 0.000000 0.000000 0.000000 0.000000 0.000000 0.000000 0.000000 0.000000 0.000000 0.000000 0.000000 0.000000 0.000000 0.000000 0.000000 0.000000 0.000000 0.000000 0.000000 0.000000 0.000000 0.000000 0.000000 0.000000 0.000000 0.000000 0.000000 0.000000 0.000000 0.000000 0.000000 0.000000 0.000000 0.000000 0.000000 0.000000 0.000000 0.000000 0.000000 0.000000 0.000000 0.000000 0.000000 0.000000 0.000000 0.000000 0.000000 0.000000 0.000000 0.000000 0.000000 0.000000 0.000000 0.000000 0.000000 0.000000 0.000000 0.000000 0.000000 0.000000 0.000000 0.000000 0.000000 0.000000 0.000000 0.000000 0.000000 0.000000 0.000000 0.000000 0.000000 0.000000 0.000000 0.000000
0.000000 0.000000 0.000000 0.000000 0.000000 0.000000 0.000000 0.000000 0.000000 0.000000 0.000000 0.000000 0.000000 0.000000 0.000000 0.000000 0.000000 0.000000 0.000000 0.000000 0.000000 0.000000 0.000000 0.000000 0.000000 0.000000 0.000000 0.000000 0.000000 0.000000 0.000000 0.000000 0.000000 13.982087 13.982087 13.982087 13.982087 13.982087 13.982087 13.982087 15.334275 15.334275 15.334275 15.334275 15.334275 15.334275 15.334275 15.334275 0.000000 0.000000 0.000000 0.000000 0.000000 22.278040 22.278040 22.278040 22.278040 22.278040 22.278040 22.278040 22.278040 22.278040 22.278040 22.278040 12.970121 12.970121 12.970121 12.970121 12.970121 12.970121 12.970121 12.730169 12.730169 12.730169 12.730169 12.730169 12.730169 0.000000 0.000000 0.000000 0.000000 0.000000 0.000000 0.000000 0.000000 0.000000 0.000000 0.000000 0.000000 0.000000 0.000000 0.000000 0.000000 0.000000 0.000000 0.000000 0.000000 0.000000 0.000000 0.000000 0.000000 0.000000 0.000000
0.000000 0.000000 0.000000 0.000000 0.000000 0.000000 0.000000 0.000000 0.000000 0.000000 0.000000 0.000000 0.000000 0.000000 0.000000 0.000000 0.000000 0.000000 0.000000 0.000000 0.000000 0.000000 0.000000 0.000000 0.000000 0.000000 0.000000 0.000000 0.000000 0.000000 0.000000 0.000000 0.000000 13.982087 13.982087 13.982087 13.982087 13.982087 13.982087 13.982087 15.334275 15.334275 15.334275 15.334275 15.334275 15.334275 15.334275 15.334275 0.000000 0.000000 0.000000 0.000000 0.000000 22.278040 22.278040 22.278040 22.278040 22.278040 22.278040 22.278040 22.278040 22.278040 22.278040 22.278040 12.970121 12.970121 12.970121 12.970121 12.970121 12.970121 12.970121 12.730169 12.730169 12.730169 12.730169 12.730169 12.730169 0.000000 0.000000 0.000000 0.000000 0.000000 0.000000 0.000000 0.000000 0.000000 0.000000 0.000000 0.000000 0.000000 0.000000 0.000000 0.000000 0.000000 0.000000 0.000000 0.000000 0.000000 0.000000 0.000000 0.000000 0.000000 0.000000
0.000000 0.000000 0.000000 0.000000 0.000000 0.000000 9.261398 9.261398 9.261398 9.261398 9.261398 9.261398 9.261398 9.261398 9.261398 0.000000 0.000000 0.000000 8.968860 8.968860 8.968860 8.968860 8.968860 8.968860 8.968860 8.968860 0.000000 0.000000 0.000000 0.000000 0.000000 0.000000 0.000000 13.982087 13.982087 13.982087 13.982087 13.982087 13.982087 13.982087 15.334275 15.334275 15.334275 15.334275 15.334275 15.334275 15.334275 15.334275 0.000000 0.000000 0.000000 0.000000 0.000000 22.278040 22.278040 22.278040 22.278040 22.278040 22.278040 22.278040 22.278040 22.278040 22.278040 22.278040 12.970121 12.970121 12.970121 12.970121 12.970121 12.970121 12.970121 12.730169 12.730169 12.730169 12.730169 12.730169 12.730169 0.000000 0.000000 0.000000 0.000000 0.000000 0.000000 0.000000 0.000000 0.000000 0.000000 0.000000 0.000000 0.000000 0.000000 0.000000 0.000000 0.000000 0.000000 0.000000 0.000000 0.000000 0.000000 0.000000 0.000000 0.000000 0.000000
0.000000 0.000000 0.000000 0.000000 0.000000 0.000000 9.261398 9.261398 9.261398 9.261398 9.261398 9.261398 9.261398 9.261398 9.261398 0.000000 0.000000 0.000000 8.968860 8.968860 8.968860 8.968860 8.968860 8.968860 8.968860 8.968860 0.000000 0.000000 0.000000 0.000000 0.000000 0.000000 0.000000 13.982087 13.982087 13.982087 13.982087 13.982087 13.982087 13.982087 15.334275 15.334275 15.334275 15.334275 15.334275 15.334275 15.334275 15.334275 0.000000 0.000000 0.000000 0.000000 0.000000 22.278040 22.278040 22.278040 22.278040 22.278040 22.278040 22.278040 22.278040 22.278040 22.278040 22.278040 12.970121 12.970121 12.970121 12.970121 12.970121 12.970121 12.970121 12.730169 12.730169 12.730169 12.730169 12.730169 12.730169 0.000000 0.000000 0.000000 0.000000 0.000000 0.000000 0.000000 0.000000 0.000000 0.000000 0.000000 0.000000 0.000000 0.000000 0.000000 0.000000 0.000000 0.000000 0.000000 0.000000 0.000000 0.000000 0.000000 0.000000 0.000000 0.000000
0.000000 0.000000 0.000000 0.000000 0.000000 0.000000 9.261398 9.261398 9.261398 9.261398 9.261398 9.261398 9.261398 9.261398 9.261398 0.000000 0.000000 0.000000 8.968860 8.968860 8.968860 8.968860 8.968860 8.968860 8.968860 8.968860 0.000000 0.000000 0.000000 0.000000 0.000000 0.000000 0.000000 13.982087 13.982087 13.982087 13.982087 13.982087 13.982087 13.982087 15.334275 15.334275 15.334275 15.334275 15.334275 15.334275 15.334275 15.334275 0.000000 0.000000 0.000000 0.000000 0.000000 22.278040 22.278040 22.278040 22.278040 22.278040 22.278040 22.278040 22.278040 22.278040 22.278040 22.278040 12.970121 12.970121 12.970121 12.970121 12.970121 12.970121 12.970121 12.730169 12.730169 12.730169 12.730169 12.730169 12.730169 0.000000 0.000000 0.000000 0.000000 0.000000 0.000000 0.000000 0.000000 0.000000 0.000000 0.000000 0.000000 0.000000 0.000000 0.000000 0.000000 0.000000 0.000000 0.000000 0.000000 0.000000 0.000000 0.000000 0.000000 0.000000 0.000000
0.000000 0.000000 0.000000 0.000000 0.000000 0.000000 9.261398 9.261398 9.261398 9.261398 9.261398 9.261398 9.261398 9.261398 9.261398 0.000000 0.000000 0.000000 8.968860 8.968860 8.968860 8.968860 8.968860 8.968860 8.968860 8.968860 0.000000 0.000000 0.000000 0.000000 0.000000 0.000000 0.000000 13.982087 13.982087 13.982087 13.982087 13.982087 13.982087 13.982087 15.334275 15.334275 15.334275 15.334275 15.334275 15.334275 15.334275 15.334275 0.000000 0.000000 0.000000 0.000000 0.000000 22.278040 22.278040 22.278040 22.278040 22.278040 22.278040 22.278040 22.278040 22.278040 22.278040 22.278040 12.970121 12.970121 12.970121 12.970121 12.970121 12.970121 12.970121 12.730169 12.730169 12.730169 12.730169 12.730169 12.730169 0.000000 0.000000 0.000000 0.000000 0.000000 0.000000 0.000000 0.000000 0.000000 0.000000 0.000000 0.000000 0.000000 0.000000 0.000000 0.000000 0.000000 0.000000 0.000000 0.000000 0.000000 0.000000 0.000000 0.000000 0.000000 0.000000
0.000000 0.000000 0.000000 0.000000 0.000000 0.000000 0.000000 0.000000 0.000000 0.000000 0.000000 0.000000 0.000000 0.000000 0.000000 0.000000 0.000000 0.000000 0.000000 0.000000 0.000000 0.000000 0.000000 0.000000 0.000000 0.000000 0.000000 0.000000 0.000000 0.000000 0.000000 0.000000 0.000000 13.982087 13.982087 13.982087 13.982087 13.982087 13.982087 13.982087 15.334275 15.334275 15.334275 15.334275 15.334275 15.334275 15.334275 15.334275 0.000000 0.000000 0.000000 0.000000 0.000000 22.278040 22.278040 22.278040 22.278040 22.278040 22.278040 22.278040 22.278040 22.278040 22.278040 22.278040 12.970121 12.970121 12.970121 12.970121 12.970121 12.970121 12.970121 12.730169 12.730169 12.730169 12.730169 12.730169 12.730169 0.000000 0.000000 0.000000 0.000000 0.000000 0.000000 0.000000 0.000000 0.000000 0.000000 0.000000 0.000000 0.000000 0.000000 0.000000 0.000000 0.000000 0.000000 0.000000 0.000000 0.000000 0.000000 0.000000 0.000000 0.000000 0.000000
0.000000 0.000000 0.000000 0.000000 0.000000 0.000000 0.000000 0.000000 0.000000 0.000000 0.000000 0.000000 0.000000 0.000000 0.000000 0.000000 0.000000 0.000000 0.000000 0.000000 0.000000 0.000000 0.000000 0.000000 0.000000 0.000000 0.000000 0.000000 0.000000 0.000000 0.000000 0.000000 0.000000 13.982087 13.982087 13.982087 13.982087 13.982087 13.982087 13.982087 15.334275 15.334275 15.334275 15.334275 15.334275 15.334275 15.334275 15.334275 0.000000 0.000000 0.000000 0.000000 0.000000 22.278040 22.278040 22.278040 22.278040 22.278040 22.278040 22.278040 22.278040 22.278040 22.278040 22.278040 12.970121 12.970121 12.970121 12.970121 12.970121 12.970121 12.970121 12.730169 12.730169 12.730169 12.730169 12.730169 12.730169 0.000000 0.000000 0.000000 0.000000 0.000000 0.000000 0.000000 0.000000 0.000000 0.000000 0.000000 0.000000 0.000000 0.000000 0.000000 0.000000 0.000000 0.000000 0.000000 0.000000 0.000000 0.000000 0.000000 0.000000 0.000000 0.000000
0.000000 0.000000 0.000000 0.000000 0.000000 0.000000 0.000000 0.000000 0.000000 0.000000 0.000000 0.000000 0.000000 0.000000 0.000000 0.000000 0.000000 0.000000 0.000000 0.000000 0.000000 0.000000 0.000000 0.000000 0.000000 0.000000 0.000000 0.000000 0.000000 0.000000 0.000000 0.000000 0.000000 0.000000 0.000000 0.000000 0.000000 0.000000 0.000000 0.000000 0.000000 0.000000 0.000000 0.000000 0.000000 0.000000 0.000000 0.000000 0.000000 0.000000 0.000000 0.000000 0.000000 0.000000 0.000000 0.000000 0.000000 0.000000 0.000000 0.000000 0.000000 0.000000 0.000000 0.000000 0.000000 0.000000 0.000000 0.000000 0.000000 0.000000 0.000000 0.000000 0.000000 0.000000 0.000000 0.000000 0.000000 0.000000 0.000000 0.000000 0.000000 0.000000 0.000000 0.000000 0.000000 0.000000 0.000000 0.000000 0.000000 0.000000 0.000000 0.000000 0.000000 0.000000 0.000000 0.000000 0.000000 0.000000 0.000000 0.000000 0.000000 0.000000 0.000000
0.000000 0.000000 0.000000 0.000000 0.000000 0.000000 0.000000 0.000000 0.000000 0.000000 0.000000 0.000000 0.000000 0.000000 0.000000 0.000000 0.000000 0.000000 0.000000 0.000000 0.000000 0.000000 0.000000 0.000000 0.000000 0.000000 0.000000 0.000000 0.000000 0.000000 0.000000 0.000000 0.000000 0.000000 0.000000 0.000000 0.000000 0.000000 0.000000 0.000000 0.000000 0.000000 0.000000 0.000000 0.000000 0.000000 0.000000 0.000000 0.000000 0.000000 0.000000 0.000000 0.000000 0.000000 0.000000 0.000000 0.000000 0.000000 0.000000 0.000000 0.000000 0.000000 0.000000 0.000000 0.000000 0.000000 0.000000 0.000000 0.000000 0.000000 0.000000 0.000000 0.000000 0.000000 0.000000 0.000000 0.000000 0.000000 0.000000 0.000000 0.000000 0.000000 0.000000 0.000000 0.000000 0.000000 0.000000 0.000000 0.000000 0.000000 0.000000 0.000000 0.000000 0.000000 0.000000 0.000000 0.000000 0.000000 0.000000 0.000000 0.000000 0.000000 0.000000
0.000000 0.000000 0.000000 0.000000 0.000000 0.000000 0.000000 0.000000 0.000000 0.000000 0.000000 0.000000 0.000000 0.000000 0.000000 0.000000 0.000000 0.000000 0.000000 0.000000 0.000000 0.000000 0.000000 0.000000 0.000000 0.000000 0.000000 0.000000 0.000000 0.000000 0.000000 0.000000 0.000000 0.000000 0.000000 0.000000 0.000000 0.000000 0.000000 0.000000 0.000000 0.000000 0.000000 0.000000 0.000000 0.000000 0.000000 0.000000 0.000000 0.000000 0.000000 0.000000 0.000000 0.000000 0.000000 0.000000 0.000000 0.000000 0.000000 0.000000 0.000000 0.000000 0.000000 0.000000 0.000000 0.000000 0.000000 0.000000 0.000000 0.000000 0.000000 0.000000 0.000000 0.000000 0.000000 0.000000 0.000000 0.000000 0.000000 0.000000 0.000000 0.000000 0.000000 0.000000 0.000000 0.000000 0.000000 0.000000 0.000000 0.000000 0.000000 0.000000 0.000000 0.000000 0.000000 0.000000 0.000000 0.000000 0.000000 0.000000 0.000000 0.000000 0.000000
0.000000 0.000000 0.000000 0.000000 0.000000 0.000000 0.000000 0.000000 0.000000 0.000000 0.000000 0.000000 0.000000 0.000000 0.000000 0.000000 0.000000 0.000000 0.000000 0.000000 0.000000 0.000000 0.000000 0.000000 0.000000 0.000000 0.000000 0.000000 0.000000 0.000000 0.000000 0.000000 0.000000 0.000000 0.000000 0.000000 0.000000 0.000000 0.000000 0.000000 0.000000 0.000000 0.000000 0.000000 0.000000 0.000000 0.000000 0.000000 0.000000 0.000000 0.000000 0.000000 0.000000 0.000000 0.000000 0.000000 0.000000 0.000000 0.000000 0.000000 0.000000 0.000000 0.000000 0.000000 0.000000 0.000000 0.000000 0.000000 0.000000 0.000000 0.000000 0.000000 0.000000 0.000000 0.000000 0.000000 0.000000 0.000000 0.000000 0.000000 0.000000 0.000000 0.000000 0.000000 0.000000 0.000000 0.000000 0.000000 0.000000 0.000000 0.000000 0.000000 0.000000 0.000000 0.000000 0.000000 0.000000 0.000000 0.000000 0.000000 0.000000 0.000000 0.000000
0.000000 0.000000 0.000000 0.000000 0.000000 0.000000 0.000000 0.000000 0.000000 0.000000 0.000000 0.000000 0.000000 0.000000 0.000000 0.000000 0.000000 0.000000 0.000000 0.000000 0.000000 0.000000 0.000000 0.000000 0.000000 0.000000 0.000000 0.000000 0.000000 0.000000 0.000000 0.000000 0.000000 0.000000 0.000000 0.000000 0.000000 0.000000 0.000000 0.000000 0.000000 0.000000 0.000000 0.000000 0.000000 0.000000 0.000000 0.000000 0.000000 0.000000 0.000000 0.000000 0.000000 0.000000 0.000000 0.000000 0.000000 0.000000 0.000000 0.000000 0.000000 0.000000 0.000000 0.000000 0.000000 0.000000 0.000000 0.000000 0.000000 0.000000 0.000000 0.000000 0.000000 0.000000 0.000000 0.000000 0.000000 0.000000 0.000000 0.000000 0.000000 0.000000 0.000000 0.000000 0.000000 0.000000 0.000000 0.000000 0.000000 0.000000 0.000000 0.000000 0.000000 0.000000 0.000000 0.000000 0.000000 0.000000 0.000000 0.000000 0.000000 0.000000 0.000000
0.000000 0.000000 0.000000 0.000000 16.693185 16.693185 16.693185 16.693185 16.693185 16.693185 16.693185 16.693185 16.693185 0.000000 0.000000 0.000000 0.000000 0.000000 0.000000 0.000000 0.000000 0.000000 0.000000 0.000000 0.000000 0.000000 0.000000 0.000000 0.000000 0.000000 0.000000 0.000000 0.000000 0.000000 0.000000 0.000000 0.000000 0.000000 0.000000 0.000000 0.000000 0.000000 0.000000 0.000000 0.000000 0.000000 0.000000 0.000000 0.000000 0.000000 0.000000 0.000000 0.000000 0.000000 0.000000 0.000000 0.000000 0.000000 0.000000 0.000000 0.000000 0.000000 0.000000 0.000000 0.000000 0.000000 0.000000 0.000000 0.000000 0.000000 0.000000 0.000000 0.000000 0.000000 0.000000 0.000000 0.000000 0.000000 0.000000 0.000000 0.000000 0.000000 25.498021 25.498021 25.498021 25.498021 25.498021 25.498021 25.498021 25.498021 25.498021 25.498021 0.000000 0.000000 0.000000 0.000000 0.000000 0.000000 0.000000 0.000000 0.000000 0.000000 0.000000
0.000000 0.000000 0.000000 0.000000 16.693185 16.693185 16.693185 16.693185 16.693185 16.693185 16.693185 16.693185 16.693185 0.000000 0.000000 0.000000 0.000000 0.000000 0.000000 0.000000 0.000000 0.000000 0.000000 0.000000 0.000000 0.000000 0.000000 0.000000 0.000000 0.000000 0.000000 0.000000 0.000000 0.000000 0.000000 0.000000 0.000000 0.000000 0.000000 0.000000 0.000000 0.000000 0.000000 0.000000 0.000000 0.000000 0.000000 0.000000 0.000000 0.000000 0.000000 0.000000 0.000000 0.000000 0.000000 0.000000 0.000000 0.000000 0.000000 0.000000 0.000000 0.000000 0.000000 0.000000 0.000000 0.000000 0.000000 0.000000 0.000000 0.000000 0.000000 0.000000 0.000000 0.000000 0.000000 0.000000 0.000000 0.000000 0.000000 0.000000 0.000000 0.000000 25.498021 25.498021 25.498021 25.498021 25.498021 25.498021 25.498021 25.498021 25.498021 25.498021 0.000000 0.000000 0.000000 0.000000 0.000000 0.000000 0.000000 0.000000 0.000000 0.000000 0.000000
0.000000 0.000000 0.000000 0.000000 16.693185 16.693185 16.693185 16.693185 16.693185 16.693185 16.693185 16.693185 16.693185 0.000000 0.000000 0.000000 0.000000 0.000000 0.000000 0.000000 0.000000 0.000000 0.000000 3.204796 3.204796 3.204796 0.000000 0.000000 0.000000 0.000000 0.000000 0.000000 0.000000 0.000000 0.000000 17.168672 17.168672 17.168672 17.168672 17.168672 17.168672 17.168672 17.168672 17.168672 17.168672 17.168672 0.000000 0.000000 0.000000 0.000000 0.000000 0.000000 0.000000 0.000000 0.000000 4.069492 4.069492 4.069492 4.069492 4.069492 0.000000 0.000000 0.000000 0.000000 0.000000 0.000000 0.000000 0.000000 0.000000 0.000000 0.000000 0.000000 0.000000 0.000000 0.000000 0.000000 0.000000 0.000000 0.000000 0.000000 0.000000 0.000000 25.498021 25.498021 25.498021 25.498021 25.498021 25.498021 25.498021 25.498021 25.498021 25.498021 0.000000 0.000000 0.000000 0.000000 0.000000 0.000000 0.000000 0.000000 0.000000 0.000000 0.000000
0.000000 0.000000 0.000000 0.000000 16.693185 16.693185 16.693185 16.693185 16.693185 16.693185 16.693185 16.693185 16.693185 0.000000 0.000000 0.000000 0.000000 0.000000 0.000000 0.000000 0.000000 0.000000 0.000000 3.204796 3.204796 3.204796 0.000000 0.000000 0.000000 0.000000 0.000000 0.000000 0.000000 0.000000 0.000000 17.168672 17.168672 17.168672 17.168672 17.168672 17.168672 17.168672 17.168672 17.168672 17.168672 17.168672 0.000000 0.000000 0.000000 0.000000 0.000000 0.000000 0.000000 0.000000 0.000000 4.069492 4.069492 4.069492 4.069492 4.069492 0.000000 0.000000 0.000000 0.000000 0.000000 0.000000 0.000000 0.000000 0.000000 0.000000 0.000000 0.000000 0.000000 0.000000 0.000000 0.000000 0.000000 0.000000 0.000000 0.000000 0.000000 0.000000 25.498021 25.498021 25.498021 25.498021 25.498021 25.498021 25.498021 25.498021 25.498021 25.498021 0.000000 0.000000 0.000000 0.000000 0.000000 0.000000 0.000000 0.000000 0.000000 0.000000 0.000000
0.000000 0.000000 0.000000 0.000000 16.693185 16.693185 16.693185 16.693185 16.693185 16.693185 16.693185 16.693185 16.693185 0.000000 0.000000 0.000000 0.000000 0.000000 0.000000 0.000000 0.000000 0.000000 0.000000 3.204796 3.204796 3.204796 0.000000 0.000000 0.000000 0.000000 0.000000 0.000000 0.000000 0.000000 0.000000 17.168672 17.168672 17.168672 17.168672 17.168672 17.168672 17.168672 17.168672 17.168672 17.168672 17.168672 0.000000 0.000000 0.000000 0.000000 0.000000 0.000000 0.000000 0.000000 0.000000 4.069492 4.069492 4.069492 4.069492 4.069492 0.000000 0.000000 0.000000 0.000000 0.000000 0.000000 0.000000 0.000000 0.000000 0.000000 0.000000 0.000000 0.000000 0.000000 0.000000 0.000000 0.000000 0.000000 0.000000 0.000000 0.000000 0.000000 25.498021 25.498021 25.498021 25.498021 25.498021 25.498021 25.498021 25.498021 25.498021 25.498021 0.000000 0.000000 0.000000 0.000000 0.000000 0.000000 0.000000 0.000000 0.000000 0.000000 0.000000
0.000000 0.000000 0.000000 0.000000 16.693185 16.693185 16.693185 16.693185 16.693185 16.693185 16.693185 16.693185 16.693185 0.000000 0.000000 0.000000 0.000000 0.000000 0.000000 0.000000 0.000000 0.000000 0.000000 3.204796 3.204796 3.204796 0.000000 0.000000 0.000000 0.000000 0.000000 0.000000 0.000000 0.000000 0.000000 17.168672 17.168672 17.168672 17.168672 17.168672 17.168672 17.168672 17.168672 17.168672 17.168672 17.168672 0.000000 0.000000 0.000000 0.000000 0.000000 0.000000 0.000000 0.000000 0.000000 4.069492 4.069492 4.069492 4.069492 4.069492 0.000000 0.000000 0.000000 0.000000 0.000000 0.000000 0.000000 0.000000 0.000000 0.000000 0.000000 0.000000 0.000000 0.000000 0.000000 0.000000 0.000000 0.000000 0.000000 0.000000 0.000000 0.000000 25.498021 25.498021 25.498021 25.498021 25.498021 25.498021 25.498021 25.498021 25.498021 25.498021 0.000000 0.000000 0.000000 0.000000 0.000000 0.000000 0.000000 0.000000 0.000000 0.000000 0.000000
0.000000 0.000000 0.000000 0.000000 16.693185 16.693185 16.693185 16.693185 16.693185 16.693185 16.693185 16.693185 16.693185 0.000000 0.000000 0.000000 0.000000 0.000000 0.000000 0.000000 0.000000 0.000000 0.000000 3.204796 3.204796 3.204796 0.000000 0.000000 0.000000 0.000000 0.000000 0.000000 0.000000 0.000000 0.000000 17.168672 17.168672 17.168672 17.168672 17.168672 17.168672 17.168672 17.168672 17.168672 17.168672 17.168672 0.000000 0.000000 0.000000 0.000000 0.000000 0.000000 0.000000 0.000000 0.000000 0.000000 0.000000 0.000000 0.000000 0.000000 0.000000 0.000000 0.000000 0.000000 0.000000 0.000000 0.000000 0.000000 0.000000 0.000000 0.000000 0.000000 0.000000 0.000000 0.000000 0.000000 0.000000 0.000000 0.000000 0.000000 0.000000 0.000000 25.498021 25.498021 25.498021 25.498021 25.498021 25.498021 25.498021 25.498021 25.498021 25.498021 0.000000 0.000000 0.000000 0.000000 0.000000 0.000000 0.000000 0.000000 0.000000 0.000000 0.000000
0.000000 0.000000 0.000000 0.000000 16.693185 16.693185 16.693185 16.693185 16.693185 16.693185 16.693185 16.693185 16.693185 0.000000 0.000000 0.000000 0.000000 0.000000 0.000000 0.000000 0.000000 0.000000 0.000000 0.000000 0.000000 0.000000 0.000000 0.000000 0.000000 0.000000 0.000000 0.000000 0.000000 0.000000 0.000000 17.168672 17.168672 17.168672 17.168672 17.168672 17.168672 17.168672 17.168672 17.168672 17.168672 17.168672 0.000000 0.000000 0.000000 0.000000 0.000000 0.000000 0.000000 0.000000 0.000000 0.000000 0.000000 0.000000 0.000000 0.000000 0.000000 0.000000 0.000000 0.000000 0.000000 0.000000 0.000000 0.000000 0.000000 0.000000 0.000000 0.000000 0.000000 0.000000 0.000000 0.000000 0.000000 0.000000 0.000000 0.000000 0.000000 0.000000 25.498021 25.498021 25.498021 25.498021 25.498021 25.498021 25.498021 25.498021 25.498021 25.498021 0.000000 0.000000 0.000000 0.000000 0.000000 0.000000 0.000000 0.000000 0.000000 0.000000 0.000000
0.000000 0.000000 0.000000 0.000000 16.693185 16.693185 16.693185 16.693185 16.693185 16.693185 16.693185 16.693185 16.693185 0.000000 0.000000 0.000000 0.000000 0.000000 0.000000 0.000000 0.000000 0.000000 0.000000 0.000000 0.000000 0.000000 0.000000 0.000000 0.000000 0.000000 0.000000 0.000000 0.000000 0.000000 0.000000 17.168672 17.168672 17.168672 17.168672 17.168672 17.168672 17.168672 17.168672 17.168672 17.168672 17.168672 0.000000 0.000000 0.000000 0.000000 0.000000 0.000000 0.000000 0.000000 0.000000 0.000000 0.000000 0.000000 0.000000 0.000000 0.000000 0.000000 14.068992 14.068992 14.068992 14.068992 14.068992 14.068992 14.068992 14.068992 10.382416 10.382416 10.382416 10.382416 10.382416 10.382416 10.382416 0.000000 0.000000 0.000000 0.000000 0.000000 25.498021 25.498021 25.498021 25.498021 25.498021 25.498021 25.498021 25.498021 25.498021 25.498021 0.000000 0.000000 0.000000 0.000000 0.000000 0.000000 0.000000 0.000000 0.000000 0.000000 0.000000
0.000000 0.000000 0.000000 0.000000 0.000000 0.000000 0.000000 0.000000 0.000000 0.000000 0.000000 0.000000 0.000000 0.000000 0.000000 0.000000 0.000000 0.000000 0.000000 0.000000 0.000000 0.000000 0.000000 0.000000 0.000000 0.000000 0.000000 0.000000 0.000000 0.000000 0.000000 0.000000 0.000000 0.000000 0.000000 0.000000 0.000000 0.000000 0.000000 0.000000 0.000000 0.000000 0.000000 0.000000 0.000000 0.000000 0.000000 0.000000 0.000000 0.000000 0.000000 0.000000 0.000000 0.000000 0.000000 3.446450 3.446450 3.446450 3.446450 3.446450 0.000000 0.000000 14.068992 14.068992 14.068992 14.068992 14.068992 14.068992 14.068992 14.068992 10.382416 10.382416 10.382416 10.382416 10.382416 10.382416 10.382416 0.000000 0.000000 0.000000 0.000000 0.000000 25.498021 25.498021 25.498021 25.498021 25.498021 25.498021 25.498021 25.498021 25.498021 25.498021 0.000000 0.000000 0.000000 0.000000 0.000000 0.000000 0.000000 0.000000 0.000000 0.000000 0.000000
0.000000 0.000000 0.000000 0.000000 0.000000 0.000000 9.705322 9.705322 9.705322 9.705322 9.705322 0.000000 0.000000 0.000000 0.000000 10.431507 10.431507 10.431507 10.431507 10.431507 0.000000 0.000000 0.000000 6.153969 6.153969 6.153969 0.000000 0.000000 0.000000 0.000000 0.000000 0.000000 0.000000 0.000000 0.000000 0.000000 0.000000 0.000000 0.000000 0.000000 0.000000 0.000000 0.000000 0.000000 0.000000 0.000000 0.000000 0.000000 0.000000 0.000000 0.000000 0.000000 0.000000 0.000000 0.000000 3.446450 3.446450 3.446450 3.446450 3.446450 0.000000 0.000000 14.068992 14.068992 14.068992 14.068992 14.068992 14.068992 14.068992 14.068992 10.382416 10.382416 10.382416 10.382416 10.382416 10.382416 10.382416 0.000000 0.000000 0.000000 0.000000 0.000000 25.498021 25.498021 25.498021 25.498021 25.498021 25.498021 25.498021 25.498021 25.498021 25.498021 0.000000 0.000000 0.000000 0.000000 0.000000 0.000000 0.000000 0.000000 0.000000 0.000000 0.000000
0.000000 0.000000 0.000000 0.000000 0.000000 0.000000 9.705322 9.705322 9.705322 9.705322 9.705322 0.000000 0.000000 0.000000 0.000000 10.431507 10.431507 10.431507 10.431507 10.431507 0.000000 0.000000 0.000000 6.153969 6.153969 6.153969 0.000000 0.000000 0.000000 0.000000 0.000000 0.000000 0.000000 0.000000 0.000000 0.000000 0.000000 0.000000 0.000000 0.000000 0.000000 0.000000 0.000000 0.000000 0.000000 0.000000 0.000000 0.000000 0.000000 0.000000 0.000000 0.000000 0.000000 0.000000 0.000000 3.446450 3.446450 3.446450 3.446450 3.446450 0.000000 0.000000 14.068992 14.068992 14.068992 14.068992 14.068992 14.068992 14.068992 14.068992 10.382416 10.382416 10.382416 10.382416 10.382416 10.382416 10.382416 0.000000 0.000000 0.000000 0.000000 0.000000 0.000000 0.000000 0.000000 0.000000 0.000000 0.000000 0.000000 0.000000 0.000000 0.000000 17.377970 17.377970 17.377970 17.377970 17.377970 17.377970 17.377970 0.000000 0.000000 0.000000 0.000000
0.000000 0.000000 0.000000 0.000000 0.000000 0.000000 9.705322 9.705322 9.705322 9.705322 9.705322 0.000000 0.000000 0.000000 0.000000 10.431507 10.431507 10.431507 10.431507 10.431507 0.000000 0.000000 0.000000 6.153969 6.153969 6.153969 0.000000 0.000000 0.000000 0.000000 0.000000 0.000000 0.000000 0.000000 0.000000 0.000000 0.000000 0.000000 0.000000 0.000000 0.000000 0.000000 0.000000 0.000000 0.000000 0.000000 0.000000 0.000000 0.000000 0.000000 0.000000 0.000000 0.000000 0.000000 0.000000 0.000000 0.000000 0.000000 0.000000 0.000000 0.000000 0.000000 14.068992 14.068992 14.068992 14.068992 14.068992 14.068992 14.068992 14.068992 10.382416 10.382416 10.382416 10.382416 10.382416 10.382416 10.382416 0.000000 0.000000 0.000000 0.000000 0.000000 0.000000 0.000000 0.000000 0.000000 0.000000 0.000000 0.000000 0.000000 0.000000 0.000000 17.377970 17.377970 17.377970 17.377970 17.377970 17.377970 17.377970 0.000000 0.000000 0.000000 0.000000
0.000000 0.000000 0.000000 0.000000 0.000000 0.000000 9.705322 9.705322 9.705322 9.705322 9.705322 0.000000 0.000000 0.000000 0.000000 10.431507 10.431507 10.431507 10.431507 10.431507 0.000000 0.000000 0.000000 6.153969 6.153969 6.153969 0.000000 0.000000 0.000000 0.000000 0.000000 0.000000 0.000000 0.000000 0.000000 16.860113 16.860113 16.860113 16.860113 16.860113 16.860113 16.860113 16.860113 16.860113 16.860113 16.860113 0.000000 0.000000 0.000000 0.000000 0.000000 0.000000 0.000000 0.000000 0.000000 0.000000 0.000000 0.000000 0.000000 0.000000 0.000000 0.000000 14.068992 14.068992 14.068992 14.068992 14.068992 14.068992 14.068992 14.068992 10.382416 10.382416 10.382416 10.382416 10.382416 10.382416 10.382416 0.000000 0.000000 0.000000 0.000000 0.000000 0.000000 0.000000 0.000000 0.000000 0.000000 0.000000 0.000000 0.000000 0.000000 0.000000 17.377970 17.377970 17.377970 17.377970 17.377970 17.377970 17.377970 0.000000 0.000000 0.000000 0.000000
0.000000 0.000000 0.000000 0.000000 0.000000 0.000000 9.705322 9.705322 9.705322 9.705322 9.705322 0.000000 0.000000 0.000000 0.000000 10.431507 10.431507 10.431507 10.431507 10.431507 0.000000 0.000000 0.000000 6.153969 6.153969 6.153969 0.000000 0.000000 0.000000 0.000000 0.000000 0.000000 0.000000 0.000000 0.000000 16.860113 16.860113 16.860113 16.860113 16.860113 16.860113 16.860113 16.860113 16.860113 16.860113 16.860113 0.000000 0.000000 0.000000 0.000000 0.000000 0.000000 0.000000 0.000000 0.000000 0.000000 0.000000 0.000000 0.000000 0.000000 0.000000 0.000000 0.000000 0.000000 0.000000 0.000000 0.000000 0.000000 0.000000 0.000000 10.377526 10.377526 10.377526 10.377526 10.377526 10.377526 10.377526 0.000000 0.000000 0.000000 0.000000 0.000000 0.000000 0.000000 0.000000 0.000000 0.000000 0.000000 0.000000 0.000000 0.000000 0.000000 17.377970 17.377970 17.377970 17.377970 17.377970 17.377970 17.377970 0.000000 0.000000 0.000000 0.000000
0.000000 0.000000 0.000000 0.000000 0.000000 0.000000 9.705322 9.705322 9.705322 9.705322 9.705322 0.000000 0.000000 0.000000 0.000000 10.431507 10.431507 10.431507 10.431507 10.431507 0.000000 0.000000 0.000000 6.153969 6.153969 6.153969 0.000000 0.000000 0.000000 0.000000 0.000000 0.000000 0.000000 0.000000 0.000000 16.860113 16.860113 16.860113 16.860113 16.860113 16.860113 16.860113 16.860113 16.860113 16.860113 16.860113 0.000000 0.000000 0.000000 0.000000 0.000000 0.000000 0.000000 0.000000 0.000000 0.000000 0.000000 0.000000 0.000000 0.000000 0.000000 0.000000 0.000000 0.000000 0.000000 0.000000 0.000000 0.000000 0.000000 0.000000 10.377526 10.377526 10.377526 10.377526 10.377526 10.377526 10.377526 0.000000 0.000000 0.000000 0.000000 0.000000 0.000000 0.000000 0.000000 0.000000 0.000000 0.000000 0.000000 0.000000 0.000000 0.000000 17.377970 17.377970 17.377970 17.377970 17.377970 17.377970 17.377970 0.000000 0.000000 0.000000 0.000000
0.000000 0.000000 0.000000 0.000000 0.000000 0.000000 9.705322 9.705322 9.705322 9.705322 9.705322 0.000000 0.000000 0.000000 0.000000 10.431507 10.431507 10.431507 10.431507 10.431507 0.000000 0.000000 0.000000 6.153969 6.153969 6.153969 0.000000 0.000000 0.000000 0.000000 0.000000 0.000000 0.000000 0.000000 0.000000 16.860113 16.860113 16.860113 16.860113 16.860113 16.860113 16.860113 16.860113 16.860113 16.860113 16.860113 0.000000 0.000000 0.000000 0.000000 0.000000 0.000000 0.000000 0.000000 0.000000 3.442736 3.442736 3.442736 3.442736 3.442736 0.000000 0.000000 0.000000 0.000000 0.000000 0.000000 0.000000 0.000000 0.000000 0.000000 10.377526 10.377526 10.377526 10.377526 10.377526 10.377526 10.377526 0.000000 0.000000 0.000000 0.000000 0.000000 0.000000 0.000000 0.000000 0.000000 0.000000 0.000000 0.000000 0.000000 0.000000 0.000000 17.377970 17.377970 17.377970 17.377970 17.377970 17.377970 17.377970 0.000000 0.000000 0.000000 0.000000
0.000000 0.000000 0.000000 0.000000 0.000000 0.000000 9.705322 9.705322 9.705322 9.705322 9.705322 0.000000 0.000000 0.000000 0.000000 10.431507 10.431507 10.431507 10.431507 10.431507 0.000000 0.000000 0.000000 6.153969 6.153969 6.153969 0.000000 0.000000 0.000000 0.000000 0.000000 0.000000 0.000000 0.000000 0.000000 16.860113 16.860113 16.860113 16.860113 16.860113 16.860113 16.860113 16.860113 16.860113 16.860113 16.860113 0.000000 0.000000 0.000000 0.000000 0.000000 0.000000 0.000000 0.000000 0.000000 3.442736 3.442736 3.442736 3.442736 3.442736 0.000000 0.000000 0.000000 0.000000 0.000000 0.000000 0.000000 0.000000 0.000000 0.000000 10.377526 10.377526 10.377526 10.377526 10.377526 10.377526 10.377526 0.000000 0.000000 0.000000 0.000000 0.000000 0.000000 0.000000 0.000000 0.000000 0.000000 0.000000 0.000000 0.000000 0.000000 0.000000 17.377970 17.377970 17.377970 17.377970 17.377970 17.377970 17.377970 0.000000 0.000000 0.000000 0.000000
0.000000 0.000000 0.000000 0.000000 0.000000 0.000000 9.705322 9.705322 9.705322 9.705322 9.705322 0.000000 0.000000 0.000000 0.000000 10.431507 10.431507 10.431507 10.431507 10.431507 0.000000 0.000000 0.000000 6.153969 6.153969 6.153969 0.000000 0.000000 0.000000 0.000000 0.000000 0.000000 0.000000 0.000000 0.000000 16.860113 16.860113 16.860113 16.860113 16.860113 16.860113 16.860113 16.860113 16.860113 16.860113 16.860113 0.000000 0.000000 0.000000 0.000000 0.000000 0.000000 0.000000 0.000000 0.000000 3.442736 3.442736 3.442736 3.442736 3.442736 0.000000 0.000000 0.000000 0.000000 0.000000 0.000000 0.000000 0.000000 0.000000 0.000000 10.377526 10.377526 10.377526 10.377526 10.377526 10.377526 10.377526 0.000000 0.000000 0.000000 0.000000 0.000000 0.000000 0.000000 0.000000 0.000000 0.000000 0.000000 0.000000 0.000000 0.000000 0.000000 17.377970 17.377970 17.377970 17.377970 17.377970 17.377970 17.377970 0.000000 0.000000 0.000000 0.000000
0.000000 0.000000 0.000000 0.000000 0.000000 0.000000 0.000000 0.000000 0.000000 0.000000 0.000000 0.000000 0.000000 0.000000 0.000000 0.000000 0.000000 0.000000 0.000000 0.000000 0.000000 0.000000 0.000000 0.000000 0.000000 0.000000 0.000000 0.000000 0.000000 0.000000 0.000000 0.000000 0.000000 0.000000 0.000000 0.000000 0.000000 0.000000 0.000000 0.000000 0.000000 0.000000 0.000000 0.000000 0.000000 0.000000 0.000000 0.000000 0.000000 0.000000 0.000000 0.000000 0.000000 0.000000 0.000000 0.000000 0.000000 0.000000 0.000000 0.000000 0.000000 0.000000 0.000000 0.000000 0.000000 0.000000 0.000000 0.000000 0.000000 0.000000 10.377526 10.377526 10.377526 10.377526 10.377526 10.377526 10.377526 0.000000 0.000000 0.000000 0.000000 0.000000 0.000000 0.000000 0.000000 0.000000 0.000000 0.000000 0.000000 0.000000 0.000000 0.000000 17.377970 17.377970 17.377970 17.377970 17.377970 17.377970 17.377970 0.000000 0.000000 0.000000 0.000000
0.000000 0.000000 0.000000 0.000000 0.000000 0.000000 0.000000 0.000000 0.000000 0.000000 0.000000 0.000000 0.000000 0.000000 0.000000 0.000000 0.000000 0.000000 0.000000 0.000000 0.000000 0.000000 0.000000 0.000000 0.000000 0.000000 0.000000 0.000000 0.000000 0.000000 0.000000 0.000000 0.000000 0.000000 0.000000 0.000000 0.000000 0.000000 0.000000 0.000000 0.000000 0.000000 0.000000 0.000000 0.000000 0.000000 0.000000 0.000000 0.000000 0.000000 0.000000 0.000000 0.000000 0.000000 0.000000 0.000000 0.000000 0.000000 0.000000 0.000000 0.000000 0.000000 0.000000 0.000000 0.000000 0.000000 0.000000 0.000000 0.000000 0.000000 10.377526 10.377526 10.377526 10.377526 10.377526 10.377526 10.377526 0.000000 0.000000 0.000000 0.000000 0.000000 0.000000 0.000000 0.000000 0.000000 0.000000 0.000000 0.000000 0.000000 0.000000 0.000000 17.377970 17.377970 17.377970 17.377970 17.377970 17.377970 17.377970 0.000000 0.000000 0.000000 0.000000
0.000000 0.000000 0.000000 0.000000 0.000000 0.000000 0.000000 0.000000 0.000000 0.000000 0.000000 0.000000 0.000000 0.000000 0.000000 0.000000 0.000000 0.000000 0.000000 0.000000 0.000000 0.000000 0.000000 0.000000 0.000000 0.000000 0.000000 0.000000 0.000000 0.000000 0.000000 0.000000 0.000000 0.000000 0.000000 0.000000 0.000000 0.000000 0.000000 0.000000 0.000000 0.000000 0.000000 0.000000 0.000000 0.000000 0.000000 0.000000 0.000000 0.000000 0.000000 0.000000 0.000000 0.000000 0.000000 0.000000 0.000000 0.000000 0.000000 0.000000 0.000000 0.000000 0.000000 0.000000 0.000000 0.000000 0.000000 0.000000 0.000000 0.000000 0.000000 0.000000 0.000000 0.000000 0.000000 0.000000 0.000000 0.000000 0.000000 0.000000 0.000000 0.000000 0.000000 0.000000 0.000000 0.000000 0.000000 0.000000 0.000000 0.000000 0.000000 0.000000 0.000000 0.000000 0.000000 0.000000 0.000000 0.000000 0.000000 0.000000 0.000000 0.000000 0.000000
0.000000 0.000000 0.000000 0.000000 0.000000 0.000000 0.000000 0.000000 0.000000 0.000000 0.000000 0.000000 0.000000 0.000000 0.000000 0.000000 0.000000 0.000000 0.000000 0.000000 0.000000 0.000000 0.000000 0.000000 0.000000 0.000000 0.000000 0.000000 0.000000 0.000000 0.000000 0.000000 0.000000 0.000000 0.000000 0.000000 0.000000 0.000000 0.000000 0.000000 0.000000 0.000000 0.000000 0.000000 0.000000 0.000000 0.000000 0.000000 0.000000 0.000000 0.000000 0.000000 0.000000 0.000000 0.000000 0.000000 0.000000 0.000000 0.000000 0.000000 0.000000 0.000000 0.000000 0.000000 0.000000 0.000000 0.000000 0.000000 0.000000 0.000000 0.000000 0.000000 0.000000 0.000000 0.000000 0.000000 0.000000 0.000000 0.000000 0.000000 0.000000 0.000000 0.000000 0.000000 0.000000 0.000000 0.000000 0.000000 0.000000 0.000000 0.000000 0.000000 0.000000 0.000000 0.000000 0.000000 0.000000 0.000000 0.000000 0.000000 0.000000 0.000000 0.000000
0.000000 0.000000 0.000000 0.000000 0.000000 0.000000 0.000000 0.000000 0.000000 0.000000 0.000000 0.000000 0.000000 0.000000 0.000000 0.000000 0.000000 0.000000 0.000000 0.000000 0.000000 0.000000 0.000000 0.000000 0.000000 0.000000 0.000000 0.000000 0.000000 0.000000 0.000000 0.000000 0.000000 0.000000 0.000000 0.000000 0.000000 0.000000 0.000000 0.000000 0.000000 0.000000 0.000000 0.000000 0.000000 0.000000 0.000000 0.000000 0.000000 0.000000 0.000000 0.000000 0.000000 0.000000 0.000000 0.000000 0.000000 0.000000 0.000000 0.000000 0.000000 0.000000 0.000000 0.000000 0.000000 0.000000 0.000000 0.000000 0.000000 0.000000 0.000000 0.000000 0.000000 0.000000 0.000000 0.000000 0.000000 0.000000 0.000000 0.000000 0.000000 0.000000 0.000000 0.000000 0.000000 0.000000 0.000000 0.000000 0.000000 0.000000 0.000000 0.000000 0.000000 0.000000 0.000000 0.000000 0.000000 0.000000 0.000000 0.000000 0.000000 0.000000 0.000000
0.000000 0.000000 0.000000 0.000000 0.000000 0.000000 0.000000 0.000000 0.000000 0.000000 0.000000 0.000000 0.000000 0.000000 0.000000 0.000000 0.000000 0.000000 0.000000 0.000000 0.000000 0.000000 0.000000 0.000000 0.000000 0.000000 0.000000 0.000000 0.000000 0.000000 0.000000 0.000000 0.000000 0.000000 0.000000 0.000000 0.000000 0.000000 0.000000 0.000000 0.000000 0.000000 0.000000 0.000000 0.000000 0.000000 0.000000 0.000000 0.000000 0.000000 0.000000 0.000000 0.000000 0.000000 0.000000 0.000000 0.000000 0.000000 0.000000 0.000000 0.000000 0.000000 0.000000 0.000000 0.000000 0.000000 0.000000 0.000000 0.000000 0.000000 0.000000 0.000000 0.000000 0.000000 0.000000 0.000000 0.000000 0.000000 0.000000 0.000000 0.000000 0.000000 0.000000 0.000000 0.000000 0.000000 0.000000 0.000000 0.000000 0.000000 0.000000 0.000000 0.000000 0.000000 0.000000 0.000000 0.000000 0.000000 0.000000 0.000000 0.000000 0.000000 0.000000
