0.000000 0.000000 0.000000 0.000000 0.000000 0.000000 0.000000 0.000000 0.000000 0.000000 0.000000 0.000000 0.000000 0.000000 0.000000 0.000000 0.000000 0.000000 0.000000 0.000000 0.000000 0.000000 0.000000 0.000000 0.000000 0.000000 0.000000 0.000000 0.000000 0.000000 0.000000 0.000000 0.000000 0.000000 0.000000 0.000000 0.000000 0.000000 0.000000 0.000000 0.000000 0.000000 0.000000 0.000000 0.000000 0.000000 0.000000 0.000000 0.000000 0.000000 0.000000 0.000000 0.000000 0.000000 0.000000 0.000000 0.000000 0.000000 0.000000 0.000000 0.000000 0.000000 0.000000 0.000000 0.000000 0.000000 0.000000 0.000000 0.000000 0.000000 0.000000 0.000000 0.000000 0.000000 0.000000 0.000000 0.000000 0.000000 0.000000 0.000000 0.000000 0.000000 0.000000 0.000000 0.000000 0.000000 0.000000 0.000000 0.000000 0.000000 0.000000 0.000000 0.000000 0.000000 0.000000 0.000000 0.000000 0.000000 0.000000 0.000000 0.000000 0.000000 0.000000
0.000000 0.000000 0.000000 0.000000 0.000000 0.000000 0.000000 0.000000 0.000000 0.000000 0.000000 0.000000 0.000000 0.000000 0.000000 0.000000 0.000000 0.000000 0.000000 0.000000 0.000000 0.000000 0.000000 0.000000 0.000000 0.000000 0.000000 0.000000 0.000000 0.000000 0.000000 0.000000 0.000000 0.000000 0.000000 0.000000 0.000000 0.000000 0.000000 0.000000 0.000000 0.000000 0.000000 0.000000 0.000000 0.000000 0.000000 0.000000 0.000000 0.000000 0.000000 0.000000 0.000000 0.000000 0.000000 0.000000 0.000000 0.000000 0.000000 0.000000 0.000000 0.000000 0.000000 0.000000 0.000000 0.000000 0.000000 0.000000 0.000000 0.000000 0.000000 0.000000 0.000000 0.000000 0.000000 0.000000 0.000000 0.000000 0.000000 0.000000 0.000000 0.000000 0.000000 0.000000 0.000000 0.000000 0.000000 0.000000 0.000000 0.000000 0.000000 0.000000 0.000000 0.000000 0.000000 0.000000 0.000000 0.000000 0.000000 0.000000 0.000000 0.000000 0.000000
0.000000 0.000000 0.000000 0.000000 0.000000 0.000000 0.000000 0.000000 0.000000 0.000000 0.000000 0.000000 0.000000 0.000000 0.000000 0.000000 0.000000 0.000000 0.000000 0.000000 0.000000 0.000000 0.000000 0.000000 0.000000 0.000000 0.000000 0.000000 0.000000 0.000000 0.000000 0.000000 0.000000 0.000000 0.000000 0.000000 0.000000 0.000000 0.000000 0.000000 0.000000 0.000000 0.000000 0.000000 0.000000 0.000000 0.000000 0.000000 0.000000 0.000000 0.000000 0.000000 0.000000 0.000000 0.000000 0.000000 0.000000 0.000000 0.000000 0.000000 0.000000 0.000000 0.000000 0.000000 0.000000 0.000000 0.000000 0.000000 0.000000 0.000000 0.000000 0.000000 0.000000 0.000000 0.000000 0.000000 0.000000 0.000000 0.000000 0.000000 0.000000 0.000000 0.000000 0.000000 0.000000 0.000000 0.000000 0.000000 0.000000 0.000000 0.000000 0.000000 0.000000 0.000000 0.000000 0.000000 0.000000 0.000000 0.000000 0.000000 0.000000 0.000000 0.000000
0.000000 0.000000 0.000000 0.000000 0.000000 0.000000 0.000000 0.000000 0.000000 0.000000 0.000000 0.000000 0.000000 0.000000 0.000000 0.000000 0.000000 0.000000 0.000000 0.000000 0.000000 0.000000 0.000000 0.000000 0.000000 0.000000 0.000000 0.000000 0.000000 0.000000 0.000000 0.000000 0.000000 0.000000 0.000000 0.000000 0.000000 0.000000 0.000000 0.000000 0.000000 0.000000 0.000000 0.000000 0.000000 0.000000 0.000000 0.000000 0.000000 0.000000 0.000000 0.000000 0.000000 0.000000 0.000000 0.000000 0.000000 0.000000 0.000000 0.000000 0.000000 0.000000 0.000000 0.000000 0.000000 0.000000 0.000000 0.000000 0.000000 0.000000 0.000000 0.000000 0.000000 0.000000 0.000000 0.000000 0.000000 0.000000 0.000000 0.000000 0.000000 0.000000 0.000000 0.000000 0.000000 0.000000 0.000000 0.000000 0.000000 0.000000 0.000000 0.000000 0.000000 0.000000 0.000000 0.000000 0.000000 0.000000 0.000000 0.000000 0.000000 0.000000 0.000000
0.000000 0.000000 0.000000 0.000000 14.577465 14.577465 14.577465 14.577465 14.577465 14.577465 14.577465 14.903983 14.903983 14.903983 14.903983 14.903983 14.903983 14.903983 0.000000 0.000000 0.000000 0.000000 0.000000 11.782703 11.782703 11.782703 11.782703 11.782703 11.782703 11.782703 0.000000 0.000000 0.000000 0.000000 0.000000 0.000000 0.000000 0.000000 0.000000 0.000000 0.000000 0.000000 0.000000 0.000000 0.000000 0.000000 0.000000 0.000000 0.000000 0.000000 0.000000 0.000000 0.000000 0.000000 0.000000 0.000000 0.000000 0.000000 0.000000 0.000000 0.000000 0.000000 0.000000 0.000000 0.000000 0.000000 0.000000 0.000000 0.000000 0.000000 0.000000 0.000000 0.000000 0.000000 0.000000 0.000000 0.000000 0.000000 0.000000 0.000000 0.000000 0.000000 0.000000 0.000000 0.000000 0.000000 0.000000 0.000000 28.080089 28.080089 28.080089 28.080089 28.080089 28.080089 28.080089 28.080089 28.080089 28.080089 28.080089 0.000000 0.000000 0.000000 0.000000
0.000000 0.000000 0.000000 0.000000 14.577465 14.577465 14.577465 14.577465 14.577465 14.577465 14.577465 14.903983 14.903983 14.903983 14.903983 14.903983 14.903983 14.903983 0.000000 0.000000 0.000000 0.000000 0.000000 11.782703 11.782703 11.782703 11.782703 11.782703 11.782703 11.782703 0.000000 0.000000 0.000000 0.000000 0.000000 0.000000 0.000000 0.000000 0.000000 0.000000 0.000000 0.000000 0.000000 0.000000 0.000000 0.000000 0.000000 0.000000 0.000000 0.000000 0.000000 0.000000 0.000000 0.000000 0.000000 0.000000 0.000000 0.000000 0.000000 0.000000 0.000000 0.000000 0.000000 0.000000 0.000000 0.000000 0.000000 0.000000 0.000000 0.000000 0.000000 0.000000 0.000000 0.000000 0.000000 0.000000 0.000000 0.000000 0.000000 0.000000 0.000000 0.000000 0.000000 0.000000 0.000000 0.000000 0.000000 0.000000 28.080089 28.080089 28.080089 28.080089 28.080089 28.080089 28.080089 28.080089 28.080089 28.080089 28.080089 0.000000 0.000000 0.000000 0.000000
0.000000 0.000000 0.000000 0.000000 14.577465 14.577465 14.577465 14.577465 14.577465 14.577465 14.577465 14.903983 14.903983 14.903983 14.903983 14.903983 14.903983 14.903983 0.000000 0.000000 0.000000 0.000000 0.000000 11.782703 11.782703 11.782703 11.782703 11.782703 11.782703 11.782703 0.000000 0.000000 2.245730 2.245730 2.245730 0.000000 0.000000 0.000000 0.000000 2.606386 2.606386 2.606386 0.000000 0.000000 0.000000 0.000000 0.000000 0.000000 0.000000 0.000000 0.000000 21.189262 21.189262 21.189262 21.189262 21.189262 21.189262 21.189262 21.189262 0.000000 0.000000 0.000000 0.000000 0.000000 0.000000 0.000000 0.000000 0.000000 0.000000 0.000000 0.000000 0.000000 0.000000 0.000000 0.000000 0.000000 0.000000 0.000000 0.000000 0.000000 10.465942 10.465942 10.465942 10.465942 10.465942 10.465942 0.000000 0.000000 28.080089 28.080089 28.080089 28.080089 28.080089 28.080089 28.080089 28.080089 28.080089 28.080089 28.080089 0.000000 0.000000 0.000000 0.000000
0.000000 0.000000 0.000000 0.000000 14.577465 14.577465 14.577465 14.577465 14.577465 14.577465 14.577465 14.903983 14.903983 14.903983 14.903983 14.903983 14.903983 14.903983 0.000000 0.000000 0.000000 0.000000 0.000000 11.782703 11.782703 11.782703 11.782703 11.782703 11.782703 11.782703 0.000000 0.000000 2.245730 2.245730 2.245730 0.000000 0.000000 0.000000 0.000000 2.606386 2.606386 2.606386 0.000000 0.000000 0.000000 0.000000 0.000000 0.000000 0.000000 0.000000 0.000000 21.189262 21.189262 21.189262 21.189262 21.189262 21.189262 21.189262 21.189262 0.000000 0.000000 0.000000 0.000000 0.000000 0.000000 0.000000 0.000000 0.000000 0.000000 0.000000 0.000000 0.000000 0.000000 0.000000 0.000000 0.000000 0.000000 0.000000 0.000000 0.000000 10.465942 10.465942 10.465942 10.465942 10.465942 10.465942 0.000000 0.000000 28.080089 28.080089 28.080089 28.080089 28.080089 28.080089 28.080089 28.080089 28.080089 28.080089 28.080089 0.000000 0.000000 0.000000 0.000000
0.000000 0.000000 0.000000 0.000000 14.577465 14.577465 14.577465 14.577465 14.577465 14.577465 14.577465 14.903983 14.903983 14.903983 14.903983 14.903983 14.903983 14.903983 0.000000 0.000000 0.000000 0.000000 0.000000 11.782703 11.782703 11.782703 11.782703 11.782703 11.782703 11.782703 0.000000 0.000000 2.245730 2.245730 2.245730 0.000000 0.000000 0.000000 0.000000 2.606386 2.606386 2.606386 0.000000 0.000000 0.000000 0.000000 0.000000 0.000000 0.000000 0.000000 0.000000 21.189262 21.189262 21.189262 21.189262 21.189262 21.189262 21.189262 21.189262 0.000000 0.000000 0.000000 0.000000 0.000000 0.000000 0.000000 0.000000 0.000000 0.000000 0.000000 0.000000 0.000000 0.000000 0.000000 0.000000 0.000000 0.000000 0.000000 0.000000 0.000000 10.465942 10.465942 10.465942 10.465942 10.465942 10.465942 0.000000 0.000000 28.080089 28.080089 28.080089 28.080089 28.080089 28.080089 28.080089 28.080089 28.080089 28.080089 28.080089 0.000000 0.000000 0.000000 0.000000
0.000000 0.000000 0.000000 0.000000 14.577465 14.577465 14.577465 14.577465 14.577465 14.577465 14.577465 14.903983 14.903983 14.903983 14.903983 14.903983 14.903983 14.903983 0.000000 0.000000 0.000000 0.000000 0.000000 11.782703 11.782703 11.782703 11.782703 11.782703 11.782703 11.782703 0.000000 0.000000 0.000000 0.000000 0.000000 0.000000 0.000000 0.000000 0.000000 0.000000 0.000000 0.000000 0.000000 0.000000 0.000000 0.000000 0.000000 0.000000 0.000000 0.000000 0.000000 21.189262 21.189262 21.189262 21.189262 21.189262 21.189262 21.189262 21.189262 0.000000 0.000000 0.000000 0.000000 0.000000 0.000000 0.000000 0.000000 0.000000 0.000000 0.000000 0.000000 0.000000 0.000000 0.000000 0.000000 0.000000 0.000000 0.000000 0.000000 0.000000 10.465942 10.465942 10.465942 10.465942 10.465942 10.465942 0.000000 0.000000 28.080089 28.080089 28.080089 28.080089 28.080089 28.080089 28.080089 28.080089 28.080089 28.080089 28.080089 0.000000 0.000000 0.000000 0.000000
0.000000 0.000000 0.000000 0.000000 14.577465 14.577465 14.577465 14.577465 14.577465 14.577465 14.577465 14.903983 14.903983 14.903983 14.903983 14.903983 14.903983 14.903983 0.000000 0.000000 0.000000 0.000000 0.000000 11.782703 11.782703 11.782703 11.782703 11.782703 11.782703 11.782703 0.000000 0.000000 0.000000 0.000000 0.000000 0.000000 0.000000 0.000000 0.000000 0.000000 0.000000 0.000000 0.000000 0.000000 0.000000 0.000000 0.000000 0.000000 0.000000 0.000000 0.000000 21.189262 21.189262 21.189262 21.189262 21.189262 21.189262 21.189262 21.189262 0.000000 0.000000 0.000000 0.000000 0.000000 0.000000 0.000000 0.000000 0.000000 0.000000 0.000000 0.000000 0.000000 0.000000 0.000000 0.000000 0.000000 0.000000 0.000000 0.000000 0.000000 10.465942 10.465942 10.465942 10.465942 10.465942 10.465942 0.000000 0.000000 28.080089 28.080089 28.080089 28.080089 28.080089 28.080089 28.080089 28.080089 28.080089 28.080089 28.080089 0.000000 0.000000 0.000000 0.000000
0.000000 0.000000 0.000000 0.000000 14.577465 14.577465 14.577465 14.577465 14.577465 14.577465 14.577465 14.903983 14.903983 14.903983 14.903983 14.903983 14.903983 14.903983 0.000000 0.000000 0.000000 0.000000 0.000000 0.000000 0.000000 0.000000 0.000000 0.000000 0.000000 0.000000 11.987765 11.987765 11.987765 11.987765 11.987765 11.987765 11.987765 12.831511 12.831511 12.831511 12.831511 12.831511 12.831511 12.831511 0.000000 0.000000 0.000000 0.000000 0.000000 0.000000 0.000000 21.189262 21.189262 21.189262 21.189262 21.189262 21.189262 21.189262 21.189262 0.000000 0.000000 0.000000 0.000000 0.000000 0.000000 0.000000 0.000000 0.000000 0.000000 0.000000 0.000000 0.000000 0.000000 0.000000 0.000000 0.000000 0.000000 0.000000 0.000000 0.000000 10.465942 10.465942 10.465942 10.465942 10.465942 10.465942 0.000000 0.000000 28.080089 28.080089 28.080089 28.080089 28.080089 28.080089 28.080089 28.080089 28.080089 28.080089 28.080089 0.000000 0.000000 0.000000 0.000000
0.000000 0.000000 0.000000 0.000000 14.577465 14.577465 14.577465 14.577465 14.577465 14.577465 14.577465 14.903983 14.903983 14.903983 14.903983 14.903983 14.903983 14.903983 0.000000 0.000000 0.000000 0.000000 0.000000 0.000000 0.000000 0.000000 0.000000 0.000000 0.000000 0.000000 11.987765 11.987765 11.987765 11.987765 11.987765 11.987765 11.987765 12.831511 12.831511 12.831511 12.831511 12.831511 12.831511 12.831511 0.000000 0.000000 0.000000 0.000000 0.000000 0.000000 0.000000 21.189262 21.189262 21.189262 21.189262 21.189262 21.189262 21.189262 21.189262 0.000000 0.000000 0.000000 0.000000 0.000000 0.000000 0.000000 0.000000 0.000000 0.000000 0.000000 0.000000 0.000000 0.000000 0.000000 0.000000 0.000000 0.000000 0.000000 0.000000 0.000000 0.000000 0.000000 0.000000 0.000000 0.000000 0.000000 0.000000 0.000000 28.080089 28.080089 28.080089 28.080089 28.080089 28.080089 28.080089 28.080089 28.080089 28.080089 28.080089 0.000000 0.000000 0.000000 0.000000
0.000000 0.000000 0.000000 0.000000 14.526601 14.526601 14.526601 14.526601 14.526601 14.526601 14.526601 0.000000 0.000000 0.000000 0.000000 0.000000 0.000000 0.000000 0.000000 0.000000 0.000000 0.000000 0.000000 0.000000 0.000000 2.970001 2.970001 2.970001 2.970001 0.000000 11.987765 11.987765 11.987765 11.987765 11.987765 11.987765 11.987765 12.831511 12.831511 12.831511 12.831511 12.831511 12.831511 12.831511 0.000000 0.000000 0.000000 0.000000 0.000000 0.000000 0.000000 21.189262 21.189262 21.189262 21.189262 21.189262 21.189262 21.189262 21.189262 0.000000 0.000000 0.000000 0.000000 0.000000 0.000000 0.000000 0.000000 0.000000 0.000000 0.000000 0.000000 0.000000 0.000000 0.000000 0.000000 0.000000 0.000000 0.000000 0.000000 0.000000 0.000000 0.000000 0.000000 0.000000 0.000000 0.000000 0.000000 0.000000 28.080089 28.080089 28.080089 28.080089 28.080089 28.080089 28.080089 28.080089 28.080089 28.080089 28.080089 0.000000 0.000000 0.000000 0.000000
0.000000 0.000000 0.000000 0.000000 14.526601 14.526601 14.526601 14.526601 14.526601 14.526601 14.526601 0.000000 0.000000 0.000000 0.000000 0.000000 0.000000 0.000000 0.000000 0.000000 0.000000 0.000000 0.000000 0.000000 0.000000 2.970001 2.970001 2.970001 2.970001 0.000000 11.987765 11.987765 11.987765 11.987765 11.987765 11.987765 11.987765 12.831511 12.831511 12.831511 12.831511 12.831511 12.831511 12.831511 0.000000 0.000000 0.000000 0.000000 0.000000 0.000000 0.000000 21.189262 21.189262 21.189262 21.189262 21.189262 21.189262 21.189262 21.189262 0.000000 0.000000 0.000000 0.000000 0.000000 0.000000 0.000000 0.000000 0.000000 0.000000 0.000000 0.000000 0.000000 0.000000 0.000000 0.000000 0.000000 0.000000 0.000000 0.000000 0.000000 0.000000 0.000000 0.000000 0.000000 0.000000 0.000000 0.000000 0.000000 18.367392 18.367392 18.367392 18.367392 18.367392 18.367392 18.367392 18.367392 18.367392 18.367392 18.367392 0.000000 0.000000 0.000000 0.000000
0.000000 0.000000 0.000000 0.000000 14.526601 14.526601 14.526601 14.526601 14.526601 14.526601 14.526601 0.000000 0.000000 0.000000 0.000000 0.000000 0.000000 0.000000 0.000000 0.000000 0.000000 0.000000 0.000000 0.000000 0.000000 2.970001 2.970001 2.970001 2.970001 0.000000 11.987765 11.987765 11.987765 11.987765 11.987765 11.987765 11.987765 12.831511 12.831511 12.831511 12.831511 12.831511 12.831511 12.831511 0.000000 0.000000 0.000000 0.000000 0.000000 0.000000 0.000000 21.189262 21.189262 21.189262 21.189262 21.189262 21.189262 21.189262 21.189262 0.000000 0.000000 0.000000 0.000000 0.000000 0.000000 0.000000 0.000000 0.000000 0.000000 0.000000 0.000000 0.000000 0.000000 0.000000 0.000000 0.000000 0.000000 0.000000 0.000000 0.000000 0.000000 0.000000 0.000000 0.000000 0.000000 0.000000 0.000000 0.000000 18.367392 18.367392 18.367392 18.367392 18.367392 18.367392 18.367392 18.367392 18.367392 18.367392 18.367392 0.000000 0.000000 0.000000 0.000000
0.000000 0.000000 0.000000 0.000000 14.526601 14.526601 14.526601 14.526601 14.526601 14.526601 14.526601 0.000000 0.000000 0.000000 0.000000 0.000000 0.000000 0.000000 0.000000 0.000000 0.000000 0.000000 0.000000 0.000000 0.000000 0.000000 0.000000 0.000000 0.000000 0.000000 11.987765 11.987765 11.987765 11.987765 11.987765 11.987765 11.987765 12.831511 12.831511 12.831511 12.831511 12.831511 12.831511 12.831511 0.000000 0.000000 0.000000 0.000000 0.000000 0.000000 0.000000 0.000000 0.000000 0.000000 0.000000 0.000000 0.000000 0.000000 0.000000 0.000000 0.000000 0.000000 0.000000 0.000000 0.000000 0.000000 0.000000 0.000000 0.000000 0.000000 0.000000 0.000000 0.000000 0.000000 0.000000 0.000000 0.000000 0.000000 0.000000 0.000000 4.837589 4.837589 4.837589 4.837589 4.837589 4.837589 0.000000 0.000000 18.367392 18.367392 18.367392 18.367392 18.367392 18.367392 18.367392 18.367392 18.367392 18.367392 18.367392 0.000000 0.000000 0.000000 0.000000
0.000000 0.000000 0.000000 0.000000 14.526601 14.526601 14.526601 14.526601 14.526601 14.526601 14.526601 0.000000 0.000000 0.000000 0.000000 0.000000 0.000000 0.000000 0.000000 0.000000 0.000000 0.000000 0.000000 0.000000 0.000000 0.000000 0.000000 0.000000 0.000000 0.000000 11.987765 11.987765 11.987765 11.987765 11.987765 11.987765 11.987765 12.831511 12.831511 12.831511 12.831511 12.831511 12.831511 12.831511 0.000000 0.000000 0.000000 0.000000 0.000000 0.000000 0.000000 0.000000 0.000000 0.000000 0.000000 0.000000 0.000000 0.000000 0.000000 0.000000 0.000000 0.000000 0.000000 0.000000 0.000000 0.000000 0.000000 0.000000 0.000000 0.000000 0.000000 0.000000 0.000000 0.000000 0.000000 0.000000 0.000000 0.000000 0.000000 0.000000 4.837589 4.837589 4.837589 4.837589 4.837589 4.837589 0.000000 0.000000 18.367392 18.367392 18.367392 18.367392 18.367392 18.367392 18.367392 18.367392 18.367392 18.367392 18.367392 0.000000 0.000000 0.000000 0.000000
0.000000 0.000000 0.000000 0.000000 14.526601 14.526601 14.526601 14.526601 14.526601 14.526601 14.526601 0.000000 0.000000 0.000000 0.000000 0.000000 0.000000 0.000000 0.000000 0.000000 0.000000 0.000000 0.000000 0.000000 0.000000 0.000000 0.000000 0.000000 0.000000 0.000000 0.000000 0.000000 0.000000 0.000000 0.000000 0.000000 0.000000 20.542867 20.542867 20.542867 20.542867 20.542867 20.542867 20.542867 0.000000 0.000000 0.000000 0.000000 0.000000 0.000000 0.000000 0.000000 0.000000 0.000000 0.000000 0.000000 0.000000 0.000000 0.000000 0.000000 0.000000 0.000000 0.000000 0.000000 0.000000 0.000000 0.000000 0.000000 0.000000 0.000000 0.000000 0.000000 0.000000 0.000000 0.000000 0.000000 0.000000 0.000000 0.000000 0.000000 4.837589 4.837589 4.837589 4.837589 4.837589 4.837589 0.000000 0.000000 18.367392 18.367392 18.367392 18.367392 18.367392 18.367392 18.367392 18.367392 18.367392 18.367392 18.367392 0.000000 0.000000 0.000000 0.000000
0.000000 0.000000 0.000000 0.000000 14.526601 14.526601 14.526601 14.526601 14.526601 14.526601 14.526601 0.000000 0.000000 0.000000 0.000000 0.000000 0.000000 0.000000 0.000000 0.000000 0.000000 0.000000 0.000000 0.000000 0.000000 0.000000 0.000000 0.000000 0.000000 0.000000 0.000000 0.000000 0.000000 0.000000 0.000000 0.000000 0.000000 20.542867 20.542867 20.542867 20.542867 20.542867 20.542867 20.542867 0.000000 0.000000 0.000000 0.000000 0.000000 0.000000 0.000000 0.000000 0.000000 0.000000 0.000000 0.000000 0.000000 0.000000 0.000000 0.000000 0.000000 0.000000 0.000000 0.000000 0.000000 0.000000 0.000000 0.000000 0.000000 0.000000 0.000000 0.000000 0.000000 0.000000 0.000000 0.000000 0.000000 0.000000 0.000000 0.000000 0.000000 0.000000 0.000000 0.000000 0.000000 0.000000 0.000000 0.000000 18.367392 18.367392 18.367392 18.367392 18.367392 18.367392 18.367392 18.367392 18.367392 18.367392 18.367392 0.000000 0.000000 0.000000 0.000000
0.000000 0.000000 0.000000 0.000000 14.526601 14.526601 14.526601 14.526601 14.526601 14.526601 14.526601 0.000000 0.000000 0.000000 0.000000 0.000000 0.000000 0.000000 0.000000 0.000000 0.000000 0.000000 0.000000 0.000000 0.000000 0.000000 0.000000 0.000000 0.000000 0.000000 0.000000 0.000000 5.778051 5.778051 5.778051 0.000000 0.000000 20.542867 20.542867 20.542867 20.542867 20.542867 20.542867 20.542867 0.000000 0.000000 0.000000 0.000000 0.000000 0.000000 0.000000 16.757239 16.757239 16.757239 16.757239 16.757239 16.757239 16.757239 16.757239 0.000000 0.000000 0.000000 0.000000 15.689627 15.689627 15.689627 15.689627 15.689627 15.689627 15.689627 15.689627 0.000000 0.000000 0.000000 0.000000 0.000000 0.000000 0.000000 0.000000 0.000000 0.000000 0.000000 0.000000 0.000000 0.000000 0.000000 0.000000 0.000000 18.367392 18.367392 18.367392 18.367392 18.367392 18.367392 18.367392 18.367392 18.367392 18.367392 18.367392 0.000000 0.000000 0.000000 0.000000
0.000000 0.000000 0.000000 0.000000 15.049275 15.049275 15.049275 15.049275 15.049275 15.049275 15.049275 15.386361 15.386361 15.386361 15.386361 15.386361 15.386361 15.386361 0.000000 0.000000 0.000000 0.000000 0.000000 0.000000 0.000000 0.000000 0.000000 0.000000 0.000000 0.000000 0.000000 0.000000 5.778051 5.778051 5.778051 0.000000 0.000000 20.542867 20.542867 20.542867 20.542867 20.542867 20.542867 20.542867 0.000000 0.000000 0.000000 0.000000 0.000000 0.000000 0.000000 16.757239 16.757239 16.757239 16.757239 16.757239 16.757239 16.757239 16.757239 0.000000 0.000000 0.000000 0.000000 15.689627 15.689627 15.689627 15.689627 15.689627 15.689627 15.689627 15.689627 0.000000 0.000000 0.000000 0.000000 0.000000 0.000000 0.000000 0.000000 0.000000 0.000000 0.000000 0.000000 0.000000 0.000000 0.000000 0.000000 0.000000 0.000000 0.000000 0.000000 0.000000 0.000000 0.000000 0.000000 0.000000 0.000000 0.000000 0.000000 0.000000 0.000000 0.000000 0.000000
0.000000 0.000000 0.000000 0.000000 15.049275 15.049275 15.049275 15.049275 15.049275 15.049275 15.049275 15.386361 15.386361 15.386361 15.386361 15.386361 15.386361 15.386361 0.000000 0.000000 0.000000 0.000000 0.000000 0.000000 0.000000 0.000000 0.000000 0.000000 0.000000 0.000000 0.000000 0.000000 5.778051 5.778051 5.778051 0.000000 0.000000 20.542867 20.542867 20.542867 20.542867 20.542867 20.542867 20.542867 0.000000 0.000000 0.000000 0.000000 0.000000 0.000000 0.000000 16.757239 16.757239 16.757239 16.757239 16.757239 16.757239 16.757239 16.757239 0.000000 0.000000 0.000000 0.000000 15.689627 15.689627 15.689627 15.689627 15.689627 15.689627 15.689627 15.689627 0.000000 0.000000 0.000000 0.000000 0.000000 0.000000 0.000000 0.000000 0.000000 0.000000 0.000000 0.000000 0.000000 0.000000 0.000000 0.000000 0.000000 0.000000 0.000000 0.000000 0.000000 0.000000 0.000000 0.000000 0.000000 0.000000 0.000000 0.000000 0.000000 0.000000 0.000000 0.000000
0.000000 0.000000 0.000000 0.000000 15.049275 15.049275 15.049275 15.049275 15.049275 15.049275 15.049275 15.386361 15.386361 15.386361 15.386361 15.386361 15.386361 15.386361 0.000000 0.000000 0.000000 0.000000 0.000000 0.000000 0.000000 0.000000 0.000000 0.000000 0.000000 0.000000 0.000000 0.000000 5.778051 5.778051 5.778051 0.000000 0.000000 20.542867 20.542867 20.542867 20.542867 20.542867 20.542867 20.542867 0.000000 0.000000 0.000000 0.000000 0.000000 0.000000 0.000000 16.757239 16.757239 16.757239 16.757239 16.757239 16.757239 16.757239 16.757239 0.000000 0.000000 0.000000 0.000000 15.689627 15.689627 15.689627 15.689627 15.689627 15.689627 15.689627 15.689627 0.000000 0.000000 0.000000 0.000000 0.000000 0.000000 0.000000 0.000000 0.000000 8.166771 8.166771 8.166771 8.166771 8.166771 8.166771 0.000000 0.000000 0.000000 0.000000 9.345890 9.345890 9.345890 9.345890 9.345890 9.345890 9.345890 0.000000 0.000000 0.000000 0.000000 0.000000 0.000000
0.000000 0.000000 0.000000 0.000000 15.049275 15.049275 15.049275 15.049275 15.049275 15.049275 15.049275 15.386361 15.386361 15.386361 15.386361 15.386361 15.386361 15.386361 0.000000 0.000000 0.000000 0.000000 0.000000 0.000000 0.000000 0.000000 0.000000 0.000000 0.000000 0.000000 0.000000 0.000000 5.778051 5.778051 5.778051 0.000000 0.000000 20.542867 20.542867 20.542867 20.542867 20.542867 20.542867 20.542867 0.000000 0.000000 0.000000 0.000000 0.000000 0.000000 0.000000 16.757239 16.757239 16.757239 16.757239 16.757239 16.757239 16.757239 16.757239 0.000000 0.000000 0.000000 0.000000 15.689627 15.689627 15.689627 15.689627 15.689627 15.689627 15.689627 15.689627 0.000000 0.000000 0.000000 0.000000 0.000000 0.000000 0.000000 0.000000 0.000000 8.166771 8.166771 8.166771 8.166771 8.166771 8.166771 0.000000 0.000000 0.000000 0.000000 9.345890 9.345890 9.345890 9.345890 9.345890 9.345890 9.345890 0.000000 0.000000 0.000000 0.000000 0.000000 0.000000
0.000000 0.000000 0.000000 0.000000 15.049275 15.049275 15.049275 15.049275 15.049275 15.049275 15.049275 15.386361 15.386361 15.386361 15.386361 15.386361 15.386361 15.386361 0.000000 0.000000 0.000000 0.000000 0.000000 0.000000 0.000000 0.000000 0.000000 0.000000 0.000000 0.000000 0.000000 0.000000 5.778051 5.778051 5.778051 0.000000 0.000000 20.542867 20.542867 20.542867 20.542867 20.542867 20.542867 20.542867 0.000000 0.000000 0.000000 0.000000 0.000000 0.000000 0.000000 16.757239 16.757239 16.757239 16.757239 16.757239 16.757239 16.757239 16.757239 0.000000 0.000000 0.000000 0.000000 15.689627 15.689627 15.689627 15.689627 15.689627 15.689627 15.689627 15.689627 0.000000 0.000000 0.000000 0.000000 0.000000 0.000000 0.000000 0.000000 0.000000 8.166771 8.166771 8.166771 8.166771 8.166771 8.166771 0.000000 0.000000 0.000000 0.000000 9.345890 9.345890 9.345890 9.345890 9.345890 9.345890 9.345890 0.000000 0.000000 0.000000 0.000000 0.000000 0.000000
0.000000 0.000000 0.000000 0.000000 15.049275 15.049275 15.049275 15.049275 15.049275 15.049275 15.049275 15.386361 15.386361 15.386361 15.386361 15.386361 15.386361 15.386361 0.000000 0.000000 0.000000 0.000000 0.000000 0.000000 0.000000 0.000000 0.000000 0.000000 0.000000 0.000000 0.000000 0.000000 5.778051 5.778051 5.778051 0.000000 0.000000 20.542867 20.542867 20.542867 20.542867 20.542867 20.542867 20.542867 0.000000 0.000000 0.000000 0.000000 0.000000 0.000000 0.000000 16.757239 16.757239 16.757239 16.757239 16.757239 16.757239 16.757239 16.757239 0.000000 0.000000 0.000000 0.000000 15.689627 15.689627 15.689627 15.689627 15.689627 15.689627 15.689627 15.689627 0.000000 0.000000 0.000000 0.000000 0.000000 0.000000 0.000000 0.000000 0.000000 8.166771 8.166771 8.166771 8.166771 8.166771 8.166771 0.000000 0.000000 0.000000 0.000000 9.345890 9.345890 9.345890 9.345890 9.345890 9.345890 9.345890 0.000000 0.000000 0.000000 0.000000 0.000000 0.000000
0.000000 0.000000 0.000000 0.000000 15.049275 15.049275 15.049275 15.049275 15.049275 15.049275 15.049275 15.386361 15.386361 15.386361 15.386361 15.386361 15.386361 15.386361 0.000000 0.000000 0.000000 0.000000 0.000000 0.000000 0.000000 0.000000 0.000000 0.000000 0.000000 0.000000 0.000000 0.000000 5.778051 5.778051 5.778051 0.000000 0.000000 20.542867 20.542867 20.542867 20.542867 20.542867 20.542867 20.542867 0.000000 0.000000 0.000000 0.000000 0.000000 0.000000 0.000000 16.757239 16.757239 16.757239 16.757239 16.757239 16.757239 16.757239 16.757239 0.000000 0.000000 0.000000 0.000000 15.689627 15.689627 15.689627 15.689627 15.689627 15.689627 15.689627 15.689627 0.000000 0.000000 0.000000 0.000000 0.000000 0.000000 0.000000 0.000000 0.000000 8.166771 8.166771 8.166771 8.166771 8.166771 8.166771 0.000000 0.000000 0.000000 0.000000 9.345890 9.345890 9.345890 9.345890 9.345890 9.345890 9.345890 0.000000 0.000000 0.000000 0.000000 0.000000 0.000000
0.000000 0.000000 0.000000 0.000000 15.049275 15.049275 15.049275 15.049275 15.049275 15.049275 15.049275 15.386361 15.386361 15.386361 15.386361 15.386361 15.386361 15.386361 0.000000 0.000000 0.000000 0.000000 0.000000 0.000000 0.000000 0.000000 0.000000 0.000000 0.000000 0.000000 0.000000 0.000000 0.000000 0.000000 0.000000 0.000000 0.000000 20.542867 20.542867 20.542867 20.542867 20.542867 20.542867 20.542867 0.000000 0.000000 0.000000 0.000000 0.000000 0.000000 0.000000 0.000000 0.000000 0.000000 0.000000 0.000000 0.000000 0.000000 0.000000 0.000000 0.000000 0.000000 0.000000 0.000000 0.000000 0.000000 0.000000 0.000000 0.000000 0.000000 0.000000 0.000000 0.000000 0.000000 0.000000 0.000000 0.000000 0.000000 0.000000 0.000000 0.000000 0.000000 0.000000 0.000000 0.000000 0.000000 0.000000 0.000000 0.000000 0.000000 0.000000 0.000000 0.000000 0.000000 0.000000 0.000000 0.000000 0.000000 0.000000 0.000000 0.000000 0.000000 0.000000
0.000000 0.000000 0.000000 0.000000 15.049275 15.049275 15.049275 15.049275 15.049275 15.049275 15.049275 15.386361 15.386361 15.386361 15.386361 15.386361 15.386361 15.386361 0.000000 0.000000 0.000000 0.000000 0.000000 0.000000 0.000000 0.000000 0.000000 0.000000 0.000000 0.000000 0.000000 0.000000 0.000000 0.000000 0.000000 0.000000 0.000000 20.542867 20.542867 20.542867 20.542867 20.542867 20.542867 20.542867 0.000000 0.000000 0.000000 0.000000 0.000000 0.000000 0.000000 0.000000 0.000000 0.000000 0.000000 0.000000 0.000000 0.000000 0.000000 0.000000 0.000000 0.000000 0.000000 0.000000 0.000000 0.000000 0.000000 0.000000 0.000000 0.000000 0.000000 0.000000 0.000000 0.000000 0.000000 0.000000 0.000000 0.000000 0.000000 0.000000 0.000000 0.000000 0.000000 0.000000 0.000000 0.000000 0.000000 0.000000 0.000000 0.000000 0.000000 0.000000 0.000000 0.000000 0.000000 0.000000 0.000000 0.000000 0.000000 0.000000 0.000000 0.000000 0.000000
0.000000 0.000000 0.000000 0.000000 0.000000 0.000000 0.000000 0.000000 0.000000 0.000000 0.000000 0.000000 0.000000 0.000000 0.000000 0.000000 0.000000 0.000000 0.000000 0.000000 0.000000 0.000000 0.000000 0.000000 0.000000 0.000000 0.000000 0.000000 0.000000 0.000000 0.000000 0.000000 0.000000 0.000000 0.000000 0.000000 0.000000 0.000000 0.000000 0.000000 0.000000 0.000000 0.000000 0.000000 0.000000 0.000000 0.000000 0.000000 0.000000 0.000000 0.000000 0.000000 0.000000 0.000000 0.000000 0.000000 0.000000 0.000000 0.000000 0.000000 0.000000 0.000000 0.000000 0.000000 0.000000 0.000000 0.000000 0.000000 0.000000 0.000000 0.000000 0.000000 0.000000 0.000000 0.000000 0.000000 0.000000 0.000000 0.000000 0.000000 0.000000 0.000000 0.000000 0.000000 0.000000 0.000000 0.000000 0.000000 0.000000 0.000000 0.000000 0.000000 0.000000 0.000000 0.000000 0.000000 0.000000 0.000000 0.000000 0.000000 0.000000 0.000000 0.000000
0.000000 0.000000 0.000000 0.000000 0.000000 0.000000 0.000000 0.000000 0.000000 0.000000 0.000000 0.000000 0.000000 0.000000 0.000000 0.000000 0.000000 0.000000 0.000000 0.000000 0.000000 0.000000 0.000000 0.000000 0.000000 0.000000 0.000000 0.000000 0.000000 0.000000 0.000000 0.000000 0.000000 0.000000 0.000000 0.000000 0.000000 0.000000 0.000000 0.000000 0.000000 0.000000 0.000000 0.000000 0.000000 0.000000 0.000000 0.000000 0.000000 0.000000 0.000000 0.000000 0.000000 0.000000 0.000000 0.000000 0.000000 0.000000 0.000000 0.000000 0.000000 0.000000 0.000000 0.000000 0.000000 0.000000 0.000000 0.000000 0.000000 0.000000 0.000000 0.000000 0.000000 0.000000 0.000000 0.000000 0.000000 0.000000 0.000000 0.000000 0.000000 0.000000 0.000000 0.000000 0.000000 0.000000 0.000000 0.000000 0.000000 0.000000 0.000000 0.000000 0.000000 0.000000 0.000000 0.000000 0.000000 0.000000 0.000000 0.000000 0.000000 0.000000 0.000000
0.000000 0.000000 0.000000 0.000000 0.000000 0.000000 0.000000 0.000000 0.000000 0.000000 0.000000 0.000000 0.000000 0.000000 0.000000 0.000000 0.000000 0.000000 0.000000 0.000000 0.000000 0.000000 0.000000 0.000000 0.000000 0.000000 0.000000 0.000000 0.000000 0.000000 0.000000 0.000000 0.000000 0.000000 0.000000 0.000000 0.000000 0.000000 0.000000 0.000000 0.000000 0.000000 0.000000 0.000000 0.000000 0.000000 0.000000 0.000000 0.000000 0.000000 0.000000 0.000000 0.000000 0.000000 0.000000 0.000000 0.000000 0.000000 0.000000 0.000000 0.000000 0.000000 0.000000 0.000000 0.000000 0.000000 0.000000 0.000000 0.000000 0.000000 0.000000 0.000000 0.000000 0.000000 0.000000 0.000000 0.000000 0.000000 0.000000 0.000000 0.000000 0.000000 0.000000 0.000000 0.000000 0.000000 0.000000 0.000000 0.000000 0.000000 0.000000 0.000000 0.000000 0.000000 0.000000 0.000000 0.000000 0.000000 0.000000 0.000000 0.000000 0.000000 0.000000
0.000000 0.000000 0.000000 0.000000 0.000000 0.000000 0.000000 0.000000 0.000000 0.000000 0.000000 0.000000 0.000000 0.000000 0.000000 0.000000 0.000000 0.000000 0.000000 0.000000 0.000000 0.000000 0.000000 0.000000 0.000000 0.000000 0.000000 0.000000 0.000000 0.000000 0.000000 0.000000 0.000000 0.000000 0.000000 0.000000 0.000000 0.000000 0.000000 0.000000 0.000000 0.000000 0.000000 0.000000 0.000000 0.000000 0.000000 0.000000 0.000000 0.000000 0.000000 0.000000 0.000000 0.000000 0.000000 0.000000 0.000000 0.000000 0.000000 0.000000 0.000000 0.000000 0.000000 0.000000 0.000000 0.000000 0.000000 0.000000 0.000000 0.000000 0.000000 0.000000 0.000000 0.000000 0.000000 0.000000 0.000000 0.000000 0.000000 0.000000 0.000000 0.000000 0.000000 0.000000 0.000000 0.000000 0.000000 0.000000 0.000000 0.000000 0.000000 0.000000 0.000000 0.000000 0.000000 0.000000 0.000000 0.000000 0.000000 0.000000 0.000000 0.000000 0.000000
0.000000 0.000000 0.000000 0.000000 0.000000 0.000000 0.000000 0.000000 0.000000 0.000000 0.000000 0.000000 0.000000 0.000000 0.000000 0.000000 0.000000 0.000000 0.000000 0.000000 0.000000 0.000000 0.000000 0.000000 0.000000 0.000000 0.000000 0.000000 0.000000 0.000000 0.000000 0.000000 0.000000 0.000000 0.000000 0.000000 0.000000 0.000000 0.000000 0.000000 0.000000 0.000000 0.000000 0.000000 0.000000 0.000000 0.000000 0.000000 0.000000 0.000000 0.000000 0.000000 0.000000 0.000000 0.000000 0.000000 0.000000 0.000000 0.000000 0.000000 0.000000 0.000000 0.000000 0.000000 0.000000 0.000000 0.000000 0.000000 0.000000 0.000000 0.000000 0.000000 0.000000 0.000000 0.000000 0.000000 0.000000 0.000000 0.000000 0.000000 0.000000 0.000000 0.000000 0.000000 0.000000 0.000000 0.000000 0.000000 0.000000 0.000000 0.000000 0.000000 0.000000 0.000000 0.000000 0.000000 0.000000 0.000000 0.000000 0.000000 0.000000 0.000000 0.000000
0.000000 0.000000 0.000000 0.000000 0.000000 0.000000 0.000000 0.000000 0.000000 0.000000 0.000000 0.000000 0.000000 0.000000 0.000000 0.000000 0.000000 0.000000 0.000000 0.000000 0.000000 0.000000 0.000000 14.659015 14.659015 14.659015 14.659015 14.659015 14.659015 14.659015 14.659015 14.659015 14.659015 0.000000 0.000000 0.000000 0.000000 0.000000 0.000000 0.000000 0.000000 0.000000 0.000000 0.000000 0.000000 0.000000 0.000000 0.000000 0.000000 0.000000 0.000000 0.000000 0.000000 0.000000 0.000000 0.000000 12.298936 12.298936 12.298936 12.298936 12.298936 12.298936 12.298936 12.298936 0.000000 0.000000 0.000000 0.000000 0.000000 0.000000 0.000000 0.000000 0.000000 0.000000 0.000000 0.000000 0.000000 0.000000 0.000000 0.000000 0.000000 0.000000 0.000000 0.000000 0.000000 0.000000 0.000000 0.000000 0.000000 0.000000 0.000000 0.000000 0.000000 0.000000 0.000000 0.000000 0.000000 0.000000 0.000000 0.000000 0.000000 0.000000 0.000000
0.000000 0.000000 0.000000 0.000000 0.000000 0.000000 0.000000 0.000000 0.000000 0.000000 0.000000 0.000000 0.000000 0.000000 0.000000 0.000000 0.000000 0.000000 0.000000 0.000000 0.000000 0.000000 0.000000 14.659015 14.659015 14.659015 14.659015 14.659015 14.659015 14.659015 14.659015 14.659015 14.659015 0.000000 0.000000 0.000000 0.000000 0.000000 0.000000 0.000000 0.000000 0.000000 0.000000 0.000000 0.000000 0.000000 0.000000 0.000000 0.000000 0.000000 0.000000 0.000000 0.000000 0.000000 0.000000 0.000000 12.298936 12.298936 12.298936 12.298936 12.298936 12.298936 12.298936 12.298936 0.000000 0.000000 0.000000 0.000000 0.000000 0.000000 0.000000 0.000000 0.000000 0.000000 0.000000 0.000000 0.000000 0.000000 0.000000 0.000000 0.000000 0.000000 0.000000 0.000000 0.000000 0.000000 0.000000 0.000000 0.000000 0.000000 0.000000 0.000000 0.000000 0.000000 0.000000 0.000000 0.000000 0.000000 0.000000 0.000000 0.000000 0.000000 0.000000
0.000000 0.000000 0.000000 0.000000 0.000000 0.000000 22.050601 22.050601 22.050601 22.050601 22.050601 22.050601 22.050601 22.050601 22.050601 22.050601 0.000000 0.000000 0.000000 0.000000 0.000000 0.000000 0.000000 14.659015 14.659015 14.659015 14.659015 14.659015 14.659015 14.659015 14.659015 14.659015 14.659015 0.000000 0.000000 0.000000 0.000000 0.000000 0.000000 0.000000 0.000000 0.000000 0.000000 0.000000 0.000000 0.000000 0.000000 0.000000 0.000000 0.000000 0.000000 0.000000 0.000000 0.000000 0.000000 0.000000 12.298936 12.298936 12.298936 12.298936 12.298936 12.298936 12.298936 12.298936 0.000000 0.000000 0.000000 0.000000 0.000000 0.000000 0.000000 0.000000 0.000000 0.000000 0.000000 0.000000 0.000000 0.000000 0.000000 0.000000 0.000000 0.000000 0.000000 0.000000 0.000000 0.000000 0.000000 0.000000 0.000000 0.000000 0.000000 0.000000 0.000000 0.000000 0.000000 0.000000 0.000000 0.000000 0.000000 0.000000 0.000000 0.000000 0.000000
0.000000 0.000000 0.000000 0.000000 0.000000 0.000000 22.050601 22.050601 22.050601 22.050601 22.050601 22.050601 22.050601 22.050601 22.050601 22.050601 0.000000 0.000000 0.000000 0.000000 0.000000 0.000000 0.000000 14.659015 14.659015 14.659015 14.659015 14.659015 14.659015 14.659015 14.659015 14.659015 14.659015 0.000000 0.000000 0.000000 0.000000 0.000000 0.000000 0.000000 0.000000 0.000000 0.000000 0.000000 0.000000 0.000000 0.000000 0.000000 0.000000 0.000000 0.000000 0.000000 0.000000 0.000000 0.000000 0.000000 12.298936 12.298936 12.298936 12.298936 12.298936 12.298936 12.298936 12.298936 0.000000 0.000000 0.000000 0.000000 0.000000 0.000000 0.000000 0.000000 0.000000 0.000000 0.000000 0.000000 0.000000 0.000000 0.000000 0.000000 0.000000 0.000000 0.000000 0.000000 0.000000 0.000000 0.000000 0.000000 0.000000 0.000000 0.000000 0.000000 0.000000 0.000000 0.000000 0.000000 0.000000 0.000000 0.000000 0.000000 0.000000 0.000000 0.000000
0.000000 0.000000 0.000000 0.000000 0.000000 0.000000 22.050601 22.050601 22.050601 22.050601 22.050601 22.050601 22.050601 22.050601 22.050601 22.050601 0.000000 0.000000 0.000000 0.000000 0.000000 0.000000 0.000000 14.659015 14.659015 14.659015 14.659015 14.659015 14.659015 14.659015 14.659015 14.659015 14.659015 0.000000 0.000000 0.000000 0.000000 0.000000 0.000000 0.000000 0.000000 0.000000 0.000000 0.000000 0.000000 0.000000 0.000000 0.000000 0.000000 0.000000 0.000000 0.000000 0.000000 0.000000 0.000000 0.000000 12.298936 12.298936 12.298936 12.298936 12.298936 12.298936 12.298936 12.298936 0.000000 0.000000 0.000000 0.000000 0.000000 0.000000 0.000000 0.000000 0.000000 0.000000 0.000000 0.000000 0.000000 0.000000 0.000000 0.000000 0.000000 0.000000 0.000000 0.000000 0.000000 0.000000 0.000000 0.000000 0.000000 0.000000 0.000000 0.000000 0.000000 0.000000 0.000000 0.000000 0.000000 0.000000 0.000000 0.000000 0.000000 0.000000 0.000000
0.000000 0.000000 0.000000 0.000000 0.000000 0.000000 22.050601 22.050601 22.050601 22.050601 22.050601 22.050601 22.050601 22.050601 22.050601 22.050601 0.000000 0.000000 0.000000 0.000000 0.000000 0.000000 0.000000 14.659015 14.659015 14.659015 14.659015 14.659015 14.659015 14.659015 14.659015 14.659015 14.659015 0.000000 0.000000 0.000000 0.000000 0.000000 0.000000 0.000000 0.000000 0.000000 0.000000 0.000000 0.000000 0.000000 0.000000 0.000000 0.000000 0.000000 0.000000 0.000000 0.000000 0.000000 0.000000 0.000000 12.298936 12.298936 12.298936 12.298936 12.298936 12.298936 12.298936 12.298936 0.000000 0.000000 0.000000 0.000000 0.000000 0.000000 0.000000 0.000000 0.000000 0.000000 0.000000 0.000000 0.000000 0.000000 0.000000 0.000000 0.000000 0.000000 0.000000 0.000000 0.000000 0.000000 0.000000 0.000000 0.000000 0.000000 0.000000 0.000000 0.000000 0.000000 0.000000 0.000000 0.000000 0.000000 0.000000 0.000000 0.000000 0.000000 0.000000
0.000000 0.000000 0.000000 0.000000 0.000000 0.000000 22.050601 22.050601 22.050601 22.050601 22.050601 22.050601 22.050601 22.050601 22.050601 22.050601 0.000000 0.000000 0.000000 0.000000 0.000000 0.000000 0.000000 14.659015 14.659015 14.659015 14.659015 14.659015 14.659015 14.659015 14.659015 14.659015 14.659015 0.000000 0.000000 0.000000 0.000000 0.000000 0.000000 0.000000 0.000000 0.000000 0.000000 0.000000 0.000000 0.000000 0.000000 0.000000 0.000000 0.000000 0.000000 0.000000 0.000000 0.000000 0.000000 0.000000 12.298936 12.298936 12.298936 12.298936 12.298936 12.298936 12.298936 12.298936 0.000000 0.000000 0.000000 0.000000 0.000000 0.000000 0.000000 0.000000 0.000000 0.000000 0.000000 0.000000 0.000000 0.000000 0.000000 0.000000 0.000000 0.000000 0.000000 0.000000 0.000000 0.000000 0.000000 0.000000 0.000000 0.000000 0.000000 0.000000 0.000000 0.000000 0.000000 0.000000 0.000000 0.000000 0.000000 0.000000 0.000000 0.000000 0.000000
0.000000 0.000000 0.000000 0.000000 0.000000 0.000000 22.050601 22.050601 22.050601 22.050601 22.050601 22.050601 22.050601 22.050601 22.050601 22.050601 0.000000 0.000000 0.000000 0.000000 0.000000 0.000000 0.000000 14.580813 14.580813 14.580813 14.580813 14.580813 14.580813 14.580813 14.580813 14.580813 14.580813 17.008336 17.008336 17.008336 17.008336 17.008336 17.008336 17.008336 17.008336 17.008336 17.008336 17.008336 0.000000 0.000000 0.000000 0.000000 0.000000 0.000000 0.000000 0.000000 0.000000 0.000000 0.000000 0.000000 0.000000 0.000000 0.000000 0.000000 0.000000 0.000000 0.000000 0.000000 0.000000 0.000000 0.000000 0.000000 0.000000 0.000000 0.000000 0.000000 0.000000 0.000000 0.000000 0.000000 0.000000 0.000000 0.000000 0.000000 0.000000 0.000000 0.000000 0.000000 0.000000 0.000000 0.000000 0.000000 0.000000 0.000000 0.000000 0.000000 0.000000 0.000000 0.000000 0.000000 0.000000 0.000000 0.000000 0.000000 0.000000 0.000000 0.000000
0.000000 0.000000 0.000000 0.000000 0.000000 0.000000 22.050601 22.050601 22.050601 22.050601 22.050601 22.050601 22.050601 22.050601 22.050601 22.050601 0.000000 0.000000 0.000000 0.000000 0.000000 0.000000 0.000000 14.580813 14.580813 14.580813 14.580813 14.580813 14.580813 14.580813 14.580813 14.580813 14.580813 17.008336 17.008336 17.008336 17.008336 17.008336 17.008336 17.008336 17.008336 17.008336 17.008336 17.008336 0.000000 0.000000 0.000000 0.000000 0.000000 0.000000 0.000000 0.000000 0.000000 0.000000 0.000000 0.000000 0.000000 0.000000 0.000000 0.000000 0.000000 0.000000 0.000000 0.000000 0.000000 0.000000 0.000000 0.000000 0.000000 0.000000 0.000000 0.000000 0.000000 0.000000 0.000000 0.000000 0.000000 0.000000 0.000000 0.000000 0.000000 0.000000 0.000000 0.000000 0.000000 0.000000 0.000000 0.000000 0.000000 0.000000 0.000000 0.000000 0.000000 0.000000 0.000000 0.000000 0.000000 0.000000 0.000000 0.000000 0.000000 0.000000 0.000000
0.000000 0.000000 0.000000 0.000000 0.000000 0.000000 22.050601 22.050601 22.050601 22.050601 22.050601 22.050601 22.050601 22.050601 22.050601 22.050601 0.000000 0.000000 0.000000 0.000000 0.000000 0.000000 0.000000 14.580813 14.580813 14.580813 14.580813 14.580813 14.580813 14.580813 14.580813 14.580813 14.580813 17.008336 17.008336 17.008336 17.008336 17.008336 17.008336 17.008336 17.008336 17.008336 17.008336 17.008336 0.000000 0.000000 0.000000 0.000000 0.000000 0.000000 0.000000 0.000000 0.000000 0.000000 0.000000 0.000000 0.000000 0.000000 0.000000 0.000000 0.000000 0.000000 0.000000 0.000000 0.000000 0.000000 0.000000 0.000000 0.000000 0.000000 0.000000 0.000000 0.000000 0.000000 0.000000 0.000000 0.000000 0.000000 0.000000 0.000000 0.000000 0.000000 0.000000 0.000000 0.000000 0.000000 0.000000 0.000000 0.000000 0.000000 0.000000 0.000000 0.000000 0.000000 0.000000 0.000000 0.000000 0.000000 0.000000 0.000000 0.000000 0.000000 0.000000
0.000000 0.000000 0.000000 0.000000 0.000000 0.000000 22.050601 22.050601 22.050601 22.050601 22.050601 22.050601 22.050601 22.050601 22.050601 22.050601 0.000000 0.000000 0.000000 0.000000 0.000000 0.000000 0.000000 14.580813 14.580813 14.580813 14.580813 14.580813 14.580813 14.580813 14.580813 14.580813 14.580813 17.008336 17.008336 17.008336 17.008336 17.008336 17.008336 17.008336 17.008336 17.008336 17.008336 17.008336 0.000000 0.000000 0.000000 0.000000 0.000000 0.000000 0.000000 0.000000 0.000000 0.000000 0.000000 0.000000 0.000000 0.000000 0.000000 0.000000 0.000000 0.000000 0.000000 0.000000 0.000000 0.000000 0.000000 0.000000 0.000000 0.000000 0.000000 0.000000 0.000000 0.000000 0.000000 0.000000 0.000000 0.000000 0.000000 0.000000 0.000000 0.000000 0.000000 0.000000 0.000000 0.000000 0.000000 0.000000 0.000000 0.000000 0.000000 0.000000 0.000000 0.000000 0.000000 0.000000 0.000000 0.000000 0.000000 0.000000 0.000000 0.000000 0.000000
0.000000 0.000000 0.000000 0.000000 0.000000 0.000000 0.000000 0.000000 0.000000 0.000000 0.000000 0.000000 0.000000 0.000000 0.000000 0.000000 0.000000 0.000000 0.000000 0.000000 0.000000 0.000000 0.000000 14.580813 14.580813 14.580813 14.580813 14.580813 14.580813 14.580813 14.580813 14.580813 14.580813 17.008336 17.008336 17.008336 17.008336 17.008336 17.008336 17.008336 17.008336 17.008336 17.008336 17.008336 0.000000 0.000000 0.000000 0.000000 0.000000 0.000000 0.000000 0.000000 0.000000 0.000000 0.000000 0.000000 0.000000 0.000000 0.000000 0.000000 0.000000 0.000000 0.000000 0.000000 0.000000 0.000000 0.000000 0.000000 0.000000 0.000000 0.000000 0.000000 0.000000 0.000000 0.000000 0.000000 0.000000 0.000000 0.000000 0.000000 0.000000 0.000000 0.000000 0.000000 0.000000 0.000000 0.000000 0.000000 0.000000 0.000000 0.000000 0.000000 0.000000 0.000000 0.000000 0.000000 0.000000 0.000000 0.000000 0.000000 0.000000 0.000000 0.000000
0.000000 0.000000 0.000000 0.000000 0.000000 0.000000 0.000000 0.000000 0.000000 0.000000 0.000000 0.000000 0.000000 0.000000 0.000000 0.000000 0.000000 0.000000 0.000000 0.000000 0.000000 0.000000 0.000000 14.580813 14.580813 14.580813 14.580813 14.580813 14.580813 14.580813 14.580813 14.580813 14.580813 17.008336 17.008336 17.008336 17.008336 17.008336 17.008336 17.008336 17.008336 17.008336 17.008336 17.008336 0.000000 0.000000 0.000000 0.000000 0.000000 0.000000 0.000000 0.000000 0.000000 0.000000 0.000000 0.000000 0.000000 0.000000 0.000000 0.000000 0.000000 0.000000 0.000000 0.000000 0.000000 0.000000 0.000000 0.000000 0.000000 0.000000 0.000000 0.000000 0.000000 0.000000 0.000000 0.000000 0.000000 0.000000 0.000000 0.000000 0.000000 0.000000 0.000000 0.000000 0.000000 0.000000 0.000000 0.000000 0.000000 0.000000 0.000000 0.000000 0.000000 0.000000 0.000000 0.000000 0.000000 0.000000 0.000000 0.000000 0.000000 0.000000 0.000000
0.000000 0.000000 0.000000 0.000000 0.000000 0.000000 0.000000 0.000000 0.000000 0.000000 0.000000 0.000000 0.000000 0.000000 0.000000 0.000000 0.000000 0.000000 0.000000 0.000000 0.000000 0.000000 0.000000 0.000000 0.000000 0.000000 0.000000 0.000000 0.000000 0.000000 0.000000 0.000000 0.000000 0.000000 0.000000 0.000000 0.000000 0.000000 0.000000 0.000000 0.000000 0.000000 0.000000 0.000000 0.000000 0.000000 0.000000 0.000000 0.000000 0.000000 0.000000 0.000000 0.000000 0.000000 0.000000 0.000000 0.000000 0.000000 0.000000 0.000000 0.000000 0.000000 0.000000 0.000000 0.000000 0.000000 0.000000 0.000000 0.000000 0.000000 0.000000 0.000000 0.000000 0.000000 0.000000 0.000000 0.000000 0.000000 0.000000 0.000000 0.000000 0.000000 0.000000 0.000000 0.000000 0.000000 0.000000 0.000000 0.000000 0.000000 0.000000 0.000000 0.000000 0.000000 0.000000 0.000000 0.000000 0.000000 0.000000 0.000000 0.000000 0.000000 0.000000
0.000000 0.000000 0.000000 0.000000 0.000000 0.000000 0.000000 0.000000 0.000000 0.000000 0.000000 0.000000 0.000000 0.000000 0.000000 0.000000 0.000000 0.000000 0.000000 0.000000 0.000000 0.000000 0.000000 0.000000 0.000000 0.000000 0.000000 0.000000 0.000000 0.000000 0.000000 0.000000 0.000000 0.000000 0.000000 0.000000 0.000000 0.000000 0.000000 0.000000 0.000000 0.000000 0.000000 0.000000 0.000000 0.000000 0.000000 0.000000 0.000000 0.000000 0.000000 0.000000 0.000000 0.000000 0.000000 0.000000 0.000000 0.000000 0.000000 0.000000 0.000000 0.000000 0.000000 0.000000 0.000000 0.000000 0.000000 0.000000 0.000000 0.000000 0.000000 0.000000 0.000000 0.000000 0.000000 0.000000 0.000000 0.000000 0.000000 0.000000 0.000000 0.000000 0.000000 0.000000 0.000000 0.000000 0.000000 0.000000 0.000000 0.000000 0.000000 0.000000 0.000000 0.000000 0.000000 0.000000 0.000000 0.000000 0.000000 0.000000 0.000000 0.000000 0.000000
0.000000 0.000000 0.000000 0.000000 0.000000 0.000000 0.000000 0.000000 0.000000 0.000000 0.000000 0.000000 0.000000 0.000000 0.000000 0.000000 0.000000 0.000000 0.000000 0.000000 0.000000 0.000000 0.000000 0.000000 0.000000 0.000000 0.000000 0.000000 0.000000 0.000000 0.000000 0.000000 0.000000 0.000000 0.000000 0.000000 0.000000 0.000000 0.000000 0.000000 0.000000 0.000000 0.000000 0.000000 0.000000 0.000000 0.000000 0.000000 0.000000 0.000000 0.000000 0.000000 0.000000 0.000000 0.000000 0.000000 0.000000 0.000000 0.000000 0.000000 0.000000 0.000000 0.000000 0.000000 0.000000 0.000000 0.000000 0.000000 0.000000 0.000000 0.000000 0.000000 0.000000 0.000000 0.000000 0.000000 0.000000 0.000000 0.000000 0.000000 0.000000 0.000000 0.000000 0.000000 0.000000 0.000000 0.000000 0.000000 0.000000 0.000000 0.000000 0.000000 0.000000 0.000000 0.000000 0.000000 0.000000 0.000000 0.000000 0.000000 0.000000 0.000000 0.000000
0.000000 0.000000 0.000000 0.000000 0.000000 0.000000 0.000000 0.000000 0.000000 0.000000 0.000000 0.000000 0.000000 0.000000 0.000000 0.000000 0.000000 0.000000 0.000000 0.000000 0.000000 0.000000 0.000000 0.000000 0.000000 0.000000 0.000000 0.000000 0.000000 0.000000 0.000000 0.000000 0.000000 0.000000 0.000000 0.000000 0.000000 0.000000 0.000000 0.000000 0.000000 0.000000 0.000000 0.000000 0.000000 0.000000 0.000000 0.000000 0.000000 0.000000 0.000000 0.000000 0.000000 0.000000 0.000000 0.000000 0.000000 0.000000 0.000000 0.000000 0.000000 0.000000 0.000000 0.000000 0.000000 0.000000 0.000000 0.000000 0.000000 0.000000 0.000000 0.000000 0.000000 0.000000 0.000000 0.000000 0.000000 0.000000 0.000000 0.000000 0.000000 0.000000 0.000000 0.000000 0.000000 0.000000 0.000000 0.000000 0.000000 0.000000 0.000000 0.000000 0.000000 0.000000 0.000000 0.000000 0.000000 0.000000 0.000000 0.000000 0.000000 0.000000 0.000000
0.000000 0.000000 0.000000 0.000000 0.000000 0.000000 0.000000 0.000000 0.000000 0.000000 0.000000 0.000000 0.000000 0.000000 0.000000 0.000000 0.000000 0.000000 0.000000 0.000000 0.000000 0.000000 0.000000 0.000000 0.000000 0.000000 0.000000 0.000000 0.000000 0.000000 0.000000 0.000000 0.000000 0.000000 0.000000 0.000000 0.000000 0.000000 0.000000 0.000000 0.000000 0.000000 0.000000 0.000000 0.000000 0.000000 0.000000 0.000000 0.000000 0.000000 0.000000 0.000000 0.000000 0.000000 0.000000 0.000000 0.000000 0.000000 0.000000 0.000000 0.000000 0.000000 0.000000 0.000000 0.000000 0.000000 0.000000 0.000000 0.000000 0.000000 0.000000 0.000000 0.000000 0.000000 0.000000 0.000000 0.000000 0.000000 0.000000 0.000000 0.000000 0.000000 0.000000 0.000000 0.000000 0.000000 0.000000 0.000000 0.000000 0.000000 0.000000 0.000000 0.000000 0.000000 0.000000 0.000000 0.000000 0.000000 0.000000 0.000000 0.000000 0.000000 0.000000
0.000000 0.000000 0.000000 0.000000 0.000000 0.000000 0.000000 0.000000 0.000000 0.000000 0.000000 16.716716 16.716716 16.716716 16.716716 16.716716 16.716716 16.716716 0.000000 0.000000 0.000000 0.000000 0.000000 22.753445 22.753445 22.753445 22.753445 22.753445 22.753445 22.753445 22.753445 22.753445 22.753445 22.753445 22.494173 22.494173 22.494173 22.494173 22.494173 22.494173 22.494173 22.494173 22.494173 22.494173 0.000000 0.000000 0.000000 0.000000 0.000000 0.000000 0.000000 0.000000 0.000000 0.000000 0.000000 0.000000 0.000000 0.000000 0.000000 0.000000 0.000000 0.000000 0.000000 0.000000 0.000000 0.000000 0.000000 0.000000 0.000000 0.000000 0.000000 0.000000 0.000000 0.000000 0.000000 0.000000 0.000000 0.000000 14.609222 14.609222 14.609222 14.609222 14.609222 14.609222 14.609222 15.951278 15.951278 15.951278 15.951278 15.951278 15.951278 15.951278 15.654339 15.654339 15.654339 15.654339 15.654339 15.654339 15.654339 0.000000 0.000000 0.000000 0.000000
0.000000 0.000000 0.000000 0.000000 0.000000 0.000000 0.000000 0.000000 0.000000 0.000000 0.000000 16.716716 16.716716 16.716716 16.716716 16.716716 16.716716 16.716716 0.000000 0.000000 0.000000 0.000000 0.000000 22.753445 22.753445 22.753445 22.753445 22.753445 22.753445 22.753445 22.753445 22.753445 22.753445 22.753445 22.494173 22.494173 22.494173 22.494173 22.494173 22.494173 22.494173 22.494173 22.494173 22.494173 0.000000 0.000000 0.000000 0.000000 0.000000 0.000000 0.000000 0.000000 0.000000 0.000000 0.000000 0.000000 0.000000 0.000000 0.000000 0.000000 0.000000 0.000000 0.000000 0.000000 0.000000 0.000000 0.000000 0.000000 0.000000 0.000000 0.000000 0.000000 0.000000 0.000000 0.000000 0.000000 0.000000 0.000000 14.609222 14.609222 14.609222 14.609222 14.609222 14.609222 14.609222 15.951278 15.951278 15.951278 15.951278 15.951278 15.951278 15.951278 15.654339 15.654339 15.654339 15.654339 15.654339 15.654339 15.654339 0.000000 0.000000 0.000000 0.000000
0.000000 0.000000 0.000000 0.000000 0.000000 0.000000 0.000000 0.000000 0.000000 0.000000 0.000000 16.716716 16.716716 16.716716 16.716716 16.716716 16.716716 16.716716 0.000000 0.000000 0.000000 0.000000 0.000000 22.753445 22.753445 22.753445 22.753445 22.753445 22.753445 22.753445 22.753445 22.753445 22.753445 22.753445 22.494173 22.494173 22.494173 22.494173 22.494173 22.494173 22.494173 22.494173 22.494173 22.494173 0.000000 0.000000 0.000000 0.000000 0.000000 0.000000 0.000000 0.000000 0.000000 0.000000 0.000000 0.000000 0.000000 0.000000 0.000000 0.000000 0.000000 0.000000 0.000000 0.000000 0.000000 0.000000 0.000000 0.000000 0.000000 0.000000 0.000000 0.000000 0.000000 0.000000 0.000000 0.000000 0.000000 0.000000 14.609222 14.609222 14.609222 14.609222 14.609222 14.609222 14.609222 15.951278 15.951278 15.951278 15.951278 15.951278 15.951278 15.951278 15.654339 15.654339 15.654339 15.654339 15.654339 15.654339 15.654339 0.000000 0.000000 0.000000 0.000000
0.000000 0.000000 0.000000 0.000000 0.000000 0.000000 0.000000 0.000000 0.000000 0.000000 0.000000 16.716716 16.716716 16.716716 16.716716 16.716716 16.716716 16.716716 0.000000 0.000000 0.000000 0.000000 0.000000 22.753445 22.753445 22.753445 22.753445 22.753445 22.753445 22.753445 22.753445 22.753445 22.753445 22.753445 22.494173 22.494173 22.494173 22.494173 22.494173 22.494173 22.494173 22.494173 22.494173 22.494173 0.000000 0.000000 0.000000 0.000000 0.000000 0.000000 0.000000 0.000000 0.000000 0.000000 0.000000 0.000000 0.000000 0.000000 0.000000 0.000000 0.000000 0.000000 0.000000 0.000000 0.000000 0.000000 0.000000 0.000000 0.000000 0.000000 0.000000 0.000000 0.000000 0.000000 0.000000 0.000000 0.000000 0.000000 14.609222 14.609222 14.609222 14.609222 14.609222 14.609222 14.609222 15.951278 15.951278 15.951278 15.951278 15.951278 15.951278 15.951278 15.654339 15.654339 15.654339 15.654339 15.654339 15.654339 15.654339 0.000000 0.000000 0.000000 0.000000
0.000000 0.000000 0.000000 0.000000 0.000000 0.000000 0.000000 0.000000 0.000000 0.000000 0.000000 16.716716 16.716716 16.716716 16.716716 16.716716 16.716716 16.716716 0.000000 0.000000 0.000000 0.000000 0.000000 22.753445 22.753445 22.753445 22.753445 22.753445 22.753445 22.753445 22.753445 22.753445 22.753445 22.753445 22.494173 22.494173 22.494173 22.494173 22.494173 22.494173 22.494173 22.494173 22.494173 22.494173 0.000000 0.000000 0.000000 0.000000 0.000000 0.000000 0.000000 0.000000 0.000000 0.000000 0.000000 0.000000 0.000000 0.000000 0.000000 0.000000 0.000000 0.000000 0.000000 0.000000 0.000000 0.000000 0.000000 0.000000 0.000000 0.000000 0.000000 0.000000 0.000000 0.000000 0.000000 0.000000 0.000000 0.000000 14.609222 14.609222 14.609222 14.609222 14.609222 14.609222 14.609222 15.951278 15.951278 15.951278 15.951278 15.951278 15.951278 15.951278 15.654339 15.654339 15.654339 15.654339 15.654339 15.654339 15.654339 0.000000 0.000000 0.000000 0.000000
0.000000 0.000000 0.000000 0.000000 0.000000 0.000000 0.000000 0.000000 0.000000 0.000000 0.000000 16.716716 16.716716 16.716716 16.716716 16.716716 16.716716 16.716716 0.000000 0.000000 0.000000 0.000000 0.000000 22.753445 22.753445 22.753445 22.753445 22.753445 22.753445 22.753445 22.753445 22.753445 22.753445 22.753445 22.494173 22.494173 22.494173 22.494173 22.494173 22.494173 22.494173 22.494173 22.494173 22.494173 0.000000 0.000000 0.000000 0.000000 0.000000 0.000000 0.000000 0.000000 0.000000 0.000000 0.000000 0.000000 0.000000 0.000000 0.000000 0.000000 0.000000 0.000000 0.000000 0.000000 0.000000 0.000000 0.000000 0.000000 0.000000 0.000000 0.000000 0.000000 0.000000 0.000000 0.000000 0.000000 0.000000 0.000000 14.609222 14.609222 14.609222 14.609222 14.609222 14.609222 14.609222 15.951278 15.951278 15.951278 15.951278 15.951278 15.951278 15.951278 15.654339 15.654339 15.654339 15.654339 15.654339 15.654339 15.654339 0.000000 0.000000 0.000000 0.000000
0.000000 0.000000 0.000000 0.000000 0.000000 0.000000 0.000000 0.000000 0.000000 0.000000 0.000000 16.716716 16.716716 16.716716 16.716716 16.716716 16.716716 16.716716 0.000000 0.000000 0.000000 0.000000 0.000000 22.753445 22.753445 22.753445 22.753445 22.753445 22.753445 22.753445 22.753445 22.753445 22.753445 22.753445 22.494173 22.494173 22.494173 22.494173 22.494173 22.494173 22.494173 22.494173 22.494173 22.494173 0.000000 0.000000 0.000000 0.000000 0.000000 0.000000 0.000000 0.000000 0.000000 0.000000 0.000000 0.000000 0.000000 0.000000 0.000000 0.000000 0.000000 0.000000 0.000000 0.000000 0.000000 0.000000 0.000000 0.000000 0.000000 0.000000 0.000000 0.000000 0.000000 0.000000 0.000000 0.000000 0.000000 0.000000 14.609222 14.609222 14.609222 14.609222 14.609222 14.609222 14.609222 15.951278 15.951278 15.951278 15.951278 15.951278 15.951278 15.951278 15.654339 15.654339 15.654339 15.654339 15.654339 15.654339 15.654339 0.000000 0.000000 0.000000 0.000000
0.000000 0.000000 0.000000 0.000000 0.000000 0.000000 0.000000 0.000000 0.000000 0.000000 0.000000 16.716716 16.716716 16.716716 16.716716 16.716716 16.716716 16.716716 0.000000 0.000000 0.000000 0.000000 0.000000 22.753445 22.753445 22.753445 22.753445 22.753445 22.753445 22.753445 22.753445 22.753445 22.753445 22.753445 22.494173 22.494173 22.494173 22.494173 22.494173 22.494173 22.494173 22.494173 22.494173 22.494173 0.000000 0.000000 0.000000 0.000000 0.000000 0.000000 0.000000 0.000000 0.000000 0.000000 0.000000 0.000000 0.000000 0.000000 0.000000 0.000000 0.000000 0.000000 0.000000 0.000000 0.000000 0.000000 0.000000 0.000000 0.000000 0.000000 0.000000 0.000000 0.000000 0.000000 0.000000 0.000000 0.000000 0.000000 14.609222 14.609222 14.609222 14.609222 14.609222 14.609222 14.609222 15.951278 15.951278 15.951278 15.951278 15.951278 15.951278 15.951278 15.654339 15.654339 15.654339 15.654339 15.654339 15.654339 15.654339 0.000000 0.000000 0.000000 0.000000
0.000000 0.000000 0.000000 0.000000 0.000000 0.000000 0.000000 0.000000 0.000000 0.000000 0.000000 16.716716 16.716716 16.716716 16.716716 16.716716 16.716716 16.716716 0.000000 0.000000 0.000000 0.000000 0.000000 22.753445 22.753445 22.753445 22.753445 22.753445 22.753445 22.753445 22.753445 22.753445 22.753445 22.753445 22.494173 22.494173 22.494173 22.494173 22.494173 22.494173 22.494173 22.494173 22.494173 22.494173 0.000000 0.000000 0.000000 0.000000 0.000000 0.000000 0.000000 0.000000 0.000000 0.000000 0.000000 0.000000 0.000000 0.000000 0.000000 0.000000 0.000000 0.000000 0.000000 0.000000 0.000000 0.000000 0.000000 0.000000 0.000000 0.000000 0.000000 0.000000 0.000000 0.000000 0.000000 0.000000 0.000000 0.000000 14.609222 14.609222 14.609222 14.609222 14.609222 14.609222 14.609222 15.951278 15.951278 15.951278 15.951278 15.951278 15.951278 15.951278 15.654339 15.654339 15.654339 15.654339 15.654339 15.654339 15.654339 0.000000 0.000000 0.000000 0.000000
0.000000 0.000000 0.000000 0.000000 0.000000 0.000000 0.000000 0.000000 0.000000 0.000000 0.000000 0.000000 0.000000 0.000000 0.000000 0.000000 0.000000 0.000000 0.000000 0.000000 0.000000 0.000000 0.000000 0.000000 0.000000 0.000000 0.000000 0.000000 0.000000 0.000000 0.000000 0.000000 0.000000 0.000000 0.000000 0.000000 0.000000 0.000000 0.000000 0.000000 0.000000 0.000000 0.000000 0.000000 0.000000 0.000000 0.000000 0.000000 0.000000 0.000000 0.000000 0.000000 0.000000 0.000000 0.000000 0.000000 0.000000 0.000000 0.000000 0.000000 0.000000 0.000000 0.000000 0.000000 0.000000 0.000000 0.000000 0.000000 0.000000 0.000000 0.000000 0.000000 0.000000 0.000000 0.000000 0.000000 0.000000 0.000000 0.000000 0.000000 0.000000 0.000000 0.000000 0.000000 0.000000 0.000000 0.000000 0.000000 0.000000 0.000000 0.000000 0.000000 0.000000 0.000000 0.000000 0.000000 0.000000 0.000000 0.000000 0.000000 0.000000 0.000000 0.000000
0.000000 0.000000 0.000000 0.000000 0.000000 0.000000 0.000000 0.000000 0.000000 0.000000 0.000000 0.000000 0.000000 0.000000 0.000000 0.000000 0.000000 0.000000 0.000000 0.000000 0.000000 0.000000 0.000000 0.000000 0.000000 0.000000 0.000000 0.000000 0.000000 0.000000 0.000000 0.000000 0.000000 0.000000 0.000000 0.000000 0.000000 0.000000 0.000000 0.000000 0.000000 0.000000 0.000000 0.000000 0.000000 0.000000 0.000000 0.000000 0.000000 0.000000 0.000000 0.000000 0.000000 0.000000 0.000000 0.000000 0.000000 0.000000 0.000000 0.000000 0.000000 0.000000 0.000000 0.000000 0.000000 0.000000 0.000000 0.000000 0.000000 0.000000 0.000000 0.000000 0.000000 0.000000 0.000000 0.000000 0.000000 0.000000 0.000000 0.000000 0.000000 0.000000 0.000000 0.000000 0.000000 0.000000 0.000000 0.000000 0.000000 0.000000 0.000000 0.000000 0.000000 0.000000 0.000000 0.000000 0.000000 0.000000 0.000000 0.000000 0.000000 0.000000 0.000000
0.000000 0.000000 0.000000 0.000000 0.000000 0.000000 0.000000 0.000000 0.000000 0.000000 0.000000 0.000000 0.000000 0.000000 0.000000 0.000000 0.000000 0.000000 0.000000 0.000000 0.000000 0.000000 0.000000 0.000000 0.000000 0.000000 0.000000 0.000000 0.000000 0.000000 0.000000 0.000000 0.000000 0.000000 0.000000 0.000000 0.000000 0.000000 0.000000 0.000000 0.000000 0.000000 0.000000 0.000000 0.000000 0.000000 0.000000 0.000000 0.000000 0.000000 0.000000 0.000000 0.000000 0.000000 0.000000 0.000000 0.000000 0.000000 0.000000 0.000000 0.000000 0.000000 0.000000 0.000000 0.000000 0.000000 0.000000 0.000000 0.000000 0.000000 0.000000 0.000000 0.000000 0.000000 0.000000 0.000000 0.000000 0.000000 0.000000 0.000000 0.000000 0.000000 0.000000 0.000000 0.000000 0.000000 0.000000 0.000000 0.000000 0.000000 0.000000 0.000000 0.000000 0.000000 0.000000 0.000000 0.000000 0.000000 0.000000 0.000000 0.000000 0.000000 0.000000
0.000000 0.000000 0.000000 0.000000 0.000000 0.000000 0.000000 0.000000 0.000000 0.000000 0.000000 0.000000 0.000000 0.000000 0.000000 0.000000 0.000000 0.000000 0.000000 0.000000 0.000000 0.000000 0.000000 0.000000 0.000000 0.000000 0.000000 0.000000 0.000000 0.000000 0.000000 0.000000 0.000000 0.000000 0.000000 0.000000 0.000000 0.000000 0.000000 0.000000 0.000000 0.000000 0.000000 0.000000 0.000000 0.000000 0.000000 0.000000 0.000000 0.000000 0.000000 0.000000 0.000000 0.000000 0.000000 0.000000 0.000000 0.000000 0.000000 0.000000 0.000000 0.000000 0.000000 0.000000 0.000000 0.000000 0.000000 0.000000 0.000000 0.000000 0.000000 0.000000 0.000000 0.000000 0.000000 0.000000 0.000000 0.000000 0.000000 0.000000 0.000000 0.000000 0.000000 0.000000 0.000000 0.000000 0.000000 0.000000 0.000000 0.000000 0.000000 0.000000 0.000000 0.000000 0.000000 0.000000 0.000000 0.000000 0.000000 0.000000 0.000000 0.000000 0.000000
0.000000 0.000000 0.000000 0.000000 0.000000 0.000000 0.000000 0.000000 0.000000 0.000000 0.000000 0.000000 0.000000 0.000000 0.000000 0.000000 0.000000 0.000000 0.000000 0.000000 0.000000 0.000000 0.000000 0.000000 0.000000 0.000000 0.000000 0.000000 0.000000 0.000000 0.000000 0.000000 0.000000 0.000000 0.000000 0.000000 0.000000 0.000000 0.000000 0.000000 0.000000 0.000000 0.000000 0.000000 0.000000 0.000000 0.000000 0.000000 0.000000 0.000000 0.000000 0.000000 0.000000 0.000000 0.000000 0.000000 0.000000 0.000000 0.000000 0.000000 0.000000 0.000000 0.000000 0.000000 0.000000 0.000000 0.000000 0.000000 0.000000 0.000000 0.000000 0.000000 0.000000 0.000000 0.000000 0.000000 0.000000 0.000000 0.000000 0.000000 0.000000 0.000000 0.000000 0.000000 0.000000 0.000000 0.000000 0.000000 0.000000 0.000000 0.000000 0.000000 0.000000 0.000000 0.000000 0.000000 0.000000 0.000000 0.000000 0.000000 0.000000 0.000000 0.000000
0.000000 0.000000 0.000000 0.000000 0.000000 0.000000 0.000000 0.000000 0.000000 0.000000 0.000000 0.000000 0.000000 0.000000 0.000000 0.000000 0.000000 0.000000 0.000000 0.000000 0.000000 0.000000 0.000000 0.000000 0.000000 0.000000 0.000000 0.000000 0.000000 0.000000 0.000000 0.000000 0.000000 0.000000 0.000000 0.000000 0.000000 0.000000 0.000000 0.000000 0.000000 0.000000 0.000000 0.000000 0.000000 0.000000 0.000000 0.000000 0.000000 0.000000 0.000000 0.000000 0.000000 0.000000 0.000000 0.000000 0.000000 0.000000 0.000000 0.000000 0.000000 0.000000 0.000000 0.000000 0.000000 0.000000 0.000000 0.000000 0.000000 0.000000 0.000000 0.000000 0.000000 0.000000 0.000000 0.000000 0.000000 0.000000 0.000000 0.000000 0.000000 0.000000 0.000000 0.000000 0.000000 0.000000 0.000000 0.000000 0.000000 0.000000 0.000000 0.000000 0.000000 0.000000 0.000000 0.000000 0.000000 0.000000 0.000000 0.000000 0.000000 0.000000 0.000000
0.000000 0.000000 0.000000 0.000000 0.000000 0.000000 0.000000 0.000000 0.000000 0.000000 0.000000 0.000000 0.000000 0.000000 0.000000 0.000000 0.000000 0.000000 0.000000 0.000000 0.000000 0.000000 0.000000 0.000000 0.000000 0.000000 0.000000 0.000000 0.000000 0.000000 0.000000 0.000000 0.000000 0.000000 0.000000 0.000000 0.000000 0.000000 0.000000 0.000000 0.000000 0.000000 0.000000 0.000000 0.000000 0.000000 0.000000 0.000000 0.000000 0.000000 0.000000 0.000000 0.000000 0.000000 0.000000 0.000000 0.000000 0.000000 0.000000 0.000000 0.000000 0.000000 0.000000 0.000000 0.000000 0.000000 0.000000 0.000000 0.000000 0.000000 0.000000 0.000000 0.000000 0.000000 0.000000 0.000000 0.000000 0.000000 0.000000 0.000000 0.000000 0.000000 0.000000 0.000000 0.000000 0.000000 0.000000 0.000000 0.000000 0.000000 0.000000 0.000000 0.000000 0.000000 0.000000 0.000000 0.000000 0.000000 0.000000 0.000000 0.000000 0.000000 0.000000
0.000000 0.000000 0.000000 0.000000 0.000000 0.000000 17.945670 17.945670 17.945670 17.945670 17.945670 17.945670 17.945670 17.945670 17.945670 17.945670 0.000000 0.000000 0.000000 0.000000 0.000000 0.000000 0.000000 0.000000 0.000000 4.927360 4.927360 4.927360 0.000000 0.000000 0.000000 0.000000 0.000000 0.000000 0.000000 0.000000 0.000000 0.000000 0.000000 0.000000 5.198514 5.198514 0.000000 0.000000 0.000000 0.000000 0.000000 0.000000 0.000000 0.000000 0.000000 0.000000 0.000000 0.000000 0.000000 0.000000 0.000000 0.000000 0.000000 0.000000 0.000000 0.000000 0.000000 0.000000 23.613316 23.613316 23.613316 23.613316 23.613316 23.613316 23.613316 0.000000 0.000000 0.000000 0.000000 0.000000 0.000000 0.000000 0.000000 0.000000 13.647882 13.647882 13.647882 13.647882 13.647882 13.647882 0.000000 0.000000 0.000000 0.000000 16.504190 16.504190 16.504190 16.504190 16.504190 16.504190 16.504190 0.000000 0.000000 0.000000 0.000000 0.000000 0.000000
0.000000 0.000000 0.000000 0.000000 0.000000 0.000000 17.945670 17.945670 17.945670 17.945670 17.945670 17.945670 17.945670 17.945670 17.945670 17.945670 0.000000 0.000000 0.000000 0.000000 0.000000 0.000000 0.000000 0.000000 0.000000 4.927360 4.927360 4.927360 0.000000 0.000000 0.000000 0.000000 0.000000 0.000000 0.000000 0.000000 0.000000 0.000000 0.000000 0.000000 5.198514 5.198514 0.000000 0.000000 0.000000 0.000000 0.000000 0.000000 0.000000 0.000000 0.000000 0.000000 0.000000 0.000000 0.000000 0.000000 0.000000 0.000000 0.000000 0.000000 0.000000 0.000000 0.000000 0.000000 23.613316 23.613316 23.613316 23.613316 23.613316 23.613316 23.613316 0.000000 0.000000 0.000000 0.000000 0.000000 0.000000 0.000000 0.000000 0.000000 13.647882 13.647882 13.647882 13.647882 13.647882 13.647882 0.000000 0.000000 0.000000 0.000000 16.504190 16.504190 16.504190 16.504190 16.504190 16.504190 16.504190 0.000000 0.000000 0.000000 0.000000 0.000000 0.000000
0.000000 0.000000 0.000000 0.000000 0.000000 0.000000 17.945670 17.945670 17.945670 17.945670 17.945670 17.945670 17.945670 17.945670 17.945670 17.945670 0.000000 0.000000 0.000000 0.000000 0.000000 0.000000 0.000000 0.000000 0.000000 4.927360 4.927360 4.927360 0.000000 0.000000 0.000000 0.000000 0.000000 0.000000 0.000000 0.000000 0.000000 0.000000 0.000000 0.000000 5.198514 5.198514 0.000000 0.000000 0.000000 0.000000 0.000000 0.000000 0.000000 0.000000 0.000000 0.000000 0.000000 0.000000 0.000000 0.000000 0.000000 0.000000 0.000000 0.000000 0.000000 0.000000 0.000000 0.000000 23.613316 23.613316 23.613316 23.613316 23.613316 23.613316 23.613316 0.000000 0.000000 0.000000 0.000000 0.000000 0.000000 0.000000 0.000000 0.000000 13.647882 13.647882 13.647882 13.647882 13.647882 13.647882 0.000000 0.000000 0.000000 0.000000 16.504190 16.504190 16.504190 16.504190 16.504190 16.504190 16.504190 0.000000 0.000000 0.000000 0.000000 0.000000 0.000000
0.000000 0.000000 0.000000 0.000000 0.000000 0.000000 17.945670 17.945670 17.945670 17.945670 17.945670 17.945670 17.945670 17.945670 17.945670 17.945670 0.000000 0.000000 0.000000 0.000000 0.000000 0.000000 0.000000 0.000000 0.000000 4.927360 4.927360 4.927360 0.000000 0.000000 0.000000 0.000000 0.000000 0.000000 0.000000 0.000000 0.000000 0.000000 0.000000 0.000000 5.198514 5.198514 0.000000 0.000000 0.000000 0.000000 0.000000 0.000000 0.000000 0.000000 0.000000 0.000000 0.000000 0.000000 0.000000 0.000000 0.000000 0.000000 0.000000 0.000000 0.000000 0.000000 0.000000 0.000000 23.613316 23.613316 23.613316 23.613316 23.613316 23.613316 23.613316 0.000000 0.000000 0.000000 0.000000 0.000000 0.000000 0.000000 0.000000 0.000000 13.647882 13.647882 13.647882 13.647882 13.647882 13.647882 0.000000 0.000000 0.000000 0.000000 16.504190 16.504190 16.504190 16.504190 16.504190 16.504190 16.504190 0.000000 0.000000 0.000000 0.000000 0.000000 0.000000
0.000000 0.000000 0.000000 0.000000 0.000000 0.000000 17.945670 17.945670 17.945670 17.945670 17.945670 17.945670 17.945670 17.945670 17.945670 17.945670 0.000000 0.000000 0.000000 0.000000 0.000000 0.000000 0.000000 0.000000 0.000000 4.927360 4.927360 4.927360 0.000000 0.000000 0.000000 0.000000 0.000000 0.000000 0.000000 0.000000 0.000000 0.000000 0.000000 0.000000 5.198514 5.198514 0.000000 0.000000 0.000000 0.000000 0.000000 0.000000 0.000000 0.000000 0.000000 0.000000 0.000000 0.000000 0.000000 0.000000 0.000000 0.000000 0.000000 0.000000 0.000000 0.000000 0.000000 0.000000 23.613316 23.613316 23.613316 23.613316 23.613316 23.613316 23.613316 0.000000 0.000000 0.000000 0.000000 0.000000 0.000000 0.000000 0.000000 0.000000 13.647882 13.647882 13.647882 13.647882 13.647882 13.647882 0.000000 0.000000 0.000000 0.000000 16.504190 16.504190 16.504190 16.504190 16.504190 16.504190 16.504190 0.000000 0.000000 0.000000 0.000000 0.000000 0.000000
0.000000 0.000000 0.000000 0.000000 0.000000 0.000000 17.945670 17.945670 17.945670 17.945670 17.945670 17.945670 17.945670 17.945670 17.945670 17.945670 0.000000 0.000000 0.000000 0.000000 0.000000 0.000000 0.000000 0.000000 0.000000 4.927360 4.927360 4.927360 0.000000 0.000000 0.000000 0.000000 0.000000 0.000000 0.000000 0.000000 0.000000 0.000000 0.000000 0.000000 5.198514 5.198514 0.000000 0.000000 0.000000 0.000000 0.000000 0.000000 0.000000 0.000000 0.000000 0.000000 0.000000 0.000000 0.000000 0.000000 0.000000 0.000000 0.000000 0.000000 0.000000 0.000000 0.000000 0.000000 23.613316 23.613316 23.613316 23.613316 23.613316 23.613316 23.613316 0.000000 0.000000 0.000000 0.000000 0.000000 0.000000 0.000000 0.000000 0.000000 13.647882 13.647882 13.647882 13.647882 13.647882 13.647882 0.000000 0.000000 0.000000 0.000000 16.504190 16.504190 16.504190 16.504190 16.504190 16.504190 16.504190 0.000000 0.000000 0.000000 0.000000 0.000000 0.000000
0.000000 0.000000 0.000000 0.000000 0.000000 0.000000 17.945670 17.945670 17.945670 17.945670 17.945670 17.945670 17.945670 17.945670 17.945670 17.945670 0.000000 0.000000 0.000000 0.000000 0.000000 0.000000 0.000000 0.000000 0.000000 4.927360 4.927360 4.927360 0.000000 0.000000 0.000000 0.000000 0.000000 0.000000 0.000000 0.000000 0.000000 0.000000 0.000000 0.000000 5.198514 5.198514 0.000000 0.000000 0.000000 0.000000 0.000000 0.000000 0.000000 0.000000 0.000000 0.000000 0.000000 0.000000 0.000000 0.000000 0.000000 0.000000 0.000000 0.000000 0.000000 0.000000 0.000000 0.000000 23.613316 23.613316 23.613316 23.613316 23.613316 23.613316 23.613316 0.000000 0.000000 0.000000 0.000000 0.000000 0.000000 0.000000 0.000000 0.000000 13.647882 13.647882 13.647882 13.647882 13.647882 13.647882 0.000000 0.000000 0.000000 0.000000 16.504190 16.504190 16.504190 16.504190 16.504190 16.504190 16.504190 0.000000 0.000000 0.000000 0.000000 0.000000 0.000000
0.000000 0.000000 0.000000 0.000000 0.000000 0.000000 0.000000 0.000000 0.000000 0.000000 0.000000 0.000000 0.000000 0.000000 0.000000 0.000000 0.000000 0.000000 0.000000 0.000000 0.000000 0.000000 0.000000 0.000000 0.000000 0.000000 0.000000 0.000000 0.000000 0.000000 0.000000 0.000000 0.000000 0.000000 0.000000 0.000000 0.000000 0.000000 0.000000 0.000000 0.000000 0.000000 0.000000 0.000000 0.000000 0.000000 0.000000 0.000000 0.000000 0.000000 0.000000 0.000000 0.000000 0.000000 0.000000 0.000000 0.000000 0.000000 0.000000 0.000000 0.000000 0.000000 0.000000 0.000000 23.613316 23.613316 23.613316 23.613316 23.613316 23.613316 23.613316 0.000000 0.000000 0.000000 0.000000 0.000000 0.000000 0.000000 0.000000 0.000000 13.647882 13.647882 13.647882 13.647882 13.647882 13.647882 0.000000 0.000000 0.000000 0.000000 16.504190 16.504190 16.504190 16.504190 16.504190 16.504190 16.504190 0.000000 0.000000 0.000000 0.000000 0.000000 0.000000
0.000000 0.000000 0.000000 0.000000 0.000000 0.000000 0.000000 0.000000 0.000000 0.000000 0.000000 0.000000 0.000000 0.000000 0.000000 0.000000 0.000000 0.000000 0.000000 0.000000 0.000000 0.000000 0.000000 0.000000 0.000000 0.000000 0.000000 0.000000 0.000000 0.000000 0.000000 0.000000 0.000000 0.000000 0.000000 0.000000 0.000000 0.000000 0.000000 0.000000 0.000000 0.000000 0.000000 0.000000 0.000000 0.000000 0.000000 0.000000 0.000000 0.000000 0.000000 0.000000 0.000000 0.000000 0.000000 0.000000 0.000000 0.000000 0.000000 0.000000 0.000000 0.000000 0.000000 0.000000 23.613316 23.613316 23.613316 23.613316 23.613316 23.613316 23.613316 0.000000 0.000000 0.000000 0.000000 0.000000 0.000000 0.000000 0.000000 0.000000 13.647882 13.647882 13.647882 13.647882 13.647882 13.647882 0.000000 0.000000 0.000000 0.000000 16.504190 16.504190 16.504190 16.504190 16.504190 16.504190 16.504190 0.000000 0.000000 0.000000 0.000000 0.000000 0.000000
0.000000 0.000000 0.000000 0.000000 0.000000 0.000000 0.000000 0.000000 0.000000 0.000000 0.000000 0.000000 0.000000 0.000000 0.000000 0.000000 0.000000 0.000000 0.000000 0.000000 0.000000 0.000000 0.000000 0.000000 0.000000 0.000000 0.000000 0.000000 0.000000 0.000000 11.804111 11.804111 11.804111 11.804111 11.804111 11.804111 11.804111 11.804111 0.000000 0.000000 0.000000 0.000000 0.000000 0.000000 0.000000 0.000000 0.000000 0.000000 0.000000 0.000000 0.000000 0.000000 0.000000 0.000000 0.000000 0.000000 0.000000 0.000000 0.000000 0.000000 0.000000 0.000000 0.000000 0.000000 23.613316 23.613316 23.613316 23.613316 23.613316 23.613316 23.613316 0.000000 0.000000 0.000000 0.000000 0.000000 0.000000 0.000000 0.000000 0.000000 0.000000 0.000000 0.000000 0.000000 0.000000 0.000000 0.000000 0.000000 0.000000 0.000000 0.000000 0.000000 0.000000 0.000000 0.000000 0.000000 0.000000 0.000000 0.000000 0.000000 0.000000 0.000000 0.000000
0.000000 0.000000 0.000000 0.000000 0.000000 0.000000 0.000000 0.000000 0.000000 0.000000 0.000000 0.000000 0.000000 0.000000 0.000000 0.000000 0.000000 0.000000 0.000000 0.000000 0.000000 0.000000 0.000000 0.000000 0.000000 0.000000 0.000000 0.000000 0.000000 0.000000 11.804111 11.804111 11.804111 11.804111 11.804111 11.804111 11.804111 11.804111 0.000000 0.000000 0.000000 0.000000 0.000000 0.000000 0.000000 0.000000 0.000000 0.000000 0.000000 0.000000 0.000000 0.000000 0.000000 0.000000 0.000000 0.000000 0.000000 0.000000 0.000000 0.000000 0.000000 0.000000 0.000000 0.000000 23.613316 23.613316 23.613316 23.613316 23.613316 23.613316 23.613316 0.000000 0.000000 0.000000 0.000000 0.000000 0.000000 0.000000 0.000000 0.000000 0.000000 0.000000 0.000000 0.000000 0.000000 0.000000 0.000000 0.000000 0.000000 0.000000 0.000000 0.000000 0.000000 0.000000 0.000000 0.000000 0.000000 0.000000 0.000000 0.000000 0.000000 0.000000 0.000000
0.000000 0.000000 0.000000 0.000000 0.000000 0.000000 0.000000 0.000000 0.000000 0.000000 0.000000 0.000000 0.000000 0.000000 0.000000 0.000000 0.000000 0.000000 0.000000 0.000000 0.000000 0.000000 0.000000 0.000000 0.000000 0.000000 0.000000 0.000000 0.000000 0.000000 11.804111 11.804111 11.804111 11.804111 11.804111 11.804111 11.804111 11.804111 0.000000 0.000000 6.076548 6.076548 0.000000 0.000000 0.000000 0.000000 0.000000 0.000000 0.000000 0.000000 0.000000 0.000000 0.000000 0.000000 0.000000 0.000000 0.000000 0.000000 0.000000 0.000000 0.000000 0.000000 0.000000 0.000000 23.613316 23.613316 23.613316 23.613316 23.613316 23.613316 23.613316 0.000000 0.000000 0.000000 0.000000 0.000000 0.000000 0.000000 0.000000 0.000000 0.000000 0.000000 0.000000 0.000000 0.000000 0.000000 0.000000 0.000000 0.000000 0.000000 0.000000 0.000000 0.000000 0.000000 0.000000 0.000000 0.000000 0.000000 0.000000 0.000000 0.000000 0.000000 0.000000
0.000000 0.000000 0.000000 0.000000 0.000000 0.000000 0.000000 0.000000 0.000000 0.000000 0.000000 0.000000 0.000000 0.000000 0.000000 0.000000 0.000000 0.000000 0.000000 0.000000 0.000000 0.000000 0.000000 0.000000 0.000000 0.000000 0.000000 0.000000 0.000000 0.000000 11.804111 11.804111 11.804111 11.804111 11.804111 11.804111 11.804111 11.804111 0.000000 0.000000 6.076548 6.076548 0.000000 0.000000 0.000000 0.000000 0.000000 0.000000 0.000000 0.000000 0.000000 0.000000 0.000000 0.000000 0.000000 0.000000 0.000000 0.000000 0.000000 0.000000 0.000000 0.000000 0.000000 0.000000 23.613316 23.613316 23.613316 23.613316 23.613316 23.613316 23.613316 0.000000 0.000000 0.000000 0.000000 0.000000 0.000000 0.000000 0.000000 0.000000 0.000000 0.000000 0.000000 0.000000 0.000000 0.000000 0.000000 0.000000 0.000000 0.000000 0.000000 0.000000 0.000000 0.000000 0.000000 0.000000 0.000000 0.000000 0.000000 0.000000 0.000000 0.000000 0.000000
0.000000 0.000000 0.000000 0.000000 0.000000 0.000000 0.000000 0.000000 0.000000 0.000000 0.000000 0.000000 0.000000 0.000000 0.000000 0.000000 0.000000 0.000000 0.000000 0.000000 0.000000 0.000000 0.000000 0.000000 0.000000 0.000000 0.000000 0.000000 0.000000 0.000000 11.804111 11.804111 11.804111 11.804111 11.804111 11.804111 11.804111 11.804111 0.000000 0.000000 6.076548 6.076548 0.000000 0.000000 0.000000 0.000000 0.000000 0.000000 0.000000 0.000000 0.000000 0.000000 0.000000 0.000000 0.000000 0.000000 0.000000 0.000000 0.000000 0.000000 0.000000 0.000000 0.000000 0.000000 23.613316 23.613316 23.613316 23.613316 23.613316 23.613316 23.613316 0.000000 0.000000 0.000000 0.000000 0.000000 0.000000 0.000000 0.000000 0.000000 23.062057 23.062057 23.062057 23.062057 23.062057 23.062057 0.000000 0.000000 0.000000 0.000000 27.888619 27.888619 27.888619 27.888619 27.888619 27.888619 27.888619 0.000000 0.000000 0.000000 0.000000 0.000000 0.000000
0.000000 0.000000 0.000000 0.000000 0.000000 0.000000 0.000000 0.000000 0.000000 0.000000 0.000000 0.000000 0.000000 0.000000 0.000000 0.000000 0.000000 0.000000 0.000000 0.000000 0.000000 0.000000 0.000000 0.000000 0.000000 0.000000 0.000000 0.000000 0.000000 0.000000 11.804111 11.804111 11.804111 11.804111 11.804111 11.804111 11.804111 11.804111 0.000000 0.000000 6.076548 6.076548 0.000000 0.000000 0.000000 0.000000 0.000000 0.000000 0.000000 0.000000 0.000000 0.000000 0.000000 0.000000 0.000000 0.000000 0.000000 0.000000 0.000000 0.000000 0.000000 0.000000 0.000000 0.000000 0.000000 0.000000 0.000000 0.000000 0.000000 0.000000 0.000000 0.000000 0.000000 0.000000 0.000000 0.000000 0.000000 0.000000 0.000000 0.000000 23.062057 23.062057 23.062057 23.062057 23.062057 23.062057 0.000000 0.000000 0.000000 0.000000 27.888619 27.888619 27.888619 27.888619 27.888619 27.888619 27.888619 0.000000 0.000000 0.000000 0.000000 0.000000 0.000000
0.000000 0.000000 0.000000 0.000000 0.000000 0.000000 0.000000 0.000000 0.000000 0.000000 0.000000 0.000000 0.000000 0.000000 0.000000 0.000000 0.000000 0.000000 0.000000 0.000000 0.000000 0.000000 0.000000 0.000000 0.000000 0.000000 0.000000 0.000000 0.000000 0.000000 11.804111 11.804111 11.804111 11.804111 11.804111 11.804111 11.804111 11.804111 0.000000 0.000000 6.076548 6.076548 0.000000 0.000000 0.000000 0.000000 0.000000 0.000000 0.000000 0.000000 0.000000 0.000000 0.000000 0.000000 0.000000 0.000000 0.000000 0.000000 0.000000 0.000000 0.000000 0.000000 0.000000 0.000000 0.000000 0.000000 0.000000 0.000000 0.000000 0.000000 0.000000 0.000000 0.000000 0.000000 0.000000 0.000000 0.000000 0.000000 0.000000 0.000000 23.062057 23.062057 23.062057 23.062057 23.062057 23.062057 0.000000 0.000000 0.000000 0.000000 27.888619 27.888619 27.888619 27.888619 27.888619 27.888619 27.888619 0.000000 0.000000 0.000000 0.000000 0.000000 0.000000
0.000000 0.000000 0.000000 0.000000 0.000000 0.000000 0.000000 0.000000 0.000000 0.000000 0.000000 0.000000 0.000000 0.000000 0.000000 0.000000 0.000000 0.000000 0.000000 0.000000 0.000000 0.000000 0.000000 9.827411 9.827411 9.827411 9.827411 9.827411 9.827411 9.827411 12.074023 12.074023 12.074023 12.074023 12.074023 12.074023 12.074023 12.074023 0.000000 0.000000 6.076548 6.076548 0.000000 0.000000 0.000000 0.000000 0.000000 0.000000 0.000000 0.000000 0.000000 0.000000 0.000000 0.000000 0.000000 0.000000 0.000000 0.000000 0.000000 0.000000 0.000000 0.000000 0.000000 0.000000 0.000000 0.000000 0.000000 0.000000 0.000000 0.000000 0.000000 0.000000 0.000000 0.000000 0.000000 0.000000 0.000000 0.000000 0.000000 0.000000 23.062057 23.062057 23.062057 23.062057 23.062057 23.062057 0.000000 0.000000 0.000000 0.000000 27.888619 27.888619 27.888619 27.888619 27.888619 27.888619 27.888619 0.000000 0.000000 0.000000 0.000000 0.000000 0.000000
0.000000 0.000000 0.000000 0.000000 0.000000 0.000000 0.000000 0.000000 0.000000 0.000000 0.000000 0.000000 0.000000 0.000000 0.000000 0.000000 0.000000 0.000000 0.000000 0.000000 0.000000 0.000000 0.000000 9.827411 9.827411 9.827411 9.827411 9.827411 9.827411 9.827411 12.074023 12.074023 12.074023 12.074023 12.074023 12.074023 12.074023 12.074023 0.000000 0.000000 6.076548 6.076548 0.000000 0.000000 0.000000 0.000000 0.000000 0.000000 0.000000 0.000000 0.000000 0.000000 0.000000 0.000000 0.000000 0.000000 0.000000 0.000000 0.000000 0.000000 0.000000 0.000000 0.000000 0.000000 0.000000 0.000000 0.000000 0.000000 0.000000 0.000000 0.000000 0.000000 0.000000 0.000000 0.000000 0.000000 0.000000 0.000000 0.000000 0.000000 23.062057 23.062057 23.062057 23.062057 23.062057 23.062057 0.000000 0.000000 0.000000 0.000000 27.888619 27.888619 27.888619 27.888619 27.888619 27.888619 27.888619 0.000000 0.000000 0.000000 0.000000 0.000000 0.000000
0.000000 0.000000 0.000000 0.000000 0.000000 0.000000 0.000000 0.000000 0.000000 0.000000 0.000000 0.000000 0.000000 0.000000 0.000000 0.000000 0.000000 0.000000 0.000000 0.000000 0.000000 0.000000 0.000000 9.827411 9.827411 9.827411 9.827411 9.827411 9.827411 9.827411 12.074023 12.074023 12.074023 12.074023 12.074023 12.074023 12.074023 12.074023 0.000000 0.000000 6.076548 6.076548 0.000000 0.000000 0.000000 0.000000 0.000000 0.000000 0.000000 0.000000 0.000000 22.725195 22.725195 22.725195 22.725195 22.725195 22.725195 22.725195 22.725195 22.725195 0.000000 0.000000 0.000000 0.000000 0.000000 0.000000 0.000000 0.000000 0.000000 0.000000 0.000000 0.000000 0.000000 0.000000 0.000000 0.000000 0.000000 0.000000 0.000000 0.000000 23.062057 23.062057 23.062057 23.062057 23.062057 23.062057 0.000000 0.000000 0.000000 0.000000 27.888619 27.888619 27.888619 27.888619 27.888619 27.888619 27.888619 0.000000 0.000000 0.000000 0.000000 0.000000 0.000000
0.000000 0.000000 0.000000 0.000000 0.000000 0.000000 0.000000 0.000000 0.000000 0.000000 0.000000 0.000000 0.000000 0.000000 0.000000 0.000000 0.000000 0.000000 0.000000 0.000000 0.000000 0.000000 0.000000 9.827411 9.827411 9.827411 9.827411 9.827411 9.827411 9.827411 12.074023 12.074023 12.074023 12.074023 12.074023 12.074023 12.074023 12.074023 0.000000 0.000000 6.076548 6.076548 0.000000 0.000000 0.000000 0.000000 0.000000 0.000000 0.000000 0.000000 0.000000 22.725195 22.725195 22.725195 22.725195 22.725195 22.725195 22.725195 22.725195 22.725195 0.000000 0.000000 0.000000 0.000000 0.000000 0.000000 0.000000 0.000000 0.000000 0.000000 0.000000 0.000000 0.000000 0.000000 0.000000 0.000000 0.000000 0.000000 0.000000 0.000000 23.062057 23.062057 23.062057 23.062057 23.062057 23.062057 0.000000 0.000000 0.000000 0.000000 27.888619 27.888619 27.888619 27.888619 27.888619 27.888619 27.888619 0.000000 0.000000 0.000000 0.000000 0.000000 0.000000
0.000000 0.000000 0.000000 0.000000 0.000000 0.000000 0.000000 0.000000 0.000000 0.000000 0.000000 0.000000 0.000000 0.000000 0.000000 0.000000 0.000000 0.000000 0.000000 0.000000 0.000000 0.000000 0.000000 9.827411 9.827411 9.827411 9.827411 9.827411 9.827411 9.827411 12.074023 12.074023 12.074023 12.074023 12.074023 12.074023 12.074023 12.074023 0.000000 0.000000 0.000000 0.000000 0.000000 0.000000 0.000000 0.000000 0.000000 0.000000 0.000000 0.000000 0.000000 22.725195 22.725195 22.725195 22.725195 22.725195 22.725195 22.725195 22.725195 22.725195 0.000000 0.000000 0.000000 0.000000 0.000000 0.000000 0.000000 0.000000 0.000000 0.000000 0.000000 0.000000 0.000000 0.000000 0.000000 0.000000 0.000000 0.000000 0.000000 0.000000 23.062057 23.062057 23.062057 23.062057 23.062057 23.062057 0.000000 0.000000 0.000000 0.000000 27.888619 27.888619 27.888619 27.888619 27.888619 27.888619 27.888619 0.000000 0.000000 0.000000 0.000000 0.000000 0.000000
0.000000 0.000000 0.000000 0.000000 0.000000 0.000000 17.330501 17.330501 17.330501 17.330501 17.330501 17.330501 17.330501 17.330501 17.330501 17.330501 0.000000 0.000000 0.000000 0.000000 0.000000 0.000000 0.000000 9.827411 9.827411 9.827411 9.827411 9.827411 9.827411 9.827411 12.074023 12.074023 12.074023 12.074023 12.074023 12.074023 12.074023 12.074023 0.000000 0.000000 0.000000 0.000000 0.000000 0.000000 0.000000 0.000000 0.000000 0.000000 0.000000 0.000000 0.000000 22.725195 22.725195 22.725195 22.725195 22.725195 22.725195 22.725195 22.725195 22.725195 0.000000 0.000000 0.000000 0.000000 0.000000 0.000000 0.000000 0.000000 0.000000 0.000000 0.000000 0.000000 0.000000 0.000000 0.000000 0.000000 0.000000 0.000000 0.000000 0.000000 23.062057 23.062057 23.062057 23.062057 23.062057 23.062057 0.000000 0.000000 0.000000 0.000000 27.888619 27.888619 27.888619 27.888619 27.888619 27.888619 27.888619 0.000000 0.000000 0.000000 0.000000 0.000000 0.000000
0.000000 0.000000 0.000000 0.000000 0.000000 0.000000 17.330501 17.330501 17.330501 17.330501 17.330501 17.330501 17.330501 17.330501 17.330501 17.330501 0.000000 0.000000 0.000000 0.000000 0.000000 0.000000 0.000000 0.000000 0.000000 0.000000 0.000000 0.000000 0.000000 0.000000 0.000000 0.000000 0.000000 0.000000 0.000000 0.000000 0.000000 0.000000 0.000000 0.000000 0.000000 0.000000 0.000000 0.000000 0.000000 0.000000 0.000000 0.000000 0.000000 0.000000 0.000000 22.725195 22.725195 22.725195 22.725195 22.725195 22.725195 22.725195 22.725195 22.725195 0.000000 0.000000 0.000000 0.000000 0.000000 0.000000 0.000000 0.000000 0.000000 0.000000 0.000000 0.000000 0.000000 0.000000 0.000000 0.000000 0.000000 0.000000 0.000000 0.000000 23.062057 23.062057 23.062057 23.062057 23.062057 23.062057 0.000000 0.000000 0.000000 0.000000 27.888619 27.888619 27.888619 27.888619 27.888619 27.888619 27.888619 0.000000 0.000000 0.000000 0.000000 0.000000 0.000000
0.000000 0.000000 0.000000 0.000000 0.000000 0.000000 17.330501 17.330501 17.330501 17.330501 17.330501 17.330501 17.330501 17.330501 17.330501 17.330501 0.000000 0.000000 0.000000 0.000000 0.000000 0.000000 0.000000 0.000000 0.000000 0.000000 0.000000 0.000000 0.000000 0.000000 0.000000 0.000000 0.000000 0.000000 0.000000 0.000000 0.000000 0.000000 0.000000 0.000000 0.000000 0.000000 0.000000 0.000000 0.000000 0.000000 0.000000 0.000000 0.000000 0.000000 0.000000 22.725195 22.725195 22.725195 22.725195 22.725195 22.725195 22.725195 22.725195 22.725195 0.000000 0.000000 0.000000 0.000000 0.000000 0.000000 0.000000 0.000000 0.000000 0.000000 0.000000 0.000000 0.000000 0.000000 0.000000 0.000000 0.000000 0.000000 0.000000 0.000000 23.062057 23.062057 23.062057 23.062057 23.062057 23.062057 0.000000 0.000000 0.000000 0.000000 27.888619 27.888619 27.888619 27.888619 27.888619 27.888619 27.888619 0.000000 0.000000 0.000000 0.000000 0.000000 0.000000
0.000000 0.000000 0.000000 0.000000 0.000000 0.000000 17.330501 17.330501 17.330501 17.330501 17.330501 17.330501 17.330501 17.330501 17.330501 17.330501 0.000000 0.000000 0.000000 0.000000 0.000000 0.000000 0.000000 0.000000 0.000000 0.000000 0.000000 0.000000 0.000000 0.000000 0.000000 0.000000 4.074715 4.074715 4.074715 4.074715 0.000000 0.000000 0.000000 0.000000 0.000000 0.000000 0.000000 0.000000 0.000000 0.000000 0.000000 0.000000 0.000000 0.000000 0.000000 22.725195 22.725195 22.725195 22.725195 22.725195 22.725195 22.725195 22.725195 22.725195 0.000000 0.000000 0.000000 0.000000 0.000000 0.000000 0.000000 0.000000 0.000000 0.000000 0.000000 0.000000 0.000000 0.000000 0.000000 0.000000 0.000000 0.000000 0.000000 0.000000 23.062057 23.062057 23.062057 23.062057 23.062057 23.062057 0.000000 0.000000 0.000000 0.000000 27.888619 27.888619 27.888619 27.888619 27.888619 27.888619 27.888619 0.000000 0.000000 0.000000 0.000000 0.000000 0.000000
0.000000 0.000000 0.000000 0.000000 0.000000 0.000000 17.330501 17.330501 17.330501 17.330501 17.330501 17.330501 17.330501 17.330501 17.330501 17.330501 0.000000 0.000000 0.000000 0.000000 0.000000 0.000000 0.000000 0.000000 0.000000 0.000000 0.000000 0.000000 0.000000 0.000000 0.000000 0.000000 4.074715 4.074715 4.074715 4.074715 0.000000 0.000000 0.000000 0.000000 0.000000 0.000000 0.000000 0.000000 0.000000 0.000000 0.000000 0.000000 0.000000 0.000000 0.000000 22.725195 22.725195 22.725195 22.725195 22.725195 22.725195 22.725195 22.725195 22.725195 0.000000 0.000000 0.000000 0.000000 0.000000 0.000000 0.000000 0.000000 0.000000 0.000000 0.000000 0.000000 0.000000 0.000000 0.000000 0.000000 0.000000 0.000000 0.000000 0.000000 23.062057 23.062057 23.062057 23.062057 23.062057 23.062057 0.000000 0.000000 0.000000 0.000000 27.888619 27.888619 27.888619 27.888619 27.888619 27.888619 27.888619 0.000000 0.000000 0.000000 0.000000 0.000000 0.000000
0.000000 0.000000 0.000000 0.000000 0.000000 0.000000 17.330501 17.330501 17.330501 17.330501 17.330501 17.330501 17.330501 17.330501 17.330501 17.330501 0.000000 0.000000 0.000000 0.000000 0.000000 0.000000 0.000000 0.000000 0.000000 0.000000 0.000000 0.000000 0.000000 0.000000 0.000000 0.000000 4.074715 4.074715 4.074715 4.074715 0.000000 0.000000 0.000000 0.000000 0.000000 0.000000 0.000000 0.000000 0.000000 0.000000 0.000000 0.000000 0.000000 0.000000 0.000000 22.725195 22.725195 22.725195 22.725195 22.725195 22.725195 22.725195 22.725195 22.725195 0.000000 0.000000 0.000000 0.000000 0.000000 0.000000 0.000000 0.000000 0.000000 0.000000 0.000000 0.000000 0.000000 0.000000 0.000000 0.000000 0.000000 0.000000 0.000000 0.000000 23.062057 23.062057 23.062057 23.062057 23.062057 23.062057 0.000000 0.000000 0.000000 0.000000 27.888619 27.888619 27.888619 27.888619 27.888619 27.888619 27.888619 0.000000 0.000000 0.000000 0.000000 0.000000 0.000000
0.000000 0.000000 0.000000 0.000000 0.000000 0.000000 17.330501 17.330501 17.330501 17.330501 17.330501 17.330501 17.330501 17.330501 17.330501 17.330501 0.000000 0.000000 0.000000 0.000000 0.000000 0.000000 0.000000 0.000000 0.000000 0.000000 0.000000 0.000000 0.000000 0.000000 0.000000 0.000000 4.074715 4.074715 4.074715 4.074715 0.000000 0.000000 0.000000 0.000000 0.000000 0.000000 0.000000 0.000000 0.000000 0.000000 0.000000 0.000000 0.000000 0.000000 0.000000 22.725195 22.725195 22.725195 22.725195 22.725195 22.725195 22.725195 22.725195 22.725195 0.000000 0.000000 0.000000 0.000000 0.000000 0.000000 0.000000 0.000000 0.000000 0.000000 0.000000 0.000000 0.000000 0.000000 0.000000 0.000000 0.000000 0.000000 0.000000 0.000000 23.062057 23.062057 23.062057 23.062057 23.062057 23.062057 0.000000 0.000000 0.000000 0.000000 27.888619 27.888619 27.888619 27.888619 27.888619 27.888619 27.888619 0.000000 0.000000 0.000000 0.000000 0.000000 0.000000
0.000000 0.000000 0.000000 0.000000 0.000000 0.000000 0.000000 0.000000 0.000000 0.000000 0.000000 0.000000 0.000000 0.000000 0.000000 0.000000 0.000000 0.000000 0.000000 0.000000 0.000000 0.000000 0.000000 0.000000 0.000000 0.000000 0.000000 0.000000 0.000000 0.000000 0.000000 0.000000 0.000000 0.000000 0.000000 0.000000 0.000000 0.000000 0.000000 0.000000 0.000000 0.000000 0.000000 0.000000 0.000000 0.000000 0.000000 0.000000 0.000000 0.000000 0.000000 0.000000 0.000000 0.000000 0.000000 0.000000 0.000000 0.000000 0.000000 0.000000 0.000000 0.000000 0.000000 0.000000 0.000000 0.000000 0.000000 0.000000 0.000000 0.000000 0.000000 0.000000 0.000000 0.000000 0.000000 0.000000 0.000000 0.000000 0.000000 0.000000 0.000000 0.000000 0.000000 0.000000 0.000000 0.000000 0.000000 0.000000 0.000000 0.000000 0.000000 0.000000 0.000000 0.000000 0.000000 0.000000 0.000000 0.000000 0.000000 0.000000 0.000000 0.000000 0.000000
0.000000 0.000000 0.000000 0.000000 0.000000 0.000000 0.000000 0.000000 0.000000 0.000000 0.000000 0.000000 0.000000 0.000000 0.000000 0.000000 0.000000 0.000000 0.000000 0.000000 0.000000 0.000000 0.000000 0.000000 0.000000 0.000000 0.000000 0.000000 0.000000 0.000000 0.000000 0.000000 0.000000 0.000000 0.000000 0.000000 0.000000 0.000000 0.000000 0.000000 0.000000 0.000000 0.000000 0.000000 0.000000 0.000000 0.000000 0.000000 0.000000 0.000000 0.000000 0.000000 0.000000 0.000000 0.000000 0.000000 0.000000 0.000000 0.000000 0.000000 0.000000 0.000000 0.000000 0.000000 0.000000 0.000000 0.000000 0.000000 0.000000 0.000000 0.000000 0.000000 0.000000 0.000000 0.000000 0.000000 0.000000 0.000000 0.000000 0.000000 0.000000 0.000000 0.000000 0.000000 0.000000 0.000000 0.000000 0.000000 0.000000 0.000000 0.000000 0.000000 0.000000 0.000000 0.000000 0.000000 0.000000 0.000000 0.000000 0.000000 0.000000 0.000000 0.000000
0.000000 0.000000 0.000000 0.000000 0.000000 0.000000 0.000000 0.000000 0.000000 0.000000 0.000000 0.000000 0.000000 0.000000 0.000000 0.000000 0.000000 0.000000 0.000000 0.000000 0.000000 0.000000 0.000000 0.000000 0.000000 0.000000 0.000000 0.000000 0.000000 0.000000 0.000000 0.000000 0.000000 0.000000 0.000000 0.000000 0.000000 0.000000 0.000000 0.000000 0.000000 0.000000 0.000000 0.000000 0.000000 0.000000 0.000000 0.000000 0.000000 0.000000 0.000000 0.000000 0.000000 0.000000 0.000000 0.000000 0.000000 0.000000 0.000000 0.000000 0.000000 0.000000 0.000000 0.000000 0.000000 0.000000 0.000000 0.000000 0.000000 0.000000 0.000000 0.000000 0.000000 0.000000 0.000000 0.000000 0.000000 0.000000 0.000000 0.000000 0.000000 0.000000 0.000000 0.000000 0.000000 0.000000 0.000000 0.000000 0.000000 0.000000 0.000000 0.000000 0.000000 0.000000 0.000000 0.000000 0.000000 0.000000 0.000000 0.000000 0.000000 0.000000 0.000000
0.000000 0.000000 0.000000 0.000000 0.000000 0.000000 0.000000 0.000000 0.000000 0.000000 0.000000 0.000000 0.000000 0.000000 0.000000 0.000000 0.000000 0.000000 0.000000 0.000000 0.000000 0.000000 0.000000 0.000000 0.000000 0.000000 0.000000 0.000000 0.000000 0.000000 0.000000 0.000000 0.000000 0.000000 0.000000 0.000000 0.000000 0.000000 0.000000 0.000000 0.000000 0.000000 0.000000 0.000000 0.000000 0.000000 0.000000 0.000000 0.000000 0.000000 0.000000 0.000000 0.000000 0.000000 0.000000 0.000000 0.000000 0.000000 0.000000 0.000000 0.000000 0.000000 0.000000 0.000000 0.000000 0.000000 0.000000 0.000000 0.000000 0.000000 0.000000 0.000000 0.000000 0.000000 0.000000 0.000000 0.000000 0.000000 0.000000 0.000000 0.000000 0.000000 0.000000 0.000000 0.000000 0.000000 0.000000 0.000000 0.000000 0.000000 0.000000 0.000000 0.000000 0.000000 0.000000 0.000000 0.000000 0.000000 0.000000 0.000000 0.000000 0.000000 0.000000
0.000000 0.000000 0.000000 0.000000 0.000000 0.000000 0.000000 0.000000 0.000000 0.000000 0.000000 0.000000 0.000000 0.000000 0.000000 0.000000 0.000000 0.000000 0.000000 0.000000 0.000000 0.000000 0.000000 0.000000 0.000000 0.000000 0.000000 0.000000 0.000000 0.000000 0.000000 0.000000 0.000000 0.000000 0.000000 0.000000 0.000000 0.000000 0.000000 0.000000 0.000000 0.000000 0.000000 0.000000 0.000000 0.000000 0.000000 0.000000 0.000000 0.000000 0.000000 0.000000 0.000000 0.000000 0.000000 0.000000 0.000000 0.000000 0.000000 0.000000 0.000000 0.000000 0.000000 0.000000 0.000000 0.000000 0.000000 0.000000 0.000000 0.000000 0.000000 0.000000 0.000000 0.000000 0.000000 0.000000 0.000000 0.000000 0.000000 0.000000 0.000000 0.000000 0.000000 0.000000 0.000000 0.000000 0.000000 0.000000 0.000000 0.000000 0.000000 0.000000 0.000000 0.000000 0.000000 0.000000 0.000000 0.000000 0.000000 0.000000 0.000000 0.000000 0.000000
0.000000 0.000000 0.000000 0.000000 0.000000 0.000000 0.000000 0.000000 0.000000 0.000000 0.000000 0.000000 0.000000 0.000000 0.000000 0.000000 0.000000 0.000000 0.000000 0.000000 0.000000 0.000000 0.000000 0.000000 0.000000 0.000000 0.000000 0.000000 0.000000 0.000000 0.000000 0.000000 0.000000 0.000000 0.000000 0.000000 0.000000 0.000000 0.000000 0.000000 0.000000 0.000000 0.000000 0.000000 0.000000 0.000000 0.000000 0.000000 0.000000 0.000000 0.000000 0.000000 0.000000 0.000000 0.000000 0.000000 0.000000 0.000000 0.000000 0.000000 0.000000 0.000000 0.000000 0.000000 0.000000 0.000000 0.000000 0.000000 0.000000 0.000000 0.000000 0.000000 0.000000 0.000000 0.000000 0.000000 0.000000 0.000000 0.000000 0.000000 0.000000 0.000000 0.000000 0.000000 0.000000 0.000000 0.000000 0.000000 0.000000 0.000000 0.000000 0.000000 0.000000 0.000000 0.000000 0.000000 0.000000 0.000000 0.000000 0.000000 0.000000 0.000000 0.000000
