0.000000 0.000000 0.000000 0.000000 0.000000 0.000000 0.000000 0.000000 0.000000 0.000000 0.000000 0.000000 0.000000 0.000000 0.000000 0.000000 0.000000 0.000000 0.000000 0.000000 0.000000 0.000000 0.000000 0.000000 0.000000 0.000000 0.000000 0.000000 0.000000 0.000000 0.000000 0.000000 0.000000 0.000000 0.000000 0.000000 0.000000 0.000000 0.000000 0.000000 0.000000 0.000000 0.000000 0.000000 0.000000 0.000000 0.000000 0.000000 0.000000 0.000000 0.000000 0.000000 0.000000 0.000000 0.000000 0.000000 0.000000 0.000000 0.000000 0.000000 0.000000 0.000000 0.000000 0.000000 0.000000 0.000000 0.000000 0.000000 0.000000 0.000000 0.000000 0.000000 0.000000 0.000000 0.000000 0.000000 0.000000 0.000000 0.000000 0.000000 0.000000 0.000000 0.000000 0.000000 0.000000 0.000000 0.000000 0.000000 0.000000 0.000000 0.000000 0.000000 0.000000 0.000000 0.000000 0.000000 0.000000 0.000000 0.000000 0.000000 0.000000 0.000000 0.000000
0.000000 0.000000 0.000000 0.000000 0.000000 0.000000 0.000000 0.000000 0.000000 0.000000 0.000000 0.000000 0.000000 0.000000 0.000000 0.000000 0.000000 0.000000 0.000000 0.000000 0.000000 0.000000 0.000000 0.000000 0.000000 0.000000 0.000000 0.000000 0.000000 0.000000 0.000000 0.000000 0.000000 0.000000 0.000000 0.000000 0.000000 0.000000 0.000000 0.000000 0.000000 0.000000 0.000000 0.000000 0.000000 0.000000 0.000000 0.000000 0.000000 0.000000 0.000000 0.000000 0.000000 0.000000 0.000000 0.000000 0.000000 0.000000 0.000000 0.000000 0.000000 0.000000 0.000000 0.000000 0.000000 0.000000 0.000000 0.000000 0.000000 0.000000 0.000000 0.000000 0.000000 0.000000 0.000000 0.000000 0.000000 0.000000 0.000000 0.000000 0.000000 0.000000 0.000000 0.000000 0.000000 0.000000 0.000000 0.000000 0.000000 0.000000 0.000000 0.000000 0.000000 0.000000 0.000000 0.000000 0.000000 0.000000 0.000000 0.000000 0.000000 0.000000 0.000000
0.000000 0.000000 0.000000 0.000000 0.000000 0.000000 0.000000 0.000000 0.000000 0.000000 0.000000 0.000000 0.000000 0.000000 0.000000 0.000000 0.000000 0.000000 0.000000 0.000000 0.000000 0.000000 0.000000 0.000000 0.000000 0.000000 0.000000 0.000000 0.000000 0.000000 0.000000 0.000000 0.000000 0.000000 0.000000 0.000000 0.000000 0.000000 0.000000 0.000000 0.000000 0.000000 0.000000 0.000000 0.000000 0.000000 0.000000 0.000000 0.000000 0.000000 0.000000 0.000000 0.000000 0.000000 0.000000 0.000000 0.000000 0.000000 0.000000 0.000000 0.000000 0.000000 0.000000 0.000000 0.000000 0.000000 0.000000 0.000000 0.000000 0.000000 0.000000 0.000000 0.000000 0.000000 0.000000 0.000000 0.000000 0.000000 0.000000 0.000000 0.000000 0.000000 0.000000 0.000000 0.000000 0.000000 0.000000 0.000000 0.000000 0.000000 0.000000 0.000000 0.000000 0.000000 0.000000 0.000000 0.000000 0.000000 0.000000 0.000000 0.000000 0.000000 0.000000
0.000000 0.000000 0.000000 0.000000 0.000000 0.000000 0.000000 0.000000 0.000000 0.000000 0.000000 0.000000 0.000000 0.000000 0.000000 0.000000 0.000000 0.000000 0.000000 0.000000 0.000000 0.000000 0.000000 0.000000 0.000000 0.000000 0.000000 0.000000 0.000000 0.000000 0.000000 0.000000 0.000000 0.000000 0.000000 0.000000 0.000000 0.000000 0.000000 0.000000 0.000000 0.000000 0.000000 0.000000 0.000000 0.000000 0.000000 0.000000 0.000000 0.000000 0.000000 0.000000 0.000000 0.000000 0.000000 0.000000 0.000000 0.000000 0.000000 0.000000 0.000000 0.000000 0.000000 0.000000 0.000000 0.000000 0.000000 0.000000 0.000000 0.000000 0.000000 0.000000 0.000000 0.000000 0.000000 0.000000 0.000000 0.000000 0.000000 0.000000 0.000000 0.000000 0.000000 0.000000 0.000000 0.000000 0.000000 0.000000 0.000000 0.000000 0.000000 0.000000 0.000000 0.000000 0.000000 0.000000 0.000000 0.000000 0.000000 0.000000 0.000000 0.000000 0.000000
0.000000 0.000000 0.000000 0.000000 0.000000 0.000000 0.000000 0.000000 0.000000 0.000000 0.000000 0.000000 0.000000 0.000000 0.000000 0.000000 0.000000 0.000000 0.000000 0.000000 0.000000 0.000000 0.000000 0.000000 0.000000 0.000000 0.000000 0.000000 0.000000 0.000000 0.000000 0.000000 0.000000 0.000000 0.000000 0.000000 0.000000 0.000000 0.000000 16.922132 16.922132 16.922132 16.922132 16.922132 16.922132 16.922132 16.922132 16.922132 12.551365 12.551365 12.551365 12.551365 12.551365 12.551365 12.551365 0.000000 0.000000 0.000000 0.000000 0.000000 24.459495 24.459495 24.459495 24.459495 24.459495 24.459495 24.459495 24.459495 24.459495 24.459495 24.459495 24.459495 0.000000 0.000000 0.000000 0.000000 0.000000 0.000000 0.000000 0.000000 0.000000 0.000000 0.000000 0.000000 0.000000 0.000000 0.000000 0.000000 0.000000 0.000000 0.000000 0.000000 0.000000 0.000000 0.000000 0.000000 0.000000 0.000000 0.000000 0.000000 0.000000 0.000000 0.000000
0.000000 0.000000 0.000000 0.000000 0.000000 0.000000 0.000000 0.000000 0.000000 0.000000 0.000000 0.000000 0.000000 0.000000 0.000000 0.000000 0.000000 0.000000 0.000000 0.000000 0.000000 0.000000 0.000000 0.000000 0.000000 0.000000 0.000000 0.000000 0.000000 0.000000 0.000000 0.000000 0.000000 0.000000 0.000000 0.000000 0.000000 0.000000 0.000000 16.922132 16.922132 16.922132 16.922132 16.922132 16.922132 16.922132 16.922132 16.922132 12.551365 12.551365 12.551365 12.551365 12.551365 12.551365 12.551365 0.000000 0.000000 0.000000 0.000000 0.000000 24.459495 24.459495 24.459495 24.459495 24.459495 24.459495 24.459495 24.459495 24.459495 24.459495 24.459495 24.459495 0.000000 0.000000 0.000000 0.000000 0.000000 0.000000 0.000000 0.000000 0.000000 0.000000 0.000000 0.000000 0.000000 0.000000 0.000000 0.000000 0.000000 0.000000 0.000000 0.000000 0.000000 0.000000 0.000000 0.000000 0.000000 0.000000 0.000000 0.000000 0.000000 0.000000 0.000000
0.000000 0.000000 0.000000 0.000000 0.000000 0.000000 12.100428 12.100428 12.100428 0.000000 0.000000 0.000000 0.000000 0.000000 0.000000 0.000000 0.000000 0.000000 6.994493 6.994493 6.994493 6.994493 6.994493 6.994493 6.994493 6.994493 0.000000 0.000000 0.000000 0.000000 6.585018 6.585018 6.585018 6.585018 6.585018 6.585018 6.585018 0.000000 0.000000 16.922132 16.922132 16.922132 16.922132 16.922132 16.922132 16.922132 16.922132 16.922132 12.551365 12.551365 12.551365 12.551365 12.551365 12.551365 12.551365 0.000000 0.000000 0.000000 0.000000 0.000000 24.459495 24.459495 24.459495 24.459495 24.459495 24.459495 24.459495 24.459495 24.459495 24.459495 24.459495 24.459495 0.000000 0.000000 0.000000 0.000000 0.000000 0.000000 0.000000 0.000000 0.000000 0.000000 0.000000 0.000000 0.000000 0.000000 0.000000 0.000000 0.000000 0.000000 0.000000 25.136389 25.136389 25.136389 25.136389 25.136389 25.136389 0.000000 0.000000 0.000000 0.000000 0.000000 0.000000
0.000000 0.000000 0.000000 0.000000 0.000000 0.000000 12.100428 12.100428 12.100428 0.000000 0.000000 0.000000 0.000000 0.000000 0.000000 0.000000 0.000000 0.000000 6.994493 6.994493 6.994493 6.994493 6.994493 6.994493 6.994493 6.994493 0.000000 0.000000 0.000000 0.000000 6.585018 6.585018 6.585018 6.585018 6.585018 6.585018 6.585018 0.000000 0.000000 16.922132 16.922132 16.922132 16.922132 16.922132 16.922132 16.922132 16.922132 16.922132 12.551365 12.551365 12.551365 12.551365 12.551365 12.551365 12.551365 0.000000 0.000000 0.000000 0.000000 0.000000 24.459495 24.459495 24.459495 24.459495 24.459495 24.459495 24.459495 24.459495 24.459495 24.459495 24.459495 24.459495 0.000000 0.000000 0.000000 0.000000 0.000000 0.000000 0.000000 0.000000 0.000000 0.000000 0.000000 0.000000 0.000000 0.000000 0.000000 0.000000 0.000000 0.000000 0.000000 25.136389 25.136389 25.136389 25.136389 25.136389 25.136389 0.000000 0.000000 0.000000 0.000000 0.000000 0.000000
0.000000 0.000000 0.000000 0.000000 0.000000 0.000000 12.100428 12.100428 12.100428 0.000000 0.000000 0.000000 0.000000 0.000000 0.000000 0.000000 0.000000 0.000000 6.994493 6.994493 6.994493 6.994493 6.994493 6.994493 6.994493 6.994493 0.000000 0.000000 0.000000 0.000000 6.585018 6.585018 6.585018 6.585018 6.585018 6.585018 6.585018 0.000000 0.000000 16.922132 16.922132 16.922132 16.922132 16.922132 16.922132 16.922132 16.922132 16.922132 12.551365 12.551365 12.551365 12.551365 12.551365 12.551365 12.551365 0.000000 0.000000 0.000000 0.000000 0.000000 24.459495 24.459495 24.459495 24.459495 24.459495 24.459495 24.459495 24.459495 24.459495 24.459495 24.459495 24.459495 0.000000 0.000000 0.000000 0.000000 0.000000 0.000000 0.000000 0.000000 0.000000 0.000000 0.000000 0.000000 0.000000 0.000000 0.000000 0.000000 0.000000 0.000000 0.000000 25.136389 25.136389 25.136389 25.136389 25.136389 25.136389 0.000000 0.000000 0.000000 0.000000 0.000000 0.000000
0.000000 0.000000 0.000000 0.000000 0.000000 0.000000 12.100428 12.100428 12.100428 0.000000 0.000000 0.000000 0.000000 0.000000 0.000000 0.000000 0.000000 0.000000 6.994493 6.994493 6.994493 6.994493 6.994493 6.994493 6.994493 6.994493 0.000000 0.000000 0.000000 0.000000 6.585018 6.585018 6.585018 6.585018 6.585018 6.585018 6.585018 0.000000 0.000000 16.922132 16.922132 16.922132 16.922132 16.922132 16.922132 16.922132 16.922132 16.922132 12.551365 12.551365 12.551365 12.551365 12.551365 12.551365 12.551365 0.000000 0.000000 0.000000 0.000000 0.000000 24.459495 24.459495 24.459495 24.459495 24.459495 24.459495 24.459495 24.459495 24.459495 24.459495 24.459495 24.459495 0.000000 0.000000 0.000000 0.000000 0.000000 0.000000 0.000000 0.000000 0.000000 0.000000 0.000000 0.000000 0.000000 0.000000 0.000000 0.000000 0.000000 0.000000 0.000000 25.136389 25.136389 25.136389 25.136389 25.136389 25.136389 0.000000 0.000000 0.000000 0.000000 0.000000 0.000000
0.000000 0.000000 0.000000 0.000000 0.000000 0.000000 12.100428 12.100428 12.100428 0.000000 0.000000 0.000000 0.000000 0.000000 0.000000 0.000000 0.000000 0.000000 0.000000 0.000000 0.000000 0.000000 0.000000 0.000000 0.000000 0.000000 0.000000 0.000000 0.000000 0.000000 0.000000 0.000000 0.000000 0.000000 0.000000 0.000000 0.000000 0.000000 0.000000 16.922132 16.922132 16.922132 16.922132 16.922132 16.922132 16.922132 16.922132 16.922132 12.551365 12.551365 12.551365 12.551365 12.551365 12.551365 12.551365 0.000000 0.000000 0.000000 0.000000 0.000000 24.459495 24.459495 24.459495 24.459495 24.459495 24.459495 24.459495 24.459495 24.459495 24.459495 24.459495 24.459495 0.000000 0.000000 0.000000 0.000000 0.000000 0.000000 0.000000 0.000000 0.000000 0.000000 0.000000 0.000000 0.000000 0.000000 0.000000 0.000000 0.000000 0.000000 0.000000 25.136389 25.136389 25.136389 25.136389 25.136389 25.136389 0.000000 0.000000 0.000000 0.000000 0.000000 0.000000
0.000000 0.000000 0.000000 0.000000 0.000000 0.000000 12.100428 12.100428 12.100428 0.000000 0.000000 0.000000 0.000000 0.000000 0.000000 0.000000 0.000000 0.000000 0.000000 0.000000 0.000000 0.000000 0.000000 0.000000 0.000000 0.000000 0.000000 0.000000 19.143123 19.143123 19.143123 19.143123 19.143123 19.143123 19.143123 19.143123 19.143123 19.143123 19.143123 0.000000 0.000000 0.000000 0.000000 0.000000 0.000000 0.000000 0.000000 0.000000 0.000000 0.000000 0.000000 0.000000 0.000000 0.000000 0.000000 0.000000 0.000000 0.000000 0.000000 0.000000 24.459495 24.459495 24.459495 24.459495 24.459495 24.459495 24.459495 24.459495 24.459495 24.459495 24.459495 24.459495 0.000000 0.000000 0.000000 0.000000 0.000000 0.000000 0.000000 0.000000 0.000000 0.000000 0.000000 0.000000 0.000000 0.000000 0.000000 0.000000 0.000000 0.000000 0.000000 25.136389 25.136389 25.136389 25.136389 25.136389 25.136389 0.000000 0.000000 0.000000 0.000000 0.000000 0.000000
0.000000 0.000000 0.000000 0.000000 0.000000 0.000000 12.100428 12.100428 12.100428 0.000000 0.000000 0.000000 0.000000 0.000000 0.000000 0.000000 0.000000 0.000000 0.000000 0.000000 0.000000 0.000000 0.000000 0.000000 0.000000 0.000000 0.000000 0.000000 19.143123 19.143123 19.143123 19.143123 19.143123 19.143123 19.143123 19.143123 19.143123 19.143123 19.143123 0.000000 0.000000 0.000000 0.000000 0.000000 0.000000 0.000000 0.000000 0.000000 0.000000 0.000000 0.000000 0.000000 0.000000 0.000000 0.000000 0.000000 0.000000 0.000000 0.000000 0.000000 0.000000 0.000000 0.000000 0.000000 0.000000 0.000000 0.000000 0.000000 0.000000 0.000000 0.000000 0.000000 0.000000 0.000000 0.000000 0.000000 0.000000 0.000000 0.000000 0.000000 0.000000 0.000000 0.000000 0.000000 0.000000 0.000000 0.000000 0.000000 0.000000 0.000000 0.000000 25.136389 25.136389 25.136389 25.136389 25.136389 25.136389 0.000000 0.000000 0.000000 0.000000 0.000000 0.000000
0.000000 0.000000 0.000000 0.000000 0.000000 0.000000 12.100428 12.100428 12.100428 0.000000 0.000000 0.000000 0.000000 0.000000 0.000000 0.000000 0.000000 0.000000 22.188936 22.188936 22.188936 22.188936 22.188936 22.188936 22.188936 22.188936 0.000000 0.000000 19.143123 19.143123 19.143123 19.143123 19.143123 19.143123 19.143123 19.143123 19.143123 19.143123 19.143123 0.000000 0.000000 0.000000 0.000000 0.000000 0.000000 0.000000 0.000000 0.000000 0.000000 0.000000 2.302236 2.302236 2.302236 0.000000 0.000000 0.000000 0.000000 0.000000 0.000000 0.000000 0.000000 0.000000 0.000000 0.000000 0.000000 0.000000 0.000000 0.000000 0.000000 0.000000 0.000000 0.000000 0.000000 0.000000 0.000000 0.000000 0.000000 0.000000 0.000000 0.000000 0.000000 0.000000 0.000000 0.000000 0.000000 0.000000 0.000000 0.000000 0.000000 0.000000 0.000000 25.136389 25.136389 25.136389 25.136389 25.136389 25.136389 0.000000 0.000000 0.000000 0.000000 0.000000 0.000000
0.000000 0.000000 0.000000 0.000000 0.000000 0.000000 12.100428 12.100428 12.100428 0.000000 0.000000 0.000000 0.000000 0.000000 0.000000 0.000000 0.000000 0.000000 22.188936 22.188936 22.188936 22.188936 22.188936 22.188936 22.188936 22.188936 0.000000 0.000000 19.143123 19.143123 19.143123 19.143123 19.143123 19.143123 19.143123 19.143123 19.143123 19.143123 19.143123 0.000000 0.000000 0.000000 0.000000 0.000000 0.000000 0.000000 0.000000 0.000000 0.000000 0.000000 2.302236 2.302236 2.302236 0.000000 0.000000 0.000000 0.000000 0.000000 0.000000 0.000000 0.000000 0.000000 0.000000 0.000000 0.000000 0.000000 0.000000 0.000000 0.000000 0.000000 0.000000 0.000000 0.000000 0.000000 0.000000 0.000000 0.000000 0.000000 0.000000 0.000000 0.000000 0.000000 0.000000 0.000000 0.000000 0.000000 0.000000 0.000000 0.000000 0.000000 0.000000 25.136389 25.136389 25.136389 25.136389 25.136389 25.136389 0.000000 0.000000 0.000000 0.000000 0.000000 0.000000
0.000000 0.000000 0.000000 0.000000 0.000000 0.000000 12.100428 12.100428 12.100428 0.000000 0.000000 0.000000 0.000000 0.000000 0.000000 0.000000 0.000000 0.000000 22.188936 22.188936 22.188936 22.188936 22.188936 22.188936 22.188936 22.188936 0.000000 0.000000 19.143123 19.143123 19.143123 19.143123 19.143123 19.143123 19.143123 19.143123 19.143123 19.143123 19.143123 0.000000 0.000000 0.000000 0.000000 0.000000 0.000000 0.000000 0.000000 0.000000 0.000000 0.000000 2.302236 2.302236 2.302236 0.000000 0.000000 0.000000 0.000000 0.000000 0.000000 0.000000 0.000000 0.000000 0.000000 0.000000 0.000000 0.000000 0.000000 0.000000 0.000000 0.000000 0.000000 0.000000 0.000000 0.000000 0.000000 0.000000 0.000000 0.000000 0.000000 0.000000 0.000000 0.000000 0.000000 0.000000 0.000000 0.000000 0.000000 0.000000 0.000000 0.000000 0.000000 25.136389 25.136389 25.136389 25.136389 25.136389 25.136389 0.000000 0.000000 0.000000 0.000000 0.000000 0.000000
0.000000 0.000000 0.000000 0.000000 0.000000 0.000000 12.100428 12.100428 12.100428 0.000000 0.000000 0.000000 0.000000 0.000000 0.000000 0.000000 0.000000 0.000000 22.188936 22.188936 22.188936 22.188936 22.188936 22.188936 22.188936 22.188936 0.000000 0.000000 19.143123 19.143123 19.143123 19.143123 19.143123 19.143123 19.143123 19.143123 19.143123 19.143123 19.143123 0.000000 0.000000 0.000000 0.000000 0.000000 0.000000 0.000000 0.000000 0.000000 0.000000 0.000000 2.302236 2.302236 2.302236 0.000000 0.000000 0.000000 0.000000 0.000000 0.000000 0.000000 0.000000 0.000000 0.000000 0.000000 0.000000 0.000000 0.000000 0.000000 0.000000 0.000000 0.000000 0.000000 0.000000 0.000000 0.000000 0.000000 0.000000 0.000000 0.000000 0.000000 0.000000 0.000000 0.000000 0.000000 0.000000 0.000000 0.000000 0.000000 0.000000 0.000000 0.000000 25.136389 25.136389 25.136389 25.136389 25.136389 25.136389 0.000000 0.000000 0.000000 0.000000 0.000000 0.000000
0.000000 0.000000 0.000000 0.000000 0.000000 0.000000 12.100428 12.100428 12.100428 0.000000 0.000000 0.000000 0.000000 0.000000 0.000000 0.000000 0.000000 0.000000 22.188936 22.188936 22.188936 22.188936 22.188936 22.188936 22.188936 22.188936 0.000000 0.000000 19.143123 19.143123 19.143123 19.143123 19.143123 19.143123 19.143123 19.143123 19.143123 19.143123 19.143123 0.000000 0.000000 0.000000 0.000000 0.000000 0.000000 0.000000 0.000000 0.000000 0.000000 0.000000 0.000000 0.000000 0.000000 0.000000 0.000000 0.000000 0.000000 0.000000 0.000000 0.000000 0.000000 0.000000 0.000000 0.000000 0.000000 0.000000 0.000000 0.000000 0.000000 0.000000 0.000000 0.000000 0.000000 0.000000 0.000000 0.000000 0.000000 0.000000 0.000000 0.000000 0.000000 0.000000 0.000000 0.000000 0.000000 0.000000 0.000000 0.000000 0.000000 0.000000 0.000000 25.136389 25.136389 25.136389 25.136389 25.136389 25.136389 0.000000 0.000000 0.000000 0.000000 0.000000 0.000000
0.000000 0.000000 0.000000 0.000000 0.000000 0.000000 12.100428 12.100428 12.100428 0.000000 0.000000 0.000000 0.000000 0.000000 0.000000 0.000000 0.000000 0.000000 22.188936 22.188936 22.188936 22.188936 22.188936 22.188936 22.188936 22.188936 0.000000 0.000000 19.143123 19.143123 19.143123 19.143123 19.143123 19.143123 19.143123 19.143123 19.143123 19.143123 19.143123 0.000000 0.000000 0.000000 0.000000 0.000000 0.000000 0.000000 0.000000 0.000000 0.000000 0.000000 0.000000 0.000000 0.000000 0.000000 0.000000 0.000000 0.000000 0.000000 0.000000 0.000000 0.000000 0.000000 0.000000 0.000000 0.000000 0.000000 0.000000 0.000000 0.000000 0.000000 0.000000 0.000000 0.000000 0.000000 0.000000 0.000000 0.000000 0.000000 0.000000 0.000000 0.000000 0.000000 0.000000 0.000000 0.000000 0.000000 0.000000 0.000000 0.000000 0.000000 0.000000 25.136389 25.136389 25.136389 25.136389 25.136389 25.136389 0.000000 0.000000 0.000000 0.000000 0.000000 0.000000
0.000000 0.000000 0.000000 0.000000 0.000000 0.000000 12.100428 12.100428 12.100428 0.000000 0.000000 0.000000 0.000000 0.000000 0.000000 0.000000 0.000000 0.000000 22.188936 22.188936 22.188936 22.188936 22.188936 22.188936 22.188936 22.188936 0.000000 0.000000 22.481873 22.481873 22.481873 22.481873 22.481873 22.481873 22.481873 22.481873 22.481873 22.481873 22.481873 0.000000 0.000000 0.000000 0.000000 0.000000 0.000000 0.000000 0.000000 0.000000 0.000000 12.644770 12.644770 12.644770 12.644770 12.644770 12.644770 0.000000 0.000000 0.000000 0.000000 0.000000 0.000000 0.000000 0.000000 0.000000 0.000000 0.000000 0.000000 0.000000 0.000000 0.000000 0.000000 0.000000 0.000000 0.000000 0.000000 0.000000 0.000000 0.000000 0.000000 0.000000 0.000000 0.000000 0.000000 0.000000 0.000000 0.000000 0.000000 0.000000 0.000000 0.000000 0.000000 25.136389 25.136389 25.136389 25.136389 25.136389 25.136389 0.000000 0.000000 0.000000 0.000000 0.000000 0.000000
0.000000 0.000000 0.000000 0.000000 0.000000 0.000000 12.100428 12.100428 12.100428 0.000000 0.000000 0.000000 0.000000 0.000000 0.000000 0.000000 0.000000 0.000000 22.188936 22.188936 22.188936 22.188936 22.188936 22.188936 22.188936 22.188936 0.000000 0.000000 22.481873 22.481873 22.481873 22.481873 22.481873 22.481873 22.481873 22.481873 22.481873 22.481873 22.481873 0.000000 0.000000 0.000000 0.000000 0.000000 0.000000 0.000000 0.000000 0.000000 0.000000 12.644770 12.644770 12.644770 12.644770 12.644770 12.644770 0.000000 0.000000 0.000000 0.000000 0.000000 0.000000 0.000000 0.000000 0.000000 0.000000 0.000000 0.000000 0.000000 0.000000 0.000000 0.000000 0.000000 0.000000 0.000000 0.000000 0.000000 0.000000 0.000000 0.000000 0.000000 0.000000 0.000000 0.000000 0.000000 0.000000 0.000000 0.000000 0.000000 0.000000 0.000000 0.000000 25.136389 25.136389 25.136389 25.136389 25.136389 25.136389 0.000000 0.000000 0.000000 0.000000 0.000000 0.000000
0.000000 0.000000 0.000000 0.000000 0.000000 0.000000 0.000000 0.000000 0.000000 0.000000 0.000000 0.000000 0.000000 0.000000 0.000000 0.000000 0.000000 0.000000 22.188936 22.188936 22.188936 22.188936 22.188936 22.188936 22.188936 22.188936 0.000000 0.000000 22.481873 22.481873 22.481873 22.481873 22.481873 22.481873 22.481873 22.481873 22.481873 22.481873 22.481873 0.000000 0.000000 0.000000 0.000000 0.000000 0.000000 0.000000 0.000000 0.000000 0.000000 12.644770 12.644770 12.644770 12.644770 12.644770 12.644770 0.000000 0.000000 0.000000 0.000000 0.000000 0.000000 0.000000 0.000000 0.000000 0.000000 0.000000 0.000000 0.000000 0.000000 0.000000 0.000000 0.000000 0.000000 0.000000 0.000000 0.000000 0.000000 0.000000 0.000000 0.000000 0.000000 0.000000 0.000000 0.000000 0.000000 0.000000 0.000000 0.000000 0.000000 0.000000 0.000000 0.000000 0.000000 0.000000 0.000000 0.000000 0.000000 0.000000 0.000000 0.000000 0.000000 0.000000 0.000000
0.000000 0.000000 0.000000 0.000000 0.000000 0.000000 0.000000 0.000000 0.000000 0.000000 0.000000 0.000000 0.000000 0.000000 0.000000 0.000000 0.000000 0.000000 22.188936 22.188936 22.188936 22.188936 22.188936 22.188936 22.188936 22.188936 0.000000 0.000000 22.481873 22.481873 22.481873 22.481873 22.481873 22.481873 22.481873 22.481873 22.481873 22.481873 22.481873 0.000000 0.000000 0.000000 0.000000 0.000000 0.000000 0.000000 0.000000 0.000000 0.000000 12.644770 12.644770 12.644770 12.644770 12.644770 12.644770 0.000000 0.000000 0.000000 0.000000 0.000000 0.000000 0.000000 0.000000 0.000000 0.000000 0.000000 0.000000 0.000000 0.000000 0.000000 0.000000 0.000000 0.000000 0.000000 0.000000 0.000000 0.000000 0.000000 0.000000 0.000000 0.000000 0.000000 0.000000 0.000000 0.000000 0.000000 0.000000 0.000000 0.000000 0.000000 0.000000 0.000000 0.000000 0.000000 0.000000 0.000000 0.000000 0.000000 0.000000 0.000000 0.000000 0.000000 0.000000
0.000000 0.000000 0.000000 0.000000 0.000000 0.000000 0.000000 0.000000 0.000000 0.000000 0.000000 0.000000 0.000000 0.000000 0.000000 0.000000 0.000000 0.000000 22.188936 22.188936 22.188936 22.188936 22.188936 22.188936 22.188936 22.188936 0.000000 0.000000 22.481873 22.481873 22.481873 22.481873 22.481873 22.481873 22.481873 22.481873 22.481873 22.481873 22.481873 0.000000 0.000000 0.000000 0.000000 0.000000 0.000000 0.000000 0.000000 0.000000 0.000000 12.644770 12.644770 12.644770 12.644770 12.644770 12.644770 0.000000 0.000000 0.000000 0.000000 0.000000 0.000000 0.000000 0.000000 0.000000 0.000000 0.000000 0.000000 0.000000 0.000000 0.000000 0.000000 0.000000 0.000000 0.000000 0.000000 0.000000 0.000000 0.000000 0.000000 0.000000 0.000000 0.000000 0.000000 0.000000 0.000000 0.000000 0.000000 0.000000 0.000000 0.000000 0.000000 0.000000 0.000000 0.000000 0.000000 0.000000 0.000000 0.000000 0.000000 0.000000 0.000000 0.000000 0.000000
0.000000 0.000000 0.000000 0.000000 0.000000 0.000000 0.000000 0.000000 0.000000 0.000000 0.000000 0.000000 0.000000 0.000000 0.000000 0.000000 0.000000 0.000000 22.188936 22.188936 22.188936 22.188936 22.188936 22.188936 22.188936 22.188936 0.000000 0.000000 22.481873 22.481873 22.481873 22.481873 22.481873 22.481873 22.481873 22.481873 22.481873 22.481873 22.481873 0.000000 0.000000 0.000000 0.000000 0.000000 0.000000 0.000000 0.000000 0.000000 0.000000 12.644770 12.644770 12.644770 12.644770 12.644770 12.644770 0.000000 0.000000 0.000000 0.000000 0.000000 0.000000 0.000000 0.000000 0.000000 0.000000 0.000000 0.000000 0.000000 0.000000 0.000000 0.000000 0.000000 0.000000 0.000000 0.000000 0.000000 0.000000 0.000000 0.000000 0.000000 0.000000 0.000000 0.000000 0.000000 0.000000 0.000000 0.000000 0.000000 0.000000 0.000000 0.000000 0.000000 0.000000 0.000000 0.000000 0.000000 0.000000 0.000000 0.000000 0.000000 0.000000 0.000000 0.000000
0.000000 0.000000 0.000000 0.000000 0.000000 0.000000 12.239379 12.239379 12.239379 0.000000 0.000000 0.000000 0.000000 0.000000 0.000000 0.000000 0.000000 0.000000 0.000000 0.000000 0.000000 0.000000 0.000000 0.000000 0.000000 0.000000 0.000000 0.000000 22.481873 22.481873 22.481873 22.481873 22.481873 22.481873 22.481873 22.481873 22.481873 22.481873 22.481873 0.000000 0.000000 0.000000 0.000000 0.000000 0.000000 0.000000 0.000000 0.000000 0.000000 12.644770 12.644770 12.644770 12.644770 12.644770 12.644770 0.000000 0.000000 0.000000 0.000000 0.000000 0.000000 0.000000 0.000000 0.000000 0.000000 0.000000 0.000000 0.000000 0.000000 0.000000 0.000000 0.000000 0.000000 0.000000 0.000000 0.000000 0.000000 0.000000 0.000000 30.090418 30.090418 30.090418 30.090418 30.090418 30.090418 30.090418 30.090418 0.000000 0.000000 0.000000 0.000000 0.000000 0.000000 0.000000 0.000000 0.000000 0.000000 0.000000 0.000000 0.000000 0.000000 0.000000 0.000000
0.000000 0.000000 0.000000 0.000000 0.000000 0.000000 12.239379 12.239379 12.239379 0.000000 0.000000 0.000000 0.000000 0.000000 0.000000 0.000000 0.000000 0.000000 0.000000 0.000000 0.000000 0.000000 0.000000 0.000000 0.000000 0.000000 0.000000 0.000000 22.481873 22.481873 22.481873 22.481873 22.481873 22.481873 22.481873 22.481873 22.481873 22.481873 22.481873 0.000000 0.000000 0.000000 0.000000 0.000000 0.000000 0.000000 0.000000 0.000000 0.000000 12.644770 12.644770 12.644770 12.644770 12.644770 12.644770 0.000000 0.000000 0.000000 0.000000 0.000000 0.000000 0.000000 0.000000 0.000000 0.000000 0.000000 0.000000 0.000000 0.000000 0.000000 0.000000 0.000000 0.000000 0.000000 0.000000 0.000000 0.000000 0.000000 0.000000 30.090418 30.090418 30.090418 30.090418 30.090418 30.090418 30.090418 30.090418 0.000000 0.000000 0.000000 0.000000 0.000000 0.000000 0.000000 0.000000 0.000000 0.000000 0.000000 0.000000 0.000000 0.000000 0.000000 0.000000
0.000000 0.000000 0.000000 0.000000 0.000000 0.000000 12.239379 12.239379 12.239379 0.000000 0.000000 0.000000 0.000000 0.000000 0.000000 0.000000 0.000000 0.000000 0.000000 0.000000 0.000000 0.000000 0.000000 0.000000 0.000000 0.000000 0.000000 0.000000 0.000000 0.000000 0.000000 0.000000 0.000000 0.000000 0.000000 0.000000 0.000000 0.000000 0.000000 0.000000 0.000000 0.000000 0.000000 0.000000 0.000000 0.000000 0.000000 0.000000 0.000000 0.000000 0.000000 0.000000 0.000000 0.000000 0.000000 0.000000 0.000000 0.000000 0.000000 0.000000 0.000000 0.000000 0.000000 0.000000 0.000000 0.000000 0.000000 0.000000 0.000000 0.000000 0.000000 0.000000 0.000000 0.000000 0.000000 0.000000 0.000000 0.000000 0.000000 30.090418 30.090418 30.090418 30.090418 30.090418 30.090418 30.090418 30.090418 0.000000 0.000000 0.000000 0.000000 0.000000 0.000000 0.000000 0.000000 0.000000 0.000000 0.000000 0.000000 0.000000 0.000000 0.000000 0.000000
0.000000 0.000000 0.000000 0.000000 0.000000 0.000000 12.239379 12.239379 12.239379 0.000000 0.000000 0.000000 0.000000 0.000000 0.000000 0.000000 0.000000 0.000000 0.000000 0.000000 0.000000 0.000000 0.000000 0.000000 0.000000 0.000000 0.000000 0.000000 0.000000 0.000000 0.000000 0.000000 0.000000 0.000000 0.000000 0.000000 0.000000 0.000000 0.000000 0.000000 0.000000 0.000000 0.000000 0.000000 0.000000 0.000000 0.000000 0.000000 0.000000 0.000000 0.000000 0.000000 0.000000 0.000000 0.000000 0.000000 0.000000 0.000000 0.000000 0.000000 0.000000 0.000000 0.000000 0.000000 0.000000 0.000000 0.000000 0.000000 0.000000 0.000000 0.000000 0.000000 0.000000 0.000000 0.000000 0.000000 0.000000 0.000000 0.000000 30.090418 30.090418 30.090418 30.090418 30.090418 30.090418 30.090418 30.090418 0.000000 0.000000 0.000000 0.000000 0.000000 0.000000 0.000000 0.000000 0.000000 0.000000 0.000000 0.000000 0.000000 0.000000 0.000000 0.000000
0.000000 0.000000 0.000000 0.000000 0.000000 0.000000 12.239379 12.239379 12.239379 0.000000 0.000000 0.000000 0.000000 0.000000 0.000000 0.000000 0.000000 0.000000 21.537090 21.537090 21.537090 21.537090 21.537090 21.537090 21.537090 21.537090 0.000000 0.000000 0.000000 0.000000 20.276257 20.276257 20.276257 20.276257 20.276257 20.276257 20.276257 0.000000 0.000000 0.000000 35.180505 35.180505 35.180505 35.180505 35.180505 35.180505 35.180505 35.180505 35.180505 35.180505 35.180505 35.180505 35.180505 0.000000 0.000000 0.000000 0.000000 0.000000 0.000000 0.000000 0.000000 0.000000 0.000000 0.000000 0.000000 0.000000 0.000000 0.000000 0.000000 0.000000 0.000000 0.000000 0.000000 0.000000 0.000000 0.000000 0.000000 0.000000 0.000000 30.090418 30.090418 30.090418 30.090418 30.090418 30.090418 30.090418 30.090418 0.000000 0.000000 0.000000 0.000000 0.000000 0.000000 0.000000 0.000000 0.000000 0.000000 0.000000 0.000000 0.000000 0.000000 0.000000 0.000000
0.000000 0.000000 0.000000 0.000000 0.000000 0.000000 12.239379 12.239379 12.239379 0.000000 0.000000 0.000000 0.000000 0.000000 0.000000 0.000000 0.000000 0.000000 21.537090 21.537090 21.537090 21.537090 21.537090 21.537090 21.537090 21.537090 0.000000 0.000000 0.000000 0.000000 20.276257 20.276257 20.276257 20.276257 20.276257 20.276257 20.276257 0.000000 0.000000 0.000000 35.180505 35.180505 35.180505 35.180505 35.180505 35.180505 35.180505 35.180505 35.180505 35.180505 35.180505 35.180505 35.180505 0.000000 0.000000 0.000000 0.000000 0.000000 0.000000 0.000000 0.000000 0.000000 0.000000 0.000000 0.000000 0.000000 0.000000 0.000000 0.000000 0.000000 0.000000 0.000000 0.000000 0.000000 0.000000 0.000000 0.000000 0.000000 0.000000 30.090418 30.090418 30.090418 30.090418 30.090418 30.090418 30.090418 30.090418 0.000000 0.000000 0.000000 0.000000 0.000000 0.000000 0.000000 0.000000 0.000000 0.000000 0.000000 0.000000 0.000000 0.000000 0.000000 0.000000
0.000000 0.000000 0.000000 0.000000 0.000000 0.000000 12.239379 12.239379 12.239379 0.000000 0.000000 0.000000 0.000000 0.000000 0.000000 0.000000 0.000000 0.000000 21.537090 21.537090 21.537090 21.537090 21.537090 21.537090 21.537090 21.537090 0.000000 0.000000 0.000000 0.000000 20.276257 20.276257 20.276257 20.276257 20.276257 20.276257 20.276257 0.000000 0.000000 0.000000 35.180505 35.180505 35.180505 35.180505 35.180505 35.180505 35.180505 35.180505 35.180505 35.180505 35.180505 35.180505 35.180505 0.000000 0.000000 0.000000 0.000000 0.000000 0.000000 0.000000 0.000000 0.000000 0.000000 0.000000 0.000000 0.000000 0.000000 0.000000 0.000000 0.000000 0.000000 0.000000 0.000000 0.000000 0.000000 0.000000 0.000000 0.000000 0.000000 30.090418 30.090418 30.090418 30.090418 30.090418 30.090418 30.090418 30.090418 0.000000 0.000000 0.000000 0.000000 0.000000 0.000000 0.000000 0.000000 0.000000 0.000000 0.000000 0.000000 0.000000 0.000000 0.000000 0.000000
0.000000 0.000000 0.000000 0.000000 0.000000 0.000000 12.239379 12.239379 12.239379 0.000000 0.000000 0.000000 0.000000 0.000000 0.000000 0.000000 0.000000 0.000000 21.537090 21.537090 21.537090 21.537090 21.537090 21.537090 21.537090 21.537090 0.000000 0.000000 0.000000 0.000000 20.276257 20.276257 20.276257 20.276257 20.276257 20.276257 20.276257 0.000000 0.000000 0.000000 35.180505 35.180505 35.180505 35.180505 35.180505 35.180505 35.180505 35.180505 35.180505 35.180505 35.180505 35.180505 35.180505 0.000000 0.000000 0.000000 0.000000 0.000000 0.000000 0.000000 0.000000 0.000000 0.000000 0.000000 0.000000 0.000000 0.000000 0.000000 0.000000 0.000000 0.000000 0.000000 0.000000 0.000000 0.000000 0.000000 0.000000 0.000000 0.000000 30.090418 30.090418 30.090418 30.090418 30.090418 30.090418 30.090418 30.090418 0.000000 0.000000 0.000000 0.000000 0.000000 0.000000 0.000000 0.000000 0.000000 0.000000 0.000000 0.000000 0.000000 0.000000 0.000000 0.000000
0.000000 0.000000 0.000000 0.000000 0.000000 0.000000 12.239379 12.239379 12.239379 0.000000 0.000000 0.000000 0.000000 0.000000 0.000000 0.000000 0.000000 0.000000 21.537090 21.537090 21.537090 21.537090 21.537090 21.537090 21.537090 21.537090 0.000000 0.000000 0.000000 0.000000 20.276257 20.276257 20.276257 20.276257 20.276257 20.276257 20.276257 0.000000 0.000000 0.000000 35.180505 35.180505 35.180505 35.180505 35.180505 35.180505 35.180505 35.180505 35.180505 35.180505 35.180505 35.180505 35.180505 0.000000 0.000000 0.000000 0.000000 0.000000 0.000000 0.000000 0.000000 0.000000 0.000000 0.000000 0.000000 0.000000 0.000000 0.000000 0.000000 0.000000 0.000000 0.000000 0.000000 0.000000 0.000000 0.000000 0.000000 0.000000 0.000000 30.090418 30.090418 30.090418 30.090418 30.090418 30.090418 30.090418 30.090418 0.000000 0.000000 0.000000 0.000000 0.000000 0.000000 0.000000 0.000000 0.000000 0.000000 0.000000 0.000000 0.000000 0.000000 0.000000 0.000000
0.000000 0.000000 0.000000 0.000000 0.000000 0.000000 12.239379 12.239379 12.239379 0.000000 0.000000 0.000000 0.000000 0.000000 0.000000 0.000000 0.000000 0.000000 21.537090 21.537090 21.537090 21.537090 21.537090 21.537090 21.537090 21.537090 0.000000 0.000000 0.000000 0.000000 20.276257 20.276257 20.276257 20.276257 20.276257 20.276257 20.276257 0.000000 0.000000 0.000000 35.180505 35.180505 35.180505 35.180505 35.180505 35.180505 35.180505 35.180505 35.180505 35.180505 35.180505 35.180505 35.180505 0.000000 0.000000 0.000000 0.000000 0.000000 0.000000 0.000000 0.000000 0.000000 0.000000 0.000000 0.000000 0.000000 0.000000 0.000000 0.000000 0.000000 0.000000 0.000000 0.000000 0.000000 0.000000 0.000000 0.000000 0.000000 0.000000 30.090418 30.090418 30.090418 30.090418 30.090418 30.090418 30.090418 30.090418 0.000000 0.000000 0.000000 0.000000 0.000000 0.000000 0.000000 0.000000 0.000000 0.000000 0.000000 0.000000 0.000000 0.000000 0.000000 0.000000
0.000000 0.000000 0.000000 0.000000 0.000000 0.000000 12.239379 12.239379 12.239379 0.000000 0.000000 0.000000 0.000000 0.000000 0.000000 0.000000 0.000000 0.000000 21.537090 21.537090 21.537090 21.537090 21.537090 21.537090 21.537090 21.537090 0.000000 0.000000 0.000000 0.000000 20.276257 20.276257 20.276257 20.276257 20.276257 20.276257 20.276257 0.000000 0.000000 0.000000 35.180505 35.180505 35.180505 35.180505 35.180505 35.180505 35.180505 35.180505 35.180505 35.180505 35.180505 35.180505 35.180505 0.000000 0.000000 0.000000 0.000000 0.000000 0.000000 0.000000 0.000000 0.000000 0.000000 0.000000 0.000000 0.000000 0.000000 0.000000 0.000000 0.000000 0.000000 0.000000 0.000000 0.000000 0.000000 0.000000 0.000000 0.000000 0.000000 30.090418 30.090418 30.090418 30.090418 30.090418 30.090418 30.090418 30.090418 0.000000 0.000000 0.000000 0.000000 0.000000 0.000000 0.000000 0.000000 0.000000 0.000000 0.000000 0.000000 0.000000 0.000000 0.000000 0.000000
0.000000 0.000000 0.000000 0.000000 0.000000 0.000000 12.239379 12.239379 12.239379 0.000000 0.000000 0.000000 0.000000 0.000000 0.000000 0.000000 0.000000 0.000000 21.537090 21.537090 21.537090 21.537090 21.537090 21.537090 21.537090 21.537090 0.000000 0.000000 0.000000 0.000000 20.276257 20.276257 20.276257 20.276257 20.276257 20.276257 20.276257 0.000000 0.000000 0.000000 35.180505 35.180505 35.180505 35.180505 35.180505 35.180505 35.180505 35.180505 35.180505 35.180505 35.180505 35.180505 35.180505 0.000000 0.000000 0.000000 0.000000 0.000000 0.000000 0.000000 0.000000 0.000000 0.000000 0.000000 0.000000 0.000000 0.000000 0.000000 0.000000 0.000000 0.000000 0.000000 0.000000 0.000000 0.000000 0.000000 0.000000 0.000000 0.000000 30.090418 30.090418 30.090418 30.090418 30.090418 30.090418 30.090418 30.090418 0.000000 0.000000 0.000000 0.000000 0.000000 0.000000 0.000000 0.000000 0.000000 0.000000 0.000000 0.000000 0.000000 0.000000 0.000000 0.000000
0.000000 0.000000 0.000000 0.000000 0.000000 0.000000 12.239379 12.239379 12.239379 0.000000 0.000000 0.000000 0.000000 0.000000 0.000000 0.000000 0.000000 0.000000 21.537090 21.537090 21.537090 21.537090 21.537090 21.537090 21.537090 21.537090 0.000000 0.000000 0.000000 0.000000 20.276257 20.276257 20.276257 20.276257 20.276257 20.276257 20.276257 0.000000 0.000000 0.000000 35.180505 35.180505 35.180505 35.180505 35.180505 35.180505 35.180505 35.180505 35.180505 35.180505 35.180505 35.180505 35.180505 0.000000 0.000000 0.000000 0.000000 0.000000 0.000000 0.000000 0.000000 0.000000 0.000000 0.000000 0.000000 0.000000 0.000000 0.000000 0.000000 0.000000 0.000000 0.000000 0.000000 0.000000 0.000000 0.000000 0.000000 0.000000 0.000000 30.090418 30.090418 30.090418 30.090418 30.090418 30.090418 30.090418 30.090418 0.000000 0.000000 0.000000 0.000000 0.000000 0.000000 0.000000 0.000000 0.000000 0.000000 0.000000 0.000000 0.000000 0.000000 0.000000 0.000000
0.000000 0.000000 0.000000 0.000000 0.000000 0.000000 12.239379 12.239379 12.239379 0.000000 0.000000 0.000000 0.000000 0.000000 0.000000 0.000000 0.000000 0.000000 21.537090 21.537090 21.537090 21.537090 21.537090 21.537090 21.537090 21.537090 0.000000 0.000000 0.000000 0.000000 20.276257 20.276257 20.276257 20.276257 20.276257 20.276257 20.276257 0.000000 0.000000 0.000000 35.180505 35.180505 35.180505 35.180505 35.180505 35.180505 35.180505 35.180505 35.180505 35.180505 35.180505 35.180505 35.180505 0.000000 0.000000 0.000000 0.000000 0.000000 0.000000 0.000000 0.000000 0.000000 0.000000 0.000000 0.000000 0.000000 0.000000 0.000000 0.000000 0.000000 0.000000 0.000000 0.000000 0.000000 0.000000 0.000000 0.000000 0.000000 0.000000 30.090418 30.090418 30.090418 30.090418 30.090418 30.090418 30.090418 30.090418 0.000000 0.000000 0.000000 0.000000 0.000000 0.000000 0.000000 0.000000 0.000000 0.000000 0.000000 0.000000 0.000000 0.000000 0.000000 0.000000
0.000000 0.000000 0.000000 0.000000 0.000000 0.000000 12.239379 12.239379 12.239379 0.000000 0.000000 0.000000 0.000000 0.000000 0.000000 0.000000 0.000000 0.000000 21.537090 21.537090 21.537090 21.537090 21.537090 21.537090 21.537090 21.537090 0.000000 0.000000 0.000000 0.000000 20.276257 20.276257 20.276257 20.276257 20.276257 20.276257 20.276257 0.000000 0.000000 0.000000 35.180505 35.180505 35.180505 35.180505 35.180505 35.180505 35.180505 35.180505 35.180505 35.180505 35.180505 35.180505 35.180505 0.000000 0.000000 0.000000 0.000000 0.000000 0.000000 0.000000 0.000000 0.000000 0.000000 0.000000 0.000000 0.000000 0.000000 0.000000 0.000000 0.000000 0.000000 0.000000 0.000000 0.000000 0.000000 0.000000 0.000000 0.000000 0.000000 30.090418 30.090418 30.090418 30.090418 30.090418 30.090418 30.090418 30.090418 0.000000 0.000000 0.000000 0.000000 0.000000 0.000000 0.000000 0.000000 0.000000 0.000000 0.000000 0.000000 0.000000 0.000000 0.000000 0.000000
0.000000 0.000000 0.000000 0.000000 0.000000 0.000000 12.239379 12.239379 12.239379 0.000000 0.000000 0.000000 0.000000 0.000000 0.000000 0.000000 0.000000 0.000000 21.537090 21.537090 21.537090 21.537090 21.537090 21.537090 21.537090 21.537090 0.000000 0.000000 0.000000 0.000000 20.276257 20.276257 20.276257 20.276257 20.276257 20.276257 20.276257 0.000000 0.000000 0.000000 35.180505 35.180505 35.180505 35.180505 35.180505 35.180505 35.180505 35.180505 35.180505 35.180505 35.180505 35.180505 35.180505 0.000000 0.000000 0.000000 0.000000 0.000000 0.000000 0.000000 0.000000 0.000000 0.000000 0.000000 0.000000 0.000000 0.000000 0.000000 0.000000 0.000000 0.000000 0.000000 0.000000 0.000000 0.000000 0.000000 0.000000 0.000000 0.000000 30.090418 30.090418 30.090418 30.090418 30.090418 30.090418 30.090418 30.090418 0.000000 0.000000 0.000000 0.000000 0.000000 0.000000 0.000000 0.000000 0.000000 0.000000 0.000000 0.000000 0.000000 0.000000 0.000000 0.000000
0.000000 0.000000 0.000000 0.000000 0.000000 0.000000 0.000000 0.000000 0.000000 0.000000 0.000000 0.000000 0.000000 0.000000 0.000000 0.000000 0.000000 0.000000 0.000000 0.000000 0.000000 0.000000 0.000000 0.000000 0.000000 0.000000 0.000000 0.000000 0.000000 0.000000 0.000000 0.000000 0.000000 0.000000 0.000000 0.000000 0.000000 0.000000 0.000000 0.000000 0.000000 0.000000 0.000000 0.000000 0.000000 0.000000 0.000000 0.000000 0.000000 0.000000 0.000000 0.000000 0.000000 0.000000 0.000000 0.000000 0.000000 0.000000 0.000000 0.000000 0.000000 0.000000 0.000000 0.000000 0.000000 0.000000 0.000000 0.000000 0.000000 0.000000 0.000000 0.000000 0.000000 0.000000 0.000000 0.000000 0.000000 0.000000 0.000000 0.000000 0.000000 0.000000 0.000000 0.000000 0.000000 0.000000 0.000000 0.000000 0.000000 0.000000 0.000000 0.000000 0.000000 0.000000 0.000000 0.000000 0.000000 0.000000 0.000000 0.000000 0.000000 0.000000 0.000000
0.000000 0.000000 0.000000 0.000000 0.000000 0.000000 0.000000 0.000000 0.000000 0.000000 0.000000 0.000000 0.000000 0.000000 0.000000 0.000000 0.000000 0.000000 0.000000 0.000000 0.000000 0.000000 0.000000 0.000000 0.000000 0.000000 0.000000 0.000000 0.000000 0.000000 0.000000 0.000000 0.000000 0.000000 0.000000 0.000000 0.000000 0.000000 0.000000 0.000000 0.000000 0.000000 0.000000 0.000000 0.000000 0.000000 0.000000 0.000000 0.000000 0.000000 0.000000 0.000000 0.000000 0.000000 0.000000 0.000000 0.000000 0.000000 0.000000 0.000000 0.000000 0.000000 0.000000 0.000000 0.000000 0.000000 0.000000 0.000000 0.000000 0.000000 0.000000 0.000000 0.000000 0.000000 0.000000 0.000000 0.000000 0.000000 0.000000 0.000000 0.000000 0.000000 0.000000 0.000000 0.000000 0.000000 0.000000 0.000000 0.000000 0.000000 0.000000 0.000000 0.000000 0.000000 0.000000 0.000000 0.000000 0.000000 0.000000 0.000000 0.000000 0.000000 0.000000
0.000000 0.000000 0.000000 0.000000 0.000000 0.000000 0.000000 0.000000 0.000000 0.000000 0.000000 0.000000 0.000000 0.000000 0.000000 0.000000 0.000000 0.000000 0.000000 0.000000 0.000000 0.000000 0.000000 0.000000 0.000000 0.000000 0.000000 0.000000 0.000000 0.000000 0.000000 0.000000 0.000000 0.000000 0.000000 0.000000 0.000000 0.000000 0.000000 0.000000 0.000000 0.000000 0.000000 0.000000 0.000000 0.000000 0.000000 0.000000 0.000000 0.000000 0.000000 0.000000 0.000000 0.000000 0.000000 0.000000 0.000000 0.000000 0.000000 0.000000 0.000000 0.000000 0.000000 0.000000 0.000000 0.000000 0.000000 0.000000 0.000000 0.000000 0.000000 0.000000 0.000000 0.000000 0.000000 0.000000 0.000000 0.000000 0.000000 0.000000 0.000000 0.000000 0.000000 0.000000 0.000000 0.000000 0.000000 0.000000 0.000000 0.000000 0.000000 0.000000 0.000000 0.000000 0.000000 0.000000 0.000000 0.000000 0.000000 0.000000 0.000000 0.000000 0.000000
0.000000 0.000000 0.000000 0.000000 0.000000 0.000000 0.000000 0.000000 0.000000 0.000000 0.000000 0.000000 0.000000 0.000000 0.000000 0.000000 0.000000 0.000000 0.000000 0.000000 0.000000 0.000000 0.000000 0.000000 0.000000 0.000000 0.000000 0.000000 0.000000 0.000000 0.000000 0.000000 0.000000 0.000000 0.000000 0.000000 0.000000 0.000000 0.000000 0.000000 0.000000 0.000000 0.000000 0.000000 0.000000 0.000000 0.000000 0.000000 0.000000 0.000000 0.000000 0.000000 0.000000 0.000000 0.000000 0.000000 0.000000 0.000000 0.000000 0.000000 0.000000 0.000000 0.000000 0.000000 0.000000 0.000000 0.000000 0.000000 0.000000 0.000000 0.000000 0.000000 0.000000 0.000000 0.000000 0.000000 0.000000 0.000000 0.000000 0.000000 0.000000 0.000000 0.000000 0.000000 0.000000 0.000000 0.000000 0.000000 0.000000 0.000000 0.000000 0.000000 0.000000 0.000000 0.000000 0.000000 0.000000 0.000000 0.000000 0.000000 0.000000 0.000000 0.000000
0.000000 0.000000 0.000000 0.000000 0.000000 0.000000 0.000000 0.000000 0.000000 0.000000 0.000000 0.000000 0.000000 0.000000 0.000000 0.000000 0.000000 0.000000 0.000000 0.000000 0.000000 0.000000 0.000000 0.000000 0.000000 0.000000 0.000000 0.000000 0.000000 0.000000 0.000000 0.000000 0.000000 0.000000 0.000000 0.000000 0.000000 0.000000 0.000000 0.000000 0.000000 0.000000 0.000000 0.000000 0.000000 0.000000 0.000000 0.000000 0.000000 0.000000 0.000000 0.000000 0.000000 0.000000 0.000000 0.000000 0.000000 0.000000 0.000000 0.000000 0.000000 0.000000 0.000000 0.000000 0.000000 0.000000 0.000000 0.000000 0.000000 0.000000 0.000000 0.000000 0.000000 0.000000 0.000000 0.000000 0.000000 0.000000 0.000000 0.000000 0.000000 0.000000 0.000000 0.000000 0.000000 0.000000 0.000000 0.000000 0.000000 0.000000 0.000000 0.000000 0.000000 0.000000 0.000000 0.000000 0.000000 0.000000 0.000000 0.000000 0.000000 0.000000 0.000000
0.000000 0.000000 0.000000 0.000000 0.000000 0.000000 0.000000 0.000000 0.000000 0.000000 0.000000 0.000000 0.000000 0.000000 0.000000 0.000000 0.000000 0.000000 0.000000 0.000000 0.000000 0.000000 0.000000 0.000000 0.000000 0.000000 0.000000 0.000000 0.000000 0.000000 0.000000 0.000000 0.000000 0.000000 0.000000 0.000000 0.000000 0.000000 0.000000 0.000000 0.000000 0.000000 0.000000 0.000000 0.000000 0.000000 0.000000 0.000000 0.000000 0.000000 0.000000 0.000000 0.000000 0.000000 0.000000 0.000000 0.000000 0.000000 0.000000 0.000000 0.000000 0.000000 0.000000 0.000000 0.000000 0.000000 0.000000 0.000000 0.000000 0.000000 0.000000 0.000000 0.000000 0.000000 0.000000 0.000000 0.000000 0.000000 0.000000 0.000000 0.000000 0.000000 0.000000 0.000000 0.000000 0.000000 0.000000 0.000000 0.000000 0.000000 0.000000 0.000000 0.000000 0.000000 0.000000 0.000000 0.000000 0.000000 0.000000 0.000000 0.000000 0.000000 0.000000
0.000000 0.000000 0.000000 0.000000 0.000000 0.000000 0.000000 0.000000 0.000000 0.000000 0.000000 0.000000 0.000000 0.000000 0.000000 0.000000 0.000000 0.000000 0.000000 0.000000 0.000000 0.000000 0.000000 0.000000 0.000000 0.000000 0.000000 0.000000 0.000000 0.000000 0.000000 0.000000 0.000000 0.000000 0.000000 0.000000 0.000000 0.000000 0.000000 0.000000 0.000000 0.000000 0.000000 0.000000 0.000000 0.000000 0.000000 0.000000 0.000000 0.000000 0.000000 0.000000 0.000000 0.000000 0.000000 0.000000 0.000000 0.000000 0.000000 0.000000 0.000000 0.000000 0.000000 0.000000 0.000000 0.000000 0.000000 0.000000 0.000000 0.000000 0.000000 0.000000 0.000000 0.000000 0.000000 0.000000 0.000000 0.000000 0.000000 0.000000 0.000000 0.000000 0.000000 0.000000 0.000000 0.000000 0.000000 0.000000 0.000000 0.000000 0.000000 0.000000 0.000000 0.000000 0.000000 0.000000 0.000000 0.000000 0.000000 0.000000 0.000000 0.000000 0.000000
0.000000 0.000000 0.000000 0.000000 0.000000 0.000000 0.000000 0.000000 0.000000 0.000000 0.000000 0.000000 0.000000 0.000000 0.000000 0.000000 12.651143 12.651143 12.651143 12.651143 12.651143 12.651143 12.651143 16.580510 16.580510 16.580510 16.580510 16.580510 16.580510 16.580510 16.580510 48.604058 48.604058 48.604058 48.604058 48.604058 48.604058 48.604058 48.604058 48.604058 48.604058 48.604058 48.604058 48.604058 48.604058 48.604058 48.604058 48.604058 48.604058 48.604058 48.604058 48.604058 48.604058 48.604058 48.604058 0.000000 0.000000 0.000000 0.000000 0.000000 24.759226 24.759226 24.759226 24.759226 24.759226 24.759226 24.759226 24.759226 24.759226 24.759226 24.759226 24.759226 0.000000 0.000000 0.000000 0.000000 0.000000 12.662857 12.662857 12.662857 12.662857 12.662857 12.662857 12.739977 12.739977 12.739977 12.739977 12.739977 12.739977 12.739977 0.000000 0.000000 0.000000 0.000000 0.000000 0.000000 0.000000 0.000000 0.000000 0.000000 0.000000 0.000000 0.000000
0.000000 0.000000 0.000000 0.000000 0.000000 0.000000 0.000000 0.000000 0.000000 0.000000 0.000000 0.000000 0.000000 0.000000 0.000000 0.000000 12.651143 12.651143 12.651143 12.651143 12.651143 12.651143 12.651143 16.580510 16.580510 16.580510 16.580510 16.580510 16.580510 16.580510 16.580510 48.604058 48.604058 48.604058 48.604058 48.604058 48.604058 48.604058 48.604058 48.604058 48.604058 48.604058 48.604058 48.604058 48.604058 48.604058 48.604058 48.604058 48.604058 48.604058 48.604058 48.604058 48.604058 48.604058 48.604058 0.000000 0.000000 0.000000 0.000000 0.000000 24.759226 24.759226 24.759226 24.759226 24.759226 24.759226 24.759226 24.759226 24.759226 24.759226 24.759226 24.759226 0.000000 0.000000 0.000000 0.000000 0.000000 12.662857 12.662857 12.662857 12.662857 12.662857 12.662857 12.739977 12.739977 12.739977 12.739977 12.739977 12.739977 12.739977 0.000000 0.000000 0.000000 0.000000 0.000000 0.000000 0.000000 0.000000 0.000000 0.000000 0.000000 0.000000 0.000000
0.000000 0.000000 0.000000 0.000000 0.000000 0.000000 0.000000 0.000000 0.000000 0.000000 0.000000 0.000000 0.000000 0.000000 0.000000 0.000000 12.651143 12.651143 12.651143 12.651143 12.651143 12.651143 12.651143 16.580510 16.580510 16.580510 16.580510 16.580510 16.580510 16.580510 16.580510 48.604058 48.604058 48.604058 48.604058 48.604058 48.604058 48.604058 48.604058 48.604058 48.604058 48.604058 48.604058 48.604058 48.604058 48.604058 48.604058 48.604058 48.604058 48.604058 48.604058 48.604058 48.604058 48.604058 48.604058 0.000000 0.000000 0.000000 0.000000 0.000000 24.759226 24.759226 24.759226 24.759226 24.759226 24.759226 24.759226 24.759226 24.759226 24.759226 24.759226 24.759226 0.000000 0.000000 0.000000 0.000000 0.000000 12.662857 12.662857 12.662857 12.662857 12.662857 12.662857 12.739977 12.739977 12.739977 12.739977 12.739977 12.739977 12.739977 0.000000 0.000000 0.000000 0.000000 0.000000 0.000000 0.000000 0.000000 0.000000 0.000000 0.000000 0.000000 0.000000
0.000000 0.000000 0.000000 0.000000 0.000000 0.000000 0.000000 0.000000 0.000000 0.000000 0.000000 0.000000 0.000000 0.000000 0.000000 0.000000 12.651143 12.651143 12.651143 12.651143 12.651143 12.651143 12.651143 16.580510 16.580510 16.580510 16.580510 16.580510 16.580510 16.580510 16.580510 48.604058 48.604058 48.604058 48.604058 48.604058 48.604058 48.604058 48.604058 48.604058 48.604058 48.604058 48.604058 48.604058 48.604058 48.604058 48.604058 48.604058 48.604058 48.604058 48.604058 48.604058 48.604058 48.604058 48.604058 0.000000 0.000000 0.000000 0.000000 0.000000 24.759226 24.759226 24.759226 24.759226 24.759226 24.759226 24.759226 24.759226 24.759226 24.759226 24.759226 24.759226 0.000000 0.000000 0.000000 0.000000 0.000000 12.662857 12.662857 12.662857 12.662857 12.662857 12.662857 12.739977 12.739977 12.739977 12.739977 12.739977 12.739977 12.739977 0.000000 0.000000 0.000000 0.000000 0.000000 0.000000 0.000000 0.000000 0.000000 0.000000 0.000000 0.000000 0.000000
0.000000 0.000000 0.000000 0.000000 0.000000 0.000000 0.000000 0.000000 0.000000 0.000000 0.000000 0.000000 0.000000 0.000000 0.000000 0.000000 12.651143 12.651143 12.651143 12.651143 12.651143 12.651143 12.651143 16.580510 16.580510 16.580510 16.580510 16.580510 16.580510 16.580510 16.580510 48.604058 48.604058 48.604058 48.604058 48.604058 48.604058 48.604058 48.604058 48.604058 48.604058 48.604058 48.604058 48.604058 48.604058 48.604058 48.604058 48.604058 48.604058 48.604058 48.604058 48.604058 48.604058 48.604058 48.604058 0.000000 0.000000 0.000000 0.000000 0.000000 24.759226 24.759226 24.759226 24.759226 24.759226 24.759226 24.759226 24.759226 24.759226 24.759226 24.759226 24.759226 0.000000 0.000000 0.000000 0.000000 0.000000 12.662857 12.662857 12.662857 12.662857 12.662857 12.662857 12.739977 12.739977 12.739977 12.739977 12.739977 12.739977 12.739977 0.000000 0.000000 0.000000 0.000000 0.000000 0.000000 0.000000 0.000000 0.000000 0.000000 0.000000 0.000000 0.000000
0.000000 0.000000 0.000000 0.000000 0.000000 0.000000 0.000000 0.000000 0.000000 0.000000 0.000000 0.000000 0.000000 0.000000 0.000000 0.000000 12.651143 12.651143 12.651143 12.651143 12.651143 12.651143 12.651143 16.580510 16.580510 16.580510 16.580510 16.580510 16.580510 16.580510 16.580510 48.604058 48.604058 48.604058 48.604058 48.604058 48.604058 48.604058 48.604058 48.604058 48.604058 48.604058 48.604058 48.604058 48.604058 48.604058 48.604058 48.604058 48.604058 48.604058 48.604058 48.604058 48.604058 48.604058 48.604058 0.000000 0.000000 0.000000 0.000000 0.000000 24.759226 24.759226 24.759226 24.759226 24.759226 24.759226 24.759226 24.759226 24.759226 24.759226 24.759226 24.759226 0.000000 0.000000 0.000000 0.000000 0.000000 12.662857 12.662857 12.662857 12.662857 12.662857 12.662857 12.739977 12.739977 12.739977 12.739977 12.739977 12.739977 12.739977 0.000000 0.000000 0.000000 0.000000 0.000000 0.000000 0.000000 0.000000 0.000000 0.000000 0.000000 0.000000 0.000000
0.000000 0.000000 0.000000 0.000000 0.000000 0.000000 0.000000 0.000000 0.000000 0.000000 0.000000 0.000000 0.000000 0.000000 0.000000 0.000000 12.651143 12.651143 12.651143 12.651143 12.651143 12.651143 12.651143 16.580510 16.580510 16.580510 16.580510 16.580510 16.580510 16.580510 16.580510 48.604058 48.604058 48.604058 48.604058 48.604058 48.604058 48.604058 48.604058 48.604058 48.604058 48.604058 48.604058 48.604058 48.604058 48.604058 48.604058 48.604058 48.604058 48.604058 48.604058 48.604058 48.604058 48.604058 48.604058 0.000000 0.000000 0.000000 0.000000 0.000000 24.759226 24.759226 24.759226 24.759226 24.759226 24.759226 24.759226 24.759226 24.759226 24.759226 24.759226 24.759226 0.000000 0.000000 0.000000 0.000000 0.000000 12.662857 12.662857 12.662857 12.662857 12.662857 12.662857 12.739977 12.739977 12.739977 12.739977 12.739977 12.739977 12.739977 0.000000 0.000000 0.000000 0.000000 0.000000 0.000000 0.000000 0.000000 0.000000 0.000000 0.000000 0.000000 0.000000
0.000000 0.000000 0.000000 0.000000 0.000000 0.000000 0.000000 0.000000 0.000000 0.000000 0.000000 0.000000 0.000000 0.000000 0.000000 0.000000 12.651143 12.651143 12.651143 12.651143 12.651143 12.651143 12.651143 16.580510 16.580510 16.580510 16.580510 16.580510 16.580510 16.580510 16.580510 48.604058 48.604058 48.604058 48.604058 48.604058 48.604058 48.604058 48.604058 48.604058 48.604058 48.604058 48.604058 48.604058 48.604058 48.604058 48.604058 48.604058 48.604058 48.604058 48.604058 48.604058 48.604058 48.604058 48.604058 0.000000 0.000000 0.000000 0.000000 0.000000 24.759226 24.759226 24.759226 24.759226 24.759226 24.759226 24.759226 24.759226 24.759226 24.759226 24.759226 24.759226 0.000000 0.000000 0.000000 0.000000 0.000000 12.662857 12.662857 12.662857 12.662857 12.662857 12.662857 12.739977 12.739977 12.739977 12.739977 12.739977 12.739977 12.739977 0.000000 0.000000 0.000000 0.000000 0.000000 0.000000 0.000000 0.000000 0.000000 0.000000 0.000000 0.000000 0.000000
0.000000 0.000000 0.000000 0.000000 0.000000 0.000000 0.000000 0.000000 0.000000 0.000000 0.000000 0.000000 0.000000 0.000000 0.000000 0.000000 0.000000 0.000000 0.000000 0.000000 0.000000 0.000000 0.000000 0.000000 0.000000 0.000000 0.000000 0.000000 0.000000 0.000000 0.000000 0.000000 0.000000 0.000000 0.000000 0.000000 0.000000 0.000000 0.000000 0.000000 0.000000 0.000000 0.000000 0.000000 0.000000 0.000000 0.000000 0.000000 0.000000 0.000000 0.000000 0.000000 0.000000 0.000000 0.000000 0.000000 0.000000 0.000000 0.000000 0.000000 0.000000 0.000000 0.000000 0.000000 0.000000 0.000000 0.000000 0.000000 0.000000 0.000000 0.000000 0.000000 0.000000 0.000000 0.000000 0.000000 0.000000 0.000000 0.000000 0.000000 0.000000 0.000000 0.000000 0.000000 0.000000 0.000000 0.000000 0.000000 0.000000 0.000000 0.000000 0.000000 0.000000 0.000000 0.000000 0.000000 0.000000 0.000000 0.000000 0.000000 0.000000 0.000000 0.000000
0.000000 0.000000 0.000000 0.000000 0.000000 0.000000 0.000000 0.000000 0.000000 0.000000 0.000000 0.000000 0.000000 0.000000 0.000000 0.000000 0.000000 0.000000 0.000000 0.000000 0.000000 0.000000 0.000000 0.000000 0.000000 0.000000 0.000000 0.000000 0.000000 0.000000 0.000000 0.000000 0.000000 0.000000 0.000000 0.000000 0.000000 0.000000 0.000000 0.000000 0.000000 0.000000 0.000000 0.000000 0.000000 0.000000 0.000000 0.000000 0.000000 0.000000 0.000000 0.000000 0.000000 0.000000 0.000000 0.000000 0.000000 0.000000 0.000000 0.000000 0.000000 0.000000 0.000000 0.000000 0.000000 0.000000 0.000000 0.000000 0.000000 0.000000 0.000000 0.000000 0.000000 0.000000 0.000000 0.000000 0.000000 0.000000 0.000000 0.000000 0.000000 0.000000 0.000000 0.000000 0.000000 0.000000 0.000000 0.000000 0.000000 0.000000 0.000000 0.000000 0.000000 0.000000 0.000000 0.000000 0.000000 0.000000 0.000000 0.000000 0.000000 0.000000 0.000000
0.000000 0.000000 0.000000 0.000000 0.000000 0.000000 0.000000 0.000000 0.000000 0.000000 0.000000 0.000000 0.000000 0.000000 0.000000 0.000000 0.000000 0.000000 0.000000 0.000000 0.000000 0.000000 0.000000 0.000000 0.000000 0.000000 0.000000 0.000000 0.000000 0.000000 0.000000 0.000000 0.000000 0.000000 0.000000 0.000000 0.000000 0.000000 0.000000 0.000000 0.000000 0.000000 0.000000 0.000000 0.000000 0.000000 0.000000 0.000000 0.000000 0.000000 0.000000 0.000000 0.000000 0.000000 0.000000 0.000000 0.000000 0.000000 0.000000 0.000000 0.000000 0.000000 0.000000 0.000000 0.000000 0.000000 0.000000 0.000000 0.000000 0.000000 0.000000 0.000000 0.000000 0.000000 0.000000 0.000000 0.000000 0.000000 0.000000 0.000000 0.000000 0.000000 0.000000 0.000000 0.000000 0.000000 0.000000 0.000000 0.000000 0.000000 0.000000 0.000000 0.000000 0.000000 0.000000 0.000000 0.000000 0.000000 0.000000 0.000000 0.000000 0.000000 0.000000
0.000000 0.000000 0.000000 0.000000 0.000000 0.000000 0.000000 0.000000 0.000000 0.000000 0.000000 0.000000 0.000000 0.000000 0.000000 0.000000 0.000000 0.000000 0.000000 0.000000 0.000000 0.000000 0.000000 0.000000 0.000000 0.000000 0.000000 0.000000 0.000000 0.000000 0.000000 0.000000 0.000000 0.000000 0.000000 0.000000 0.000000 0.000000 0.000000 0.000000 0.000000 0.000000 0.000000 0.000000 0.000000 0.000000 0.000000 0.000000 0.000000 0.000000 0.000000 0.000000 0.000000 0.000000 0.000000 0.000000 0.000000 0.000000 0.000000 0.000000 0.000000 0.000000 0.000000 0.000000 0.000000 0.000000 0.000000 0.000000 0.000000 0.000000 0.000000 0.000000 0.000000 0.000000 0.000000 0.000000 0.000000 0.000000 0.000000 0.000000 0.000000 0.000000 0.000000 0.000000 0.000000 0.000000 0.000000 0.000000 0.000000 0.000000 0.000000 0.000000 0.000000 0.000000 0.000000 0.000000 0.000000 0.000000 0.000000 0.000000 0.000000 0.000000 0.000000
0.000000 0.000000 0.000000 0.000000 0.000000 0.000000 0.000000 0.000000 0.000000 0.000000 0.000000 0.000000 0.000000 0.000000 0.000000 0.000000 0.000000 0.000000 0.000000 0.000000 0.000000 0.000000 0.000000 0.000000 0.000000 0.000000 0.000000 0.000000 0.000000 0.000000 0.000000 0.000000 0.000000 0.000000 0.000000 0.000000 0.000000 0.000000 0.000000 0.000000 0.000000 0.000000 0.000000 0.000000 0.000000 0.000000 0.000000 0.000000 0.000000 0.000000 0.000000 0.000000 0.000000 0.000000 0.000000 0.000000 0.000000 0.000000 0.000000 0.000000 0.000000 0.000000 0.000000 0.000000 0.000000 0.000000 0.000000 0.000000 0.000000 0.000000 0.000000 0.000000 0.000000 0.000000 0.000000 0.000000 0.000000 0.000000 0.000000 0.000000 0.000000 0.000000 0.000000 0.000000 0.000000 0.000000 0.000000 0.000000 0.000000 0.000000 0.000000 0.000000 0.000000 0.000000 0.000000 0.000000 0.000000 0.000000 0.000000 0.000000 0.000000 0.000000 0.000000
0.000000 0.000000 0.000000 0.000000 0.000000 0.000000 0.000000 0.000000 0.000000 0.000000 0.000000 0.000000 0.000000 0.000000 0.000000 0.000000 0.000000 0.000000 0.000000 0.000000 0.000000 0.000000 0.000000 0.000000 0.000000 0.000000 0.000000 0.000000 0.000000 0.000000 0.000000 0.000000 0.000000 0.000000 0.000000 0.000000 0.000000 0.000000 0.000000 0.000000 0.000000 0.000000 0.000000 0.000000 0.000000 0.000000 0.000000 0.000000 0.000000 0.000000 0.000000 0.000000 0.000000 0.000000 0.000000 0.000000 0.000000 0.000000 0.000000 0.000000 0.000000 0.000000 0.000000 0.000000 0.000000 0.000000 0.000000 0.000000 0.000000 0.000000 0.000000 0.000000 0.000000 0.000000 0.000000 0.000000 0.000000 17.330327 17.330327 17.330327 17.330327 17.330327 17.330327 17.330327 17.330327 0.000000 0.000000 0.000000 0.000000 0.000000 0.000000 0.000000 0.000000 0.000000 0.000000 0.000000 0.000000 0.000000 0.000000 0.000000 0.000000 0.000000 0.000000
0.000000 0.000000 0.000000 0.000000 0.000000 0.000000 0.000000 0.000000 0.000000 0.000000 0.000000 0.000000 0.000000 0.000000 0.000000 0.000000 0.000000 0.000000 0.000000 0.000000 0.000000 0.000000 0.000000 0.000000 0.000000 0.000000 0.000000 0.000000 0.000000 0.000000 0.000000 0.000000 0.000000 0.000000 0.000000 0.000000 0.000000 0.000000 0.000000 0.000000 0.000000 0.000000 0.000000 0.000000 0.000000 0.000000 0.000000 0.000000 0.000000 0.000000 0.000000 0.000000 0.000000 0.000000 0.000000 0.000000 0.000000 0.000000 0.000000 0.000000 0.000000 0.000000 0.000000 0.000000 0.000000 0.000000 0.000000 0.000000 0.000000 0.000000 0.000000 0.000000 0.000000 0.000000 0.000000 0.000000 0.000000 17.330327 17.330327 17.330327 17.330327 17.330327 17.330327 17.330327 17.330327 0.000000 0.000000 0.000000 0.000000 0.000000 0.000000 0.000000 0.000000 0.000000 0.000000 0.000000 0.000000 0.000000 0.000000 0.000000 0.000000 0.000000 0.000000
0.000000 0.000000 0.000000 0.000000 0.000000 0.000000 0.000000 0.000000 0.000000 0.000000 0.000000 0.000000 0.000000 0.000000 0.000000 0.000000 0.000000 0.000000 3.490340 3.490340 3.490340 3.490340 3.490340 3.490340 0.000000 0.000000 0.000000 0.000000 1.864274 1.864274 1.864274 0.000000 0.000000 0.000000 0.000000 0.000000 0.000000 0.000000 0.000000 0.000000 0.000000 0.000000 0.000000 0.000000 0.000000 0.000000 0.000000 0.000000 0.000000 0.000000 0.000000 0.000000 0.000000 0.000000 0.000000 0.000000 0.000000 0.000000 0.000000 0.000000 0.000000 0.000000 0.000000 0.000000 0.000000 0.000000 0.000000 0.000000 0.000000 0.000000 0.000000 0.000000 0.000000 0.000000 0.000000 0.000000 0.000000 17.330327 17.330327 17.330327 17.330327 17.330327 17.330327 17.330327 17.330327 0.000000 0.000000 0.000000 0.000000 0.000000 0.000000 0.000000 0.000000 0.000000 0.000000 0.000000 0.000000 0.000000 0.000000 0.000000 0.000000 0.000000 0.000000
0.000000 0.000000 0.000000 0.000000 0.000000 0.000000 0.000000 0.000000 0.000000 0.000000 0.000000 0.000000 0.000000 0.000000 0.000000 0.000000 0.000000 0.000000 3.490340 3.490340 3.490340 3.490340 3.490340 3.490340 0.000000 0.000000 0.000000 0.000000 1.864274 1.864274 1.864274 0.000000 0.000000 0.000000 0.000000 0.000000 0.000000 0.000000 0.000000 0.000000 0.000000 0.000000 0.000000 0.000000 0.000000 0.000000 0.000000 0.000000 0.000000 0.000000 0.000000 0.000000 0.000000 0.000000 0.000000 0.000000 0.000000 0.000000 0.000000 0.000000 0.000000 0.000000 0.000000 0.000000 0.000000 0.000000 0.000000 0.000000 0.000000 0.000000 0.000000 0.000000 0.000000 0.000000 0.000000 0.000000 0.000000 17.330327 17.330327 17.330327 17.330327 17.330327 17.330327 17.330327 17.330327 0.000000 0.000000 0.000000 0.000000 0.000000 0.000000 0.000000 0.000000 0.000000 0.000000 0.000000 0.000000 0.000000 0.000000 0.000000 0.000000 0.000000 0.000000
0.000000 0.000000 0.000000 0.000000 0.000000 0.000000 0.000000 0.000000 0.000000 0.000000 0.000000 0.000000 0.000000 0.000000 0.000000 0.000000 0.000000 0.000000 3.490340 3.490340 3.490340 3.490340 3.490340 3.490340 0.000000 0.000000 0.000000 0.000000 1.864274 1.864274 1.864274 0.000000 0.000000 0.000000 0.000000 0.000000 0.000000 0.000000 0.000000 0.000000 0.000000 0.000000 0.000000 0.000000 0.000000 0.000000 0.000000 0.000000 0.000000 0.000000 0.000000 0.000000 0.000000 0.000000 0.000000 0.000000 0.000000 0.000000 0.000000 0.000000 0.000000 0.000000 0.000000 0.000000 0.000000 0.000000 0.000000 0.000000 0.000000 0.000000 0.000000 0.000000 0.000000 0.000000 0.000000 0.000000 0.000000 17.330327 17.330327 17.330327 17.330327 17.330327 17.330327 17.330327 17.330327 0.000000 0.000000 0.000000 0.000000 0.000000 0.000000 0.000000 0.000000 0.000000 0.000000 0.000000 0.000000 0.000000 0.000000 0.000000 0.000000 0.000000 0.000000
0.000000 0.000000 0.000000 0.000000 0.000000 0.000000 0.000000 0.000000 0.000000 0.000000 0.000000 0.000000 0.000000 0.000000 0.000000 0.000000 0.000000 0.000000 0.000000 0.000000 0.000000 0.000000 0.000000 0.000000 0.000000 0.000000 0.000000 0.000000 0.000000 0.000000 0.000000 0.000000 0.000000 0.000000 0.000000 0.000000 0.000000 0.000000 0.000000 0.000000 0.000000 0.000000 0.000000 0.000000 0.000000 0.000000 0.000000 0.000000 0.000000 0.000000 0.000000 0.000000 0.000000 0.000000 0.000000 0.000000 0.000000 0.000000 0.000000 0.000000 0.000000 0.000000 0.000000 0.000000 0.000000 0.000000 0.000000 0.000000 0.000000 0.000000 0.000000 0.000000 0.000000 0.000000 0.000000 0.000000 0.000000 17.330327 17.330327 17.330327 17.330327 17.330327 17.330327 17.330327 17.330327 0.000000 0.000000 0.000000 0.000000 0.000000 0.000000 0.000000 0.000000 0.000000 0.000000 0.000000 0.000000 0.000000 0.000000 0.000000 0.000000 0.000000 0.000000
0.000000 0.000000 0.000000 0.000000 0.000000 0.000000 0.000000 0.000000 0.000000 0.000000 0.000000 0.000000 0.000000 0.000000 0.000000 0.000000 15.123313 15.123313 15.123313 15.123313 15.123313 15.123313 15.123313 15.123313 15.123313 15.123313 10.874263 10.874263 10.874263 10.874263 10.874263 10.874263 10.874263 0.000000 0.000000 0.000000 0.000000 0.000000 0.000000 0.000000 0.000000 0.000000 0.000000 0.000000 0.000000 0.000000 0.000000 0.000000 0.000000 0.000000 0.000000 0.000000 0.000000 0.000000 0.000000 0.000000 0.000000 0.000000 0.000000 0.000000 0.000000 0.000000 0.000000 0.000000 0.000000 0.000000 0.000000 0.000000 0.000000 0.000000 0.000000 0.000000 0.000000 0.000000 0.000000 0.000000 0.000000 17.330327 17.330327 17.330327 17.330327 17.330327 17.330327 17.330327 17.330327 0.000000 0.000000 0.000000 0.000000 0.000000 0.000000 0.000000 0.000000 0.000000 0.000000 0.000000 0.000000 0.000000 0.000000 0.000000 0.000000 0.000000 0.000000
0.000000 0.000000 0.000000 0.000000 0.000000 0.000000 0.000000 0.000000 0.000000 0.000000 0.000000 0.000000 0.000000 0.000000 0.000000 0.000000 15.123313 15.123313 15.123313 15.123313 15.123313 15.123313 15.123313 15.123313 15.123313 15.123313 10.874263 10.874263 10.874263 10.874263 10.874263 10.874263 10.874263 0.000000 0.000000 0.000000 0.000000 0.000000 0.000000 0.000000 0.000000 0.000000 0.000000 0.000000 0.000000 0.000000 0.000000 0.000000 0.000000 0.000000 0.000000 0.000000 0.000000 0.000000 0.000000 0.000000 0.000000 0.000000 0.000000 0.000000 0.000000 0.000000 0.000000 0.000000 0.000000 0.000000 0.000000 0.000000 0.000000 0.000000 0.000000 0.000000 0.000000 0.000000 0.000000 0.000000 0.000000 17.330327 17.330327 17.330327 17.330327 17.330327 17.330327 17.330327 17.330327 0.000000 0.000000 0.000000 0.000000 0.000000 0.000000 0.000000 0.000000 0.000000 0.000000 0.000000 0.000000 0.000000 0.000000 0.000000 0.000000 0.000000 0.000000
0.000000 0.000000 0.000000 0.000000 0.000000 0.000000 0.000000 0.000000 0.000000 0.000000 0.000000 0.000000 0.000000 0.000000 0.000000 0.000000 15.123313 15.123313 15.123313 15.123313 15.123313 15.123313 15.123313 15.123313 15.123313 15.123313 10.874263 10.874263 10.874263 10.874263 10.874263 10.874263 10.874263 0.000000 5.479716 5.479716 5.479716 5.479716 5.479716 5.479716 5.479716 5.479716 0.000000 0.000000 0.000000 0.000000 4.926098 4.926098 4.926098 4.926098 4.926098 4.926098 4.926098 0.000000 0.000000 0.000000 0.000000 0.000000 0.000000 0.000000 0.000000 0.000000 0.000000 0.000000 0.000000 0.000000 0.000000 0.000000 0.000000 0.000000 0.000000 0.000000 0.000000 0.000000 0.000000 0.000000 0.000000 17.330327 17.330327 17.330327 17.330327 17.330327 17.330327 17.330327 17.330327 0.000000 0.000000 0.000000 0.000000 0.000000 0.000000 0.000000 0.000000 0.000000 0.000000 0.000000 0.000000 0.000000 0.000000 0.000000 0.000000 0.000000 0.000000
0.000000 0.000000 0.000000 0.000000 0.000000 0.000000 0.000000 0.000000 0.000000 0.000000 0.000000 0.000000 0.000000 0.000000 0.000000 0.000000 15.123313 15.123313 15.123313 15.123313 15.123313 15.123313 15.123313 15.123313 15.123313 15.123313 10.874263 10.874263 10.874263 10.874263 10.874263 10.874263 10.874263 0.000000 5.479716 5.479716 5.479716 5.479716 5.479716 5.479716 5.479716 5.479716 0.000000 0.000000 0.000000 0.000000 4.926098 4.926098 4.926098 4.926098 4.926098 4.926098 4.926098 0.000000 0.000000 0.000000 0.000000 0.000000 0.000000 0.000000 0.000000 0.000000 0.000000 0.000000 0.000000 0.000000 0.000000 0.000000 0.000000 0.000000 0.000000 0.000000 0.000000 0.000000 0.000000 0.000000 0.000000 0.000000 0.000000 0.000000 0.000000 0.000000 0.000000 0.000000 0.000000 0.000000 0.000000 0.000000 0.000000 0.000000 0.000000 0.000000 0.000000 0.000000 0.000000 0.000000 0.000000 0.000000 0.000000 0.000000 0.000000 0.000000 0.000000
0.000000 0.000000 0.000000 0.000000 0.000000 0.000000 0.000000 0.000000 0.000000 0.000000 0.000000 0.000000 0.000000 0.000000 0.000000 0.000000 15.123313 15.123313 15.123313 15.123313 15.123313 15.123313 15.123313 15.123313 15.123313 15.123313 10.874263 10.874263 10.874263 10.874263 10.874263 10.874263 10.874263 0.000000 5.479716 5.479716 5.479716 5.479716 5.479716 5.479716 5.479716 5.479716 0.000000 0.000000 0.000000 0.000000 4.926098 4.926098 4.926098 4.926098 4.926098 4.926098 4.926098 0.000000 0.000000 0.000000 0.000000 0.000000 0.000000 0.000000 0.000000 0.000000 0.000000 0.000000 0.000000 0.000000 0.000000 0.000000 0.000000 0.000000 0.000000 0.000000 0.000000 0.000000 0.000000 0.000000 0.000000 0.000000 0.000000 0.000000 0.000000 0.000000 0.000000 0.000000 0.000000 0.000000 0.000000 0.000000 0.000000 0.000000 0.000000 0.000000 0.000000 0.000000 0.000000 0.000000 0.000000 0.000000 0.000000 0.000000 0.000000 0.000000 0.000000
0.000000 0.000000 0.000000 0.000000 0.000000 0.000000 0.000000 0.000000 0.000000 0.000000 0.000000 0.000000 0.000000 0.000000 0.000000 0.000000 15.123313 15.123313 15.123313 15.123313 15.123313 15.123313 15.123313 15.123313 15.123313 15.123313 10.874263 10.874263 10.874263 10.874263 10.874263 10.874263 10.874263 0.000000 0.000000 0.000000 0.000000 0.000000 0.000000 0.000000 0.000000 0.000000 0.000000 0.000000 0.000000 0.000000 0.000000 0.000000 0.000000 0.000000 0.000000 0.000000 0.000000 0.000000 0.000000 0.000000 0.000000 0.000000 0.000000 0.000000 0.000000 0.000000 0.000000 0.000000 0.000000 0.000000 0.000000 0.000000 0.000000 0.000000 0.000000 0.000000 0.000000 0.000000 0.000000 0.000000 0.000000 0.000000 0.000000 5.199228 5.199228 5.199228 5.199228 0.000000 0.000000 0.000000 0.000000 0.000000 0.000000 0.000000 0.000000 0.000000 0.000000 0.000000 0.000000 0.000000 0.000000 0.000000 0.000000 0.000000 0.000000 0.000000 0.000000
0.000000 0.000000 0.000000 0.000000 0.000000 0.000000 0.000000 0.000000 0.000000 0.000000 0.000000 0.000000 0.000000 0.000000 0.000000 0.000000 15.123313 15.123313 15.123313 15.123313 15.123313 15.123313 15.123313 15.123313 15.123313 15.123313 10.874263 10.874263 10.874263 10.874263 10.874263 10.874263 10.874263 0.000000 0.000000 0.000000 0.000000 0.000000 0.000000 0.000000 0.000000 0.000000 0.000000 0.000000 0.000000 0.000000 0.000000 0.000000 0.000000 0.000000 0.000000 0.000000 0.000000 0.000000 0.000000 0.000000 0.000000 0.000000 0.000000 0.000000 0.000000 0.000000 0.000000 0.000000 0.000000 0.000000 0.000000 0.000000 0.000000 0.000000 0.000000 0.000000 0.000000 0.000000 0.000000 0.000000 0.000000 0.000000 0.000000 5.199228 5.199228 5.199228 5.199228 0.000000 0.000000 0.000000 0.000000 0.000000 0.000000 0.000000 0.000000 0.000000 0.000000 0.000000 0.000000 0.000000 0.000000 0.000000 0.000000 0.000000 0.000000 0.000000 0.000000
0.000000 0.000000 0.000000 0.000000 0.000000 0.000000 0.000000 0.000000 0.000000 0.000000 0.000000 0.000000 0.000000 0.000000 0.000000 0.000000 27.916828 27.916828 27.916828 27.916828 27.916828 27.916828 27.916828 27.916828 27.916828 27.916828 0.000000 0.000000 0.000000 0.000000 0.000000 0.000000 0.000000 0.000000 0.000000 0.000000 0.000000 0.000000 0.000000 0.000000 0.000000 0.000000 0.000000 0.000000 0.000000 0.000000 0.000000 0.000000 0.000000 0.000000 0.000000 0.000000 0.000000 0.000000 0.000000 0.000000 0.000000 0.000000 0.000000 0.000000 0.000000 0.000000 0.000000 0.000000 0.000000 0.000000 0.000000 0.000000 0.000000 0.000000 0.000000 0.000000 0.000000 0.000000 0.000000 0.000000 0.000000 0.000000 0.000000 5.199228 5.199228 5.199228 5.199228 0.000000 0.000000 0.000000 0.000000 0.000000 0.000000 0.000000 0.000000 0.000000 0.000000 0.000000 0.000000 0.000000 0.000000 0.000000 0.000000 0.000000 0.000000 0.000000 0.000000
0.000000 0.000000 0.000000 0.000000 0.000000 0.000000 0.000000 0.000000 0.000000 0.000000 0.000000 0.000000 0.000000 0.000000 0.000000 0.000000 27.916828 27.916828 27.916828 27.916828 27.916828 27.916828 27.916828 27.916828 27.916828 27.916828 0.000000 0.000000 0.000000 0.000000 0.000000 0.000000 0.000000 0.000000 0.000000 0.000000 0.000000 0.000000 0.000000 0.000000 0.000000 0.000000 0.000000 0.000000 0.000000 0.000000 0.000000 0.000000 0.000000 0.000000 0.000000 0.000000 0.000000 0.000000 0.000000 0.000000 0.000000 0.000000 0.000000 0.000000 0.000000 0.000000 0.000000 0.000000 0.000000 0.000000 0.000000 0.000000 0.000000 0.000000 0.000000 0.000000 0.000000 0.000000 0.000000 0.000000 0.000000 0.000000 0.000000 5.199228 5.199228 5.199228 5.199228 0.000000 0.000000 0.000000 0.000000 0.000000 0.000000 0.000000 0.000000 0.000000 0.000000 0.000000 0.000000 0.000000 0.000000 0.000000 0.000000 0.000000 0.000000 0.000000 0.000000
0.000000 0.000000 0.000000 0.000000 0.000000 0.000000 0.000000 0.000000 0.000000 0.000000 0.000000 0.000000 0.000000 0.000000 0.000000 0.000000 27.916828 27.916828 27.916828 27.916828 27.916828 27.916828 27.916828 27.916828 27.916828 27.916828 0.000000 0.000000 6.253580 6.253580 6.253580 0.000000 0.000000 0.000000 13.749758 13.749758 13.749758 13.749758 13.749758 13.749758 13.749758 0.000000 0.000000 0.000000 0.000000 0.000000 0.000000 0.000000 0.000000 0.000000 0.000000 0.000000 0.000000 0.000000 0.000000 0.000000 0.000000 0.000000 0.000000 0.000000 0.000000 0.000000 17.337188 17.337188 17.337188 17.337188 17.337188 17.337188 17.337188 17.337188 0.000000 0.000000 0.000000 0.000000 0.000000 0.000000 0.000000 0.000000 0.000000 5.199228 5.199228 5.199228 5.199228 0.000000 0.000000 0.000000 0.000000 0.000000 0.000000 0.000000 0.000000 0.000000 0.000000 0.000000 0.000000 0.000000 0.000000 0.000000 0.000000 0.000000 0.000000 0.000000 0.000000
0.000000 0.000000 0.000000 0.000000 0.000000 0.000000 5.676033 5.676033 5.676033 0.000000 0.000000 0.000000 0.000000 0.000000 0.000000 0.000000 27.916828 27.916828 27.916828 27.916828 27.916828 27.916828 27.916828 27.916828 27.916828 27.916828 0.000000 0.000000 6.253580 6.253580 6.253580 0.000000 0.000000 0.000000 13.749758 13.749758 13.749758 13.749758 13.749758 13.749758 13.749758 0.000000 0.000000 0.000000 0.000000 0.000000 0.000000 0.000000 0.000000 0.000000 0.000000 0.000000 0.000000 0.000000 0.000000 0.000000 0.000000 0.000000 0.000000 0.000000 0.000000 0.000000 17.337188 17.337188 17.337188 17.337188 17.337188 17.337188 17.337188 17.337188 0.000000 0.000000 0.000000 0.000000 0.000000 0.000000 0.000000 0.000000 0.000000 0.000000 0.000000 0.000000 0.000000 0.000000 0.000000 0.000000 0.000000 0.000000 0.000000 0.000000 0.000000 0.000000 0.000000 0.000000 0.000000 0.000000 0.000000 0.000000 0.000000 0.000000 0.000000 0.000000 0.000000
0.000000 0.000000 0.000000 0.000000 0.000000 0.000000 5.676033 5.676033 5.676033 0.000000 0.000000 0.000000 0.000000 0.000000 0.000000 0.000000 27.916828 27.916828 27.916828 27.916828 27.916828 27.916828 27.916828 27.916828 27.916828 27.916828 0.000000 0.000000 6.253580 6.253580 6.253580 0.000000 0.000000 0.000000 13.749758 13.749758 13.749758 13.749758 13.749758 13.749758 13.749758 0.000000 0.000000 0.000000 0.000000 0.000000 0.000000 0.000000 0.000000 0.000000 0.000000 0.000000 0.000000 0.000000 0.000000 0.000000 0.000000 0.000000 0.000000 0.000000 0.000000 0.000000 17.337188 17.337188 17.337188 17.337188 17.337188 17.337188 17.337188 17.337188 0.000000 0.000000 0.000000 0.000000 0.000000 0.000000 0.000000 0.000000 0.000000 0.000000 0.000000 0.000000 0.000000 0.000000 0.000000 0.000000 0.000000 0.000000 0.000000 0.000000 0.000000 0.000000 0.000000 0.000000 0.000000 0.000000 0.000000 0.000000 0.000000 0.000000 0.000000 0.000000 0.000000
0.000000 0.000000 0.000000 0.000000 0.000000 0.000000 5.676033 5.676033 5.676033 0.000000 0.000000 0.000000 0.000000 0.000000 0.000000 0.000000 27.916828 27.916828 27.916828 27.916828 27.916828 27.916828 27.916828 27.916828 27.916828 27.916828 0.000000 0.000000 6.253580 6.253580 6.253580 0.000000 0.000000 0.000000 13.749758 13.749758 13.749758 13.749758 13.749758 13.749758 13.749758 0.000000 0.000000 0.000000 0.000000 0.000000 0.000000 0.000000 0.000000 0.000000 0.000000 0.000000 0.000000 0.000000 0.000000 0.000000 0.000000 0.000000 0.000000 0.000000 0.000000 0.000000 17.337188 17.337188 17.337188 17.337188 17.337188 17.337188 17.337188 17.337188 0.000000 0.000000 0.000000 0.000000 0.000000 0.000000 0.000000 14.841194 14.841194 14.841194 14.841194 14.841194 14.841194 14.841194 14.841194 0.000000 0.000000 0.000000 0.000000 0.000000 0.000000 0.000000 0.000000 12.001015 12.001015 12.001015 12.001015 12.001015 12.001015 0.000000 0.000000 0.000000 0.000000
0.000000 0.000000 0.000000 0.000000 0.000000 0.000000 5.676033 5.676033 5.676033 0.000000 0.000000 0.000000 0.000000 0.000000 0.000000 0.000000 27.916828 27.916828 27.916828 27.916828 27.916828 27.916828 27.916828 27.916828 27.916828 27.916828 0.000000 0.000000 6.253580 6.253580 6.253580 0.000000 0.000000 0.000000 13.749758 13.749758 13.749758 13.749758 13.749758 13.749758 13.749758 0.000000 0.000000 0.000000 0.000000 0.000000 0.000000 0.000000 0.000000 0.000000 0.000000 0.000000 0.000000 0.000000 0.000000 0.000000 0.000000 0.000000 0.000000 0.000000 0.000000 0.000000 17.337188 17.337188 17.337188 17.337188 17.337188 17.337188 17.337188 17.337188 0.000000 0.000000 0.000000 0.000000 0.000000 0.000000 0.000000 14.841194 14.841194 14.841194 14.841194 14.841194 14.841194 14.841194 14.841194 0.000000 0.000000 0.000000 0.000000 0.000000 0.000000 0.000000 0.000000 12.001015 12.001015 12.001015 12.001015 12.001015 12.001015 0.000000 0.000000 0.000000 0.000000
0.000000 0.000000 0.000000 0.000000 0.000000 0.000000 5.676033 5.676033 5.676033 0.000000 0.000000 0.000000 0.000000 0.000000 0.000000 0.000000 27.916828 27.916828 27.916828 27.916828 27.916828 27.916828 27.916828 27.916828 27.916828 27.916828 0.000000 0.000000 6.253580 6.253580 6.253580 0.000000 0.000000 0.000000 13.749758 13.749758 13.749758 13.749758 13.749758 13.749758 13.749758 0.000000 0.000000 0.000000 0.000000 0.000000 0.000000 0.000000 0.000000 0.000000 0.000000 0.000000 0.000000 0.000000 0.000000 0.000000 0.000000 0.000000 0.000000 0.000000 0.000000 0.000000 17.337188 17.337188 17.337188 17.337188 17.337188 17.337188 17.337188 17.337188 0.000000 0.000000 0.000000 0.000000 0.000000 0.000000 0.000000 14.841194 14.841194 14.841194 14.841194 14.841194 14.841194 14.841194 14.841194 0.000000 0.000000 0.000000 0.000000 0.000000 0.000000 0.000000 0.000000 12.001015 12.001015 12.001015 12.001015 12.001015 12.001015 0.000000 0.000000 0.000000 0.000000
0.000000 0.000000 0.000000 0.000000 0.000000 0.000000 5.676033 5.676033 5.676033 0.000000 0.000000 0.000000 0.000000 0.000000 0.000000 0.000000 27.916828 27.916828 27.916828 27.916828 27.916828 27.916828 27.916828 27.916828 27.916828 27.916828 0.000000 0.000000 6.253580 6.253580 6.253580 0.000000 0.000000 0.000000 13.749758 13.749758 13.749758 13.749758 13.749758 13.749758 13.749758 0.000000 0.000000 0.000000 0.000000 0.000000 0.000000 0.000000 0.000000 0.000000 0.000000 0.000000 0.000000 0.000000 0.000000 0.000000 0.000000 0.000000 0.000000 0.000000 0.000000 0.000000 17.337188 17.337188 17.337188 17.337188 17.337188 17.337188 17.337188 17.337188 0.000000 0.000000 0.000000 0.000000 0.000000 0.000000 0.000000 14.841194 14.841194 14.841194 14.841194 14.841194 14.841194 14.841194 14.841194 0.000000 0.000000 0.000000 0.000000 0.000000 0.000000 0.000000 0.000000 12.001015 12.001015 12.001015 12.001015 12.001015 12.001015 0.000000 0.000000 0.000000 0.000000
0.000000 0.000000 0.000000 0.000000 0.000000 0.000000 5.676033 5.676033 5.676033 0.000000 0.000000 0.000000 0.000000 0.000000 0.000000 0.000000 27.916828 27.916828 27.916828 27.916828 27.916828 27.916828 27.916828 27.916828 27.916828 27.916828 0.000000 0.000000 6.253580 6.253580 6.253580 0.000000 0.000000 0.000000 13.749758 13.749758 13.749758 13.749758 13.749758 13.749758 13.749758 0.000000 0.000000 0.000000 0.000000 0.000000 0.000000 0.000000 0.000000 0.000000 0.000000 0.000000 0.000000 0.000000 0.000000 0.000000 0.000000 0.000000 0.000000 0.000000 0.000000 0.000000 17.337188 17.337188 17.337188 17.337188 17.337188 17.337188 17.337188 17.337188 0.000000 0.000000 0.000000 0.000000 0.000000 0.000000 0.000000 14.841194 14.841194 14.841194 14.841194 14.841194 14.841194 14.841194 14.841194 0.000000 0.000000 0.000000 0.000000 0.000000 0.000000 0.000000 0.000000 12.001015 12.001015 12.001015 12.001015 12.001015 12.001015 0.000000 0.000000 0.000000 0.000000
0.000000 0.000000 0.000000 0.000000 0.000000 0.000000 5.676033 5.676033 5.676033 0.000000 0.000000 0.000000 0.000000 0.000000 0.000000 0.000000 27.916828 27.916828 27.916828 27.916828 27.916828 27.916828 27.916828 27.916828 27.916828 27.916828 0.000000 0.000000 6.253580 6.253580 6.253580 0.000000 0.000000 0.000000 13.749758 13.749758 13.749758 13.749758 13.749758 13.749758 13.749758 0.000000 0.000000 0.000000 0.000000 0.000000 0.000000 0.000000 0.000000 0.000000 0.000000 0.000000 0.000000 0.000000 0.000000 0.000000 0.000000 0.000000 0.000000 0.000000 0.000000 0.000000 17.337188 17.337188 17.337188 17.337188 17.337188 17.337188 17.337188 17.337188 0.000000 0.000000 0.000000 0.000000 0.000000 0.000000 0.000000 14.841194 14.841194 14.841194 14.841194 14.841194 14.841194 14.841194 14.841194 0.000000 0.000000 0.000000 0.000000 0.000000 0.000000 0.000000 0.000000 12.001015 12.001015 12.001015 12.001015 12.001015 12.001015 0.000000 0.000000 0.000000 0.000000
0.000000 0.000000 0.000000 0.000000 0.000000 0.000000 0.000000 0.000000 0.000000 0.000000 0.000000 0.000000 0.000000 0.000000 0.000000 0.000000 27.916828 27.916828 27.916828 27.916828 27.916828 27.916828 27.916828 27.916828 27.916828 27.916828 0.000000 0.000000 0.000000 0.000000 0.000000 0.000000 0.000000 0.000000 0.000000 0.000000 0.000000 0.000000 0.000000 0.000000 0.000000 0.000000 0.000000 0.000000 0.000000 0.000000 0.000000 0.000000 0.000000 0.000000 0.000000 0.000000 0.000000 0.000000 0.000000 0.000000 0.000000 0.000000 0.000000 0.000000 0.000000 0.000000 0.000000 0.000000 0.000000 0.000000 0.000000 0.000000 0.000000 0.000000 0.000000 0.000000 0.000000 0.000000 0.000000 0.000000 0.000000 14.841194 14.841194 14.841194 14.841194 14.841194 14.841194 14.841194 14.841194 0.000000 0.000000 0.000000 0.000000 0.000000 0.000000 0.000000 0.000000 12.001015 12.001015 12.001015 12.001015 12.001015 12.001015 0.000000 0.000000 0.000000 0.000000
0.000000 0.000000 0.000000 0.000000 0.000000 0.000000 0.000000 0.000000 0.000000 0.000000 0.000000 0.000000 0.000000 0.000000 0.000000 0.000000 0.000000 0.000000 0.000000 0.000000 0.000000 0.000000 0.000000 0.000000 0.000000 0.000000 0.000000 0.000000 0.000000 0.000000 0.000000 0.000000 0.000000 0.000000 0.000000 0.000000 0.000000 0.000000 0.000000 0.000000 0.000000 0.000000 0.000000 0.000000 0.000000 0.000000 0.000000 0.000000 0.000000 0.000000 0.000000 0.000000 0.000000 0.000000 0.000000 0.000000 0.000000 0.000000 0.000000 0.000000 0.000000 0.000000 0.000000 0.000000 0.000000 0.000000 0.000000 0.000000 0.000000 0.000000 0.000000 0.000000 0.000000 0.000000 0.000000 0.000000 0.000000 0.000000 0.000000 0.000000 0.000000 0.000000 0.000000 0.000000 0.000000 0.000000 0.000000 0.000000 0.000000 0.000000 0.000000 0.000000 0.000000 0.000000 0.000000 0.000000 0.000000 0.000000 0.000000 0.000000 0.000000 0.000000 0.000000
0.000000 0.000000 0.000000 0.000000 0.000000 0.000000 0.000000 0.000000 0.000000 0.000000 0.000000 0.000000 0.000000 0.000000 0.000000 0.000000 0.000000 0.000000 0.000000 0.000000 0.000000 0.000000 0.000000 0.000000 0.000000 0.000000 0.000000 0.000000 0.000000 0.000000 0.000000 0.000000 0.000000 0.000000 0.000000 0.000000 0.000000 0.000000 0.000000 0.000000 0.000000 0.000000 0.000000 0.000000 0.000000 0.000000 0.000000 0.000000 0.000000 0.000000 0.000000 0.000000 0.000000 0.000000 0.000000 0.000000 0.000000 0.000000 0.000000 0.000000 0.000000 0.000000 0.000000 0.000000 0.000000 0.000000 0.000000 0.000000 0.000000 0.000000 0.000000 0.000000 0.000000 0.000000 0.000000 0.000000 0.000000 0.000000 0.000000 0.000000 0.000000 0.000000 0.000000 0.000000 0.000000 0.000000 0.000000 0.000000 0.000000 0.000000 0.000000 0.000000 0.000000 0.000000 0.000000 0.000000 0.000000 0.000000 0.000000 0.000000 0.000000 0.000000 0.000000
0.000000 0.000000 0.000000 0.000000 0.000000 0.000000 0.000000 0.000000 0.000000 0.000000 0.000000 0.000000 0.000000 0.000000 0.000000 0.000000 0.000000 0.000000 0.000000 0.000000 0.000000 0.000000 0.000000 0.000000 0.000000 0.000000 0.000000 0.000000 0.000000 0.000000 0.000000 0.000000 0.000000 0.000000 0.000000 0.000000 0.000000 0.000000 0.000000 0.000000 0.000000 0.000000 0.000000 0.000000 0.000000 0.000000 0.000000 0.000000 0.000000 0.000000 0.000000 0.000000 0.000000 0.000000 0.000000 0.000000 0.000000 0.000000 0.000000 0.000000 0.000000 0.000000 0.000000 0.000000 0.000000 0.000000 0.000000 0.000000 0.000000 0.000000 0.000000 0.000000 0.000000 0.000000 0.000000 0.000000 0.000000 0.000000 0.000000 0.000000 0.000000 0.000000 0.000000 0.000000 0.000000 0.000000 0.000000 0.000000 0.000000 0.000000 0.000000 0.000000 0.000000 0.000000 0.000000 0.000000 0.000000 0.000000 0.000000 0.000000 0.000000 0.000000 0.000000
0.000000 0.000000 0.000000 0.000000 0.000000 0.000000 0.000000 0.000000 0.000000 0.000000 0.000000 0.000000 0.000000 0.000000 0.000000 0.000000 0.000000 0.000000 0.000000 0.000000 0.000000 0.000000 0.000000 0.000000 0.000000 0.000000 0.000000 0.000000 0.000000 0.000000 0.000000 0.000000 0.000000 0.000000 0.000000 0.000000 0.000000 0.000000 0.000000 0.000000 0.000000 0.000000 0.000000 0.000000 0.000000 0.000000 0.000000 0.000000 0.000000 0.000000 0.000000 0.000000 0.000000 0.000000 0.000000 0.000000 0.000000 0.000000 0.000000 0.000000 0.000000 0.000000 0.000000 0.000000 0.000000 0.000000 0.000000 0.000000 0.000000 0.000000 0.000000 0.000000 0.000000 0.000000 0.000000 0.000000 0.000000 0.000000 0.000000 0.000000 0.000000 0.000000 0.000000 0.000000 0.000000 0.000000 0.000000 0.000000 0.000000 0.000000 0.000000 0.000000 0.000000 0.000000 0.000000 0.000000 0.000000 0.000000 0.000000 0.000000 0.000000 0.000000 0.000000
0.000000 0.000000 0.000000 0.000000 0.000000 0.000000 0.000000 0.000000 0.000000 0.000000 0.000000 0.000000 0.000000 0.000000 0.000000 0.000000 0.000000 0.000000 0.000000 0.000000 0.000000 0.000000 0.000000 0.000000 0.000000 0.000000 0.000000 0.000000 0.000000 0.000000 0.000000 0.000000 0.000000 0.000000 0.000000 0.000000 0.000000 0.000000 0.000000 0.000000 0.000000 0.000000 0.000000 0.000000 0.000000 0.000000 0.000000 0.000000 0.000000 0.000000 0.000000 0.000000 0.000000 0.000000 0.000000 0.000000 0.000000 0.000000 0.000000 0.000000 0.000000 0.000000 0.000000 0.000000 0.000000 0.000000 0.000000 0.000000 0.000000 0.000000 0.000000 0.000000 0.000000 0.000000 0.000000 0.000000 0.000000 0.000000 0.000000 0.000000 0.000000 0.000000 0.000000 0.000000 0.000000 0.000000 0.000000 0.000000 0.000000 0.000000 0.000000 0.000000 0.000000 0.000000 0.000000 0.000000 0.000000 0.000000 0.000000 0.000000 0.000000 0.000000 0.000000
0.000000 0.000000 0.000000 0.000000 0.000000 0.000000 0.000000 0.000000 0.000000 0.000000 0.000000 0.000000 0.000000 0.000000 0.000000 0.000000 0.000000 0.000000 0.000000 0.000000 0.000000 0.000000 0.000000 0.000000 0.000000 0.000000 0.000000 0.000000 0.000000 18.697912 18.697912 18.697912 18.697912 18.697912 18.697912 18.697912 18.697912 18.697912 18.697912 18.697912 27.214676 27.214676 27.214676 27.214676 27.214676 27.214676 27.214676 27.214676 27.214676 27.214676 27.214676 27.214676 27.214676 27.214676 27.214676 0.000000 0.000000 0.000000 0.000000 0.000000 0.000000 0.000000 0.000000 0.000000 0.000000 0.000000 0.000000 0.000000 0.000000 0.000000 0.000000 0.000000 0.000000 0.000000 0.000000 0.000000 0.000000 14.385613 14.385613 14.385613 14.385613 14.385613 14.385613 14.385613 14.385613 13.749958 13.749958 13.749958 13.749958 13.749958 13.749958 13.749958 13.749958 11.360036 11.360036 11.360036 11.360036 11.360036 11.360036 0.000000 0.000000 0.000000 0.000000
0.000000 0.000000 0.000000 0.000000 0.000000 0.000000 0.000000 0.000000 0.000000 0.000000 0.000000 0.000000 0.000000 0.000000 0.000000 0.000000 0.000000 0.000000 0.000000 0.000000 0.000000 0.000000 0.000000 0.000000 0.000000 0.000000 0.000000 0.000000 0.000000 18.697912 18.697912 18.697912 18.697912 18.697912 18.697912 18.697912 18.697912 18.697912 18.697912 18.697912 27.214676 27.214676 27.214676 27.214676 27.214676 27.214676 27.214676 27.214676 27.214676 27.214676 27.214676 27.214676 27.214676 27.214676 27.214676 0.000000 0.000000 0.000000 0.000000 0.000000 0.000000 0.000000 0.000000 0.000000 0.000000 0.000000 0.000000 0.000000 0.000000 0.000000 0.000000 0.000000 0.000000 0.000000 0.000000 0.000000 0.000000 14.385613 14.385613 14.385613 14.385613 14.385613 14.385613 14.385613 14.385613 13.749958 13.749958 13.749958 13.749958 13.749958 13.749958 13.749958 13.749958 11.360036 11.360036 11.360036 11.360036 11.360036 11.360036 0.000000 0.000000 0.000000 0.000000
0.000000 0.000000 0.000000 0.000000 0.000000 0.000000 0.000000 0.000000 0.000000 0.000000 0.000000 0.000000 0.000000 0.000000 0.000000 0.000000 0.000000 0.000000 0.000000 0.000000 0.000000 0.000000 0.000000 0.000000 0.000000 0.000000 0.000000 0.000000 0.000000 18.697912 18.697912 18.697912 18.697912 18.697912 18.697912 18.697912 18.697912 18.697912 18.697912 18.697912 27.214676 27.214676 27.214676 27.214676 27.214676 27.214676 27.214676 27.214676 27.214676 27.214676 27.214676 27.214676 27.214676 27.214676 27.214676 0.000000 0.000000 0.000000 0.000000 0.000000 0.000000 0.000000 7.527629 7.527629 7.527629 7.527629 7.527629 7.527629 7.527629 7.527629 0.000000 0.000000 0.000000 0.000000 0.000000 0.000000 0.000000 14.385613 14.385613 14.385613 14.385613 14.385613 14.385613 14.385613 14.385613 13.749958 13.749958 13.749958 13.749958 13.749958 13.749958 13.749958 13.749958 11.360036 11.360036 11.360036 11.360036 11.360036 11.360036 0.000000 0.000000 0.000000 0.000000
0.000000 0.000000 0.000000 0.000000 0.000000 0.000000 0.000000 0.000000 0.000000 0.000000 0.000000 0.000000 0.000000 0.000000 0.000000 0.000000 0.000000 0.000000 0.000000 0.000000 0.000000 0.000000 0.000000 0.000000 0.000000 0.000000 0.000000 0.000000 0.000000 18.697912 18.697912 18.697912 18.697912 18.697912 18.697912 18.697912 18.697912 18.697912 18.697912 18.697912 27.214676 27.214676 27.214676 27.214676 27.214676 27.214676 27.214676 27.214676 27.214676 27.214676 27.214676 27.214676 27.214676 27.214676 27.214676 0.000000 0.000000 0.000000 0.000000 0.000000 0.000000 0.000000 7.527629 7.527629 7.527629 7.527629 7.527629 7.527629 7.527629 7.527629 0.000000 0.000000 0.000000 0.000000 0.000000 0.000000 0.000000 14.385613 14.385613 14.385613 14.385613 14.385613 14.385613 14.385613 14.385613 13.749958 13.749958 13.749958 13.749958 13.749958 13.749958 13.749958 13.749958 11.360036 11.360036 11.360036 11.360036 11.360036 11.360036 0.000000 0.000000 0.000000 0.000000
0.000000 0.000000 0.000000 0.000000 0.000000 0.000000 0.000000 0.000000 0.000000 0.000000 0.000000 0.000000 0.000000 0.000000 0.000000 0.000000 0.000000 0.000000 0.000000 0.000000 0.000000 0.000000 0.000000 0.000000 0.000000 0.000000 0.000000 0.000000 0.000000 18.697912 18.697912 18.697912 18.697912 18.697912 18.697912 18.697912 18.697912 18.697912 18.697912 18.697912 27.214676 27.214676 27.214676 27.214676 27.214676 27.214676 27.214676 27.214676 27.214676 27.214676 27.214676 27.214676 27.214676 27.214676 27.214676 0.000000 0.000000 0.000000 0.000000 0.000000 0.000000 0.000000 7.527629 7.527629 7.527629 7.527629 7.527629 7.527629 7.527629 7.527629 0.000000 0.000000 0.000000 0.000000 0.000000 0.000000 0.000000 14.385613 14.385613 14.385613 14.385613 14.385613 14.385613 14.385613 14.385613 13.749958 13.749958 13.749958 13.749958 13.749958 13.749958 13.749958 13.749958 11.360036 11.360036 11.360036 11.360036 11.360036 11.360036 0.000000 0.000000 0.000000 0.000000
0.000000 0.000000 0.000000 0.000000 0.000000 0.000000 0.000000 0.000000 0.000000 0.000000 0.000000 0.000000 0.000000 0.000000 0.000000 0.000000 0.000000 0.000000 0.000000 0.000000 0.000000 0.000000 0.000000 0.000000 0.000000 0.000000 0.000000 0.000000 0.000000 18.697912 18.697912 18.697912 18.697912 18.697912 18.697912 18.697912 18.697912 18.697912 18.697912 18.697912 27.214676 27.214676 27.214676 27.214676 27.214676 27.214676 27.214676 27.214676 27.214676 27.214676 27.214676 27.214676 27.214676 27.214676 27.214676 0.000000 0.000000 0.000000 0.000000 0.000000 0.000000 0.000000 7.527629 7.527629 7.527629 7.527629 7.527629 7.527629 7.527629 7.527629 0.000000 0.000000 0.000000 0.000000 0.000000 0.000000 0.000000 14.385613 14.385613 14.385613 14.385613 14.385613 14.385613 14.385613 14.385613 13.749958 13.749958 13.749958 13.749958 13.749958 13.749958 13.749958 13.749958 11.360036 11.360036 11.360036 11.360036 11.360036 11.360036 0.000000 0.000000 0.000000 0.000000
0.000000 0.000000 0.000000 0.000000 0.000000 0.000000 0.000000 0.000000 0.000000 0.000000 0.000000 0.000000 0.000000 0.000000 0.000000 0.000000 0.000000 0.000000 0.000000 0.000000 0.000000 0.000000 0.000000 0.000000 0.000000 0.000000 0.000000 0.000000 0.000000 18.697912 18.697912 18.697912 18.697912 18.697912 18.697912 18.697912 18.697912 18.697912 18.697912 18.697912 27.214676 27.214676 27.214676 27.214676 27.214676 27.214676 27.214676 27.214676 27.214676 27.214676 27.214676 27.214676 27.214676 27.214676 27.214676 0.000000 0.000000 0.000000 0.000000 0.000000 0.000000 0.000000 0.000000 0.000000 0.000000 0.000000 0.000000 0.000000 0.000000 0.000000 0.000000 0.000000 0.000000 0.000000 0.000000 0.000000 0.000000 14.385613 14.385613 14.385613 14.385613 14.385613 14.385613 14.385613 14.385613 13.749958 13.749958 13.749958 13.749958 13.749958 13.749958 13.749958 13.749958 11.360036 11.360036 11.360036 11.360036 11.360036 11.360036 0.000000 0.000000 0.000000 0.000000
0.000000 0.000000 0.000000 0.000000 0.000000 0.000000 0.000000 0.000000 0.000000 0.000000 0.000000 0.000000 0.000000 0.000000 0.000000 0.000000 0.000000 0.000000 0.000000 0.000000 0.000000 0.000000 0.000000 0.000000 0.000000 0.000000 0.000000 0.000000 0.000000 18.697912 18.697912 18.697912 18.697912 18.697912 18.697912 18.697912 18.697912 18.697912 18.697912 18.697912 27.214676 27.214676 27.214676 27.214676 27.214676 27.214676 27.214676 27.214676 27.214676 27.214676 27.214676 27.214676 27.214676 27.214676 27.214676 0.000000 0.000000 0.000000 0.000000 0.000000 0.000000 0.000000 0.000000 0.000000 0.000000 0.000000 0.000000 0.000000 0.000000 0.000000 0.000000 0.000000 0.000000 0.000000 0.000000 0.000000 0.000000 14.385613 14.385613 14.385613 14.385613 14.385613 14.385613 14.385613 14.385613 13.749958 13.749958 13.749958 13.749958 13.749958 13.749958 13.749958 13.749958 11.360036 11.360036 11.360036 11.360036 11.360036 11.360036 0.000000 0.000000 0.000000 0.000000
0.000000 0.000000 0.000000 0.000000 0.000000 0.000000 0.000000 0.000000 0.000000 0.000000 0.000000 0.000000 0.000000 0.000000 0.000000 0.000000 0.000000 0.000000 0.000000 0.000000 0.000000 0.000000 0.000000 0.000000 0.000000 0.000000 0.000000 0.000000 0.000000 0.000000 0.000000 0.000000 0.000000 0.000000 0.000000 0.000000 0.000000 0.000000 0.000000 0.000000 0.000000 0.000000 0.000000 0.000000 0.000000 0.000000 0.000000 0.000000 0.000000 0.000000 0.000000 0.000000 0.000000 0.000000 0.000000 0.000000 0.000000 0.000000 0.000000 0.000000 0.000000 0.000000 0.000000 0.000000 0.000000 0.000000 0.000000 0.000000 0.000000 0.000000 0.000000 0.000000 0.000000 0.000000 0.000000 0.000000 0.000000 0.000000 0.000000 0.000000 0.000000 0.000000 0.000000 0.000000 0.000000 0.000000 0.000000 0.000000 0.000000 0.000000 0.000000 0.000000 0.000000 0.000000 0.000000 0.000000 0.000000 0.000000 0.000000 0.000000 0.000000 0.000000 0.000000
0.000000 0.000000 0.000000 0.000000 0.000000 0.000000 0.000000 0.000000 0.000000 0.000000 0.000000 0.000000 0.000000 0.000000 0.000000 0.000000 0.000000 0.000000 0.000000 0.000000 0.000000 0.000000 0.000000 0.000000 0.000000 0.000000 0.000000 0.000000 0.000000 0.000000 0.000000 0.000000 0.000000 0.000000 0.000000 0.000000 0.000000 0.000000 0.000000 0.000000 0.000000 0.000000 0.000000 0.000000 0.000000 0.000000 0.000000 0.000000 0.000000 0.000000 0.000000 0.000000 0.000000 0.000000 0.000000 0.000000 0.000000 0.000000 0.000000 0.000000 0.000000 0.000000 0.000000 0.000000 0.000000 0.000000 0.000000 0.000000 0.000000 0.000000 0.000000 0.000000 0.000000 0.000000 0.000000 0.000000 0.000000 0.000000 0.000000 0.000000 0.000000 0.000000 0.000000 0.000000 0.000000 0.000000 0.000000 0.000000 0.000000 0.000000 0.000000 0.000000 0.000000 0.000000 0.000000 0.000000 0.000000 0.000000 0.000000 0.000000 0.000000 0.000000 0.000000
0.000000 0.000000 0.000000 0.000000 0.000000 0.000000 0.000000 0.000000 0.000000 0.000000 0.000000 0.000000 0.000000 0.000000 0.000000 0.000000 0.000000 0.000000 0.000000 0.000000 0.000000 0.000000 0.000000 0.000000 0.000000 0.000000 0.000000 0.000000 0.000000 0.000000 0.000000 0.000000 0.000000 0.000000 0.000000 0.000000 0.000000 0.000000 0.000000 0.000000 0.000000 0.000000 0.000000 0.000000 0.000000 0.000000 0.000000 0.000000 0.000000 0.000000 0.000000 0.000000 0.000000 0.000000 0.000000 0.000000 0.000000 0.000000 0.000000 0.000000 0.000000 0.000000 0.000000 0.000000 0.000000 0.000000 0.000000 0.000000 0.000000 0.000000 0.000000 0.000000 0.000000 0.000000 0.000000 0.000000 0.000000 0.000000 0.000000 0.000000 0.000000 0.000000 0.000000 0.000000 0.000000 0.000000 0.000000 0.000000 0.000000 0.000000 0.000000 0.000000 0.000000 0.000000 0.000000 0.000000 0.000000 0.000000 0.000000 0.000000 0.000000 0.000000 0.000000
0.000000 0.000000 0.000000 0.000000 0.000000 0.000000 0.000000 0.000000 0.000000 0.000000 0.000000 0.000000 0.000000 0.000000 0.000000 0.000000 0.000000 0.000000 0.000000 0.000000 0.000000 0.000000 0.000000 0.000000 0.000000 0.000000 0.000000 0.000000 0.000000 0.000000 0.000000 0.000000 0.000000 0.000000 0.000000 0.000000 0.000000 0.000000 0.000000 0.000000 0.000000 0.000000 0.000000 0.000000 0.000000 0.000000 0.000000 0.000000 0.000000 0.000000 0.000000 0.000000 0.000000 0.000000 0.000000 0.000000 0.000000 0.000000 0.000000 0.000000 0.000000 0.000000 0.000000 0.000000 0.000000 0.000000 0.000000 0.000000 0.000000 0.000000 0.000000 0.000000 0.000000 0.000000 0.000000 0.000000 0.000000 0.000000 0.000000 0.000000 0.000000 0.000000 0.000000 0.000000 0.000000 0.000000 0.000000 0.000000 0.000000 0.000000 0.000000 0.000000 0.000000 0.000000 0.000000 0.000000 0.000000 0.000000 0.000000 0.000000 0.000000 0.000000 0.000000
