0.000000 0.000000 0.000000 0.000000 0.000000 0.000000 0.000000 0.000000 0.000000 0.000000 0.000000 0.000000 0.000000 0.000000 0.000000 0.000000 0.000000 0.000000 0.000000 0.000000 0.000000 0.000000 0.000000 0.000000 0.000000 0.000000 0.000000 0.000000 0.000000 0.000000 0.000000 0.000000 0.000000 0.000000 0.000000 0.000000 0.000000 0.000000 0.000000 0.000000 0.000000 0.000000 0.000000 0.000000 0.000000 0.000000 0.000000 0.000000 0.000000 0.000000 0.000000 0.000000 0.000000 0.000000 0.000000 0.000000 0.000000 0.000000 0.000000 0.000000 0.000000 0.000000 0.000000 0.000000 0.000000 0.000000 0.000000 0.000000 0.000000 0.000000 0.000000 0.000000 0.000000 0.000000 0.000000 0.000000 0.000000 0.000000 0.000000 0.000000 0.000000 0.000000 0.000000 0.000000 0.000000 0.000000 0.000000 0.000000 0.000000 0.000000 0.000000 0.000000 0.000000 0.000000 0.000000 0.000000 0.000000 0.000000 0.000000 0.000000 0.000000 0.000000 0.000000
0.000000 0.000000 0.000000 0.000000 0.000000 0.000000 0.000000 0.000000 0.000000 0.000000 0.000000 0.000000 0.000000 0.000000 0.000000 0.000000 0.000000 0.000000 0.000000 0.000000 0.000000 0.000000 0.000000 0.000000 0.000000 0.000000 0.000000 0.000000 0.000000 0.000000 0.000000 0.000000 0.000000 0.000000 0.000000 0.000000 0.000000 0.000000 0.000000 0.000000 0.000000 0.000000 0.000000 0.000000 0.000000 0.000000 0.000000 0.000000 0.000000 0.000000 0.000000 0.000000 0.000000 0.000000 0.000000 0.000000 0.000000 0.000000 0.000000 0.000000 0.000000 0.000000 0.000000 0.000000 0.000000 0.000000 0.000000 0.000000 0.000000 0.000000 0.000000 0.000000 0.000000 0.000000 0.000000 0.000000 0.000000 0.000000 0.000000 0.000000 0.000000 0.000000 0.000000 0.000000 0.000000 0.000000 0.000000 0.000000 0.000000 0.000000 0.000000 0.000000 0.000000 0.000000 0.000000 0.000000 0.000000 0.000000 0.000000 0.000000 0.000000 0.000000 0.000000
0.000000 0.000000 0.000000 0.000000 0.000000 0.000000 0.000000 0.000000 0.000000 0.000000 0.000000 0.000000 0.000000 0.000000 0.000000 0.000000 0.000000 0.000000 0.000000 0.000000 0.000000 0.000000 0.000000 0.000000 0.000000 0.000000 0.000000 0.000000 0.000000 0.000000 0.000000 0.000000 0.000000 0.000000 0.000000 0.000000 0.000000 0.000000 0.000000 0.000000 0.000000 0.000000 0.000000 0.000000 0.000000 0.000000 0.000000 0.000000 0.000000 0.000000 0.000000 0.000000 0.000000 0.000000 0.000000 0.000000 0.000000 0.000000 0.000000 0.000000 0.000000 0.000000 0.000000 0.000000 0.000000 0.000000 0.000000 0.000000 0.000000 0.000000 0.000000 0.000000 0.000000 0.000000 0.000000 0.000000 0.000000 0.000000 0.000000 0.000000 0.000000 0.000000 0.000000 0.000000 0.000000 0.000000 0.000000 0.000000 0.000000 0.000000 0.000000 0.000000 0.000000 0.000000 0.000000 0.000000 0.000000 0.000000 0.000000 0.000000 0.000000 0.000000 0.000000
0.000000 0.000000 0.000000 0.000000 0.000000 0.000000 0.000000 0.000000 0.000000 0.000000 0.000000 0.000000 0.000000 0.000000 0.000000 0.000000 0.000000 0.000000 0.000000 0.000000 0.000000 0.000000 0.000000 0.000000 0.000000 0.000000 0.000000 0.000000 0.000000 0.000000 0.000000 0.000000 0.000000 0.000000 0.000000 0.000000 0.000000 0.000000 0.000000 0.000000 0.000000 0.000000 0.000000 0.000000 0.000000 0.000000 0.000000 0.000000 0.000000 0.000000 0.000000 0.000000 0.000000 0.000000 0.000000 0.000000 0.000000 0.000000 0.000000 0.000000 0.000000 0.000000 0.000000 0.000000 0.000000 0.000000 0.000000 0.000000 0.000000 0.000000 0.000000 0.000000 0.000000 0.000000 0.000000 0.000000 0.000000 0.000000 0.000000 0.000000 0.000000 0.000000 0.000000 0.000000 0.000000 0.000000 0.000000 0.000000 0.000000 0.000000 0.000000 0.000000 0.000000 0.000000 0.000000 0.000000 0.000000 0.000000 0.000000 0.000000 0.000000 0.000000 0.000000
0.000000 0.000000 0.000000 0.000000 0.000000 0.000000 0.000000 0.000000 0.000000 0.000000 0.000000 0.000000 0.000000 0.000000 0.000000 0.000000 0.000000 0.000000 0.000000 0.000000 0.000000 0.000000 0.000000 0.000000 0.000000 0.000000 0.000000 0.000000 0.000000 0.000000 0.000000 0.000000 0.000000 0.000000 29.749090 29.749090 29.749090 29.749090 29.749090 29.749090 29.749090 29.749090 29.749090 29.749090 29.749090 0.000000 0.000000 0.000000 0.000000 0.000000 0.000000 0.000000 0.000000 0.000000 0.000000 0.000000 0.000000 0.000000 0.000000 0.000000 0.000000 0.000000 0.000000 0.000000 0.000000 0.000000 0.000000 0.000000 0.000000 0.000000 0.000000 0.000000 0.000000 0.000000 0.000000 0.000000 0.000000 0.000000 0.000000 0.000000 0.000000 0.000000 0.000000 0.000000 0.000000 0.000000 0.000000 0.000000 0.000000 0.000000 0.000000 0.000000 0.000000 0.000000 0.000000 0.000000 0.000000 0.000000 0.000000 0.000000 0.000000 0.000000 0.000000
0.000000 0.000000 0.000000 0.000000 0.000000 0.000000 0.000000 0.000000 0.000000 0.000000 0.000000 0.000000 0.000000 0.000000 0.000000 0.000000 0.000000 0.000000 0.000000 0.000000 0.000000 0.000000 0.000000 0.000000 0.000000 0.000000 0.000000 0.000000 0.000000 0.000000 0.000000 0.000000 0.000000 0.000000 29.749090 29.749090 29.749090 29.749090 29.749090 29.749090 29.749090 29.749090 29.749090 29.749090 29.749090 0.000000 0.000000 0.000000 0.000000 0.000000 0.000000 0.000000 0.000000 0.000000 0.000000 0.000000 0.000000 0.000000 0.000000 0.000000 0.000000 0.000000 0.000000 0.000000 0.000000 0.000000 0.000000 0.000000 0.000000 0.000000 0.000000 0.000000 0.000000 0.000000 0.000000 0.000000 0.000000 0.000000 0.000000 0.000000 0.000000 0.000000 0.000000 0.000000 0.000000 0.000000 0.000000 0.000000 0.000000 0.000000 0.000000 0.000000 0.000000 0.000000 0.000000 0.000000 0.000000 0.000000 0.000000 0.000000 0.000000 0.000000 0.000000
0.000000 0.000000 0.000000 0.000000 0.000000 0.000000 0.000000 0.000000 0.000000 0.000000 0.000000 0.000000 0.000000 0.000000 0.000000 0.000000 0.000000 0.000000 0.000000 0.000000 0.000000 0.000000 0.000000 0.000000 4.815614 4.815614 4.815614 0.000000 0.000000 0.000000 0.000000 0.000000 0.000000 0.000000 29.749090 29.749090 29.749090 29.749090 29.749090 29.749090 29.749090 29.749090 29.749090 29.749090 29.749090 0.000000 0.000000 0.000000 0.000000 0.000000 0.000000 0.000000 0.000000 0.000000 0.000000 0.000000 0.000000 0.000000 0.000000 0.000000 0.000000 0.000000 0.000000 0.000000 13.530601 13.530601 13.530601 13.530601 13.530601 13.530601 13.530601 13.530601 0.000000 0.000000 0.000000 0.000000 0.000000 0.000000 0.000000 0.000000 0.000000 0.000000 0.000000 0.000000 0.000000 0.000000 0.000000 0.000000 0.000000 0.000000 0.000000 0.000000 0.000000 0.000000 0.000000 0.000000 0.000000 0.000000 0.000000 0.000000 0.000000 0.000000 0.000000
0.000000 0.000000 0.000000 0.000000 0.000000 0.000000 0.000000 0.000000 0.000000 0.000000 0.000000 0.000000 0.000000 0.000000 0.000000 0.000000 0.000000 0.000000 0.000000 0.000000 0.000000 0.000000 0.000000 0.000000 4.815614 4.815614 4.815614 0.000000 0.000000 0.000000 0.000000 0.000000 0.000000 0.000000 29.749090 29.749090 29.749090 29.749090 29.749090 29.749090 29.749090 29.749090 29.749090 29.749090 29.749090 0.000000 0.000000 0.000000 0.000000 0.000000 0.000000 0.000000 0.000000 0.000000 0.000000 0.000000 0.000000 0.000000 0.000000 0.000000 0.000000 0.000000 0.000000 0.000000 13.530601 13.530601 13.530601 13.530601 13.530601 13.530601 13.530601 13.530601 0.000000 0.000000 0.000000 0.000000 0.000000 0.000000 0.000000 0.000000 0.000000 0.000000 0.000000 0.000000 0.000000 0.000000 0.000000 0.000000 0.000000 0.000000 0.000000 0.000000 0.000000 0.000000 0.000000 0.000000 0.000000 0.000000 0.000000 0.000000 0.000000 0.000000 0.000000
0.000000 0.000000 0.000000 0.000000 0.000000 0.000000 0.000000 0.000000 0.000000 0.000000 0.000000 0.000000 0.000000 0.000000 0.000000 0.000000 0.000000 0.000000 0.000000 0.000000 0.000000 0.000000 0.000000 0.000000 4.815614 4.815614 4.815614 0.000000 0.000000 0.000000 0.000000 0.000000 0.000000 0.000000 29.749090 29.749090 29.749090 29.749090 29.749090 29.749090 29.749090 29.749090 29.749090 29.749090 29.749090 0.000000 0.000000 0.000000 0.000000 0.000000 0.000000 0.000000 0.000000 0.000000 0.000000 0.000000 0.000000 0.000000 0.000000 0.000000 0.000000 0.000000 0.000000 0.000000 13.530601 13.530601 13.530601 13.530601 13.530601 13.530601 13.530601 13.530601 0.000000 0.000000 0.000000 0.000000 0.000000 0.000000 0.000000 0.000000 0.000000 0.000000 0.000000 0.000000 0.000000 0.000000 0.000000 0.000000 0.000000 0.000000 0.000000 0.000000 0.000000 0.000000 0.000000 0.000000 0.000000 0.000000 0.000000 0.000000 0.000000 0.000000 0.000000
0.000000 0.000000 0.000000 0.000000 0.000000 0.000000 0.000000 0.000000 0.000000 0.000000 0.000000 0.000000 0.000000 0.000000 0.000000 0.000000 0.000000 0.000000 0.000000 0.000000 0.000000 0.000000 0.000000 0.000000 4.815614 4.815614 4.815614 0.000000 0.000000 0.000000 0.000000 0.000000 0.000000 0.000000 29.749090 29.749090 29.749090 29.749090 29.749090 29.749090 29.749090 29.749090 29.749090 29.749090 29.749090 0.000000 0.000000 0.000000 0.000000 0.000000 0.000000 0.000000 0.000000 0.000000 0.000000 0.000000 0.000000 0.000000 0.000000 0.000000 0.000000 0.000000 0.000000 0.000000 13.530601 13.530601 13.530601 13.530601 13.530601 13.530601 13.530601 13.530601 0.000000 0.000000 0.000000 0.000000 0.000000 0.000000 0.000000 0.000000 0.000000 0.000000 0.000000 0.000000 0.000000 0.000000 0.000000 0.000000 0.000000 0.000000 0.000000 0.000000 0.000000 0.000000 0.000000 0.000000 0.000000 0.000000 0.000000 0.000000 0.000000 0.000000 0.000000
0.000000 0.000000 0.000000 0.000000 0.000000 0.000000 0.000000 0.000000 0.000000 0.000000 0.000000 0.000000 0.000000 0.000000 0.000000 0.000000 0.000000 0.000000 0.000000 0.000000 0.000000 0.000000 0.000000 0.000000 4.815614 4.815614 4.815614 0.000000 0.000000 0.000000 0.000000 0.000000 0.000000 0.000000 29.749090 29.749090 29.749090 29.749090 29.749090 29.749090 29.749090 29.749090 29.749090 29.749090 29.749090 0.000000 0.000000 0.000000 0.000000 0.000000 0.000000 0.000000 0.000000 0.000000 0.000000 0.000000 0.000000 0.000000 0.000000 0.000000 0.000000 0.000000 0.000000 0.000000 13.530601 13.530601 13.530601 13.530601 13.530601 13.530601 13.530601 13.530601 0.000000 0.000000 0.000000 0.000000 0.000000 0.000000 0.000000 0.000000 0.000000 0.000000 0.000000 0.000000 0.000000 0.000000 0.000000 0.000000 0.000000 0.000000 0.000000 0.000000 0.000000 0.000000 0.000000 0.000000 0.000000 0.000000 0.000000 0.000000 0.000000 0.000000 0.000000
0.000000 0.000000 0.000000 0.000000 0.000000 0.000000 0.000000 0.000000 0.000000 0.000000 0.000000 0.000000 0.000000 0.000000 0.000000 0.000000 0.000000 0.000000 0.000000 0.000000 0.000000 0.000000 0.000000 0.000000 4.815614 4.815614 4.815614 0.000000 0.000000 0.000000 0.000000 0.000000 0.000000 0.000000 29.749090 29.749090 29.749090 29.749090 29.749090 29.749090 29.749090 29.749090 29.749090 29.749090 29.749090 0.000000 0.000000 0.000000 0.000000 0.000000 0.000000 0.000000 0.000000 0.000000 0.000000 0.000000 0.000000 0.000000 0.000000 0.000000 0.000000 0.000000 0.000000 0.000000 13.530601 13.530601 13.530601 13.530601 13.530601 13.530601 13.530601 13.530601 0.000000 0.000000 0.000000 0.000000 0.000000 0.000000 0.000000 0.000000 0.000000 0.000000 0.000000 0.000000 0.000000 0.000000 0.000000 0.000000 0.000000 0.000000 0.000000 0.000000 0.000000 0.000000 0.000000 0.000000 0.000000 0.000000 0.000000 0.000000 0.000000 0.000000 0.000000
0.000000 0.000000 0.000000 0.000000 0.000000 0.000000 0.000000 0.000000 0.000000 0.000000 0.000000 0.000000 0.000000 0.000000 0.000000 0.000000 0.000000 0.000000 0.000000 0.000000 0.000000 0.000000 0.000000 0.000000 4.815614 4.815614 4.815614 0.000000 0.000000 0.000000 0.000000 0.000000 0.000000 0.000000 29.749090 29.749090 29.749090 29.749090 29.749090 29.749090 29.749090 29.749090 29.749090 29.749090 29.749090 0.000000 0.000000 0.000000 0.000000 0.000000 0.000000 0.000000 0.000000 0.000000 0.000000 0.000000 0.000000 0.000000 0.000000 0.000000 0.000000 0.000000 0.000000 0.000000 13.530601 13.530601 13.530601 13.530601 13.530601 13.530601 13.530601 13.530601 0.000000 0.000000 0.000000 0.000000 0.000000 0.000000 0.000000 0.000000 0.000000 0.000000 0.000000 0.000000 0.000000 0.000000 0.000000 0.000000 0.000000 0.000000 0.000000 0.000000 0.000000 0.000000 0.000000 0.000000 0.000000 0.000000 0.000000 0.000000 0.000000 0.000000 0.000000
0.000000 0.000000 0.000000 0.000000 0.000000 0.000000 0.000000 0.000000 0.000000 0.000000 0.000000 0.000000 0.000000 0.000000 0.000000 0.000000 0.000000 0.000000 0.000000 0.000000 0.000000 0.000000 0.000000 0.000000 0.000000 0.000000 0.000000 0.000000 0.000000 0.000000 0.000000 0.000000 0.000000 0.000000 29.749090 29.749090 29.749090 29.749090 29.749090 29.749090 29.749090 29.749090 29.749090 29.749090 29.749090 0.000000 0.000000 0.000000 0.000000 0.000000 0.000000 0.000000 0.000000 0.000000 0.000000 0.000000 0.000000 0.000000 0.000000 0.000000 0.000000 0.000000 0.000000 0.000000 0.000000 0.000000 0.000000 0.000000 0.000000 0.000000 0.000000 0.000000 0.000000 0.000000 0.000000 0.000000 0.000000 0.000000 0.000000 0.000000 0.000000 0.000000 0.000000 0.000000 0.000000 0.000000 0.000000 0.000000 0.000000 0.000000 0.000000 0.000000 0.000000 0.000000 0.000000 0.000000 0.000000 0.000000 0.000000 0.000000 0.000000 0.000000 0.000000
0.000000 0.000000 0.000000 0.000000 0.000000 0.000000 0.000000 0.000000 0.000000 0.000000 0.000000 0.000000 0.000000 0.000000 0.000000 0.000000 0.000000 0.000000 0.000000 0.000000 0.000000 0.000000 0.000000 0.000000 0.000000 0.000000 0.000000 0.000000 0.000000 0.000000 0.000000 0.000000 0.000000 0.000000 29.749090 29.749090 29.749090 29.749090 29.749090 29.749090 29.749090 29.749090 29.749090 29.749090 29.749090 0.000000 0.000000 0.000000 0.000000 0.000000 0.000000 0.000000 0.000000 0.000000 0.000000 0.000000 0.000000 0.000000 0.000000 0.000000 0.000000 0.000000 0.000000 0.000000 0.000000 0.000000 0.000000 0.000000 0.000000 0.000000 0.000000 0.000000 0.000000 0.000000 0.000000 0.000000 0.000000 0.000000 0.000000 0.000000 0.000000 0.000000 0.000000 0.000000 0.000000 0.000000 0.000000 0.000000 0.000000 0.000000 0.000000 0.000000 0.000000 0.000000 0.000000 0.000000 0.000000 0.000000 0.000000 0.000000 0.000000 0.000000 0.000000
0.000000 0.000000 0.000000 0.000000 0.000000 0.000000 0.000000 0.000000 0.000000 0.000000 0.000000 0.000000 0.000000 0.000000 0.000000 0.000000 0.000000 0.000000 0.000000 0.000000 0.000000 0.000000 0.000000 0.000000 0.000000 0.000000 0.000000 0.000000 0.000000 0.000000 0.000000 0.000000 0.000000 0.000000 0.000000 0.000000 0.000000 0.000000 0.000000 0.000000 0.000000 0.000000 0.000000 0.000000 0.000000 0.000000 0.000000 0.000000 0.000000 0.000000 0.000000 0.000000 0.000000 0.000000 0.000000 0.000000 0.000000 0.000000 0.000000 0.000000 0.000000 0.000000 0.000000 0.000000 0.000000 0.000000 0.000000 0.000000 0.000000 0.000000 0.000000 0.000000 0.000000 0.000000 0.000000 0.000000 0.000000 0.000000 0.000000 0.000000 0.000000 0.000000 0.000000 0.000000 0.000000 0.000000 0.000000 0.000000 0.000000 0.000000 0.000000 0.000000 0.000000 0.000000 0.000000 0.000000 0.000000 0.000000 0.000000 0.000000 0.000000 0.000000 0.000000
0.000000 0.000000 0.000000 0.000000 0.000000 0.000000 0.000000 0.000000 0.000000 0.000000 0.000000 0.000000 0.000000 0.000000 0.000000 0.000000 0.000000 0.000000 0.000000 0.000000 0.000000 0.000000 0.000000 0.000000 0.000000 0.000000 0.000000 0.000000 0.000000 0.000000 0.000000 0.000000 0.000000 0.000000 0.000000 0.000000 0.000000 0.000000 0.000000 0.000000 0.000000 0.000000 0.000000 0.000000 0.000000 0.000000 0.000000 0.000000 0.000000 0.000000 0.000000 0.000000 0.000000 0.000000 0.000000 0.000000 0.000000 0.000000 0.000000 0.000000 0.000000 0.000000 0.000000 0.000000 0.000000 0.000000 0.000000 0.000000 0.000000 0.000000 0.000000 0.000000 0.000000 0.000000 0.000000 0.000000 0.000000 0.000000 0.000000 0.000000 0.000000 0.000000 0.000000 0.000000 0.000000 0.000000 0.000000 0.000000 0.000000 0.000000 0.000000 0.000000 0.000000 0.000000 0.000000 0.000000 0.000000 0.000000 0.000000 0.000000 0.000000 0.000000 0.000000
0.000000 0.000000 0.000000 0.000000 0.000000 0.000000 0.000000 0.000000 0.000000 0.000000 0.000000 0.000000 0.000000 0.000000 0.000000 0.000000 0.000000 0.000000 0.000000 0.000000 0.000000 0.000000 0.000000 0.000000 0.000000 0.000000 0.000000 0.000000 0.000000 0.000000 0.000000 0.000000 0.000000 0.000000 0.000000 0.000000 0.000000 0.000000 0.000000 0.000000 0.000000 0.000000 0.000000 0.000000 0.000000 0.000000 0.000000 0.000000 0.000000 0.000000 0.000000 0.000000 0.000000 0.000000 0.000000 0.000000 0.000000 0.000000 0.000000 0.000000 0.000000 0.000000 0.000000 0.000000 0.000000 0.000000 0.000000 0.000000 0.000000 0.000000 0.000000 0.000000 0.000000 0.000000 0.000000 0.000000 0.000000 0.000000 0.000000 0.000000 0.000000 0.000000 0.000000 0.000000 0.000000 0.000000 0.000000 0.000000 0.000000 0.000000 0.000000 0.000000 0.000000 0.000000 0.000000 0.000000 0.000000 0.000000 0.000000 0.000000 0.000000 0.000000 0.000000
0.000000 0.000000 0.000000 0.000000 0.000000 0.000000 0.000000 0.000000 0.000000 0.000000 0.000000 0.000000 0.000000 0.000000 0.000000 0.000000 0.000000 0.000000 0.000000 0.000000 0.000000 0.000000 0.000000 0.000000 0.000000 0.000000 0.000000 0.000000 0.000000 0.000000 0.000000 0.000000 0.000000 0.000000 0.000000 0.000000 0.000000 0.000000 0.000000 0.000000 0.000000 0.000000 0.000000 0.000000 0.000000 0.000000 0.000000 0.000000 0.000000 0.000000 0.000000 0.000000 0.000000 0.000000 0.000000 0.000000 0.000000 0.000000 0.000000 0.000000 0.000000 0.000000 0.000000 0.000000 0.000000 0.000000 0.000000 0.000000 0.000000 0.000000 0.000000 0.000000 0.000000 0.000000 0.000000 0.000000 0.000000 0.000000 0.000000 0.000000 0.000000 0.000000 0.000000 0.000000 0.000000 0.000000 0.000000 0.000000 0.000000 0.000000 0.000000 0.000000 0.000000 0.000000 0.000000 0.000000 0.000000 0.000000 0.000000 0.000000 0.000000 0.000000 0.000000
0.000000 0.000000 0.000000 0.000000 0.000000 0.000000 0.000000 0.000000 0.000000 0.000000 0.000000 0.000000 0.000000 0.000000 0.000000 0.000000 0.000000 0.000000 0.000000 0.000000 0.000000 0.000000 0.000000 0.000000 0.000000 0.000000 0.000000 0.000000 0.000000 0.000000 0.000000 0.000000 0.000000 0.000000 0.000000 0.000000 0.000000 0.000000 0.000000 0.000000 0.000000 0.000000 0.000000 0.000000 0.000000 0.000000 0.000000 0.000000 0.000000 0.000000 0.000000 0.000000 0.000000 0.000000 0.000000 0.000000 0.000000 0.000000 0.000000 0.000000 0.000000 0.000000 0.000000 0.000000 0.000000 0.000000 0.000000 0.000000 0.000000 0.000000 0.000000 0.000000 0.000000 0.000000 0.000000 0.000000 0.000000 0.000000 0.000000 0.000000 0.000000 0.000000 0.000000 0.000000 0.000000 0.000000 0.000000 0.000000 0.000000 0.000000 0.000000 0.000000 0.000000 0.000000 0.000000 0.000000 0.000000 0.000000 0.000000 0.000000 0.000000 0.000000 0.000000
0.000000 0.000000 0.000000 0.000000 26.431570 26.431570 26.431570 26.431570 26.431570 26.431570 26.431570 27.499406 27.499406 27.499406 27.499406 27.499406 27.499406 0.000000 0.000000 0.000000 0.000000 0.000000 0.000000 0.000000 0.000000 0.000000 0.000000 0.000000 0.000000 0.000000 0.000000 0.000000 0.000000 0.000000 0.000000 0.000000 0.000000 0.000000 0.000000 0.000000 0.000000 0.000000 0.000000 0.000000 0.000000 0.000000 0.000000 0.000000 0.000000 0.000000 0.000000 0.000000 0.000000 0.000000 0.000000 0.000000 0.000000 0.000000 0.000000 0.000000 0.000000 0.000000 24.129885 24.129885 24.129885 24.129885 24.129885 24.129885 24.129885 24.129885 24.129885 24.129885 24.129885 0.000000 0.000000 0.000000 0.000000 0.000000 0.000000 0.000000 0.000000 0.000000 0.000000 0.000000 0.000000 0.000000 15.976628 15.976628 15.976628 15.976628 15.976628 15.976628 17.078955 17.078955 17.078955 17.078955 17.078955 17.078955 17.078955 0.000000 0.000000 0.000000 0.000000
0.000000 0.000000 0.000000 0.000000 26.431570 26.431570 26.431570 26.431570 26.431570 26.431570 26.431570 27.499406 27.499406 27.499406 27.499406 27.499406 27.499406 0.000000 0.000000 0.000000 0.000000 0.000000 0.000000 0.000000 0.000000 0.000000 0.000000 0.000000 0.000000 0.000000 0.000000 0.000000 0.000000 0.000000 0.000000 0.000000 0.000000 0.000000 0.000000 0.000000 0.000000 0.000000 0.000000 0.000000 0.000000 0.000000 0.000000 0.000000 0.000000 0.000000 0.000000 0.000000 0.000000 0.000000 0.000000 0.000000 0.000000 0.000000 0.000000 0.000000 0.000000 0.000000 24.129885 24.129885 24.129885 24.129885 24.129885 24.129885 24.129885 24.129885 24.129885 24.129885 24.129885 0.000000 0.000000 0.000000 0.000000 0.000000 0.000000 0.000000 0.000000 0.000000 0.000000 0.000000 0.000000 0.000000 15.976628 15.976628 15.976628 15.976628 15.976628 15.976628 17.078955 17.078955 17.078955 17.078955 17.078955 17.078955 17.078955 0.000000 0.000000 0.000000 0.000000
0.000000 0.000000 0.000000 0.000000 26.431570 26.431570 26.431570 26.431570 26.431570 26.431570 26.431570 27.499406 27.499406 27.499406 27.499406 27.499406 27.499406 0.000000 0.000000 0.000000 0.000000 0.000000 0.000000 0.000000 0.000000 0.000000 0.000000 0.000000 0.000000 0.000000 0.000000 0.000000 0.000000 0.000000 0.000000 0.000000 13.689715 13.689715 13.689715 13.689715 13.689715 13.689715 13.689715 0.000000 0.000000 0.000000 0.000000 0.000000 0.000000 0.000000 0.000000 0.000000 0.000000 0.000000 0.000000 0.000000 0.000000 0.000000 0.000000 0.000000 0.000000 0.000000 24.129885 24.129885 24.129885 24.129885 24.129885 24.129885 24.129885 24.129885 24.129885 24.129885 24.129885 0.000000 0.000000 0.000000 0.000000 0.000000 0.000000 0.000000 0.000000 0.000000 0.000000 0.000000 0.000000 0.000000 15.976628 15.976628 15.976628 15.976628 15.976628 15.976628 17.078955 17.078955 17.078955 17.078955 17.078955 17.078955 17.078955 0.000000 0.000000 0.000000 0.000000
0.000000 0.000000 0.000000 0.000000 26.431570 26.431570 26.431570 26.431570 26.431570 26.431570 26.431570 27.499406 27.499406 27.499406 27.499406 27.499406 27.499406 0.000000 0.000000 0.000000 0.000000 0.000000 0.000000 0.000000 0.000000 0.000000 0.000000 0.000000 0.000000 0.000000 0.000000 0.000000 0.000000 0.000000 0.000000 0.000000 13.689715 13.689715 13.689715 13.689715 13.689715 13.689715 13.689715 0.000000 0.000000 0.000000 0.000000 0.000000 0.000000 0.000000 0.000000 0.000000 0.000000 0.000000 0.000000 0.000000 0.000000 0.000000 0.000000 0.000000 0.000000 0.000000 24.129885 24.129885 24.129885 24.129885 24.129885 24.129885 24.129885 24.129885 24.129885 24.129885 24.129885 0.000000 0.000000 0.000000 0.000000 0.000000 0.000000 0.000000 0.000000 0.000000 0.000000 0.000000 0.000000 0.000000 15.976628 15.976628 15.976628 15.976628 15.976628 15.976628 17.078955 17.078955 17.078955 17.078955 17.078955 17.078955 17.078955 0.000000 0.000000 0.000000 0.000000
0.000000 0.000000 0.000000 0.000000 26.431570 26.431570 26.431570 26.431570 26.431570 26.431570 26.431570 27.499406 27.499406 27.499406 27.499406 27.499406 27.499406 0.000000 0.000000 0.000000 0.000000 0.000000 0.000000 0.000000 0.000000 0.000000 0.000000 0.000000 0.000000 0.000000 0.000000 0.000000 0.000000 0.000000 0.000000 0.000000 13.689715 13.689715 13.689715 13.689715 13.689715 13.689715 13.689715 0.000000 0.000000 0.000000 0.000000 0.000000 0.000000 0.000000 0.000000 0.000000 0.000000 0.000000 0.000000 0.000000 0.000000 0.000000 0.000000 0.000000 0.000000 0.000000 24.129885 24.129885 24.129885 24.129885 24.129885 24.129885 24.129885 24.129885 24.129885 24.129885 24.129885 0.000000 0.000000 0.000000 0.000000 0.000000 0.000000 0.000000 0.000000 0.000000 0.000000 0.000000 0.000000 0.000000 15.976628 15.976628 15.976628 15.976628 15.976628 15.976628 17.078955 17.078955 17.078955 17.078955 17.078955 17.078955 17.078955 0.000000 0.000000 0.000000 0.000000
0.000000 0.000000 0.000000 0.000000 26.431570 26.431570 26.431570 26.431570 26.431570 26.431570 26.431570 27.499406 27.499406 27.499406 27.499406 27.499406 27.499406 0.000000 0.000000 0.000000 0.000000 0.000000 0.000000 0.000000 0.000000 0.000000 0.000000 0.000000 0.000000 0.000000 0.000000 0.000000 0.000000 0.000000 0.000000 0.000000 13.689715 13.689715 13.689715 13.689715 13.689715 13.689715 13.689715 0.000000 0.000000 0.000000 0.000000 0.000000 0.000000 0.000000 0.000000 0.000000 0.000000 0.000000 0.000000 0.000000 0.000000 0.000000 0.000000 0.000000 0.000000 0.000000 24.129885 24.129885 24.129885 24.129885 24.129885 24.129885 24.129885 24.129885 24.129885 24.129885 24.129885 0.000000 0.000000 0.000000 0.000000 0.000000 0.000000 0.000000 0.000000 0.000000 0.000000 0.000000 0.000000 0.000000 15.976628 15.976628 15.976628 15.976628 15.976628 15.976628 17.078955 17.078955 17.078955 17.078955 17.078955 17.078955 17.078955 0.000000 0.000000 0.000000 0.000000
0.000000 0.000000 0.000000 0.000000 26.431570 26.431570 26.431570 26.431570 26.431570 26.431570 26.431570 27.499406 27.499406 27.499406 27.499406 27.499406 27.499406 0.000000 0.000000 0.000000 0.000000 0.000000 0.000000 0.000000 0.000000 0.000000 0.000000 0.000000 0.000000 0.000000 0.000000 0.000000 0.000000 0.000000 0.000000 0.000000 13.689715 13.689715 13.689715 13.689715 13.689715 13.689715 13.689715 0.000000 0.000000 0.000000 0.000000 0.000000 0.000000 0.000000 0.000000 0.000000 0.000000 0.000000 0.000000 0.000000 0.000000 0.000000 0.000000 0.000000 0.000000 0.000000 24.129885 24.129885 24.129885 24.129885 24.129885 24.129885 24.129885 24.129885 24.129885 24.129885 24.129885 0.000000 0.000000 0.000000 0.000000 0.000000 0.000000 0.000000 0.000000 0.000000 0.000000 0.000000 0.000000 0.000000 15.976628 15.976628 15.976628 15.976628 15.976628 15.976628 17.078955 17.078955 17.078955 17.078955 17.078955 17.078955 17.078955 0.000000 0.000000 0.000000 0.000000
0.000000 0.000000 0.000000 0.000000 26.431570 26.431570 26.431570 26.431570 26.431570 26.431570 26.431570 27.499406 27.499406 27.499406 27.499406 27.499406 27.499406 0.000000 0.000000 0.000000 0.000000 0.000000 0.000000 0.000000 0.000000 0.000000 0.000000 0.000000 0.000000 0.000000 0.000000 0.000000 0.000000 0.000000 0.000000 0.000000 13.689715 13.689715 13.689715 13.689715 13.689715 13.689715 13.689715 0.000000 0.000000 0.000000 0.000000 0.000000 0.000000 0.000000 0.000000 0.000000 0.000000 0.000000 0.000000 0.000000 0.000000 0.000000 0.000000 0.000000 0.000000 0.000000 24.129885 24.129885 24.129885 24.129885 24.129885 24.129885 24.129885 24.129885 24.129885 24.129885 24.129885 0.000000 0.000000 0.000000 0.000000 0.000000 0.000000 0.000000 0.000000 0.000000 0.000000 0.000000 0.000000 0.000000 15.976628 15.976628 15.976628 15.976628 15.976628 15.976628 17.078955 17.078955 17.078955 17.078955 17.078955 17.078955 17.078955 0.000000 0.000000 0.000000 0.000000
0.000000 0.000000 0.000000 0.000000 26.431570 26.431570 26.431570 26.431570 26.431570 26.431570 26.431570 27.499406 27.499406 27.499406 27.499406 27.499406 27.499406 0.000000 0.000000 0.000000 0.000000 0.000000 0.000000 0.000000 0.000000 0.000000 0.000000 0.000000 0.000000 0.000000 0.000000 0.000000 0.000000 0.000000 0.000000 0.000000 13.689715 13.689715 13.689715 13.689715 13.689715 13.689715 13.689715 0.000000 0.000000 0.000000 0.000000 0.000000 0.000000 0.000000 0.000000 0.000000 0.000000 0.000000 0.000000 0.000000 0.000000 0.000000 0.000000 0.000000 0.000000 0.000000 24.129885 24.129885 24.129885 24.129885 24.129885 24.129885 24.129885 24.129885 24.129885 24.129885 24.129885 0.000000 0.000000 0.000000 0.000000 0.000000 0.000000 0.000000 0.000000 0.000000 0.000000 0.000000 0.000000 0.000000 15.976628 15.976628 15.976628 15.976628 15.976628 15.976628 17.078955 17.078955 17.078955 17.078955 17.078955 17.078955 17.078955 0.000000 0.000000 0.000000 0.000000
0.000000 0.000000 0.000000 0.000000 26.431570 26.431570 26.431570 26.431570 26.431570 26.431570 26.431570 27.499406 27.499406 27.499406 27.499406 27.499406 27.499406 0.000000 0.000000 0.000000 0.000000 0.000000 0.000000 0.000000 0.000000 0.000000 0.000000 0.000000 0.000000 0.000000 0.000000 0.000000 0.000000 0.000000 0.000000 0.000000 0.000000 0.000000 0.000000 0.000000 0.000000 0.000000 0.000000 0.000000 0.000000 0.000000 0.000000 0.000000 0.000000 0.000000 0.000000 0.000000 0.000000 0.000000 0.000000 0.000000 0.000000 0.000000 0.000000 0.000000 0.000000 0.000000 16.467464 16.467464 16.467464 16.467464 16.467464 16.467464 16.467464 16.467464 16.467464 16.467464 16.467464 0.000000 0.000000 0.000000 0.000000 0.000000 0.000000 0.000000 0.000000 0.000000 0.000000 0.000000 0.000000 0.000000 15.976628 15.976628 15.976628 15.976628 15.976628 15.976628 17.078955 17.078955 17.078955 17.078955 17.078955 17.078955 17.078955 0.000000 0.000000 0.000000 0.000000
0.000000 0.000000 0.000000 0.000000 26.431570 26.431570 26.431570 26.431570 26.431570 26.431570 26.431570 27.499406 27.499406 27.499406 27.499406 27.499406 27.499406 0.000000 0.000000 0.000000 0.000000 0.000000 0.000000 0.000000 0.000000 0.000000 0.000000 0.000000 0.000000 0.000000 0.000000 0.000000 0.000000 0.000000 0.000000 0.000000 0.000000 0.000000 0.000000 0.000000 0.000000 0.000000 0.000000 0.000000 0.000000 0.000000 0.000000 0.000000 0.000000 0.000000 0.000000 0.000000 0.000000 0.000000 0.000000 0.000000 0.000000 0.000000 0.000000 0.000000 0.000000 0.000000 16.467464 16.467464 16.467464 16.467464 16.467464 16.467464 16.467464 16.467464 16.467464 16.467464 16.467464 0.000000 0.000000 0.000000 0.000000 0.000000 0.000000 9.977742 9.977742 9.977742 9.977742 9.977742 9.977742 9.977742 0.000000 0.000000 0.000000 0.000000 0.000000 0.000000 22.077420 22.077420 22.077420 22.077420 22.077420 22.077420 22.077420 0.000000 0.000000 0.000000 0.000000
0.000000 0.000000 0.000000 0.000000 26.431570 26.431570 26.431570 26.431570 26.431570 26.431570 26.431570 27.499406 27.499406 27.499406 27.499406 27.499406 27.499406 0.000000 0.000000 0.000000 0.000000 0.000000 0.000000 0.000000 0.000000 0.000000 0.000000 0.000000 0.000000 0.000000 0.000000 0.000000 0.000000 0.000000 0.000000 0.000000 0.000000 0.000000 0.000000 0.000000 0.000000 0.000000 0.000000 0.000000 0.000000 0.000000 0.000000 0.000000 0.000000 0.000000 0.000000 0.000000 0.000000 0.000000 0.000000 0.000000 0.000000 0.000000 0.000000 0.000000 0.000000 0.000000 16.467464 16.467464 16.467464 16.467464 16.467464 16.467464 16.467464 16.467464 16.467464 16.467464 16.467464 0.000000 6.851997 6.851997 6.851997 6.851997 0.000000 9.977742 9.977742 9.977742 9.977742 9.977742 9.977742 9.977742 0.000000 0.000000 0.000000 0.000000 0.000000 0.000000 22.077420 22.077420 22.077420 22.077420 22.077420 22.077420 22.077420 0.000000 0.000000 0.000000 0.000000
0.000000 0.000000 0.000000 0.000000 26.431570 26.431570 26.431570 26.431570 26.431570 26.431570 26.431570 27.499406 27.499406 27.499406 27.499406 27.499406 27.499406 0.000000 0.000000 0.000000 0.000000 0.000000 0.000000 0.000000 0.000000 0.000000 0.000000 0.000000 0.000000 0.000000 0.000000 0.000000 0.000000 0.000000 0.000000 0.000000 0.000000 0.000000 0.000000 0.000000 0.000000 0.000000 0.000000 0.000000 0.000000 0.000000 0.000000 0.000000 0.000000 0.000000 0.000000 0.000000 0.000000 0.000000 0.000000 0.000000 0.000000 0.000000 0.000000 0.000000 0.000000 0.000000 16.467464 16.467464 16.467464 16.467464 16.467464 16.467464 16.467464 16.467464 16.467464 16.467464 16.467464 0.000000 6.851997 6.851997 6.851997 6.851997 0.000000 9.977742 9.977742 9.977742 9.977742 9.977742 9.977742 9.977742 0.000000 0.000000 5.949927 5.949927 0.000000 0.000000 22.077420 22.077420 22.077420 22.077420 22.077420 22.077420 22.077420 0.000000 0.000000 0.000000 0.000000
0.000000 0.000000 0.000000 0.000000 26.431570 26.431570 26.431570 26.431570 26.431570 26.431570 26.431570 27.499406 27.499406 27.499406 27.499406 27.499406 27.499406 0.000000 0.000000 0.000000 0.000000 0.000000 0.000000 0.000000 0.000000 0.000000 0.000000 0.000000 0.000000 0.000000 0.000000 0.000000 0.000000 0.000000 0.000000 0.000000 12.716856 12.716856 12.716856 12.716856 12.716856 12.716856 12.716856 0.000000 0.000000 0.000000 0.000000 13.614927 13.614927 13.614927 13.614927 13.614927 13.614927 13.614927 13.614927 13.614927 0.000000 0.000000 0.000000 0.000000 0.000000 0.000000 16.467464 16.467464 16.467464 16.467464 16.467464 16.467464 16.467464 16.467464 16.467464 16.467464 16.467464 0.000000 6.851997 6.851997 6.851997 6.851997 0.000000 9.977742 9.977742 9.977742 9.977742 9.977742 9.977742 9.977742 0.000000 0.000000 5.949927 5.949927 0.000000 0.000000 22.077420 22.077420 22.077420 22.077420 22.077420 22.077420 22.077420 0.000000 0.000000 0.000000 0.000000
0.000000 0.000000 0.000000 0.000000 26.431570 26.431570 26.431570 26.431570 26.431570 26.431570 26.431570 27.499406 27.499406 27.499406 27.499406 27.499406 27.499406 0.000000 0.000000 0.000000 0.000000 0.000000 0.000000 0.000000 0.000000 0.000000 0.000000 0.000000 0.000000 0.000000 0.000000 0.000000 0.000000 0.000000 0.000000 0.000000 12.716856 12.716856 12.716856 12.716856 12.716856 12.716856 12.716856 0.000000 0.000000 0.000000 0.000000 13.614927 13.614927 13.614927 13.614927 13.614927 13.614927 13.614927 13.614927 13.614927 0.000000 0.000000 0.000000 0.000000 0.000000 0.000000 16.467464 16.467464 16.467464 16.467464 16.467464 16.467464 16.467464 16.467464 16.467464 16.467464 16.467464 0.000000 6.851997 6.851997 6.851997 6.851997 0.000000 9.977742 9.977742 9.977742 9.977742 9.977742 9.977742 9.977742 0.000000 0.000000 5.949927 5.949927 0.000000 0.000000 22.077420 22.077420 22.077420 22.077420 22.077420 22.077420 22.077420 0.000000 0.000000 0.000000 0.000000
0.000000 0.000000 0.000000 0.000000 26.431570 26.431570 26.431570 26.431570 26.431570 26.431570 26.431570 27.499406 27.499406 27.499406 27.499406 27.499406 27.499406 0.000000 0.000000 0.000000 0.000000 0.000000 0.000000 0.000000 0.000000 0.000000 0.000000 0.000000 0.000000 0.000000 0.000000 0.000000 0.000000 0.000000 0.000000 0.000000 12.716856 12.716856 12.716856 12.716856 12.716856 12.716856 12.716856 0.000000 0.000000 0.000000 0.000000 13.614927 13.614927 13.614927 13.614927 13.614927 13.614927 13.614927 13.614927 13.614927 0.000000 0.000000 0.000000 0.000000 0.000000 0.000000 16.467464 16.467464 16.467464 16.467464 16.467464 16.467464 16.467464 16.467464 16.467464 16.467464 16.467464 0.000000 6.851997 6.851997 6.851997 6.851997 0.000000 9.977742 9.977742 9.977742 9.977742 9.977742 9.977742 9.977742 0.000000 0.000000 5.949927 5.949927 0.000000 0.000000 22.077420 22.077420 22.077420 22.077420 22.077420 22.077420 22.077420 0.000000 0.000000 0.000000 0.000000
0.000000 0.000000 0.000000 0.000000 26.431570 26.431570 26.431570 26.431570 26.431570 26.431570 26.431570 27.499406 27.499406 27.499406 27.499406 27.499406 27.499406 0.000000 0.000000 0.000000 0.000000 0.000000 0.000000 0.000000 5.071108 5.071108 5.071108 0.000000 0.000000 0.000000 0.000000 0.000000 0.000000 0.000000 0.000000 0.000000 12.716856 12.716856 12.716856 12.716856 12.716856 12.716856 12.716856 0.000000 0.000000 0.000000 0.000000 13.614927 13.614927 13.614927 13.614927 13.614927 13.614927 13.614927 13.614927 13.614927 0.000000 0.000000 0.000000 0.000000 0.000000 0.000000 15.985689 15.985689 15.985689 15.985689 15.985689 15.985689 15.985689 15.985689 15.985689 15.985689 15.985689 0.000000 6.851997 6.851997 6.851997 6.851997 0.000000 9.556021 9.556021 9.556021 9.556021 9.556021 9.556021 9.556021 0.000000 0.000000 5.949927 5.949927 0.000000 0.000000 22.077420 22.077420 22.077420 22.077420 22.077420 22.077420 22.077420 0.000000 0.000000 0.000000 0.000000
0.000000 0.000000 0.000000 0.000000 16.492193 16.492193 16.492193 16.492193 16.492193 16.492193 16.492193 17.158478 17.158478 17.158478 17.158478 17.158478 17.158478 0.000000 0.000000 0.000000 0.000000 0.000000 0.000000 0.000000 5.071108 5.071108 5.071108 0.000000 0.000000 0.000000 0.000000 0.000000 0.000000 0.000000 0.000000 0.000000 12.716856 12.716856 12.716856 12.716856 12.716856 12.716856 12.716856 0.000000 0.000000 0.000000 0.000000 13.614927 13.614927 13.614927 13.614927 13.614927 13.614927 13.614927 13.614927 13.614927 0.000000 0.000000 0.000000 0.000000 0.000000 0.000000 15.985689 15.985689 15.985689 15.985689 15.985689 15.985689 15.985689 15.985689 15.985689 15.985689 15.985689 0.000000 6.851997 6.851997 6.851997 6.851997 0.000000 9.556021 9.556021 9.556021 9.556021 9.556021 9.556021 9.556021 0.000000 0.000000 5.949927 5.949927 0.000000 0.000000 22.077420 22.077420 22.077420 22.077420 22.077420 22.077420 22.077420 0.000000 0.000000 0.000000 0.000000
0.000000 0.000000 0.000000 0.000000 16.492193 16.492193 16.492193 16.492193 16.492193 16.492193 16.492193 17.158478 17.158478 17.158478 17.158478 17.158478 17.158478 0.000000 0.000000 0.000000 0.000000 0.000000 0.000000 0.000000 5.071108 5.071108 5.071108 0.000000 0.000000 0.000000 0.000000 0.000000 0.000000 0.000000 0.000000 0.000000 12.716856 12.716856 12.716856 12.716856 12.716856 12.716856 12.716856 0.000000 0.000000 0.000000 0.000000 13.614927 13.614927 13.614927 13.614927 13.614927 13.614927 13.614927 13.614927 13.614927 0.000000 0.000000 0.000000 0.000000 0.000000 0.000000 15.985689 15.985689 15.985689 15.985689 15.985689 15.985689 15.985689 15.985689 15.985689 15.985689 15.985689 0.000000 6.851997 6.851997 6.851997 6.851997 0.000000 9.556021 9.556021 9.556021 9.556021 9.556021 9.556021 9.556021 0.000000 0.000000 5.949927 5.949927 0.000000 0.000000 22.077420 22.077420 22.077420 22.077420 22.077420 22.077420 22.077420 0.000000 0.000000 0.000000 0.000000
0.000000 0.000000 0.000000 0.000000 16.492193 16.492193 16.492193 16.492193 16.492193 16.492193 16.492193 17.158478 17.158478 17.158478 17.158478 17.158478 17.158478 0.000000 0.000000 0.000000 0.000000 0.000000 0.000000 0.000000 5.071108 5.071108 5.071108 0.000000 0.000000 0.000000 0.000000 0.000000 0.000000 0.000000 0.000000 0.000000 0.000000 0.000000 0.000000 0.000000 0.000000 0.000000 0.000000 0.000000 0.000000 0.000000 0.000000 0.000000 0.000000 0.000000 0.000000 0.000000 0.000000 0.000000 0.000000 0.000000 0.000000 0.000000 0.000000 0.000000 0.000000 0.000000 15.985689 15.985689 15.985689 15.985689 15.985689 15.985689 15.985689 15.985689 15.985689 15.985689 15.985689 0.000000 6.851997 6.851997 6.851997 6.851997 0.000000 9.556021 9.556021 9.556021 9.556021 9.556021 9.556021 9.556021 0.000000 0.000000 5.949927 5.949927 0.000000 0.000000 22.077420 22.077420 22.077420 22.077420 22.077420 22.077420 22.077420 0.000000 0.000000 0.000000 0.000000
0.000000 0.000000 0.000000 0.000000 16.492193 16.492193 16.492193 16.492193 16.492193 16.492193 16.492193 17.158478 17.158478 17.158478 17.158478 17.158478 17.158478 0.000000 0.000000 0.000000 0.000000 0.000000 0.000000 0.000000 5.071108 5.071108 5.071108 0.000000 0.000000 0.000000 0.000000 0.000000 0.000000 0.000000 0.000000 0.000000 0.000000 0.000000 0.000000 0.000000 0.000000 0.000000 0.000000 0.000000 0.000000 0.000000 0.000000 0.000000 0.000000 0.000000 0.000000 0.000000 0.000000 0.000000 0.000000 0.000000 0.000000 0.000000 0.000000 0.000000 0.000000 0.000000 15.985689 15.985689 15.985689 15.985689 15.985689 15.985689 15.985689 15.985689 15.985689 15.985689 15.985689 0.000000 6.851997 6.851997 6.851997 6.851997 0.000000 9.556021 9.556021 9.556021 9.556021 9.556021 9.556021 9.556021 0.000000 0.000000 5.949927 5.949927 0.000000 0.000000 22.077420 22.077420 22.077420 22.077420 22.077420 22.077420 22.077420 0.000000 0.000000 0.000000 0.000000
0.000000 0.000000 0.000000 0.000000 16.492193 16.492193 16.492193 16.492193 16.492193 16.492193 16.492193 17.158478 17.158478 17.158478 17.158478 17.158478 17.158478 0.000000 0.000000 0.000000 0.000000 0.000000 0.000000 0.000000 5.071108 5.071108 5.071108 0.000000 0.000000 0.000000 0.000000 0.000000 0.000000 0.000000 0.000000 0.000000 0.000000 0.000000 0.000000 0.000000 0.000000 0.000000 0.000000 0.000000 0.000000 0.000000 0.000000 0.000000 0.000000 0.000000 0.000000 0.000000 0.000000 0.000000 0.000000 0.000000 0.000000 0.000000 0.000000 0.000000 0.000000 0.000000 15.985689 15.985689 15.985689 15.985689 15.985689 15.985689 15.985689 15.985689 15.985689 15.985689 15.985689 0.000000 0.000000 0.000000 0.000000 0.000000 0.000000 9.556021 9.556021 9.556021 9.556021 9.556021 9.556021 9.556021 0.000000 0.000000 0.000000 0.000000 0.000000 0.000000 22.077420 22.077420 22.077420 22.077420 22.077420 22.077420 22.077420 0.000000 0.000000 0.000000 0.000000
0.000000 0.000000 0.000000 0.000000 16.492193 16.492193 16.492193 16.492193 16.492193 16.492193 16.492193 17.158478 17.158478 17.158478 17.158478 17.158478 17.158478 0.000000 0.000000 0.000000 0.000000 0.000000 0.000000 0.000000 5.071108 5.071108 5.071108 0.000000 0.000000 0.000000 0.000000 0.000000 0.000000 0.000000 0.000000 0.000000 0.000000 0.000000 0.000000 0.000000 0.000000 0.000000 0.000000 0.000000 0.000000 0.000000 0.000000 0.000000 0.000000 0.000000 0.000000 0.000000 0.000000 0.000000 0.000000 0.000000 0.000000 0.000000 0.000000 0.000000 0.000000 0.000000 15.985689 15.985689 15.985689 15.985689 15.985689 15.985689 15.985689 15.985689 15.985689 15.985689 15.985689 0.000000 0.000000 0.000000 0.000000 0.000000 0.000000 9.556021 9.556021 9.556021 9.556021 9.556021 9.556021 9.556021 0.000000 0.000000 0.000000 0.000000 0.000000 0.000000 22.077420 22.077420 22.077420 22.077420 22.077420 22.077420 22.077420 0.000000 0.000000 0.000000 0.000000
0.000000 0.000000 0.000000 0.000000 16.492193 16.492193 16.492193 16.492193 16.492193 16.492193 16.492193 17.158478 17.158478 17.158478 17.158478 17.158478 17.158478 0.000000 0.000000 0.000000 0.000000 0.000000 0.000000 0.000000 0.000000 0.000000 0.000000 0.000000 0.000000 0.000000 0.000000 0.000000 0.000000 0.000000 0.000000 0.000000 31.940136 31.940136 31.940136 31.940136 31.940136 31.940136 31.940136 0.000000 0.000000 0.000000 0.000000 34.195766 34.195766 34.195766 34.195766 34.195766 34.195766 34.195766 34.195766 34.195766 0.000000 0.000000 0.000000 0.000000 0.000000 0.000000 0.000000 0.000000 0.000000 0.000000 0.000000 0.000000 0.000000 15.297660 15.297660 15.297660 15.297660 15.297660 15.297660 15.297660 15.297660 15.297660 15.297660 0.000000 0.000000 0.000000 0.000000 0.000000 0.000000 0.000000 0.000000 0.000000 0.000000 0.000000 0.000000 0.000000 0.000000 0.000000 0.000000 0.000000 0.000000 0.000000 0.000000 0.000000 0.000000 0.000000 0.000000
0.000000 0.000000 0.000000 0.000000 16.492193 16.492193 16.492193 16.492193 16.492193 16.492193 16.492193 17.158478 17.158478 17.158478 17.158478 17.158478 17.158478 0.000000 0.000000 0.000000 0.000000 0.000000 0.000000 0.000000 0.000000 0.000000 0.000000 0.000000 0.000000 0.000000 0.000000 0.000000 0.000000 0.000000 0.000000 0.000000 31.940136 31.940136 31.940136 31.940136 31.940136 31.940136 31.940136 0.000000 0.000000 0.000000 0.000000 34.195766 34.195766 34.195766 34.195766 34.195766 34.195766 34.195766 34.195766 34.195766 0.000000 0.000000 0.000000 0.000000 0.000000 0.000000 0.000000 0.000000 0.000000 0.000000 0.000000 0.000000 0.000000 15.297660 15.297660 15.297660 15.297660 15.297660 15.297660 15.297660 15.297660 15.297660 15.297660 0.000000 0.000000 0.000000 0.000000 0.000000 0.000000 0.000000 0.000000 0.000000 0.000000 0.000000 0.000000 0.000000 0.000000 0.000000 0.000000 0.000000 0.000000 0.000000 0.000000 0.000000 0.000000 0.000000 0.000000
0.000000 0.000000 0.000000 0.000000 16.492193 16.492193 16.492193 16.492193 16.492193 16.492193 16.492193 17.158478 17.158478 17.158478 17.158478 17.158478 17.158478 0.000000 0.000000 0.000000 0.000000 0.000000 0.000000 0.000000 0.000000 0.000000 0.000000 0.000000 0.000000 0.000000 0.000000 0.000000 0.000000 0.000000 0.000000 0.000000 31.940136 31.940136 31.940136 31.940136 31.940136 31.940136 31.940136 0.000000 0.000000 0.000000 0.000000 34.195766 34.195766 34.195766 34.195766 34.195766 34.195766 34.195766 34.195766 34.195766 0.000000 0.000000 0.000000 0.000000 0.000000 0.000000 0.000000 0.000000 0.000000 0.000000 0.000000 0.000000 0.000000 15.297660 15.297660 15.297660 15.297660 15.297660 15.297660 15.297660 15.297660 15.297660 15.297660 0.000000 0.000000 19.901234 19.901234 19.901234 19.901234 19.901234 19.901234 19.901234 19.901234 19.901234 0.000000 0.000000 0.000000 0.000000 7.269657 7.269657 7.269657 0.000000 0.000000 0.000000 0.000000 0.000000 0.000000
0.000000 0.000000 0.000000 0.000000 16.492193 16.492193 16.492193 16.492193 16.492193 16.492193 16.492193 17.158478 17.158478 17.158478 17.158478 17.158478 17.158478 0.000000 0.000000 0.000000 0.000000 0.000000 0.000000 0.000000 0.000000 0.000000 0.000000 0.000000 0.000000 0.000000 0.000000 0.000000 0.000000 0.000000 0.000000 0.000000 31.940136 31.940136 31.940136 31.940136 31.940136 31.940136 31.940136 0.000000 0.000000 0.000000 0.000000 34.195766 34.195766 34.195766 34.195766 34.195766 34.195766 34.195766 34.195766 34.195766 0.000000 0.000000 0.000000 0.000000 0.000000 0.000000 0.000000 0.000000 0.000000 0.000000 0.000000 0.000000 0.000000 15.297660 15.297660 15.297660 15.297660 15.297660 15.297660 15.297660 15.297660 15.297660 15.297660 0.000000 0.000000 19.901234 19.901234 19.901234 19.901234 19.901234 19.901234 19.901234 19.901234 19.901234 0.000000 0.000000 0.000000 0.000000 7.269657 7.269657 7.269657 0.000000 0.000000 0.000000 0.000000 0.000000 0.000000
0.000000 0.000000 0.000000 0.000000 16.492193 16.492193 16.492193 16.492193 16.492193 16.492193 16.492193 17.158478 17.158478 17.158478 17.158478 17.158478 17.158478 0.000000 0.000000 0.000000 0.000000 0.000000 0.000000 0.000000 9.142567 9.142567 9.142567 0.000000 0.000000 0.000000 0.000000 0.000000 0.000000 0.000000 0.000000 0.000000 31.940136 31.940136 31.940136 31.940136 31.940136 31.940136 31.940136 0.000000 0.000000 0.000000 0.000000 34.195766 34.195766 34.195766 34.195766 34.195766 34.195766 34.195766 34.195766 34.195766 0.000000 0.000000 0.000000 0.000000 0.000000 0.000000 0.000000 0.000000 0.000000 0.000000 0.000000 0.000000 0.000000 15.297660 15.297660 15.297660 15.297660 15.297660 15.297660 15.297660 15.297660 15.297660 15.297660 0.000000 0.000000 19.901234 19.901234 19.901234 19.901234 19.901234 19.901234 19.901234 19.901234 19.901234 0.000000 0.000000 0.000000 0.000000 7.269657 7.269657 7.269657 0.000000 0.000000 0.000000 0.000000 0.000000 0.000000
0.000000 0.000000 0.000000 0.000000 0.000000 0.000000 0.000000 0.000000 0.000000 0.000000 0.000000 0.000000 0.000000 0.000000 0.000000 0.000000 0.000000 0.000000 0.000000 0.000000 0.000000 0.000000 0.000000 0.000000 9.142567 9.142567 9.142567 0.000000 0.000000 0.000000 0.000000 0.000000 0.000000 0.000000 0.000000 0.000000 31.940136 31.940136 31.940136 31.940136 31.940136 31.940136 31.940136 0.000000 0.000000 0.000000 0.000000 34.195766 34.195766 34.195766 34.195766 34.195766 34.195766 34.195766 34.195766 34.195766 0.000000 0.000000 0.000000 0.000000 0.000000 0.000000 0.000000 0.000000 0.000000 0.000000 0.000000 0.000000 0.000000 15.297660 15.297660 15.297660 15.297660 15.297660 15.297660 15.297660 15.297660 15.297660 15.297660 0.000000 0.000000 19.901234 19.901234 19.901234 19.901234 19.901234 19.901234 19.901234 19.901234 19.901234 0.000000 0.000000 0.000000 0.000000 7.269657 7.269657 7.269657 0.000000 0.000000 0.000000 0.000000 0.000000 0.000000
0.000000 0.000000 0.000000 0.000000 0.000000 0.000000 0.000000 0.000000 0.000000 0.000000 0.000000 0.000000 0.000000 0.000000 0.000000 0.000000 0.000000 0.000000 0.000000 0.000000 0.000000 0.000000 0.000000 0.000000 9.142567 9.142567 9.142567 0.000000 0.000000 0.000000 0.000000 0.000000 0.000000 0.000000 0.000000 0.000000 31.940136 31.940136 31.940136 31.940136 31.940136 31.940136 31.940136 0.000000 0.000000 0.000000 0.000000 34.195766 34.195766 34.195766 34.195766 34.195766 34.195766 34.195766 34.195766 34.195766 0.000000 0.000000 0.000000 0.000000 0.000000 0.000000 0.000000 0.000000 0.000000 0.000000 0.000000 0.000000 0.000000 0.000000 0.000000 0.000000 0.000000 0.000000 0.000000 0.000000 0.000000 0.000000 0.000000 0.000000 0.000000 19.901234 19.901234 19.901234 19.901234 19.901234 19.901234 19.901234 19.901234 19.901234 0.000000 0.000000 0.000000 0.000000 7.269657 7.269657 7.269657 0.000000 0.000000 0.000000 0.000000 0.000000 0.000000
0.000000 0.000000 0.000000 0.000000 0.000000 0.000000 0.000000 0.000000 0.000000 0.000000 0.000000 0.000000 0.000000 0.000000 0.000000 0.000000 0.000000 0.000000 0.000000 0.000000 0.000000 0.000000 0.000000 0.000000 9.142567 9.142567 9.142567 0.000000 0.000000 0.000000 0.000000 0.000000 0.000000 0.000000 0.000000 0.000000 31.940136 31.940136 31.940136 31.940136 31.940136 31.940136 31.940136 0.000000 0.000000 0.000000 0.000000 34.195766 34.195766 34.195766 34.195766 34.195766 34.195766 34.195766 34.195766 34.195766 0.000000 0.000000 0.000000 0.000000 0.000000 0.000000 0.000000 0.000000 0.000000 0.000000 0.000000 0.000000 0.000000 0.000000 0.000000 0.000000 0.000000 0.000000 0.000000 0.000000 0.000000 0.000000 0.000000 0.000000 0.000000 19.901234 19.901234 19.901234 19.901234 19.901234 19.901234 19.901234 19.901234 19.901234 0.000000 0.000000 0.000000 0.000000 7.269657 7.269657 7.269657 0.000000 0.000000 0.000000 0.000000 0.000000 0.000000
0.000000 0.000000 0.000000 0.000000 0.000000 0.000000 0.000000 0.000000 0.000000 0.000000 0.000000 0.000000 0.000000 0.000000 0.000000 0.000000 0.000000 0.000000 0.000000 0.000000 0.000000 0.000000 0.000000 0.000000 9.142567 9.142567 9.142567 0.000000 0.000000 0.000000 0.000000 0.000000 0.000000 0.000000 0.000000 0.000000 31.940136 31.940136 31.940136 31.940136 31.940136 31.940136 31.940136 0.000000 0.000000 0.000000 0.000000 34.195766 34.195766 34.195766 34.195766 34.195766 34.195766 34.195766 34.195766 34.195766 0.000000 0.000000 0.000000 0.000000 0.000000 0.000000 0.000000 0.000000 0.000000 0.000000 0.000000 0.000000 0.000000 0.000000 0.000000 0.000000 0.000000 0.000000 0.000000 0.000000 0.000000 0.000000 0.000000 0.000000 0.000000 19.901234 19.901234 19.901234 19.901234 19.901234 19.901234 19.901234 19.901234 19.901234 0.000000 0.000000 0.000000 0.000000 7.269657 7.269657 7.269657 0.000000 0.000000 0.000000 0.000000 0.000000 0.000000
0.000000 0.000000 0.000000 0.000000 0.000000 0.000000 0.000000 0.000000 0.000000 0.000000 0.000000 0.000000 0.000000 0.000000 0.000000 0.000000 0.000000 0.000000 0.000000 0.000000 0.000000 0.000000 0.000000 0.000000 9.142567 9.142567 9.142567 0.000000 0.000000 0.000000 0.000000 0.000000 0.000000 0.000000 0.000000 0.000000 31.940136 31.940136 31.940136 31.940136 31.940136 31.940136 31.940136 0.000000 0.000000 0.000000 0.000000 34.195766 34.195766 34.195766 34.195766 34.195766 34.195766 34.195766 34.195766 34.195766 0.000000 0.000000 0.000000 0.000000 0.000000 0.000000 0.000000 0.000000 0.000000 0.000000 0.000000 0.000000 0.000000 0.000000 0.000000 0.000000 0.000000 0.000000 0.000000 0.000000 0.000000 0.000000 0.000000 0.000000 0.000000 19.901234 19.901234 19.901234 19.901234 19.901234 19.901234 19.901234 19.901234 19.901234 0.000000 0.000000 0.000000 0.000000 7.269657 7.269657 7.269657 0.000000 0.000000 0.000000 0.000000 0.000000 0.000000
0.000000 0.000000 0.000000 0.000000 0.000000 0.000000 0.000000 0.000000 0.000000 0.000000 0.000000 0.000000 0.000000 0.000000 0.000000 0.000000 0.000000 0.000000 0.000000 0.000000 0.000000 0.000000 0.000000 0.000000 9.142567 9.142567 9.142567 0.000000 0.000000 0.000000 0.000000 0.000000 0.000000 0.000000 0.000000 0.000000 31.940136 31.940136 31.940136 31.940136 31.940136 31.940136 31.940136 0.000000 0.000000 0.000000 0.000000 34.195766 34.195766 34.195766 34.195766 34.195766 34.195766 34.195766 34.195766 34.195766 0.000000 0.000000 0.000000 0.000000 0.000000 0.000000 0.000000 0.000000 0.000000 0.000000 0.000000 0.000000 0.000000 0.000000 0.000000 0.000000 0.000000 0.000000 0.000000 0.000000 0.000000 0.000000 0.000000 0.000000 0.000000 19.901234 19.901234 19.901234 19.901234 19.901234 19.901234 19.901234 19.901234 19.901234 0.000000 0.000000 0.000000 0.000000 7.269657 7.269657 7.269657 0.000000 0.000000 0.000000 0.000000 0.000000 0.000000
0.000000 0.000000 0.000000 0.000000 0.000000 0.000000 0.000000 0.000000 0.000000 0.000000 0.000000 0.000000 0.000000 0.000000 0.000000 0.000000 0.000000 0.000000 0.000000 0.000000 0.000000 0.000000 0.000000 0.000000 9.142567 9.142567 9.142567 0.000000 0.000000 0.000000 0.000000 0.000000 0.000000 0.000000 0.000000 0.000000 31.940136 31.940136 31.940136 31.940136 31.940136 31.940136 31.940136 0.000000 0.000000 0.000000 0.000000 34.195766 34.195766 34.195766 34.195766 34.195766 34.195766 34.195766 34.195766 34.195766 0.000000 0.000000 0.000000 0.000000 0.000000 0.000000 0.000000 0.000000 0.000000 0.000000 0.000000 0.000000 0.000000 0.000000 0.000000 0.000000 0.000000 0.000000 0.000000 0.000000 0.000000 0.000000 0.000000 0.000000 0.000000 0.000000 0.000000 0.000000 0.000000 0.000000 0.000000 0.000000 0.000000 0.000000 0.000000 0.000000 0.000000 0.000000 0.000000 0.000000 0.000000 0.000000 0.000000 0.000000 0.000000 0.000000 0.000000
0.000000 0.000000 0.000000 0.000000 0.000000 0.000000 0.000000 0.000000 0.000000 0.000000 0.000000 0.000000 0.000000 0.000000 0.000000 0.000000 0.000000 0.000000 0.000000 0.000000 0.000000 0.000000 0.000000 0.000000 9.142567 9.142567 9.142567 0.000000 0.000000 0.000000 0.000000 0.000000 0.000000 0.000000 0.000000 0.000000 31.940136 31.940136 31.940136 31.940136 31.940136 31.940136 31.940136 0.000000 0.000000 0.000000 0.000000 34.195766 34.195766 34.195766 34.195766 34.195766 34.195766 34.195766 34.195766 34.195766 0.000000 0.000000 0.000000 0.000000 0.000000 0.000000 0.000000 0.000000 0.000000 0.000000 0.000000 0.000000 0.000000 0.000000 0.000000 0.000000 0.000000 0.000000 0.000000 0.000000 0.000000 0.000000 0.000000 0.000000 0.000000 0.000000 0.000000 0.000000 0.000000 0.000000 0.000000 0.000000 0.000000 0.000000 0.000000 0.000000 0.000000 0.000000 0.000000 0.000000 0.000000 0.000000 0.000000 0.000000 0.000000 0.000000 0.000000
0.000000 0.000000 0.000000 0.000000 0.000000 0.000000 0.000000 0.000000 0.000000 0.000000 0.000000 0.000000 0.000000 0.000000 0.000000 0.000000 0.000000 0.000000 0.000000 0.000000 0.000000 0.000000 0.000000 0.000000 9.142567 9.142567 9.142567 0.000000 0.000000 0.000000 0.000000 0.000000 0.000000 0.000000 0.000000 0.000000 31.940136 31.940136 31.940136 31.940136 31.940136 31.940136 31.940136 0.000000 0.000000 0.000000 0.000000 34.195766 34.195766 34.195766 34.195766 34.195766 34.195766 34.195766 34.195766 34.195766 0.000000 0.000000 0.000000 0.000000 0.000000 0.000000 0.000000 0.000000 0.000000 0.000000 0.000000 0.000000 0.000000 0.000000 0.000000 0.000000 0.000000 0.000000 0.000000 0.000000 0.000000 0.000000 0.000000 0.000000 0.000000 0.000000 0.000000 0.000000 0.000000 0.000000 0.000000 0.000000 0.000000 0.000000 0.000000 0.000000 11.102117 11.102117 11.102117 11.102117 11.102117 11.102117 11.102117 0.000000 0.000000 0.000000 0.000000
0.000000 0.000000 0.000000 0.000000 0.000000 0.000000 0.000000 0.000000 0.000000 0.000000 0.000000 0.000000 0.000000 0.000000 0.000000 0.000000 0.000000 0.000000 0.000000 0.000000 0.000000 0.000000 0.000000 0.000000 9.142567 9.142567 9.142567 0.000000 0.000000 0.000000 0.000000 0.000000 0.000000 0.000000 0.000000 0.000000 31.940136 31.940136 31.940136 31.940136 31.940136 31.940136 31.940136 0.000000 0.000000 0.000000 0.000000 34.195766 34.195766 34.195766 34.195766 34.195766 34.195766 34.195766 34.195766 34.195766 0.000000 0.000000 0.000000 0.000000 0.000000 0.000000 0.000000 0.000000 8.866889 8.866889 8.866889 8.866889 8.866889 8.866889 8.866889 8.866889 8.866889 8.866889 8.866889 8.866889 8.866889 8.866889 0.000000 0.000000 0.000000 0.000000 0.000000 0.000000 0.000000 0.000000 0.000000 0.000000 0.000000 0.000000 0.000000 0.000000 11.102117 11.102117 11.102117 11.102117 11.102117 11.102117 11.102117 0.000000 0.000000 0.000000 0.000000
0.000000 0.000000 0.000000 0.000000 0.000000 0.000000 0.000000 0.000000 0.000000 0.000000 0.000000 0.000000 0.000000 0.000000 0.000000 0.000000 0.000000 0.000000 0.000000 0.000000 0.000000 0.000000 0.000000 0.000000 9.142567 9.142567 9.142567 0.000000 0.000000 0.000000 0.000000 0.000000 0.000000 0.000000 0.000000 0.000000 31.940136 31.940136 31.940136 31.940136 31.940136 31.940136 31.940136 0.000000 0.000000 0.000000 0.000000 34.195766 34.195766 34.195766 34.195766 34.195766 34.195766 34.195766 34.195766 34.195766 0.000000 0.000000 0.000000 0.000000 0.000000 0.000000 0.000000 0.000000 8.866889 8.866889 8.866889 8.866889 8.866889 8.866889 8.866889 8.866889 8.866889 8.866889 8.866889 8.866889 8.866889 8.866889 0.000000 0.000000 0.000000 0.000000 0.000000 0.000000 0.000000 0.000000 0.000000 0.000000 0.000000 0.000000 0.000000 0.000000 11.102117 11.102117 11.102117 11.102117 11.102117 11.102117 11.102117 0.000000 0.000000 0.000000 0.000000
0.000000 0.000000 0.000000 0.000000 0.000000 0.000000 0.000000 0.000000 0.000000 0.000000 0.000000 0.000000 0.000000 0.000000 0.000000 0.000000 0.000000 0.000000 0.000000 0.000000 0.000000 0.000000 0.000000 0.000000 9.142567 9.142567 9.142567 0.000000 0.000000 0.000000 0.000000 0.000000 0.000000 0.000000 0.000000 0.000000 31.940136 31.940136 31.940136 31.940136 31.940136 31.940136 31.940136 0.000000 0.000000 0.000000 0.000000 34.195766 34.195766 34.195766 34.195766 34.195766 34.195766 34.195766 34.195766 34.195766 0.000000 0.000000 0.000000 0.000000 0.000000 0.000000 0.000000 0.000000 8.866889 8.866889 8.866889 8.866889 8.866889 8.866889 8.866889 8.866889 8.866889 8.866889 8.866889 8.866889 8.866889 8.866889 0.000000 0.000000 0.000000 0.000000 0.000000 0.000000 0.000000 0.000000 0.000000 0.000000 0.000000 0.000000 0.000000 0.000000 11.102117 11.102117 11.102117 11.102117 11.102117 11.102117 11.102117 0.000000 0.000000 0.000000 0.000000
0.000000 0.000000 0.000000 0.000000 0.000000 0.000000 0.000000 0.000000 0.000000 0.000000 0.000000 0.000000 0.000000 0.000000 0.000000 0.000000 0.000000 0.000000 0.000000 0.000000 0.000000 0.000000 0.000000 0.000000 0.000000 0.000000 0.000000 0.000000 0.000000 0.000000 0.000000 0.000000 0.000000 0.000000 0.000000 0.000000 0.000000 0.000000 0.000000 0.000000 0.000000 0.000000 0.000000 0.000000 0.000000 0.000000 0.000000 0.000000 0.000000 0.000000 0.000000 0.000000 0.000000 0.000000 0.000000 0.000000 0.000000 0.000000 0.000000 0.000000 0.000000 0.000000 0.000000 0.000000 0.000000 0.000000 0.000000 0.000000 0.000000 0.000000 0.000000 0.000000 0.000000 0.000000 0.000000 0.000000 0.000000 0.000000 0.000000 0.000000 0.000000 0.000000 0.000000 0.000000 0.000000 0.000000 0.000000 0.000000 0.000000 0.000000 0.000000 0.000000 11.102117 11.102117 11.102117 11.102117 11.102117 11.102117 11.102117 0.000000 0.000000 0.000000 0.000000
0.000000 0.000000 0.000000 0.000000 0.000000 0.000000 0.000000 0.000000 0.000000 0.000000 0.000000 0.000000 0.000000 0.000000 0.000000 0.000000 0.000000 0.000000 0.000000 0.000000 0.000000 0.000000 0.000000 0.000000 0.000000 0.000000 0.000000 0.000000 0.000000 0.000000 0.000000 0.000000 0.000000 0.000000 0.000000 0.000000 0.000000 0.000000 0.000000 0.000000 0.000000 0.000000 0.000000 0.000000 0.000000 0.000000 0.000000 0.000000 0.000000 0.000000 0.000000 0.000000 0.000000 0.000000 0.000000 0.000000 0.000000 0.000000 0.000000 0.000000 0.000000 0.000000 0.000000 0.000000 0.000000 0.000000 0.000000 0.000000 0.000000 0.000000 0.000000 0.000000 0.000000 0.000000 0.000000 0.000000 0.000000 0.000000 0.000000 0.000000 0.000000 0.000000 0.000000 0.000000 0.000000 0.000000 0.000000 0.000000 0.000000 0.000000 0.000000 0.000000 11.102117 11.102117 11.102117 11.102117 11.102117 11.102117 11.102117 0.000000 0.000000 0.000000 0.000000
0.000000 0.000000 0.000000 0.000000 0.000000 0.000000 0.000000 0.000000 0.000000 0.000000 0.000000 0.000000 0.000000 0.000000 0.000000 0.000000 0.000000 0.000000 0.000000 0.000000 0.000000 0.000000 0.000000 0.000000 0.000000 0.000000 0.000000 0.000000 0.000000 0.000000 0.000000 0.000000 0.000000 0.000000 0.000000 0.000000 0.000000 0.000000 0.000000 0.000000 0.000000 0.000000 0.000000 0.000000 0.000000 0.000000 0.000000 0.000000 0.000000 0.000000 0.000000 0.000000 0.000000 0.000000 0.000000 0.000000 0.000000 0.000000 0.000000 0.000000 0.000000 0.000000 0.000000 0.000000 0.000000 0.000000 0.000000 0.000000 0.000000 0.000000 0.000000 0.000000 0.000000 0.000000 0.000000 0.000000 0.000000 0.000000 0.000000 0.000000 0.000000 0.000000 0.000000 0.000000 0.000000 0.000000 0.000000 0.000000 0.000000 0.000000 0.000000 0.000000 0.000000 0.000000 0.000000 0.000000 0.000000 0.000000 0.000000 0.000000 0.000000 0.000000 0.000000
0.000000 0.000000 0.000000 0.000000 0.000000 0.000000 0.000000 0.000000 0.000000 0.000000 0.000000 0.000000 0.000000 0.000000 0.000000 0.000000 0.000000 0.000000 0.000000 0.000000 0.000000 0.000000 0.000000 0.000000 0.000000 0.000000 0.000000 0.000000 0.000000 0.000000 0.000000 0.000000 0.000000 0.000000 0.000000 0.000000 0.000000 0.000000 0.000000 0.000000 0.000000 0.000000 0.000000 0.000000 0.000000 0.000000 0.000000 0.000000 0.000000 0.000000 0.000000 0.000000 0.000000 0.000000 0.000000 0.000000 0.000000 0.000000 0.000000 0.000000 0.000000 0.000000 0.000000 0.000000 0.000000 0.000000 0.000000 0.000000 0.000000 0.000000 0.000000 0.000000 0.000000 0.000000 0.000000 0.000000 0.000000 0.000000 0.000000 0.000000 0.000000 0.000000 0.000000 0.000000 0.000000 0.000000 0.000000 0.000000 0.000000 0.000000 0.000000 0.000000 0.000000 0.000000 0.000000 0.000000 0.000000 0.000000 0.000000 0.000000 0.000000 0.000000 0.000000
0.000000 0.000000 0.000000 0.000000 0.000000 0.000000 0.000000 0.000000 0.000000 0.000000 0.000000 0.000000 0.000000 0.000000 0.000000 0.000000 0.000000 0.000000 0.000000 0.000000 0.000000 0.000000 0.000000 0.000000 0.000000 0.000000 0.000000 0.000000 0.000000 0.000000 0.000000 0.000000 0.000000 0.000000 0.000000 0.000000 0.000000 0.000000 0.000000 0.000000 0.000000 0.000000 0.000000 0.000000 0.000000 0.000000 0.000000 0.000000 0.000000 0.000000 0.000000 0.000000 0.000000 0.000000 0.000000 0.000000 0.000000 0.000000 0.000000 0.000000 0.000000 0.000000 0.000000 0.000000 0.000000 0.000000 0.000000 0.000000 0.000000 0.000000 0.000000 0.000000 0.000000 0.000000 0.000000 0.000000 0.000000 0.000000 0.000000 0.000000 0.000000 0.000000 0.000000 0.000000 0.000000 0.000000 0.000000 0.000000 0.000000 0.000000 0.000000 0.000000 0.000000 0.000000 0.000000 0.000000 0.000000 0.000000 0.000000 0.000000 0.000000 0.000000 0.000000
0.000000 0.000000 0.000000 0.000000 0.000000 0.000000 0.000000 0.000000 0.000000 0.000000 0.000000 0.000000 0.000000 0.000000 0.000000 0.000000 0.000000 0.000000 0.000000 0.000000 0.000000 0.000000 0.000000 0.000000 0.000000 0.000000 0.000000 0.000000 0.000000 0.000000 0.000000 0.000000 0.000000 0.000000 0.000000 0.000000 0.000000 0.000000 0.000000 0.000000 0.000000 0.000000 0.000000 0.000000 0.000000 0.000000 0.000000 0.000000 0.000000 0.000000 0.000000 0.000000 0.000000 0.000000 0.000000 0.000000 0.000000 0.000000 0.000000 0.000000 0.000000 0.000000 0.000000 0.000000 0.000000 0.000000 0.000000 0.000000 0.000000 0.000000 0.000000 0.000000 0.000000 0.000000 0.000000 0.000000 0.000000 0.000000 0.000000 0.000000 0.000000 0.000000 0.000000 0.000000 0.000000 0.000000 0.000000 0.000000 0.000000 0.000000 0.000000 0.000000 0.000000 0.000000 0.000000 0.000000 0.000000 0.000000 0.000000 0.000000 0.000000 0.000000 0.000000
0.000000 0.000000 0.000000 0.000000 0.000000 0.000000 0.000000 0.000000 0.000000 0.000000 0.000000 0.000000 0.000000 0.000000 0.000000 0.000000 0.000000 0.000000 0.000000 0.000000 0.000000 0.000000 0.000000 0.000000 0.000000 0.000000 0.000000 0.000000 0.000000 0.000000 0.000000 0.000000 0.000000 0.000000 0.000000 0.000000 0.000000 0.000000 0.000000 0.000000 0.000000 0.000000 0.000000 0.000000 0.000000 0.000000 0.000000 0.000000 0.000000 0.000000 0.000000 0.000000 0.000000 0.000000 0.000000 0.000000 0.000000 0.000000 0.000000 0.000000 0.000000 0.000000 0.000000 0.000000 0.000000 0.000000 0.000000 0.000000 0.000000 0.000000 0.000000 0.000000 0.000000 0.000000 0.000000 0.000000 0.000000 0.000000 0.000000 0.000000 0.000000 0.000000 0.000000 0.000000 0.000000 0.000000 0.000000 0.000000 0.000000 0.000000 0.000000 0.000000 0.000000 0.000000 0.000000 0.000000 0.000000 0.000000 0.000000 0.000000 0.000000 0.000000 0.000000
0.000000 0.000000 0.000000 0.000000 0.000000 0.000000 0.000000 0.000000 0.000000 0.000000 0.000000 0.000000 0.000000 0.000000 0.000000 0.000000 0.000000 0.000000 0.000000 0.000000 0.000000 0.000000 0.000000 0.000000 0.000000 0.000000 0.000000 0.000000 0.000000 0.000000 0.000000 0.000000 0.000000 0.000000 0.000000 0.000000 0.000000 0.000000 0.000000 0.000000 0.000000 0.000000 0.000000 0.000000 0.000000 0.000000 0.000000 0.000000 0.000000 0.000000 0.000000 0.000000 0.000000 0.000000 0.000000 0.000000 0.000000 0.000000 0.000000 0.000000 0.000000 0.000000 0.000000 0.000000 0.000000 0.000000 0.000000 0.000000 0.000000 0.000000 0.000000 0.000000 0.000000 0.000000 0.000000 0.000000 0.000000 0.000000 0.000000 0.000000 0.000000 0.000000 0.000000 0.000000 0.000000 0.000000 0.000000 0.000000 0.000000 0.000000 0.000000 0.000000 0.000000 0.000000 0.000000 0.000000 0.000000 0.000000 0.000000 0.000000 0.000000 0.000000 0.000000
0.000000 0.000000 0.000000 0.000000 0.000000 0.000000 0.000000 0.000000 0.000000 0.000000 0.000000 0.000000 0.000000 0.000000 0.000000 0.000000 0.000000 0.000000 0.000000 0.000000 0.000000 0.000000 0.000000 0.000000 0.000000 0.000000 0.000000 0.000000 0.000000 0.000000 0.000000 0.000000 0.000000 0.000000 0.000000 0.000000 0.000000 0.000000 0.000000 0.000000 0.000000 0.000000 0.000000 0.000000 0.000000 0.000000 0.000000 0.000000 0.000000 0.000000 0.000000 0.000000 0.000000 0.000000 0.000000 0.000000 0.000000 0.000000 0.000000 0.000000 0.000000 0.000000 0.000000 0.000000 0.000000 0.000000 0.000000 0.000000 0.000000 0.000000 0.000000 0.000000 0.000000 0.000000 0.000000 0.000000 0.000000 0.000000 0.000000 0.000000 0.000000 0.000000 0.000000 0.000000 0.000000 0.000000 0.000000 0.000000 0.000000 0.000000 0.000000 0.000000 0.000000 0.000000 0.000000 0.000000 0.000000 0.000000 0.000000 0.000000 0.000000 0.000000 0.000000
0.000000 0.000000 0.000000 0.000000 0.000000 0.000000 5.573227 5.573227 5.573227 5.573227 5.573227 5.573227 5.573227 5.573227 5.573227 0.000000 0.000000 0.000000 0.000000 0.000000 0.000000 0.000000 0.000000 0.000000 1.735224 1.735224 1.735224 0.000000 0.000000 0.000000 0.000000 0.000000 0.000000 0.000000 0.000000 0.000000 5.386654 5.386654 5.386654 5.386654 5.386654 5.386654 5.386654 5.386654 5.386654 0.000000 0.000000 0.000000 0.000000 0.000000 0.000000 0.000000 0.000000 0.000000 0.000000 0.000000 0.000000 0.000000 0.000000 0.000000 0.000000 0.000000 0.000000 0.000000 4.212749 4.212749 4.212749 4.212749 4.212749 4.212749 4.212749 0.000000 0.000000 0.000000 0.000000 3.854476 3.854476 3.854476 3.854476 3.854476 3.854476 0.000000 0.000000 0.000000 0.000000 0.000000 0.000000 0.000000 0.000000 0.000000 0.000000 0.000000 0.000000 0.000000 0.000000 0.000000 0.000000 0.000000 0.000000 0.000000 0.000000 0.000000 0.000000
0.000000 0.000000 0.000000 0.000000 0.000000 0.000000 5.573227 5.573227 5.573227 5.573227 5.573227 5.573227 5.573227 5.573227 5.573227 0.000000 0.000000 0.000000 0.000000 0.000000 0.000000 0.000000 0.000000 0.000000 1.735224 1.735224 1.735224 0.000000 0.000000 0.000000 0.000000 0.000000 0.000000 0.000000 0.000000 0.000000 5.386654 5.386654 5.386654 5.386654 5.386654 5.386654 5.386654 5.386654 5.386654 0.000000 0.000000 0.000000 0.000000 0.000000 0.000000 0.000000 0.000000 0.000000 0.000000 0.000000 0.000000 0.000000 0.000000 0.000000 0.000000 0.000000 0.000000 0.000000 4.212749 4.212749 4.212749 4.212749 4.212749 4.212749 4.212749 0.000000 0.000000 0.000000 0.000000 3.854476 3.854476 3.854476 3.854476 3.854476 3.854476 0.000000 0.000000 0.000000 0.000000 0.000000 0.000000 0.000000 0.000000 0.000000 0.000000 0.000000 0.000000 0.000000 0.000000 0.000000 0.000000 0.000000 0.000000 0.000000 0.000000 0.000000 0.000000
0.000000 0.000000 0.000000 0.000000 0.000000 0.000000 5.573227 5.573227 5.573227 5.573227 5.573227 5.573227 5.573227 5.573227 5.573227 0.000000 0.000000 0.000000 0.000000 0.000000 0.000000 0.000000 0.000000 0.000000 1.735224 1.735224 1.735224 0.000000 0.000000 0.000000 0.000000 0.000000 0.000000 0.000000 0.000000 0.000000 5.386654 5.386654 5.386654 5.386654 5.386654 5.386654 5.386654 5.386654 5.386654 0.000000 0.000000 0.000000 0.000000 0.000000 0.000000 0.000000 0.000000 0.000000 0.000000 0.000000 0.000000 0.000000 0.000000 0.000000 0.000000 0.000000 0.000000 0.000000 4.212749 4.212749 4.212749 4.212749 4.212749 4.212749 4.212749 0.000000 0.000000 0.000000 0.000000 3.854476 3.854476 3.854476 3.854476 3.854476 3.854476 0.000000 0.000000 0.000000 0.000000 0.000000 0.000000 0.000000 0.000000 0.000000 0.000000 0.000000 0.000000 0.000000 0.000000 0.000000 0.000000 0.000000 0.000000 0.000000 0.000000 0.000000 0.000000
0.000000 0.000000 0.000000 0.000000 0.000000 0.000000 0.000000 0.000000 0.000000 0.000000 0.000000 0.000000 0.000000 0.000000 0.000000 0.000000 0.000000 0.000000 0.000000 0.000000 0.000000 0.000000 0.000000 0.000000 0.000000 0.000000 0.000000 0.000000 0.000000 0.000000 0.000000 0.000000 0.000000 0.000000 0.000000 0.000000 0.000000 0.000000 0.000000 0.000000 0.000000 0.000000 0.000000 0.000000 0.000000 0.000000 0.000000 0.000000 0.000000 0.000000 0.000000 0.000000 0.000000 0.000000 0.000000 0.000000 0.000000 0.000000 0.000000 0.000000 0.000000 0.000000 0.000000 0.000000 0.000000 0.000000 0.000000 0.000000 0.000000 0.000000 0.000000 0.000000 0.000000 0.000000 0.000000 0.000000 0.000000 0.000000 0.000000 0.000000 0.000000 0.000000 0.000000 0.000000 0.000000 0.000000 0.000000 0.000000 0.000000 0.000000 0.000000 0.000000 0.000000 0.000000 0.000000 0.000000 0.000000 0.000000 0.000000 0.000000 0.000000 0.000000 0.000000
0.000000 0.000000 0.000000 0.000000 0.000000 0.000000 0.000000 0.000000 0.000000 0.000000 0.000000 0.000000 0.000000 0.000000 0.000000 0.000000 0.000000 0.000000 0.000000 0.000000 0.000000 0.000000 0.000000 0.000000 0.000000 0.000000 0.000000 0.000000 0.000000 0.000000 0.000000 0.000000 0.000000 0.000000 0.000000 0.000000 0.000000 0.000000 0.000000 0.000000 0.000000 0.000000 0.000000 0.000000 0.000000 0.000000 0.000000 0.000000 0.000000 0.000000 0.000000 0.000000 0.000000 0.000000 0.000000 0.000000 0.000000 0.000000 0.000000 0.000000 0.000000 0.000000 0.000000 0.000000 0.000000 0.000000 0.000000 0.000000 0.000000 0.000000 0.000000 0.000000 0.000000 0.000000 0.000000 0.000000 0.000000 0.000000 0.000000 0.000000 0.000000 0.000000 0.000000 0.000000 0.000000 0.000000 0.000000 0.000000 0.000000 0.000000 0.000000 0.000000 0.000000 0.000000 0.000000 0.000000 0.000000 0.000000 0.000000 0.000000 0.000000 0.000000 0.000000
0.000000 0.000000 0.000000 0.000000 0.000000 0.000000 0.000000 0.000000 0.000000 0.000000 0.000000 0.000000 0.000000 0.000000 0.000000 0.000000 0.000000 0.000000 0.000000 0.000000 0.000000 0.000000 0.000000 0.000000 0.000000 0.000000 0.000000 0.000000 0.000000 0.000000 0.000000 0.000000 0.000000 0.000000 0.000000 0.000000 0.000000 0.000000 0.000000 0.000000 0.000000 0.000000 0.000000 0.000000 0.000000 0.000000 0.000000 0.000000 0.000000 0.000000 0.000000 0.000000 0.000000 0.000000 0.000000 0.000000 0.000000 0.000000 0.000000 0.000000 0.000000 0.000000 0.000000 0.000000 0.000000 0.000000 0.000000 0.000000 0.000000 0.000000 0.000000 0.000000 0.000000 0.000000 0.000000 0.000000 0.000000 0.000000 0.000000 0.000000 0.000000 0.000000 0.000000 0.000000 0.000000 0.000000 0.000000 0.000000 0.000000 0.000000 0.000000 0.000000 0.000000 0.000000 0.000000 0.000000 0.000000 0.000000 0.000000 0.000000 0.000000 0.000000 0.000000
0.000000 0.000000 0.000000 0.000000 0.000000 0.000000 0.000000 0.000000 0.000000 0.000000 0.000000 0.000000 0.000000 0.000000 0.000000 0.000000 0.000000 0.000000 0.000000 0.000000 0.000000 0.000000 0.000000 0.000000 0.000000 0.000000 0.000000 0.000000 0.000000 0.000000 0.000000 0.000000 0.000000 0.000000 0.000000 0.000000 0.000000 0.000000 0.000000 0.000000 0.000000 0.000000 0.000000 0.000000 0.000000 0.000000 0.000000 0.000000 0.000000 0.000000 0.000000 0.000000 0.000000 0.000000 0.000000 0.000000 0.000000 0.000000 0.000000 0.000000 0.000000 0.000000 0.000000 0.000000 0.000000 0.000000 0.000000 0.000000 0.000000 0.000000 0.000000 0.000000 0.000000 0.000000 0.000000 0.000000 0.000000 0.000000 0.000000 0.000000 0.000000 0.000000 0.000000 0.000000 0.000000 0.000000 0.000000 0.000000 0.000000 0.000000 0.000000 0.000000 0.000000 0.000000 0.000000 0.000000 0.000000 0.000000 0.000000 0.000000 0.000000 0.000000 0.000000
0.000000 0.000000 0.000000 0.000000 0.000000 0.000000 0.000000 0.000000 0.000000 0.000000 0.000000 0.000000 0.000000 0.000000 0.000000 0.000000 0.000000 0.000000 0.000000 0.000000 0.000000 0.000000 0.000000 0.000000 0.000000 0.000000 0.000000 0.000000 0.000000 0.000000 0.000000 0.000000 0.000000 0.000000 0.000000 0.000000 0.000000 0.000000 0.000000 0.000000 0.000000 0.000000 0.000000 0.000000 0.000000 0.000000 0.000000 0.000000 0.000000 0.000000 0.000000 0.000000 0.000000 0.000000 0.000000 0.000000 0.000000 0.000000 0.000000 0.000000 0.000000 0.000000 0.000000 0.000000 0.000000 0.000000 0.000000 0.000000 0.000000 0.000000 0.000000 0.000000 0.000000 0.000000 0.000000 0.000000 0.000000 0.000000 0.000000 0.000000 0.000000 0.000000 0.000000 0.000000 0.000000 0.000000 0.000000 0.000000 0.000000 0.000000 0.000000 0.000000 0.000000 0.000000 0.000000 0.000000 0.000000 0.000000 0.000000 0.000000 0.000000 0.000000 0.000000
0.000000 0.000000 0.000000 0.000000 0.000000 0.000000 0.000000 0.000000 0.000000 0.000000 0.000000 0.000000 0.000000 0.000000 0.000000 0.000000 0.000000 0.000000 0.000000 0.000000 0.000000 0.000000 0.000000 0.000000 0.000000 0.000000 0.000000 0.000000 0.000000 0.000000 0.000000 0.000000 0.000000 0.000000 0.000000 0.000000 0.000000 0.000000 0.000000 0.000000 0.000000 0.000000 0.000000 0.000000 0.000000 0.000000 0.000000 0.000000 0.000000 0.000000 0.000000 0.000000 0.000000 0.000000 0.000000 0.000000 0.000000 0.000000 0.000000 0.000000 0.000000 0.000000 0.000000 0.000000 0.000000 0.000000 0.000000 0.000000 0.000000 0.000000 0.000000 0.000000 0.000000 0.000000 0.000000 0.000000 0.000000 0.000000 0.000000 0.000000 0.000000 0.000000 0.000000 0.000000 0.000000 0.000000 0.000000 0.000000 0.000000 0.000000 0.000000 0.000000 0.000000 0.000000 0.000000 0.000000 0.000000 0.000000 0.000000 0.000000 0.000000 0.000000 0.000000
0.000000 0.000000 0.000000 0.000000 0.000000 0.000000 0.000000 0.000000 0.000000 0.000000 0.000000 9.820666 9.820666 9.820666 9.820666 9.820666 9.820666 0.000000 0.000000 0.000000 0.000000 0.000000 0.000000 0.000000 0.000000 0.000000 0.000000 0.000000 0.000000 0.000000 0.000000 0.000000 0.000000 0.000000 0.000000 0.000000 0.000000 0.000000 0.000000 0.000000 0.000000 0.000000 0.000000 0.000000 0.000000 0.000000 0.000000 0.000000 0.000000 0.000000 0.000000 0.000000 0.000000 0.000000 0.000000 0.000000 0.000000 0.000000 0.000000 0.000000 0.000000 0.000000 0.000000 0.000000 0.000000 0.000000 0.000000 0.000000 0.000000 0.000000 0.000000 0.000000 0.000000 0.000000 0.000000 0.000000 0.000000 0.000000 0.000000 0.000000 0.000000 0.000000 0.000000 0.000000 0.000000 0.000000 0.000000 0.000000 0.000000 0.000000 0.000000 0.000000 0.000000 0.000000 0.000000 0.000000 0.000000 0.000000 0.000000 0.000000 0.000000 0.000000 0.000000
0.000000 0.000000 0.000000 0.000000 0.000000 0.000000 0.000000 0.000000 0.000000 0.000000 0.000000 9.820666 9.820666 9.820666 9.820666 9.820666 9.820666 0.000000 0.000000 0.000000 0.000000 0.000000 0.000000 0.000000 0.000000 0.000000 0.000000 0.000000 0.000000 0.000000 0.000000 0.000000 0.000000 0.000000 0.000000 0.000000 0.000000 0.000000 0.000000 0.000000 0.000000 0.000000 0.000000 0.000000 0.000000 0.000000 0.000000 0.000000 0.000000 0.000000 0.000000 0.000000 0.000000 0.000000 0.000000 0.000000 0.000000 0.000000 0.000000 0.000000 0.000000 0.000000 0.000000 0.000000 0.000000 0.000000 0.000000 0.000000 0.000000 0.000000 0.000000 0.000000 0.000000 0.000000 0.000000 0.000000 0.000000 0.000000 0.000000 0.000000 0.000000 0.000000 0.000000 0.000000 0.000000 0.000000 0.000000 0.000000 0.000000 0.000000 0.000000 0.000000 0.000000 0.000000 0.000000 0.000000 0.000000 0.000000 0.000000 0.000000 0.000000 0.000000 0.000000
0.000000 0.000000 0.000000 0.000000 0.000000 0.000000 0.000000 0.000000 0.000000 0.000000 0.000000 9.820666 9.820666 9.820666 9.820666 9.820666 9.820666 0.000000 0.000000 0.000000 0.000000 0.000000 0.000000 0.000000 4.325376 4.325376 4.325376 0.000000 0.000000 0.000000 0.000000 0.000000 0.000000 0.000000 0.000000 0.000000 14.275384 14.275384 14.275384 14.275384 14.275384 14.275384 14.275384 14.275384 14.275384 0.000000 0.000000 0.000000 0.000000 10.694831 10.694831 10.694831 10.694831 10.694831 10.694831 10.694831 0.000000 0.000000 0.000000 0.000000 0.000000 0.000000 0.000000 0.000000 9.656998 9.656998 9.656998 9.656998 9.656998 9.656998 9.656998 0.000000 0.000000 0.000000 12.797147 12.797147 12.797147 12.797147 12.797147 12.797147 12.797147 12.797147 12.797147 0.000000 0.000000 0.000000 16.996597 16.996597 16.996597 16.996597 16.996597 16.996597 16.996597 16.996597 16.996597 16.996597 16.996597 0.000000 0.000000 0.000000 0.000000 0.000000 0.000000
0.000000 0.000000 0.000000 0.000000 0.000000 0.000000 0.000000 0.000000 0.000000 0.000000 0.000000 9.820666 9.820666 9.820666 9.820666 9.820666 9.820666 0.000000 0.000000 0.000000 0.000000 0.000000 0.000000 0.000000 4.325376 4.325376 4.325376 0.000000 0.000000 0.000000 0.000000 0.000000 0.000000 0.000000 0.000000 0.000000 14.275384 14.275384 14.275384 14.275384 14.275384 14.275384 14.275384 14.275384 14.275384 0.000000 0.000000 0.000000 0.000000 10.694831 10.694831 10.694831 10.694831 10.694831 10.694831 10.694831 0.000000 0.000000 0.000000 0.000000 0.000000 0.000000 0.000000 0.000000 9.656998 9.656998 9.656998 9.656998 9.656998 9.656998 9.656998 0.000000 0.000000 0.000000 12.797147 12.797147 12.797147 12.797147 12.797147 12.797147 12.797147 12.797147 12.797147 0.000000 0.000000 0.000000 16.996597 16.996597 16.996597 16.996597 16.996597 16.996597 16.996597 16.996597 16.996597 16.996597 16.996597 0.000000 0.000000 0.000000 0.000000 0.000000 0.000000
0.000000 0.000000 0.000000 0.000000 0.000000 0.000000 0.000000 0.000000 0.000000 0.000000 0.000000 9.820666 9.820666 9.820666 9.820666 9.820666 9.820666 0.000000 0.000000 0.000000 0.000000 0.000000 0.000000 0.000000 4.325376 4.325376 4.325376 0.000000 0.000000 0.000000 0.000000 0.000000 0.000000 0.000000 0.000000 0.000000 14.275384 14.275384 14.275384 14.275384 14.275384 14.275384 14.275384 14.275384 14.275384 0.000000 0.000000 0.000000 0.000000 10.694831 10.694831 10.694831 10.694831 10.694831 10.694831 10.694831 0.000000 0.000000 0.000000 0.000000 0.000000 0.000000 0.000000 0.000000 9.656998 9.656998 9.656998 9.656998 9.656998 9.656998 9.656998 0.000000 0.000000 0.000000 12.797147 12.797147 12.797147 12.797147 12.797147 12.797147 12.797147 12.797147 12.797147 0.000000 0.000000 0.000000 16.996597 16.996597 16.996597 16.996597 16.996597 16.996597 16.996597 16.996597 16.996597 16.996597 16.996597 0.000000 0.000000 0.000000 0.000000 0.000000 0.000000
0.000000 0.000000 0.000000 0.000000 0.000000 0.000000 0.000000 0.000000 0.000000 0.000000 0.000000 9.820666 9.820666 9.820666 9.820666 9.820666 9.820666 0.000000 0.000000 0.000000 0.000000 0.000000 0.000000 0.000000 4.325376 4.325376 4.325376 0.000000 0.000000 0.000000 0.000000 0.000000 0.000000 0.000000 0.000000 0.000000 14.275384 14.275384 14.275384 14.275384 14.275384 14.275384 14.275384 14.275384 14.275384 0.000000 0.000000 0.000000 0.000000 10.694831 10.694831 10.694831 10.694831 10.694831 10.694831 10.694831 0.000000 0.000000 0.000000 0.000000 0.000000 0.000000 0.000000 0.000000 9.656998 9.656998 9.656998 9.656998 9.656998 9.656998 9.656998 0.000000 0.000000 0.000000 12.797147 12.797147 12.797147 12.797147 12.797147 12.797147 12.797147 12.797147 12.797147 0.000000 0.000000 0.000000 16.996597 16.996597 16.996597 16.996597 16.996597 16.996597 16.996597 16.996597 16.996597 16.996597 16.996597 0.000000 0.000000 0.000000 0.000000 0.000000 0.000000
0.000000 0.000000 0.000000 0.000000 0.000000 0.000000 0.000000 0.000000 0.000000 0.000000 0.000000 9.820666 9.820666 9.820666 9.820666 9.820666 9.820666 0.000000 0.000000 0.000000 0.000000 0.000000 0.000000 0.000000 4.325376 4.325376 4.325376 0.000000 0.000000 0.000000 0.000000 0.000000 0.000000 0.000000 0.000000 0.000000 14.275384 14.275384 14.275384 14.275384 14.275384 14.275384 14.275384 14.275384 14.275384 0.000000 0.000000 0.000000 0.000000 10.694831 10.694831 10.694831 10.694831 10.694831 10.694831 10.694831 0.000000 0.000000 0.000000 0.000000 0.000000 0.000000 0.000000 0.000000 9.656998 9.656998 9.656998 9.656998 9.656998 9.656998 9.656998 0.000000 0.000000 0.000000 12.797147 12.797147 12.797147 12.797147 12.797147 12.797147 12.797147 12.797147 12.797147 0.000000 0.000000 0.000000 16.996597 16.996597 16.996597 16.996597 16.996597 16.996597 16.996597 16.996597 16.996597 16.996597 16.996597 0.000000 0.000000 0.000000 0.000000 0.000000 0.000000
0.000000 0.000000 0.000000 0.000000 11.362647 11.362647 11.362647 11.362647 11.362647 11.362647 11.362647 0.000000 0.000000 0.000000 0.000000 0.000000 0.000000 0.000000 0.000000 0.000000 0.000000 0.000000 0.000000 0.000000 4.325376 4.325376 4.325376 0.000000 0.000000 0.000000 0.000000 0.000000 0.000000 0.000000 0.000000 0.000000 14.275384 14.275384 14.275384 14.275384 14.275384 14.275384 14.275384 14.275384 14.275384 0.000000 0.000000 0.000000 0.000000 10.694831 10.694831 10.694831 10.694831 10.694831 10.694831 10.694831 0.000000 0.000000 0.000000 0.000000 0.000000 0.000000 0.000000 0.000000 9.656998 9.656998 9.656998 9.656998 9.656998 9.656998 9.656998 0.000000 0.000000 0.000000 12.797147 12.797147 12.797147 12.797147 12.797147 12.797147 12.797147 12.797147 12.797147 0.000000 0.000000 0.000000 16.996597 16.996597 16.996597 16.996597 16.996597 16.996597 16.996597 16.996597 16.996597 16.996597 16.996597 0.000000 0.000000 0.000000 0.000000 0.000000 0.000000
0.000000 0.000000 0.000000 0.000000 11.362647 11.362647 11.362647 11.362647 11.362647 11.362647 11.362647 0.000000 0.000000 0.000000 0.000000 0.000000 0.000000 0.000000 0.000000 0.000000 0.000000 0.000000 0.000000 0.000000 4.325376 4.325376 4.325376 0.000000 0.000000 0.000000 0.000000 0.000000 0.000000 0.000000 0.000000 0.000000 14.275384 14.275384 14.275384 14.275384 14.275384 14.275384 14.275384 14.275384 14.275384 0.000000 0.000000 0.000000 0.000000 10.694831 10.694831 10.694831 10.694831 10.694831 10.694831 10.694831 0.000000 0.000000 0.000000 0.000000 0.000000 0.000000 0.000000 0.000000 9.656998 9.656998 9.656998 9.656998 9.656998 9.656998 9.656998 0.000000 0.000000 0.000000 12.797147 12.797147 12.797147 12.797147 12.797147 12.797147 12.797147 12.797147 12.797147 0.000000 0.000000 0.000000 16.996597 16.996597 16.996597 16.996597 16.996597 16.996597 16.996597 16.996597 16.996597 16.996597 16.996597 0.000000 0.000000 0.000000 0.000000 0.000000 0.000000
0.000000 0.000000 0.000000 0.000000 11.362647 11.362647 11.362647 11.362647 11.362647 11.362647 11.362647 0.000000 0.000000 0.000000 0.000000 0.000000 0.000000 0.000000 0.000000 0.000000 0.000000 0.000000 0.000000 0.000000 0.000000 0.000000 0.000000 0.000000 0.000000 0.000000 0.000000 0.000000 0.000000 0.000000 0.000000 0.000000 0.000000 0.000000 0.000000 0.000000 0.000000 0.000000 0.000000 0.000000 0.000000 0.000000 0.000000 0.000000 0.000000 0.000000 0.000000 0.000000 0.000000 0.000000 0.000000 0.000000 0.000000 0.000000 0.000000 0.000000 0.000000 0.000000 0.000000 0.000000 0.000000 0.000000 0.000000 0.000000 0.000000 0.000000 0.000000 0.000000 0.000000 0.000000 0.000000 0.000000 0.000000 0.000000 0.000000 0.000000 0.000000 0.000000 0.000000 0.000000 0.000000 0.000000 0.000000 0.000000 0.000000 0.000000 0.000000 0.000000 0.000000 0.000000 0.000000 0.000000 0.000000 0.000000 0.000000 0.000000 0.000000 0.000000 0.000000
0.000000 0.000000 0.000000 0.000000 11.362647 11.362647 11.362647 11.362647 11.362647 11.362647 11.362647 0.000000 0.000000 0.000000 0.000000 0.000000 0.000000 0.000000 0.000000 0.000000 0.000000 0.000000 0.000000 0.000000 0.000000 0.000000 0.000000 0.000000 0.000000 0.000000 0.000000 0.000000 0.000000 0.000000 0.000000 0.000000 0.000000 0.000000 0.000000 0.000000 0.000000 0.000000 0.000000 0.000000 0.000000 0.000000 0.000000 0.000000 0.000000 0.000000 0.000000 0.000000 0.000000 0.000000 0.000000 0.000000 0.000000 0.000000 0.000000 0.000000 0.000000 0.000000 0.000000 0.000000 0.000000 0.000000 0.000000 0.000000 0.000000 0.000000 0.000000 0.000000 0.000000 0.000000 0.000000 0.000000 0.000000 0.000000 0.000000 0.000000 0.000000 0.000000 0.000000 0.000000 0.000000 0.000000 0.000000 0.000000 0.000000 0.000000 0.000000 0.000000 0.000000 0.000000 0.000000 0.000000 0.000000 0.000000 0.000000 0.000000 0.000000 0.000000 0.000000
0.000000 0.000000 0.000000 0.000000 11.362647 11.362647 11.362647 11.362647 11.362647 11.362647 11.362647 0.000000 0.000000 0.000000 0.000000 0.000000 0.000000 0.000000 0.000000 0.000000 0.000000 0.000000 0.000000 0.000000 0.000000 0.000000 0.000000 0.000000 0.000000 0.000000 0.000000 0.000000 0.000000 0.000000 0.000000 0.000000 0.000000 0.000000 0.000000 0.000000 0.000000 0.000000 0.000000 0.000000 0.000000 0.000000 0.000000 0.000000 0.000000 0.000000 0.000000 0.000000 0.000000 0.000000 0.000000 0.000000 0.000000 0.000000 0.000000 0.000000 0.000000 0.000000 0.000000 0.000000 0.000000 0.000000 0.000000 0.000000 0.000000 0.000000 0.000000 0.000000 0.000000 0.000000 0.000000 0.000000 0.000000 0.000000 0.000000 0.000000 0.000000 0.000000 0.000000 0.000000 0.000000 0.000000 0.000000 0.000000 0.000000 0.000000 0.000000 0.000000 0.000000 0.000000 0.000000 0.000000 0.000000 0.000000 0.000000 0.000000 0.000000 0.000000 0.000000
0.000000 0.000000 0.000000 0.000000 11.362647 11.362647 11.362647 11.362647 11.362647 11.362647 11.362647 0.000000 0.000000 0.000000 0.000000 0.000000 0.000000 0.000000 0.000000 0.000000 0.000000 0.000000 0.000000 0.000000 4.522370 4.522370 4.522370 0.000000 0.000000 0.000000 0.000000 0.000000 0.000000 0.000000 0.000000 0.000000 0.000000 0.000000 0.000000 0.000000 0.000000 0.000000 0.000000 0.000000 0.000000 0.000000 0.000000 0.000000 0.000000 0.000000 0.000000 0.000000 0.000000 0.000000 0.000000 0.000000 0.000000 0.000000 0.000000 0.000000 0.000000 0.000000 0.000000 0.000000 0.000000 0.000000 0.000000 0.000000 0.000000 0.000000 0.000000 0.000000 0.000000 0.000000 0.000000 0.000000 0.000000 0.000000 0.000000 0.000000 0.000000 0.000000 0.000000 0.000000 0.000000 0.000000 17.269184 17.269184 17.269184 17.269184 17.269184 17.269184 17.269184 17.269184 17.269184 17.269184 17.269184 0.000000 0.000000 0.000000 0.000000 0.000000 0.000000
0.000000 0.000000 0.000000 0.000000 11.362647 11.362647 11.362647 11.362647 11.362647 11.362647 11.362647 0.000000 0.000000 0.000000 0.000000 0.000000 0.000000 0.000000 0.000000 0.000000 0.000000 0.000000 0.000000 0.000000 4.522370 4.522370 4.522370 0.000000 0.000000 0.000000 0.000000 0.000000 0.000000 0.000000 0.000000 0.000000 14.302897 14.302897 14.302897 14.302897 14.302897 14.302897 14.302897 14.302897 14.302897 0.000000 0.000000 0.000000 0.000000 10.715443 10.715443 10.715443 10.715443 10.715443 10.715443 10.715443 0.000000 0.000000 0.000000 0.000000 0.000000 0.000000 0.000000 0.000000 0.000000 0.000000 0.000000 0.000000 0.000000 0.000000 0.000000 0.000000 0.000000 0.000000 0.000000 0.000000 0.000000 0.000000 0.000000 0.000000 0.000000 0.000000 0.000000 0.000000 0.000000 0.000000 17.269184 17.269184 17.269184 17.269184 17.269184 17.269184 17.269184 17.269184 17.269184 17.269184 17.269184 0.000000 0.000000 0.000000 0.000000 0.000000 0.000000
0.000000 0.000000 0.000000 0.000000 0.000000 0.000000 0.000000 0.000000 0.000000 0.000000 0.000000 10.440686 10.440686 10.440686 10.440686 10.440686 10.440686 0.000000 0.000000 0.000000 0.000000 0.000000 0.000000 0.000000 4.522370 4.522370 4.522370 0.000000 0.000000 0.000000 0.000000 0.000000 0.000000 0.000000 0.000000 0.000000 14.302897 14.302897 14.302897 14.302897 14.302897 14.302897 14.302897 14.302897 14.302897 0.000000 0.000000 0.000000 0.000000 10.715443 10.715443 10.715443 10.715443 10.715443 10.715443 10.715443 0.000000 0.000000 0.000000 0.000000 0.000000 0.000000 0.000000 0.000000 0.000000 0.000000 0.000000 0.000000 0.000000 0.000000 0.000000 0.000000 0.000000 0.000000 0.000000 0.000000 0.000000 0.000000 0.000000 0.000000 0.000000 0.000000 0.000000 0.000000 0.000000 0.000000 17.269184 17.269184 17.269184 17.269184 17.269184 17.269184 17.269184 17.269184 17.269184 17.269184 17.269184 0.000000 0.000000 0.000000 0.000000 0.000000 0.000000
0.000000 0.000000 0.000000 0.000000 0.000000 0.000000 0.000000 0.000000 0.000000 0.000000 0.000000 10.440686 10.440686 10.440686 10.440686 10.440686 10.440686 0.000000 0.000000 0.000000 0.000000 0.000000 0.000000 0.000000 4.522370 4.522370 4.522370 0.000000 0.000000 0.000000 0.000000 0.000000 0.000000 0.000000 0.000000 0.000000 14.302897 14.302897 14.302897 14.302897 14.302897 14.302897 14.302897 14.302897 14.302897 0.000000 0.000000 0.000000 0.000000 10.715443 10.715443 10.715443 10.715443 10.715443 10.715443 10.715443 0.000000 0.000000 0.000000 0.000000 0.000000 0.000000 0.000000 0.000000 0.000000 0.000000 0.000000 0.000000 0.000000 0.000000 0.000000 0.000000 0.000000 0.000000 0.000000 0.000000 0.000000 0.000000 0.000000 0.000000 0.000000 0.000000 0.000000 0.000000 0.000000 0.000000 17.269184 17.269184 17.269184 17.269184 17.269184 17.269184 17.269184 17.269184 17.269184 17.269184 17.269184 0.000000 0.000000 0.000000 0.000000 0.000000 0.000000
0.000000 0.000000 0.000000 0.000000 0.000000 0.000000 0.000000 0.000000 0.000000 0.000000 0.000000 10.440686 10.440686 10.440686 10.440686 10.440686 10.440686 0.000000 0.000000 0.000000 0.000000 0.000000 0.000000 0.000000 4.522370 4.522370 4.522370 0.000000 0.000000 0.000000 0.000000 0.000000 0.000000 0.000000 0.000000 0.000000 14.302897 14.302897 14.302897 14.302897 14.302897 14.302897 14.302897 14.302897 14.302897 0.000000 0.000000 0.000000 0.000000 10.715443 10.715443 10.715443 10.715443 10.715443 10.715443 10.715443 0.000000 0.000000 0.000000 0.000000 0.000000 0.000000 0.000000 0.000000 0.000000 0.000000 0.000000 0.000000 0.000000 0.000000 0.000000 0.000000 0.000000 0.000000 0.000000 0.000000 0.000000 0.000000 0.000000 0.000000 0.000000 0.000000 0.000000 0.000000 0.000000 0.000000 17.269184 17.269184 17.269184 17.269184 17.269184 17.269184 17.269184 17.269184 17.269184 17.269184 17.269184 0.000000 0.000000 0.000000 0.000000 0.000000 0.000000
0.000000 0.000000 0.000000 0.000000 0.000000 0.000000 0.000000 0.000000 0.000000 0.000000 0.000000 10.440686 10.440686 10.440686 10.440686 10.440686 10.440686 0.000000 0.000000 0.000000 0.000000 0.000000 0.000000 0.000000 4.522370 4.522370 4.522370 0.000000 0.000000 0.000000 0.000000 0.000000 0.000000 0.000000 0.000000 0.000000 14.302897 14.302897 14.302897 14.302897 14.302897 14.302897 14.302897 14.302897 14.302897 0.000000 0.000000 0.000000 0.000000 10.715443 10.715443 10.715443 10.715443 10.715443 10.715443 10.715443 0.000000 0.000000 0.000000 0.000000 0.000000 0.000000 0.000000 0.000000 0.000000 0.000000 0.000000 0.000000 0.000000 0.000000 0.000000 0.000000 0.000000 0.000000 0.000000 0.000000 0.000000 0.000000 0.000000 0.000000 0.000000 0.000000 0.000000 0.000000 0.000000 0.000000 17.269184 17.269184 17.269184 17.269184 17.269184 17.269184 17.269184 17.269184 17.269184 17.269184 17.269184 0.000000 0.000000 0.000000 0.000000 0.000000 0.000000
0.000000 0.000000 0.000000 0.000000 0.000000 0.000000 0.000000 0.000000 0.000000 0.000000 0.000000 10.440686 10.440686 10.440686 10.440686 10.440686 10.440686 0.000000 0.000000 0.000000 0.000000 0.000000 0.000000 0.000000 4.522370 4.522370 4.522370 0.000000 0.000000 0.000000 0.000000 0.000000 0.000000 0.000000 0.000000 0.000000 14.302897 14.302897 14.302897 14.302897 14.302897 14.302897 14.302897 14.302897 14.302897 0.000000 0.000000 0.000000 0.000000 10.715443 10.715443 10.715443 10.715443 10.715443 10.715443 10.715443 0.000000 0.000000 0.000000 0.000000 0.000000 0.000000 0.000000 0.000000 0.000000 0.000000 0.000000 0.000000 0.000000 0.000000 0.000000 0.000000 0.000000 0.000000 0.000000 0.000000 0.000000 0.000000 0.000000 0.000000 0.000000 0.000000 0.000000 0.000000 0.000000 0.000000 17.269184 17.269184 17.269184 17.269184 17.269184 17.269184 17.269184 17.269184 17.269184 17.269184 17.269184 0.000000 0.000000 0.000000 0.000000 0.000000 0.000000
0.000000 0.000000 0.000000 0.000000 0.000000 0.000000 0.000000 0.000000 0.000000 0.000000 0.000000 10.440686 10.440686 10.440686 10.440686 10.440686 10.440686 0.000000 0.000000 0.000000 0.000000 0.000000 0.000000 0.000000 0.000000 0.000000 0.000000 0.000000 0.000000 0.000000 0.000000 0.000000 0.000000 0.000000 0.000000 0.000000 0.000000 0.000000 0.000000 0.000000 0.000000 0.000000 0.000000 0.000000 0.000000 0.000000 0.000000 0.000000 0.000000 0.000000 0.000000 0.000000 0.000000 0.000000 0.000000 0.000000 0.000000 0.000000 0.000000 0.000000 0.000000 0.000000 0.000000 0.000000 0.000000 0.000000 0.000000 0.000000 0.000000 0.000000 0.000000 0.000000 0.000000 0.000000 0.000000 0.000000 0.000000 0.000000 0.000000 0.000000 0.000000 0.000000 0.000000 0.000000 0.000000 0.000000 0.000000 0.000000 0.000000 0.000000 0.000000 0.000000 0.000000 0.000000 0.000000 0.000000 0.000000 0.000000 0.000000 0.000000 0.000000 0.000000 0.000000
0.000000 0.000000 0.000000 0.000000 0.000000 0.000000 0.000000 0.000000 0.000000 0.000000 0.000000 10.440686 10.440686 10.440686 10.440686 10.440686 10.440686 0.000000 0.000000 0.000000 0.000000 0.000000 0.000000 0.000000 0.000000 0.000000 0.000000 0.000000 0.000000 0.000000 0.000000 0.000000 0.000000 0.000000 0.000000 0.000000 0.000000 0.000000 0.000000 0.000000 0.000000 0.000000 0.000000 0.000000 0.000000 0.000000 0.000000 0.000000 0.000000 0.000000 0.000000 0.000000 0.000000 0.000000 0.000000 0.000000 0.000000 0.000000 0.000000 0.000000 0.000000 0.000000 0.000000 0.000000 0.000000 0.000000 0.000000 0.000000 0.000000 0.000000 0.000000 0.000000 0.000000 0.000000 0.000000 0.000000 0.000000 0.000000 0.000000 0.000000 0.000000 0.000000 0.000000 0.000000 0.000000 0.000000 0.000000 0.000000 0.000000 0.000000 0.000000 0.000000 0.000000 0.000000 0.000000 0.000000 0.000000 0.000000 0.000000 0.000000 0.000000 0.000000 0.000000
0.000000 0.000000 0.000000 0.000000 0.000000 0.000000 0.000000 0.000000 0.000000 0.000000 0.000000 0.000000 0.000000 0.000000 0.000000 0.000000 0.000000 0.000000 0.000000 0.000000 0.000000 0.000000 0.000000 0.000000 0.000000 0.000000 0.000000 0.000000 0.000000 0.000000 0.000000 0.000000 0.000000 0.000000 0.000000 0.000000 0.000000 0.000000 0.000000 0.000000 0.000000 0.000000 0.000000 0.000000 0.000000 0.000000 0.000000 0.000000 0.000000 0.000000 0.000000 0.000000 0.000000 0.000000 0.000000 0.000000 0.000000 0.000000 0.000000 0.000000 0.000000 0.000000 0.000000 0.000000 0.000000 0.000000 0.000000 0.000000 0.000000 0.000000 0.000000 0.000000 0.000000 0.000000 0.000000 0.000000 0.000000 0.000000 0.000000 0.000000 0.000000 0.000000 0.000000 0.000000 0.000000 0.000000 0.000000 0.000000 0.000000 0.000000 0.000000 0.000000 0.000000 0.000000 0.000000 0.000000 0.000000 0.000000 0.000000 0.000000 0.000000 0.000000 0.000000
0.000000 0.000000 0.000000 0.000000 0.000000 0.000000 0.000000 0.000000 0.000000 0.000000 0.000000 0.000000 0.000000 0.000000 0.000000 0.000000 0.000000 0.000000 0.000000 0.000000 0.000000 0.000000 0.000000 0.000000 0.000000 0.000000 0.000000 0.000000 0.000000 0.000000 0.000000 0.000000 0.000000 0.000000 0.000000 0.000000 0.000000 0.000000 0.000000 0.000000 0.000000 0.000000 0.000000 0.000000 0.000000 0.000000 0.000000 0.000000 0.000000 0.000000 0.000000 0.000000 0.000000 0.000000 0.000000 0.000000 0.000000 0.000000 0.000000 0.000000 0.000000 0.000000 0.000000 0.000000 0.000000 0.000000 0.000000 0.000000 0.000000 0.000000 0.000000 0.000000 0.000000 0.000000 0.000000 0.000000 0.000000 0.000000 0.000000 0.000000 0.000000 0.000000 0.000000 0.000000 0.000000 0.000000 0.000000 0.000000 0.000000 0.000000 0.000000 0.000000 0.000000 0.000000 0.000000 0.000000 0.000000 0.000000 0.000000 0.000000 0.000000 0.000000 0.000000
0.000000 0.000000 0.000000 0.000000 0.000000 0.000000 0.000000 0.000000 0.000000 0.000000 0.000000 0.000000 0.000000 0.000000 0.000000 0.000000 0.000000 0.000000 0.000000 0.000000 0.000000 0.000000 0.000000 0.000000 0.000000 0.000000 0.000000 0.000000 0.000000 0.000000 0.000000 0.000000 0.000000 0.000000 0.000000 0.000000 0.000000 0.000000 0.000000 0.000000 0.000000 0.000000 0.000000 0.000000 0.000000 0.000000 0.000000 0.000000 0.000000 0.000000 0.000000 0.000000 0.000000 0.000000 0.000000 0.000000 0.000000 0.000000 0.000000 0.000000 0.000000 0.000000 0.000000 0.000000 0.000000 0.000000 0.000000 0.000000 0.000000 0.000000 0.000000 0.000000 0.000000 0.000000 0.000000 0.000000 0.000000 0.000000 0.000000 0.000000 0.000000 0.000000 0.000000 0.000000 0.000000 0.000000 0.000000 0.000000 0.000000 0.000000 0.000000 0.000000 0.000000 0.000000 0.000000 0.000000 0.000000 0.000000 0.000000 0.000000 0.000000 0.000000 0.000000
0.000000 0.000000 0.000000 0.000000 0.000000 0.000000 0.000000 0.000000 0.000000 0.000000 0.000000 0.000000 0.000000 0.000000 0.000000 0.000000 0.000000 0.000000 0.000000 0.000000 0.000000 0.000000 0.000000 0.000000 0.000000 0.000000 0.000000 0.000000 0.000000 0.000000 0.000000 0.000000 0.000000 0.000000 0.000000 0.000000 0.000000 0.000000 0.000000 0.000000 0.000000 0.000000 0.000000 0.000000 0.000000 0.000000 0.000000 0.000000 0.000000 0.000000 0.000000 0.000000 0.000000 0.000000 0.000000 0.000000 0.000000 0.000000 0.000000 0.000000 0.000000 0.000000 0.000000 0.000000 0.000000 0.000000 0.000000 0.000000 0.000000 0.000000 0.000000 0.000000 0.000000 0.000000 0.000000 0.000000 0.000000 0.000000 0.000000 0.000000 0.000000 0.000000 0.000000 0.000000 0.000000 0.000000 0.000000 0.000000 0.000000 0.000000 0.000000 0.000000 0.000000 0.000000 0.000000 0.000000 0.000000 0.000000 0.000000 0.000000 0.000000 0.000000 0.000000
