0.000000 0.000000 0.000000 0.000000 0.000000 0.000000 0.000000 0.000000 0.000000 0.000000 0.000000 0.000000 0.000000 0.000000 0.000000 0.000000 0.000000 0.000000 0.000000 0.000000 0.000000 0.000000 0.000000 0.000000 0.000000 0.000000 0.000000 0.000000 0.000000 0.000000 0.000000 0.000000 0.000000 0.000000 0.000000 0.000000 0.000000 0.000000 0.000000 0.000000 0.000000 0.000000 0.000000 0.000000 0.000000 0.000000 0.000000 0.000000 0.000000 0.000000 0.000000 0.000000 0.000000 0.000000 0.000000 0.000000 0.000000 0.000000 0.000000 0.000000 0.000000 0.000000 0.000000 0.000000 0.000000 0.000000 0.000000 0.000000 0.000000 0.000000 0.000000 0.000000 0.000000 0.000000 0.000000 0.000000 0.000000 0.000000 0.000000 0.000000 0.000000 0.000000 0.000000 0.000000 0.000000 0.000000 0.000000 0.000000 0.000000 0.000000 0.000000 0.000000 0.000000 0.000000 0.000000 0.000000 0.000000 0.000000 0.000000 0.000000 0.000000 0.000000 0.000000
0.000000 0.000000 0.000000 0.000000 0.000000 0.000000 0.000000 0.000000 0.000000 0.000000 0.000000 0.000000 0.000000 0.000000 0.000000 0.000000 0.000000 0.000000 0.000000 0.000000 0.000000 0.000000 0.000000 0.000000 0.000000 0.000000 0.000000 0.000000 0.000000 0.000000 0.000000 0.000000 0.000000 0.000000 0.000000 0.000000 0.000000 0.000000 0.000000 0.000000 0.000000 0.000000 0.000000 0.000000 0.000000 0.000000 0.000000 0.000000 0.000000 0.000000 0.000000 0.000000 0.000000 0.000000 0.000000 0.000000 0.000000 0.000000 0.000000 0.000000 0.000000 0.000000 0.000000 0.000000 0.000000 0.000000 0.000000 0.000000 0.000000 0.000000 0.000000 0.000000 0.000000 0.000000 0.000000 0.000000 0.000000 0.000000 0.000000 0.000000 0.000000 0.000000 0.000000 0.000000 0.000000 0.000000 0.000000 0.000000 0.000000 0.000000 0.000000 0.000000 0.000000 0.000000 0.000000 0.000000 0.000000 0.000000 0.000000 0.000000 0.000000 0.000000 0.000000
0.000000 0.000000 0.000000 0.000000 0.000000 0.000000 0.000000 0.000000 0.000000 0.000000 0.000000 0.000000 0.000000 0.000000 0.000000 0.000000 0.000000 0.000000 0.000000 0.000000 0.000000 0.000000 0.000000 0.000000 0.000000 0.000000 0.000000 0.000000 0.000000 0.000000 0.000000 0.000000 0.000000 0.000000 0.000000 0.000000 0.000000 0.000000 0.000000 0.000000 0.000000 0.000000 0.000000 0.000000 0.000000 0.000000 0.000000 0.000000 0.000000 0.000000 0.000000 0.000000 0.000000 0.000000 0.000000 0.000000 0.000000 0.000000 0.000000 0.000000 0.000000 0.000000 0.000000 0.000000 0.000000 0.000000 0.000000 0.000000 0.000000 0.000000 0.000000 0.000000 0.000000 0.000000 0.000000 0.000000 0.000000 0.000000 0.000000 0.000000 0.000000 0.000000 0.000000 0.000000 0.000000 0.000000 0.000000 0.000000 0.000000 0.000000 0.000000 0.000000 0.000000 0.000000 0.000000 0.000000 0.000000 0.000000 0.000000 0.000000 0.000000 0.000000 0.000000
0.000000 0.000000 0.000000 0.000000 0.000000 0.000000 0.000000 0.000000 0.000000 0.000000 0.000000 0.000000 0.000000 0.000000 0.000000 0.000000 0.000000 0.000000 0.000000 0.000000 0.000000 0.000000 0.000000 0.000000 0.000000 0.000000 0.000000 0.000000 0.000000 0.000000 0.000000 0.000000 0.000000 0.000000 0.000000 0.000000 0.000000 0.000000 0.000000 0.000000 0.000000 0.000000 0.000000 0.000000 0.000000 0.000000 0.000000 0.000000 0.000000 0.000000 0.000000 0.000000 0.000000 0.000000 0.000000 0.000000 0.000000 0.000000 0.000000 0.000000 0.000000 0.000000 0.000000 0.000000 0.000000 0.000000 0.000000 0.000000 0.000000 0.000000 0.000000 0.000000 0.000000 0.000000 0.000000 0.000000 0.000000 0.000000 0.000000 0.000000 0.000000 0.000000 0.000000 0.000000 0.000000 0.000000 0.000000 0.000000 0.000000 0.000000 0.000000 0.000000 0.000000 0.000000 0.000000 0.000000 0.000000 0.000000 0.000000 0.000000 0.000000 0.000000 0.000000
0.000000 0.000000 0.000000 0.000000 29.281285 29.281285 29.281285 29.281285 29.281285 29.281285 29.281285 29.281285 29.281285 29.281285 0.000000 0.000000 0.000000 0.000000 0.000000 70.473944 70.473944 70.473944 70.473944 70.473944 70.473944 70.473944 70.473944 70.473944 70.473944 70.473944 70.473944 0.000000 0.000000 0.000000 0.000000 0.000000 45.354545 45.354545 45.354545 45.354545 45.354545 45.354545 45.354545 50.308878 50.308878 50.308878 50.308878 50.308878 50.308878 50.308878 50.308878 0.000000 0.000000 0.000000 0.000000 0.000000 0.000000 0.000000 0.000000 0.000000 0.000000 0.000000 0.000000 0.000000 0.000000 0.000000 0.000000 0.000000 0.000000 0.000000 0.000000 0.000000 0.000000 0.000000 0.000000 0.000000 0.000000 0.000000 0.000000 0.000000 0.000000 0.000000 0.000000 0.000000 0.000000 0.000000 0.000000 0.000000 0.000000 0.000000 0.000000 0.000000 0.000000 0.000000 0.000000 0.000000 0.000000 0.000000 0.000000 0.000000 0.000000 0.000000 0.000000
0.000000 0.000000 0.000000 0.000000 29.281285 29.281285 29.281285 29.281285 29.281285 29.281285 29.281285 29.281285 29.281285 29.281285 0.000000 0.000000 0.000000 0.000000 0.000000 70.473944 70.473944 70.473944 70.473944 70.473944 70.473944 70.473944 70.473944 70.473944 70.473944 70.473944 70.473944 0.000000 0.000000 0.000000 0.000000 0.000000 45.354545 45.354545 45.354545 45.354545 45.354545 45.354545 45.354545 50.308878 50.308878 50.308878 50.308878 50.308878 50.308878 50.308878 50.308878 0.000000 0.000000 0.000000 0.000000 0.000000 0.000000 0.000000 0.000000 0.000000 0.000000 0.000000 0.000000 0.000000 0.000000 0.000000 0.000000 0.000000 0.000000 0.000000 0.000000 0.000000 0.000000 0.000000 0.000000 0.000000 0.000000 0.000000 0.000000 0.000000 0.000000 0.000000 0.000000 0.000000 0.000000 0.000000 0.000000 0.000000 0.000000 0.000000 0.000000 0.000000 0.000000 0.000000 0.000000 0.000000 0.000000 0.000000 0.000000 0.000000 0.000000 0.000000 0.000000
0.000000 0.000000 0.000000 0.000000 29.281285 29.281285 29.281285 29.281285 29.281285 29.281285 29.281285 29.281285 29.281285 29.281285 0.000000 0.000000 0.000000 0.000000 0.000000 70.473944 70.473944 70.473944 70.473944 70.473944 70.473944 70.473944 70.473944 70.473944 70.473944 70.473944 70.473944 0.000000 0.000000 0.000000 0.000000 0.000000 45.354545 45.354545 45.354545 45.354545 45.354545 45.354545 45.354545 50.308878 50.308878 50.308878 50.308878 50.308878 50.308878 50.308878 50.308878 0.000000 0.000000 0.000000 0.000000 0.000000 0.000000 0.000000 0.000000 0.000000 0.000000 0.000000 0.000000 0.000000 0.000000 0.000000 0.000000 0.000000 18.410528 18.410528 18.410528 18.410528 18.410528 18.410528 18.410528 18.410528 18.410528 18.410528 0.000000 0.000000 0.000000 0.000000 0.000000 0.000000 0.000000 0.000000 0.000000 0.000000 0.000000 0.000000 0.000000 0.000000 0.000000 0.000000 0.000000 0.000000 0.000000 0.000000 0.000000 0.000000 0.000000 0.000000 0.000000
0.000000 0.000000 0.000000 0.000000 29.281285 29.281285 29.281285 29.281285 29.281285 29.281285 29.281285 29.281285 29.281285 29.281285 0.000000 0.000000 0.000000 0.000000 0.000000 70.473944 70.473944 70.473944 70.473944 70.473944 70.473944 70.473944 70.473944 70.473944 70.473944 70.473944 70.473944 0.000000 0.000000 0.000000 0.000000 0.000000 45.354545 45.354545 45.354545 45.354545 45.354545 45.354545 45.354545 50.308878 50.308878 50.308878 50.308878 50.308878 50.308878 50.308878 50.308878 0.000000 0.000000 0.000000 0.000000 0.000000 0.000000 0.000000 0.000000 0.000000 0.000000 0.000000 0.000000 0.000000 0.000000 0.000000 0.000000 0.000000 18.410528 18.410528 18.410528 18.410528 18.410528 18.410528 18.410528 18.410528 18.410528 18.410528 0.000000 0.000000 0.000000 0.000000 0.000000 0.000000 0.000000 0.000000 0.000000 0.000000 0.000000 0.000000 0.000000 0.000000 0.000000 0.000000 0.000000 0.000000 0.000000 0.000000 0.000000 0.000000 0.000000 0.000000 0.000000
0.000000 0.000000 0.000000 0.000000 29.281285 29.281285 29.281285 29.281285 29.281285 29.281285 29.281285 29.281285 29.281285 29.281285 0.000000 0.000000 0.000000 0.000000 0.000000 70.473944 70.473944 70.473944 70.473944 70.473944 70.473944 70.473944 70.473944 70.473944 70.473944 70.473944 70.473944 0.000000 0.000000 0.000000 0.000000 0.000000 45.354545 45.354545 45.354545 45.354545 45.354545 45.354545 45.354545 50.308878 50.308878 50.308878 50.308878 50.308878 50.308878 50.308878 50.308878 0.000000 0.000000 0.000000 0.000000 0.000000 0.000000 0.000000 0.000000 0.000000 0.000000 0.000000 0.000000 0.000000 0.000000 0.000000 0.000000 0.000000 18.410528 18.410528 18.410528 18.410528 18.410528 18.410528 18.410528 18.410528 18.410528 18.410528 0.000000 0.000000 0.000000 0.000000 0.000000 0.000000 0.000000 0.000000 0.000000 0.000000 0.000000 0.000000 0.000000 0.000000 0.000000 0.000000 0.000000 0.000000 0.000000 0.000000 0.000000 0.000000 0.000000 0.000000 0.000000
0.000000 0.000000 0.000000 0.000000 29.281285 29.281285 29.281285 29.281285 29.281285 29.281285 29.281285 29.281285 29.281285 29.281285 0.000000 0.000000 0.000000 0.000000 0.000000 70.473944 70.473944 70.473944 70.473944 70.473944 70.473944 70.473944 70.473944 70.473944 70.473944 70.473944 70.473944 0.000000 0.000000 0.000000 0.000000 0.000000 45.354545 45.354545 45.354545 45.354545 45.354545 45.354545 45.354545 50.308878 50.308878 50.308878 50.308878 50.308878 50.308878 50.308878 50.308878 0.000000 0.000000 0.000000 0.000000 0.000000 0.000000 0.000000 0.000000 0.000000 0.000000 0.000000 0.000000 0.000000 0.000000 0.000000 0.000000 0.000000 18.410528 18.410528 18.410528 18.410528 18.410528 18.410528 18.410528 18.410528 18.410528 18.410528 0.000000 0.000000 0.000000 0.000000 0.000000 0.000000 0.000000 0.000000 0.000000 0.000000 0.000000 0.000000 0.000000 0.000000 0.000000 0.000000 0.000000 0.000000 0.000000 0.000000 0.000000 0.000000 0.000000 0.000000 0.000000
0.000000 0.000000 0.000000 0.000000 29.281285 29.281285 29.281285 29.281285 29.281285 29.281285 29.281285 29.281285 29.281285 29.281285 0.000000 0.000000 0.000000 0.000000 0.000000 70.473944 70.473944 70.473944 70.473944 70.473944 70.473944 70.473944 70.473944 70.473944 70.473944 70.473944 70.473944 0.000000 0.000000 0.000000 0.000000 0.000000 45.354545 45.354545 45.354545 45.354545 45.354545 45.354545 45.354545 50.308878 50.308878 50.308878 50.308878 50.308878 50.308878 50.308878 50.308878 0.000000 0.000000 0.000000 0.000000 0.000000 0.000000 0.000000 0.000000 0.000000 0.000000 0.000000 0.000000 0.000000 0.000000 0.000000 0.000000 0.000000 18.410528 18.410528 18.410528 18.410528 18.410528 18.410528 18.410528 18.410528 18.410528 18.410528 0.000000 0.000000 0.000000 0.000000 0.000000 0.000000 0.000000 0.000000 0.000000 0.000000 0.000000 0.000000 0.000000 0.000000 0.000000 0.000000 0.000000 0.000000 0.000000 0.000000 0.000000 0.000000 0.000000 0.000000 0.000000
0.000000 0.000000 0.000000 0.000000 29.281285 29.281285 29.281285 29.281285 29.281285 29.281285 29.281285 29.281285 29.281285 29.281285 0.000000 0.000000 0.000000 0.000000 0.000000 70.473944 70.473944 70.473944 70.473944 70.473944 70.473944 70.473944 70.473944 70.473944 70.473944 70.473944 70.473944 0.000000 0.000000 0.000000 0.000000 0.000000 45.354545 45.354545 45.354545 45.354545 45.354545 45.354545 45.354545 50.308878 50.308878 50.308878 50.308878 50.308878 50.308878 50.308878 50.308878 0.000000 0.000000 0.000000 0.000000 0.000000 0.000000 0.000000 0.000000 0.000000 0.000000 0.000000 0.000000 0.000000 0.000000 0.000000 0.000000 0.000000 18.410528 18.410528 18.410528 18.410528 18.410528 18.410528 18.410528 18.410528 18.410528 18.410528 0.000000 0.000000 0.000000 0.000000 0.000000 0.000000 0.000000 0.000000 0.000000 0.000000 0.000000 0.000000 0.000000 0.000000 0.000000 0.000000 0.000000 0.000000 0.000000 0.000000 0.000000 0.000000 0.000000 0.000000 0.000000
0.000000 0.000000 0.000000 0.000000 29.281285 29.281285 29.281285 29.281285 29.281285 29.281285 29.281285 29.281285 29.281285 29.281285 0.000000 0.000000 0.000000 0.000000 0.000000 70.473944 70.473944 70.473944 70.473944 70.473944 70.473944 70.473944 70.473944 70.473944 70.473944 70.473944 70.473944 0.000000 0.000000 0.000000 0.000000 0.000000 45.354545 45.354545 45.354545 45.354545 45.354545 45.354545 45.354545 50.308878 50.308878 50.308878 50.308878 50.308878 50.308878 50.308878 50.308878 0.000000 0.000000 0.000000 0.000000 0.000000 0.000000 0.000000 0.000000 0.000000 0.000000 0.000000 0.000000 0.000000 0.000000 0.000000 0.000000 0.000000 18.410528 18.410528 18.410528 18.410528 18.410528 18.410528 18.410528 18.410528 18.410528 18.410528 0.000000 0.000000 0.000000 0.000000 0.000000 0.000000 0.000000 0.000000 0.000000 0.000000 15.012996 15.012996 15.012996 15.012996 15.012996 15.012996 15.012996 15.012996 15.012996 0.000000 0.000000 0.000000 0.000000 0.000000 0.000000
0.000000 0.000000 0.000000 0.000000 29.281285 29.281285 29.281285 29.281285 29.281285 29.281285 29.281285 29.281285 29.281285 29.281285 0.000000 0.000000 0.000000 0.000000 0.000000 70.473944 70.473944 70.473944 70.473944 70.473944 70.473944 70.473944 70.473944 70.473944 70.473944 70.473944 70.473944 0.000000 0.000000 0.000000 0.000000 0.000000 45.354545 45.354545 45.354545 45.354545 45.354545 45.354545 45.354545 50.308878 50.308878 50.308878 50.308878 50.308878 50.308878 50.308878 50.308878 0.000000 0.000000 0.000000 0.000000 0.000000 0.000000 0.000000 0.000000 0.000000 0.000000 0.000000 0.000000 0.000000 0.000000 0.000000 0.000000 0.000000 18.410528 18.410528 18.410528 18.410528 18.410528 18.410528 18.410528 18.410528 18.410528 18.410528 0.000000 0.000000 0.000000 0.000000 0.000000 0.000000 0.000000 0.000000 0.000000 0.000000 15.012996 15.012996 15.012996 15.012996 15.012996 15.012996 15.012996 15.012996 15.012996 0.000000 0.000000 0.000000 0.000000 0.000000 0.000000
0.000000 0.000000 0.000000 0.000000 29.281285 29.281285 29.281285 29.281285 29.281285 29.281285 29.281285 29.281285 29.281285 29.281285 0.000000 0.000000 0.000000 0.000000 0.000000 70.473944 70.473944 70.473944 70.473944 70.473944 70.473944 70.473944 70.473944 70.473944 70.473944 70.473944 70.473944 0.000000 0.000000 0.000000 0.000000 0.000000 45.354545 45.354545 45.354545 45.354545 45.354545 45.354545 45.354545 50.308878 50.308878 50.308878 50.308878 50.308878 50.308878 50.308878 50.308878 0.000000 0.000000 0.000000 0.000000 0.000000 0.000000 0.000000 0.000000 0.000000 0.000000 0.000000 0.000000 0.000000 0.000000 0.000000 0.000000 0.000000 27.253233 27.253233 27.253233 27.253233 27.253233 27.253233 27.253233 27.253233 27.253233 27.253233 0.000000 0.000000 0.000000 0.000000 0.000000 6.984877 6.984877 6.984877 0.000000 0.000000 15.012996 15.012996 15.012996 15.012996 15.012996 15.012996 15.012996 15.012996 15.012996 0.000000 0.000000 0.000000 0.000000 0.000000 0.000000
0.000000 0.000000 0.000000 0.000000 29.281285 29.281285 29.281285 29.281285 29.281285 29.281285 29.281285 29.281285 29.281285 29.281285 0.000000 0.000000 0.000000 0.000000 0.000000 70.473944 70.473944 70.473944 70.473944 70.473944 70.473944 70.473944 70.473944 70.473944 70.473944 70.473944 70.473944 0.000000 0.000000 0.000000 0.000000 0.000000 45.354545 45.354545 45.354545 45.354545 45.354545 45.354545 45.354545 50.308878 50.308878 50.308878 50.308878 50.308878 50.308878 50.308878 50.308878 0.000000 0.000000 0.000000 0.000000 0.000000 0.000000 0.000000 0.000000 0.000000 0.000000 0.000000 0.000000 0.000000 0.000000 0.000000 0.000000 0.000000 27.253233 27.253233 27.253233 27.253233 27.253233 27.253233 27.253233 27.253233 27.253233 27.253233 0.000000 0.000000 0.000000 0.000000 0.000000 6.984877 6.984877 6.984877 0.000000 0.000000 15.012996 15.012996 15.012996 15.012996 15.012996 15.012996 15.012996 15.012996 15.012996 0.000000 0.000000 0.000000 0.000000 0.000000 0.000000
0.000000 0.000000 0.000000 0.000000 29.281285 29.281285 29.281285 29.281285 29.281285 29.281285 29.281285 29.281285 29.281285 29.281285 0.000000 0.000000 0.000000 0.000000 0.000000 70.473944 70.473944 70.473944 70.473944 70.473944 70.473944 70.473944 70.473944 70.473944 70.473944 70.473944 70.473944 0.000000 0.000000 0.000000 0.000000 0.000000 45.354545 45.354545 45.354545 45.354545 45.354545 45.354545 45.354545 50.308878 50.308878 50.308878 50.308878 50.308878 50.308878 50.308878 50.308878 0.000000 0.000000 0.000000 0.000000 0.000000 0.000000 0.000000 0.000000 0.000000 0.000000 0.000000 0.000000 0.000000 0.000000 0.000000 0.000000 0.000000 27.253233 27.253233 27.253233 27.253233 27.253233 27.253233 27.253233 27.253233 27.253233 27.253233 0.000000 0.000000 0.000000 0.000000 0.000000 6.984877 6.984877 6.984877 0.000000 0.000000 15.012996 15.012996 15.012996 15.012996 15.012996 15.012996 15.012996 15.012996 15.012996 0.000000 0.000000 0.000000 0.000000 0.000000 0.000000
0.000000 0.000000 0.000000 0.000000 54.877950 54.877950 54.877950 54.877950 54.877950 54.877950 54.877950 54.877950 54.877950 54.877950 0.000000 0.000000 0.000000 0.000000 0.000000 70.473944 70.473944 70.473944 70.473944 70.473944 70.473944 70.473944 70.473944 70.473944 70.473944 70.473944 70.473944 0.000000 0.000000 0.000000 0.000000 0.000000 45.354545 45.354545 45.354545 45.354545 45.354545 45.354545 45.354545 50.308878 50.308878 50.308878 50.308878 50.308878 50.308878 50.308878 50.308878 0.000000 0.000000 0.000000 0.000000 0.000000 0.000000 0.000000 0.000000 0.000000 0.000000 0.000000 0.000000 0.000000 0.000000 0.000000 0.000000 0.000000 27.253233 27.253233 27.253233 27.253233 27.253233 27.253233 27.253233 27.253233 27.253233 27.253233 0.000000 0.000000 0.000000 0.000000 0.000000 6.984877 6.984877 6.984877 0.000000 0.000000 15.012996 15.012996 15.012996 15.012996 15.012996 15.012996 15.012996 15.012996 15.012996 0.000000 0.000000 0.000000 0.000000 0.000000 0.000000
0.000000 0.000000 0.000000 0.000000 54.877950 54.877950 54.877950 54.877950 54.877950 54.877950 54.877950 54.877950 54.877950 54.877950 0.000000 0.000000 0.000000 0.000000 0.000000 70.473944 70.473944 70.473944 70.473944 70.473944 70.473944 70.473944 70.473944 70.473944 70.473944 70.473944 70.473944 0.000000 0.000000 0.000000 0.000000 0.000000 45.354545 45.354545 45.354545 45.354545 45.354545 45.354545 45.354545 50.308878 50.308878 50.308878 50.308878 50.308878 50.308878 50.308878 50.308878 0.000000 0.000000 0.000000 0.000000 0.000000 0.000000 0.000000 0.000000 0.000000 0.000000 0.000000 0.000000 0.000000 0.000000 0.000000 0.000000 0.000000 27.253233 27.253233 27.253233 27.253233 27.253233 27.253233 27.253233 27.253233 27.253233 27.253233 0.000000 0.000000 0.000000 0.000000 0.000000 6.984877 6.984877 6.984877 0.000000 0.000000 15.012996 15.012996 15.012996 15.012996 15.012996 15.012996 15.012996 15.012996 15.012996 0.000000 0.000000 0.000000 0.000000 0.000000 0.000000
0.000000 0.000000 0.000000 0.000000 54.877950 54.877950 54.877950 54.877950 54.877950 54.877950 54.877950 54.877950 54.877950 54.877950 0.000000 0.000000 0.000000 0.000000 0.000000 70.473944 70.473944 70.473944 70.473944 70.473944 70.473944 70.473944 70.473944 70.473944 70.473944 70.473944 70.473944 0.000000 0.000000 0.000000 0.000000 0.000000 45.354545 45.354545 45.354545 45.354545 45.354545 45.354545 45.354545 50.308878 50.308878 50.308878 50.308878 50.308878 50.308878 50.308878 50.308878 0.000000 0.000000 0.000000 0.000000 0.000000 0.000000 0.000000 0.000000 0.000000 0.000000 0.000000 0.000000 0.000000 0.000000 0.000000 0.000000 0.000000 27.253233 27.253233 27.253233 27.253233 27.253233 27.253233 27.253233 27.253233 27.253233 27.253233 0.000000 0.000000 0.000000 0.000000 0.000000 6.984877 6.984877 6.984877 0.000000 0.000000 15.253481 15.253481 15.253481 15.253481 15.253481 15.253481 15.253481 15.253481 15.253481 0.000000 0.000000 0.000000 0.000000 0.000000 0.000000
0.000000 0.000000 0.000000 0.000000 54.877950 54.877950 54.877950 54.877950 54.877950 54.877950 54.877950 54.877950 54.877950 54.877950 0.000000 0.000000 0.000000 0.000000 0.000000 70.473944 70.473944 70.473944 70.473944 70.473944 70.473944 70.473944 70.473944 70.473944 70.473944 70.473944 70.473944 0.000000 0.000000 0.000000 0.000000 0.000000 45.354545 45.354545 45.354545 45.354545 45.354545 45.354545 45.354545 50.308878 50.308878 50.308878 50.308878 50.308878 50.308878 50.308878 50.308878 0.000000 0.000000 0.000000 0.000000 0.000000 0.000000 0.000000 0.000000 0.000000 0.000000 0.000000 0.000000 0.000000 0.000000 0.000000 0.000000 0.000000 27.253233 27.253233 27.253233 27.253233 27.253233 27.253233 27.253233 27.253233 27.253233 27.253233 0.000000 0.000000 0.000000 0.000000 0.000000 6.984877 6.984877 6.984877 0.000000 0.000000 15.253481 15.253481 15.253481 15.253481 15.253481 15.253481 15.253481 15.253481 15.253481 0.000000 0.000000 0.000000 0.000000 0.000000 0.000000
0.000000 0.000000 0.000000 0.000000 54.877950 54.877950 54.877950 54.877950 54.877950 54.877950 54.877950 54.877950 54.877950 54.877950 0.000000 0.000000 0.000000 0.000000 0.000000 70.473944 70.473944 70.473944 70.473944 70.473944 70.473944 70.473944 70.473944 70.473944 70.473944 70.473944 70.473944 0.000000 0.000000 0.000000 0.000000 0.000000 45.354545 45.354545 45.354545 45.354545 45.354545 45.354545 45.354545 50.308878 50.308878 50.308878 50.308878 50.308878 50.308878 50.308878 50.308878 0.000000 0.000000 0.000000 0.000000 0.000000 0.000000 0.000000 0.000000 0.000000 0.000000 0.000000 0.000000 0.000000 0.000000 0.000000 0.000000 0.000000 27.253233 27.253233 27.253233 27.253233 27.253233 27.253233 27.253233 27.253233 27.253233 27.253233 0.000000 0.000000 0.000000 0.000000 0.000000 6.984877 6.984877 6.984877 0.000000 0.000000 15.253481 15.253481 15.253481 15.253481 15.253481 15.253481 15.253481 15.253481 15.253481 0.000000 0.000000 0.000000 0.000000 0.000000 0.000000
0.000000 0.000000 0.000000 0.000000 54.877950 54.877950 54.877950 54.877950 54.877950 54.877950 54.877950 54.877950 54.877950 54.877950 0.000000 0.000000 0.000000 0.000000 0.000000 70.473944 70.473944 70.473944 70.473944 70.473944 70.473944 70.473944 70.473944 70.473944 70.473944 70.473944 70.473944 0.000000 0.000000 0.000000 0.000000 0.000000 45.354545 45.354545 45.354545 45.354545 45.354545 45.354545 45.354545 50.308878 50.308878 50.308878 50.308878 50.308878 50.308878 50.308878 50.308878 0.000000 0.000000 0.000000 0.000000 0.000000 0.000000 0.000000 0.000000 0.000000 0.000000 0.000000 0.000000 0.000000 0.000000 0.000000 0.000000 0.000000 27.253233 27.253233 27.253233 27.253233 27.253233 27.253233 27.253233 27.253233 27.253233 27.253233 0.000000 0.000000 0.000000 0.000000 0.000000 6.984877 6.984877 6.984877 0.000000 0.000000 15.253481 15.253481 15.253481 15.253481 15.253481 15.253481 15.253481 15.253481 15.253481 0.000000 0.000000 0.000000 0.000000 0.000000 0.000000
0.000000 0.000000 0.000000 0.000000 54.877950 54.877950 54.877950 54.877950 54.877950 54.877950 54.877950 54.877950 54.877950 54.877950 0.000000 0.000000 0.000000 0.000000 0.000000 70.473944 70.473944 70.473944 70.473944 70.473944 70.473944 70.473944 70.473944 70.473944 70.473944 70.473944 70.473944 0.000000 0.000000 0.000000 0.000000 0.000000 45.354545 45.354545 45.354545 45.354545 45.354545 45.354545 45.354545 50.308878 50.308878 50.308878 50.308878 50.308878 50.308878 50.308878 50.308878 0.000000 0.000000 0.000000 0.000000 0.000000 0.000000 0.000000 0.000000 0.000000 0.000000 0.000000 0.000000 0.000000 0.000000 0.000000 0.000000 0.000000 27.253233 27.253233 27.253233 27.253233 27.253233 27.253233 27.253233 27.253233 27.253233 27.253233 0.000000 0.000000 0.000000 0.000000 0.000000 6.984877 6.984877 6.984877 0.000000 0.000000 15.253481 15.253481 15.253481 15.253481 15.253481 15.253481 15.253481 15.253481 15.253481 0.000000 0.000000 0.000000 0.000000 0.000000 0.000000
0.000000 0.000000 0.000000 0.000000 54.877950 54.877950 54.877950 54.877950 54.877950 54.877950 54.877950 54.877950 54.877950 54.877950 0.000000 0.000000 0.000000 0.000000 0.000000 70.473944 70.473944 70.473944 70.473944 70.473944 70.473944 70.473944 70.473944 70.473944 70.473944 70.473944 70.473944 0.000000 0.000000 0.000000 0.000000 0.000000 45.354545 45.354545 45.354545 45.354545 45.354545 45.354545 45.354545 50.308878 50.308878 50.308878 50.308878 50.308878 50.308878 50.308878 50.308878 0.000000 0.000000 0.000000 0.000000 0.000000 0.000000 0.000000 0.000000 0.000000 0.000000 0.000000 0.000000 0.000000 0.000000 0.000000 0.000000 0.000000 27.253233 27.253233 27.253233 27.253233 27.253233 27.253233 27.253233 27.253233 27.253233 27.253233 0.000000 0.000000 0.000000 0.000000 0.000000 0.000000 0.000000 0.000000 0.000000 0.000000 15.253481 15.253481 15.253481 15.253481 15.253481 15.253481 15.253481 15.253481 15.253481 0.000000 0.000000 0.000000 0.000000 0.000000 0.000000
0.000000 0.000000 0.000000 0.000000 54.877950 54.877950 54.877950 54.877950 54.877950 54.877950 54.877950 54.877950 54.877950 54.877950 0.000000 0.000000 0.000000 0.000000 0.000000 70.473944 70.473944 70.473944 70.473944 70.473944 70.473944 70.473944 70.473944 70.473944 70.473944 70.473944 70.473944 0.000000 0.000000 0.000000 0.000000 0.000000 45.354545 45.354545 45.354545 45.354545 45.354545 45.354545 45.354545 50.308878 50.308878 50.308878 50.308878 50.308878 50.308878 50.308878 50.308878 0.000000 0.000000 0.000000 0.000000 0.000000 0.000000 0.000000 0.000000 0.000000 0.000000 0.000000 0.000000 0.000000 0.000000 0.000000 0.000000 0.000000 0.000000 0.000000 0.000000 0.000000 0.000000 0.000000 0.000000 0.000000 0.000000 0.000000 0.000000 0.000000 0.000000 0.000000 0.000000 0.000000 0.000000 0.000000 0.000000 0.000000 0.000000 0.000000 0.000000 0.000000 0.000000 0.000000 0.000000 0.000000 0.000000 0.000000 0.000000 0.000000 0.000000 0.000000 0.000000
0.000000 0.000000 0.000000 0.000000 54.877950 54.877950 54.877950 54.877950 54.877950 54.877950 54.877950 54.877950 54.877950 54.877950 0.000000 0.000000 0.000000 0.000000 0.000000 70.473944 70.473944 70.473944 70.473944 70.473944 70.473944 70.473944 70.473944 70.473944 70.473944 70.473944 70.473944 0.000000 0.000000 0.000000 0.000000 0.000000 45.354545 45.354545 45.354545 45.354545 45.354545 45.354545 45.354545 50.308878 50.308878 50.308878 50.308878 50.308878 50.308878 50.308878 50.308878 0.000000 0.000000 0.000000 0.000000 0.000000 0.000000 0.000000 0.000000 0.000000 0.000000 0.000000 0.000000 0.000000 0.000000 0.000000 0.000000 0.000000 0.000000 0.000000 0.000000 0.000000 0.000000 0.000000 0.000000 0.000000 0.000000 0.000000 0.000000 0.000000 0.000000 0.000000 0.000000 0.000000 0.000000 0.000000 0.000000 0.000000 0.000000 0.000000 0.000000 0.000000 0.000000 0.000000 0.000000 0.000000 0.000000 0.000000 0.000000 0.000000 0.000000 0.000000 0.000000
0.000000 0.000000 0.000000 0.000000 54.877950 54.877950 54.877950 54.877950 54.877950 54.877950 54.877950 54.877950 54.877950 54.877950 0.000000 0.000000 0.000000 0.000000 0.000000 70.473944 70.473944 70.473944 70.473944 70.473944 70.473944 70.473944 70.473944 70.473944 70.473944 70.473944 70.473944 0.000000 0.000000 0.000000 0.000000 0.000000 45.354545 45.354545 45.354545 45.354545 45.354545 45.354545 45.354545 50.308878 50.308878 50.308878 50.308878 50.308878 50.308878 50.308878 50.308878 0.000000 0.000000 0.000000 0.000000 0.000000 0.000000 0.000000 0.000000 0.000000 0.000000 0.000000 0.000000 0.000000 0.000000 0.000000 0.000000 0.000000 0.000000 0.000000 0.000000 0.000000 0.000000 0.000000 0.000000 0.000000 0.000000 0.000000 0.000000 0.000000 0.000000 0.000000 0.000000 0.000000 0.000000 0.000000 0.000000 0.000000 0.000000 0.000000 0.000000 0.000000 0.000000 0.000000 0.000000 0.000000 0.000000 0.000000 0.000000 0.000000 0.000000 0.000000 0.000000
0.000000 0.000000 0.000000 0.000000 54.877950 54.877950 54.877950 54.877950 54.877950 54.877950 54.877950 54.877950 54.877950 54.877950 0.000000 0.000000 0.000000 0.000000 0.000000 0.000000 0.000000 0.000000 0.000000 0.000000 0.000000 0.000000 0.000000 0.000000 0.000000 0.000000 0.000000 0.000000 0.000000 0.000000 0.000000 0.000000 45.354545 45.354545 45.354545 45.354545 45.354545 45.354545 45.354545 50.308878 50.308878 50.308878 50.308878 50.308878 50.308878 50.308878 50.308878 0.000000 0.000000 0.000000 0.000000 0.000000 0.000000 0.000000 0.000000 0.000000 0.000000 0.000000 0.000000 0.000000 0.000000 0.000000 0.000000 0.000000 0.000000 0.000000 0.000000 0.000000 0.000000 0.000000 0.000000 0.000000 0.000000 0.000000 0.000000 0.000000 0.000000 0.000000 0.000000 0.000000 0.000000 0.000000 0.000000 0.000000 0.000000 0.000000 0.000000 0.000000 0.000000 0.000000 0.000000 0.000000 0.000000 0.000000 0.000000 0.000000 0.000000 0.000000 0.000000
0.000000 0.000000 0.000000 0.000000 54.877950 54.877950 54.877950 54.877950 54.877950 54.877950 54.877950 54.877950 54.877950 54.877950 0.000000 0.000000 0.000000 0.000000 0.000000 0.000000 0.000000 0.000000 0.000000 0.000000 0.000000 0.000000 0.000000 0.000000 0.000000 0.000000 0.000000 0.000000 0.000000 0.000000 0.000000 0.000000 45.354545 45.354545 45.354545 45.354545 45.354545 45.354545 45.354545 50.308878 50.308878 50.308878 50.308878 50.308878 50.308878 50.308878 50.308878 0.000000 0.000000 0.000000 0.000000 0.000000 0.000000 0.000000 11.142592 11.142592 11.142592 11.142592 11.142592 11.142592 0.000000 0.000000 0.000000 0.000000 0.000000 0.000000 0.000000 0.000000 0.000000 0.000000 0.000000 0.000000 0.000000 0.000000 0.000000 0.000000 0.000000 0.000000 0.000000 0.000000 0.000000 0.000000 0.000000 0.000000 0.000000 0.000000 0.000000 0.000000 0.000000 0.000000 0.000000 0.000000 0.000000 0.000000 0.000000 0.000000 0.000000 0.000000 0.000000
0.000000 0.000000 0.000000 0.000000 54.877950 54.877950 54.877950 54.877950 54.877950 54.877950 54.877950 54.877950 54.877950 54.877950 0.000000 0.000000 0.000000 0.000000 0.000000 0.000000 0.000000 0.000000 0.000000 0.000000 0.000000 0.000000 0.000000 0.000000 0.000000 0.000000 0.000000 0.000000 0.000000 0.000000 0.000000 0.000000 45.354545 45.354545 45.354545 45.354545 45.354545 45.354545 45.354545 50.308878 50.308878 50.308878 50.308878 50.308878 50.308878 50.308878 50.308878 0.000000 0.000000 0.000000 0.000000 0.000000 0.000000 0.000000 11.142592 11.142592 11.142592 11.142592 11.142592 11.142592 0.000000 0.000000 0.000000 0.000000 0.000000 0.000000 0.000000 0.000000 0.000000 0.000000 0.000000 0.000000 0.000000 0.000000 0.000000 0.000000 0.000000 0.000000 0.000000 0.000000 0.000000 0.000000 0.000000 0.000000 0.000000 0.000000 0.000000 0.000000 0.000000 0.000000 0.000000 0.000000 0.000000 0.000000 0.000000 0.000000 0.000000 0.000000 0.000000
0.000000 0.000000 0.000000 0.000000 54.877950 54.877950 54.877950 54.877950 54.877950 54.877950 54.877950 54.877950 54.877950 54.877950 0.000000 0.000000 0.000000 0.000000 0.000000 0.000000 0.000000 0.000000 0.000000 0.000000 0.000000 0.000000 0.000000 0.000000 0.000000 0.000000 0.000000 0.000000 0.000000 0.000000 0.000000 0.000000 0.000000 0.000000 0.000000 0.000000 0.000000 0.000000 0.000000 18.012084 18.012084 18.012084 18.012084 18.012084 18.012084 18.012084 18.012084 0.000000 0.000000 0.000000 0.000000 0.000000 0.000000 0.000000 11.142592 11.142592 11.142592 11.142592 11.142592 11.142592 0.000000 0.000000 0.000000 0.000000 0.000000 0.000000 0.000000 0.000000 0.000000 0.000000 0.000000 0.000000 0.000000 0.000000 0.000000 0.000000 0.000000 0.000000 0.000000 29.204657 29.204657 29.204657 29.204657 29.204657 29.204657 29.204657 29.204657 29.204657 29.204657 29.204657 29.204657 29.204657 0.000000 0.000000 0.000000 0.000000 0.000000 0.000000 0.000000
0.000000 0.000000 0.000000 0.000000 54.877950 54.877950 54.877950 54.877950 54.877950 54.877950 54.877950 54.877950 54.877950 54.877950 0.000000 0.000000 0.000000 0.000000 0.000000 0.000000 0.000000 0.000000 0.000000 0.000000 0.000000 0.000000 0.000000 0.000000 0.000000 0.000000 0.000000 0.000000 0.000000 0.000000 0.000000 0.000000 0.000000 0.000000 0.000000 0.000000 0.000000 0.000000 0.000000 18.012084 18.012084 18.012084 18.012084 18.012084 18.012084 18.012084 18.012084 0.000000 0.000000 0.000000 0.000000 0.000000 0.000000 0.000000 11.142592 11.142592 11.142592 11.142592 11.142592 11.142592 0.000000 0.000000 0.000000 0.000000 0.000000 0.000000 0.000000 0.000000 0.000000 0.000000 0.000000 0.000000 0.000000 0.000000 0.000000 0.000000 0.000000 0.000000 0.000000 29.204657 29.204657 29.204657 29.204657 29.204657 29.204657 29.204657 29.204657 29.204657 29.204657 29.204657 29.204657 29.204657 0.000000 0.000000 0.000000 0.000000 0.000000 0.000000 0.000000
0.000000 0.000000 0.000000 0.000000 54.877950 54.877950 54.877950 54.877950 54.877950 54.877950 54.877950 54.877950 54.877950 54.877950 0.000000 0.000000 0.000000 0.000000 0.000000 0.000000 0.000000 0.000000 0.000000 0.000000 0.000000 0.000000 0.000000 0.000000 0.000000 0.000000 0.000000 0.000000 0.000000 0.000000 0.000000 0.000000 0.000000 0.000000 0.000000 0.000000 0.000000 0.000000 0.000000 18.012084 18.012084 18.012084 18.012084 18.012084 18.012084 18.012084 18.012084 0.000000 0.000000 0.000000 0.000000 0.000000 0.000000 0.000000 11.142592 11.142592 11.142592 11.142592 11.142592 11.142592 0.000000 0.000000 0.000000 0.000000 0.000000 0.000000 0.000000 0.000000 0.000000 0.000000 0.000000 0.000000 0.000000 0.000000 0.000000 0.000000 0.000000 0.000000 0.000000 29.204657 29.204657 29.204657 29.204657 29.204657 29.204657 29.204657 29.204657 29.204657 29.204657 29.204657 29.204657 29.204657 0.000000 0.000000 0.000000 0.000000 0.000000 0.000000 0.000000
0.000000 0.000000 0.000000 0.000000 54.877950 54.877950 54.877950 54.877950 54.877950 54.877950 54.877950 54.877950 54.877950 54.877950 0.000000 0.000000 0.000000 0.000000 0.000000 0.000000 0.000000 0.000000 0.000000 0.000000 0.000000 0.000000 0.000000 0.000000 0.000000 0.000000 0.000000 0.000000 0.000000 0.000000 0.000000 0.000000 0.000000 0.000000 0.000000 0.000000 0.000000 0.000000 0.000000 18.012084 18.012084 18.012084 18.012084 18.012084 18.012084 18.012084 18.012084 0.000000 0.000000 0.000000 0.000000 0.000000 0.000000 0.000000 11.142592 11.142592 11.142592 11.142592 11.142592 11.142592 0.000000 0.000000 0.000000 0.000000 0.000000 0.000000 0.000000 0.000000 0.000000 0.000000 0.000000 0.000000 0.000000 0.000000 0.000000 0.000000 0.000000 0.000000 0.000000 29.204657 29.204657 29.204657 29.204657 29.204657 29.204657 29.204657 29.204657 29.204657 29.204657 29.204657 29.204657 29.204657 0.000000 0.000000 0.000000 0.000000 0.000000 0.000000 0.000000
0.000000 0.000000 0.000000 0.000000 54.877950 54.877950 54.877950 54.877950 54.877950 54.877950 54.877950 54.877950 54.877950 54.877950 0.000000 0.000000 0.000000 0.000000 0.000000 0.000000 0.000000 0.000000 0.000000 0.000000 0.000000 0.000000 0.000000 0.000000 0.000000 0.000000 0.000000 0.000000 0.000000 0.000000 0.000000 0.000000 0.000000 0.000000 0.000000 0.000000 0.000000 0.000000 0.000000 18.012084 18.012084 18.012084 18.012084 18.012084 18.012084 18.012084 18.012084 0.000000 0.000000 0.000000 0.000000 0.000000 0.000000 0.000000 11.142592 11.142592 11.142592 11.142592 11.142592 11.142592 0.000000 0.000000 0.000000 0.000000 0.000000 0.000000 0.000000 0.000000 0.000000 0.000000 0.000000 0.000000 0.000000 0.000000 0.000000 0.000000 0.000000 0.000000 0.000000 29.204657 29.204657 29.204657 29.204657 29.204657 29.204657 29.204657 29.204657 29.204657 29.204657 29.204657 29.204657 29.204657 0.000000 0.000000 0.000000 0.000000 0.000000 0.000000 0.000000
0.000000 0.000000 0.000000 0.000000 54.877950 54.877950 54.877950 54.877950 54.877950 54.877950 54.877950 54.877950 54.877950 54.877950 0.000000 0.000000 0.000000 0.000000 0.000000 0.000000 0.000000 0.000000 0.000000 0.000000 0.000000 0.000000 0.000000 0.000000 0.000000 0.000000 0.000000 0.000000 0.000000 0.000000 0.000000 0.000000 0.000000 0.000000 0.000000 0.000000 0.000000 0.000000 0.000000 18.012084 18.012084 18.012084 18.012084 18.012084 18.012084 18.012084 18.012084 0.000000 0.000000 0.000000 0.000000 0.000000 0.000000 0.000000 10.492938 10.492938 10.492938 10.492938 10.492938 10.492938 0.000000 0.000000 0.000000 0.000000 0.000000 0.000000 0.000000 0.000000 0.000000 0.000000 0.000000 0.000000 0.000000 0.000000 0.000000 0.000000 0.000000 0.000000 0.000000 29.204657 29.204657 29.204657 29.204657 29.204657 29.204657 29.204657 29.204657 29.204657 29.204657 29.204657 29.204657 29.204657 0.000000 0.000000 0.000000 0.000000 0.000000 0.000000 0.000000
0.000000 0.000000 0.000000 0.000000 54.877950 54.877950 54.877950 54.877950 54.877950 54.877950 54.877950 54.877950 54.877950 54.877950 0.000000 0.000000 0.000000 0.000000 0.000000 0.000000 0.000000 0.000000 0.000000 0.000000 0.000000 0.000000 0.000000 0.000000 0.000000 0.000000 0.000000 0.000000 0.000000 0.000000 0.000000 0.000000 0.000000 0.000000 0.000000 0.000000 0.000000 0.000000 0.000000 18.012084 18.012084 18.012084 18.012084 18.012084 18.012084 18.012084 18.012084 0.000000 0.000000 0.000000 0.000000 0.000000 0.000000 0.000000 10.492938 10.492938 10.492938 10.492938 10.492938 10.492938 0.000000 0.000000 0.000000 0.000000 0.000000 0.000000 0.000000 0.000000 0.000000 0.000000 0.000000 0.000000 0.000000 0.000000 0.000000 0.000000 0.000000 0.000000 0.000000 29.204657 29.204657 29.204657 29.204657 29.204657 29.204657 29.204657 29.204657 29.204657 29.204657 29.204657 29.204657 29.204657 0.000000 0.000000 0.000000 0.000000 0.000000 0.000000 0.000000
0.000000 0.000000 0.000000 0.000000 54.877950 54.877950 54.877950 54.877950 54.877950 54.877950 54.877950 54.877950 54.877950 54.877950 0.000000 0.000000 0.000000 0.000000 0.000000 0.000000 0.000000 0.000000 0.000000 0.000000 0.000000 0.000000 0.000000 0.000000 0.000000 0.000000 0.000000 0.000000 0.000000 0.000000 0.000000 0.000000 0.000000 0.000000 0.000000 0.000000 0.000000 0.000000 0.000000 18.012084 18.012084 18.012084 18.012084 18.012084 18.012084 18.012084 18.012084 0.000000 0.000000 0.000000 0.000000 0.000000 0.000000 0.000000 10.492938 10.492938 10.492938 10.492938 10.492938 10.492938 0.000000 0.000000 0.000000 0.000000 0.000000 0.000000 0.000000 0.000000 0.000000 0.000000 0.000000 0.000000 0.000000 0.000000 0.000000 0.000000 0.000000 0.000000 0.000000 29.204657 29.204657 29.204657 29.204657 29.204657 29.204657 29.204657 29.204657 29.204657 29.204657 29.204657 29.204657 29.204657 0.000000 0.000000 0.000000 0.000000 0.000000 0.000000 0.000000
0.000000 0.000000 0.000000 0.000000 54.877950 54.877950 54.877950 54.877950 54.877950 54.877950 54.877950 54.877950 54.877950 54.877950 0.000000 0.000000 0.000000 0.000000 0.000000 0.000000 0.000000 0.000000 0.000000 0.000000 0.000000 0.000000 0.000000 0.000000 0.000000 0.000000 0.000000 0.000000 0.000000 0.000000 0.000000 0.000000 0.000000 0.000000 0.000000 0.000000 0.000000 0.000000 0.000000 18.012084 18.012084 18.012084 18.012084 18.012084 18.012084 18.012084 18.012084 0.000000 0.000000 0.000000 0.000000 0.000000 0.000000 0.000000 10.492938 10.492938 10.492938 10.492938 10.492938 10.492938 0.000000 0.000000 0.000000 0.000000 0.000000 0.000000 0.000000 0.000000 0.000000 0.000000 0.000000 0.000000 0.000000 0.000000 0.000000 0.000000 0.000000 0.000000 0.000000 29.204657 29.204657 29.204657 29.204657 29.204657 29.204657 29.204657 29.204657 29.204657 29.204657 29.204657 29.204657 29.204657 0.000000 0.000000 0.000000 0.000000 0.000000 0.000000 0.000000
0.000000 0.000000 0.000000 0.000000 54.877950 54.877950 54.877950 54.877950 54.877950 54.877950 54.877950 54.877950 54.877950 54.877950 0.000000 0.000000 0.000000 0.000000 0.000000 0.000000 0.000000 0.000000 0.000000 0.000000 0.000000 0.000000 0.000000 0.000000 0.000000 0.000000 0.000000 0.000000 0.000000 0.000000 0.000000 0.000000 0.000000 0.000000 0.000000 0.000000 0.000000 0.000000 0.000000 18.012084 18.012084 18.012084 18.012084 18.012084 18.012084 18.012084 18.012084 0.000000 0.000000 0.000000 0.000000 0.000000 0.000000 0.000000 10.492938 10.492938 10.492938 10.492938 10.492938 10.492938 0.000000 0.000000 0.000000 0.000000 0.000000 0.000000 0.000000 0.000000 0.000000 0.000000 0.000000 0.000000 0.000000 0.000000 0.000000 0.000000 0.000000 0.000000 0.000000 29.204657 29.204657 29.204657 29.204657 29.204657 29.204657 29.204657 29.204657 29.204657 29.204657 29.204657 29.204657 29.204657 0.000000 0.000000 0.000000 0.000000 0.000000 0.000000 0.000000
0.000000 0.000000 0.000000 0.000000 0.000000 0.000000 0.000000 0.000000 0.000000 0.000000 0.000000 0.000000 0.000000 0.000000 0.000000 0.000000 0.000000 0.000000 0.000000 0.000000 0.000000 0.000000 0.000000 0.000000 0.000000 0.000000 0.000000 0.000000 0.000000 0.000000 0.000000 0.000000 0.000000 0.000000 0.000000 0.000000 23.937107 23.937107 23.937107 23.937107 23.937107 23.937107 23.937107 26.551893 26.551893 26.551893 26.551893 26.551893 26.551893 26.551893 26.551893 0.000000 0.000000 0.000000 0.000000 0.000000 0.000000 0.000000 10.492938 10.492938 10.492938 10.492938 10.492938 10.492938 0.000000 0.000000 0.000000 0.000000 0.000000 0.000000 0.000000 0.000000 0.000000 0.000000 0.000000 0.000000 0.000000 0.000000 0.000000 0.000000 0.000000 0.000000 0.000000 0.000000 0.000000 0.000000 0.000000 0.000000 0.000000 0.000000 0.000000 0.000000 0.000000 0.000000 0.000000 0.000000 0.000000 0.000000 0.000000 0.000000 0.000000 0.000000 0.000000
0.000000 0.000000 0.000000 0.000000 0.000000 0.000000 0.000000 0.000000 0.000000 0.000000 0.000000 0.000000 0.000000 0.000000 0.000000 0.000000 0.000000 0.000000 0.000000 0.000000 0.000000 0.000000 0.000000 0.000000 0.000000 0.000000 0.000000 0.000000 0.000000 0.000000 0.000000 0.000000 0.000000 0.000000 0.000000 0.000000 23.937107 23.937107 23.937107 23.937107 23.937107 23.937107 23.937107 26.551893 26.551893 26.551893 26.551893 26.551893 26.551893 26.551893 26.551893 0.000000 0.000000 0.000000 0.000000 0.000000 0.000000 0.000000 10.492938 10.492938 10.492938 10.492938 10.492938 10.492938 0.000000 0.000000 0.000000 0.000000 0.000000 0.000000 0.000000 0.000000 0.000000 0.000000 0.000000 0.000000 0.000000 0.000000 0.000000 0.000000 0.000000 0.000000 0.000000 0.000000 0.000000 0.000000 0.000000 0.000000 0.000000 0.000000 0.000000 0.000000 0.000000 0.000000 0.000000 0.000000 0.000000 0.000000 0.000000 0.000000 0.000000 0.000000 0.000000
0.000000 0.000000 0.000000 0.000000 0.000000 0.000000 0.000000 0.000000 0.000000 0.000000 0.000000 0.000000 0.000000 0.000000 0.000000 0.000000 0.000000 0.000000 0.000000 37.932544 37.932544 37.932544 37.932544 37.932544 37.932544 37.932544 37.932544 37.932544 37.932544 37.932544 37.932544 0.000000 0.000000 0.000000 0.000000 0.000000 23.937107 23.937107 23.937107 23.937107 23.937107 23.937107 23.937107 26.551893 26.551893 26.551893 26.551893 26.551893 26.551893 26.551893 26.551893 0.000000 0.000000 0.000000 0.000000 0.000000 0.000000 0.000000 0.000000 0.000000 0.000000 0.000000 0.000000 0.000000 0.000000 0.000000 0.000000 0.000000 0.000000 0.000000 0.000000 0.000000 0.000000 0.000000 0.000000 0.000000 0.000000 0.000000 0.000000 0.000000 0.000000 0.000000 0.000000 0.000000 0.000000 0.000000 0.000000 0.000000 0.000000 0.000000 0.000000 0.000000 0.000000 0.000000 0.000000 0.000000 0.000000 0.000000 0.000000 0.000000 0.000000 0.000000 0.000000
0.000000 0.000000 0.000000 0.000000 0.000000 0.000000 0.000000 0.000000 0.000000 0.000000 0.000000 0.000000 0.000000 0.000000 0.000000 0.000000 0.000000 0.000000 0.000000 37.932544 37.932544 37.932544 37.932544 37.932544 37.932544 37.932544 37.932544 37.932544 37.932544 37.932544 37.932544 0.000000 0.000000 0.000000 0.000000 0.000000 23.937107 23.937107 23.937107 23.937107 23.937107 23.937107 23.937107 26.551893 26.551893 26.551893 26.551893 26.551893 26.551893 26.551893 26.551893 0.000000 0.000000 0.000000 0.000000 0.000000 0.000000 0.000000 0.000000 0.000000 0.000000 0.000000 0.000000 0.000000 0.000000 0.000000 0.000000 0.000000 0.000000 0.000000 0.000000 0.000000 0.000000 0.000000 0.000000 0.000000 0.000000 0.000000 0.000000 0.000000 0.000000 0.000000 0.000000 0.000000 0.000000 0.000000 0.000000 0.000000 0.000000 0.000000 0.000000 0.000000 0.000000 0.000000 0.000000 0.000000 0.000000 0.000000 0.000000 0.000000 0.000000 0.000000 0.000000
0.000000 0.000000 0.000000 0.000000 0.000000 0.000000 0.000000 0.000000 0.000000 0.000000 0.000000 0.000000 0.000000 0.000000 0.000000 0.000000 0.000000 0.000000 0.000000 37.932544 37.932544 37.932544 37.932544 37.932544 37.932544 37.932544 37.932544 37.932544 37.932544 37.932544 37.932544 0.000000 0.000000 0.000000 0.000000 0.000000 23.937107 23.937107 23.937107 23.937107 23.937107 23.937107 23.937107 26.551893 26.551893 26.551893 26.551893 26.551893 26.551893 26.551893 26.551893 0.000000 0.000000 0.000000 0.000000 0.000000 0.000000 0.000000 0.000000 0.000000 0.000000 0.000000 0.000000 0.000000 0.000000 0.000000 0.000000 0.000000 0.000000 0.000000 0.000000 0.000000 0.000000 0.000000 0.000000 0.000000 0.000000 0.000000 0.000000 0.000000 0.000000 0.000000 0.000000 0.000000 0.000000 0.000000 0.000000 0.000000 0.000000 0.000000 0.000000 0.000000 0.000000 0.000000 0.000000 0.000000 0.000000 0.000000 0.000000 0.000000 0.000000 0.000000 0.000000
0.000000 0.000000 0.000000 0.000000 0.000000 0.000000 0.000000 0.000000 0.000000 0.000000 0.000000 0.000000 0.000000 0.000000 0.000000 0.000000 0.000000 0.000000 0.000000 37.932544 37.932544 37.932544 37.932544 37.932544 37.932544 37.932544 37.932544 37.932544 37.932544 37.932544 37.932544 0.000000 0.000000 0.000000 0.000000 0.000000 23.937107 23.937107 23.937107 23.937107 23.937107 23.937107 23.937107 26.551893 26.551893 26.551893 26.551893 26.551893 26.551893 26.551893 26.551893 0.000000 0.000000 0.000000 0.000000 0.000000 0.000000 0.000000 0.000000 0.000000 0.000000 0.000000 0.000000 0.000000 0.000000 0.000000 0.000000 0.000000 0.000000 0.000000 0.000000 0.000000 0.000000 0.000000 0.000000 0.000000 0.000000 0.000000 0.000000 0.000000 0.000000 0.000000 0.000000 0.000000 0.000000 0.000000 0.000000 0.000000 0.000000 0.000000 0.000000 0.000000 0.000000 0.000000 0.000000 0.000000 0.000000 0.000000 0.000000 0.000000 0.000000 0.000000 0.000000
0.000000 0.000000 0.000000 0.000000 0.000000 0.000000 0.000000 0.000000 0.000000 0.000000 0.000000 0.000000 0.000000 0.000000 0.000000 0.000000 0.000000 0.000000 0.000000 37.932544 37.932544 37.932544 37.932544 37.932544 37.932544 37.932544 37.932544 37.932544 37.932544 37.932544 37.932544 0.000000 0.000000 0.000000 0.000000 0.000000 23.937107 23.937107 23.937107 23.937107 23.937107 23.937107 23.937107 26.551893 26.551893 26.551893 26.551893 26.551893 26.551893 26.551893 26.551893 0.000000 0.000000 0.000000 0.000000 0.000000 0.000000 0.000000 0.000000 0.000000 0.000000 0.000000 0.000000 0.000000 0.000000 0.000000 0.000000 0.000000 0.000000 0.000000 0.000000 0.000000 0.000000 0.000000 0.000000 0.000000 0.000000 0.000000 0.000000 0.000000 0.000000 15.583765 15.583765 15.583765 15.583765 15.583765 15.583765 15.583765 15.583765 15.583765 0.000000 0.000000 0.000000 0.000000 0.000000 0.000000 0.000000 0.000000 0.000000 0.000000 0.000000 0.000000 0.000000
0.000000 0.000000 0.000000 0.000000 0.000000 0.000000 0.000000 0.000000 0.000000 0.000000 0.000000 0.000000 0.000000 0.000000 0.000000 0.000000 0.000000 0.000000 0.000000 37.932544 37.932544 37.932544 37.932544 37.932544 37.932544 37.932544 37.932544 37.932544 37.932544 37.932544 37.932544 0.000000 0.000000 0.000000 0.000000 0.000000 23.937107 23.937107 23.937107 23.937107 23.937107 23.937107 23.937107 26.551893 26.551893 26.551893 26.551893 26.551893 26.551893 26.551893 26.551893 0.000000 0.000000 0.000000 0.000000 0.000000 0.000000 0.000000 0.000000 2.335776 2.335776 2.335776 0.000000 0.000000 0.000000 0.000000 0.000000 0.000000 0.000000 0.000000 0.000000 0.000000 0.000000 0.000000 0.000000 0.000000 0.000000 0.000000 0.000000 0.000000 0.000000 15.583765 15.583765 15.583765 15.583765 15.583765 15.583765 15.583765 15.583765 15.583765 0.000000 0.000000 0.000000 0.000000 0.000000 0.000000 0.000000 0.000000 0.000000 0.000000 0.000000 0.000000 0.000000
0.000000 0.000000 0.000000 0.000000 0.000000 0.000000 0.000000 0.000000 0.000000 0.000000 0.000000 0.000000 0.000000 0.000000 0.000000 0.000000 0.000000 0.000000 0.000000 37.932544 37.932544 37.932544 37.932544 37.932544 37.932544 37.932544 37.932544 37.932544 37.932544 37.932544 37.932544 0.000000 0.000000 0.000000 0.000000 0.000000 23.937107 23.937107 23.937107 23.937107 23.937107 23.937107 23.937107 26.551893 26.551893 26.551893 26.551893 26.551893 26.551893 26.551893 26.551893 0.000000 0.000000 0.000000 0.000000 0.000000 0.000000 0.000000 0.000000 2.335776 2.335776 2.335776 0.000000 0.000000 0.000000 0.000000 0.000000 0.000000 0.000000 0.000000 0.000000 0.000000 0.000000 0.000000 0.000000 0.000000 0.000000 0.000000 0.000000 0.000000 0.000000 15.583765 15.583765 15.583765 15.583765 15.583765 15.583765 15.583765 15.583765 15.583765 0.000000 0.000000 0.000000 0.000000 0.000000 0.000000 0.000000 0.000000 0.000000 0.000000 0.000000 0.000000 0.000000
0.000000 0.000000 0.000000 0.000000 0.000000 0.000000 0.000000 0.000000 0.000000 0.000000 0.000000 0.000000 0.000000 0.000000 0.000000 0.000000 0.000000 0.000000 0.000000 37.932544 37.932544 37.932544 37.932544 37.932544 37.932544 37.932544 37.932544 37.932544 37.932544 37.932544 37.932544 0.000000 0.000000 0.000000 0.000000 0.000000 23.937107 23.937107 23.937107 23.937107 23.937107 23.937107 23.937107 26.551893 26.551893 26.551893 26.551893 26.551893 26.551893 26.551893 26.551893 0.000000 0.000000 0.000000 0.000000 0.000000 0.000000 0.000000 0.000000 2.335776 2.335776 2.335776 0.000000 0.000000 0.000000 0.000000 0.000000 0.000000 0.000000 0.000000 0.000000 0.000000 0.000000 0.000000 0.000000 0.000000 0.000000 0.000000 0.000000 0.000000 0.000000 15.583765 15.583765 15.583765 15.583765 15.583765 15.583765 15.583765 15.583765 15.583765 0.000000 0.000000 0.000000 0.000000 0.000000 0.000000 0.000000 0.000000 0.000000 0.000000 0.000000 0.000000 0.000000
0.000000 0.000000 0.000000 0.000000 0.000000 0.000000 0.000000 0.000000 0.000000 0.000000 0.000000 0.000000 0.000000 0.000000 0.000000 0.000000 0.000000 0.000000 0.000000 37.932544 37.932544 37.932544 37.932544 37.932544 37.932544 37.932544 37.932544 37.932544 37.932544 37.932544 37.932544 0.000000 0.000000 0.000000 0.000000 0.000000 23.937107 23.937107 23.937107 23.937107 23.937107 23.937107 23.937107 26.551893 26.551893 26.551893 26.551893 26.551893 26.551893 26.551893 26.551893 0.000000 0.000000 0.000000 0.000000 0.000000 0.000000 0.000000 0.000000 2.335776 2.335776 2.335776 0.000000 0.000000 0.000000 0.000000 0.000000 0.000000 0.000000 0.000000 0.000000 0.000000 0.000000 0.000000 0.000000 0.000000 0.000000 0.000000 0.000000 0.000000 0.000000 15.583765 15.583765 15.583765 15.583765 15.583765 15.583765 15.583765 15.583765 15.583765 0.000000 0.000000 0.000000 0.000000 0.000000 0.000000 0.000000 0.000000 0.000000 0.000000 0.000000 0.000000 0.000000
0.000000 0.000000 0.000000 0.000000 0.000000 0.000000 0.000000 0.000000 0.000000 0.000000 0.000000 0.000000 0.000000 0.000000 0.000000 0.000000 0.000000 0.000000 0.000000 37.932544 37.932544 37.932544 37.932544 37.932544 37.932544 37.932544 37.932544 37.932544 37.932544 37.932544 37.932544 0.000000 0.000000 0.000000 0.000000 0.000000 23.937107 23.937107 23.937107 23.937107 23.937107 23.937107 23.937107 26.551893 26.551893 26.551893 26.551893 26.551893 26.551893 26.551893 26.551893 0.000000 0.000000 0.000000 0.000000 0.000000 0.000000 0.000000 0.000000 0.000000 0.000000 0.000000 0.000000 0.000000 0.000000 0.000000 0.000000 0.000000 0.000000 0.000000 0.000000 0.000000 0.000000 0.000000 0.000000 0.000000 0.000000 0.000000 0.000000 0.000000 0.000000 15.583765 15.583765 15.583765 15.583765 15.583765 15.583765 15.583765 15.583765 15.583765 0.000000 0.000000 0.000000 0.000000 0.000000 0.000000 0.000000 0.000000 0.000000 0.000000 0.000000 0.000000 0.000000
0.000000 0.000000 0.000000 0.000000 0.000000 0.000000 0.000000 0.000000 0.000000 0.000000 0.000000 0.000000 0.000000 0.000000 0.000000 0.000000 0.000000 0.000000 0.000000 37.932544 37.932544 37.932544 37.932544 37.932544 37.932544 37.932544 37.932544 37.932544 37.932544 37.932544 37.932544 0.000000 0.000000 0.000000 0.000000 0.000000 23.937107 23.937107 23.937107 23.937107 23.937107 23.937107 23.937107 26.551893 26.551893 26.551893 26.551893 26.551893 26.551893 26.551893 26.551893 0.000000 0.000000 0.000000 0.000000 0.000000 0.000000 0.000000 0.000000 0.000000 0.000000 0.000000 0.000000 0.000000 0.000000 0.000000 0.000000 0.000000 0.000000 0.000000 0.000000 0.000000 0.000000 0.000000 0.000000 0.000000 0.000000 0.000000 0.000000 0.000000 0.000000 15.583765 15.583765 15.583765 15.583765 15.583765 15.583765 15.583765 15.583765 15.583765 0.000000 0.000000 0.000000 0.000000 0.000000 0.000000 0.000000 0.000000 0.000000 0.000000 0.000000 0.000000 0.000000
0.000000 0.000000 0.000000 0.000000 0.000000 0.000000 0.000000 0.000000 0.000000 0.000000 0.000000 0.000000 0.000000 0.000000 0.000000 0.000000 0.000000 0.000000 0.000000 37.932544 37.932544 37.932544 37.932544 37.932544 37.932544 37.932544 37.932544 37.932544 37.932544 37.932544 37.932544 0.000000 0.000000 0.000000 0.000000 0.000000 23.937107 23.937107 23.937107 23.937107 23.937107 23.937107 23.937107 26.551893 26.551893 26.551893 26.551893 26.551893 26.551893 26.551893 26.551893 0.000000 0.000000 0.000000 0.000000 0.000000 0.000000 0.000000 0.000000 0.000000 0.000000 0.000000 0.000000 0.000000 0.000000 0.000000 0.000000 0.000000 0.000000 0.000000 0.000000 0.000000 0.000000 0.000000 0.000000 0.000000 0.000000 0.000000 0.000000 0.000000 0.000000 0.000000 0.000000 0.000000 0.000000 0.000000 0.000000 0.000000 0.000000 0.000000 0.000000 0.000000 0.000000 0.000000 0.000000 0.000000 0.000000 0.000000 0.000000 0.000000 0.000000 0.000000 0.000000
0.000000 0.000000 0.000000 0.000000 0.000000 0.000000 0.000000 0.000000 0.000000 0.000000 0.000000 0.000000 0.000000 0.000000 0.000000 0.000000 0.000000 0.000000 0.000000 37.932544 37.932544 37.932544 37.932544 37.932544 37.932544 37.932544 37.932544 37.932544 37.932544 37.932544 37.932544 0.000000 0.000000 0.000000 0.000000 0.000000 23.937107 23.937107 23.937107 23.937107 23.937107 23.937107 23.937107 26.551893 26.551893 26.551893 26.551893 26.551893 26.551893 26.551893 26.551893 0.000000 0.000000 0.000000 0.000000 0.000000 0.000000 0.000000 0.000000 0.000000 0.000000 0.000000 0.000000 0.000000 0.000000 0.000000 0.000000 0.000000 0.000000 0.000000 0.000000 0.000000 0.000000 0.000000 0.000000 0.000000 0.000000 0.000000 0.000000 0.000000 0.000000 0.000000 0.000000 0.000000 0.000000 0.000000 0.000000 0.000000 0.000000 0.000000 0.000000 0.000000 0.000000 0.000000 0.000000 0.000000 0.000000 0.000000 0.000000 0.000000 0.000000 0.000000 0.000000
0.000000 0.000000 0.000000 0.000000 0.000000 0.000000 0.000000 0.000000 0.000000 0.000000 0.000000 0.000000 0.000000 0.000000 0.000000 0.000000 0.000000 0.000000 0.000000 0.000000 0.000000 0.000000 0.000000 0.000000 0.000000 0.000000 0.000000 0.000000 0.000000 0.000000 0.000000 0.000000 0.000000 0.000000 0.000000 0.000000 0.000000 0.000000 0.000000 0.000000 0.000000 0.000000 0.000000 0.000000 0.000000 0.000000 0.000000 0.000000 0.000000 0.000000 0.000000 0.000000 0.000000 0.000000 0.000000 0.000000 0.000000 0.000000 0.000000 0.000000 0.000000 0.000000 0.000000 0.000000 0.000000 0.000000 0.000000 0.000000 0.000000 0.000000 0.000000 0.000000 0.000000 0.000000 0.000000 0.000000 0.000000 0.000000 0.000000 0.000000 0.000000 0.000000 0.000000 0.000000 0.000000 0.000000 0.000000 0.000000 0.000000 0.000000 0.000000 0.000000 0.000000 0.000000 0.000000 0.000000 0.000000 0.000000 0.000000 0.000000 0.000000 0.000000 0.000000
0.000000 0.000000 0.000000 0.000000 0.000000 0.000000 0.000000 0.000000 0.000000 0.000000 0.000000 0.000000 0.000000 0.000000 0.000000 0.000000 0.000000 0.000000 0.000000 0.000000 0.000000 0.000000 0.000000 0.000000 0.000000 0.000000 0.000000 0.000000 0.000000 0.000000 0.000000 0.000000 0.000000 0.000000 0.000000 0.000000 0.000000 0.000000 0.000000 0.000000 0.000000 0.000000 0.000000 0.000000 0.000000 0.000000 0.000000 0.000000 0.000000 0.000000 0.000000 0.000000 0.000000 0.000000 0.000000 0.000000 0.000000 0.000000 0.000000 0.000000 0.000000 0.000000 0.000000 0.000000 0.000000 0.000000 0.000000 0.000000 0.000000 0.000000 0.000000 0.000000 0.000000 0.000000 0.000000 0.000000 0.000000 0.000000 0.000000 0.000000 0.000000 0.000000 0.000000 0.000000 0.000000 0.000000 0.000000 0.000000 0.000000 0.000000 0.000000 0.000000 0.000000 0.000000 0.000000 0.000000 0.000000 0.000000 0.000000 0.000000 0.000000 0.000000 0.000000
0.000000 0.000000 0.000000 0.000000 0.000000 0.000000 0.000000 0.000000 0.000000 0.000000 0.000000 0.000000 0.000000 0.000000 0.000000 0.000000 0.000000 0.000000 0.000000 0.000000 0.000000 0.000000 0.000000 0.000000 0.000000 0.000000 0.000000 0.000000 0.000000 0.000000 0.000000 0.000000 0.000000 0.000000 0.000000 0.000000 0.000000 0.000000 0.000000 0.000000 0.000000 0.000000 0.000000 0.000000 0.000000 0.000000 0.000000 0.000000 0.000000 0.000000 0.000000 0.000000 0.000000 0.000000 0.000000 0.000000 0.000000 0.000000 0.000000 0.000000 0.000000 0.000000 0.000000 0.000000 0.000000 0.000000 0.000000 0.000000 0.000000 0.000000 0.000000 0.000000 0.000000 0.000000 0.000000 0.000000 0.000000 0.000000 0.000000 0.000000 0.000000 0.000000 0.000000 0.000000 0.000000 0.000000 0.000000 0.000000 0.000000 0.000000 0.000000 0.000000 0.000000 0.000000 0.000000 0.000000 0.000000 0.000000 0.000000 0.000000 0.000000 0.000000 0.000000
0.000000 0.000000 0.000000 0.000000 0.000000 0.000000 0.000000 0.000000 0.000000 0.000000 0.000000 0.000000 0.000000 0.000000 0.000000 0.000000 0.000000 0.000000 0.000000 0.000000 0.000000 0.000000 0.000000 0.000000 0.000000 0.000000 0.000000 0.000000 0.000000 0.000000 0.000000 0.000000 0.000000 0.000000 0.000000 0.000000 0.000000 0.000000 0.000000 0.000000 0.000000 0.000000 0.000000 0.000000 0.000000 0.000000 0.000000 0.000000 0.000000 0.000000 0.000000 0.000000 0.000000 0.000000 0.000000 0.000000 0.000000 0.000000 0.000000 0.000000 0.000000 0.000000 0.000000 0.000000 0.000000 0.000000 0.000000 0.000000 0.000000 0.000000 0.000000 0.000000 0.000000 0.000000 0.000000 0.000000 0.000000 0.000000 0.000000 0.000000 0.000000 0.000000 0.000000 0.000000 0.000000 0.000000 0.000000 0.000000 0.000000 0.000000 0.000000 0.000000 0.000000 0.000000 0.000000 0.000000 0.000000 0.000000 0.000000 0.000000 0.000000 0.000000 0.000000
0.000000 0.000000 0.000000 0.000000 0.000000 0.000000 0.000000 0.000000 0.000000 0.000000 0.000000 0.000000 0.000000 0.000000 0.000000 0.000000 0.000000 0.000000 0.000000 0.000000 0.000000 0.000000 0.000000 0.000000 0.000000 0.000000 0.000000 0.000000 0.000000 0.000000 0.000000 0.000000 0.000000 0.000000 0.000000 0.000000 0.000000 0.000000 0.000000 0.000000 0.000000 0.000000 0.000000 0.000000 0.000000 0.000000 0.000000 0.000000 0.000000 0.000000 0.000000 0.000000 0.000000 0.000000 0.000000 0.000000 0.000000 0.000000 0.000000 0.000000 0.000000 0.000000 0.000000 0.000000 0.000000 0.000000 0.000000 0.000000 0.000000 0.000000 0.000000 0.000000 0.000000 0.000000 0.000000 0.000000 0.000000 0.000000 0.000000 0.000000 0.000000 0.000000 0.000000 0.000000 0.000000 0.000000 0.000000 0.000000 0.000000 0.000000 0.000000 0.000000 0.000000 0.000000 0.000000 0.000000 0.000000 0.000000 0.000000 0.000000 0.000000 0.000000 0.000000
0.000000 0.000000 0.000000 0.000000 0.000000 0.000000 0.000000 0.000000 0.000000 0.000000 0.000000 0.000000 0.000000 0.000000 0.000000 0.000000 0.000000 0.000000 0.000000 0.000000 0.000000 0.000000 0.000000 0.000000 0.000000 0.000000 0.000000 0.000000 0.000000 0.000000 0.000000 0.000000 0.000000 0.000000 0.000000 0.000000 12.699560 12.699560 12.699560 12.699560 12.699560 12.699560 12.699560 14.720362 14.720362 14.720362 14.720362 14.720362 14.720362 14.720362 14.720362 0.000000 0.000000 0.000000 0.000000 0.000000 0.000000 0.000000 0.000000 0.000000 0.000000 0.000000 0.000000 0.000000 0.000000 0.000000 0.000000 0.000000 0.000000 0.000000 0.000000 0.000000 0.000000 0.000000 0.000000 0.000000 0.000000 0.000000 0.000000 0.000000 0.000000 0.000000 0.000000 0.000000 0.000000 0.000000 0.000000 0.000000 0.000000 0.000000 0.000000 0.000000 0.000000 0.000000 0.000000 0.000000 0.000000 0.000000 0.000000 0.000000 0.000000 0.000000 0.000000
0.000000 0.000000 0.000000 0.000000 0.000000 0.000000 5.676975 5.676975 5.676975 5.676975 5.676975 5.676975 0.000000 0.000000 0.000000 0.000000 0.000000 0.000000 0.000000 0.000000 0.000000 8.431200 8.431200 8.431200 8.431200 8.431200 8.431200 8.431200 8.431200 0.000000 0.000000 0.000000 0.000000 0.000000 0.000000 0.000000 12.699560 12.699560 12.699560 12.699560 12.699560 12.699560 12.699560 14.720362 14.720362 14.720362 14.720362 14.720362 14.720362 14.720362 14.720362 0.000000 0.000000 0.000000 0.000000 0.000000 0.000000 0.000000 0.000000 0.000000 0.000000 0.000000 0.000000 0.000000 0.000000 0.000000 0.000000 0.000000 0.000000 0.000000 0.000000 0.000000 0.000000 0.000000 0.000000 0.000000 0.000000 0.000000 0.000000 0.000000 0.000000 0.000000 0.000000 0.000000 0.000000 0.000000 0.000000 0.000000 0.000000 0.000000 0.000000 0.000000 0.000000 0.000000 0.000000 0.000000 0.000000 0.000000 0.000000 0.000000 0.000000 0.000000 0.000000
0.000000 0.000000 0.000000 0.000000 0.000000 0.000000 5.676975 5.676975 5.676975 5.676975 5.676975 5.676975 0.000000 0.000000 0.000000 0.000000 0.000000 0.000000 0.000000 0.000000 0.000000 8.431200 8.431200 8.431200 8.431200 8.431200 8.431200 8.431200 8.431200 0.000000 0.000000 0.000000 0.000000 0.000000 0.000000 0.000000 12.699560 12.699560 12.699560 12.699560 12.699560 12.699560 12.699560 14.720362 14.720362 14.720362 14.720362 14.720362 14.720362 14.720362 14.720362 0.000000 0.000000 0.000000 0.000000 0.000000 0.000000 0.000000 0.000000 0.000000 0.000000 0.000000 0.000000 0.000000 0.000000 0.000000 0.000000 0.000000 0.000000 0.000000 0.000000 0.000000 0.000000 0.000000 0.000000 0.000000 0.000000 0.000000 0.000000 0.000000 0.000000 0.000000 0.000000 0.000000 0.000000 0.000000 0.000000 0.000000 0.000000 0.000000 0.000000 0.000000 0.000000 0.000000 0.000000 0.000000 0.000000 0.000000 0.000000 0.000000 0.000000 0.000000 0.000000
0.000000 0.000000 0.000000 0.000000 0.000000 0.000000 5.676975 5.676975 5.676975 5.676975 5.676975 5.676975 0.000000 0.000000 0.000000 0.000000 0.000000 0.000000 0.000000 0.000000 0.000000 8.431200 8.431200 8.431200 8.431200 8.431200 8.431200 8.431200 8.431200 0.000000 0.000000 0.000000 0.000000 0.000000 0.000000 0.000000 12.699560 12.699560 12.699560 12.699560 12.699560 12.699560 12.699560 14.720362 14.720362 14.720362 14.720362 14.720362 14.720362 14.720362 14.720362 0.000000 0.000000 0.000000 0.000000 0.000000 0.000000 0.000000 0.000000 0.000000 0.000000 0.000000 0.000000 0.000000 0.000000 0.000000 0.000000 0.000000 0.000000 0.000000 0.000000 0.000000 0.000000 0.000000 0.000000 0.000000 0.000000 0.000000 0.000000 0.000000 0.000000 0.000000 0.000000 0.000000 0.000000 0.000000 0.000000 0.000000 0.000000 0.000000 0.000000 0.000000 0.000000 0.000000 0.000000 0.000000 0.000000 0.000000 0.000000 0.000000 0.000000 0.000000 0.000000
0.000000 0.000000 0.000000 0.000000 0.000000 0.000000 5.676975 5.676975 5.676975 5.676975 5.676975 5.676975 0.000000 0.000000 0.000000 0.000000 0.000000 0.000000 0.000000 0.000000 0.000000 8.431200 8.431200 8.431200 8.431200 8.431200 8.431200 8.431200 8.431200 0.000000 0.000000 0.000000 0.000000 0.000000 0.000000 0.000000 12.699560 12.699560 12.699560 12.699560 12.699560 12.699560 12.699560 14.720362 14.720362 14.720362 14.720362 14.720362 14.720362 14.720362 14.720362 0.000000 0.000000 0.000000 0.000000 0.000000 0.000000 0.000000 0.000000 0.000000 0.000000 0.000000 0.000000 0.000000 0.000000 0.000000 0.000000 0.000000 0.000000 0.000000 0.000000 0.000000 0.000000 0.000000 0.000000 0.000000 0.000000 0.000000 0.000000 0.000000 0.000000 0.000000 0.000000 0.000000 0.000000 0.000000 0.000000 0.000000 0.000000 0.000000 0.000000 0.000000 0.000000 0.000000 0.000000 0.000000 0.000000 0.000000 0.000000 0.000000 0.000000 0.000000 0.000000
0.000000 0.000000 0.000000 0.000000 0.000000 0.000000 5.676975 5.676975 5.676975 5.676975 5.676975 5.676975 0.000000 0.000000 0.000000 0.000000 0.000000 0.000000 0.000000 0.000000 0.000000 8.431200 8.431200 8.431200 8.431200 8.431200 8.431200 8.431200 8.431200 0.000000 0.000000 0.000000 0.000000 0.000000 0.000000 0.000000 12.699560 12.699560 12.699560 12.699560 12.699560 12.699560 12.699560 14.720362 14.720362 14.720362 14.720362 14.720362 14.720362 14.720362 14.720362 0.000000 0.000000 0.000000 0.000000 0.000000 0.000000 0.000000 0.000000 0.000000 0.000000 0.000000 0.000000 0.000000 0.000000 0.000000 0.000000 0.000000 0.000000 0.000000 0.000000 0.000000 0.000000 0.000000 0.000000 0.000000 0.000000 0.000000 0.000000 0.000000 0.000000 0.000000 0.000000 0.000000 0.000000 0.000000 0.000000 0.000000 0.000000 0.000000 0.000000 0.000000 0.000000 0.000000 0.000000 0.000000 0.000000 0.000000 0.000000 0.000000 0.000000 0.000000 0.000000
0.000000 0.000000 0.000000 0.000000 0.000000 0.000000 0.000000 0.000000 0.000000 0.000000 0.000000 0.000000 0.000000 0.000000 0.000000 0.000000 0.000000 0.000000 0.000000 0.000000 0.000000 0.000000 0.000000 0.000000 0.000000 0.000000 0.000000 0.000000 0.000000 0.000000 0.000000 0.000000 0.000000 0.000000 0.000000 0.000000 12.699560 12.699560 12.699560 12.699560 12.699560 12.699560 12.699560 14.720362 14.720362 14.720362 14.720362 14.720362 14.720362 14.720362 14.720362 0.000000 0.000000 0.000000 0.000000 0.000000 0.000000 0.000000 0.000000 0.000000 0.000000 0.000000 0.000000 0.000000 0.000000 0.000000 0.000000 0.000000 0.000000 0.000000 0.000000 0.000000 0.000000 0.000000 0.000000 0.000000 0.000000 0.000000 0.000000 0.000000 0.000000 0.000000 0.000000 0.000000 0.000000 0.000000 0.000000 0.000000 0.000000 0.000000 0.000000 0.000000 0.000000 0.000000 0.000000 0.000000 0.000000 0.000000 0.000000 0.000000 0.000000 0.000000 0.000000
0.000000 0.000000 0.000000 0.000000 0.000000 0.000000 0.000000 0.000000 0.000000 0.000000 0.000000 0.000000 0.000000 0.000000 0.000000 0.000000 0.000000 0.000000 0.000000 0.000000 0.000000 0.000000 0.000000 0.000000 0.000000 0.000000 0.000000 0.000000 0.000000 0.000000 0.000000 0.000000 0.000000 0.000000 0.000000 0.000000 0.000000 0.000000 0.000000 0.000000 0.000000 0.000000 0.000000 0.000000 0.000000 0.000000 0.000000 0.000000 0.000000 0.000000 0.000000 0.000000 0.000000 0.000000 0.000000 0.000000 0.000000 0.000000 0.000000 0.000000 0.000000 0.000000 0.000000 0.000000 0.000000 0.000000 0.000000 0.000000 0.000000 0.000000 0.000000 0.000000 0.000000 0.000000 0.000000 0.000000 0.000000 0.000000 0.000000 0.000000 0.000000 0.000000 0.000000 0.000000 0.000000 0.000000 0.000000 0.000000 0.000000 0.000000 0.000000 0.000000 0.000000 0.000000 0.000000 0.000000 0.000000 0.000000 0.000000 0.000000 0.000000 0.000000 0.000000
0.000000 0.000000 0.000000 0.000000 0.000000 0.000000 0.000000 0.000000 0.000000 0.000000 0.000000 0.000000 0.000000 0.000000 0.000000 0.000000 0.000000 0.000000 0.000000 0.000000 0.000000 0.000000 0.000000 0.000000 0.000000 0.000000 0.000000 0.000000 0.000000 0.000000 0.000000 0.000000 0.000000 0.000000 0.000000 0.000000 0.000000 0.000000 0.000000 0.000000 0.000000 0.000000 0.000000 0.000000 0.000000 0.000000 0.000000 0.000000 0.000000 0.000000 0.000000 0.000000 0.000000 0.000000 0.000000 0.000000 0.000000 0.000000 0.000000 0.000000 0.000000 0.000000 0.000000 0.000000 0.000000 0.000000 0.000000 0.000000 0.000000 0.000000 0.000000 0.000000 0.000000 0.000000 0.000000 0.000000 0.000000 0.000000 0.000000 0.000000 0.000000 0.000000 0.000000 0.000000 0.000000 0.000000 0.000000 0.000000 0.000000 0.000000 0.000000 0.000000 0.000000 0.000000 0.000000 0.000000 0.000000 0.000000 0.000000 0.000000 0.000000 0.000000 0.000000
0.000000 0.000000 0.000000 0.000000 0.000000 0.000000 0.000000 0.000000 0.000000 0.000000 0.000000 0.000000 0.000000 0.000000 0.000000 0.000000 0.000000 0.000000 0.000000 0.000000 0.000000 0.000000 0.000000 0.000000 0.000000 0.000000 0.000000 0.000000 0.000000 0.000000 0.000000 0.000000 0.000000 0.000000 0.000000 0.000000 0.000000 0.000000 0.000000 0.000000 0.000000 0.000000 0.000000 0.000000 0.000000 0.000000 0.000000 0.000000 0.000000 0.000000 0.000000 0.000000 0.000000 0.000000 0.000000 0.000000 0.000000 0.000000 0.000000 0.000000 0.000000 0.000000 0.000000 0.000000 0.000000 0.000000 0.000000 0.000000 0.000000 0.000000 0.000000 0.000000 0.000000 0.000000 0.000000 0.000000 0.000000 0.000000 0.000000 0.000000 0.000000 0.000000 0.000000 0.000000 0.000000 0.000000 0.000000 0.000000 0.000000 0.000000 0.000000 0.000000 0.000000 0.000000 0.000000 0.000000 0.000000 0.000000 0.000000 0.000000 0.000000 0.000000 0.000000
0.000000 0.000000 0.000000 0.000000 0.000000 0.000000 0.000000 0.000000 0.000000 0.000000 0.000000 0.000000 0.000000 0.000000 0.000000 0.000000 0.000000 0.000000 0.000000 0.000000 0.000000 0.000000 0.000000 0.000000 0.000000 0.000000 0.000000 0.000000 0.000000 0.000000 0.000000 0.000000 0.000000 0.000000 0.000000 0.000000 0.000000 0.000000 0.000000 0.000000 0.000000 0.000000 0.000000 0.000000 0.000000 0.000000 0.000000 0.000000 0.000000 0.000000 0.000000 0.000000 0.000000 0.000000 0.000000 0.000000 0.000000 0.000000 0.000000 0.000000 0.000000 0.000000 0.000000 0.000000 0.000000 0.000000 0.000000 0.000000 0.000000 0.000000 0.000000 0.000000 0.000000 0.000000 0.000000 0.000000 0.000000 0.000000 0.000000 0.000000 0.000000 0.000000 0.000000 0.000000 0.000000 0.000000 0.000000 0.000000 0.000000 0.000000 0.000000 0.000000 0.000000 0.000000 0.000000 0.000000 0.000000 0.000000 0.000000 0.000000 0.000000 0.000000 0.000000
0.000000 0.000000 0.000000 0.000000 0.000000 0.000000 0.000000 0.000000 0.000000 0.000000 0.000000 0.000000 0.000000 0.000000 0.000000 0.000000 0.000000 0.000000 0.000000 0.000000 0.000000 0.000000 0.000000 0.000000 0.000000 0.000000 0.000000 0.000000 0.000000 0.000000 0.000000 0.000000 0.000000 0.000000 0.000000 0.000000 0.000000 0.000000 0.000000 0.000000 0.000000 0.000000 0.000000 0.000000 0.000000 0.000000 0.000000 0.000000 0.000000 0.000000 0.000000 0.000000 0.000000 0.000000 0.000000 0.000000 0.000000 0.000000 0.000000 0.000000 0.000000 0.000000 0.000000 0.000000 0.000000 0.000000 0.000000 0.000000 0.000000 0.000000 0.000000 0.000000 0.000000 0.000000 0.000000 0.000000 0.000000 0.000000 0.000000 0.000000 0.000000 0.000000 0.000000 0.000000 0.000000 0.000000 0.000000 0.000000 0.000000 0.000000 0.000000 0.000000 0.000000 0.000000 0.000000 0.000000 0.000000 0.000000 0.000000 0.000000 0.000000 0.000000 0.000000
0.000000 0.000000 0.000000 0.000000 23.392226 23.392226 23.392226 23.392226 23.392226 23.392226 23.392226 23.392226 23.392226 23.392226 0.000000 0.000000 0.000000 0.000000 0.000000 0.000000 0.000000 0.000000 0.000000 0.000000 0.000000 0.000000 0.000000 0.000000 0.000000 0.000000 0.000000 0.000000 0.000000 0.000000 0.000000 0.000000 15.673946 15.673946 15.673946 15.673946 15.673946 15.673946 20.096203 20.096203 20.096203 20.096203 20.096203 20.096203 20.096203 20.096203 20.096203 0.000000 0.000000 0.000000 0.000000 0.000000 0.000000 0.000000 0.000000 0.000000 0.000000 0.000000 0.000000 0.000000 0.000000 0.000000 0.000000 0.000000 0.000000 0.000000 0.000000 0.000000 0.000000 0.000000 0.000000 0.000000 0.000000 0.000000 0.000000 0.000000 0.000000 0.000000 0.000000 0.000000 0.000000 0.000000 0.000000 0.000000 0.000000 0.000000 0.000000 0.000000 0.000000 0.000000 0.000000 0.000000 0.000000 0.000000 0.000000 0.000000 0.000000 0.000000 0.000000
0.000000 0.000000 0.000000 0.000000 23.392226 23.392226 23.392226 23.392226 23.392226 23.392226 23.392226 23.392226 23.392226 23.392226 0.000000 0.000000 0.000000 0.000000 0.000000 0.000000 0.000000 0.000000 0.000000 0.000000 0.000000 0.000000 0.000000 0.000000 0.000000 0.000000 0.000000 0.000000 0.000000 0.000000 0.000000 0.000000 15.673946 15.673946 15.673946 15.673946 15.673946 15.673946 20.096203 20.096203 20.096203 20.096203 20.096203 20.096203 20.096203 20.096203 20.096203 0.000000 0.000000 0.000000 0.000000 0.000000 0.000000 0.000000 0.000000 0.000000 0.000000 0.000000 0.000000 0.000000 0.000000 0.000000 0.000000 0.000000 0.000000 0.000000 0.000000 0.000000 0.000000 0.000000 0.000000 0.000000 0.000000 0.000000 0.000000 0.000000 0.000000 0.000000 0.000000 0.000000 0.000000 0.000000 0.000000 0.000000 0.000000 0.000000 0.000000 0.000000 0.000000 0.000000 0.000000 0.000000 0.000000 0.000000 0.000000 0.000000 0.000000 0.000000 0.000000
0.000000 0.000000 0.000000 0.000000 23.392226 23.392226 23.392226 23.392226 23.392226 23.392226 23.392226 23.392226 23.392226 23.392226 0.000000 0.000000 0.000000 0.000000 0.000000 0.000000 0.000000 0.000000 0.000000 0.000000 0.000000 0.000000 0.000000 0.000000 0.000000 0.000000 0.000000 0.000000 0.000000 0.000000 0.000000 0.000000 15.673946 15.673946 15.673946 15.673946 15.673946 15.673946 20.096203 20.096203 20.096203 20.096203 20.096203 20.096203 20.096203 20.096203 20.096203 0.000000 0.000000 0.000000 0.000000 0.000000 0.000000 0.000000 10.997090 10.997090 10.997090 10.997090 10.997090 10.997090 10.997090 0.000000 0.000000 0.000000 21.832875 21.832875 21.832875 21.832875 21.832875 21.832875 21.832875 21.832875 21.832875 21.832875 21.832875 21.832875 21.832875 21.832875 0.000000 0.000000 0.000000 0.000000 0.000000 0.000000 0.000000 0.000000 0.000000 0.000000 0.000000 0.000000 0.000000 0.000000 0.000000 0.000000 0.000000 0.000000 0.000000 0.000000 0.000000
0.000000 0.000000 0.000000 0.000000 23.392226 23.392226 23.392226 23.392226 23.392226 23.392226 23.392226 23.392226 23.392226 23.392226 0.000000 0.000000 0.000000 0.000000 0.000000 0.000000 0.000000 0.000000 0.000000 0.000000 0.000000 0.000000 0.000000 0.000000 0.000000 0.000000 0.000000 0.000000 0.000000 0.000000 0.000000 0.000000 15.673946 15.673946 15.673946 15.673946 15.673946 15.673946 20.096203 20.096203 20.096203 20.096203 20.096203 20.096203 20.096203 20.096203 20.096203 0.000000 0.000000 0.000000 0.000000 0.000000 0.000000 0.000000 10.997090 10.997090 10.997090 10.997090 10.997090 10.997090 10.997090 0.000000 0.000000 0.000000 21.832875 21.832875 21.832875 21.832875 21.832875 21.832875 21.832875 21.832875 21.832875 21.832875 21.832875 21.832875 21.832875 21.832875 0.000000 0.000000 0.000000 0.000000 0.000000 0.000000 0.000000 0.000000 0.000000 0.000000 0.000000 0.000000 0.000000 0.000000 0.000000 0.000000 0.000000 0.000000 0.000000 0.000000 0.000000
0.000000 0.000000 0.000000 0.000000 23.392226 23.392226 23.392226 23.392226 23.392226 23.392226 23.392226 23.392226 23.392226 23.392226 0.000000 0.000000 0.000000 0.000000 0.000000 0.000000 0.000000 0.000000 0.000000 0.000000 0.000000 0.000000 0.000000 0.000000 0.000000 0.000000 0.000000 0.000000 0.000000 0.000000 0.000000 0.000000 15.673946 15.673946 15.673946 15.673946 15.673946 15.673946 20.096203 20.096203 20.096203 20.096203 20.096203 20.096203 20.096203 20.096203 20.096203 0.000000 0.000000 0.000000 0.000000 0.000000 0.000000 0.000000 10.997090 10.997090 10.997090 10.997090 10.997090 10.997090 10.997090 0.000000 0.000000 0.000000 21.832875 21.832875 21.832875 21.832875 21.832875 21.832875 21.832875 21.832875 21.832875 21.832875 21.832875 21.832875 21.832875 21.832875 0.000000 0.000000 0.000000 0.000000 0.000000 0.000000 0.000000 0.000000 0.000000 0.000000 0.000000 0.000000 0.000000 0.000000 0.000000 0.000000 0.000000 0.000000 0.000000 0.000000 0.000000
0.000000 0.000000 0.000000 0.000000 23.392226 23.392226 23.392226 23.392226 23.392226 23.392226 23.392226 23.392226 23.392226 23.392226 0.000000 0.000000 0.000000 0.000000 0.000000 0.000000 0.000000 0.000000 0.000000 0.000000 0.000000 0.000000 0.000000 0.000000 0.000000 0.000000 0.000000 0.000000 0.000000 0.000000 0.000000 0.000000 15.673946 15.673946 15.673946 15.673946 15.673946 15.673946 20.096203 20.096203 20.096203 20.096203 20.096203 20.096203 20.096203 20.096203 20.096203 0.000000 0.000000 0.000000 0.000000 0.000000 0.000000 0.000000 10.997090 10.997090 10.997090 10.997090 10.997090 10.997090 10.997090 0.000000 0.000000 0.000000 21.832875 21.832875 21.832875 21.832875 21.832875 21.832875 21.832875 21.832875 21.832875 21.832875 21.832875 21.832875 21.832875 21.832875 0.000000 0.000000 0.000000 0.000000 0.000000 0.000000 0.000000 0.000000 0.000000 0.000000 0.000000 0.000000 0.000000 0.000000 0.000000 0.000000 0.000000 0.000000 0.000000 0.000000 0.000000
0.000000 0.000000 0.000000 0.000000 23.392226 23.392226 23.392226 23.392226 23.392226 23.392226 23.392226 23.392226 23.392226 23.392226 0.000000 0.000000 0.000000 0.000000 0.000000 0.000000 0.000000 0.000000 0.000000 0.000000 0.000000 0.000000 0.000000 0.000000 0.000000 0.000000 0.000000 0.000000 0.000000 0.000000 0.000000 0.000000 15.673946 15.673946 15.673946 15.673946 15.673946 15.673946 20.096203 20.096203 20.096203 20.096203 20.096203 20.096203 20.096203 20.096203 20.096203 0.000000 0.000000 0.000000 0.000000 0.000000 0.000000 0.000000 10.997090 10.997090 10.997090 10.997090 10.997090 10.997090 10.997090 0.000000 0.000000 0.000000 21.832875 21.832875 21.832875 21.832875 21.832875 21.832875 21.832875 21.832875 21.832875 21.832875 21.832875 21.832875 21.832875 21.832875 0.000000 0.000000 0.000000 0.000000 0.000000 0.000000 0.000000 0.000000 0.000000 0.000000 0.000000 0.000000 0.000000 0.000000 0.000000 0.000000 0.000000 0.000000 0.000000 0.000000 0.000000
0.000000 0.000000 0.000000 0.000000 23.392226 23.392226 23.392226 23.392226 23.392226 23.392226 23.392226 23.392226 23.392226 23.392226 0.000000 0.000000 0.000000 0.000000 0.000000 0.000000 0.000000 0.000000 0.000000 0.000000 0.000000 0.000000 0.000000 0.000000 0.000000 0.000000 0.000000 0.000000 0.000000 0.000000 0.000000 0.000000 15.673946 15.673946 15.673946 15.673946 15.673946 15.673946 20.096203 20.096203 20.096203 20.096203 20.096203 20.096203 20.096203 20.096203 20.096203 0.000000 0.000000 0.000000 0.000000 0.000000 0.000000 0.000000 10.997090 10.997090 10.997090 10.997090 10.997090 10.997090 10.997090 0.000000 0.000000 0.000000 21.832875 21.832875 21.832875 21.832875 21.832875 21.832875 21.832875 21.832875 21.832875 21.832875 21.832875 21.832875 21.832875 21.832875 0.000000 0.000000 0.000000 0.000000 0.000000 0.000000 0.000000 0.000000 0.000000 0.000000 0.000000 0.000000 0.000000 0.000000 0.000000 0.000000 0.000000 0.000000 0.000000 0.000000 0.000000
0.000000 0.000000 0.000000 0.000000 23.392226 23.392226 23.392226 23.392226 23.392226 23.392226 23.392226 23.392226 23.392226 23.392226 0.000000 0.000000 0.000000 0.000000 0.000000 0.000000 0.000000 0.000000 0.000000 0.000000 0.000000 0.000000 0.000000 0.000000 0.000000 0.000000 0.000000 0.000000 0.000000 0.000000 0.000000 0.000000 15.673946 15.673946 15.673946 15.673946 15.673946 15.673946 20.096203 20.096203 20.096203 20.096203 20.096203 20.096203 20.096203 20.096203 20.096203 0.000000 0.000000 0.000000 0.000000 0.000000 0.000000 0.000000 10.997090 10.997090 10.997090 10.997090 10.997090 10.997090 10.997090 0.000000 0.000000 0.000000 21.832875 21.832875 21.832875 21.832875 21.832875 21.832875 21.832875 21.832875 21.832875 21.832875 21.832875 21.832875 21.832875 21.832875 0.000000 0.000000 0.000000 0.000000 0.000000 0.000000 0.000000 0.000000 0.000000 0.000000 0.000000 0.000000 0.000000 0.000000 0.000000 0.000000 0.000000 0.000000 0.000000 0.000000 0.000000
0.000000 0.000000 0.000000 0.000000 23.392226 23.392226 23.392226 23.392226 23.392226 23.392226 23.392226 23.392226 23.392226 23.392226 0.000000 0.000000 0.000000 0.000000 0.000000 0.000000 0.000000 0.000000 0.000000 0.000000 0.000000 0.000000 0.000000 0.000000 0.000000 0.000000 0.000000 0.000000 0.000000 0.000000 0.000000 0.000000 15.673946 15.673946 15.673946 15.673946 15.673946 15.673946 20.096203 20.096203 20.096203 20.096203 20.096203 20.096203 20.096203 20.096203 20.096203 0.000000 0.000000 0.000000 0.000000 0.000000 0.000000 0.000000 0.000000 0.000000 0.000000 0.000000 0.000000 0.000000 0.000000 0.000000 0.000000 0.000000 0.000000 0.000000 0.000000 0.000000 0.000000 0.000000 0.000000 0.000000 0.000000 0.000000 0.000000 0.000000 0.000000 0.000000 0.000000 0.000000 0.000000 0.000000 0.000000 0.000000 0.000000 0.000000 0.000000 0.000000 0.000000 0.000000 0.000000 0.000000 0.000000 0.000000 0.000000 0.000000 0.000000 0.000000 0.000000
0.000000 0.000000 0.000000 0.000000 23.392226 23.392226 23.392226 23.392226 23.392226 23.392226 23.392226 23.392226 23.392226 23.392226 0.000000 0.000000 0.000000 0.000000 0.000000 0.000000 0.000000 0.000000 0.000000 0.000000 0.000000 0.000000 0.000000 0.000000 0.000000 0.000000 0.000000 0.000000 0.000000 0.000000 0.000000 0.000000 15.673946 15.673946 15.673946 15.673946 15.673946 15.673946 20.096203 20.096203 20.096203 20.096203 20.096203 20.096203 20.096203 20.096203 20.096203 0.000000 0.000000 0.000000 0.000000 0.000000 0.000000 0.000000 0.000000 0.000000 0.000000 0.000000 0.000000 0.000000 0.000000 0.000000 0.000000 0.000000 0.000000 0.000000 0.000000 0.000000 0.000000 0.000000 0.000000 0.000000 0.000000 0.000000 0.000000 0.000000 0.000000 0.000000 0.000000 0.000000 0.000000 0.000000 0.000000 0.000000 0.000000 0.000000 0.000000 0.000000 0.000000 0.000000 0.000000 0.000000 0.000000 0.000000 0.000000 0.000000 0.000000 0.000000 0.000000
0.000000 0.000000 0.000000 0.000000 0.000000 0.000000 0.000000 0.000000 0.000000 0.000000 0.000000 0.000000 0.000000 0.000000 0.000000 0.000000 0.000000 0.000000 0.000000 0.000000 0.000000 0.000000 0.000000 0.000000 0.000000 0.000000 0.000000 0.000000 0.000000 0.000000 0.000000 0.000000 0.000000 0.000000 0.000000 0.000000 0.000000 0.000000 0.000000 0.000000 0.000000 0.000000 0.000000 0.000000 0.000000 0.000000 0.000000 0.000000 0.000000 0.000000 0.000000 0.000000 0.000000 0.000000 0.000000 0.000000 0.000000 0.000000 0.000000 0.000000 0.000000 0.000000 0.000000 0.000000 0.000000 0.000000 0.000000 0.000000 0.000000 0.000000 0.000000 0.000000 0.000000 0.000000 0.000000 0.000000 0.000000 0.000000 0.000000 0.000000 0.000000 0.000000 0.000000 0.000000 0.000000 0.000000 0.000000 0.000000 0.000000 0.000000 0.000000 0.000000 0.000000 0.000000 0.000000 0.000000 0.000000 0.000000 0.000000 0.000000 0.000000 0.000000 0.000000
0.000000 0.000000 0.000000 0.000000 0.000000 0.000000 0.000000 0.000000 0.000000 0.000000 0.000000 0.000000 0.000000 0.000000 0.000000 0.000000 0.000000 0.000000 0.000000 0.000000 0.000000 0.000000 0.000000 0.000000 0.000000 0.000000 0.000000 0.000000 0.000000 0.000000 0.000000 0.000000 0.000000 0.000000 0.000000 0.000000 0.000000 0.000000 0.000000 0.000000 0.000000 0.000000 0.000000 0.000000 0.000000 0.000000 0.000000 0.000000 0.000000 0.000000 0.000000 0.000000 0.000000 0.000000 0.000000 0.000000 0.000000 0.000000 0.000000 0.000000 0.000000 0.000000 0.000000 0.000000 0.000000 0.000000 0.000000 0.000000 0.000000 0.000000 0.000000 0.000000 0.000000 0.000000 0.000000 0.000000 0.000000 0.000000 0.000000 0.000000 0.000000 0.000000 0.000000 0.000000 0.000000 0.000000 0.000000 0.000000 0.000000 0.000000 0.000000 0.000000 0.000000 0.000000 0.000000 0.000000 0.000000 0.000000 0.000000 0.000000 0.000000 0.000000 0.000000
0.000000 0.000000 0.000000 0.000000 0.000000 0.000000 0.000000 0.000000 0.000000 0.000000 0.000000 0.000000 0.000000 0.000000 0.000000 0.000000 0.000000 0.000000 0.000000 0.000000 0.000000 0.000000 0.000000 0.000000 0.000000 0.000000 0.000000 0.000000 0.000000 0.000000 0.000000 0.000000 0.000000 0.000000 0.000000 0.000000 0.000000 0.000000 0.000000 0.000000 0.000000 0.000000 0.000000 0.000000 0.000000 0.000000 0.000000 0.000000 0.000000 0.000000 0.000000 0.000000 0.000000 0.000000 0.000000 0.000000 0.000000 0.000000 0.000000 0.000000 0.000000 0.000000 0.000000 0.000000 0.000000 0.000000 0.000000 0.000000 0.000000 0.000000 0.000000 0.000000 0.000000 0.000000 0.000000 0.000000 0.000000 0.000000 0.000000 0.000000 0.000000 0.000000 0.000000 0.000000 0.000000 0.000000 0.000000 0.000000 0.000000 0.000000 0.000000 0.000000 0.000000 0.000000 0.000000 0.000000 0.000000 0.000000 0.000000 0.000000 0.000000 0.000000 0.000000
0.000000 0.000000 0.000000 0.000000 0.000000 0.000000 0.000000 0.000000 0.000000 0.000000 0.000000 0.000000 0.000000 0.000000 0.000000 0.000000 0.000000 0.000000 0.000000 0.000000 0.000000 0.000000 0.000000 0.000000 0.000000 0.000000 0.000000 0.000000 0.000000 0.000000 0.000000 0.000000 0.000000 0.000000 0.000000 0.000000 0.000000 0.000000 0.000000 0.000000 0.000000 0.000000 0.000000 0.000000 0.000000 0.000000 0.000000 0.000000 0.000000 0.000000 0.000000 0.000000 0.000000 0.000000 0.000000 0.000000 0.000000 0.000000 0.000000 0.000000 0.000000 0.000000 0.000000 0.000000 0.000000 0.000000 0.000000 0.000000 0.000000 0.000000 0.000000 0.000000 0.000000 0.000000 0.000000 0.000000 0.000000 0.000000 0.000000 0.000000 0.000000 0.000000 0.000000 0.000000 0.000000 0.000000 0.000000 0.000000 0.000000 0.000000 0.000000 0.000000 0.000000 0.000000 0.000000 0.000000 0.000000 0.000000 0.000000 0.000000 0.000000 0.000000 0.000000
0.000000 0.000000 0.000000 0.000000 0.000000 0.000000 0.000000 0.000000 0.000000 0.000000 0.000000 0.000000 0.000000 0.000000 0.000000 0.000000 0.000000 0.000000 0.000000 0.000000 0.000000 0.000000 0.000000 0.000000 0.000000 0.000000 0.000000 0.000000 0.000000 0.000000 0.000000 0.000000 0.000000 0.000000 0.000000 0.000000 0.000000 0.000000 0.000000 0.000000 0.000000 0.000000 0.000000 0.000000 0.000000 0.000000 0.000000 0.000000 0.000000 0.000000 0.000000 0.000000 0.000000 0.000000 0.000000 0.000000 0.000000 0.000000 0.000000 0.000000 0.000000 0.000000 0.000000 0.000000 0.000000 0.000000 0.000000 0.000000 0.000000 0.000000 0.000000 0.000000 0.000000 0.000000 0.000000 0.000000 0.000000 0.000000 0.000000 0.000000 0.000000 0.000000 0.000000 0.000000 0.000000 0.000000 0.000000 0.000000 0.000000 0.000000 0.000000 0.000000 0.000000 0.000000 0.000000 0.000000 0.000000 0.000000 0.000000 0.000000 0.000000 0.000000 0.000000
0.000000 0.000000 0.000000 0.000000 0.000000 0.000000 0.000000 0.000000 0.000000 0.000000 0.000000 0.000000 0.000000 0.000000 0.000000 0.000000 0.000000 0.000000 0.000000 30.096726 30.096726 30.096726 30.096726 30.096726 30.096726 30.096726 30.096726 30.096726 30.096726 30.096726 30.096726 0.000000 0.000000 0.000000 0.000000 0.000000 0.000000 0.000000 0.000000 0.000000 0.000000 0.000000 0.000000 0.000000 0.000000 0.000000 0.000000 0.000000 0.000000 0.000000 0.000000 0.000000 0.000000 0.000000 0.000000 0.000000 18.796822 18.796822 18.796822 18.796822 18.796822 18.796822 18.796822 70.942703 70.942703 70.942703 70.942703 70.942703 70.942703 70.942703 70.942703 70.942703 70.942703 70.942703 70.942703 70.942703 70.942703 70.942703 70.942703 70.942703 70.942703 70.942703 70.942703 70.942703 70.942703 70.942703 70.942703 70.942703 70.942703 70.942703 70.942703 70.942703 17.047393 17.047393 17.047393 17.047393 17.047393 17.047393 17.047393 0.000000 0.000000 0.000000 0.000000
0.000000 0.000000 0.000000 0.000000 0.000000 0.000000 0.000000 0.000000 0.000000 0.000000 0.000000 0.000000 0.000000 0.000000 0.000000 0.000000 0.000000 0.000000 0.000000 30.096726 30.096726 30.096726 30.096726 30.096726 30.096726 30.096726 30.096726 30.096726 30.096726 30.096726 30.096726 0.000000 0.000000 0.000000 0.000000 0.000000 0.000000 0.000000 0.000000 0.000000 0.000000 0.000000 0.000000 0.000000 0.000000 0.000000 0.000000 0.000000 0.000000 0.000000 0.000000 0.000000 0.000000 0.000000 0.000000 0.000000 18.796822 18.796822 18.796822 18.796822 18.796822 18.796822 18.796822 70.942703 70.942703 70.942703 70.942703 70.942703 70.942703 70.942703 70.942703 70.942703 70.942703 70.942703 70.942703 70.942703 70.942703 70.942703 70.942703 70.942703 70.942703 70.942703 70.942703 70.942703 70.942703 70.942703 70.942703 70.942703 70.942703 70.942703 70.942703 70.942703 17.047393 17.047393 17.047393 17.047393 17.047393 17.047393 17.047393 0.000000 0.000000 0.000000 0.000000
0.000000 0.000000 0.000000 0.000000 0.000000 0.000000 8.905160 8.905160 8.905160 8.905160 8.905160 8.905160 0.000000 0.000000 0.000000 0.000000 0.000000 0.000000 0.000000 30.096726 30.096726 30.096726 30.096726 30.096726 30.096726 30.096726 30.096726 30.096726 30.096726 30.096726 30.096726 0.000000 0.000000 0.000000 0.000000 0.000000 0.000000 0.000000 16.685932 16.685932 16.685932 16.685932 16.685932 16.685932 16.685932 16.685932 16.685932 16.685932 16.685932 0.000000 0.000000 0.000000 0.000000 0.000000 0.000000 0.000000 18.796822 18.796822 18.796822 18.796822 18.796822 18.796822 18.796822 70.942703 70.942703 70.942703 70.942703 70.942703 70.942703 70.942703 70.942703 70.942703 70.942703 70.942703 70.942703 70.942703 70.942703 70.942703 70.942703 70.942703 70.942703 70.942703 70.942703 70.942703 70.942703 70.942703 70.942703 70.942703 70.942703 70.942703 70.942703 70.942703 17.047393 17.047393 17.047393 17.047393 17.047393 17.047393 17.047393 0.000000 0.000000 0.000000 0.000000
0.000000 0.000000 0.000000 0.000000 0.000000 0.000000 8.905160 8.905160 8.905160 8.905160 8.905160 8.905160 0.000000 0.000000 0.000000 0.000000 0.000000 0.000000 0.000000 30.096726 30.096726 30.096726 30.096726 30.096726 30.096726 30.096726 30.096726 30.096726 30.096726 30.096726 30.096726 0.000000 0.000000 0.000000 0.000000 0.000000 0.000000 0.000000 16.685932 16.685932 16.685932 16.685932 16.685932 16.685932 16.685932 16.685932 16.685932 16.685932 16.685932 0.000000 0.000000 0.000000 0.000000 0.000000 0.000000 0.000000 18.796822 18.796822 18.796822 18.796822 18.796822 18.796822 18.796822 70.942703 70.942703 70.942703 70.942703 70.942703 70.942703 70.942703 70.942703 70.942703 70.942703 70.942703 70.942703 70.942703 70.942703 70.942703 70.942703 70.942703 70.942703 70.942703 70.942703 70.942703 70.942703 70.942703 70.942703 70.942703 70.942703 70.942703 70.942703 70.942703 17.047393 17.047393 17.047393 17.047393 17.047393 17.047393 17.047393 0.000000 0.000000 0.000000 0.000000
0.000000 0.000000 0.000000 0.000000 0.000000 0.000000 8.905160 8.905160 8.905160 8.905160 8.905160 8.905160 0.000000 0.000000 0.000000 0.000000 0.000000 0.000000 0.000000 30.096726 30.096726 30.096726 30.096726 30.096726 30.096726 30.096726 30.096726 30.096726 30.096726 30.096726 30.096726 0.000000 0.000000 0.000000 0.000000 0.000000 0.000000 0.000000 16.685932 16.685932 16.685932 16.685932 16.685932 16.685932 16.685932 16.685932 16.685932 16.685932 16.685932 0.000000 0.000000 0.000000 0.000000 0.000000 0.000000 0.000000 18.796822 18.796822 18.796822 18.796822 18.796822 18.796822 18.796822 70.942703 70.942703 70.942703 70.942703 70.942703 70.942703 70.942703 70.942703 70.942703 70.942703 70.942703 70.942703 70.942703 70.942703 70.942703 70.942703 70.942703 70.942703 70.942703 70.942703 70.942703 70.942703 70.942703 70.942703 70.942703 70.942703 70.942703 70.942703 70.942703 17.047393 17.047393 17.047393 17.047393 17.047393 17.047393 17.047393 0.000000 0.000000 0.000000 0.000000
0.000000 0.000000 0.000000 0.000000 0.000000 0.000000 8.905160 8.905160 8.905160 8.905160 8.905160 8.905160 0.000000 0.000000 0.000000 0.000000 0.000000 0.000000 0.000000 30.096726 30.096726 30.096726 30.096726 30.096726 30.096726 30.096726 30.096726 30.096726 30.096726 30.096726 30.096726 0.000000 0.000000 0.000000 0.000000 0.000000 0.000000 0.000000 16.685932 16.685932 16.685932 16.685932 16.685932 16.685932 16.685932 16.685932 16.685932 16.685932 16.685932 0.000000 0.000000 0.000000 0.000000 0.000000 0.000000 0.000000 18.796822 18.796822 18.796822 18.796822 18.796822 18.796822 18.796822 70.942703 70.942703 70.942703 70.942703 70.942703 70.942703 70.942703 70.942703 70.942703 70.942703 70.942703 70.942703 70.942703 70.942703 70.942703 70.942703 70.942703 70.942703 70.942703 70.942703 70.942703 70.942703 70.942703 70.942703 70.942703 70.942703 70.942703 70.942703 70.942703 17.047393 17.047393 17.047393 17.047393 17.047393 17.047393 17.047393 0.000000 0.000000 0.000000 0.000000
0.000000 0.000000 0.000000 0.000000 0.000000 0.000000 8.905160 8.905160 8.905160 8.905160 8.905160 8.905160 0.000000 0.000000 0.000000 0.000000 0.000000 0.000000 0.000000 30.096726 30.096726 30.096726 30.096726 30.096726 30.096726 30.096726 30.096726 30.096726 30.096726 30.096726 30.096726 0.000000 0.000000 0.000000 0.000000 0.000000 0.000000 0.000000 16.685932 16.685932 16.685932 16.685932 16.685932 16.685932 16.685932 16.685932 16.685932 16.685932 16.685932 0.000000 0.000000 0.000000 0.000000 0.000000 0.000000 0.000000 18.796822 18.796822 18.796822 18.796822 18.796822 18.796822 18.796822 70.942703 70.942703 70.942703 70.942703 70.942703 70.942703 70.942703 70.942703 70.942703 70.942703 70.942703 70.942703 70.942703 70.942703 70.942703 70.942703 70.942703 70.942703 70.942703 70.942703 70.942703 70.942703 70.942703 70.942703 70.942703 70.942703 70.942703 70.942703 70.942703 17.047393 17.047393 17.047393 17.047393 17.047393 17.047393 17.047393 0.000000 0.000000 0.000000 0.000000
0.000000 0.000000 0.000000 0.000000 0.000000 0.000000 8.905160 8.905160 8.905160 8.905160 8.905160 8.905160 0.000000 0.000000 0.000000 0.000000 0.000000 0.000000 0.000000 30.096726 30.096726 30.096726 30.096726 30.096726 30.096726 30.096726 30.096726 30.096726 30.096726 30.096726 30.096726 0.000000 0.000000 0.000000 0.000000 0.000000 0.000000 0.000000 16.685932 16.685932 16.685932 16.685932 16.685932 16.685932 16.685932 16.685932 16.685932 16.685932 16.685932 0.000000 0.000000 0.000000 0.000000 0.000000 0.000000 0.000000 18.796822 18.796822 18.796822 18.796822 18.796822 18.796822 18.796822 70.942703 70.942703 70.942703 70.942703 70.942703 70.942703 70.942703 70.942703 70.942703 70.942703 70.942703 70.942703 70.942703 70.942703 70.942703 70.942703 70.942703 70.942703 70.942703 70.942703 70.942703 70.942703 70.942703 70.942703 70.942703 70.942703 70.942703 70.942703 70.942703 17.047393 17.047393 17.047393 17.047393 17.047393 17.047393 17.047393 0.000000 0.000000 0.000000 0.000000
0.000000 0.000000 0.000000 0.000000 0.000000 0.000000 0.000000 0.000000 0.000000 0.000000 0.000000 0.000000 0.000000 0.000000 0.000000 0.000000 0.000000 0.000000 0.000000 30.096726 30.096726 30.096726 30.096726 30.096726 30.096726 30.096726 30.096726 30.096726 30.096726 30.096726 30.096726 0.000000 0.000000 0.000000 0.000000 0.000000 0.000000 0.000000 0.000000 0.000000 0.000000 0.000000 0.000000 0.000000 0.000000 0.000000 0.000000 0.000000 0.000000 0.000000 0.000000 0.000000 0.000000 0.000000 0.000000 0.000000 18.796822 18.796822 18.796822 18.796822 18.796822 18.796822 18.796822 70.942703 70.942703 70.942703 70.942703 70.942703 70.942703 70.942703 70.942703 70.942703 70.942703 70.942703 70.942703 70.942703 70.942703 70.942703 70.942703 70.942703 70.942703 70.942703 70.942703 70.942703 70.942703 70.942703 70.942703 70.942703 70.942703 70.942703 70.942703 70.942703 17.047393 17.047393 17.047393 17.047393 17.047393 17.047393 17.047393 0.000000 0.000000 0.000000 0.000000
0.000000 0.000000 0.000000 0.000000 0.000000 0.000000 0.000000 0.000000 0.000000 0.000000 0.000000 0.000000 0.000000 0.000000 0.000000 0.000000 0.000000 0.000000 0.000000 30.096726 30.096726 30.096726 30.096726 30.096726 30.096726 30.096726 30.096726 30.096726 30.096726 30.096726 30.096726 0.000000 0.000000 0.000000 0.000000 0.000000 0.000000 0.000000 0.000000 0.000000 0.000000 0.000000 0.000000 0.000000 0.000000 0.000000 0.000000 0.000000 0.000000 0.000000 0.000000 0.000000 0.000000 0.000000 0.000000 0.000000 18.796822 18.796822 18.796822 18.796822 18.796822 18.796822 18.796822 70.942703 70.942703 70.942703 70.942703 70.942703 70.942703 70.942703 70.942703 70.942703 70.942703 70.942703 70.942703 70.942703 70.942703 70.942703 70.942703 70.942703 70.942703 70.942703 70.942703 70.942703 70.942703 70.942703 70.942703 70.942703 70.942703 70.942703 70.942703 70.942703 17.047393 17.047393 17.047393 17.047393 17.047393 17.047393 17.047393 0.000000 0.000000 0.000000 0.000000
0.000000 0.000000 0.000000 0.000000 0.000000 0.000000 0.000000 0.000000 0.000000 0.000000 0.000000 0.000000 0.000000 0.000000 0.000000 0.000000 0.000000 0.000000 0.000000 0.000000 0.000000 0.000000 0.000000 0.000000 0.000000 0.000000 0.000000 0.000000 0.000000 0.000000 0.000000 0.000000 0.000000 0.000000 0.000000 0.000000 0.000000 0.000000 0.000000 0.000000 0.000000 0.000000 0.000000 0.000000 0.000000 0.000000 0.000000 0.000000 0.000000 0.000000 0.000000 0.000000 0.000000 0.000000 0.000000 0.000000 0.000000 0.000000 0.000000 0.000000 0.000000 0.000000 0.000000 0.000000 0.000000 0.000000 0.000000 0.000000 0.000000 0.000000 0.000000 0.000000 0.000000 0.000000 0.000000 0.000000 0.000000 0.000000 0.000000 0.000000 0.000000 0.000000 0.000000 0.000000 0.000000 0.000000 0.000000 0.000000 0.000000 0.000000 0.000000 0.000000 0.000000 0.000000 0.000000 0.000000 0.000000 0.000000 0.000000 0.000000 0.000000 0.000000 0.000000
0.000000 0.000000 0.000000 0.000000 0.000000 0.000000 0.000000 0.000000 0.000000 0.000000 0.000000 0.000000 0.000000 0.000000 0.000000 0.000000 0.000000 0.000000 0.000000 0.000000 0.000000 0.000000 0.000000 0.000000 0.000000 0.000000 0.000000 0.000000 0.000000 0.000000 0.000000 0.000000 0.000000 0.000000 0.000000 0.000000 0.000000 0.000000 0.000000 0.000000 0.000000 0.000000 0.000000 0.000000 0.000000 0.000000 0.000000 0.000000 0.000000 0.000000 0.000000 0.000000 0.000000 0.000000 0.000000 0.000000 0.000000 0.000000 0.000000 0.000000 0.000000 0.000000 0.000000 0.000000 0.000000 0.000000 0.000000 0.000000 0.000000 0.000000 0.000000 0.000000 0.000000 0.000000 0.000000 0.000000 0.000000 0.000000 0.000000 0.000000 0.000000 0.000000 0.000000 0.000000 0.000000 0.000000 0.000000 0.000000 0.000000 0.000000 0.000000 0.000000 0.000000 0.000000 0.000000 0.000000 0.000000 0.000000 0.000000 0.000000 0.000000 0.000000 0.000000
0.000000 0.000000 0.000000 0.000000 0.000000 0.000000 0.000000 0.000000 0.000000 0.000000 0.000000 0.000000 0.000000 0.000000 0.000000 0.000000 0.000000 0.000000 0.000000 0.000000 0.000000 0.000000 0.000000 0.000000 0.000000 0.000000 0.000000 0.000000 0.000000 0.000000 0.000000 0.000000 0.000000 0.000000 0.000000 0.000000 0.000000 0.000000 0.000000 0.000000 0.000000 0.000000 0.000000 0.000000 0.000000 0.000000 0.000000 0.000000 0.000000 0.000000 0.000000 0.000000 0.000000 0.000000 0.000000 0.000000 0.000000 0.000000 0.000000 0.000000 0.000000 0.000000 0.000000 0.000000 0.000000 0.000000 0.000000 0.000000 0.000000 0.000000 0.000000 0.000000 0.000000 0.000000 0.000000 0.000000 0.000000 0.000000 0.000000 0.000000 0.000000 0.000000 0.000000 0.000000 0.000000 0.000000 0.000000 0.000000 0.000000 0.000000 0.000000 0.000000 0.000000 0.000000 0.000000 0.000000 0.000000 0.000000 0.000000 0.000000 0.000000 0.000000 0.000000
0.000000 0.000000 0.000000 0.000000 0.000000 0.000000 0.000000 0.000000 0.000000 0.000000 0.000000 0.000000 0.000000 0.000000 0.000000 0.000000 0.000000 0.000000 0.000000 0.000000 0.000000 0.000000 0.000000 0.000000 0.000000 0.000000 0.000000 0.000000 0.000000 0.000000 0.000000 0.000000 0.000000 0.000000 0.000000 0.000000 0.000000 0.000000 0.000000 0.000000 0.000000 0.000000 0.000000 0.000000 0.000000 0.000000 0.000000 0.000000 0.000000 0.000000 0.000000 0.000000 0.000000 0.000000 0.000000 0.000000 0.000000 0.000000 0.000000 0.000000 0.000000 0.000000 0.000000 0.000000 0.000000 0.000000 0.000000 0.000000 0.000000 0.000000 0.000000 0.000000 0.000000 0.000000 0.000000 0.000000 0.000000 0.000000 0.000000 0.000000 0.000000 0.000000 0.000000 0.000000 0.000000 0.000000 0.000000 0.000000 0.000000 0.000000 0.000000 0.000000 0.000000 0.000000 0.000000 0.000000 0.000000 0.000000 0.000000 0.000000 0.000000 0.000000 0.000000
