0.000000 0.000000 0.000000 0.000000 0.000000 0.000000 0.000000 0.000000 0.000000 0.000000 0.000000 0.000000 0.000000 0.000000 0.000000 0.000000 0.000000 0.000000 0.000000 0.000000 0.000000 0.000000 0.000000 0.000000 0.000000 0.000000 0.000000 0.000000 0.000000 0.000000 0.000000 0.000000 0.000000 0.000000 0.000000 0.000000 0.000000 0.000000 0.000000 0.000000 0.000000 0.000000 0.000000 0.000000 0.000000 0.000000 0.000000 0.000000 0.000000 0.000000 0.000000 0.000000 0.000000 0.000000 0.000000 0.000000 0.000000 0.000000 0.000000 0.000000 0.000000 0.000000 0.000000 0.000000 0.000000 0.000000 0.000000 0.000000 0.000000 0.000000 0.000000 0.000000 0.000000 0.000000 0.000000 0.000000 0.000000 0.000000 0.000000 0.000000 0.000000 0.000000 0.000000 0.000000 0.000000 0.000000 0.000000 0.000000 0.000000 0.000000 0.000000 0.000000 0.000000 0.000000 0.000000 0.000000 0.000000 0.000000 0.000000 0.000000 0.000000 0.000000 0.000000
0.000000 0.000000 0.000000 0.000000 0.000000 0.000000 0.000000 0.000000 0.000000 0.000000 0.000000 0.000000 0.000000 0.000000 0.000000 0.000000 0.000000 0.000000 0.000000 0.000000 0.000000 0.000000 0.000000 0.000000 0.000000 0.000000 0.000000 0.000000 0.000000 0.000000 0.000000 0.000000 0.000000 0.000000 0.000000 0.000000 0.000000 0.000000 0.000000 0.000000 0.000000 0.000000 0.000000 0.000000 0.000000 0.000000 0.000000 0.000000 0.000000 0.000000 0.000000 0.000000 0.000000 0.000000 0.000000 0.000000 0.000000 0.000000 0.000000 0.000000 0.000000 0.000000 0.000000 0.000000 0.000000 0.000000 0.000000 0.000000 0.000000 0.000000 0.000000 0.000000 0.000000 0.000000 0.000000 0.000000 0.000000 0.000000 0.000000 0.000000 0.000000 0.000000 0.000000 0.000000 0.000000 0.000000 0.000000 0.000000 0.000000 0.000000 0.000000 0.000000 0.000000 0.000000 0.000000 0.000000 0.000000 0.000000 0.000000 0.000000 0.000000 0.000000 0.000000
0.000000 0.000000 0.000000 0.000000 0.000000 0.000000 0.000000 0.000000 0.000000 0.000000 0.000000 0.000000 0.000000 0.000000 0.000000 0.000000 0.000000 0.000000 0.000000 0.000000 0.000000 0.000000 0.000000 0.000000 0.000000 0.000000 0.000000 0.000000 0.000000 0.000000 0.000000 0.000000 0.000000 0.000000 0.000000 0.000000 0.000000 0.000000 0.000000 0.000000 0.000000 0.000000 0.000000 0.000000 0.000000 0.000000 0.000000 0.000000 0.000000 0.000000 0.000000 0.000000 0.000000 0.000000 0.000000 0.000000 0.000000 0.000000 0.000000 0.000000 0.000000 0.000000 0.000000 0.000000 0.000000 0.000000 0.000000 0.000000 0.000000 0.000000 0.000000 0.000000 0.000000 0.000000 0.000000 0.000000 0.000000 0.000000 0.000000 0.000000 0.000000 0.000000 0.000000 0.000000 0.000000 0.000000 0.000000 0.000000 0.000000 0.000000 0.000000 0.000000 0.000000 0.000000 0.000000 0.000000 0.000000 0.000000 0.000000 0.000000 0.000000 0.000000 0.000000
0.000000 0.000000 0.000000 0.000000 0.000000 0.000000 0.000000 0.000000 0.000000 0.000000 0.000000 0.000000 0.000000 0.000000 0.000000 0.000000 0.000000 0.000000 0.000000 0.000000 0.000000 0.000000 0.000000 0.000000 0.000000 0.000000 0.000000 0.000000 0.000000 0.000000 0.000000 0.000000 0.000000 0.000000 0.000000 0.000000 0.000000 0.000000 0.000000 0.000000 0.000000 0.000000 0.000000 0.000000 0.000000 0.000000 0.000000 0.000000 0.000000 0.000000 0.000000 0.000000 0.000000 0.000000 0.000000 0.000000 0.000000 0.000000 0.000000 0.000000 0.000000 0.000000 0.000000 0.000000 0.000000 0.000000 0.000000 0.000000 0.000000 0.000000 0.000000 0.000000 0.000000 0.000000 0.000000 0.000000 0.000000 0.000000 0.000000 0.000000 0.000000 0.000000 0.000000 0.000000 0.000000 0.000000 0.000000 0.000000 0.000000 0.000000 0.000000 0.000000 0.000000 0.000000 0.000000 0.000000 0.000000 0.000000 0.000000 0.000000 0.000000 0.000000 0.000000
0.000000 0.000000 0.000000 0.000000 0.000000 0.000000 0.000000 0.000000 0.000000 0.000000 0.000000 18.048936 18.048936 18.048936 18.048936 18.048936 18.048936 18.048936 17.518816 17.518816 17.518816 17.518816 17.518816 17.518816 17.734904 17.734904 17.734904 17.734904 17.734904 17.734904 0.000000 0.000000 0.000000 0.000000 0.000000 0.000000 0.000000 0.000000 0.000000 0.000000 0.000000 0.000000 0.000000 0.000000 0.000000 0.000000 0.000000 0.000000 0.000000 0.000000 0.000000 0.000000 0.000000 0.000000 0.000000 0.000000 0.000000 0.000000 0.000000 0.000000 0.000000 0.000000 0.000000 14.891531 14.891531 14.891531 14.891531 14.891531 14.891531 14.891531 14.891531 0.000000 0.000000 0.000000 0.000000 0.000000 0.000000 0.000000 0.000000 0.000000 0.000000 0.000000 0.000000 0.000000 0.000000 21.411845 21.411845 21.411845 21.411845 21.411845 21.411845 21.411845 21.075949 21.075949 21.075949 21.075949 21.075949 21.075949 21.075949 0.000000 0.000000 0.000000 0.000000
0.000000 0.000000 0.000000 0.000000 0.000000 0.000000 0.000000 0.000000 0.000000 0.000000 0.000000 18.048936 18.048936 18.048936 18.048936 18.048936 18.048936 18.048936 17.518816 17.518816 17.518816 17.518816 17.518816 17.518816 17.734904 17.734904 17.734904 17.734904 17.734904 17.734904 0.000000 0.000000 0.000000 0.000000 0.000000 0.000000 0.000000 0.000000 0.000000 0.000000 0.000000 0.000000 0.000000 0.000000 0.000000 0.000000 0.000000 0.000000 0.000000 0.000000 0.000000 0.000000 0.000000 0.000000 0.000000 0.000000 0.000000 0.000000 0.000000 0.000000 0.000000 0.000000 0.000000 14.891531 14.891531 14.891531 14.891531 14.891531 14.891531 14.891531 14.891531 0.000000 0.000000 0.000000 0.000000 0.000000 0.000000 0.000000 0.000000 0.000000 0.000000 0.000000 0.000000 0.000000 0.000000 21.411845 21.411845 21.411845 21.411845 21.411845 21.411845 21.411845 21.075949 21.075949 21.075949 21.075949 21.075949 21.075949 21.075949 0.000000 0.000000 0.000000 0.000000
0.000000 0.000000 0.000000 0.000000 0.000000 0.000000 0.000000 0.000000 0.000000 0.000000 0.000000 18.048936 18.048936 18.048936 18.048936 18.048936 18.048936 18.048936 17.518816 17.518816 17.518816 17.518816 17.518816 17.518816 17.734904 17.734904 17.734904 17.734904 17.734904 17.734904 0.000000 0.000000 0.000000 0.000000 0.000000 0.000000 0.000000 19.338883 19.338883 19.338883 19.338883 19.338883 19.338883 19.338883 19.338883 0.000000 0.000000 0.000000 0.000000 0.000000 0.000000 0.000000 0.000000 0.000000 0.000000 0.000000 0.000000 0.000000 0.000000 0.000000 0.000000 0.000000 0.000000 14.891531 14.891531 14.891531 14.891531 14.891531 14.891531 14.891531 14.891531 0.000000 0.000000 0.000000 0.000000 0.000000 0.000000 0.000000 0.000000 0.000000 0.000000 0.000000 0.000000 0.000000 0.000000 21.411845 21.411845 21.411845 21.411845 21.411845 21.411845 21.411845 21.075949 21.075949 21.075949 21.075949 21.075949 21.075949 21.075949 0.000000 0.000000 0.000000 0.000000
0.000000 0.000000 0.000000 0.000000 0.000000 0.000000 0.000000 0.000000 0.000000 0.000000 0.000000 18.048936 18.048936 18.048936 18.048936 18.048936 18.048936 18.048936 17.518816 17.518816 17.518816 17.518816 17.518816 17.518816 17.734904 17.734904 17.734904 17.734904 17.734904 17.734904 0.000000 0.000000 0.000000 0.000000 0.000000 0.000000 0.000000 19.338883 19.338883 19.338883 19.338883 19.338883 19.338883 19.338883 19.338883 0.000000 0.000000 0.000000 0.000000 0.000000 0.000000 0.000000 0.000000 0.000000 0.000000 0.000000 0.000000 0.000000 0.000000 0.000000 0.000000 0.000000 0.000000 14.891531 14.891531 14.891531 14.891531 14.891531 14.891531 14.891531 14.891531 0.000000 0.000000 0.000000 0.000000 0.000000 0.000000 0.000000 0.000000 0.000000 0.000000 0.000000 0.000000 0.000000 0.000000 21.411845 21.411845 21.411845 21.411845 21.411845 21.411845 21.411845 21.075949 21.075949 21.075949 21.075949 21.075949 21.075949 21.075949 0.000000 0.000000 0.000000 0.000000
0.000000 0.000000 0.000000 0.000000 0.000000 0.000000 0.000000 0.000000 0.000000 0.000000 0.000000 18.048936 18.048936 18.048936 18.048936 18.048936 18.048936 18.048936 17.518816 17.518816 17.518816 17.518816 17.518816 17.518816 17.734904 17.734904 17.734904 17.734904 17.734904 17.734904 0.000000 0.000000 0.000000 0.000000 0.000000 0.000000 0.000000 19.338883 19.338883 19.338883 19.338883 19.338883 19.338883 19.338883 19.338883 0.000000 0.000000 0.000000 0.000000 0.000000 0.000000 0.000000 0.000000 0.000000 0.000000 0.000000 0.000000 0.000000 0.000000 0.000000 0.000000 0.000000 0.000000 14.891531 14.891531 14.891531 14.891531 14.891531 14.891531 14.891531 14.891531 0.000000 0.000000 0.000000 0.000000 0.000000 0.000000 0.000000 0.000000 0.000000 0.000000 0.000000 0.000000 0.000000 0.000000 21.411845 21.411845 21.411845 21.411845 21.411845 21.411845 21.411845 21.075949 21.075949 21.075949 21.075949 21.075949 21.075949 21.075949 0.000000 0.000000 0.000000 0.000000
0.000000 0.000000 0.000000 0.000000 0.000000 0.000000 0.000000 0.000000 0.000000 0.000000 0.000000 18.048936 18.048936 18.048936 18.048936 18.048936 18.048936 18.048936 17.518816 17.518816 17.518816 17.518816 17.518816 17.518816 17.734904 17.734904 17.734904 17.734904 17.734904 17.734904 0.000000 0.000000 0.000000 0.000000 0.000000 0.000000 0.000000 19.338883 19.338883 19.338883 19.338883 19.338883 19.338883 19.338883 19.338883 0.000000 0.000000 0.000000 0.000000 0.000000 0.000000 0.000000 0.000000 0.000000 0.000000 0.000000 0.000000 0.000000 0.000000 0.000000 0.000000 0.000000 0.000000 14.891531 14.891531 14.891531 14.891531 14.891531 14.891531 14.891531 14.891531 0.000000 0.000000 0.000000 0.000000 0.000000 0.000000 0.000000 0.000000 0.000000 0.000000 0.000000 0.000000 0.000000 0.000000 21.411845 21.411845 21.411845 21.411845 21.411845 21.411845 21.411845 21.075949 21.075949 21.075949 21.075949 21.075949 21.075949 21.075949 0.000000 0.000000 0.000000 0.000000
0.000000 0.000000 0.000000 0.000000 0.000000 0.000000 0.000000 0.000000 0.000000 0.000000 0.000000 18.048936 18.048936 18.048936 18.048936 18.048936 18.048936 18.048936 17.518816 17.518816 17.518816 17.518816 17.518816 17.518816 17.734904 17.734904 17.734904 17.734904 17.734904 17.734904 0.000000 0.000000 0.000000 0.000000 0.000000 0.000000 0.000000 19.338883 19.338883 19.338883 19.338883 19.338883 19.338883 19.338883 19.338883 0.000000 0.000000 0.000000 0.000000 0.000000 0.000000 0.000000 0.000000 0.000000 0.000000 0.000000 0.000000 0.000000 0.000000 0.000000 0.000000 0.000000 0.000000 14.891531 14.891531 14.891531 14.891531 14.891531 14.891531 14.891531 14.891531 0.000000 0.000000 0.000000 0.000000 0.000000 0.000000 0.000000 0.000000 0.000000 0.000000 0.000000 0.000000 0.000000 0.000000 21.411845 21.411845 21.411845 21.411845 21.411845 21.411845 21.411845 21.075949 21.075949 21.075949 21.075949 21.075949 21.075949 21.075949 0.000000 0.000000 0.000000 0.000000
0.000000 0.000000 0.000000 0.000000 0.000000 0.000000 0.000000 0.000000 0.000000 0.000000 0.000000 18.048936 18.048936 18.048936 18.048936 18.048936 18.048936 18.048936 17.518816 17.518816 17.518816 17.518816 17.518816 17.518816 17.734904 17.734904 17.734904 17.734904 17.734904 17.734904 0.000000 0.000000 0.000000 0.000000 0.000000 0.000000 0.000000 19.338883 19.338883 19.338883 19.338883 19.338883 19.338883 19.338883 19.338883 0.000000 0.000000 0.000000 0.000000 0.000000 0.000000 0.000000 0.000000 0.000000 0.000000 0.000000 0.000000 0.000000 0.000000 0.000000 0.000000 0.000000 0.000000 14.891531 14.891531 14.891531 14.891531 14.891531 14.891531 14.891531 14.891531 0.000000 0.000000 0.000000 0.000000 0.000000 0.000000 0.000000 0.000000 0.000000 0.000000 0.000000 0.000000 0.000000 0.000000 21.411845 21.411845 21.411845 21.411845 21.411845 21.411845 21.411845 21.075949 21.075949 21.075949 21.075949 21.075949 21.075949 21.075949 0.000000 0.000000 0.000000 0.000000
0.000000 0.000000 0.000000 0.000000 0.000000 0.000000 0.000000 0.000000 0.000000 0.000000 0.000000 18.048936 18.048936 18.048936 18.048936 18.048936 18.048936 18.048936 17.518816 17.518816 17.518816 17.518816 17.518816 17.518816 17.734904 17.734904 17.734904 17.734904 17.734904 17.734904 0.000000 0.000000 0.000000 0.000000 0.000000 0.000000 0.000000 19.338883 19.338883 19.338883 19.338883 19.338883 19.338883 19.338883 19.338883 0.000000 0.000000 0.000000 0.000000 0.000000 0.000000 0.000000 0.000000 0.000000 0.000000 0.000000 0.000000 0.000000 0.000000 0.000000 0.000000 0.000000 0.000000 15.718602 15.718602 15.718602 15.718602 15.718602 15.718602 15.718602 15.718602 18.410220 18.410220 18.410220 18.410220 18.410220 18.410220 18.410220 18.410220 18.410220 0.000000 0.000000 0.000000 0.000000 0.000000 21.411845 21.411845 21.411845 21.411845 21.411845 21.411845 21.411845 21.075949 21.075949 21.075949 21.075949 21.075949 21.075949 21.075949 0.000000 0.000000 0.000000 0.000000
0.000000 0.000000 0.000000 0.000000 0.000000 0.000000 0.000000 0.000000 0.000000 0.000000 0.000000 18.048936 18.048936 18.048936 18.048936 18.048936 18.048936 18.048936 17.518816 17.518816 17.518816 17.518816 17.518816 17.518816 17.734904 17.734904 17.734904 17.734904 17.734904 17.734904 0.000000 0.000000 0.000000 0.000000 0.000000 0.000000 0.000000 19.338883 19.338883 19.338883 19.338883 19.338883 19.338883 19.338883 19.338883 0.000000 0.000000 0.000000 0.000000 0.000000 0.000000 0.000000 0.000000 0.000000 0.000000 0.000000 0.000000 0.000000 0.000000 0.000000 0.000000 0.000000 0.000000 15.718602 15.718602 15.718602 15.718602 15.718602 15.718602 15.718602 15.718602 18.410220 18.410220 18.410220 18.410220 18.410220 18.410220 18.410220 18.410220 18.410220 0.000000 0.000000 0.000000 0.000000 0.000000 21.411845 21.411845 21.411845 21.411845 21.411845 21.411845 21.411845 21.075949 21.075949 21.075949 21.075949 21.075949 21.075949 21.075949 0.000000 0.000000 0.000000 0.000000
0.000000 0.000000 0.000000 0.000000 0.000000 0.000000 0.000000 0.000000 0.000000 0.000000 0.000000 18.048936 18.048936 18.048936 18.048936 18.048936 18.048936 18.048936 17.518816 17.518816 17.518816 17.518816 17.518816 17.518816 17.734904 17.734904 17.734904 17.734904 17.734904 17.734904 0.000000 0.000000 0.000000 0.000000 0.000000 0.000000 0.000000 19.338883 19.338883 19.338883 19.338883 19.338883 19.338883 19.338883 19.338883 0.000000 0.000000 0.000000 0.000000 0.000000 0.000000 0.000000 0.000000 0.000000 0.000000 0.000000 0.000000 0.000000 0.000000 0.000000 0.000000 0.000000 0.000000 15.718602 15.718602 15.718602 15.718602 15.718602 15.718602 15.718602 15.718602 18.410220 18.410220 18.410220 18.410220 18.410220 18.410220 18.410220 18.410220 18.410220 0.000000 0.000000 0.000000 0.000000 0.000000 21.411845 21.411845 21.411845 21.411845 21.411845 21.411845 21.411845 21.075949 21.075949 21.075949 21.075949 21.075949 21.075949 21.075949 0.000000 0.000000 0.000000 0.000000
0.000000 0.000000 0.000000 0.000000 0.000000 0.000000 0.000000 0.000000 0.000000 0.000000 0.000000 18.048936 18.048936 18.048936 18.048936 18.048936 18.048936 18.048936 17.518816 17.518816 17.518816 17.518816 17.518816 17.518816 17.734904 17.734904 17.734904 17.734904 17.734904 17.734904 0.000000 0.000000 0.000000 0.000000 0.000000 0.000000 0.000000 19.338883 19.338883 19.338883 19.338883 19.338883 19.338883 19.338883 19.338883 0.000000 0.000000 0.000000 0.000000 0.000000 0.000000 0.000000 0.000000 0.000000 0.000000 0.000000 0.000000 0.000000 0.000000 0.000000 0.000000 0.000000 0.000000 15.718602 15.718602 15.718602 15.718602 15.718602 15.718602 15.718602 15.718602 18.410220 18.410220 18.410220 18.410220 18.410220 18.410220 18.410220 18.410220 18.410220 0.000000 0.000000 0.000000 0.000000 0.000000 21.411845 21.411845 21.411845 21.411845 21.411845 21.411845 21.411845 21.075949 21.075949 21.075949 21.075949 21.075949 21.075949 21.075949 0.000000 0.000000 0.000000 0.000000
0.000000 0.000000 0.000000 0.000000 10.079191 10.079191 10.079191 10.079191 10.079191 10.079191 10.079191 10.936429 10.936429 10.936429 10.936429 10.936429 10.936429 10.936429 9.852524 9.852524 9.852524 9.852524 9.852524 9.852524 0.000000 0.000000 0.000000 0.000000 0.000000 0.000000 0.000000 0.000000 0.000000 0.000000 0.000000 0.000000 0.000000 0.000000 0.000000 0.000000 0.000000 0.000000 0.000000 0.000000 0.000000 0.000000 0.000000 0.000000 0.000000 0.000000 0.000000 0.000000 0.000000 0.000000 0.000000 0.000000 0.000000 0.000000 0.000000 0.000000 0.000000 0.000000 0.000000 15.718602 15.718602 15.718602 15.718602 15.718602 15.718602 15.718602 15.718602 18.410220 18.410220 18.410220 18.410220 18.410220 18.410220 18.410220 18.410220 18.410220 0.000000 0.000000 0.000000 0.000000 0.000000 0.000000 0.000000 0.000000 0.000000 0.000000 0.000000 0.000000 10.811676 10.811676 10.811676 10.811676 10.811676 10.811676 10.811676 0.000000 0.000000 0.000000 0.000000
0.000000 0.000000 0.000000 0.000000 10.079191 10.079191 10.079191 10.079191 10.079191 10.079191 10.079191 10.936429 10.936429 10.936429 10.936429 10.936429 10.936429 10.936429 9.852524 9.852524 9.852524 9.852524 9.852524 9.852524 0.000000 0.000000 1.743735 1.743735 0.000000 0.000000 0.000000 0.000000 0.000000 0.000000 0.000000 0.000000 0.000000 0.000000 0.000000 0.000000 0.000000 0.000000 0.000000 0.000000 0.000000 0.000000 0.000000 0.000000 0.000000 0.000000 0.000000 0.000000 0.000000 0.000000 0.000000 0.000000 0.000000 0.000000 0.000000 0.000000 0.000000 0.000000 0.000000 15.718602 15.718602 15.718602 15.718602 15.718602 15.718602 15.718602 15.718602 18.410220 18.410220 18.410220 18.410220 18.410220 18.410220 18.410220 18.410220 18.410220 0.000000 0.000000 0.000000 0.000000 0.000000 0.000000 0.000000 0.000000 0.000000 0.000000 0.000000 0.000000 10.811676 10.811676 10.811676 10.811676 10.811676 10.811676 10.811676 0.000000 0.000000 0.000000 0.000000
0.000000 0.000000 0.000000 0.000000 10.079191 10.079191 10.079191 10.079191 10.079191 10.079191 10.079191 10.936429 10.936429 10.936429 10.936429 10.936429 10.936429 10.936429 9.852524 9.852524 9.852524 9.852524 9.852524 9.852524 0.000000 0.000000 1.743735 1.743735 0.000000 0.000000 0.000000 0.000000 0.000000 0.000000 0.000000 0.000000 0.000000 0.000000 0.000000 0.000000 0.000000 0.000000 0.000000 0.000000 0.000000 0.000000 0.000000 0.000000 0.000000 0.000000 0.000000 0.000000 0.000000 0.000000 0.000000 0.000000 0.000000 0.000000 0.000000 0.000000 0.000000 0.000000 0.000000 15.718602 15.718602 15.718602 15.718602 15.718602 15.718602 15.718602 15.718602 18.410220 18.410220 18.410220 18.410220 18.410220 18.410220 18.410220 18.410220 18.410220 0.000000 0.000000 0.000000 0.000000 0.000000 0.000000 0.000000 0.000000 0.000000 0.000000 0.000000 0.000000 10.811676 10.811676 10.811676 10.811676 10.811676 10.811676 10.811676 0.000000 0.000000 0.000000 0.000000
0.000000 0.000000 0.000000 0.000000 10.079191 10.079191 10.079191 10.079191 10.079191 10.079191 10.079191 10.936429 10.936429 10.936429 10.936429 10.936429 10.936429 10.936429 9.852524 9.852524 9.852524 9.852524 9.852524 9.852524 0.000000 0.000000 1.743735 1.743735 0.000000 0.000000 0.000000 0.000000 0.000000 0.000000 0.000000 0.000000 0.000000 0.000000 0.000000 0.000000 0.000000 0.000000 0.000000 0.000000 0.000000 0.000000 0.000000 0.000000 0.000000 0.000000 0.000000 0.000000 0.000000 0.000000 0.000000 0.000000 0.000000 0.000000 0.000000 0.000000 0.000000 0.000000 0.000000 15.718602 15.718602 15.718602 15.718602 15.718602 15.718602 15.718602 15.718602 18.410220 18.410220 18.410220 18.410220 18.410220 18.410220 18.410220 18.410220 18.410220 0.000000 0.000000 0.000000 0.000000 0.000000 0.000000 0.000000 0.000000 0.000000 0.000000 0.000000 0.000000 10.811676 10.811676 10.811676 10.811676 10.811676 10.811676 10.811676 0.000000 0.000000 0.000000 0.000000
0.000000 0.000000 0.000000 0.000000 10.079191 10.079191 10.079191 10.079191 10.079191 10.079191 10.079191 10.936429 10.936429 10.936429 10.936429 10.936429 10.936429 10.936429 9.852524 9.852524 9.852524 9.852524 9.852524 9.852524 0.000000 0.000000 0.000000 0.000000 0.000000 0.000000 0.000000 0.000000 0.000000 0.000000 0.000000 0.000000 0.000000 0.000000 0.000000 0.000000 0.000000 0.000000 0.000000 0.000000 0.000000 0.000000 0.000000 0.000000 0.000000 0.000000 0.000000 0.000000 0.000000 0.000000 0.000000 0.000000 0.000000 0.000000 0.000000 0.000000 0.000000 0.000000 0.000000 16.863778 16.863778 16.863778 16.863778 16.863778 16.863778 16.863778 16.863778 19.751494 19.751494 19.751494 19.751494 19.751494 19.751494 19.751494 19.751494 19.751494 0.000000 0.000000 0.000000 0.000000 0.000000 0.000000 0.000000 0.000000 0.000000 0.000000 0.000000 0.000000 10.811676 10.811676 10.811676 10.811676 10.811676 10.811676 10.811676 0.000000 0.000000 0.000000 0.000000
0.000000 0.000000 0.000000 0.000000 10.079191 10.079191 10.079191 10.079191 10.079191 10.079191 10.079191 10.936429 10.936429 10.936429 10.936429 10.936429 10.936429 10.936429 9.852524 9.852524 9.852524 9.852524 9.852524 9.852524 0.000000 0.000000 0.000000 0.000000 0.000000 0.000000 0.000000 0.000000 0.000000 0.000000 0.000000 0.000000 0.000000 0.000000 0.000000 0.000000 0.000000 0.000000 0.000000 0.000000 0.000000 0.000000 0.000000 0.000000 0.000000 0.000000 0.000000 0.000000 0.000000 0.000000 0.000000 0.000000 0.000000 0.000000 0.000000 0.000000 0.000000 0.000000 0.000000 16.863778 16.863778 16.863778 16.863778 16.863778 16.863778 16.863778 16.863778 19.751494 19.751494 19.751494 19.751494 19.751494 19.751494 19.751494 19.751494 19.751494 0.000000 0.000000 0.000000 0.000000 0.000000 0.000000 0.000000 0.000000 0.000000 0.000000 0.000000 0.000000 10.811676 10.811676 10.811676 10.811676 10.811676 10.811676 10.811676 0.000000 0.000000 0.000000 0.000000
0.000000 0.000000 0.000000 0.000000 0.000000 0.000000 0.000000 0.000000 0.000000 0.000000 0.000000 11.520278 11.520278 11.520278 11.520278 11.520278 11.520278 11.520278 0.000000 0.000000 0.000000 0.000000 0.000000 0.000000 10.348911 10.348911 10.348911 10.348911 10.348911 10.348911 0.000000 0.000000 0.000000 0.000000 0.000000 0.000000 0.000000 0.000000 0.000000 0.000000 0.000000 0.000000 0.000000 0.000000 0.000000 0.000000 0.000000 0.000000 0.000000 0.000000 0.000000 0.000000 0.000000 0.000000 0.000000 0.000000 0.000000 0.000000 0.000000 0.000000 0.000000 0.000000 0.000000 16.863778 16.863778 16.863778 16.863778 16.863778 16.863778 16.863778 16.863778 19.751494 19.751494 19.751494 19.751494 19.751494 19.751494 19.751494 19.751494 19.751494 0.000000 0.000000 0.000000 0.000000 0.000000 11.362568 11.362568 11.362568 11.362568 11.362568 11.362568 11.362568 11.184319 11.184319 11.184319 11.184319 11.184319 11.184319 11.184319 0.000000 0.000000 0.000000 0.000000
0.000000 0.000000 0.000000 0.000000 0.000000 0.000000 0.000000 0.000000 0.000000 0.000000 0.000000 11.520278 11.520278 11.520278 11.520278 11.520278 11.520278 11.520278 0.000000 0.000000 0.000000 0.000000 0.000000 0.000000 10.348911 10.348911 10.348911 10.348911 10.348911 10.348911 0.000000 0.000000 0.000000 0.000000 0.000000 0.000000 0.000000 0.000000 0.000000 0.000000 0.000000 0.000000 0.000000 0.000000 0.000000 0.000000 0.000000 0.000000 0.000000 0.000000 0.000000 0.000000 0.000000 0.000000 0.000000 0.000000 0.000000 0.000000 0.000000 0.000000 0.000000 0.000000 0.000000 16.863778 16.863778 16.863778 16.863778 16.863778 16.863778 16.863778 16.863778 19.751494 19.751494 19.751494 19.751494 19.751494 19.751494 19.751494 19.751494 19.751494 0.000000 0.000000 0.000000 0.000000 0.000000 11.362568 11.362568 11.362568 11.362568 11.362568 11.362568 11.362568 11.184319 11.184319 11.184319 11.184319 11.184319 11.184319 11.184319 0.000000 0.000000 0.000000 0.000000
0.000000 0.000000 0.000000 0.000000 0.000000 0.000000 0.000000 0.000000 0.000000 0.000000 0.000000 11.520278 11.520278 11.520278 11.520278 11.520278 11.520278 11.520278 0.000000 0.000000 1.840551 1.840551 0.000000 0.000000 10.348911 10.348911 10.348911 10.348911 10.348911 10.348911 0.000000 0.000000 0.000000 0.000000 0.000000 0.000000 0.000000 0.000000 0.000000 0.000000 0.000000 0.000000 0.000000 0.000000 0.000000 0.000000 0.000000 0.000000 0.000000 0.000000 0.000000 0.000000 0.000000 0.000000 0.000000 0.000000 0.000000 0.000000 0.000000 0.000000 0.000000 0.000000 0.000000 16.863778 16.863778 16.863778 16.863778 16.863778 16.863778 16.863778 16.863778 19.751494 19.751494 19.751494 19.751494 19.751494 19.751494 19.751494 19.751494 19.751494 0.000000 0.000000 0.000000 0.000000 0.000000 11.362568 11.362568 11.362568 11.362568 11.362568 11.362568 11.362568 11.184319 11.184319 11.184319 11.184319 11.184319 11.184319 11.184319 0.000000 0.000000 0.000000 0.000000
0.000000 0.000000 0.000000 0.000000 0.000000 0.000000 0.000000 0.000000 0.000000 0.000000 0.000000 11.520278 11.520278 11.520278 11.520278 11.520278 11.520278 11.520278 0.000000 0.000000 1.840551 1.840551 0.000000 0.000000 10.348911 10.348911 10.348911 10.348911 10.348911 10.348911 0.000000 0.000000 0.000000 0.000000 0.000000 0.000000 0.000000 0.000000 0.000000 0.000000 0.000000 0.000000 0.000000 0.000000 0.000000 0.000000 0.000000 0.000000 0.000000 0.000000 0.000000 0.000000 0.000000 0.000000 0.000000 0.000000 0.000000 0.000000 0.000000 0.000000 0.000000 0.000000 0.000000 16.863778 16.863778 16.863778 16.863778 16.863778 16.863778 16.863778 16.863778 19.751494 19.751494 19.751494 19.751494 19.751494 19.751494 19.751494 19.751494 19.751494 0.000000 0.000000 0.000000 0.000000 0.000000 11.362568 11.362568 11.362568 11.362568 11.362568 11.362568 11.362568 11.184319 11.184319 11.184319 11.184319 11.184319 11.184319 11.184319 0.000000 0.000000 0.000000 0.000000
0.000000 0.000000 0.000000 0.000000 0.000000 0.000000 0.000000 0.000000 0.000000 0.000000 0.000000 11.520278 11.520278 11.520278 11.520278 11.520278 11.520278 11.520278 0.000000 0.000000 1.840551 1.840551 0.000000 0.000000 10.348911 10.348911 10.348911 10.348911 10.348911 10.348911 0.000000 0.000000 0.000000 0.000000 0.000000 0.000000 0.000000 0.000000 0.000000 0.000000 0.000000 0.000000 0.000000 0.000000 0.000000 0.000000 0.000000 0.000000 0.000000 0.000000 0.000000 0.000000 0.000000 0.000000 0.000000 0.000000 0.000000 0.000000 0.000000 0.000000 0.000000 0.000000 0.000000 16.863778 16.863778 16.863778 16.863778 16.863778 16.863778 16.863778 16.863778 19.751494 19.751494 19.751494 19.751494 19.751494 19.751494 19.751494 19.751494 19.751494 0.000000 0.000000 0.000000 0.000000 0.000000 11.362568 11.362568 11.362568 11.362568 11.362568 11.362568 11.362568 11.184319 11.184319 11.184319 11.184319 11.184319 11.184319 11.184319 0.000000 0.000000 0.000000 0.000000
0.000000 0.000000 0.000000 0.000000 0.000000 0.000000 0.000000 0.000000 0.000000 0.000000 0.000000 11.520278 11.520278 11.520278 11.520278 11.520278 11.520278 11.520278 0.000000 0.000000 0.000000 0.000000 0.000000 0.000000 10.348911 10.348911 10.348911 10.348911 10.348911 10.348911 0.000000 0.000000 0.000000 0.000000 0.000000 0.000000 0.000000 0.000000 0.000000 0.000000 0.000000 0.000000 0.000000 0.000000 0.000000 0.000000 0.000000 0.000000 0.000000 0.000000 0.000000 0.000000 0.000000 0.000000 0.000000 0.000000 0.000000 0.000000 0.000000 0.000000 0.000000 0.000000 0.000000 16.863778 16.863778 16.863778 16.863778 16.863778 16.863778 16.863778 16.863778 19.751494 19.751494 19.751494 19.751494 19.751494 19.751494 19.751494 19.751494 19.751494 0.000000 0.000000 0.000000 0.000000 0.000000 11.362568 11.362568 11.362568 11.362568 11.362568 11.362568 11.362568 11.184319 11.184319 11.184319 11.184319 11.184319 11.184319 11.184319 0.000000 0.000000 0.000000 0.000000
0.000000 0.000000 0.000000 0.000000 0.000000 0.000000 0.000000 0.000000 0.000000 0.000000 0.000000 11.520278 11.520278 11.520278 11.520278 11.520278 11.520278 11.520278 0.000000 0.000000 0.000000 0.000000 0.000000 0.000000 10.348911 10.348911 10.348911 10.348911 10.348911 10.348911 0.000000 0.000000 0.000000 0.000000 0.000000 0.000000 0.000000 0.000000 0.000000 0.000000 0.000000 0.000000 0.000000 0.000000 0.000000 0.000000 0.000000 0.000000 0.000000 0.000000 0.000000 0.000000 0.000000 0.000000 0.000000 0.000000 0.000000 0.000000 0.000000 0.000000 0.000000 0.000000 0.000000 16.863778 16.863778 16.863778 16.863778 16.863778 16.863778 16.863778 16.863778 19.751494 19.751494 19.751494 19.751494 19.751494 19.751494 19.751494 19.751494 19.751494 0.000000 0.000000 0.000000 0.000000 0.000000 11.362568 11.362568 11.362568 11.362568 11.362568 11.362568 11.362568 11.184319 11.184319 11.184319 11.184319 11.184319 11.184319 11.184319 0.000000 0.000000 0.000000 0.000000
0.000000 0.000000 0.000000 0.000000 0.000000 0.000000 0.000000 0.000000 0.000000 0.000000 0.000000 0.000000 0.000000 0.000000 0.000000 0.000000 0.000000 0.000000 0.000000 0.000000 0.000000 0.000000 0.000000 0.000000 0.000000 0.000000 0.000000 0.000000 0.000000 0.000000 0.000000 0.000000 0.000000 0.000000 0.000000 0.000000 0.000000 0.000000 0.000000 0.000000 0.000000 0.000000 0.000000 0.000000 0.000000 0.000000 0.000000 0.000000 0.000000 0.000000 0.000000 0.000000 0.000000 0.000000 0.000000 0.000000 0.000000 0.000000 0.000000 0.000000 0.000000 0.000000 0.000000 0.000000 0.000000 0.000000 0.000000 0.000000 0.000000 0.000000 0.000000 0.000000 0.000000 0.000000 0.000000 0.000000 0.000000 0.000000 0.000000 0.000000 0.000000 0.000000 0.000000 0.000000 0.000000 0.000000 0.000000 0.000000 0.000000 0.000000 0.000000 0.000000 0.000000 0.000000 0.000000 0.000000 0.000000 0.000000 0.000000 0.000000 0.000000 0.000000 0.000000
0.000000 0.000000 0.000000 0.000000 0.000000 0.000000 0.000000 0.000000 0.000000 0.000000 0.000000 0.000000 0.000000 0.000000 0.000000 0.000000 0.000000 0.000000 0.000000 0.000000 0.000000 0.000000 0.000000 0.000000 0.000000 0.000000 0.000000 0.000000 0.000000 0.000000 0.000000 0.000000 0.000000 0.000000 0.000000 0.000000 0.000000 0.000000 0.000000 0.000000 0.000000 0.000000 0.000000 0.000000 0.000000 0.000000 0.000000 0.000000 0.000000 0.000000 0.000000 0.000000 0.000000 0.000000 0.000000 0.000000 0.000000 0.000000 0.000000 0.000000 0.000000 0.000000 0.000000 0.000000 0.000000 0.000000 0.000000 0.000000 0.000000 0.000000 0.000000 0.000000 0.000000 0.000000 0.000000 0.000000 0.000000 0.000000 0.000000 0.000000 0.000000 0.000000 0.000000 0.000000 0.000000 0.000000 0.000000 0.000000 0.000000 0.000000 0.000000 0.000000 0.000000 0.000000 0.000000 0.000000 0.000000 0.000000 0.000000 0.000000 0.000000 0.000000 0.000000
0.000000 0.000000 0.000000 0.000000 0.000000 0.000000 0.000000 0.000000 0.000000 0.000000 0.000000 0.000000 0.000000 0.000000 0.000000 0.000000 0.000000 0.000000 0.000000 0.000000 0.000000 0.000000 0.000000 0.000000 0.000000 0.000000 0.000000 0.000000 0.000000 0.000000 0.000000 0.000000 0.000000 0.000000 0.000000 0.000000 0.000000 0.000000 0.000000 0.000000 0.000000 0.000000 0.000000 0.000000 0.000000 0.000000 0.000000 0.000000 0.000000 0.000000 0.000000 0.000000 0.000000 0.000000 0.000000 0.000000 0.000000 0.000000 0.000000 0.000000 0.000000 0.000000 0.000000 0.000000 0.000000 0.000000 0.000000 0.000000 0.000000 0.000000 0.000000 0.000000 0.000000 0.000000 0.000000 0.000000 0.000000 0.000000 0.000000 0.000000 0.000000 0.000000 0.000000 0.000000 0.000000 0.000000 0.000000 0.000000 0.000000 0.000000 0.000000 0.000000 0.000000 0.000000 0.000000 0.000000 0.000000 0.000000 0.000000 0.000000 0.000000 0.000000 0.000000
0.000000 0.000000 0.000000 0.000000 0.000000 0.000000 0.000000 0.000000 0.000000 0.000000 0.000000 0.000000 0.000000 0.000000 0.000000 0.000000 0.000000 0.000000 0.000000 0.000000 0.000000 0.000000 0.000000 0.000000 0.000000 0.000000 0.000000 0.000000 0.000000 0.000000 0.000000 0.000000 0.000000 0.000000 0.000000 0.000000 0.000000 0.000000 0.000000 0.000000 0.000000 0.000000 0.000000 0.000000 0.000000 0.000000 0.000000 0.000000 0.000000 0.000000 0.000000 0.000000 0.000000 0.000000 0.000000 0.000000 0.000000 0.000000 0.000000 0.000000 0.000000 0.000000 0.000000 0.000000 0.000000 0.000000 0.000000 0.000000 0.000000 0.000000 0.000000 0.000000 0.000000 0.000000 0.000000 0.000000 0.000000 0.000000 0.000000 0.000000 0.000000 0.000000 0.000000 0.000000 0.000000 0.000000 0.000000 0.000000 0.000000 0.000000 0.000000 0.000000 0.000000 0.000000 0.000000 0.000000 0.000000 0.000000 0.000000 0.000000 0.000000 0.000000 0.000000
0.000000 0.000000 0.000000 0.000000 0.000000 0.000000 0.000000 0.000000 0.000000 0.000000 0.000000 0.000000 0.000000 0.000000 0.000000 0.000000 0.000000 0.000000 0.000000 0.000000 0.000000 0.000000 0.000000 0.000000 0.000000 0.000000 0.000000 0.000000 0.000000 0.000000 0.000000 0.000000 0.000000 0.000000 0.000000 0.000000 0.000000 0.000000 0.000000 0.000000 0.000000 0.000000 0.000000 0.000000 0.000000 0.000000 0.000000 0.000000 0.000000 0.000000 0.000000 0.000000 0.000000 0.000000 0.000000 0.000000 0.000000 0.000000 0.000000 0.000000 0.000000 0.000000 0.000000 0.000000 0.000000 0.000000 0.000000 0.000000 0.000000 0.000000 0.000000 0.000000 0.000000 0.000000 0.000000 0.000000 0.000000 0.000000 0.000000 0.000000 0.000000 0.000000 0.000000 0.000000 0.000000 0.000000 0.000000 0.000000 0.000000 0.000000 0.000000 0.000000 0.000000 0.000000 0.000000 0.000000 0.000000 0.000000 0.000000 0.000000 0.000000 0.000000 0.000000
0.000000 0.000000 0.000000 0.000000 0.000000 0.000000 0.000000 0.000000 0.000000 0.000000 0.000000 0.000000 0.000000 0.000000 0.000000 0.000000 0.000000 0.000000 0.000000 0.000000 0.000000 0.000000 0.000000 0.000000 0.000000 0.000000 0.000000 0.000000 0.000000 0.000000 0.000000 0.000000 0.000000 0.000000 0.000000 0.000000 0.000000 0.000000 0.000000 0.000000 0.000000 0.000000 0.000000 0.000000 0.000000 0.000000 0.000000 0.000000 0.000000 0.000000 0.000000 0.000000 0.000000 0.000000 0.000000 0.000000 0.000000 0.000000 0.000000 0.000000 0.000000 0.000000 0.000000 14.215781 14.215781 14.215781 14.215781 14.215781 14.215781 14.215781 14.215781 14.215781 0.000000 0.000000 0.000000 0.000000 0.000000 0.000000 0.000000 0.000000 0.000000 0.000000 0.000000 0.000000 0.000000 0.000000 0.000000 0.000000 0.000000 0.000000 0.000000 0.000000 0.000000 0.000000 0.000000 0.000000 0.000000 0.000000 0.000000 0.000000 0.000000 0.000000 0.000000
0.000000 0.000000 0.000000 0.000000 0.000000 0.000000 0.000000 0.000000 0.000000 0.000000 0.000000 0.000000 0.000000 0.000000 0.000000 0.000000 0.000000 0.000000 0.000000 0.000000 0.000000 0.000000 0.000000 0.000000 0.000000 0.000000 0.000000 0.000000 0.000000 0.000000 0.000000 0.000000 0.000000 0.000000 0.000000 0.000000 0.000000 0.000000 0.000000 0.000000 0.000000 0.000000 0.000000 0.000000 0.000000 0.000000 0.000000 0.000000 0.000000 0.000000 0.000000 0.000000 0.000000 0.000000 0.000000 0.000000 0.000000 0.000000 0.000000 0.000000 0.000000 0.000000 0.000000 14.215781 14.215781 14.215781 14.215781 14.215781 14.215781 14.215781 14.215781 14.215781 0.000000 0.000000 0.000000 0.000000 0.000000 0.000000 0.000000 0.000000 0.000000 0.000000 0.000000 0.000000 0.000000 0.000000 0.000000 0.000000 0.000000 0.000000 0.000000 0.000000 0.000000 0.000000 0.000000 0.000000 0.000000 0.000000 0.000000 0.000000 0.000000 0.000000 0.000000
0.000000 0.000000 0.000000 0.000000 0.000000 0.000000 0.000000 0.000000 0.000000 0.000000 0.000000 0.000000 0.000000 0.000000 0.000000 0.000000 0.000000 0.000000 0.000000 25.004889 25.004889 25.004889 25.004889 25.004889 25.004889 25.004889 25.004889 25.004889 0.000000 0.000000 0.000000 0.000000 0.000000 0.000000 0.000000 0.000000 0.000000 0.000000 0.000000 0.000000 0.000000 0.000000 0.000000 0.000000 0.000000 0.000000 0.000000 0.000000 0.000000 0.000000 0.000000 0.000000 0.000000 0.000000 0.000000 0.000000 0.000000 0.000000 0.000000 0.000000 0.000000 0.000000 0.000000 14.215781 14.215781 14.215781 14.215781 14.215781 14.215781 14.215781 14.215781 14.215781 0.000000 0.000000 0.000000 0.000000 0.000000 0.000000 0.000000 0.000000 0.000000 0.000000 0.000000 0.000000 0.000000 0.000000 0.000000 18.653958 18.653958 18.653958 18.653958 18.653958 18.653958 18.653958 18.653958 18.653958 18.653958 0.000000 0.000000 0.000000 0.000000 0.000000 0.000000
0.000000 0.000000 0.000000 0.000000 0.000000 0.000000 0.000000 0.000000 0.000000 0.000000 0.000000 0.000000 0.000000 0.000000 0.000000 0.000000 0.000000 0.000000 0.000000 25.004889 25.004889 25.004889 25.004889 25.004889 25.004889 25.004889 25.004889 25.004889 0.000000 0.000000 0.000000 0.000000 0.000000 0.000000 0.000000 0.000000 0.000000 0.000000 0.000000 0.000000 0.000000 0.000000 0.000000 0.000000 0.000000 0.000000 0.000000 0.000000 0.000000 0.000000 0.000000 0.000000 0.000000 0.000000 0.000000 0.000000 0.000000 0.000000 0.000000 0.000000 0.000000 0.000000 0.000000 14.215781 14.215781 14.215781 14.215781 14.215781 14.215781 14.215781 14.215781 14.215781 0.000000 0.000000 0.000000 0.000000 0.000000 0.000000 0.000000 0.000000 0.000000 0.000000 0.000000 0.000000 0.000000 0.000000 0.000000 18.653958 18.653958 18.653958 18.653958 18.653958 18.653958 18.653958 18.653958 18.653958 18.653958 0.000000 0.000000 0.000000 0.000000 0.000000 0.000000
0.000000 0.000000 0.000000 0.000000 0.000000 0.000000 0.000000 0.000000 0.000000 0.000000 0.000000 0.000000 0.000000 0.000000 0.000000 0.000000 0.000000 0.000000 0.000000 25.004889 25.004889 25.004889 25.004889 25.004889 25.004889 25.004889 25.004889 25.004889 0.000000 0.000000 0.000000 0.000000 0.000000 0.000000 0.000000 0.000000 0.000000 0.000000 0.000000 0.000000 0.000000 0.000000 0.000000 0.000000 0.000000 0.000000 0.000000 0.000000 0.000000 0.000000 0.000000 0.000000 0.000000 0.000000 0.000000 0.000000 0.000000 0.000000 0.000000 0.000000 0.000000 0.000000 0.000000 14.215781 14.215781 14.215781 14.215781 14.215781 14.215781 14.215781 14.215781 14.215781 0.000000 0.000000 0.000000 0.000000 0.000000 0.000000 0.000000 0.000000 0.000000 0.000000 0.000000 0.000000 0.000000 0.000000 0.000000 18.653958 18.653958 18.653958 18.653958 18.653958 18.653958 18.653958 18.653958 18.653958 18.653958 0.000000 0.000000 0.000000 0.000000 0.000000 0.000000
0.000000 0.000000 0.000000 0.000000 0.000000 0.000000 0.000000 0.000000 0.000000 0.000000 0.000000 0.000000 0.000000 0.000000 0.000000 0.000000 0.000000 0.000000 0.000000 25.004889 25.004889 25.004889 25.004889 25.004889 25.004889 25.004889 25.004889 25.004889 0.000000 0.000000 0.000000 0.000000 0.000000 0.000000 0.000000 0.000000 0.000000 0.000000 0.000000 0.000000 0.000000 0.000000 0.000000 0.000000 0.000000 0.000000 0.000000 0.000000 0.000000 0.000000 0.000000 0.000000 0.000000 0.000000 0.000000 0.000000 0.000000 0.000000 0.000000 0.000000 0.000000 0.000000 0.000000 14.215781 14.215781 14.215781 14.215781 14.215781 14.215781 14.215781 14.215781 14.215781 0.000000 0.000000 0.000000 0.000000 0.000000 0.000000 0.000000 0.000000 0.000000 0.000000 0.000000 0.000000 0.000000 0.000000 0.000000 18.653958 18.653958 18.653958 18.653958 18.653958 18.653958 18.653958 18.653958 18.653958 18.653958 0.000000 0.000000 0.000000 0.000000 0.000000 0.000000
0.000000 0.000000 0.000000 0.000000 0.000000 0.000000 0.000000 0.000000 0.000000 0.000000 0.000000 0.000000 0.000000 0.000000 0.000000 0.000000 0.000000 0.000000 0.000000 25.004889 25.004889 25.004889 25.004889 25.004889 25.004889 25.004889 25.004889 25.004889 0.000000 0.000000 0.000000 0.000000 0.000000 0.000000 0.000000 0.000000 0.000000 0.000000 0.000000 0.000000 0.000000 0.000000 0.000000 0.000000 0.000000 0.000000 0.000000 0.000000 0.000000 0.000000 0.000000 0.000000 0.000000 0.000000 0.000000 0.000000 0.000000 0.000000 0.000000 0.000000 0.000000 0.000000 0.000000 18.450095 18.450095 18.450095 18.450095 18.450095 18.450095 18.450095 18.450095 18.450095 15.744336 15.744336 15.744336 15.744336 15.744336 15.744336 15.744336 15.744336 0.000000 0.000000 0.000000 0.000000 0.000000 0.000000 0.000000 18.653958 18.653958 18.653958 18.653958 18.653958 18.653958 18.653958 18.653958 18.653958 18.653958 0.000000 0.000000 0.000000 0.000000 0.000000 0.000000
0.000000 0.000000 0.000000 0.000000 0.000000 0.000000 0.000000 0.000000 0.000000 0.000000 0.000000 0.000000 0.000000 0.000000 0.000000 0.000000 0.000000 0.000000 0.000000 25.004889 25.004889 25.004889 25.004889 25.004889 25.004889 25.004889 25.004889 25.004889 0.000000 0.000000 0.000000 0.000000 0.000000 0.000000 0.000000 0.000000 0.000000 0.000000 0.000000 0.000000 0.000000 0.000000 0.000000 0.000000 0.000000 0.000000 0.000000 0.000000 0.000000 0.000000 0.000000 0.000000 0.000000 0.000000 0.000000 0.000000 0.000000 0.000000 0.000000 0.000000 0.000000 0.000000 0.000000 18.450095 18.450095 18.450095 18.450095 18.450095 18.450095 18.450095 18.450095 18.450095 15.744336 15.744336 15.744336 15.744336 15.744336 15.744336 15.744336 15.744336 0.000000 0.000000 0.000000 0.000000 0.000000 0.000000 0.000000 18.653958 18.653958 18.653958 18.653958 18.653958 18.653958 18.653958 18.653958 18.653958 18.653958 0.000000 0.000000 0.000000 0.000000 0.000000 0.000000
0.000000 0.000000 0.000000 0.000000 0.000000 0.000000 0.000000 0.000000 0.000000 0.000000 0.000000 0.000000 0.000000 0.000000 0.000000 0.000000 0.000000 0.000000 0.000000 25.004889 25.004889 25.004889 25.004889 25.004889 25.004889 25.004889 25.004889 25.004889 0.000000 0.000000 0.000000 0.000000 0.000000 0.000000 0.000000 0.000000 0.000000 0.000000 0.000000 0.000000 0.000000 0.000000 0.000000 0.000000 0.000000 0.000000 20.371380 20.371380 20.371380 20.371380 20.371380 20.371380 20.371380 20.371380 20.371380 20.371380 20.371380 20.371380 0.000000 0.000000 0.000000 0.000000 0.000000 18.450095 18.450095 18.450095 18.450095 18.450095 18.450095 18.450095 18.450095 18.450095 15.744336 15.744336 15.744336 15.744336 15.744336 15.744336 15.744336 15.744336 0.000000 0.000000 0.000000 0.000000 0.000000 0.000000 0.000000 18.653958 18.653958 18.653958 18.653958 18.653958 18.653958 18.653958 18.653958 18.653958 18.653958 0.000000 0.000000 0.000000 0.000000 0.000000 0.000000
0.000000 0.000000 0.000000 0.000000 0.000000 0.000000 0.000000 0.000000 0.000000 0.000000 0.000000 0.000000 0.000000 0.000000 0.000000 0.000000 0.000000 0.000000 0.000000 25.004889 25.004889 25.004889 25.004889 25.004889 25.004889 25.004889 25.004889 25.004889 0.000000 0.000000 0.000000 0.000000 0.000000 0.000000 0.000000 0.000000 0.000000 0.000000 0.000000 0.000000 0.000000 0.000000 0.000000 0.000000 0.000000 0.000000 20.371380 20.371380 20.371380 20.371380 20.371380 20.371380 20.371380 20.371380 20.371380 20.371380 20.371380 20.371380 0.000000 0.000000 0.000000 0.000000 0.000000 18.450095 18.450095 18.450095 18.450095 18.450095 18.450095 18.450095 18.450095 18.450095 15.744336 15.744336 15.744336 15.744336 15.744336 15.744336 15.744336 15.744336 0.000000 0.000000 0.000000 0.000000 0.000000 0.000000 0.000000 0.000000 0.000000 0.000000 0.000000 0.000000 0.000000 0.000000 0.000000 0.000000 0.000000 0.000000 0.000000 0.000000 0.000000 0.000000 0.000000
0.000000 0.000000 0.000000 0.000000 0.000000 0.000000 0.000000 0.000000 0.000000 0.000000 0.000000 0.000000 0.000000 0.000000 0.000000 0.000000 0.000000 0.000000 0.000000 25.004889 25.004889 25.004889 25.004889 25.004889 25.004889 25.004889 25.004889 25.004889 0.000000 0.000000 0.000000 0.000000 0.000000 0.000000 0.000000 0.000000 0.000000 0.000000 0.000000 0.000000 0.000000 0.000000 0.000000 0.000000 0.000000 0.000000 20.371380 20.371380 20.371380 20.371380 20.371380 20.371380 20.371380 20.371380 20.371380 20.371380 20.371380 20.371380 0.000000 0.000000 0.000000 0.000000 0.000000 18.450095 18.450095 18.450095 18.450095 18.450095 18.450095 18.450095 18.450095 18.450095 15.744336 15.744336 15.744336 15.744336 15.744336 15.744336 15.744336 15.744336 0.000000 0.000000 0.000000 0.000000 0.000000 0.000000 0.000000 0.000000 0.000000 0.000000 0.000000 0.000000 0.000000 0.000000 0.000000 0.000000 0.000000 0.000000 0.000000 0.000000 0.000000 0.000000 0.000000
0.000000 0.000000 0.000000 0.000000 0.000000 0.000000 0.000000 0.000000 0.000000 0.000000 0.000000 0.000000 0.000000 0.000000 0.000000 0.000000 0.000000 0.000000 0.000000 25.004889 25.004889 25.004889 25.004889 25.004889 25.004889 25.004889 25.004889 25.004889 0.000000 0.000000 0.000000 0.000000 0.000000 0.000000 0.000000 0.000000 0.000000 0.000000 0.000000 0.000000 0.000000 0.000000 0.000000 0.000000 0.000000 0.000000 20.371380 20.371380 20.371380 20.371380 20.371380 20.371380 20.371380 20.371380 20.371380 20.371380 20.371380 20.371380 0.000000 0.000000 0.000000 0.000000 0.000000 18.450095 18.450095 18.450095 18.450095 18.450095 18.450095 18.450095 18.450095 18.450095 15.744336 15.744336 15.744336 15.744336 15.744336 15.744336 15.744336 15.744336 0.000000 0.000000 0.000000 0.000000 0.000000 0.000000 0.000000 0.000000 0.000000 0.000000 0.000000 0.000000 0.000000 0.000000 0.000000 0.000000 0.000000 0.000000 0.000000 0.000000 0.000000 0.000000 0.000000
0.000000 0.000000 0.000000 0.000000 0.000000 0.000000 0.000000 0.000000 0.000000 0.000000 0.000000 0.000000 0.000000 0.000000 0.000000 0.000000 0.000000 0.000000 0.000000 25.004889 25.004889 25.004889 25.004889 25.004889 25.004889 25.004889 25.004889 25.004889 0.000000 0.000000 0.000000 0.000000 0.000000 0.000000 0.000000 0.000000 0.000000 0.000000 0.000000 0.000000 0.000000 0.000000 0.000000 0.000000 0.000000 0.000000 20.371380 20.371380 20.371380 20.371380 20.371380 20.371380 20.371380 20.371380 20.371380 20.371380 20.371380 20.371380 0.000000 0.000000 0.000000 0.000000 0.000000 18.450095 18.450095 18.450095 18.450095 18.450095 18.450095 18.450095 18.450095 18.450095 15.744336 15.744336 15.744336 15.744336 15.744336 15.744336 15.744336 15.744336 0.000000 0.000000 0.000000 0.000000 0.000000 0.000000 0.000000 0.000000 0.000000 0.000000 0.000000 0.000000 0.000000 0.000000 0.000000 0.000000 0.000000 0.000000 0.000000 0.000000 0.000000 0.000000 0.000000
0.000000 0.000000 0.000000 0.000000 0.000000 0.000000 0.000000 0.000000 0.000000 0.000000 0.000000 0.000000 0.000000 0.000000 0.000000 0.000000 0.000000 0.000000 0.000000 0.000000 0.000000 0.000000 0.000000 0.000000 0.000000 0.000000 0.000000 0.000000 0.000000 0.000000 0.000000 0.000000 0.000000 0.000000 0.000000 0.000000 0.000000 0.000000 0.000000 0.000000 0.000000 0.000000 0.000000 0.000000 0.000000 0.000000 20.371380 20.371380 20.371380 20.371380 20.371380 20.371380 20.371380 20.371380 20.371380 20.371380 20.371380 20.371380 0.000000 0.000000 0.000000 0.000000 0.000000 18.450095 18.450095 18.450095 18.450095 18.450095 18.450095 18.450095 18.450095 18.450095 15.744336 15.744336 15.744336 15.744336 15.744336 15.744336 15.744336 15.744336 0.000000 0.000000 0.000000 0.000000 0.000000 0.000000 0.000000 30.910611 30.910611 30.910611 30.910611 30.910611 30.910611 30.910611 30.910611 30.910611 30.910611 0.000000 0.000000 0.000000 0.000000 0.000000 0.000000
0.000000 0.000000 0.000000 0.000000 0.000000 0.000000 0.000000 0.000000 0.000000 0.000000 0.000000 0.000000 0.000000 0.000000 0.000000 0.000000 0.000000 0.000000 0.000000 0.000000 0.000000 0.000000 0.000000 0.000000 0.000000 0.000000 0.000000 0.000000 0.000000 0.000000 0.000000 0.000000 0.000000 0.000000 0.000000 0.000000 0.000000 0.000000 0.000000 0.000000 0.000000 0.000000 0.000000 0.000000 0.000000 0.000000 20.371380 20.371380 20.371380 20.371380 20.371380 20.371380 20.371380 20.371380 20.371380 20.371380 20.371380 20.371380 0.000000 0.000000 0.000000 0.000000 0.000000 18.450095 18.450095 18.450095 18.450095 18.450095 18.450095 18.450095 18.450095 18.450095 15.744336 15.744336 15.744336 15.744336 15.744336 15.744336 15.744336 15.744336 0.000000 0.000000 0.000000 0.000000 0.000000 0.000000 0.000000 30.910611 30.910611 30.910611 30.910611 30.910611 30.910611 30.910611 30.910611 30.910611 30.910611 0.000000 0.000000 0.000000 0.000000 0.000000 0.000000
0.000000 0.000000 0.000000 0.000000 0.000000 0.000000 0.000000 0.000000 0.000000 0.000000 0.000000 0.000000 0.000000 0.000000 0.000000 0.000000 0.000000 0.000000 0.000000 0.000000 0.000000 0.000000 0.000000 0.000000 0.000000 0.000000 0.000000 0.000000 0.000000 0.000000 0.000000 0.000000 0.000000 0.000000 0.000000 0.000000 0.000000 0.000000 0.000000 0.000000 0.000000 0.000000 0.000000 0.000000 0.000000 0.000000 20.371380 20.371380 20.371380 20.371380 20.371380 20.371380 20.371380 20.371380 20.371380 20.371380 20.371380 20.371380 0.000000 0.000000 0.000000 0.000000 0.000000 0.000000 0.000000 0.000000 0.000000 0.000000 0.000000 0.000000 0.000000 0.000000 0.000000 0.000000 0.000000 0.000000 0.000000 0.000000 0.000000 0.000000 0.000000 0.000000 0.000000 0.000000 0.000000 0.000000 0.000000 30.910611 30.910611 30.910611 30.910611 30.910611 30.910611 30.910611 30.910611 30.910611 30.910611 0.000000 0.000000 0.000000 0.000000 0.000000 0.000000
0.000000 0.000000 0.000000 0.000000 0.000000 0.000000 0.000000 0.000000 0.000000 0.000000 0.000000 0.000000 0.000000 0.000000 0.000000 0.000000 0.000000 0.000000 0.000000 0.000000 0.000000 0.000000 0.000000 0.000000 0.000000 0.000000 0.000000 0.000000 0.000000 0.000000 0.000000 0.000000 0.000000 0.000000 0.000000 0.000000 0.000000 0.000000 0.000000 0.000000 0.000000 0.000000 0.000000 0.000000 0.000000 0.000000 0.000000 0.000000 0.000000 0.000000 0.000000 0.000000 0.000000 0.000000 0.000000 0.000000 0.000000 0.000000 0.000000 0.000000 0.000000 0.000000 0.000000 0.000000 0.000000 0.000000 0.000000 0.000000 0.000000 0.000000 0.000000 0.000000 0.000000 0.000000 0.000000 0.000000 0.000000 0.000000 0.000000 0.000000 0.000000 0.000000 0.000000 0.000000 0.000000 0.000000 0.000000 30.910611 30.910611 30.910611 30.910611 30.910611 30.910611 30.910611 30.910611 30.910611 30.910611 0.000000 0.000000 0.000000 0.000000 0.000000 0.000000
0.000000 0.000000 0.000000 0.000000 0.000000 0.000000 17.823545 17.823545 17.823545 17.823545 17.823545 17.823545 17.823545 17.823545 17.823545 0.000000 0.000000 0.000000 0.000000 18.558626 18.558626 18.558626 18.558626 18.558626 18.558626 18.558626 18.558626 18.558626 0.000000 0.000000 0.000000 0.000000 0.000000 0.000000 0.000000 0.000000 0.000000 0.000000 0.000000 0.000000 0.000000 0.000000 0.000000 0.000000 0.000000 0.000000 0.000000 0.000000 0.000000 0.000000 0.000000 0.000000 0.000000 0.000000 0.000000 0.000000 0.000000 0.000000 0.000000 0.000000 0.000000 0.000000 0.000000 0.000000 0.000000 0.000000 0.000000 0.000000 0.000000 0.000000 0.000000 0.000000 0.000000 0.000000 0.000000 0.000000 0.000000 0.000000 0.000000 0.000000 0.000000 0.000000 0.000000 0.000000 0.000000 0.000000 0.000000 30.910611 30.910611 30.910611 30.910611 30.910611 30.910611 30.910611 30.910611 30.910611 30.910611 0.000000 0.000000 0.000000 0.000000 0.000000 0.000000
0.000000 0.000000 0.000000 0.000000 0.000000 0.000000 17.823545 17.823545 17.823545 17.823545 17.823545 17.823545 17.823545 17.823545 17.823545 0.000000 0.000000 0.000000 0.000000 18.558626 18.558626 18.558626 18.558626 18.558626 18.558626 18.558626 18.558626 18.558626 0.000000 0.000000 0.000000 0.000000 0.000000 0.000000 0.000000 0.000000 0.000000 12.591256 12.591256 12.591256 12.591256 12.591256 12.591256 12.591256 12.591256 0.000000 0.000000 0.000000 0.000000 0.000000 0.000000 0.000000 0.000000 0.000000 0.000000 0.000000 0.000000 0.000000 0.000000 0.000000 0.000000 0.000000 0.000000 0.000000 0.000000 0.000000 0.000000 0.000000 0.000000 0.000000 0.000000 0.000000 0.000000 0.000000 0.000000 0.000000 0.000000 0.000000 0.000000 0.000000 0.000000 0.000000 0.000000 0.000000 0.000000 0.000000 0.000000 30.910611 30.910611 30.910611 30.910611 30.910611 30.910611 30.910611 30.910611 30.910611 30.910611 0.000000 0.000000 0.000000 0.000000 0.000000 0.000000
0.000000 0.000000 0.000000 0.000000 0.000000 0.000000 17.823545 17.823545 17.823545 17.823545 17.823545 17.823545 17.823545 17.823545 17.823545 0.000000 0.000000 0.000000 0.000000 18.558626 18.558626 18.558626 18.558626 18.558626 18.558626 18.558626 18.558626 18.558626 0.000000 0.000000 0.000000 0.000000 0.000000 0.000000 0.000000 0.000000 0.000000 12.591256 12.591256 12.591256 12.591256 12.591256 12.591256 12.591256 12.591256 0.000000 0.000000 0.000000 0.000000 0.000000 0.000000 0.000000 0.000000 0.000000 0.000000 0.000000 0.000000 0.000000 0.000000 0.000000 0.000000 0.000000 0.000000 0.000000 0.000000 0.000000 0.000000 0.000000 0.000000 0.000000 0.000000 0.000000 0.000000 0.000000 0.000000 0.000000 0.000000 0.000000 0.000000 0.000000 0.000000 0.000000 0.000000 0.000000 0.000000 0.000000 0.000000 30.910611 30.910611 30.910611 30.910611 30.910611 30.910611 30.910611 30.910611 30.910611 30.910611 0.000000 0.000000 0.000000 0.000000 0.000000 0.000000
0.000000 0.000000 0.000000 0.000000 0.000000 0.000000 17.823545 17.823545 17.823545 17.823545 17.823545 17.823545 17.823545 17.823545 17.823545 0.000000 0.000000 0.000000 0.000000 18.558626 18.558626 18.558626 18.558626 18.558626 18.558626 18.558626 18.558626 18.558626 0.000000 0.000000 0.000000 0.000000 0.000000 0.000000 0.000000 0.000000 0.000000 12.591256 12.591256 12.591256 12.591256 12.591256 12.591256 12.591256 12.591256 0.000000 0.000000 0.000000 0.000000 0.000000 0.000000 0.000000 0.000000 0.000000 0.000000 0.000000 0.000000 0.000000 0.000000 0.000000 0.000000 0.000000 0.000000 0.000000 0.000000 0.000000 0.000000 0.000000 0.000000 0.000000 0.000000 0.000000 0.000000 0.000000 0.000000 0.000000 0.000000 0.000000 0.000000 0.000000 0.000000 0.000000 0.000000 0.000000 0.000000 0.000000 0.000000 30.910611 30.910611 30.910611 30.910611 30.910611 30.910611 30.910611 30.910611 30.910611 30.910611 0.000000 0.000000 0.000000 0.000000 0.000000 0.000000
0.000000 0.000000 0.000000 0.000000 0.000000 0.000000 17.823545 17.823545 17.823545 17.823545 17.823545 17.823545 17.823545 17.823545 17.823545 0.000000 0.000000 0.000000 0.000000 18.558626 18.558626 18.558626 18.558626 18.558626 18.558626 18.558626 18.558626 18.558626 0.000000 0.000000 0.000000 0.000000 0.000000 0.000000 0.000000 0.000000 0.000000 12.591256 12.591256 12.591256 12.591256 12.591256 12.591256 12.591256 12.591256 0.000000 0.000000 0.000000 0.000000 0.000000 0.000000 0.000000 0.000000 0.000000 0.000000 0.000000 0.000000 0.000000 0.000000 0.000000 0.000000 0.000000 0.000000 0.000000 0.000000 0.000000 0.000000 0.000000 0.000000 0.000000 0.000000 0.000000 0.000000 0.000000 0.000000 0.000000 0.000000 0.000000 0.000000 0.000000 0.000000 0.000000 0.000000 0.000000 0.000000 0.000000 0.000000 30.910611 30.910611 30.910611 30.910611 30.910611 30.910611 30.910611 30.910611 30.910611 30.910611 0.000000 0.000000 0.000000 0.000000 0.000000 0.000000
0.000000 0.000000 0.000000 0.000000 0.000000 0.000000 17.823545 17.823545 17.823545 17.823545 17.823545 17.823545 17.823545 17.823545 17.823545 0.000000 0.000000 0.000000 0.000000 18.558626 18.558626 18.558626 18.558626 18.558626 18.558626 18.558626 18.558626 18.558626 0.000000 0.000000 0.000000 0.000000 0.000000 0.000000 0.000000 0.000000 0.000000 12.591256 12.591256 12.591256 12.591256 12.591256 12.591256 12.591256 12.591256 0.000000 0.000000 0.000000 0.000000 0.000000 0.000000 0.000000 0.000000 0.000000 0.000000 0.000000 0.000000 0.000000 0.000000 0.000000 0.000000 0.000000 0.000000 0.000000 0.000000 0.000000 0.000000 0.000000 0.000000 0.000000 0.000000 0.000000 0.000000 0.000000 0.000000 0.000000 0.000000 0.000000 0.000000 0.000000 0.000000 0.000000 0.000000 0.000000 0.000000 0.000000 0.000000 30.910611 30.910611 30.910611 30.910611 30.910611 30.910611 30.910611 30.910611 30.910611 30.910611 0.000000 0.000000 0.000000 0.000000 0.000000 0.000000
0.000000 0.000000 0.000000 0.000000 0.000000 0.000000 17.823545 17.823545 17.823545 17.823545 17.823545 17.823545 17.823545 17.823545 17.823545 0.000000 0.000000 0.000000 0.000000 18.558626 18.558626 18.558626 18.558626 18.558626 18.558626 18.558626 18.558626 18.558626 0.000000 0.000000 0.000000 0.000000 0.000000 0.000000 0.000000 0.000000 0.000000 12.591256 12.591256 12.591256 12.591256 12.591256 12.591256 12.591256 12.591256 0.000000 0.000000 0.000000 0.000000 0.000000 0.000000 0.000000 0.000000 0.000000 0.000000 0.000000 0.000000 0.000000 0.000000 0.000000 0.000000 0.000000 0.000000 0.000000 0.000000 0.000000 0.000000 0.000000 0.000000 0.000000 0.000000 0.000000 0.000000 0.000000 0.000000 0.000000 0.000000 0.000000 0.000000 0.000000 0.000000 0.000000 0.000000 0.000000 0.000000 0.000000 0.000000 30.910611 30.910611 30.910611 30.910611 30.910611 30.910611 30.910611 30.910611 30.910611 30.910611 0.000000 0.000000 0.000000 0.000000 0.000000 0.000000
0.000000 0.000000 0.000000 0.000000 0.000000 0.000000 17.823545 17.823545 17.823545 17.823545 17.823545 17.823545 17.823545 17.823545 17.823545 0.000000 0.000000 0.000000 0.000000 18.558626 18.558626 18.558626 18.558626 18.558626 18.558626 18.558626 18.558626 18.558626 0.000000 0.000000 0.000000 0.000000 0.000000 0.000000 0.000000 0.000000 0.000000 12.591256 12.591256 12.591256 12.591256 12.591256 12.591256 12.591256 12.591256 0.000000 0.000000 0.000000 0.000000 0.000000 0.000000 0.000000 0.000000 0.000000 0.000000 0.000000 0.000000 0.000000 0.000000 0.000000 0.000000 0.000000 0.000000 0.000000 0.000000 0.000000 0.000000 0.000000 0.000000 0.000000 0.000000 0.000000 0.000000 0.000000 0.000000 0.000000 0.000000 0.000000 0.000000 0.000000 0.000000 0.000000 0.000000 0.000000 0.000000 0.000000 0.000000 30.910611 30.910611 30.910611 30.910611 30.910611 30.910611 30.910611 30.910611 30.910611 30.910611 0.000000 0.000000 0.000000 0.000000 0.000000 0.000000
0.000000 0.000000 0.000000 0.000000 0.000000 0.000000 0.000000 0.000000 0.000000 0.000000 0.000000 0.000000 0.000000 0.000000 0.000000 0.000000 0.000000 0.000000 0.000000 0.000000 0.000000 0.000000 0.000000 0.000000 0.000000 0.000000 0.000000 0.000000 0.000000 0.000000 0.000000 0.000000 0.000000 0.000000 0.000000 0.000000 0.000000 0.000000 0.000000 0.000000 0.000000 0.000000 0.000000 0.000000 0.000000 0.000000 0.000000 0.000000 0.000000 0.000000 0.000000 0.000000 0.000000 0.000000 0.000000 0.000000 0.000000 0.000000 0.000000 0.000000 0.000000 0.000000 0.000000 0.000000 0.000000 0.000000 0.000000 0.000000 0.000000 0.000000 0.000000 0.000000 0.000000 0.000000 0.000000 0.000000 0.000000 0.000000 0.000000 0.000000 0.000000 0.000000 0.000000 0.000000 0.000000 0.000000 0.000000 0.000000 0.000000 0.000000 0.000000 0.000000 0.000000 0.000000 0.000000 0.000000 0.000000 0.000000 0.000000 0.000000 0.000000 0.000000 0.000000
0.000000 0.000000 0.000000 0.000000 0.000000 0.000000 0.000000 0.000000 0.000000 0.000000 0.000000 0.000000 0.000000 0.000000 0.000000 0.000000 0.000000 0.000000 0.000000 0.000000 0.000000 0.000000 0.000000 0.000000 0.000000 0.000000 0.000000 0.000000 0.000000 0.000000 0.000000 0.000000 0.000000 0.000000 0.000000 0.000000 0.000000 0.000000 0.000000 0.000000 0.000000 0.000000 0.000000 0.000000 0.000000 0.000000 0.000000 0.000000 0.000000 0.000000 0.000000 0.000000 0.000000 0.000000 0.000000 0.000000 0.000000 0.000000 0.000000 0.000000 0.000000 0.000000 0.000000 0.000000 0.000000 0.000000 0.000000 0.000000 0.000000 0.000000 0.000000 0.000000 0.000000 0.000000 0.000000 0.000000 0.000000 0.000000 0.000000 0.000000 0.000000 0.000000 0.000000 0.000000 0.000000 0.000000 0.000000 0.000000 0.000000 0.000000 0.000000 0.000000 0.000000 0.000000 0.000000 0.000000 0.000000 0.000000 0.000000 0.000000 0.000000 0.000000 0.000000
0.000000 0.000000 0.000000 0.000000 0.000000 0.000000 0.000000 0.000000 0.000000 0.000000 0.000000 0.000000 0.000000 0.000000 0.000000 0.000000 0.000000 0.000000 0.000000 0.000000 0.000000 0.000000 0.000000 0.000000 0.000000 0.000000 0.000000 0.000000 0.000000 0.000000 0.000000 0.000000 0.000000 0.000000 0.000000 0.000000 0.000000 0.000000 0.000000 0.000000 0.000000 0.000000 0.000000 0.000000 0.000000 0.000000 0.000000 0.000000 0.000000 0.000000 0.000000 0.000000 0.000000 0.000000 0.000000 0.000000 0.000000 0.000000 0.000000 0.000000 0.000000 0.000000 0.000000 0.000000 0.000000 0.000000 0.000000 0.000000 0.000000 0.000000 0.000000 0.000000 0.000000 0.000000 0.000000 0.000000 0.000000 0.000000 0.000000 0.000000 0.000000 0.000000 0.000000 0.000000 0.000000 0.000000 0.000000 0.000000 0.000000 0.000000 0.000000 0.000000 0.000000 0.000000 0.000000 0.000000 0.000000 0.000000 0.000000 0.000000 0.000000 0.000000 0.000000
0.000000 0.000000 0.000000 0.000000 0.000000 0.000000 0.000000 0.000000 0.000000 0.000000 0.000000 0.000000 0.000000 0.000000 0.000000 0.000000 0.000000 0.000000 0.000000 0.000000 0.000000 0.000000 0.000000 0.000000 0.000000 0.000000 0.000000 0.000000 0.000000 0.000000 0.000000 0.000000 0.000000 0.000000 0.000000 0.000000 0.000000 0.000000 0.000000 0.000000 0.000000 0.000000 0.000000 0.000000 0.000000 0.000000 0.000000 0.000000 0.000000 0.000000 0.000000 0.000000 0.000000 0.000000 0.000000 0.000000 0.000000 0.000000 0.000000 0.000000 0.000000 0.000000 0.000000 0.000000 0.000000 0.000000 0.000000 0.000000 0.000000 0.000000 0.000000 0.000000 0.000000 0.000000 0.000000 0.000000 0.000000 0.000000 0.000000 0.000000 0.000000 0.000000 0.000000 0.000000 0.000000 0.000000 0.000000 0.000000 0.000000 0.000000 0.000000 0.000000 0.000000 0.000000 0.000000 0.000000 0.000000 0.000000 0.000000 0.000000 0.000000 0.000000 0.000000
0.000000 0.000000 0.000000 0.000000 0.000000 0.000000 0.000000 0.000000 0.000000 0.000000 0.000000 0.000000 0.000000 0.000000 0.000000 0.000000 0.000000 0.000000 0.000000 0.000000 0.000000 0.000000 0.000000 0.000000 0.000000 0.000000 0.000000 0.000000 0.000000 0.000000 0.000000 0.000000 0.000000 0.000000 0.000000 0.000000 0.000000 0.000000 0.000000 0.000000 0.000000 0.000000 0.000000 0.000000 0.000000 0.000000 0.000000 0.000000 0.000000 0.000000 0.000000 0.000000 0.000000 0.000000 0.000000 0.000000 0.000000 0.000000 0.000000 0.000000 0.000000 0.000000 0.000000 0.000000 0.000000 0.000000 0.000000 0.000000 0.000000 0.000000 0.000000 0.000000 0.000000 0.000000 0.000000 0.000000 0.000000 0.000000 0.000000 0.000000 0.000000 0.000000 0.000000 0.000000 0.000000 0.000000 0.000000 0.000000 0.000000 0.000000 0.000000 0.000000 0.000000 0.000000 0.000000 0.000000 0.000000 0.000000 0.000000 0.000000 0.000000 0.000000 0.000000
0.000000 0.000000 0.000000 0.000000 0.000000 0.000000 0.000000 0.000000 0.000000 0.000000 0.000000 0.000000 0.000000 0.000000 0.000000 0.000000 0.000000 0.000000 0.000000 0.000000 0.000000 0.000000 0.000000 0.000000 0.000000 0.000000 0.000000 0.000000 0.000000 0.000000 0.000000 0.000000 0.000000 0.000000 0.000000 0.000000 0.000000 0.000000 0.000000 0.000000 0.000000 0.000000 0.000000 0.000000 0.000000 0.000000 0.000000 0.000000 0.000000 0.000000 0.000000 0.000000 0.000000 0.000000 0.000000 0.000000 0.000000 0.000000 0.000000 0.000000 0.000000 0.000000 0.000000 0.000000 0.000000 0.000000 0.000000 0.000000 0.000000 0.000000 0.000000 0.000000 0.000000 0.000000 0.000000 0.000000 0.000000 0.000000 0.000000 0.000000 0.000000 0.000000 0.000000 0.000000 0.000000 0.000000 0.000000 0.000000 0.000000 0.000000 0.000000 0.000000 0.000000 0.000000 0.000000 0.000000 0.000000 0.000000 0.000000 0.000000 0.000000 0.000000 0.000000
0.000000 0.000000 0.000000 0.000000 0.000000 0.000000 0.000000 0.000000 0.000000 0.000000 0.000000 0.000000 0.000000 0.000000 0.000000 0.000000 0.000000 0.000000 0.000000 0.000000 0.000000 0.000000 0.000000 0.000000 0.000000 0.000000 0.000000 0.000000 0.000000 0.000000 0.000000 0.000000 0.000000 0.000000 0.000000 0.000000 0.000000 0.000000 0.000000 0.000000 0.000000 0.000000 0.000000 0.000000 0.000000 0.000000 0.000000 0.000000 0.000000 0.000000 0.000000 0.000000 0.000000 0.000000 0.000000 0.000000 0.000000 0.000000 0.000000 0.000000 0.000000 0.000000 0.000000 0.000000 0.000000 0.000000 0.000000 0.000000 0.000000 0.000000 0.000000 0.000000 0.000000 0.000000 0.000000 0.000000 0.000000 0.000000 0.000000 0.000000 0.000000 0.000000 0.000000 0.000000 0.000000 0.000000 0.000000 0.000000 0.000000 0.000000 0.000000 0.000000 0.000000 0.000000 0.000000 0.000000 0.000000 0.000000 0.000000 0.000000 0.000000 0.000000 0.000000
0.000000 0.000000 0.000000 0.000000 0.000000 0.000000 0.000000 0.000000 0.000000 0.000000 0.000000 0.000000 0.000000 0.000000 0.000000 0.000000 0.000000 0.000000 0.000000 0.000000 0.000000 0.000000 0.000000 0.000000 0.000000 0.000000 0.000000 0.000000 0.000000 0.000000 0.000000 0.000000 0.000000 0.000000 0.000000 26.020642 26.020642 26.020642 26.020642 26.020642 26.020642 26.020642 26.020642 26.020642 0.000000 0.000000 0.000000 0.000000 0.000000 0.000000 0.000000 19.438750 19.438750 19.438750 19.438750 19.438750 19.438750 19.438750 0.000000 0.000000 0.000000 0.000000 0.000000 0.000000 0.000000 0.000000 0.000000 0.000000 0.000000 0.000000 0.000000 0.000000 0.000000 0.000000 0.000000 0.000000 0.000000 0.000000 0.000000 0.000000 0.000000 0.000000 0.000000 0.000000 0.000000 0.000000 0.000000 0.000000 0.000000 0.000000 0.000000 0.000000 0.000000 0.000000 0.000000 0.000000 0.000000 0.000000 0.000000 0.000000 0.000000 0.000000 0.000000
0.000000 0.000000 0.000000 0.000000 0.000000 0.000000 27.562902 27.562902 27.562902 27.562902 27.562902 27.562902 27.562902 27.562902 0.000000 0.000000 0.000000 0.000000 36.945390 36.945390 36.945390 36.945390 36.945390 36.945390 36.945390 36.945390 36.945390 36.945390 0.000000 0.000000 0.000000 0.000000 0.000000 0.000000 0.000000 26.020642 26.020642 26.020642 26.020642 26.020642 26.020642 26.020642 26.020642 26.020642 0.000000 0.000000 0.000000 0.000000 0.000000 0.000000 0.000000 19.438750 19.438750 19.438750 19.438750 19.438750 19.438750 19.438750 0.000000 0.000000 0.000000 0.000000 0.000000 0.000000 46.892700 46.892700 46.892700 46.892700 46.892700 46.892700 46.892700 46.892700 46.892700 46.892700 46.892700 46.892700 46.892700 46.892700 0.000000 0.000000 0.000000 0.000000 0.000000 0.000000 0.000000 0.000000 0.000000 0.000000 0.000000 0.000000 0.000000 0.000000 0.000000 0.000000 0.000000 0.000000 0.000000 0.000000 0.000000 0.000000 0.000000 0.000000 0.000000
0.000000 0.000000 0.000000 0.000000 0.000000 0.000000 27.562902 27.562902 27.562902 27.562902 27.562902 27.562902 27.562902 27.562902 0.000000 0.000000 0.000000 0.000000 36.945390 36.945390 36.945390 36.945390 36.945390 36.945390 36.945390 36.945390 36.945390 36.945390 0.000000 0.000000 0.000000 0.000000 0.000000 0.000000 0.000000 26.020642 26.020642 26.020642 26.020642 26.020642 26.020642 26.020642 26.020642 26.020642 0.000000 0.000000 0.000000 0.000000 0.000000 0.000000 0.000000 19.438750 19.438750 19.438750 19.438750 19.438750 19.438750 19.438750 0.000000 0.000000 0.000000 0.000000 0.000000 0.000000 46.892700 46.892700 46.892700 46.892700 46.892700 46.892700 46.892700 46.892700 46.892700 46.892700 46.892700 46.892700 46.892700 46.892700 0.000000 0.000000 0.000000 0.000000 0.000000 0.000000 0.000000 0.000000 0.000000 0.000000 0.000000 0.000000 0.000000 0.000000 0.000000 0.000000 0.000000 0.000000 0.000000 0.000000 0.000000 0.000000 0.000000 0.000000 0.000000
0.000000 0.000000 0.000000 0.000000 0.000000 0.000000 27.562902 27.562902 27.562902 27.562902 27.562902 27.562902 27.562902 27.562902 0.000000 0.000000 0.000000 0.000000 36.945390 36.945390 36.945390 36.945390 36.945390 36.945390 36.945390 36.945390 36.945390 36.945390 0.000000 0.000000 0.000000 0.000000 0.000000 0.000000 0.000000 26.020642 26.020642 26.020642 26.020642 26.020642 26.020642 26.020642 26.020642 26.020642 0.000000 0.000000 0.000000 0.000000 0.000000 0.000000 0.000000 19.438750 19.438750 19.438750 19.438750 19.438750 19.438750 19.438750 0.000000 0.000000 0.000000 0.000000 0.000000 0.000000 46.892700 46.892700 46.892700 46.892700 46.892700 46.892700 46.892700 46.892700 46.892700 46.892700 46.892700 46.892700 46.892700 46.892700 0.000000 0.000000 0.000000 0.000000 0.000000 0.000000 0.000000 0.000000 0.000000 0.000000 0.000000 0.000000 0.000000 0.000000 0.000000 0.000000 0.000000 0.000000 0.000000 0.000000 0.000000 0.000000 0.000000 0.000000 0.000000
0.000000 0.000000 0.000000 0.000000 0.000000 0.000000 27.562902 27.562902 27.562902 27.562902 27.562902 27.562902 27.562902 27.562902 0.000000 0.000000 0.000000 0.000000 36.945390 36.945390 36.945390 36.945390 36.945390 36.945390 36.945390 36.945390 36.945390 36.945390 0.000000 0.000000 0.000000 0.000000 0.000000 0.000000 0.000000 26.020642 26.020642 26.020642 26.020642 26.020642 26.020642 26.020642 26.020642 26.020642 0.000000 0.000000 0.000000 0.000000 0.000000 0.000000 0.000000 19.438750 19.438750 19.438750 19.438750 19.438750 19.438750 19.438750 0.000000 0.000000 0.000000 0.000000 0.000000 0.000000 46.892700 46.892700 46.892700 46.892700 46.892700 46.892700 46.892700 46.892700 46.892700 46.892700 46.892700 46.892700 46.892700 46.892700 0.000000 0.000000 0.000000 0.000000 0.000000 0.000000 0.000000 0.000000 0.000000 0.000000 0.000000 0.000000 0.000000 0.000000 0.000000 0.000000 0.000000 0.000000 0.000000 0.000000 0.000000 0.000000 0.000000 0.000000 0.000000
0.000000 0.000000 0.000000 0.000000 0.000000 0.000000 27.562902 27.562902 27.562902 27.562902 27.562902 27.562902 27.562902 27.562902 0.000000 0.000000 0.000000 0.000000 36.945390 36.945390 36.945390 36.945390 36.945390 36.945390 36.945390 36.945390 36.945390 36.945390 0.000000 0.000000 0.000000 0.000000 0.000000 0.000000 0.000000 26.020642 26.020642 26.020642 26.020642 26.020642 26.020642 26.020642 26.020642 26.020642 0.000000 0.000000 0.000000 0.000000 0.000000 0.000000 0.000000 19.438750 19.438750 19.438750 19.438750 19.438750 19.438750 19.438750 0.000000 0.000000 0.000000 0.000000 0.000000 0.000000 46.892700 46.892700 46.892700 46.892700 46.892700 46.892700 46.892700 46.892700 46.892700 46.892700 46.892700 46.892700 46.892700 46.892700 0.000000 0.000000 0.000000 0.000000 0.000000 0.000000 0.000000 0.000000 0.000000 0.000000 0.000000 0.000000 0.000000 0.000000 0.000000 0.000000 0.000000 0.000000 0.000000 0.000000 0.000000 0.000000 0.000000 0.000000 0.000000
0.000000 0.000000 0.000000 0.000000 0.000000 0.000000 27.562902 27.562902 27.562902 27.562902 27.562902 27.562902 27.562902 27.562902 0.000000 0.000000 0.000000 0.000000 36.945390 36.945390 36.945390 36.945390 36.945390 36.945390 36.945390 36.945390 36.945390 36.945390 0.000000 0.000000 0.000000 0.000000 0.000000 0.000000 0.000000 26.020642 26.020642 26.020642 26.020642 26.020642 26.020642 26.020642 26.020642 26.020642 0.000000 0.000000 0.000000 0.000000 0.000000 0.000000 0.000000 19.438750 19.438750 19.438750 19.438750 19.438750 19.438750 19.438750 0.000000 0.000000 0.000000 0.000000 0.000000 0.000000 46.892700 46.892700 46.892700 46.892700 46.892700 46.892700 46.892700 46.892700 46.892700 46.892700 46.892700 46.892700 46.892700 46.892700 0.000000 0.000000 0.000000 0.000000 0.000000 0.000000 0.000000 0.000000 0.000000 0.000000 0.000000 0.000000 0.000000 0.000000 0.000000 0.000000 0.000000 0.000000 0.000000 0.000000 0.000000 0.000000 0.000000 0.000000 0.000000
0.000000 0.000000 0.000000 0.000000 0.000000 0.000000 27.562902 27.562902 27.562902 27.562902 27.562902 27.562902 27.562902 27.562902 0.000000 0.000000 0.000000 0.000000 36.945390 36.945390 36.945390 36.945390 36.945390 36.945390 36.945390 36.945390 36.945390 36.945390 0.000000 0.000000 0.000000 0.000000 0.000000 0.000000 0.000000 26.020642 26.020642 26.020642 26.020642 26.020642 26.020642 26.020642 26.020642 26.020642 0.000000 0.000000 0.000000 0.000000 0.000000 0.000000 0.000000 19.438750 19.438750 19.438750 19.438750 19.438750 19.438750 19.438750 0.000000 0.000000 0.000000 0.000000 0.000000 0.000000 46.892700 46.892700 46.892700 46.892700 46.892700 46.892700 46.892700 46.892700 46.892700 46.892700 46.892700 46.892700 46.892700 46.892700 0.000000 0.000000 0.000000 0.000000 0.000000 0.000000 0.000000 0.000000 0.000000 0.000000 0.000000 0.000000 0.000000 0.000000 0.000000 0.000000 0.000000 0.000000 0.000000 0.000000 0.000000 0.000000 0.000000 0.000000 0.000000
0.000000 0.000000 0.000000 0.000000 0.000000 0.000000 27.562902 27.562902 27.562902 27.562902 27.562902 27.562902 27.562902 27.562902 0.000000 0.000000 0.000000 0.000000 36.945390 36.945390 36.945390 36.945390 36.945390 36.945390 36.945390 36.945390 36.945390 36.945390 0.000000 0.000000 0.000000 0.000000 0.000000 0.000000 0.000000 26.020642 26.020642 26.020642 26.020642 26.020642 26.020642 26.020642 26.020642 26.020642 0.000000 0.000000 0.000000 0.000000 0.000000 0.000000 0.000000 19.438750 19.438750 19.438750 19.438750 19.438750 19.438750 19.438750 0.000000 0.000000 0.000000 0.000000 0.000000 0.000000 46.892700 46.892700 46.892700 46.892700 46.892700 46.892700 46.892700 46.892700 46.892700 46.892700 46.892700 46.892700 46.892700 46.892700 0.000000 0.000000 0.000000 0.000000 0.000000 0.000000 0.000000 0.000000 0.000000 0.000000 0.000000 0.000000 0.000000 0.000000 0.000000 0.000000 0.000000 0.000000 0.000000 0.000000 0.000000 0.000000 0.000000 0.000000 0.000000
0.000000 0.000000 0.000000 0.000000 0.000000 0.000000 27.562902 27.562902 27.562902 27.562902 27.562902 27.562902 27.562902 27.562902 0.000000 0.000000 0.000000 0.000000 36.945390 36.945390 36.945390 36.945390 36.945390 36.945390 36.945390 36.945390 36.945390 36.945390 0.000000 0.000000 0.000000 0.000000 0.000000 0.000000 0.000000 26.020642 26.020642 26.020642 26.020642 26.020642 26.020642 26.020642 26.020642 26.020642 0.000000 0.000000 0.000000 0.000000 0.000000 0.000000 0.000000 19.438750 19.438750 19.438750 19.438750 19.438750 19.438750 19.438750 0.000000 0.000000 0.000000 0.000000 0.000000 0.000000 46.892700 46.892700 46.892700 46.892700 46.892700 46.892700 46.892700 46.892700 46.892700 46.892700 46.892700 46.892700 46.892700 46.892700 0.000000 0.000000 0.000000 0.000000 0.000000 0.000000 0.000000 0.000000 0.000000 0.000000 0.000000 0.000000 0.000000 0.000000 0.000000 0.000000 0.000000 0.000000 0.000000 0.000000 0.000000 0.000000 0.000000 0.000000 0.000000
0.000000 0.000000 0.000000 0.000000 0.000000 0.000000 27.562902 27.562902 27.562902 27.562902 27.562902 27.562902 27.562902 27.562902 0.000000 0.000000 0.000000 0.000000 36.945390 36.945390 36.945390 36.945390 36.945390 36.945390 36.945390 36.945390 36.945390 36.945390 0.000000 0.000000 0.000000 0.000000 0.000000 0.000000 0.000000 26.020642 26.020642 26.020642 26.020642 26.020642 26.020642 26.020642 26.020642 26.020642 0.000000 0.000000 0.000000 0.000000 0.000000 0.000000 0.000000 19.438750 19.438750 19.438750 19.438750 19.438750 19.438750 19.438750 0.000000 0.000000 0.000000 0.000000 0.000000 0.000000 46.892700 46.892700 46.892700 46.892700 46.892700 46.892700 46.892700 46.892700 46.892700 46.892700 46.892700 46.892700 46.892700 46.892700 0.000000 0.000000 0.000000 0.000000 0.000000 0.000000 0.000000 0.000000 0.000000 0.000000 0.000000 0.000000 0.000000 0.000000 0.000000 0.000000 0.000000 0.000000 0.000000 0.000000 0.000000 0.000000 0.000000 0.000000 0.000000
0.000000 0.000000 0.000000 0.000000 0.000000 0.000000 27.562902 27.562902 27.562902 27.562902 27.562902 27.562902 27.562902 27.562902 0.000000 0.000000 0.000000 0.000000 36.945390 36.945390 36.945390 36.945390 36.945390 36.945390 36.945390 36.945390 36.945390 36.945390 0.000000 0.000000 0.000000 0.000000 0.000000 0.000000 0.000000 14.248568 14.248568 14.248568 14.248568 14.248568 14.248568 14.248568 14.248568 14.248568 0.000000 0.000000 0.000000 0.000000 0.000000 0.000000 0.000000 10.644409 10.644409 10.644409 10.644409 10.644409 10.644409 10.644409 0.000000 0.000000 0.000000 0.000000 0.000000 0.000000 46.892700 46.892700 46.892700 46.892700 46.892700 46.892700 46.892700 46.892700 46.892700 46.892700 46.892700 46.892700 46.892700 46.892700 0.000000 0.000000 0.000000 0.000000 0.000000 0.000000 0.000000 0.000000 0.000000 0.000000 0.000000 0.000000 0.000000 0.000000 0.000000 0.000000 0.000000 0.000000 0.000000 0.000000 0.000000 0.000000 0.000000 0.000000 0.000000
0.000000 0.000000 0.000000 0.000000 0.000000 0.000000 27.562902 27.562902 27.562902 27.562902 27.562902 27.562902 27.562902 27.562902 0.000000 0.000000 0.000000 0.000000 36.945390 36.945390 36.945390 36.945390 36.945390 36.945390 36.945390 36.945390 36.945390 36.945390 0.000000 0.000000 0.000000 0.000000 0.000000 0.000000 0.000000 14.248568 14.248568 14.248568 14.248568 14.248568 14.248568 14.248568 14.248568 14.248568 0.000000 0.000000 0.000000 0.000000 0.000000 0.000000 0.000000 10.644409 10.644409 10.644409 10.644409 10.644409 10.644409 10.644409 0.000000 0.000000 0.000000 0.000000 0.000000 0.000000 46.892700 46.892700 46.892700 46.892700 46.892700 46.892700 46.892700 46.892700 46.892700 46.892700 46.892700 46.892700 46.892700 46.892700 0.000000 0.000000 0.000000 0.000000 0.000000 0.000000 0.000000 0.000000 0.000000 0.000000 0.000000 0.000000 0.000000 0.000000 0.000000 0.000000 0.000000 0.000000 0.000000 0.000000 0.000000 0.000000 0.000000 0.000000 0.000000
0.000000 0.000000 0.000000 0.000000 0.000000 0.000000 27.562902 27.562902 27.562902 27.562902 27.562902 27.562902 27.562902 27.562902 0.000000 0.000000 0.000000 0.000000 36.945390 36.945390 36.945390 36.945390 36.945390 36.945390 36.945390 36.945390 36.945390 36.945390 0.000000 0.000000 0.000000 0.000000 0.000000 0.000000 0.000000 14.248568 14.248568 14.248568 14.248568 14.248568 14.248568 14.248568 14.248568 14.248568 0.000000 0.000000 0.000000 0.000000 0.000000 0.000000 0.000000 10.644409 10.644409 10.644409 10.644409 10.644409 10.644409 10.644409 0.000000 0.000000 0.000000 0.000000 0.000000 0.000000 46.892700 46.892700 46.892700 46.892700 46.892700 46.892700 46.892700 46.892700 46.892700 46.892700 46.892700 46.892700 46.892700 46.892700 0.000000 0.000000 0.000000 0.000000 0.000000 0.000000 0.000000 0.000000 0.000000 0.000000 0.000000 0.000000 0.000000 0.000000 0.000000 0.000000 0.000000 0.000000 0.000000 0.000000 0.000000 0.000000 0.000000 0.000000 0.000000
0.000000 0.000000 0.000000 0.000000 0.000000 0.000000 27.562902 27.562902 27.562902 27.562902 27.562902 27.562902 27.562902 27.562902 0.000000 0.000000 0.000000 0.000000 36.945390 36.945390 36.945390 36.945390 36.945390 36.945390 36.945390 36.945390 36.945390 36.945390 0.000000 0.000000 0.000000 0.000000 0.000000 0.000000 0.000000 14.248568 14.248568 14.248568 14.248568 14.248568 14.248568 14.248568 14.248568 14.248568 0.000000 0.000000 0.000000 0.000000 0.000000 0.000000 0.000000 10.644409 10.644409 10.644409 10.644409 10.644409 10.644409 10.644409 0.000000 0.000000 0.000000 0.000000 0.000000 0.000000 46.892700 46.892700 46.892700 46.892700 46.892700 46.892700 46.892700 46.892700 46.892700 46.892700 46.892700 46.892700 46.892700 46.892700 0.000000 0.000000 0.000000 0.000000 0.000000 0.000000 0.000000 0.000000 0.000000 0.000000 0.000000 0.000000 0.000000 0.000000 0.000000 0.000000 0.000000 0.000000 0.000000 0.000000 0.000000 0.000000 0.000000 0.000000 0.000000
0.000000 0.000000 0.000000 0.000000 0.000000 0.000000 27.562902 27.562902 27.562902 27.562902 27.562902 27.562902 27.562902 27.562902 0.000000 0.000000 0.000000 0.000000 36.945390 36.945390 36.945390 36.945390 36.945390 36.945390 36.945390 36.945390 36.945390 36.945390 0.000000 0.000000 0.000000 0.000000 0.000000 0.000000 0.000000 14.248568 14.248568 14.248568 14.248568 14.248568 14.248568 14.248568 14.248568 14.248568 0.000000 0.000000 0.000000 0.000000 0.000000 0.000000 0.000000 10.644409 10.644409 10.644409 10.644409 10.644409 10.644409 10.644409 0.000000 0.000000 0.000000 0.000000 0.000000 0.000000 46.892700 46.892700 46.892700 46.892700 46.892700 46.892700 46.892700 46.892700 46.892700 46.892700 46.892700 46.892700 46.892700 46.892700 0.000000 0.000000 0.000000 0.000000 0.000000 0.000000 0.000000 0.000000 0.000000 0.000000 0.000000 0.000000 0.000000 0.000000 0.000000 0.000000 0.000000 0.000000 0.000000 0.000000 0.000000 0.000000 0.000000 0.000000 0.000000
0.000000 0.000000 0.000000 0.000000 0.000000 0.000000 0.000000 0.000000 0.000000 0.000000 0.000000 0.000000 0.000000 0.000000 0.000000 0.000000 0.000000 0.000000 0.000000 0.000000 0.000000 0.000000 0.000000 0.000000 0.000000 0.000000 0.000000 0.000000 0.000000 0.000000 0.000000 0.000000 0.000000 0.000000 0.000000 14.248568 14.248568 14.248568 14.248568 14.248568 14.248568 14.248568 14.248568 14.248568 0.000000 0.000000 0.000000 0.000000 0.000000 0.000000 0.000000 10.644409 10.644409 10.644409 10.644409 10.644409 10.644409 10.644409 0.000000 0.000000 0.000000 0.000000 0.000000 0.000000 0.000000 0.000000 0.000000 0.000000 0.000000 0.000000 0.000000 0.000000 0.000000 0.000000 0.000000 0.000000 0.000000 0.000000 0.000000 0.000000 0.000000 0.000000 0.000000 0.000000 0.000000 0.000000 0.000000 0.000000 0.000000 0.000000 0.000000 0.000000 0.000000 0.000000 0.000000 0.000000 0.000000 0.000000 0.000000 0.000000 0.000000 0.000000 0.000000
0.000000 0.000000 0.000000 0.000000 0.000000 0.000000 0.000000 0.000000 0.000000 0.000000 0.000000 0.000000 0.000000 0.000000 0.000000 0.000000 0.000000 0.000000 0.000000 0.000000 0.000000 0.000000 0.000000 0.000000 0.000000 0.000000 0.000000 0.000000 0.000000 0.000000 0.000000 0.000000 0.000000 0.000000 0.000000 14.248568 14.248568 14.248568 14.248568 14.248568 14.248568 14.248568 14.248568 14.248568 0.000000 0.000000 0.000000 0.000000 0.000000 0.000000 0.000000 10.644409 10.644409 10.644409 10.644409 10.644409 10.644409 10.644409 0.000000 0.000000 0.000000 0.000000 0.000000 0.000000 0.000000 0.000000 0.000000 0.000000 0.000000 0.000000 0.000000 0.000000 0.000000 0.000000 0.000000 0.000000 0.000000 0.000000 0.000000 0.000000 0.000000 0.000000 0.000000 0.000000 0.000000 0.000000 0.000000 0.000000 0.000000 0.000000 0.000000 0.000000 0.000000 0.000000 0.000000 0.000000 0.000000 0.000000 0.000000 0.000000 0.000000 0.000000 0.000000
0.000000 0.000000 0.000000 0.000000 0.000000 0.000000 0.000000 0.000000 0.000000 0.000000 0.000000 0.000000 0.000000 0.000000 0.000000 0.000000 0.000000 0.000000 0.000000 0.000000 0.000000 0.000000 0.000000 0.000000 0.000000 0.000000 0.000000 0.000000 0.000000 0.000000 0.000000 0.000000 0.000000 0.000000 0.000000 0.000000 0.000000 0.000000 0.000000 0.000000 0.000000 0.000000 0.000000 0.000000 0.000000 0.000000 0.000000 0.000000 0.000000 0.000000 0.000000 0.000000 0.000000 0.000000 0.000000 0.000000 0.000000 0.000000 0.000000 0.000000 0.000000 0.000000 0.000000 0.000000 0.000000 0.000000 0.000000 0.000000 0.000000 0.000000 0.000000 0.000000 0.000000 0.000000 0.000000 0.000000 0.000000 0.000000 0.000000 0.000000 0.000000 0.000000 0.000000 0.000000 0.000000 0.000000 0.000000 0.000000 0.000000 0.000000 0.000000 0.000000 0.000000 0.000000 0.000000 0.000000 0.000000 0.000000 0.000000 0.000000 0.000000 0.000000 0.000000
0.000000 0.000000 0.000000 0.000000 0.000000 0.000000 0.000000 0.000000 0.000000 0.000000 0.000000 0.000000 0.000000 0.000000 0.000000 0.000000 0.000000 0.000000 0.000000 0.000000 0.000000 0.000000 0.000000 0.000000 0.000000 0.000000 0.000000 0.000000 0.000000 0.000000 0.000000 0.000000 0.000000 0.000000 0.000000 0.000000 0.000000 0.000000 0.000000 0.000000 0.000000 0.000000 0.000000 0.000000 0.000000 0.000000 0.000000 0.000000 0.000000 0.000000 0.000000 0.000000 0.000000 0.000000 0.000000 0.000000 0.000000 0.000000 0.000000 0.000000 0.000000 0.000000 0.000000 0.000000 0.000000 0.000000 0.000000 0.000000 0.000000 0.000000 0.000000 0.000000 0.000000 0.000000 0.000000 0.000000 0.000000 0.000000 0.000000 0.000000 0.000000 0.000000 0.000000 0.000000 0.000000 0.000000 0.000000 0.000000 0.000000 0.000000 0.000000 0.000000 0.000000 0.000000 0.000000 0.000000 0.000000 0.000000 0.000000 0.000000 0.000000 0.000000 0.000000
0.000000 0.000000 0.000000 0.000000 0.000000 0.000000 0.000000 0.000000 0.000000 0.000000 0.000000 0.000000 0.000000 0.000000 0.000000 0.000000 0.000000 0.000000 0.000000 0.000000 0.000000 0.000000 0.000000 0.000000 0.000000 0.000000 0.000000 0.000000 0.000000 0.000000 0.000000 0.000000 0.000000 0.000000 0.000000 0.000000 0.000000 0.000000 0.000000 0.000000 0.000000 0.000000 0.000000 0.000000 0.000000 0.000000 0.000000 0.000000 0.000000 0.000000 0.000000 0.000000 0.000000 0.000000 0.000000 0.000000 0.000000 0.000000 0.000000 0.000000 0.000000 0.000000 0.000000 0.000000 0.000000 0.000000 0.000000 0.000000 0.000000 0.000000 0.000000 0.000000 0.000000 0.000000 0.000000 0.000000 0.000000 0.000000 0.000000 0.000000 0.000000 0.000000 0.000000 0.000000 0.000000 0.000000 0.000000 0.000000 0.000000 0.000000 0.000000 0.000000 0.000000 0.000000 0.000000 0.000000 0.000000 0.000000 0.000000 0.000000 0.000000 0.000000 0.000000
0.000000 0.000000 0.000000 0.000000 0.000000 0.000000 0.000000 0.000000 0.000000 0.000000 0.000000 0.000000 0.000000 0.000000 0.000000 0.000000 0.000000 0.000000 0.000000 0.000000 0.000000 0.000000 0.000000 0.000000 0.000000 0.000000 0.000000 0.000000 0.000000 0.000000 0.000000 0.000000 0.000000 0.000000 0.000000 0.000000 0.000000 0.000000 0.000000 0.000000 0.000000 0.000000 0.000000 0.000000 0.000000 0.000000 0.000000 0.000000 0.000000 0.000000 0.000000 0.000000 0.000000 0.000000 0.000000 0.000000 0.000000 0.000000 0.000000 0.000000 0.000000 0.000000 0.000000 0.000000 0.000000 0.000000 0.000000 0.000000 0.000000 0.000000 0.000000 0.000000 0.000000 0.000000 0.000000 0.000000 0.000000 0.000000 0.000000 0.000000 0.000000 0.000000 0.000000 0.000000 0.000000 0.000000 0.000000 0.000000 0.000000 0.000000 0.000000 0.000000 0.000000 0.000000 0.000000 0.000000 0.000000 0.000000 0.000000 0.000000 0.000000 0.000000 0.000000
0.000000 0.000000 0.000000 0.000000 0.000000 0.000000 0.000000 0.000000 0.000000 0.000000 0.000000 0.000000 0.000000 0.000000 0.000000 0.000000 0.000000 0.000000 0.000000 0.000000 0.000000 0.000000 0.000000 0.000000 0.000000 0.000000 0.000000 0.000000 0.000000 0.000000 0.000000 0.000000 0.000000 0.000000 0.000000 0.000000 0.000000 0.000000 0.000000 0.000000 0.000000 0.000000 0.000000 0.000000 0.000000 0.000000 0.000000 0.000000 0.000000 0.000000 0.000000 0.000000 0.000000 0.000000 0.000000 0.000000 0.000000 0.000000 0.000000 0.000000 0.000000 0.000000 0.000000 0.000000 0.000000 0.000000 0.000000 0.000000 0.000000 0.000000 0.000000 0.000000 0.000000 0.000000 0.000000 0.000000 0.000000 0.000000 0.000000 0.000000 0.000000 0.000000 0.000000 0.000000 0.000000 0.000000 0.000000 0.000000 0.000000 0.000000 0.000000 0.000000 0.000000 0.000000 0.000000 0.000000 0.000000 0.000000 0.000000 0.000000 0.000000 0.000000 0.000000
0.000000 0.000000 0.000000 0.000000 0.000000 0.000000 0.000000 0.000000 0.000000 0.000000 0.000000 0.000000 0.000000 0.000000 0.000000 0.000000 0.000000 0.000000 0.000000 0.000000 0.000000 21.610534 21.610534 21.610534 21.610534 21.610534 21.610534 21.610534 21.610534 21.610534 0.000000 0.000000 0.000000 0.000000 0.000000 18.187906 18.187906 18.187906 18.187906 18.187906 18.187906 18.187906 18.187906 17.240992 17.240992 17.240992 17.240992 17.240992 17.240992 17.240992 18.037531 18.037531 18.037531 18.037531 18.037531 18.037531 18.037531 18.037531 0.000000 0.000000 0.000000 0.000000 0.000000 17.247577 17.247577 17.247577 17.247577 17.247577 17.247577 17.247577 23.860867 23.860867 23.860867 23.860867 23.860867 23.860867 23.860867 23.860867 23.860867 23.860867 0.000000 0.000000 0.000000 0.000000 0.000000 0.000000 0.000000 0.000000 0.000000 0.000000 0.000000 0.000000 0.000000 0.000000 0.000000 0.000000 0.000000 0.000000 0.000000 0.000000 0.000000 0.000000 0.000000
0.000000 0.000000 0.000000 0.000000 0.000000 0.000000 0.000000 0.000000 0.000000 0.000000 0.000000 0.000000 0.000000 0.000000 0.000000 0.000000 0.000000 0.000000 0.000000 0.000000 0.000000 21.610534 21.610534 21.610534 21.610534 21.610534 21.610534 21.610534 21.610534 21.610534 0.000000 0.000000 0.000000 0.000000 0.000000 18.187906 18.187906 18.187906 18.187906 18.187906 18.187906 18.187906 18.187906 17.240992 17.240992 17.240992 17.240992 17.240992 17.240992 17.240992 18.037531 18.037531 18.037531 18.037531 18.037531 18.037531 18.037531 18.037531 0.000000 0.000000 0.000000 0.000000 0.000000 17.247577 17.247577 17.247577 17.247577 17.247577 17.247577 17.247577 23.860867 23.860867 23.860867 23.860867 23.860867 23.860867 23.860867 23.860867 23.860867 23.860867 0.000000 0.000000 0.000000 0.000000 0.000000 0.000000 0.000000 0.000000 0.000000 0.000000 0.000000 0.000000 0.000000 0.000000 0.000000 0.000000 0.000000 0.000000 0.000000 0.000000 0.000000 0.000000 0.000000
0.000000 0.000000 0.000000 0.000000 0.000000 0.000000 0.000000 0.000000 0.000000 0.000000 0.000000 0.000000 0.000000 0.000000 0.000000 0.000000 0.000000 0.000000 0.000000 0.000000 0.000000 21.610534 21.610534 21.610534 21.610534 21.610534 21.610534 21.610534 21.610534 21.610534 0.000000 0.000000 0.000000 0.000000 0.000000 18.187906 18.187906 18.187906 18.187906 18.187906 18.187906 18.187906 18.187906 17.240992 17.240992 17.240992 17.240992 17.240992 17.240992 17.240992 18.037531 18.037531 18.037531 18.037531 18.037531 18.037531 18.037531 18.037531 0.000000 0.000000 0.000000 0.000000 0.000000 17.247577 17.247577 17.247577 17.247577 17.247577 17.247577 17.247577 23.860867 23.860867 23.860867 23.860867 23.860867 23.860867 23.860867 23.860867 23.860867 23.860867 0.000000 0.000000 0.000000 0.000000 0.000000 0.000000 0.000000 16.004604 16.004604 16.004604 16.004604 16.004604 16.004604 16.004604 16.004604 16.004604 16.004604 0.000000 0.000000 0.000000 0.000000 0.000000 0.000000
0.000000 0.000000 0.000000 0.000000 0.000000 0.000000 0.000000 0.000000 0.000000 0.000000 0.000000 0.000000 0.000000 0.000000 0.000000 0.000000 0.000000 0.000000 0.000000 0.000000 0.000000 21.610534 21.610534 21.610534 21.610534 21.610534 21.610534 21.610534 21.610534 21.610534 0.000000 0.000000 0.000000 0.000000 0.000000 18.187906 18.187906 18.187906 18.187906 18.187906 18.187906 18.187906 18.187906 17.240992 17.240992 17.240992 17.240992 17.240992 17.240992 17.240992 18.037531 18.037531 18.037531 18.037531 18.037531 18.037531 18.037531 18.037531 0.000000 0.000000 0.000000 0.000000 0.000000 17.247577 17.247577 17.247577 17.247577 17.247577 17.247577 17.247577 23.860867 23.860867 23.860867 23.860867 23.860867 23.860867 23.860867 23.860867 23.860867 23.860867 0.000000 0.000000 0.000000 0.000000 0.000000 0.000000 0.000000 16.004604 16.004604 16.004604 16.004604 16.004604 16.004604 16.004604 16.004604 16.004604 16.004604 0.000000 0.000000 0.000000 0.000000 0.000000 0.000000
0.000000 0.000000 0.000000 0.000000 0.000000 0.000000 0.000000 0.000000 0.000000 0.000000 0.000000 0.000000 0.000000 0.000000 0.000000 0.000000 0.000000 0.000000 0.000000 0.000000 0.000000 21.610534 21.610534 21.610534 21.610534 21.610534 21.610534 21.610534 21.610534 21.610534 0.000000 0.000000 0.000000 0.000000 0.000000 18.187906 18.187906 18.187906 18.187906 18.187906 18.187906 18.187906 18.187906 17.240992 17.240992 17.240992 17.240992 17.240992 17.240992 17.240992 18.037531 18.037531 18.037531 18.037531 18.037531 18.037531 18.037531 18.037531 0.000000 0.000000 0.000000 0.000000 0.000000 17.247577 17.247577 17.247577 17.247577 17.247577 17.247577 17.247577 23.860867 23.860867 23.860867 23.860867 23.860867 23.860867 23.860867 23.860867 23.860867 23.860867 0.000000 0.000000 0.000000 0.000000 0.000000 0.000000 0.000000 16.004604 16.004604 16.004604 16.004604 16.004604 16.004604 16.004604 16.004604 16.004604 16.004604 0.000000 0.000000 0.000000 0.000000 0.000000 0.000000
0.000000 0.000000 0.000000 0.000000 0.000000 0.000000 0.000000 0.000000 0.000000 0.000000 0.000000 0.000000 0.000000 0.000000 0.000000 0.000000 0.000000 0.000000 0.000000 0.000000 0.000000 21.610534 21.610534 21.610534 21.610534 21.610534 21.610534 21.610534 21.610534 21.610534 0.000000 0.000000 0.000000 0.000000 0.000000 18.187906 18.187906 18.187906 18.187906 18.187906 18.187906 18.187906 18.187906 17.240992 17.240992 17.240992 17.240992 17.240992 17.240992 17.240992 18.037531 18.037531 18.037531 18.037531 18.037531 18.037531 18.037531 18.037531 0.000000 0.000000 0.000000 0.000000 0.000000 17.247577 17.247577 17.247577 17.247577 17.247577 17.247577 17.247577 23.860867 23.860867 23.860867 23.860867 23.860867 23.860867 23.860867 23.860867 23.860867 23.860867 0.000000 0.000000 0.000000 0.000000 0.000000 0.000000 0.000000 16.004604 16.004604 16.004604 16.004604 16.004604 16.004604 16.004604 16.004604 16.004604 16.004604 0.000000 0.000000 0.000000 0.000000 0.000000 0.000000
0.000000 0.000000 0.000000 0.000000 0.000000 0.000000 0.000000 0.000000 0.000000 0.000000 0.000000 0.000000 0.000000 0.000000 0.000000 0.000000 0.000000 0.000000 0.000000 0.000000 0.000000 21.610534 21.610534 21.610534 21.610534 21.610534 21.610534 21.610534 21.610534 21.610534 0.000000 0.000000 0.000000 0.000000 0.000000 18.187906 18.187906 18.187906 18.187906 18.187906 18.187906 18.187906 18.187906 17.240992 17.240992 17.240992 17.240992 17.240992 17.240992 17.240992 18.037531 18.037531 18.037531 18.037531 18.037531 18.037531 18.037531 18.037531 0.000000 0.000000 0.000000 0.000000 0.000000 17.247577 17.247577 17.247577 17.247577 17.247577 17.247577 17.247577 23.860867 23.860867 23.860867 23.860867 23.860867 23.860867 23.860867 23.860867 23.860867 23.860867 0.000000 0.000000 0.000000 0.000000 0.000000 0.000000 0.000000 16.004604 16.004604 16.004604 16.004604 16.004604 16.004604 16.004604 16.004604 16.004604 16.004604 0.000000 0.000000 0.000000 0.000000 0.000000 0.000000
0.000000 0.000000 0.000000 0.000000 0.000000 0.000000 0.000000 0.000000 0.000000 0.000000 0.000000 0.000000 0.000000 0.000000 0.000000 0.000000 0.000000 0.000000 0.000000 0.000000 0.000000 21.610534 21.610534 21.610534 21.610534 21.610534 21.610534 21.610534 21.610534 21.610534 0.000000 0.000000 0.000000 0.000000 0.000000 18.187906 18.187906 18.187906 18.187906 18.187906 18.187906 18.187906 18.187906 17.240992 17.240992 17.240992 17.240992 17.240992 17.240992 17.240992 18.037531 18.037531 18.037531 18.037531 18.037531 18.037531 18.037531 18.037531 0.000000 0.000000 0.000000 0.000000 0.000000 17.247577 17.247577 17.247577 17.247577 17.247577 17.247577 17.247577 23.860867 23.860867 23.860867 23.860867 23.860867 23.860867 23.860867 23.860867 23.860867 23.860867 0.000000 0.000000 0.000000 0.000000 0.000000 0.000000 0.000000 16.004604 16.004604 16.004604 16.004604 16.004604 16.004604 16.004604 16.004604 16.004604 16.004604 0.000000 0.000000 0.000000 0.000000 0.000000 0.000000
0.000000 0.000000 0.000000 0.000000 0.000000 0.000000 0.000000 0.000000 0.000000 0.000000 0.000000 0.000000 0.000000 0.000000 0.000000 0.000000 0.000000 0.000000 0.000000 0.000000 0.000000 21.610534 21.610534 21.610534 21.610534 21.610534 21.610534 21.610534 21.610534 21.610534 0.000000 0.000000 0.000000 0.000000 0.000000 18.187906 18.187906 18.187906 18.187906 18.187906 18.187906 18.187906 18.187906 17.240992 17.240992 17.240992 17.240992 17.240992 17.240992 17.240992 18.037531 18.037531 18.037531 18.037531 18.037531 18.037531 18.037531 18.037531 0.000000 0.000000 0.000000 0.000000 0.000000 17.247577 17.247577 17.247577 17.247577 17.247577 17.247577 17.247577 23.860867 23.860867 23.860867 23.860867 23.860867 23.860867 23.860867 23.860867 23.860867 23.860867 0.000000 0.000000 0.000000 0.000000 0.000000 0.000000 0.000000 0.000000 0.000000 0.000000 0.000000 0.000000 0.000000 0.000000 0.000000 0.000000 0.000000 0.000000 0.000000 0.000000 0.000000 0.000000 0.000000
0.000000 0.000000 0.000000 0.000000 0.000000 0.000000 0.000000 0.000000 0.000000 0.000000 0.000000 0.000000 0.000000 0.000000 0.000000 0.000000 0.000000 0.000000 0.000000 0.000000 0.000000 21.610534 21.610534 21.610534 21.610534 21.610534 21.610534 21.610534 21.610534 21.610534 0.000000 0.000000 0.000000 0.000000 0.000000 18.187906 18.187906 18.187906 18.187906 18.187906 18.187906 18.187906 18.187906 17.240992 17.240992 17.240992 17.240992 17.240992 17.240992 17.240992 18.037531 18.037531 18.037531 18.037531 18.037531 18.037531 18.037531 18.037531 0.000000 0.000000 0.000000 0.000000 0.000000 17.247577 17.247577 17.247577 17.247577 17.247577 17.247577 17.247577 23.860867 23.860867 23.860867 23.860867 23.860867 23.860867 23.860867 23.860867 23.860867 23.860867 0.000000 0.000000 0.000000 0.000000 0.000000 0.000000 0.000000 0.000000 0.000000 0.000000 0.000000 0.000000 0.000000 0.000000 0.000000 0.000000 0.000000 0.000000 0.000000 0.000000 0.000000 0.000000 0.000000
0.000000 0.000000 0.000000 0.000000 0.000000 0.000000 0.000000 0.000000 0.000000 0.000000 0.000000 0.000000 0.000000 0.000000 0.000000 0.000000 0.000000 0.000000 0.000000 0.000000 0.000000 0.000000 0.000000 0.000000 0.000000 0.000000 0.000000 0.000000 0.000000 0.000000 0.000000 0.000000 0.000000 0.000000 0.000000 0.000000 0.000000 0.000000 0.000000 0.000000 0.000000 0.000000 0.000000 0.000000 0.000000 0.000000 0.000000 0.000000 0.000000 0.000000 0.000000 0.000000 0.000000 0.000000 0.000000 0.000000 0.000000 0.000000 0.000000 0.000000 0.000000 0.000000 0.000000 0.000000 0.000000 0.000000 0.000000 0.000000 0.000000 0.000000 0.000000 0.000000 0.000000 0.000000 0.000000 0.000000 0.000000 0.000000 0.000000 0.000000 0.000000 0.000000 0.000000 0.000000 0.000000 0.000000 0.000000 0.000000 0.000000 0.000000 0.000000 0.000000 0.000000 0.000000 0.000000 0.000000 0.000000 0.000000 0.000000 0.000000 0.000000 0.000000 0.000000
0.000000 0.000000 0.000000 0.000000 0.000000 0.000000 0.000000 0.000000 0.000000 0.000000 0.000000 0.000000 0.000000 0.000000 0.000000 0.000000 0.000000 0.000000 0.000000 0.000000 0.000000 0.000000 0.000000 0.000000 0.000000 0.000000 0.000000 0.000000 0.000000 0.000000 0.000000 0.000000 0.000000 0.000000 0.000000 0.000000 0.000000 0.000000 0.000000 0.000000 0.000000 0.000000 0.000000 0.000000 0.000000 0.000000 0.000000 0.000000 0.000000 0.000000 0.000000 0.000000 0.000000 0.000000 0.000000 0.000000 0.000000 0.000000 0.000000 0.000000 0.000000 0.000000 0.000000 0.000000 0.000000 0.000000 0.000000 0.000000 0.000000 0.000000 0.000000 0.000000 0.000000 0.000000 0.000000 0.000000 0.000000 0.000000 0.000000 0.000000 0.000000 0.000000 0.000000 0.000000 0.000000 0.000000 0.000000 0.000000 0.000000 0.000000 0.000000 0.000000 0.000000 0.000000 0.000000 0.000000 0.000000 0.000000 0.000000 0.000000 0.000000 0.000000 0.000000
0.000000 0.000000 0.000000 0.000000 0.000000 0.000000 0.000000 0.000000 0.000000 0.000000 0.000000 0.000000 0.000000 0.000000 0.000000 0.000000 0.000000 0.000000 0.000000 0.000000 0.000000 0.000000 0.000000 0.000000 0.000000 0.000000 0.000000 0.000000 0.000000 0.000000 0.000000 0.000000 0.000000 0.000000 0.000000 0.000000 0.000000 0.000000 0.000000 0.000000 0.000000 0.000000 0.000000 0.000000 0.000000 0.000000 0.000000 0.000000 0.000000 0.000000 0.000000 0.000000 0.000000 0.000000 0.000000 0.000000 0.000000 0.000000 0.000000 0.000000 0.000000 0.000000 0.000000 0.000000 0.000000 0.000000 0.000000 0.000000 0.000000 0.000000 0.000000 0.000000 0.000000 0.000000 0.000000 0.000000 0.000000 0.000000 0.000000 0.000000 0.000000 0.000000 0.000000 0.000000 0.000000 0.000000 0.000000 0.000000 0.000000 0.000000 0.000000 0.000000 0.000000 0.000000 0.000000 0.000000 0.000000 0.000000 0.000000 0.000000 0.000000 0.000000 0.000000
0.000000 0.000000 0.000000 0.000000 0.000000 0.000000 0.000000 0.000000 0.000000 0.000000 0.000000 0.000000 0.000000 0.000000 0.000000 0.000000 0.000000 0.000000 0.000000 0.000000 0.000000 0.000000 0.000000 0.000000 0.000000 0.000000 0.000000 0.000000 0.000000 0.000000 0.000000 0.000000 0.000000 0.000000 0.000000 0.000000 0.000000 0.000000 0.000000 0.000000 0.000000 0.000000 0.000000 0.000000 0.000000 0.000000 0.000000 0.000000 0.000000 0.000000 0.000000 0.000000 0.000000 0.000000 0.000000 0.000000 0.000000 0.000000 0.000000 0.000000 0.000000 0.000000 0.000000 0.000000 0.000000 0.000000 0.000000 0.000000 0.000000 0.000000 0.000000 0.000000 0.000000 0.000000 0.000000 0.000000 0.000000 0.000000 0.000000 0.000000 0.000000 0.000000 0.000000 0.000000 0.000000 0.000000 0.000000 0.000000 0.000000 0.000000 0.000000 0.000000 0.000000 0.000000 0.000000 0.000000 0.000000 0.000000 0.000000 0.000000 0.000000 0.000000 0.000000
