0.000000 0.000000 0.000000 0.000000 0.000000 0.000000 0.000000 0.000000 0.000000 0.000000 0.000000 0.000000 0.000000 0.000000 0.000000 0.000000 0.000000 0.000000 0.000000 0.000000 0.000000 0.000000 0.000000 0.000000 0.000000 0.000000 0.000000 0.000000 0.000000 0.000000 0.000000 0.000000 0.000000 0.000000 0.000000 0.000000 0.000000 0.000000 0.000000 0.000000 0.000000 0.000000 0.000000 0.000000 0.000000 0.000000 0.000000 0.000000 0.000000 0.000000 0.000000 0.000000 0.000000 0.000000 0.000000 0.000000 0.000000 0.000000 0.000000 0.000000 0.000000 0.000000 0.000000 0.000000 0.000000 0.000000 0.000000 0.000000 0.000000 0.000000 0.000000 0.000000 0.000000 0.000000 0.000000 0.000000 0.000000 0.000000 0.000000 0.000000 0.000000 0.000000 0.000000 0.000000 0.000000 0.000000 0.000000 0.000000 0.000000 0.000000 0.000000 0.000000 0.000000 0.000000 0.000000 0.000000 0.000000 0.000000 0.000000 0.000000 0.000000 0.000000 0.000000
0.000000 0.000000 0.000000 0.000000 0.000000 0.000000 0.000000 0.000000 0.000000 0.000000 0.000000 0.000000 0.000000 0.000000 0.000000 0.000000 0.000000 0.000000 0.000000 0.000000 0.000000 0.000000 0.000000 0.000000 0.000000 0.000000 0.000000 0.000000 0.000000 0.000000 0.000000 0.000000 0.000000 0.000000 0.000000 0.000000 0.000000 0.000000 0.000000 0.000000 0.000000 0.000000 0.000000 0.000000 0.000000 0.000000 0.000000 0.000000 0.000000 0.000000 0.000000 0.000000 0.000000 0.000000 0.000000 0.000000 0.000000 0.000000 0.000000 0.000000 0.000000 0.000000 0.000000 0.000000 0.000000 0.000000 0.000000 0.000000 0.000000 0.000000 0.000000 0.000000 0.000000 0.000000 0.000000 0.000000 0.000000 0.000000 0.000000 0.000000 0.000000 0.000000 0.000000 0.000000 0.000000 0.000000 0.000000 0.000000 0.000000 0.000000 0.000000 0.000000 0.000000 0.000000 0.000000 0.000000 0.000000 0.000000 0.000000 0.000000 0.000000 0.000000 0.000000
0.000000 0.000000 0.000000 0.000000 0.000000 0.000000 0.000000 0.000000 0.000000 0.000000 0.000000 0.000000 0.000000 0.000000 0.000000 0.000000 0.000000 0.000000 0.000000 0.000000 0.000000 0.000000 0.000000 0.000000 0.000000 0.000000 0.000000 0.000000 0.000000 0.000000 0.000000 0.000000 0.000000 0.000000 0.000000 0.000000 0.000000 0.000000 0.000000 0.000000 0.000000 0.000000 0.000000 0.000000 0.000000 0.000000 0.000000 0.000000 0.000000 0.000000 0.000000 0.000000 0.000000 0.000000 0.000000 0.000000 0.000000 0.000000 0.000000 0.000000 0.000000 0.000000 0.000000 0.000000 0.000000 0.000000 0.000000 0.000000 0.000000 0.000000 0.000000 0.000000 0.000000 0.000000 0.000000 0.000000 0.000000 0.000000 0.000000 0.000000 0.000000 0.000000 0.000000 0.000000 0.000000 0.000000 0.000000 0.000000 0.000000 0.000000 0.000000 0.000000 0.000000 0.000000 0.000000 0.000000 0.000000 0.000000 0.000000 0.000000 0.000000 0.000000 0.000000
0.000000 0.000000 0.000000 0.000000 0.000000 0.000000 0.000000 0.000000 0.000000 0.000000 0.000000 0.000000 0.000000 0.000000 0.000000 0.000000 0.000000 0.000000 0.000000 0.000000 0.000000 0.000000 0.000000 0.000000 0.000000 0.000000 0.000000 0.000000 0.000000 0.000000 0.000000 0.000000 0.000000 0.000000 0.000000 0.000000 0.000000 0.000000 0.000000 0.000000 0.000000 0.000000 0.000000 0.000000 0.000000 0.000000 0.000000 0.000000 0.000000 0.000000 0.000000 0.000000 0.000000 0.000000 0.000000 0.000000 0.000000 0.000000 0.000000 0.000000 0.000000 0.000000 0.000000 0.000000 0.000000 0.000000 0.000000 0.000000 0.000000 0.000000 0.000000 0.000000 0.000000 0.000000 0.000000 0.000000 0.000000 0.000000 0.000000 0.000000 0.000000 0.000000 0.000000 0.000000 0.000000 0.000000 0.000000 0.000000 0.000000 0.000000 0.000000 0.000000 0.000000 0.000000 0.000000 0.000000 0.000000 0.000000 0.000000 0.000000 0.000000 0.000000 0.000000
0.000000 0.000000 0.000000 0.000000 0.000000 0.000000 0.000000 0.000000 0.000000 0.000000 0.000000 0.000000 0.000000 0.000000 0.000000 0.000000 0.000000 0.000000 0.000000 0.000000 0.000000 0.000000 0.000000 0.000000 0.000000 0.000000 0.000000 0.000000 0.000000 0.000000 0.000000 0.000000 0.000000 0.000000 0.000000 0.000000 0.000000 0.000000 0.000000 0.000000 0.000000 0.000000 0.000000 0.000000 0.000000 0.000000 0.000000 0.000000 0.000000 0.000000 0.000000 21.241660 21.241660 21.241660 21.241660 21.241660 21.241660 21.241660 21.241660 20.151830 20.151830 20.151830 20.151830 20.151830 20.151830 20.151830 20.151830 0.000000 0.000000 0.000000 0.000000 0.000000 0.000000 0.000000 0.000000 0.000000 0.000000 0.000000 0.000000 0.000000 0.000000 0.000000 0.000000 0.000000 0.000000 0.000000 0.000000 0.000000 0.000000 0.000000 0.000000 0.000000 0.000000 0.000000 0.000000 0.000000 0.000000 0.000000 0.000000 0.000000 0.000000 0.000000 0.000000
0.000000 0.000000 0.000000 0.000000 0.000000 0.000000 0.000000 0.000000 0.000000 0.000000 0.000000 0.000000 0.000000 0.000000 0.000000 0.000000 0.000000 0.000000 0.000000 0.000000 0.000000 0.000000 0.000000 0.000000 0.000000 0.000000 0.000000 0.000000 0.000000 0.000000 0.000000 0.000000 0.000000 0.000000 0.000000 0.000000 0.000000 0.000000 0.000000 0.000000 0.000000 0.000000 0.000000 0.000000 0.000000 0.000000 0.000000 0.000000 0.000000 0.000000 0.000000 21.241660 21.241660 21.241660 21.241660 21.241660 21.241660 21.241660 21.241660 20.151830 20.151830 20.151830 20.151830 20.151830 20.151830 20.151830 20.151830 0.000000 0.000000 0.000000 0.000000 0.000000 0.000000 0.000000 0.000000 0.000000 0.000000 0.000000 0.000000 0.000000 0.000000 0.000000 0.000000 0.000000 0.000000 0.000000 0.000000 0.000000 0.000000 0.000000 0.000000 0.000000 0.000000 0.000000 0.000000 0.000000 0.000000 0.000000 0.000000 0.000000 0.000000 0.000000 0.000000
0.000000 0.000000 0.000000 0.000000 0.000000 0.000000 14.831663 14.831663 14.831663 14.831663 14.831663 14.831663 0.000000 0.000000 0.000000 0.000000 0.000000 0.000000 0.000000 0.000000 0.000000 0.000000 0.000000 0.000000 0.000000 0.000000 0.000000 0.000000 0.000000 0.000000 0.000000 0.000000 26.701111 26.701111 26.701111 26.701111 26.701111 26.701111 26.701111 26.701111 26.701111 26.701111 26.701111 26.701111 0.000000 0.000000 0.000000 0.000000 0.000000 0.000000 0.000000 21.241660 21.241660 21.241660 21.241660 21.241660 21.241660 21.241660 21.241660 20.151830 20.151830 20.151830 20.151830 20.151830 20.151830 20.151830 20.151830 0.000000 0.000000 0.000000 0.000000 0.000000 0.000000 0.000000 28.477681 28.477681 28.477681 28.477681 28.477681 28.477681 28.477681 28.477681 28.477681 0.000000 0.000000 0.000000 0.000000 32.565466 32.565466 32.565466 32.565466 32.565466 32.565466 32.565466 32.565466 32.565466 32.565466 0.000000 0.000000 0.000000 0.000000 0.000000 0.000000
0.000000 0.000000 0.000000 0.000000 0.000000 0.000000 14.831663 14.831663 14.831663 14.831663 14.831663 14.831663 0.000000 0.000000 0.000000 0.000000 0.000000 0.000000 0.000000 0.000000 0.000000 0.000000 0.000000 0.000000 0.000000 0.000000 0.000000 0.000000 0.000000 0.000000 0.000000 0.000000 26.701111 26.701111 26.701111 26.701111 26.701111 26.701111 26.701111 26.701111 26.701111 26.701111 26.701111 26.701111 0.000000 0.000000 0.000000 0.000000 0.000000 0.000000 0.000000 21.241660 21.241660 21.241660 21.241660 21.241660 21.241660 21.241660 21.241660 20.151830 20.151830 20.151830 20.151830 20.151830 20.151830 20.151830 20.151830 0.000000 0.000000 0.000000 0.000000 0.000000 0.000000 0.000000 28.477681 28.477681 28.477681 28.477681 28.477681 28.477681 28.477681 28.477681 28.477681 0.000000 0.000000 0.000000 0.000000 32.565466 32.565466 32.565466 32.565466 32.565466 32.565466 32.565466 32.565466 32.565466 32.565466 0.000000 0.000000 0.000000 0.000000 0.000000 0.000000
0.000000 0.000000 0.000000 0.000000 0.000000 0.000000 14.831663 14.831663 14.831663 14.831663 14.831663 14.831663 0.000000 0.000000 0.000000 0.000000 0.000000 0.000000 0.000000 0.000000 0.000000 0.000000 0.000000 0.000000 0.000000 0.000000 0.000000 0.000000 0.000000 0.000000 0.000000 0.000000 26.701111 26.701111 26.701111 26.701111 26.701111 26.701111 26.701111 26.701111 26.701111 26.701111 26.701111 26.701111 0.000000 0.000000 0.000000 0.000000 0.000000 0.000000 0.000000 21.241660 21.241660 21.241660 21.241660 21.241660 21.241660 21.241660 21.241660 20.151830 20.151830 20.151830 20.151830 20.151830 20.151830 20.151830 20.151830 0.000000 0.000000 0.000000 0.000000 0.000000 0.000000 0.000000 28.477681 28.477681 28.477681 28.477681 28.477681 28.477681 28.477681 28.477681 28.477681 0.000000 0.000000 0.000000 0.000000 32.565466 32.565466 32.565466 32.565466 32.565466 32.565466 32.565466 32.565466 32.565466 32.565466 0.000000 0.000000 0.000000 0.000000 0.000000 0.000000
0.000000 0.000000 0.000000 0.000000 0.000000 0.000000 14.831663 14.831663 14.831663 14.831663 14.831663 14.831663 0.000000 0.000000 0.000000 0.000000 0.000000 0.000000 0.000000 0.000000 0.000000 0.000000 0.000000 0.000000 0.000000 0.000000 0.000000 0.000000 0.000000 0.000000 0.000000 0.000000 26.701111 26.701111 26.701111 26.701111 26.701111 26.701111 26.701111 26.701111 26.701111 26.701111 26.701111 26.701111 0.000000 0.000000 0.000000 0.000000 0.000000 0.000000 0.000000 21.241660 21.241660 21.241660 21.241660 21.241660 21.241660 21.241660 21.241660 20.151830 20.151830 20.151830 20.151830 20.151830 20.151830 20.151830 20.151830 0.000000 0.000000 0.000000 0.000000 0.000000 0.000000 0.000000 28.477681 28.477681 28.477681 28.477681 28.477681 28.477681 28.477681 28.477681 28.477681 0.000000 0.000000 0.000000 0.000000 32.565466 32.565466 32.565466 32.565466 32.565466 32.565466 32.565466 32.565466 32.565466 32.565466 0.000000 0.000000 0.000000 0.000000 0.000000 0.000000
0.000000 0.000000 0.000000 0.000000 0.000000 0.000000 14.831663 14.831663 14.831663 14.831663 14.831663 14.831663 0.000000 0.000000 0.000000 0.000000 0.000000 0.000000 0.000000 0.000000 0.000000 0.000000 0.000000 0.000000 0.000000 0.000000 0.000000 0.000000 0.000000 0.000000 0.000000 0.000000 26.701111 26.701111 26.701111 26.701111 26.701111 26.701111 26.701111 26.701111 26.701111 26.701111 26.701111 26.701111 0.000000 0.000000 0.000000 0.000000 0.000000 0.000000 0.000000 21.241660 21.241660 21.241660 21.241660 21.241660 21.241660 21.241660 21.241660 20.151830 20.151830 20.151830 20.151830 20.151830 20.151830 20.151830 20.151830 0.000000 0.000000 0.000000 0.000000 0.000000 0.000000 0.000000 28.477681 28.477681 28.477681 28.477681 28.477681 28.477681 28.477681 28.477681 28.477681 0.000000 0.000000 0.000000 0.000000 32.565466 32.565466 32.565466 32.565466 32.565466 32.565466 32.565466 32.565466 32.565466 32.565466 0.000000 0.000000 0.000000 0.000000 0.000000 0.000000
0.000000 0.000000 0.000000 0.000000 0.000000 0.000000 14.831663 14.831663 14.831663 14.831663 14.831663 14.831663 0.000000 0.000000 0.000000 0.000000 0.000000 0.000000 0.000000 0.000000 0.000000 0.000000 0.000000 0.000000 0.000000 0.000000 0.000000 0.000000 0.000000 0.000000 0.000000 0.000000 26.701111 26.701111 26.701111 26.701111 26.701111 26.701111 26.701111 26.701111 26.701111 26.701111 26.701111 26.701111 0.000000 0.000000 0.000000 0.000000 0.000000 0.000000 0.000000 21.241660 21.241660 21.241660 21.241660 21.241660 21.241660 21.241660 21.241660 20.151830 20.151830 20.151830 20.151830 20.151830 20.151830 20.151830 20.151830 0.000000 0.000000 0.000000 0.000000 0.000000 0.000000 0.000000 28.477681 28.477681 28.477681 28.477681 28.477681 28.477681 28.477681 28.477681 28.477681 0.000000 0.000000 0.000000 0.000000 32.565466 32.565466 32.565466 32.565466 32.565466 32.565466 32.565466 32.565466 32.565466 32.565466 0.000000 0.000000 0.000000 0.000000 0.000000 0.000000
0.000000 0.000000 0.000000 0.000000 0.000000 0.000000 14.831663 14.831663 14.831663 14.831663 14.831663 14.831663 0.000000 0.000000 0.000000 0.000000 0.000000 0.000000 0.000000 0.000000 0.000000 0.000000 0.000000 0.000000 0.000000 0.000000 0.000000 0.000000 0.000000 0.000000 0.000000 0.000000 26.701111 26.701111 26.701111 26.701111 26.701111 26.701111 26.701111 26.701111 26.701111 26.701111 26.701111 26.701111 0.000000 0.000000 0.000000 0.000000 0.000000 0.000000 0.000000 21.241660 21.241660 21.241660 21.241660 21.241660 21.241660 21.241660 21.241660 20.151830 20.151830 20.151830 20.151830 20.151830 20.151830 20.151830 20.151830 0.000000 0.000000 0.000000 0.000000 0.000000 0.000000 0.000000 28.477681 28.477681 28.477681 28.477681 28.477681 28.477681 28.477681 28.477681 28.477681 0.000000 0.000000 0.000000 0.000000 32.565466 32.565466 32.565466 32.565466 32.565466 32.565466 32.565466 32.565466 32.565466 32.565466 0.000000 0.000000 0.000000 0.000000 0.000000 0.000000
0.000000 0.000000 0.000000 0.000000 0.000000 0.000000 14.831663 14.831663 14.831663 14.831663 14.831663 14.831663 0.000000 0.000000 0.000000 0.000000 0.000000 0.000000 0.000000 0.000000 0.000000 0.000000 0.000000 0.000000 0.000000 0.000000 0.000000 0.000000 0.000000 0.000000 0.000000 0.000000 26.701111 26.701111 26.701111 26.701111 26.701111 26.701111 26.701111 26.701111 26.701111 26.701111 26.701111 26.701111 0.000000 0.000000 0.000000 0.000000 0.000000 0.000000 0.000000 21.241660 21.241660 21.241660 21.241660 21.241660 21.241660 21.241660 21.241660 20.151830 20.151830 20.151830 20.151830 20.151830 20.151830 20.151830 20.151830 0.000000 0.000000 0.000000 0.000000 0.000000 0.000000 0.000000 28.477681 28.477681 28.477681 28.477681 28.477681 28.477681 28.477681 28.477681 28.477681 0.000000 0.000000 0.000000 0.000000 32.565466 32.565466 32.565466 32.565466 32.565466 32.565466 32.565466 32.565466 32.565466 32.565466 0.000000 0.000000 0.000000 0.000000 0.000000 0.000000
0.000000 0.000000 0.000000 0.000000 0.000000 0.000000 14.831663 14.831663 14.831663 14.831663 14.831663 14.831663 0.000000 0.000000 0.000000 0.000000 0.000000 0.000000 0.000000 0.000000 0.000000 0.000000 0.000000 0.000000 0.000000 0.000000 0.000000 0.000000 0.000000 0.000000 0.000000 0.000000 26.701111 26.701111 26.701111 26.701111 26.701111 26.701111 26.701111 26.701111 26.701111 26.701111 26.701111 26.701111 0.000000 0.000000 0.000000 0.000000 0.000000 0.000000 0.000000 21.241660 21.241660 21.241660 21.241660 21.241660 21.241660 21.241660 21.241660 20.151830 20.151830 20.151830 20.151830 20.151830 20.151830 20.151830 20.151830 0.000000 0.000000 0.000000 0.000000 0.000000 0.000000 0.000000 28.477681 28.477681 28.477681 28.477681 28.477681 28.477681 28.477681 28.477681 28.477681 0.000000 0.000000 0.000000 0.000000 32.565466 32.565466 32.565466 32.565466 32.565466 32.565466 32.565466 32.565466 32.565466 32.565466 0.000000 0.000000 0.000000 0.000000 0.000000 0.000000
0.000000 0.000000 0.000000 0.000000 0.000000 0.000000 14.831663 14.831663 14.831663 14.831663 14.831663 14.831663 0.000000 0.000000 0.000000 0.000000 0.000000 0.000000 0.000000 0.000000 0.000000 0.000000 0.000000 0.000000 0.000000 0.000000 0.000000 0.000000 0.000000 0.000000 0.000000 0.000000 0.000000 0.000000 0.000000 0.000000 0.000000 0.000000 0.000000 0.000000 0.000000 0.000000 0.000000 0.000000 0.000000 0.000000 0.000000 0.000000 0.000000 0.000000 0.000000 20.455369 20.455369 20.455369 20.455369 20.455369 20.455369 20.455369 20.455369 19.405882 19.405882 19.405882 19.405882 19.405882 19.405882 19.405882 19.405882 0.000000 0.000000 0.000000 0.000000 0.000000 0.000000 0.000000 28.477681 28.477681 28.477681 28.477681 28.477681 28.477681 28.477681 28.477681 28.477681 0.000000 0.000000 0.000000 0.000000 32.565466 32.565466 32.565466 32.565466 32.565466 32.565466 32.565466 32.565466 32.565466 32.565466 0.000000 0.000000 0.000000 0.000000 0.000000 0.000000
0.000000 0.000000 0.000000 0.000000 0.000000 0.000000 14.831663 14.831663 14.831663 14.831663 14.831663 14.831663 0.000000 0.000000 0.000000 0.000000 0.000000 0.000000 0.000000 0.000000 0.000000 0.000000 0.000000 0.000000 0.000000 0.000000 0.000000 0.000000 0.000000 0.000000 0.000000 0.000000 0.000000 0.000000 0.000000 0.000000 0.000000 0.000000 0.000000 0.000000 0.000000 0.000000 0.000000 0.000000 0.000000 0.000000 0.000000 0.000000 0.000000 0.000000 0.000000 20.455369 20.455369 20.455369 20.455369 20.455369 20.455369 20.455369 20.455369 19.405882 19.405882 19.405882 19.405882 19.405882 19.405882 19.405882 19.405882 0.000000 0.000000 0.000000 0.000000 0.000000 0.000000 0.000000 28.477681 28.477681 28.477681 28.477681 28.477681 28.477681 28.477681 28.477681 28.477681 0.000000 0.000000 0.000000 0.000000 32.565466 32.565466 32.565466 32.565466 32.565466 32.565466 32.565466 32.565466 32.565466 32.565466 0.000000 0.000000 0.000000 0.000000 0.000000 0.000000
0.000000 0.000000 0.000000 0.000000 0.000000 0.000000 0.000000 0.000000 0.000000 0.000000 0.000000 0.000000 0.000000 0.000000 0.000000 0.000000 0.000000 0.000000 0.000000 0.000000 0.000000 0.000000 0.000000 0.000000 0.000000 0.000000 0.000000 0.000000 0.000000 0.000000 0.000000 0.000000 0.000000 0.000000 0.000000 0.000000 0.000000 0.000000 0.000000 0.000000 0.000000 0.000000 0.000000 0.000000 0.000000 0.000000 0.000000 0.000000 0.000000 0.000000 0.000000 20.455369 20.455369 20.455369 20.455369 20.455369 20.455369 20.455369 20.455369 19.405882 19.405882 19.405882 19.405882 19.405882 19.405882 19.405882 19.405882 0.000000 0.000000 0.000000 0.000000 0.000000 0.000000 0.000000 28.477681 28.477681 28.477681 28.477681 28.477681 28.477681 28.477681 28.477681 28.477681 0.000000 0.000000 0.000000 0.000000 32.565466 32.565466 32.565466 32.565466 32.565466 32.565466 32.565466 32.565466 32.565466 32.565466 0.000000 0.000000 0.000000 0.000000 0.000000 0.000000
0.000000 0.000000 0.000000 0.000000 0.000000 0.000000 0.000000 0.000000 0.000000 0.000000 0.000000 0.000000 0.000000 0.000000 0.000000 0.000000 0.000000 0.000000 0.000000 0.000000 0.000000 0.000000 0.000000 0.000000 0.000000 0.000000 0.000000 0.000000 0.000000 0.000000 0.000000 0.000000 0.000000 0.000000 0.000000 0.000000 0.000000 0.000000 0.000000 0.000000 0.000000 0.000000 0.000000 0.000000 0.000000 0.000000 0.000000 0.000000 0.000000 0.000000 0.000000 20.455369 20.455369 20.455369 20.455369 20.455369 20.455369 20.455369 20.455369 19.405882 19.405882 19.405882 19.405882 19.405882 19.405882 19.405882 19.405882 0.000000 0.000000 0.000000 0.000000 0.000000 0.000000 0.000000 28.477681 28.477681 28.477681 28.477681 28.477681 28.477681 28.477681 28.477681 28.477681 0.000000 0.000000 0.000000 0.000000 32.565466 32.565466 32.565466 32.565466 32.565466 32.565466 32.565466 32.565466 32.565466 32.565466 0.000000 0.000000 0.000000 0.000000 0.000000 0.000000
0.000000 0.000000 0.000000 0.000000 0.000000 0.000000 0.000000 0.000000 0.000000 0.000000 0.000000 0.000000 0.000000 0.000000 0.000000 0.000000 0.000000 0.000000 0.000000 0.000000 22.136741 22.136741 22.136741 22.136741 22.136741 22.136741 22.136741 22.136741 0.000000 0.000000 0.000000 0.000000 33.716405 33.716405 33.716405 33.716405 33.716405 33.716405 33.716405 33.716405 33.716405 33.716405 33.716405 33.716405 0.000000 0.000000 0.000000 0.000000 0.000000 0.000000 0.000000 20.455369 20.455369 20.455369 20.455369 20.455369 20.455369 20.455369 20.455369 19.405882 19.405882 19.405882 19.405882 19.405882 19.405882 19.405882 19.405882 0.000000 0.000000 0.000000 0.000000 0.000000 0.000000 0.000000 0.000000 0.000000 0.000000 0.000000 0.000000 0.000000 0.000000 0.000000 0.000000 0.000000 0.000000 0.000000 0.000000 0.000000 0.000000 0.000000 0.000000 0.000000 0.000000 0.000000 0.000000 0.000000 0.000000 0.000000 0.000000 0.000000 0.000000 0.000000 0.000000
0.000000 0.000000 0.000000 0.000000 0.000000 0.000000 0.000000 0.000000 0.000000 0.000000 0.000000 0.000000 0.000000 0.000000 0.000000 0.000000 0.000000 0.000000 0.000000 0.000000 22.136741 22.136741 22.136741 22.136741 22.136741 22.136741 22.136741 22.136741 0.000000 0.000000 0.000000 0.000000 33.716405 33.716405 33.716405 33.716405 33.716405 33.716405 33.716405 33.716405 33.716405 33.716405 33.716405 33.716405 0.000000 0.000000 0.000000 0.000000 0.000000 0.000000 0.000000 20.455369 20.455369 20.455369 20.455369 20.455369 20.455369 20.455369 20.455369 19.405882 19.405882 19.405882 19.405882 19.405882 19.405882 19.405882 19.405882 0.000000 0.000000 0.000000 0.000000 0.000000 0.000000 0.000000 0.000000 0.000000 0.000000 0.000000 0.000000 0.000000 0.000000 0.000000 0.000000 0.000000 0.000000 0.000000 0.000000 0.000000 0.000000 0.000000 0.000000 0.000000 0.000000 0.000000 0.000000 0.000000 0.000000 0.000000 0.000000 0.000000 0.000000 0.000000 0.000000
0.000000 0.000000 0.000000 0.000000 0.000000 0.000000 12.669043 12.669043 12.669043 12.669043 12.669043 12.669043 0.000000 0.000000 0.000000 0.000000 0.000000 0.000000 0.000000 0.000000 22.136741 22.136741 22.136741 22.136741 22.136741 22.136741 22.136741 22.136741 0.000000 0.000000 0.000000 0.000000 33.716405 33.716405 33.716405 33.716405 33.716405 33.716405 33.716405 33.716405 33.716405 33.716405 33.716405 33.716405 0.000000 0.000000 0.000000 0.000000 0.000000 0.000000 0.000000 20.455369 20.455369 20.455369 20.455369 20.455369 20.455369 20.455369 20.455369 19.405882 19.405882 19.405882 19.405882 19.405882 19.405882 19.405882 19.405882 0.000000 0.000000 0.000000 0.000000 0.000000 0.000000 0.000000 0.000000 0.000000 0.000000 0.000000 0.000000 0.000000 0.000000 0.000000 0.000000 0.000000 0.000000 0.000000 0.000000 0.000000 0.000000 0.000000 0.000000 0.000000 0.000000 0.000000 0.000000 0.000000 0.000000 0.000000 0.000000 0.000000 0.000000 0.000000 0.000000
0.000000 0.000000 0.000000 0.000000 0.000000 0.000000 12.669043 12.669043 12.669043 12.669043 12.669043 12.669043 0.000000 0.000000 0.000000 0.000000 0.000000 0.000000 0.000000 0.000000 22.136741 22.136741 22.136741 22.136741 22.136741 22.136741 22.136741 22.136741 0.000000 0.000000 0.000000 0.000000 33.716405 33.716405 33.716405 33.716405 33.716405 33.716405 33.716405 33.716405 33.716405 33.716405 33.716405 33.716405 0.000000 0.000000 0.000000 0.000000 0.000000 0.000000 0.000000 20.455369 20.455369 20.455369 20.455369 20.455369 20.455369 20.455369 20.455369 19.405882 19.405882 19.405882 19.405882 19.405882 19.405882 19.405882 19.405882 0.000000 0.000000 0.000000 0.000000 0.000000 0.000000 0.000000 17.032533 17.032533 17.032533 17.032533 17.032533 17.032533 17.032533 17.032533 17.032533 0.000000 0.000000 0.000000 0.000000 19.477442 19.477442 19.477442 19.477442 19.477442 19.477442 19.477442 19.477442 19.477442 19.477442 0.000000 0.000000 0.000000 0.000000 0.000000 0.000000
0.000000 0.000000 0.000000 0.000000 0.000000 0.000000 12.669043 12.669043 12.669043 12.669043 12.669043 12.669043 0.000000 0.000000 0.000000 0.000000 0.000000 0.000000 0.000000 0.000000 22.136741 22.136741 22.136741 22.136741 22.136741 22.136741 22.136741 22.136741 0.000000 0.000000 0.000000 0.000000 33.716405 33.716405 33.716405 33.716405 33.716405 33.716405 33.716405 33.716405 33.716405 33.716405 33.716405 33.716405 0.000000 0.000000 0.000000 0.000000 0.000000 0.000000 0.000000 20.455369 20.455369 20.455369 20.455369 20.455369 20.455369 20.455369 20.455369 19.405882 19.405882 19.405882 19.405882 19.405882 19.405882 19.405882 19.405882 0.000000 0.000000 0.000000 0.000000 0.000000 0.000000 0.000000 17.032533 17.032533 17.032533 17.032533 17.032533 17.032533 17.032533 17.032533 17.032533 0.000000 0.000000 0.000000 0.000000 19.477442 19.477442 19.477442 19.477442 19.477442 19.477442 19.477442 19.477442 19.477442 19.477442 0.000000 0.000000 0.000000 0.000000 0.000000 0.000000
0.000000 0.000000 0.000000 0.000000 0.000000 0.000000 12.669043 12.669043 12.669043 12.669043 12.669043 12.669043 0.000000 0.000000 0.000000 0.000000 0.000000 0.000000 0.000000 0.000000 22.136741 22.136741 22.136741 22.136741 22.136741 22.136741 22.136741 22.136741 0.000000 0.000000 0.000000 0.000000 33.716405 33.716405 33.716405 33.716405 33.716405 33.716405 33.716405 33.716405 33.716405 33.716405 33.716405 33.716405 0.000000 0.000000 0.000000 0.000000 0.000000 0.000000 0.000000 20.455369 20.455369 20.455369 20.455369 20.455369 20.455369 20.455369 20.455369 19.405882 19.405882 19.405882 19.405882 19.405882 19.405882 19.405882 19.405882 0.000000 0.000000 0.000000 0.000000 0.000000 0.000000 0.000000 17.032533 17.032533 17.032533 17.032533 17.032533 17.032533 17.032533 17.032533 17.032533 0.000000 0.000000 0.000000 0.000000 19.477442 19.477442 19.477442 19.477442 19.477442 19.477442 19.477442 19.477442 19.477442 19.477442 0.000000 0.000000 0.000000 0.000000 0.000000 0.000000
0.000000 0.000000 0.000000 0.000000 0.000000 0.000000 12.669043 12.669043 12.669043 12.669043 12.669043 12.669043 0.000000 0.000000 0.000000 0.000000 0.000000 0.000000 0.000000 0.000000 22.136741 22.136741 22.136741 22.136741 22.136741 22.136741 22.136741 22.136741 0.000000 0.000000 0.000000 0.000000 33.716405 33.716405 33.716405 33.716405 33.716405 33.716405 33.716405 33.716405 33.716405 33.716405 33.716405 33.716405 0.000000 0.000000 0.000000 0.000000 0.000000 0.000000 0.000000 13.946047 13.946047 13.946047 13.946047 13.946047 13.946047 13.946047 13.946047 13.230528 13.230528 13.230528 13.230528 13.230528 13.230528 13.230528 13.230528 0.000000 0.000000 0.000000 0.000000 0.000000 0.000000 0.000000 17.032533 17.032533 17.032533 17.032533 17.032533 17.032533 17.032533 17.032533 17.032533 0.000000 0.000000 0.000000 0.000000 19.477442 19.477442 19.477442 19.477442 19.477442 19.477442 19.477442 19.477442 19.477442 19.477442 0.000000 0.000000 0.000000 0.000000 0.000000 0.000000
0.000000 0.000000 0.000000 0.000000 0.000000 0.000000 12.669043 12.669043 12.669043 12.669043 12.669043 12.669043 0.000000 0.000000 0.000000 0.000000 0.000000 0.000000 0.000000 0.000000 22.136741 22.136741 22.136741 22.136741 22.136741 22.136741 22.136741 22.136741 0.000000 0.000000 0.000000 0.000000 33.716405 33.716405 33.716405 33.716405 33.716405 33.716405 33.716405 33.716405 33.716405 33.716405 33.716405 33.716405 0.000000 0.000000 0.000000 0.000000 0.000000 0.000000 0.000000 13.946047 13.946047 13.946047 13.946047 13.946047 13.946047 13.946047 13.946047 13.230528 13.230528 13.230528 13.230528 13.230528 13.230528 13.230528 13.230528 0.000000 0.000000 0.000000 0.000000 0.000000 0.000000 0.000000 17.032533 17.032533 17.032533 17.032533 17.032533 17.032533 17.032533 17.032533 17.032533 0.000000 0.000000 0.000000 0.000000 19.477442 19.477442 19.477442 19.477442 19.477442 19.477442 19.477442 19.477442 19.477442 19.477442 0.000000 0.000000 0.000000 0.000000 0.000000 0.000000
0.000000 0.000000 0.000000 0.000000 0.000000 0.000000 12.669043 12.669043 12.669043 12.669043 12.669043 12.669043 0.000000 0.000000 0.000000 0.000000 0.000000 0.000000 0.000000 0.000000 22.136741 22.136741 22.136741 22.136741 22.136741 22.136741 22.136741 22.136741 0.000000 0.000000 0.000000 0.000000 33.716405 33.716405 33.716405 33.716405 33.716405 33.716405 33.716405 33.716405 33.716405 33.716405 33.716405 33.716405 0.000000 0.000000 0.000000 0.000000 0.000000 0.000000 0.000000 13.946047 13.946047 13.946047 13.946047 13.946047 13.946047 13.946047 13.946047 13.230528 13.230528 13.230528 13.230528 13.230528 13.230528 13.230528 13.230528 0.000000 0.000000 0.000000 0.000000 0.000000 0.000000 0.000000 17.032533 17.032533 17.032533 17.032533 17.032533 17.032533 17.032533 17.032533 17.032533 0.000000 0.000000 0.000000 0.000000 19.477442 19.477442 19.477442 19.477442 19.477442 19.477442 19.477442 19.477442 19.477442 19.477442 0.000000 0.000000 0.000000 0.000000 0.000000 0.000000
0.000000 0.000000 0.000000 0.000000 0.000000 0.000000 12.669043 12.669043 12.669043 12.669043 12.669043 12.669043 0.000000 0.000000 0.000000 0.000000 0.000000 0.000000 0.000000 0.000000 22.136741 22.136741 22.136741 22.136741 22.136741 22.136741 22.136741 22.136741 0.000000 0.000000 0.000000 0.000000 33.716405 33.716405 33.716405 33.716405 33.716405 33.716405 33.716405 33.716405 33.716405 33.716405 33.716405 33.716405 0.000000 0.000000 0.000000 0.000000 0.000000 0.000000 0.000000 13.946047 13.946047 13.946047 13.946047 13.946047 13.946047 13.946047 13.946047 13.230528 13.230528 13.230528 13.230528 13.230528 13.230528 13.230528 13.230528 0.000000 0.000000 0.000000 0.000000 0.000000 0.000000 0.000000 17.032533 17.032533 17.032533 17.032533 17.032533 17.032533 17.032533 17.032533 17.032533 0.000000 0.000000 0.000000 0.000000 19.477442 19.477442 19.477442 19.477442 19.477442 19.477442 19.477442 19.477442 19.477442 19.477442 0.000000 0.000000 0.000000 0.000000 0.000000 0.000000
0.000000 0.000000 0.000000 0.000000 0.000000 0.000000 12.669043 12.669043 12.669043 12.669043 12.669043 12.669043 0.000000 0.000000 0.000000 0.000000 0.000000 0.000000 0.000000 0.000000 22.136741 22.136741 22.136741 22.136741 22.136741 22.136741 22.136741 22.136741 0.000000 0.000000 0.000000 0.000000 33.716405 33.716405 33.716405 33.716405 33.716405 33.716405 33.716405 33.716405 33.716405 33.716405 33.716405 33.716405 0.000000 0.000000 0.000000 0.000000 0.000000 0.000000 0.000000 13.946047 13.946047 13.946047 13.946047 13.946047 13.946047 13.946047 13.946047 13.230528 13.230528 13.230528 13.230528 13.230528 13.230528 13.230528 13.230528 0.000000 0.000000 0.000000 0.000000 0.000000 0.000000 0.000000 17.032533 17.032533 17.032533 17.032533 17.032533 17.032533 17.032533 17.032533 17.032533 0.000000 0.000000 0.000000 0.000000 19.477442 19.477442 19.477442 19.477442 19.477442 19.477442 19.477442 19.477442 19.477442 19.477442 0.000000 0.000000 0.000000 0.000000 0.000000 0.000000
0.000000 0.000000 0.000000 0.000000 0.000000 0.000000 0.000000 0.000000 0.000000 0.000000 0.000000 0.000000 0.000000 0.000000 0.000000 0.000000 0.000000 0.000000 0.000000 0.000000 0.000000 0.000000 0.000000 0.000000 0.000000 0.000000 0.000000 0.000000 0.000000 0.000000 0.000000 0.000000 0.000000 0.000000 0.000000 0.000000 0.000000 0.000000 0.000000 0.000000 0.000000 0.000000 0.000000 0.000000 0.000000 0.000000 0.000000 0.000000 0.000000 0.000000 0.000000 13.946047 13.946047 13.946047 13.946047 13.946047 13.946047 13.946047 13.946047 13.230528 13.230528 13.230528 13.230528 13.230528 13.230528 13.230528 13.230528 0.000000 0.000000 0.000000 0.000000 0.000000 0.000000 0.000000 0.000000 0.000000 0.000000 0.000000 0.000000 0.000000 0.000000 0.000000 0.000000 0.000000 0.000000 0.000000 0.000000 0.000000 0.000000 0.000000 0.000000 0.000000 0.000000 0.000000 0.000000 0.000000 0.000000 0.000000 0.000000 0.000000 0.000000 0.000000 0.000000
0.000000 0.000000 0.000000 0.000000 0.000000 0.000000 0.000000 0.000000 0.000000 0.000000 0.000000 0.000000 0.000000 0.000000 0.000000 0.000000 0.000000 0.000000 0.000000 0.000000 0.000000 0.000000 0.000000 0.000000 0.000000 0.000000 0.000000 0.000000 0.000000 0.000000 0.000000 0.000000 0.000000 0.000000 0.000000 0.000000 0.000000 0.000000 0.000000 0.000000 0.000000 0.000000 0.000000 0.000000 0.000000 0.000000 0.000000 0.000000 0.000000 0.000000 0.000000 13.946047 13.946047 13.946047 13.946047 13.946047 13.946047 13.946047 13.946047 13.230528 13.230528 13.230528 13.230528 13.230528 13.230528 13.230528 13.230528 0.000000 0.000000 0.000000 0.000000 0.000000 0.000000 0.000000 0.000000 0.000000 0.000000 0.000000 0.000000 0.000000 0.000000 0.000000 0.000000 0.000000 0.000000 0.000000 0.000000 0.000000 0.000000 0.000000 0.000000 0.000000 0.000000 0.000000 0.000000 0.000000 0.000000 0.000000 0.000000 0.000000 0.000000 0.000000 0.000000
0.000000 0.000000 0.000000 0.000000 0.000000 0.000000 0.000000 0.000000 0.000000 0.000000 0.000000 0.000000 0.000000 0.000000 0.000000 0.000000 0.000000 0.000000 0.000000 0.000000 0.000000 0.000000 0.000000 0.000000 0.000000 0.000000 0.000000 0.000000 0.000000 0.000000 0.000000 0.000000 0.000000 0.000000 0.000000 0.000000 0.000000 0.000000 0.000000 0.000000 0.000000 0.000000 0.000000 0.000000 0.000000 0.000000 0.000000 0.000000 0.000000 0.000000 0.000000 0.000000 0.000000 0.000000 0.000000 0.000000 0.000000 0.000000 0.000000 0.000000 0.000000 0.000000 0.000000 0.000000 0.000000 0.000000 0.000000 0.000000 0.000000 0.000000 0.000000 0.000000 0.000000 0.000000 0.000000 0.000000 0.000000 0.000000 0.000000 0.000000 0.000000 0.000000 0.000000 0.000000 0.000000 0.000000 0.000000 0.000000 0.000000 0.000000 0.000000 0.000000 0.000000 0.000000 0.000000 0.000000 0.000000 0.000000 0.000000 0.000000 0.000000 0.000000 0.000000
0.000000 0.000000 0.000000 0.000000 0.000000 0.000000 0.000000 0.000000 0.000000 0.000000 0.000000 0.000000 0.000000 0.000000 0.000000 0.000000 0.000000 0.000000 0.000000 0.000000 0.000000 0.000000 0.000000 0.000000 0.000000 0.000000 0.000000 0.000000 0.000000 0.000000 0.000000 0.000000 0.000000 0.000000 0.000000 0.000000 0.000000 0.000000 0.000000 0.000000 0.000000 0.000000 0.000000 0.000000 0.000000 0.000000 0.000000 0.000000 0.000000 0.000000 0.000000 0.000000 0.000000 0.000000 0.000000 0.000000 0.000000 0.000000 0.000000 0.000000 0.000000 0.000000 0.000000 0.000000 0.000000 0.000000 0.000000 0.000000 0.000000 0.000000 0.000000 0.000000 0.000000 0.000000 0.000000 0.000000 0.000000 0.000000 0.000000 0.000000 0.000000 0.000000 0.000000 0.000000 0.000000 0.000000 0.000000 0.000000 0.000000 0.000000 0.000000 0.000000 0.000000 0.000000 0.000000 0.000000 0.000000 0.000000 0.000000 0.000000 0.000000 0.000000 0.000000
0.000000 0.000000 0.000000 0.000000 0.000000 0.000000 0.000000 0.000000 0.000000 0.000000 0.000000 0.000000 0.000000 0.000000 0.000000 0.000000 0.000000 0.000000 0.000000 0.000000 0.000000 0.000000 0.000000 0.000000 0.000000 0.000000 0.000000 0.000000 0.000000 0.000000 0.000000 0.000000 0.000000 0.000000 0.000000 0.000000 0.000000 0.000000 0.000000 0.000000 0.000000 0.000000 0.000000 0.000000 0.000000 0.000000 0.000000 0.000000 0.000000 0.000000 0.000000 0.000000 0.000000 0.000000 0.000000 0.000000 0.000000 0.000000 0.000000 0.000000 0.000000 0.000000 0.000000 0.000000 0.000000 0.000000 0.000000 0.000000 0.000000 0.000000 0.000000 0.000000 0.000000 0.000000 0.000000 0.000000 0.000000 0.000000 0.000000 0.000000 0.000000 0.000000 0.000000 0.000000 0.000000 0.000000 0.000000 0.000000 0.000000 0.000000 0.000000 0.000000 0.000000 0.000000 0.000000 0.000000 0.000000 0.000000 0.000000 0.000000 0.000000 0.000000 0.000000
0.000000 0.000000 0.000000 0.000000 0.000000 0.000000 0.000000 0.000000 0.000000 0.000000 0.000000 0.000000 0.000000 0.000000 0.000000 0.000000 0.000000 0.000000 0.000000 0.000000 0.000000 0.000000 0.000000 0.000000 0.000000 0.000000 0.000000 0.000000 0.000000 0.000000 0.000000 0.000000 0.000000 0.000000 0.000000 0.000000 0.000000 0.000000 0.000000 0.000000 0.000000 0.000000 0.000000 0.000000 0.000000 0.000000 0.000000 0.000000 0.000000 0.000000 0.000000 0.000000 0.000000 0.000000 0.000000 0.000000 0.000000 0.000000 0.000000 0.000000 0.000000 0.000000 0.000000 0.000000 0.000000 0.000000 0.000000 0.000000 0.000000 0.000000 0.000000 0.000000 0.000000 0.000000 0.000000 0.000000 0.000000 0.000000 0.000000 0.000000 0.000000 0.000000 0.000000 0.000000 0.000000 0.000000 0.000000 0.000000 0.000000 0.000000 0.000000 0.000000 0.000000 0.000000 0.000000 0.000000 0.000000 0.000000 0.000000 0.000000 0.000000 0.000000 0.000000
0.000000 0.000000 0.000000 0.000000 0.000000 0.000000 0.000000 0.000000 0.000000 0.000000 0.000000 0.000000 0.000000 0.000000 0.000000 0.000000 0.000000 0.000000 0.000000 0.000000 0.000000 0.000000 0.000000 0.000000 0.000000 0.000000 0.000000 0.000000 0.000000 0.000000 0.000000 0.000000 0.000000 0.000000 0.000000 0.000000 0.000000 0.000000 0.000000 0.000000 0.000000 0.000000 0.000000 0.000000 0.000000 0.000000 0.000000 0.000000 0.000000 0.000000 0.000000 0.000000 0.000000 0.000000 0.000000 0.000000 0.000000 0.000000 0.000000 0.000000 0.000000 0.000000 0.000000 0.000000 0.000000 0.000000 0.000000 0.000000 0.000000 0.000000 0.000000 0.000000 0.000000 0.000000 0.000000 0.000000 0.000000 0.000000 0.000000 0.000000 0.000000 0.000000 0.000000 0.000000 0.000000 0.000000 0.000000 0.000000 0.000000 0.000000 0.000000 0.000000 0.000000 0.000000 0.000000 0.000000 0.000000 0.000000 0.000000 0.000000 0.000000 0.000000 0.000000
0.000000 0.000000 0.000000 0.000000 0.000000 0.000000 0.000000 0.000000 0.000000 0.000000 0.000000 0.000000 0.000000 0.000000 0.000000 0.000000 0.000000 0.000000 0.000000 23.281398 23.281398 23.281398 23.281398 23.281398 23.281398 23.281398 23.281398 23.281398 0.000000 0.000000 0.000000 0.000000 0.000000 0.000000 0.000000 0.000000 0.000000 0.000000 0.000000 0.000000 0.000000 0.000000 0.000000 0.000000 0.000000 0.000000 0.000000 0.000000 0.000000 0.000000 0.000000 16.360098 16.360098 16.360098 16.360098 16.360098 16.360098 16.360098 0.000000 0.000000 0.000000 0.000000 0.000000 0.000000 0.000000 0.000000 0.000000 0.000000 0.000000 0.000000 0.000000 0.000000 0.000000 0.000000 0.000000 0.000000 0.000000 0.000000 0.000000 0.000000 0.000000 0.000000 0.000000 0.000000 0.000000 0.000000 0.000000 0.000000 0.000000 0.000000 0.000000 0.000000 0.000000 0.000000 0.000000 0.000000 0.000000 0.000000 0.000000 0.000000 0.000000 0.000000 0.000000
0.000000 0.000000 0.000000 0.000000 0.000000 0.000000 0.000000 0.000000 0.000000 0.000000 0.000000 0.000000 0.000000 0.000000 0.000000 0.000000 0.000000 0.000000 0.000000 23.281398 23.281398 23.281398 23.281398 23.281398 23.281398 23.281398 23.281398 23.281398 0.000000 0.000000 0.000000 0.000000 0.000000 0.000000 0.000000 0.000000 0.000000 0.000000 0.000000 0.000000 0.000000 0.000000 0.000000 0.000000 0.000000 0.000000 0.000000 0.000000 0.000000 0.000000 0.000000 16.360098 16.360098 16.360098 16.360098 16.360098 16.360098 16.360098 0.000000 0.000000 0.000000 0.000000 0.000000 0.000000 0.000000 0.000000 0.000000 0.000000 0.000000 0.000000 0.000000 0.000000 0.000000 0.000000 0.000000 0.000000 0.000000 0.000000 0.000000 0.000000 0.000000 0.000000 0.000000 0.000000 0.000000 0.000000 0.000000 0.000000 0.000000 0.000000 0.000000 0.000000 0.000000 0.000000 0.000000 0.000000 0.000000 0.000000 0.000000 0.000000 0.000000 0.000000 0.000000
0.000000 0.000000 0.000000 0.000000 0.000000 0.000000 0.000000 0.000000 0.000000 0.000000 0.000000 0.000000 0.000000 0.000000 0.000000 0.000000 0.000000 0.000000 0.000000 23.281398 23.281398 23.281398 23.281398 23.281398 23.281398 23.281398 23.281398 23.281398 0.000000 0.000000 0.000000 0.000000 0.000000 0.000000 0.000000 0.000000 0.000000 0.000000 0.000000 0.000000 0.000000 0.000000 0.000000 0.000000 0.000000 0.000000 0.000000 0.000000 0.000000 0.000000 0.000000 16.360098 16.360098 16.360098 16.360098 16.360098 16.360098 16.360098 0.000000 0.000000 0.000000 0.000000 0.000000 0.000000 0.000000 0.000000 0.000000 0.000000 0.000000 0.000000 0.000000 0.000000 0.000000 0.000000 0.000000 0.000000 0.000000 0.000000 0.000000 0.000000 0.000000 0.000000 0.000000 0.000000 0.000000 0.000000 0.000000 0.000000 0.000000 20.269895 20.269895 20.269895 20.269895 20.269895 20.269895 20.269895 20.269895 0.000000 0.000000 0.000000 0.000000 0.000000 0.000000
0.000000 0.000000 0.000000 0.000000 0.000000 0.000000 0.000000 0.000000 0.000000 0.000000 0.000000 0.000000 0.000000 0.000000 0.000000 0.000000 0.000000 0.000000 0.000000 23.281398 23.281398 23.281398 23.281398 23.281398 23.281398 23.281398 23.281398 23.281398 0.000000 0.000000 0.000000 0.000000 0.000000 0.000000 0.000000 0.000000 0.000000 0.000000 0.000000 0.000000 0.000000 0.000000 0.000000 0.000000 0.000000 0.000000 0.000000 0.000000 0.000000 0.000000 0.000000 16.360098 16.360098 16.360098 16.360098 16.360098 16.360098 16.360098 0.000000 0.000000 0.000000 0.000000 0.000000 0.000000 0.000000 0.000000 0.000000 0.000000 0.000000 0.000000 0.000000 0.000000 0.000000 0.000000 0.000000 0.000000 0.000000 0.000000 0.000000 0.000000 0.000000 0.000000 0.000000 0.000000 0.000000 0.000000 0.000000 0.000000 0.000000 20.269895 20.269895 20.269895 20.269895 20.269895 20.269895 20.269895 20.269895 0.000000 0.000000 0.000000 0.000000 0.000000 0.000000
0.000000 0.000000 0.000000 0.000000 0.000000 0.000000 0.000000 0.000000 0.000000 0.000000 0.000000 0.000000 0.000000 0.000000 0.000000 0.000000 0.000000 0.000000 0.000000 23.281398 23.281398 23.281398 23.281398 23.281398 23.281398 23.281398 23.281398 23.281398 0.000000 0.000000 0.000000 0.000000 0.000000 0.000000 0.000000 0.000000 0.000000 0.000000 0.000000 0.000000 0.000000 0.000000 0.000000 0.000000 0.000000 0.000000 0.000000 0.000000 0.000000 0.000000 0.000000 16.360098 16.360098 16.360098 16.360098 16.360098 16.360098 16.360098 0.000000 0.000000 0.000000 0.000000 0.000000 0.000000 0.000000 0.000000 0.000000 0.000000 0.000000 0.000000 0.000000 0.000000 0.000000 0.000000 0.000000 0.000000 0.000000 0.000000 0.000000 0.000000 0.000000 0.000000 0.000000 0.000000 0.000000 0.000000 0.000000 0.000000 0.000000 20.269895 20.269895 20.269895 20.269895 20.269895 20.269895 20.269895 20.269895 0.000000 0.000000 0.000000 0.000000 0.000000 0.000000
0.000000 0.000000 0.000000 0.000000 0.000000 0.000000 0.000000 0.000000 0.000000 0.000000 0.000000 0.000000 0.000000 0.000000 0.000000 0.000000 0.000000 0.000000 0.000000 23.281398 23.281398 23.281398 23.281398 23.281398 23.281398 23.281398 23.281398 23.281398 0.000000 0.000000 0.000000 0.000000 0.000000 0.000000 0.000000 0.000000 0.000000 0.000000 0.000000 0.000000 0.000000 0.000000 0.000000 0.000000 0.000000 0.000000 0.000000 0.000000 0.000000 0.000000 0.000000 16.360098 16.360098 16.360098 16.360098 16.360098 16.360098 16.360098 0.000000 0.000000 0.000000 0.000000 0.000000 0.000000 0.000000 0.000000 0.000000 0.000000 0.000000 0.000000 0.000000 0.000000 0.000000 0.000000 0.000000 0.000000 0.000000 0.000000 0.000000 0.000000 0.000000 0.000000 0.000000 0.000000 0.000000 0.000000 0.000000 0.000000 0.000000 20.269895 20.269895 20.269895 20.269895 20.269895 20.269895 20.269895 20.269895 0.000000 0.000000 0.000000 0.000000 0.000000 0.000000
0.000000 0.000000 0.000000 0.000000 0.000000 0.000000 0.000000 0.000000 0.000000 0.000000 0.000000 0.000000 0.000000 0.000000 0.000000 0.000000 0.000000 0.000000 0.000000 23.281398 23.281398 23.281398 23.281398 23.281398 23.281398 23.281398 23.281398 23.281398 0.000000 0.000000 0.000000 0.000000 0.000000 0.000000 0.000000 0.000000 0.000000 0.000000 0.000000 0.000000 0.000000 0.000000 0.000000 0.000000 0.000000 0.000000 0.000000 0.000000 0.000000 0.000000 0.000000 16.360098 16.360098 16.360098 16.360098 16.360098 16.360098 16.360098 0.000000 0.000000 0.000000 0.000000 0.000000 0.000000 0.000000 0.000000 0.000000 0.000000 0.000000 0.000000 0.000000 0.000000 0.000000 0.000000 0.000000 0.000000 0.000000 0.000000 0.000000 0.000000 0.000000 0.000000 0.000000 0.000000 0.000000 0.000000 0.000000 0.000000 0.000000 20.269895 20.269895 20.269895 20.269895 20.269895 20.269895 20.269895 20.269895 0.000000 0.000000 0.000000 0.000000 0.000000 0.000000
0.000000 0.000000 0.000000 0.000000 0.000000 0.000000 0.000000 0.000000 0.000000 0.000000 0.000000 0.000000 0.000000 0.000000 0.000000 0.000000 0.000000 0.000000 0.000000 23.281398 23.281398 23.281398 23.281398 23.281398 23.281398 23.281398 23.281398 23.281398 0.000000 0.000000 0.000000 0.000000 0.000000 0.000000 0.000000 0.000000 0.000000 0.000000 0.000000 0.000000 0.000000 0.000000 0.000000 0.000000 0.000000 0.000000 0.000000 0.000000 0.000000 0.000000 0.000000 16.360098 16.360098 16.360098 16.360098 16.360098 16.360098 16.360098 0.000000 0.000000 0.000000 0.000000 0.000000 0.000000 0.000000 0.000000 0.000000 0.000000 0.000000 0.000000 0.000000 0.000000 0.000000 0.000000 0.000000 0.000000 0.000000 0.000000 0.000000 0.000000 0.000000 0.000000 0.000000 0.000000 0.000000 0.000000 0.000000 0.000000 0.000000 20.269895 20.269895 20.269895 20.269895 20.269895 20.269895 20.269895 20.269895 0.000000 0.000000 0.000000 0.000000 0.000000 0.000000
0.000000 0.000000 0.000000 0.000000 0.000000 0.000000 0.000000 0.000000 0.000000 0.000000 0.000000 0.000000 0.000000 0.000000 0.000000 0.000000 0.000000 0.000000 0.000000 23.281398 23.281398 23.281398 23.281398 23.281398 23.281398 23.281398 23.281398 23.281398 0.000000 0.000000 0.000000 0.000000 0.000000 0.000000 0.000000 0.000000 0.000000 0.000000 0.000000 0.000000 0.000000 0.000000 0.000000 0.000000 0.000000 0.000000 0.000000 0.000000 0.000000 0.000000 0.000000 16.360098 16.360098 16.360098 16.360098 16.360098 16.360098 16.360098 0.000000 0.000000 0.000000 0.000000 0.000000 0.000000 0.000000 0.000000 0.000000 0.000000 0.000000 0.000000 0.000000 0.000000 0.000000 0.000000 0.000000 0.000000 0.000000 0.000000 0.000000 0.000000 0.000000 0.000000 0.000000 0.000000 0.000000 0.000000 0.000000 0.000000 0.000000 20.269895 20.269895 20.269895 20.269895 20.269895 20.269895 20.269895 20.269895 0.000000 0.000000 0.000000 0.000000 0.000000 0.000000
0.000000 0.000000 0.000000 0.000000 0.000000 0.000000 0.000000 0.000000 0.000000 0.000000 0.000000 0.000000 0.000000 0.000000 0.000000 0.000000 0.000000 0.000000 0.000000 23.281398 23.281398 23.281398 23.281398 23.281398 23.281398 23.281398 23.281398 23.281398 0.000000 0.000000 0.000000 0.000000 0.000000 0.000000 0.000000 0.000000 0.000000 0.000000 0.000000 0.000000 0.000000 0.000000 0.000000 0.000000 0.000000 0.000000 0.000000 0.000000 0.000000 0.000000 0.000000 16.360098 16.360098 16.360098 16.360098 16.360098 16.360098 16.360098 0.000000 0.000000 0.000000 0.000000 0.000000 0.000000 0.000000 0.000000 0.000000 0.000000 0.000000 0.000000 0.000000 0.000000 0.000000 0.000000 0.000000 0.000000 0.000000 0.000000 0.000000 0.000000 0.000000 0.000000 0.000000 0.000000 0.000000 0.000000 0.000000 0.000000 0.000000 20.269895 20.269895 20.269895 20.269895 20.269895 20.269895 20.269895 20.269895 0.000000 0.000000 0.000000 0.000000 0.000000 0.000000
0.000000 0.000000 0.000000 0.000000 0.000000 0.000000 0.000000 0.000000 0.000000 0.000000 0.000000 0.000000 0.000000 0.000000 0.000000 0.000000 0.000000 0.000000 0.000000 0.000000 0.000000 0.000000 0.000000 0.000000 0.000000 0.000000 0.000000 0.000000 11.628777 11.628777 11.628777 11.628777 11.628777 11.628777 22.272925 22.272925 22.272925 22.272925 22.272925 22.272925 22.272925 22.272925 22.272925 22.272925 22.272925 22.272925 0.000000 0.000000 0.000000 0.000000 0.000000 14.254759 14.254759 14.254759 14.254759 14.254759 14.254759 14.254759 17.670850 17.670850 17.670850 17.670850 17.670850 17.670850 17.670850 17.670850 17.670850 0.000000 0.000000 0.000000 0.000000 0.000000 0.000000 0.000000 0.000000 0.000000 0.000000 0.000000 0.000000 0.000000 0.000000 0.000000 0.000000 0.000000 0.000000 0.000000 0.000000 0.000000 0.000000 20.269895 20.269895 20.269895 20.269895 20.269895 20.269895 20.269895 20.269895 0.000000 0.000000 0.000000 0.000000 0.000000 0.000000
0.000000 0.000000 0.000000 0.000000 0.000000 0.000000 0.000000 0.000000 0.000000 0.000000 0.000000 0.000000 0.000000 0.000000 0.000000 0.000000 0.000000 0.000000 0.000000 0.000000 0.000000 0.000000 0.000000 0.000000 0.000000 0.000000 0.000000 0.000000 11.628777 11.628777 11.628777 11.628777 11.628777 11.628777 22.272925 22.272925 22.272925 22.272925 22.272925 22.272925 22.272925 22.272925 22.272925 22.272925 22.272925 22.272925 0.000000 0.000000 0.000000 0.000000 0.000000 14.254759 14.254759 14.254759 14.254759 14.254759 14.254759 14.254759 17.670850 17.670850 17.670850 17.670850 17.670850 17.670850 17.670850 17.670850 17.670850 0.000000 0.000000 0.000000 0.000000 0.000000 0.000000 0.000000 0.000000 0.000000 0.000000 0.000000 0.000000 0.000000 0.000000 0.000000 0.000000 0.000000 0.000000 0.000000 0.000000 0.000000 0.000000 20.269895 20.269895 20.269895 20.269895 20.269895 20.269895 20.269895 20.269895 0.000000 0.000000 0.000000 0.000000 0.000000 0.000000
0.000000 0.000000 0.000000 0.000000 0.000000 0.000000 0.000000 0.000000 0.000000 0.000000 0.000000 0.000000 0.000000 0.000000 0.000000 0.000000 0.000000 0.000000 0.000000 0.000000 0.000000 0.000000 0.000000 0.000000 0.000000 0.000000 0.000000 0.000000 11.628777 11.628777 11.628777 11.628777 11.628777 11.628777 22.272925 22.272925 22.272925 22.272925 22.272925 22.272925 22.272925 22.272925 22.272925 22.272925 22.272925 22.272925 0.000000 0.000000 0.000000 0.000000 0.000000 14.254759 14.254759 14.254759 14.254759 14.254759 14.254759 14.254759 17.670850 17.670850 17.670850 17.670850 17.670850 17.670850 17.670850 17.670850 17.670850 0.000000 0.000000 0.000000 0.000000 0.000000 0.000000 0.000000 0.000000 0.000000 0.000000 0.000000 0.000000 0.000000 0.000000 0.000000 0.000000 0.000000 0.000000 0.000000 0.000000 0.000000 0.000000 20.269895 20.269895 20.269895 20.269895 20.269895 20.269895 20.269895 20.269895 0.000000 0.000000 0.000000 0.000000 0.000000 0.000000
0.000000 0.000000 0.000000 0.000000 0.000000 0.000000 0.000000 0.000000 0.000000 0.000000 0.000000 0.000000 0.000000 0.000000 0.000000 0.000000 0.000000 0.000000 0.000000 0.000000 0.000000 0.000000 0.000000 0.000000 0.000000 0.000000 0.000000 0.000000 11.628777 11.628777 11.628777 11.628777 11.628777 11.628777 22.272925 22.272925 22.272925 22.272925 22.272925 22.272925 22.272925 22.272925 22.272925 22.272925 22.272925 22.272925 0.000000 0.000000 0.000000 0.000000 0.000000 14.254759 14.254759 14.254759 14.254759 14.254759 14.254759 14.254759 17.670850 17.670850 17.670850 17.670850 17.670850 17.670850 17.670850 17.670850 17.670850 0.000000 0.000000 0.000000 0.000000 0.000000 0.000000 0.000000 0.000000 0.000000 0.000000 0.000000 0.000000 0.000000 0.000000 0.000000 0.000000 0.000000 0.000000 0.000000 0.000000 0.000000 0.000000 0.000000 0.000000 0.000000 0.000000 0.000000 0.000000 0.000000 0.000000 0.000000 0.000000 0.000000 0.000000 0.000000 0.000000
0.000000 0.000000 0.000000 0.000000 0.000000 0.000000 0.000000 0.000000 0.000000 0.000000 0.000000 0.000000 0.000000 0.000000 0.000000 0.000000 0.000000 0.000000 0.000000 0.000000 0.000000 0.000000 0.000000 0.000000 0.000000 0.000000 0.000000 0.000000 11.628777 11.628777 11.628777 11.628777 11.628777 11.628777 22.272925 22.272925 22.272925 22.272925 22.272925 22.272925 22.272925 22.272925 22.272925 22.272925 22.272925 22.272925 0.000000 0.000000 0.000000 0.000000 0.000000 14.254759 14.254759 14.254759 14.254759 14.254759 14.254759 14.254759 17.670850 17.670850 17.670850 17.670850 17.670850 17.670850 17.670850 17.670850 17.670850 0.000000 0.000000 0.000000 0.000000 0.000000 0.000000 0.000000 0.000000 0.000000 0.000000 0.000000 0.000000 0.000000 0.000000 0.000000 0.000000 0.000000 0.000000 0.000000 0.000000 0.000000 0.000000 0.000000 0.000000 0.000000 0.000000 0.000000 0.000000 0.000000 0.000000 0.000000 0.000000 0.000000 0.000000 0.000000 0.000000
0.000000 0.000000 0.000000 0.000000 0.000000 0.000000 0.000000 0.000000 0.000000 0.000000 0.000000 0.000000 0.000000 0.000000 0.000000 0.000000 0.000000 0.000000 0.000000 0.000000 0.000000 0.000000 0.000000 0.000000 0.000000 0.000000 0.000000 0.000000 11.628777 11.628777 11.628777 11.628777 11.628777 11.628777 22.272925 22.272925 22.272925 22.272925 22.272925 22.272925 22.272925 22.272925 22.272925 22.272925 22.272925 22.272925 0.000000 0.000000 0.000000 0.000000 0.000000 14.254759 14.254759 14.254759 14.254759 14.254759 14.254759 14.254759 17.670850 17.670850 17.670850 17.670850 17.670850 17.670850 17.670850 17.670850 17.670850 0.000000 0.000000 0.000000 0.000000 0.000000 0.000000 0.000000 0.000000 0.000000 0.000000 0.000000 0.000000 0.000000 0.000000 0.000000 0.000000 0.000000 0.000000 0.000000 0.000000 0.000000 0.000000 0.000000 0.000000 0.000000 0.000000 0.000000 0.000000 0.000000 0.000000 0.000000 0.000000 0.000000 0.000000 0.000000 0.000000
0.000000 0.000000 0.000000 0.000000 0.000000 0.000000 0.000000 0.000000 0.000000 0.000000 0.000000 0.000000 0.000000 0.000000 0.000000 0.000000 0.000000 0.000000 0.000000 0.000000 0.000000 0.000000 0.000000 0.000000 0.000000 0.000000 0.000000 0.000000 11.628777 11.628777 11.628777 11.628777 11.628777 11.628777 22.272925 22.272925 22.272925 22.272925 22.272925 22.272925 22.272925 22.272925 22.272925 22.272925 22.272925 22.272925 0.000000 0.000000 0.000000 0.000000 0.000000 14.254759 14.254759 14.254759 14.254759 14.254759 14.254759 14.254759 17.670850 17.670850 17.670850 17.670850 17.670850 17.670850 17.670850 17.670850 17.670850 0.000000 0.000000 0.000000 0.000000 0.000000 0.000000 0.000000 17.735718 17.735718 17.735718 17.735718 17.735718 17.735718 17.735718 17.735718 17.735718 17.735718 17.735718 17.735718 0.000000 0.000000 0.000000 12.101517 12.101517 12.101517 12.101517 12.101517 12.101517 12.101517 12.101517 0.000000 0.000000 0.000000 0.000000 0.000000 0.000000
0.000000 0.000000 0.000000 0.000000 0.000000 0.000000 0.000000 0.000000 0.000000 0.000000 0.000000 0.000000 0.000000 0.000000 0.000000 0.000000 0.000000 0.000000 0.000000 0.000000 0.000000 0.000000 0.000000 0.000000 0.000000 0.000000 0.000000 0.000000 11.628777 11.628777 11.628777 11.628777 11.628777 11.628777 22.272925 22.272925 22.272925 22.272925 22.272925 22.272925 22.272925 22.272925 22.272925 22.272925 22.272925 22.272925 0.000000 0.000000 0.000000 0.000000 0.000000 14.254759 14.254759 14.254759 14.254759 14.254759 14.254759 14.254759 17.670850 17.670850 17.670850 17.670850 17.670850 17.670850 17.670850 17.670850 17.670850 0.000000 0.000000 0.000000 0.000000 0.000000 0.000000 0.000000 17.735718 17.735718 17.735718 17.735718 17.735718 17.735718 17.735718 17.735718 17.735718 17.735718 17.735718 17.735718 0.000000 0.000000 0.000000 12.101517 12.101517 12.101517 12.101517 12.101517 12.101517 12.101517 12.101517 0.000000 0.000000 0.000000 0.000000 0.000000 0.000000
0.000000 0.000000 0.000000 0.000000 0.000000 0.000000 0.000000 0.000000 0.000000 0.000000 0.000000 0.000000 0.000000 0.000000 0.000000 0.000000 0.000000 0.000000 0.000000 0.000000 0.000000 0.000000 0.000000 0.000000 0.000000 0.000000 0.000000 0.000000 0.000000 0.000000 0.000000 0.000000 0.000000 0.000000 18.282438 18.282438 18.282438 18.282438 18.282438 18.282438 18.282438 18.282438 18.282438 18.282438 18.282438 18.282438 0.000000 0.000000 0.000000 0.000000 0.000000 11.334740 11.334740 11.334740 11.334740 11.334740 11.334740 11.334740 0.000000 0.000000 0.000000 0.000000 0.000000 0.000000 0.000000 0.000000 0.000000 0.000000 0.000000 0.000000 0.000000 0.000000 0.000000 0.000000 17.735718 17.735718 17.735718 17.735718 17.735718 17.735718 17.735718 17.735718 17.735718 17.735718 17.735718 17.735718 0.000000 0.000000 0.000000 12.101517 12.101517 12.101517 12.101517 12.101517 12.101517 12.101517 12.101517 0.000000 0.000000 0.000000 0.000000 0.000000 0.000000
0.000000 0.000000 0.000000 0.000000 0.000000 0.000000 0.000000 0.000000 0.000000 0.000000 0.000000 0.000000 0.000000 0.000000 0.000000 0.000000 0.000000 0.000000 0.000000 0.000000 0.000000 0.000000 0.000000 0.000000 0.000000 0.000000 0.000000 0.000000 0.000000 0.000000 0.000000 0.000000 0.000000 0.000000 18.282438 18.282438 18.282438 18.282438 18.282438 18.282438 18.282438 18.282438 18.282438 18.282438 18.282438 18.282438 0.000000 0.000000 0.000000 0.000000 0.000000 11.334740 11.334740 11.334740 11.334740 11.334740 11.334740 11.334740 0.000000 0.000000 0.000000 0.000000 0.000000 0.000000 0.000000 0.000000 0.000000 0.000000 0.000000 0.000000 0.000000 0.000000 0.000000 0.000000 17.735718 17.735718 17.735718 17.735718 17.735718 17.735718 17.735718 17.735718 17.735718 17.735718 17.735718 17.735718 0.000000 0.000000 0.000000 12.101517 12.101517 12.101517 12.101517 12.101517 12.101517 12.101517 12.101517 0.000000 0.000000 0.000000 0.000000 0.000000 0.000000
0.000000 0.000000 0.000000 0.000000 0.000000 0.000000 0.000000 0.000000 0.000000 0.000000 0.000000 0.000000 0.000000 0.000000 0.000000 0.000000 0.000000 0.000000 0.000000 0.000000 3.475617 3.475617 3.475617 3.475617 3.475617 3.475617 0.000000 0.000000 0.000000 0.000000 1.568402 1.568402 0.000000 0.000000 18.282438 18.282438 18.282438 18.282438 18.282438 18.282438 18.282438 18.282438 18.282438 18.282438 18.282438 18.282438 0.000000 0.000000 0.000000 0.000000 0.000000 11.334740 11.334740 11.334740 11.334740 11.334740 11.334740 11.334740 0.000000 0.000000 0.000000 0.000000 0.000000 0.000000 0.000000 0.000000 0.000000 0.000000 0.000000 0.000000 0.000000 0.000000 0.000000 0.000000 17.735718 17.735718 17.735718 17.735718 17.735718 17.735718 17.735718 17.735718 17.735718 17.735718 17.735718 17.735718 0.000000 0.000000 0.000000 12.101517 12.101517 12.101517 12.101517 12.101517 12.101517 12.101517 12.101517 0.000000 0.000000 0.000000 0.000000 0.000000 0.000000
0.000000 0.000000 0.000000 0.000000 0.000000 0.000000 0.000000 0.000000 0.000000 0.000000 0.000000 0.000000 0.000000 0.000000 0.000000 0.000000 0.000000 0.000000 0.000000 0.000000 3.475617 3.475617 3.475617 3.475617 3.475617 3.475617 0.000000 0.000000 0.000000 0.000000 1.568402 1.568402 0.000000 0.000000 18.282438 18.282438 18.282438 18.282438 18.282438 18.282438 18.282438 18.282438 18.282438 18.282438 18.282438 18.282438 0.000000 0.000000 0.000000 0.000000 0.000000 11.334740 11.334740 11.334740 11.334740 11.334740 11.334740 11.334740 0.000000 0.000000 0.000000 0.000000 0.000000 0.000000 0.000000 0.000000 0.000000 0.000000 0.000000 0.000000 0.000000 0.000000 0.000000 0.000000 17.735718 17.735718 17.735718 17.735718 17.735718 17.735718 17.735718 17.735718 17.735718 17.735718 17.735718 17.735718 0.000000 0.000000 0.000000 12.101517 12.101517 12.101517 12.101517 12.101517 12.101517 12.101517 12.101517 0.000000 0.000000 0.000000 0.000000 0.000000 0.000000
0.000000 0.000000 0.000000 0.000000 0.000000 0.000000 0.000000 0.000000 0.000000 0.000000 0.000000 0.000000 0.000000 0.000000 0.000000 0.000000 0.000000 0.000000 0.000000 0.000000 3.475617 3.475617 3.475617 3.475617 3.475617 3.475617 0.000000 0.000000 0.000000 0.000000 1.568402 1.568402 0.000000 0.000000 18.282438 18.282438 18.282438 18.282438 18.282438 18.282438 18.282438 18.282438 18.282438 18.282438 18.282438 18.282438 0.000000 0.000000 0.000000 0.000000 0.000000 11.334740 11.334740 11.334740 11.334740 11.334740 11.334740 11.334740 0.000000 0.000000 0.000000 0.000000 0.000000 0.000000 0.000000 0.000000 0.000000 0.000000 0.000000 0.000000 0.000000 0.000000 0.000000 0.000000 17.735718 17.735718 17.735718 17.735718 17.735718 17.735718 17.735718 17.735718 17.735718 17.735718 17.735718 17.735718 0.000000 0.000000 0.000000 12.101517 12.101517 12.101517 12.101517 12.101517 12.101517 12.101517 12.101517 0.000000 0.000000 0.000000 0.000000 0.000000 0.000000
0.000000 0.000000 0.000000 0.000000 0.000000 0.000000 0.000000 0.000000 0.000000 0.000000 0.000000 0.000000 0.000000 0.000000 0.000000 0.000000 0.000000 0.000000 0.000000 0.000000 0.000000 0.000000 0.000000 0.000000 0.000000 0.000000 0.000000 0.000000 0.000000 0.000000 0.000000 0.000000 0.000000 0.000000 18.282438 18.282438 18.282438 18.282438 18.282438 18.282438 18.282438 18.282438 18.282438 18.282438 18.282438 18.282438 0.000000 0.000000 0.000000 0.000000 0.000000 11.334740 11.334740 11.334740 11.334740 11.334740 11.334740 11.334740 0.000000 0.000000 0.000000 0.000000 0.000000 0.000000 0.000000 0.000000 0.000000 0.000000 0.000000 0.000000 0.000000 0.000000 0.000000 0.000000 0.000000 0.000000 0.000000 0.000000 0.000000 0.000000 0.000000 0.000000 0.000000 0.000000 0.000000 0.000000 0.000000 0.000000 0.000000 0.000000 0.000000 0.000000 0.000000 0.000000 0.000000 0.000000 0.000000 0.000000 0.000000 0.000000 0.000000 0.000000 0.000000
0.000000 0.000000 0.000000 0.000000 0.000000 0.000000 0.000000 0.000000 0.000000 0.000000 0.000000 0.000000 0.000000 0.000000 0.000000 0.000000 0.000000 0.000000 0.000000 0.000000 0.000000 0.000000 0.000000 0.000000 0.000000 0.000000 0.000000 0.000000 0.000000 0.000000 0.000000 0.000000 0.000000 0.000000 18.282438 18.282438 18.282438 18.282438 18.282438 18.282438 18.282438 18.282438 18.282438 18.282438 18.282438 18.282438 0.000000 0.000000 0.000000 0.000000 0.000000 11.334740 11.334740 11.334740 11.334740 11.334740 11.334740 11.334740 0.000000 0.000000 0.000000 0.000000 0.000000 0.000000 0.000000 0.000000 0.000000 0.000000 0.000000 0.000000 0.000000 0.000000 0.000000 0.000000 0.000000 0.000000 0.000000 0.000000 0.000000 0.000000 0.000000 0.000000 0.000000 0.000000 0.000000 0.000000 0.000000 0.000000 0.000000 0.000000 0.000000 0.000000 0.000000 0.000000 0.000000 0.000000 0.000000 0.000000 0.000000 0.000000 0.000000 0.000000 0.000000
0.000000 0.000000 0.000000 0.000000 0.000000 0.000000 0.000000 0.000000 0.000000 0.000000 0.000000 0.000000 0.000000 0.000000 0.000000 0.000000 0.000000 0.000000 0.000000 0.000000 0.000000 0.000000 0.000000 0.000000 0.000000 0.000000 0.000000 0.000000 0.000000 0.000000 0.000000 0.000000 0.000000 0.000000 0.000000 0.000000 0.000000 0.000000 0.000000 0.000000 0.000000 0.000000 0.000000 0.000000 0.000000 0.000000 0.000000 0.000000 0.000000 0.000000 0.000000 0.000000 0.000000 0.000000 0.000000 0.000000 0.000000 0.000000 0.000000 0.000000 0.000000 0.000000 0.000000 0.000000 0.000000 0.000000 0.000000 0.000000 0.000000 0.000000 0.000000 0.000000 0.000000 0.000000 0.000000 0.000000 0.000000 0.000000 0.000000 0.000000 0.000000 0.000000 0.000000 0.000000 0.000000 0.000000 0.000000 0.000000 0.000000 0.000000 0.000000 0.000000 0.000000 0.000000 0.000000 0.000000 0.000000 0.000000 0.000000 0.000000 0.000000 0.000000 0.000000
0.000000 0.000000 0.000000 0.000000 0.000000 0.000000 0.000000 0.000000 0.000000 0.000000 0.000000 0.000000 0.000000 0.000000 0.000000 0.000000 0.000000 0.000000 0.000000 0.000000 0.000000 0.000000 0.000000 0.000000 0.000000 0.000000 0.000000 0.000000 0.000000 0.000000 0.000000 0.000000 0.000000 0.000000 0.000000 0.000000 0.000000 0.000000 0.000000 0.000000 0.000000 0.000000 0.000000 0.000000 0.000000 0.000000 0.000000 0.000000 0.000000 0.000000 0.000000 0.000000 0.000000 0.000000 0.000000 0.000000 0.000000 0.000000 0.000000 0.000000 0.000000 0.000000 0.000000 0.000000 0.000000 0.000000 0.000000 0.000000 0.000000 0.000000 0.000000 0.000000 0.000000 0.000000 0.000000 0.000000 0.000000 0.000000 0.000000 0.000000 0.000000 0.000000 0.000000 0.000000 0.000000 0.000000 0.000000 0.000000 0.000000 0.000000 0.000000 0.000000 0.000000 0.000000 0.000000 0.000000 0.000000 0.000000 0.000000 0.000000 0.000000 0.000000 0.000000
0.000000 0.000000 0.000000 0.000000 0.000000 0.000000 0.000000 0.000000 0.000000 0.000000 0.000000 0.000000 0.000000 0.000000 0.000000 0.000000 0.000000 0.000000 0.000000 0.000000 0.000000 0.000000 0.000000 0.000000 0.000000 0.000000 0.000000 0.000000 0.000000 0.000000 0.000000 0.000000 0.000000 0.000000 0.000000 0.000000 0.000000 0.000000 0.000000 0.000000 0.000000 0.000000 0.000000 0.000000 0.000000 0.000000 0.000000 0.000000 0.000000 0.000000 0.000000 0.000000 0.000000 0.000000 0.000000 0.000000 0.000000 0.000000 0.000000 0.000000 0.000000 0.000000 0.000000 0.000000 0.000000 0.000000 0.000000 0.000000 0.000000 0.000000 0.000000 0.000000 0.000000 0.000000 0.000000 0.000000 0.000000 0.000000 0.000000 0.000000 0.000000 0.000000 0.000000 0.000000 0.000000 0.000000 0.000000 0.000000 0.000000 0.000000 0.000000 0.000000 0.000000 0.000000 0.000000 0.000000 0.000000 0.000000 0.000000 0.000000 0.000000 0.000000 0.000000
0.000000 0.000000 0.000000 0.000000 0.000000 0.000000 0.000000 0.000000 0.000000 0.000000 0.000000 0.000000 0.000000 0.000000 0.000000 0.000000 0.000000 0.000000 0.000000 0.000000 0.000000 0.000000 0.000000 0.000000 0.000000 0.000000 0.000000 0.000000 0.000000 0.000000 0.000000 0.000000 0.000000 0.000000 0.000000 0.000000 0.000000 0.000000 0.000000 0.000000 0.000000 0.000000 0.000000 0.000000 0.000000 0.000000 0.000000 0.000000 0.000000 0.000000 0.000000 0.000000 0.000000 0.000000 0.000000 0.000000 0.000000 0.000000 0.000000 0.000000 0.000000 0.000000 0.000000 0.000000 0.000000 0.000000 0.000000 0.000000 0.000000 0.000000 0.000000 0.000000 0.000000 0.000000 0.000000 0.000000 0.000000 0.000000 0.000000 0.000000 0.000000 0.000000 0.000000 0.000000 0.000000 0.000000 0.000000 0.000000 0.000000 0.000000 0.000000 0.000000 0.000000 0.000000 0.000000 0.000000 0.000000 0.000000 0.000000 0.000000 0.000000 0.000000 0.000000
0.000000 0.000000 0.000000 0.000000 0.000000 0.000000 0.000000 0.000000 0.000000 0.000000 0.000000 0.000000 0.000000 0.000000 0.000000 0.000000 0.000000 0.000000 0.000000 0.000000 0.000000 0.000000 0.000000 0.000000 0.000000 0.000000 0.000000 0.000000 0.000000 0.000000 0.000000 0.000000 0.000000 0.000000 0.000000 0.000000 0.000000 0.000000 0.000000 0.000000 0.000000 0.000000 0.000000 0.000000 0.000000 0.000000 0.000000 0.000000 0.000000 0.000000 0.000000 0.000000 0.000000 0.000000 0.000000 0.000000 0.000000 0.000000 0.000000 0.000000 0.000000 0.000000 0.000000 0.000000 0.000000 0.000000 0.000000 0.000000 0.000000 0.000000 0.000000 0.000000 0.000000 0.000000 0.000000 0.000000 0.000000 0.000000 0.000000 0.000000 0.000000 0.000000 0.000000 0.000000 0.000000 0.000000 0.000000 0.000000 0.000000 0.000000 0.000000 0.000000 0.000000 0.000000 0.000000 0.000000 0.000000 0.000000 0.000000 0.000000 0.000000 0.000000 0.000000
0.000000 0.000000 0.000000 0.000000 0.000000 0.000000 0.000000 0.000000 0.000000 0.000000 0.000000 0.000000 0.000000 0.000000 0.000000 0.000000 0.000000 0.000000 0.000000 0.000000 0.000000 0.000000 0.000000 0.000000 0.000000 0.000000 0.000000 0.000000 0.000000 0.000000 0.000000 0.000000 0.000000 0.000000 0.000000 0.000000 0.000000 0.000000 0.000000 0.000000 0.000000 0.000000 0.000000 0.000000 0.000000 0.000000 0.000000 0.000000 0.000000 0.000000 0.000000 0.000000 0.000000 0.000000 0.000000 0.000000 0.000000 0.000000 0.000000 0.000000 0.000000 0.000000 0.000000 0.000000 0.000000 0.000000 0.000000 0.000000 0.000000 0.000000 0.000000 0.000000 0.000000 0.000000 0.000000 0.000000 0.000000 0.000000 0.000000 0.000000 0.000000 0.000000 0.000000 0.000000 0.000000 0.000000 0.000000 0.000000 0.000000 0.000000 0.000000 0.000000 0.000000 0.000000 0.000000 0.000000 0.000000 0.000000 0.000000 0.000000 0.000000 0.000000 0.000000
0.000000 0.000000 0.000000 0.000000 0.000000 0.000000 8.757153 8.757153 8.757153 8.757153 8.757153 8.757153 0.000000 0.000000 0.000000 0.000000 0.000000 0.000000 0.000000 0.000000 0.000000 0.000000 0.000000 0.000000 0.000000 0.000000 0.000000 0.000000 0.000000 0.000000 0.000000 0.000000 0.000000 18.236883 18.236883 18.236883 18.236883 18.236883 18.236883 18.236883 18.236883 18.236883 18.236883 18.236883 0.000000 0.000000 0.000000 0.000000 0.000000 0.000000 0.000000 0.000000 0.000000 0.000000 0.000000 0.000000 0.000000 0.000000 0.000000 0.000000 0.000000 0.000000 0.000000 0.000000 0.000000 0.000000 0.000000 0.000000 0.000000 0.000000 0.000000 0.000000 0.000000 0.000000 11.239261 11.239261 11.239261 11.239261 11.239261 11.239261 11.239261 0.000000 0.000000 0.000000 0.000000 19.439369 19.439369 19.439369 19.439369 19.439369 19.439369 19.439369 19.439369 19.439369 19.439369 19.439369 19.439369 0.000000 0.000000 0.000000 0.000000 0.000000 0.000000
0.000000 0.000000 0.000000 0.000000 0.000000 0.000000 8.757153 8.757153 8.757153 8.757153 8.757153 8.757153 0.000000 0.000000 0.000000 0.000000 0.000000 0.000000 0.000000 0.000000 0.000000 0.000000 0.000000 0.000000 0.000000 0.000000 0.000000 0.000000 0.000000 0.000000 0.000000 0.000000 0.000000 18.236883 18.236883 18.236883 18.236883 18.236883 18.236883 18.236883 18.236883 18.236883 18.236883 18.236883 0.000000 0.000000 0.000000 0.000000 0.000000 0.000000 0.000000 0.000000 0.000000 0.000000 0.000000 0.000000 0.000000 0.000000 0.000000 0.000000 0.000000 0.000000 0.000000 0.000000 0.000000 0.000000 0.000000 0.000000 0.000000 0.000000 0.000000 0.000000 0.000000 0.000000 11.239261 11.239261 11.239261 11.239261 11.239261 11.239261 11.239261 0.000000 0.000000 0.000000 0.000000 19.439369 19.439369 19.439369 19.439369 19.439369 19.439369 19.439369 19.439369 19.439369 19.439369 19.439369 19.439369 0.000000 0.000000 0.000000 0.000000 0.000000 0.000000
0.000000 0.000000 0.000000 0.000000 0.000000 0.000000 8.757153 8.757153 8.757153 8.757153 8.757153 8.757153 0.000000 0.000000 0.000000 0.000000 0.000000 0.000000 0.000000 0.000000 0.000000 0.000000 0.000000 0.000000 0.000000 0.000000 0.000000 0.000000 0.000000 0.000000 0.000000 0.000000 0.000000 18.236883 18.236883 18.236883 18.236883 18.236883 18.236883 18.236883 18.236883 18.236883 18.236883 18.236883 0.000000 0.000000 0.000000 0.000000 0.000000 0.000000 0.000000 0.000000 0.000000 0.000000 0.000000 0.000000 0.000000 0.000000 0.000000 0.000000 0.000000 0.000000 0.000000 0.000000 0.000000 0.000000 0.000000 0.000000 0.000000 0.000000 0.000000 0.000000 0.000000 0.000000 11.239261 11.239261 11.239261 11.239261 11.239261 11.239261 11.239261 0.000000 0.000000 0.000000 0.000000 19.439369 19.439369 19.439369 19.439369 19.439369 19.439369 19.439369 19.439369 19.439369 19.439369 19.439369 19.439369 0.000000 0.000000 0.000000 0.000000 0.000000 0.000000
0.000000 0.000000 0.000000 0.000000 0.000000 0.000000 8.757153 8.757153 8.757153 8.757153 8.757153 8.757153 0.000000 0.000000 0.000000 0.000000 0.000000 0.000000 0.000000 0.000000 0.000000 0.000000 0.000000 0.000000 0.000000 0.000000 0.000000 0.000000 0.000000 0.000000 0.000000 0.000000 0.000000 18.236883 18.236883 18.236883 18.236883 18.236883 18.236883 18.236883 18.236883 18.236883 18.236883 18.236883 0.000000 0.000000 0.000000 0.000000 0.000000 0.000000 0.000000 0.000000 0.000000 0.000000 0.000000 0.000000 0.000000 0.000000 0.000000 0.000000 0.000000 0.000000 0.000000 0.000000 0.000000 0.000000 0.000000 0.000000 0.000000 0.000000 0.000000 0.000000 0.000000 0.000000 11.239261 11.239261 11.239261 11.239261 11.239261 11.239261 11.239261 0.000000 0.000000 0.000000 0.000000 19.439369 19.439369 19.439369 19.439369 19.439369 19.439369 19.439369 19.439369 19.439369 19.439369 19.439369 19.439369 0.000000 0.000000 0.000000 0.000000 0.000000 0.000000
0.000000 0.000000 0.000000 0.000000 0.000000 0.000000 8.757153 8.757153 8.757153 8.757153 8.757153 8.757153 0.000000 0.000000 0.000000 0.000000 0.000000 0.000000 0.000000 0.000000 0.000000 0.000000 0.000000 0.000000 0.000000 0.000000 0.000000 0.000000 0.000000 0.000000 0.000000 0.000000 0.000000 18.236883 18.236883 18.236883 18.236883 18.236883 18.236883 18.236883 18.236883 18.236883 18.236883 18.236883 0.000000 0.000000 0.000000 0.000000 0.000000 0.000000 0.000000 0.000000 0.000000 0.000000 0.000000 0.000000 0.000000 0.000000 0.000000 0.000000 0.000000 0.000000 0.000000 0.000000 0.000000 0.000000 0.000000 0.000000 0.000000 0.000000 0.000000 0.000000 0.000000 0.000000 11.239261 11.239261 11.239261 11.239261 11.239261 11.239261 11.239261 0.000000 0.000000 0.000000 0.000000 19.439369 19.439369 19.439369 19.439369 19.439369 19.439369 19.439369 19.439369 19.439369 19.439369 19.439369 19.439369 0.000000 0.000000 0.000000 0.000000 0.000000 0.000000
0.000000 0.000000 0.000000 0.000000 0.000000 0.000000 8.757153 8.757153 8.757153 8.757153 8.757153 8.757153 0.000000 0.000000 0.000000 0.000000 0.000000 0.000000 0.000000 0.000000 0.000000 0.000000 0.000000 0.000000 0.000000 0.000000 0.000000 0.000000 0.000000 0.000000 0.000000 0.000000 0.000000 18.236883 18.236883 18.236883 18.236883 18.236883 18.236883 18.236883 18.236883 18.236883 18.236883 18.236883 0.000000 0.000000 0.000000 0.000000 0.000000 0.000000 0.000000 13.486316 13.486316 13.486316 13.486316 13.486316 13.486316 13.486316 13.486316 0.000000 0.000000 0.000000 0.000000 0.000000 0.000000 0.000000 0.000000 0.000000 0.000000 0.000000 0.000000 0.000000 0.000000 0.000000 11.239261 11.239261 11.239261 11.239261 11.239261 11.239261 11.239261 0.000000 0.000000 0.000000 0.000000 19.439369 19.439369 19.439369 19.439369 19.439369 19.439369 19.439369 19.439369 19.439369 19.439369 19.439369 19.439369 0.000000 0.000000 0.000000 0.000000 0.000000 0.000000
0.000000 0.000000 0.000000 0.000000 0.000000 0.000000 8.757153 8.757153 8.757153 8.757153 8.757153 8.757153 0.000000 0.000000 0.000000 0.000000 0.000000 0.000000 0.000000 0.000000 0.000000 0.000000 0.000000 0.000000 0.000000 0.000000 0.000000 0.000000 0.000000 0.000000 0.000000 0.000000 0.000000 18.236883 18.236883 18.236883 18.236883 18.236883 18.236883 18.236883 18.236883 18.236883 18.236883 18.236883 0.000000 0.000000 0.000000 0.000000 0.000000 0.000000 0.000000 13.486316 13.486316 13.486316 13.486316 13.486316 13.486316 13.486316 13.486316 0.000000 0.000000 0.000000 0.000000 0.000000 0.000000 0.000000 0.000000 0.000000 0.000000 0.000000 0.000000 0.000000 0.000000 0.000000 11.239261 11.239261 11.239261 11.239261 11.239261 11.239261 11.239261 0.000000 0.000000 0.000000 0.000000 19.439369 19.439369 19.439369 19.439369 19.439369 19.439369 19.439369 19.439369 19.439369 19.439369 19.439369 19.439369 0.000000 0.000000 0.000000 0.000000 0.000000 0.000000
0.000000 0.000000 0.000000 0.000000 0.000000 0.000000 0.000000 0.000000 0.000000 0.000000 0.000000 0.000000 0.000000 0.000000 0.000000 0.000000 0.000000 0.000000 0.000000 0.000000 0.000000 0.000000 0.000000 0.000000 0.000000 0.000000 0.000000 0.000000 0.000000 0.000000 0.000000 0.000000 0.000000 0.000000 0.000000 0.000000 0.000000 0.000000 0.000000 0.000000 0.000000 0.000000 0.000000 0.000000 0.000000 0.000000 0.000000 0.000000 0.000000 0.000000 0.000000 13.486316 13.486316 13.486316 13.486316 13.486316 13.486316 13.486316 13.486316 0.000000 0.000000 0.000000 0.000000 0.000000 0.000000 0.000000 0.000000 0.000000 0.000000 0.000000 0.000000 0.000000 0.000000 0.000000 0.000000 0.000000 0.000000 0.000000 0.000000 0.000000 0.000000 0.000000 0.000000 0.000000 0.000000 0.000000 0.000000 0.000000 0.000000 0.000000 0.000000 0.000000 0.000000 0.000000 0.000000 0.000000 0.000000 0.000000 0.000000 0.000000 0.000000 0.000000 0.000000
0.000000 0.000000 0.000000 0.000000 0.000000 0.000000 0.000000 0.000000 0.000000 0.000000 0.000000 0.000000 0.000000 0.000000 0.000000 0.000000 0.000000 0.000000 0.000000 0.000000 0.000000 0.000000 0.000000 0.000000 0.000000 0.000000 0.000000 0.000000 0.000000 0.000000 0.000000 0.000000 0.000000 0.000000 0.000000 0.000000 0.000000 0.000000 0.000000 0.000000 0.000000 0.000000 0.000000 0.000000 0.000000 0.000000 0.000000 0.000000 0.000000 0.000000 0.000000 13.486316 13.486316 13.486316 13.486316 13.486316 13.486316 13.486316 13.486316 0.000000 0.000000 0.000000 0.000000 0.000000 0.000000 0.000000 0.000000 0.000000 0.000000 0.000000 0.000000 0.000000 0.000000 0.000000 0.000000 0.000000 0.000000 0.000000 0.000000 0.000000 0.000000 0.000000 0.000000 0.000000 0.000000 0.000000 0.000000 0.000000 0.000000 0.000000 0.000000 0.000000 0.000000 0.000000 0.000000 0.000000 0.000000 0.000000 0.000000 0.000000 0.000000 0.000000 0.000000
0.000000 0.000000 0.000000 0.000000 0.000000 0.000000 0.000000 0.000000 0.000000 0.000000 0.000000 0.000000 0.000000 0.000000 0.000000 0.000000 0.000000 0.000000 0.000000 0.000000 0.000000 0.000000 0.000000 0.000000 0.000000 0.000000 0.000000 0.000000 0.000000 0.000000 0.000000 0.000000 0.000000 0.000000 0.000000 0.000000 0.000000 0.000000 0.000000 0.000000 0.000000 0.000000 0.000000 0.000000 0.000000 0.000000 0.000000 0.000000 0.000000 0.000000 0.000000 13.486316 13.486316 13.486316 13.486316 13.486316 13.486316 13.486316 13.486316 0.000000 0.000000 0.000000 0.000000 0.000000 0.000000 0.000000 0.000000 0.000000 0.000000 0.000000 0.000000 0.000000 0.000000 0.000000 0.000000 0.000000 0.000000 0.000000 0.000000 0.000000 0.000000 0.000000 0.000000 0.000000 0.000000 0.000000 0.000000 0.000000 0.000000 0.000000 0.000000 0.000000 0.000000 0.000000 0.000000 0.000000 0.000000 0.000000 0.000000 0.000000 0.000000 0.000000 0.000000
0.000000 0.000000 0.000000 0.000000 0.000000 0.000000 0.000000 0.000000 0.000000 0.000000 0.000000 0.000000 0.000000 0.000000 0.000000 0.000000 0.000000 0.000000 0.000000 0.000000 0.000000 0.000000 0.000000 0.000000 0.000000 0.000000 0.000000 0.000000 0.000000 0.000000 0.000000 0.000000 0.000000 0.000000 0.000000 0.000000 0.000000 0.000000 0.000000 0.000000 0.000000 0.000000 0.000000 0.000000 0.000000 0.000000 0.000000 0.000000 0.000000 0.000000 0.000000 13.486316 13.486316 13.486316 13.486316 13.486316 13.486316 13.486316 13.486316 0.000000 0.000000 0.000000 0.000000 0.000000 0.000000 0.000000 0.000000 0.000000 0.000000 0.000000 0.000000 0.000000 0.000000 0.000000 0.000000 0.000000 0.000000 0.000000 0.000000 0.000000 0.000000 0.000000 0.000000 0.000000 0.000000 0.000000 0.000000 0.000000 0.000000 0.000000 0.000000 0.000000 0.000000 0.000000 0.000000 0.000000 0.000000 0.000000 0.000000 0.000000 0.000000 0.000000 0.000000
0.000000 0.000000 0.000000 0.000000 0.000000 0.000000 0.000000 0.000000 0.000000 0.000000 0.000000 0.000000 0.000000 0.000000 0.000000 0.000000 0.000000 0.000000 0.000000 0.000000 0.000000 0.000000 0.000000 0.000000 0.000000 0.000000 0.000000 0.000000 0.000000 0.000000 0.000000 0.000000 0.000000 18.866471 18.866471 18.866471 18.866471 18.866471 18.866471 18.866471 18.866471 18.866471 18.866471 18.866471 0.000000 0.000000 0.000000 0.000000 0.000000 0.000000 0.000000 13.486316 13.486316 13.486316 13.486316 13.486316 13.486316 13.486316 13.486316 0.000000 0.000000 0.000000 0.000000 0.000000 0.000000 0.000000 0.000000 0.000000 0.000000 0.000000 0.000000 0.000000 0.000000 0.000000 0.000000 0.000000 0.000000 0.000000 0.000000 0.000000 0.000000 0.000000 0.000000 0.000000 0.000000 19.721100 19.721100 19.721100 19.721100 19.721100 19.721100 19.721100 19.721100 19.721100 19.721100 19.721100 19.721100 0.000000 0.000000 0.000000 0.000000 0.000000 0.000000
0.000000 0.000000 0.000000 0.000000 0.000000 0.000000 0.000000 0.000000 0.000000 0.000000 0.000000 0.000000 0.000000 0.000000 0.000000 0.000000 0.000000 0.000000 0.000000 0.000000 0.000000 0.000000 0.000000 0.000000 0.000000 0.000000 0.000000 0.000000 0.000000 0.000000 0.000000 0.000000 0.000000 18.866471 18.866471 18.866471 18.866471 18.866471 18.866471 18.866471 18.866471 18.866471 18.866471 18.866471 0.000000 0.000000 0.000000 0.000000 0.000000 0.000000 0.000000 13.012717 13.012717 13.012717 13.012717 13.012717 13.012717 13.012717 13.012717 13.698646 13.698646 13.698646 13.698646 13.698646 13.698646 13.698646 13.698646 0.000000 0.000000 0.000000 0.000000 0.000000 0.000000 0.000000 0.000000 0.000000 0.000000 0.000000 0.000000 0.000000 0.000000 0.000000 0.000000 0.000000 0.000000 19.721100 19.721100 19.721100 19.721100 19.721100 19.721100 19.721100 19.721100 19.721100 19.721100 19.721100 19.721100 0.000000 0.000000 0.000000 0.000000 0.000000 0.000000
0.000000 0.000000 0.000000 0.000000 0.000000 0.000000 0.000000 0.000000 0.000000 0.000000 0.000000 0.000000 0.000000 0.000000 0.000000 0.000000 0.000000 0.000000 0.000000 0.000000 0.000000 0.000000 0.000000 0.000000 0.000000 0.000000 0.000000 0.000000 0.000000 0.000000 0.000000 0.000000 0.000000 18.866471 18.866471 18.866471 18.866471 18.866471 18.866471 18.866471 18.866471 18.866471 18.866471 18.866471 0.000000 0.000000 0.000000 0.000000 0.000000 0.000000 0.000000 13.012717 13.012717 13.012717 13.012717 13.012717 13.012717 13.012717 13.012717 13.698646 13.698646 13.698646 13.698646 13.698646 13.698646 13.698646 13.698646 0.000000 0.000000 0.000000 0.000000 0.000000 0.000000 0.000000 0.000000 0.000000 0.000000 0.000000 0.000000 0.000000 0.000000 0.000000 0.000000 0.000000 0.000000 19.721100 19.721100 19.721100 19.721100 19.721100 19.721100 19.721100 19.721100 19.721100 19.721100 19.721100 19.721100 0.000000 0.000000 0.000000 0.000000 0.000000 0.000000
0.000000 0.000000 0.000000 0.000000 0.000000 0.000000 0.000000 0.000000 0.000000 0.000000 0.000000 0.000000 0.000000 0.000000 0.000000 0.000000 0.000000 0.000000 0.000000 0.000000 0.000000 0.000000 0.000000 0.000000 0.000000 0.000000 0.000000 0.000000 0.000000 0.000000 0.000000 0.000000 0.000000 18.866471 18.866471 18.866471 18.866471 18.866471 18.866471 18.866471 18.866471 18.866471 18.866471 18.866471 0.000000 0.000000 0.000000 0.000000 0.000000 0.000000 0.000000 13.012717 13.012717 13.012717 13.012717 13.012717 13.012717 13.012717 13.012717 13.698646 13.698646 13.698646 13.698646 13.698646 13.698646 13.698646 13.698646 0.000000 0.000000 0.000000 0.000000 0.000000 0.000000 0.000000 0.000000 0.000000 0.000000 0.000000 0.000000 0.000000 0.000000 0.000000 0.000000 0.000000 0.000000 19.721100 19.721100 19.721100 19.721100 19.721100 19.721100 19.721100 19.721100 19.721100 19.721100 19.721100 19.721100 0.000000 0.000000 0.000000 0.000000 0.000000 0.000000
0.000000 0.000000 0.000000 0.000000 0.000000 0.000000 0.000000 0.000000 0.000000 0.000000 0.000000 0.000000 0.000000 0.000000 0.000000 0.000000 0.000000 0.000000 0.000000 0.000000 0.000000 0.000000 0.000000 0.000000 0.000000 0.000000 0.000000 0.000000 0.000000 0.000000 0.000000 0.000000 0.000000 18.866471 18.866471 18.866471 18.866471 18.866471 18.866471 18.866471 18.866471 18.866471 18.866471 18.866471 0.000000 0.000000 0.000000 0.000000 0.000000 0.000000 0.000000 13.012717 13.012717 13.012717 13.012717 13.012717 13.012717 13.012717 13.012717 13.698646 13.698646 13.698646 13.698646 13.698646 13.698646 13.698646 13.698646 0.000000 0.000000 0.000000 0.000000 0.000000 0.000000 0.000000 0.000000 0.000000 0.000000 0.000000 0.000000 0.000000 0.000000 0.000000 0.000000 0.000000 0.000000 19.721100 19.721100 19.721100 19.721100 19.721100 19.721100 19.721100 19.721100 19.721100 19.721100 19.721100 19.721100 0.000000 0.000000 0.000000 0.000000 0.000000 0.000000
0.000000 0.000000 0.000000 0.000000 0.000000 0.000000 0.000000 0.000000 0.000000 0.000000 0.000000 0.000000 0.000000 0.000000 0.000000 0.000000 0.000000 0.000000 0.000000 0.000000 0.000000 0.000000 0.000000 0.000000 0.000000 0.000000 0.000000 0.000000 0.000000 0.000000 0.000000 0.000000 0.000000 18.866471 18.866471 18.866471 18.866471 18.866471 18.866471 18.866471 18.866471 18.866471 18.866471 18.866471 0.000000 0.000000 0.000000 0.000000 0.000000 0.000000 0.000000 13.012717 13.012717 13.012717 13.012717 13.012717 13.012717 13.012717 13.012717 13.698646 13.698646 13.698646 13.698646 13.698646 13.698646 13.698646 13.698646 0.000000 0.000000 0.000000 0.000000 0.000000 0.000000 0.000000 0.000000 0.000000 0.000000 0.000000 0.000000 0.000000 0.000000 0.000000 0.000000 0.000000 0.000000 19.721100 19.721100 19.721100 19.721100 19.721100 19.721100 19.721100 19.721100 19.721100 19.721100 19.721100 19.721100 0.000000 0.000000 0.000000 0.000000 0.000000 0.000000
0.000000 0.000000 0.000000 0.000000 0.000000 0.000000 0.000000 0.000000 0.000000 0.000000 0.000000 0.000000 0.000000 0.000000 0.000000 0.000000 0.000000 0.000000 0.000000 0.000000 0.000000 0.000000 0.000000 0.000000 0.000000 0.000000 0.000000 0.000000 0.000000 0.000000 0.000000 0.000000 0.000000 0.000000 0.000000 0.000000 0.000000 0.000000 0.000000 0.000000 0.000000 0.000000 0.000000 0.000000 0.000000 0.000000 0.000000 0.000000 0.000000 0.000000 0.000000 13.012717 13.012717 13.012717 13.012717 13.012717 13.012717 13.012717 13.012717 13.698646 13.698646 13.698646 13.698646 13.698646 13.698646 13.698646 13.698646 0.000000 0.000000 0.000000 0.000000 0.000000 0.000000 0.000000 0.000000 0.000000 0.000000 0.000000 0.000000 0.000000 0.000000 0.000000 0.000000 0.000000 0.000000 0.000000 0.000000 0.000000 0.000000 0.000000 0.000000 0.000000 0.000000 0.000000 0.000000 0.000000 0.000000 0.000000 0.000000 0.000000 0.000000 0.000000 0.000000
0.000000 0.000000 0.000000 0.000000 0.000000 0.000000 0.000000 0.000000 0.000000 0.000000 0.000000 0.000000 0.000000 0.000000 0.000000 0.000000 0.000000 0.000000 0.000000 0.000000 0.000000 0.000000 0.000000 0.000000 0.000000 0.000000 0.000000 0.000000 0.000000 0.000000 0.000000 0.000000 0.000000 0.000000 0.000000 0.000000 0.000000 0.000000 0.000000 0.000000 0.000000 0.000000 0.000000 0.000000 0.000000 0.000000 0.000000 0.000000 0.000000 0.000000 0.000000 13.012717 13.012717 13.012717 13.012717 13.012717 13.012717 13.012717 13.012717 13.698646 13.698646 13.698646 13.698646 13.698646 13.698646 13.698646 13.698646 0.000000 0.000000 0.000000 0.000000 0.000000 0.000000 0.000000 0.000000 0.000000 0.000000 0.000000 0.000000 0.000000 0.000000 0.000000 0.000000 0.000000 0.000000 0.000000 0.000000 0.000000 0.000000 0.000000 0.000000 0.000000 0.000000 0.000000 0.000000 0.000000 0.000000 0.000000 0.000000 0.000000 0.000000 0.000000 0.000000
0.000000 0.000000 0.000000 0.000000 0.000000 0.000000 0.000000 0.000000 0.000000 0.000000 0.000000 0.000000 0.000000 0.000000 0.000000 0.000000 0.000000 0.000000 0.000000 0.000000 0.000000 0.000000 0.000000 0.000000 0.000000 0.000000 0.000000 0.000000 0.000000 0.000000 0.000000 0.000000 0.000000 0.000000 0.000000 0.000000 0.000000 0.000000 0.000000 0.000000 0.000000 0.000000 0.000000 0.000000 0.000000 0.000000 0.000000 0.000000 0.000000 0.000000 0.000000 0.000000 0.000000 0.000000 0.000000 0.000000 0.000000 0.000000 0.000000 0.000000 0.000000 0.000000 0.000000 0.000000 0.000000 0.000000 0.000000 0.000000 0.000000 0.000000 0.000000 0.000000 0.000000 0.000000 0.000000 0.000000 0.000000 0.000000 0.000000 0.000000 0.000000 0.000000 0.000000 0.000000 0.000000 0.000000 0.000000 0.000000 0.000000 0.000000 0.000000 0.000000 0.000000 0.000000 0.000000 0.000000 0.000000 0.000000 0.000000 0.000000 0.000000 0.000000 0.000000
0.000000 0.000000 0.000000 0.000000 0.000000 0.000000 0.000000 0.000000 0.000000 0.000000 0.000000 0.000000 0.000000 0.000000 0.000000 0.000000 0.000000 0.000000 0.000000 0.000000 0.000000 0.000000 0.000000 0.000000 0.000000 0.000000 0.000000 0.000000 0.000000 0.000000 0.000000 0.000000 0.000000 0.000000 0.000000 0.000000 0.000000 0.000000 0.000000 0.000000 0.000000 0.000000 0.000000 0.000000 0.000000 0.000000 0.000000 0.000000 0.000000 0.000000 0.000000 0.000000 0.000000 0.000000 0.000000 0.000000 0.000000 0.000000 0.000000 0.000000 0.000000 0.000000 0.000000 0.000000 0.000000 0.000000 0.000000 0.000000 0.000000 0.000000 0.000000 0.000000 0.000000 0.000000 0.000000 0.000000 0.000000 0.000000 0.000000 0.000000 0.000000 0.000000 0.000000 0.000000 0.000000 0.000000 0.000000 0.000000 0.000000 0.000000 0.000000 0.000000 0.000000 0.000000 0.000000 0.000000 0.000000 0.000000 0.000000 0.000000 0.000000 0.000000 0.000000
0.000000 0.000000 0.000000 0.000000 0.000000 0.000000 0.000000 0.000000 0.000000 0.000000 0.000000 0.000000 0.000000 0.000000 0.000000 0.000000 0.000000 0.000000 0.000000 0.000000 0.000000 0.000000 0.000000 0.000000 0.000000 0.000000 0.000000 0.000000 0.000000 0.000000 0.000000 0.000000 0.000000 0.000000 0.000000 0.000000 0.000000 0.000000 0.000000 0.000000 0.000000 0.000000 0.000000 0.000000 0.000000 0.000000 0.000000 0.000000 0.000000 0.000000 0.000000 0.000000 0.000000 0.000000 0.000000 0.000000 0.000000 0.000000 0.000000 0.000000 0.000000 0.000000 0.000000 0.000000 0.000000 0.000000 0.000000 0.000000 0.000000 0.000000 0.000000 0.000000 0.000000 0.000000 0.000000 0.000000 0.000000 0.000000 0.000000 0.000000 0.000000 0.000000 0.000000 0.000000 0.000000 0.000000 0.000000 0.000000 0.000000 0.000000 0.000000 0.000000 0.000000 0.000000 0.000000 0.000000 0.000000 0.000000 0.000000 0.000000 0.000000 0.000000 0.000000
0.000000 0.000000 0.000000 0.000000 0.000000 0.000000 0.000000 0.000000 0.000000 0.000000 0.000000 0.000000 0.000000 0.000000 0.000000 0.000000 0.000000 0.000000 0.000000 0.000000 0.000000 0.000000 0.000000 0.000000 0.000000 0.000000 0.000000 0.000000 0.000000 0.000000 0.000000 0.000000 0.000000 0.000000 0.000000 0.000000 0.000000 0.000000 0.000000 0.000000 0.000000 0.000000 0.000000 0.000000 0.000000 0.000000 0.000000 0.000000 0.000000 0.000000 0.000000 0.000000 0.000000 0.000000 0.000000 0.000000 0.000000 0.000000 0.000000 0.000000 0.000000 0.000000 0.000000 0.000000 0.000000 0.000000 0.000000 0.000000 0.000000 0.000000 0.000000 0.000000 0.000000 0.000000 0.000000 0.000000 0.000000 0.000000 0.000000 0.000000 0.000000 0.000000 0.000000 0.000000 0.000000 0.000000 0.000000 0.000000 0.000000 0.000000 0.000000 0.000000 0.000000 0.000000 0.000000 0.000000 0.000000 0.000000 0.000000 0.000000 0.000000 0.000000 0.000000
0.000000 0.000000 0.000000 0.000000 0.000000 0.000000 0.000000 0.000000 0.000000 0.000000 0.000000 0.000000 0.000000 0.000000 0.000000 0.000000 0.000000 0.000000 0.000000 0.000000 0.000000 0.000000 0.000000 0.000000 0.000000 0.000000 0.000000 0.000000 0.000000 0.000000 0.000000 0.000000 0.000000 0.000000 0.000000 0.000000 0.000000 0.000000 0.000000 0.000000 0.000000 0.000000 0.000000 0.000000 0.000000 0.000000 0.000000 0.000000 0.000000 0.000000 0.000000 0.000000 0.000000 0.000000 0.000000 0.000000 0.000000 0.000000 0.000000 0.000000 0.000000 0.000000 0.000000 0.000000 0.000000 0.000000 0.000000 0.000000 0.000000 0.000000 0.000000 0.000000 0.000000 0.000000 0.000000 0.000000 0.000000 0.000000 0.000000 0.000000 0.000000 0.000000 0.000000 0.000000 0.000000 0.000000 0.000000 0.000000 0.000000 0.000000 0.000000 0.000000 0.000000 0.000000 0.000000 0.000000 0.000000 0.000000 0.000000 0.000000 0.000000 0.000000 0.000000
0.000000 0.000000 0.000000 0.000000 0.000000 0.000000 0.000000 0.000000 0.000000 0.000000 0.000000 0.000000 0.000000 0.000000 0.000000 0.000000 0.000000 0.000000 0.000000 11.453176 11.453176 11.453176 11.453176 11.453176 11.453176 11.453176 17.932661 17.932661 17.932661 17.932661 17.932661 17.932661 17.932661 17.932661 17.932661 17.932661 17.932661 14.825769 14.825769 14.825769 14.825769 14.825769 14.825769 14.825769 14.825769 14.825769 0.000000 0.000000 0.000000 0.000000 0.000000 11.975527 11.975527 11.975527 11.975527 11.975527 11.975527 11.975527 11.975527 0.000000 0.000000 0.000000 0.000000 0.000000 0.000000 0.000000 0.000000 0.000000 0.000000 0.000000 0.000000 0.000000 0.000000 0.000000 0.000000 0.000000 0.000000 0.000000 0.000000 0.000000 0.000000 0.000000 0.000000 0.000000 0.000000 0.000000 0.000000 0.000000 0.000000 0.000000 0.000000 0.000000 0.000000 0.000000 0.000000 0.000000 0.000000 0.000000 0.000000 0.000000 0.000000 0.000000 0.000000
0.000000 0.000000 0.000000 0.000000 0.000000 0.000000 0.000000 0.000000 0.000000 0.000000 0.000000 0.000000 0.000000 0.000000 0.000000 0.000000 0.000000 0.000000 0.000000 11.453176 11.453176 11.453176 11.453176 11.453176 11.453176 11.453176 17.932661 17.932661 17.932661 17.932661 17.932661 17.932661 17.932661 17.932661 17.932661 17.932661 17.932661 14.825769 14.825769 14.825769 14.825769 14.825769 14.825769 14.825769 14.825769 14.825769 0.000000 0.000000 0.000000 0.000000 0.000000 11.975527 11.975527 11.975527 11.975527 11.975527 11.975527 11.975527 11.975527 0.000000 0.000000 0.000000 0.000000 0.000000 0.000000 0.000000 0.000000 0.000000 0.000000 0.000000 0.000000 0.000000 0.000000 0.000000 0.000000 0.000000 0.000000 0.000000 0.000000 0.000000 0.000000 0.000000 0.000000 0.000000 0.000000 0.000000 0.000000 0.000000 0.000000 0.000000 0.000000 0.000000 0.000000 0.000000 0.000000 0.000000 0.000000 0.000000 0.000000 0.000000 0.000000 0.000000 0.000000
0.000000 0.000000 0.000000 0.000000 0.000000 0.000000 3.874530 3.874530 3.874530 3.874530 3.874530 3.874530 0.000000 0.000000 0.000000 0.000000 0.000000 0.000000 0.000000 11.453176 11.453176 11.453176 11.453176 11.453176 11.453176 11.453176 17.932661 17.932661 17.932661 17.932661 17.932661 17.932661 17.932661 17.932661 17.932661 17.932661 17.932661 14.825769 14.825769 14.825769 14.825769 14.825769 14.825769 14.825769 14.825769 14.825769 0.000000 0.000000 0.000000 0.000000 0.000000 11.975527 11.975527 11.975527 11.975527 11.975527 11.975527 11.975527 11.975527 0.000000 0.000000 0.000000 0.000000 0.000000 0.000000 0.000000 0.000000 0.000000 0.000000 0.000000 0.000000 0.000000 0.000000 0.000000 0.000000 0.000000 0.000000 0.000000 0.000000 0.000000 0.000000 0.000000 0.000000 0.000000 0.000000 0.000000 0.000000 0.000000 0.000000 0.000000 0.000000 0.000000 0.000000 0.000000 0.000000 0.000000 0.000000 0.000000 0.000000 0.000000 0.000000 0.000000 0.000000
0.000000 0.000000 0.000000 0.000000 0.000000 0.000000 3.874530 3.874530 3.874530 3.874530 3.874530 3.874530 0.000000 0.000000 0.000000 0.000000 0.000000 0.000000 0.000000 11.453176 11.453176 11.453176 11.453176 11.453176 11.453176 11.453176 17.932661 17.932661 17.932661 17.932661 17.932661 17.932661 17.932661 17.932661 17.932661 17.932661 17.932661 14.825769 14.825769 14.825769 14.825769 14.825769 14.825769 14.825769 14.825769 14.825769 0.000000 0.000000 0.000000 0.000000 0.000000 11.975527 11.975527 11.975527 11.975527 11.975527 11.975527 11.975527 11.975527 0.000000 0.000000 0.000000 0.000000 0.000000 0.000000 0.000000 0.000000 0.000000 0.000000 0.000000 0.000000 0.000000 0.000000 0.000000 0.000000 0.000000 0.000000 0.000000 0.000000 0.000000 0.000000 0.000000 0.000000 0.000000 0.000000 0.000000 0.000000 0.000000 0.000000 0.000000 0.000000 0.000000 0.000000 0.000000 0.000000 0.000000 0.000000 0.000000 0.000000 0.000000 0.000000 0.000000 0.000000
0.000000 0.000000 0.000000 0.000000 0.000000 0.000000 3.874530 3.874530 3.874530 3.874530 3.874530 3.874530 0.000000 0.000000 0.000000 0.000000 0.000000 0.000000 0.000000 11.453176 11.453176 11.453176 11.453176 11.453176 11.453176 11.453176 17.932661 17.932661 17.932661 17.932661 17.932661 17.932661 17.932661 17.932661 17.932661 17.932661 17.932661 14.825769 14.825769 14.825769 14.825769 14.825769 14.825769 14.825769 14.825769 14.825769 0.000000 0.000000 0.000000 0.000000 0.000000 11.975527 11.975527 11.975527 11.975527 11.975527 11.975527 11.975527 11.975527 0.000000 0.000000 0.000000 0.000000 0.000000 0.000000 0.000000 0.000000 0.000000 0.000000 0.000000 0.000000 0.000000 0.000000 0.000000 0.000000 0.000000 0.000000 0.000000 0.000000 0.000000 0.000000 0.000000 0.000000 0.000000 0.000000 0.000000 0.000000 0.000000 0.000000 0.000000 0.000000 0.000000 0.000000 0.000000 0.000000 0.000000 0.000000 0.000000 0.000000 0.000000 0.000000 0.000000 0.000000
0.000000 0.000000 0.000000 0.000000 0.000000 0.000000 0.000000 0.000000 0.000000 0.000000 0.000000 0.000000 0.000000 0.000000 0.000000 0.000000 0.000000 0.000000 0.000000 11.453176 11.453176 11.453176 11.453176 11.453176 11.453176 11.453176 17.932661 17.932661 17.932661 17.932661 17.932661 17.932661 17.932661 17.932661 17.932661 17.932661 17.932661 14.825769 14.825769 14.825769 14.825769 14.825769 14.825769 14.825769 14.825769 14.825769 0.000000 0.000000 0.000000 0.000000 0.000000 11.975527 11.975527 11.975527 11.975527 11.975527 11.975527 11.975527 11.975527 0.000000 0.000000 0.000000 0.000000 0.000000 0.000000 0.000000 0.000000 0.000000 0.000000 0.000000 0.000000 0.000000 0.000000 0.000000 0.000000 0.000000 0.000000 0.000000 0.000000 0.000000 0.000000 0.000000 0.000000 0.000000 0.000000 0.000000 0.000000 0.000000 0.000000 0.000000 0.000000 0.000000 0.000000 0.000000 0.000000 0.000000 0.000000 0.000000 0.000000 0.000000 0.000000 0.000000 0.000000
0.000000 0.000000 0.000000 0.000000 0.000000 0.000000 0.000000 0.000000 0.000000 0.000000 0.000000 0.000000 0.000000 0.000000 0.000000 0.000000 0.000000 0.000000 0.000000 11.453176 11.453176 11.453176 11.453176 11.453176 11.453176 11.453176 17.932661 17.932661 17.932661 17.932661 17.932661 17.932661 17.932661 17.932661 17.932661 17.932661 17.932661 14.825769 14.825769 14.825769 14.825769 14.825769 14.825769 14.825769 14.825769 14.825769 0.000000 0.000000 0.000000 0.000000 0.000000 11.975527 11.975527 11.975527 11.975527 11.975527 11.975527 11.975527 11.975527 0.000000 0.000000 0.000000 0.000000 0.000000 0.000000 0.000000 0.000000 0.000000 0.000000 0.000000 0.000000 0.000000 0.000000 0.000000 0.000000 0.000000 0.000000 0.000000 0.000000 0.000000 0.000000 0.000000 0.000000 0.000000 0.000000 0.000000 0.000000 0.000000 0.000000 0.000000 0.000000 0.000000 0.000000 0.000000 0.000000 0.000000 0.000000 0.000000 0.000000 0.000000 0.000000 0.000000 0.000000
0.000000 0.000000 0.000000 0.000000 0.000000 0.000000 0.000000 0.000000 0.000000 0.000000 0.000000 0.000000 0.000000 0.000000 0.000000 0.000000 0.000000 0.000000 0.000000 0.000000 0.000000 0.000000 0.000000 0.000000 0.000000 0.000000 0.000000 0.000000 0.000000 0.000000 0.000000 0.000000 0.000000 0.000000 0.000000 0.000000 0.000000 0.000000 0.000000 0.000000 0.000000 0.000000 0.000000 0.000000 0.000000 0.000000 0.000000 0.000000 0.000000 0.000000 0.000000 0.000000 0.000000 0.000000 0.000000 0.000000 0.000000 0.000000 0.000000 0.000000 0.000000 0.000000 0.000000 0.000000 0.000000 0.000000 0.000000 0.000000 0.000000 0.000000 0.000000 0.000000 0.000000 0.000000 0.000000 0.000000 0.000000 0.000000 0.000000 0.000000 0.000000 0.000000 0.000000 0.000000 0.000000 0.000000 0.000000 0.000000 0.000000 0.000000 0.000000 0.000000 0.000000 0.000000 0.000000 0.000000 0.000000 0.000000 0.000000 0.000000 0.000000 0.000000 0.000000
0.000000 0.000000 0.000000 0.000000 0.000000 0.000000 0.000000 0.000000 0.000000 0.000000 0.000000 0.000000 0.000000 0.000000 0.000000 0.000000 0.000000 0.000000 0.000000 0.000000 0.000000 0.000000 0.000000 0.000000 0.000000 0.000000 0.000000 0.000000 0.000000 0.000000 0.000000 0.000000 0.000000 0.000000 0.000000 0.000000 0.000000 0.000000 0.000000 0.000000 0.000000 0.000000 0.000000 0.000000 0.000000 0.000000 0.000000 0.000000 0.000000 0.000000 0.000000 0.000000 0.000000 0.000000 0.000000 0.000000 0.000000 0.000000 0.000000 0.000000 0.000000 0.000000 0.000000 0.000000 0.000000 0.000000 0.000000 0.000000 0.000000 0.000000 0.000000 0.000000 0.000000 0.000000 0.000000 0.000000 0.000000 0.000000 0.000000 0.000000 0.000000 0.000000 0.000000 0.000000 0.000000 0.000000 0.000000 0.000000 0.000000 0.000000 0.000000 0.000000 0.000000 0.000000 0.000000 0.000000 0.000000 0.000000 0.000000 0.000000 0.000000 0.000000 0.000000
0.000000 0.000000 0.000000 0.000000 0.000000 0.000000 0.000000 0.000000 0.000000 0.000000 0.000000 0.000000 0.000000 0.000000 0.000000 0.000000 0.000000 0.000000 0.000000 0.000000 0.000000 0.000000 0.000000 0.000000 0.000000 0.000000 0.000000 0.000000 0.000000 0.000000 0.000000 0.000000 0.000000 0.000000 0.000000 0.000000 0.000000 0.000000 0.000000 0.000000 0.000000 0.000000 0.000000 0.000000 0.000000 0.000000 0.000000 0.000000 0.000000 0.000000 0.000000 0.000000 0.000000 0.000000 0.000000 0.000000 0.000000 0.000000 0.000000 0.000000 0.000000 0.000000 0.000000 0.000000 0.000000 0.000000 0.000000 0.000000 0.000000 0.000000 0.000000 0.000000 0.000000 0.000000 0.000000 0.000000 0.000000 0.000000 0.000000 0.000000 0.000000 0.000000 0.000000 0.000000 0.000000 0.000000 0.000000 0.000000 0.000000 0.000000 0.000000 0.000000 0.000000 0.000000 0.000000 0.000000 0.000000 0.000000 0.000000 0.000000 0.000000 0.000000 0.000000
0.000000 0.000000 0.000000 0.000000 0.000000 0.000000 0.000000 0.000000 0.000000 0.000000 0.000000 0.000000 0.000000 0.000000 0.000000 0.000000 0.000000 0.000000 0.000000 0.000000 0.000000 0.000000 0.000000 0.000000 0.000000 0.000000 0.000000 0.000000 0.000000 0.000000 0.000000 0.000000 0.000000 0.000000 0.000000 0.000000 0.000000 0.000000 0.000000 0.000000 0.000000 0.000000 0.000000 0.000000 0.000000 0.000000 0.000000 0.000000 0.000000 0.000000 0.000000 0.000000 0.000000 0.000000 0.000000 0.000000 0.000000 0.000000 0.000000 0.000000 0.000000 0.000000 0.000000 0.000000 0.000000 0.000000 0.000000 0.000000 0.000000 0.000000 0.000000 0.000000 0.000000 0.000000 0.000000 0.000000 0.000000 0.000000 0.000000 0.000000 0.000000 0.000000 0.000000 0.000000 0.000000 0.000000 0.000000 0.000000 0.000000 0.000000 0.000000 0.000000 0.000000 0.000000 0.000000 0.000000 0.000000 0.000000 0.000000 0.000000 0.000000 0.000000 0.000000
