0.000000 0.000000 0.000000 0.000000 0.000000 0.000000 0.000000 0.000000 0.000000 0.000000 0.000000 0.000000 0.000000 0.000000 0.000000 0.000000 0.000000 0.000000 0.000000 0.000000 0.000000 0.000000 0.000000 0.000000 0.000000 0.000000 0.000000 0.000000 0.000000 0.000000 0.000000 0.000000 0.000000 0.000000 0.000000 0.000000 0.000000 0.000000 0.000000 0.000000 0.000000 0.000000 0.000000 0.000000 0.000000 0.000000 0.000000 0.000000 0.000000 0.000000 0.000000 0.000000 0.000000 0.000000 0.000000 0.000000 0.000000 0.000000 0.000000 0.000000 0.000000 0.000000 0.000000 0.000000 0.000000 0.000000 0.000000 0.000000 0.000000 0.000000 0.000000 0.000000 0.000000 0.000000 0.000000 0.000000 0.000000 0.000000 0.000000 0.000000 0.000000 0.000000 0.000000 0.000000 0.000000 0.000000 0.000000 0.000000 0.000000 0.000000 0.000000 0.000000 0.000000 0.000000 0.000000 0.000000 0.000000 0.000000 0.000000 0.000000 0.000000 0.000000 0.000000
0.000000 0.000000 0.000000 0.000000 0.000000 0.000000 0.000000 0.000000 0.000000 0.000000 0.000000 0.000000 0.000000 0.000000 0.000000 0.000000 0.000000 0.000000 0.000000 0.000000 0.000000 0.000000 0.000000 0.000000 0.000000 0.000000 0.000000 0.000000 0.000000 0.000000 0.000000 0.000000 0.000000 0.000000 0.000000 0.000000 0.000000 0.000000 0.000000 0.000000 0.000000 0.000000 0.000000 0.000000 0.000000 0.000000 0.000000 0.000000 0.000000 0.000000 0.000000 0.000000 0.000000 0.000000 0.000000 0.000000 0.000000 0.000000 0.000000 0.000000 0.000000 0.000000 0.000000 0.000000 0.000000 0.000000 0.000000 0.000000 0.000000 0.000000 0.000000 0.000000 0.000000 0.000000 0.000000 0.000000 0.000000 0.000000 0.000000 0.000000 0.000000 0.000000 0.000000 0.000000 0.000000 0.000000 0.000000 0.000000 0.000000 0.000000 0.000000 0.000000 0.000000 0.000000 0.000000 0.000000 0.000000 0.000000 0.000000 0.000000 0.000000 0.000000 0.000000
0.000000 0.000000 0.000000 0.000000 0.000000 0.000000 0.000000 0.000000 0.000000 0.000000 0.000000 0.000000 0.000000 0.000000 0.000000 0.000000 0.000000 0.000000 0.000000 0.000000 0.000000 0.000000 0.000000 0.000000 0.000000 0.000000 0.000000 0.000000 0.000000 0.000000 0.000000 0.000000 0.000000 0.000000 0.000000 0.000000 0.000000 0.000000 0.000000 0.000000 0.000000 0.000000 0.000000 0.000000 0.000000 0.000000 0.000000 0.000000 0.000000 0.000000 0.000000 0.000000 0.000000 0.000000 0.000000 0.000000 0.000000 0.000000 0.000000 0.000000 0.000000 0.000000 0.000000 0.000000 0.000000 0.000000 0.000000 0.000000 0.000000 0.000000 0.000000 0.000000 0.000000 0.000000 0.000000 0.000000 0.000000 0.000000 0.000000 0.000000 0.000000 0.000000 0.000000 0.000000 0.000000 0.000000 0.000000 0.000000 0.000000 0.000000 0.000000 0.000000 0.000000 0.000000 0.000000 0.000000 0.000000 0.000000 0.000000 0.000000 0.000000 0.000000 0.000000
0.000000 0.000000 0.000000 0.000000 0.000000 0.000000 0.000000 0.000000 0.000000 0.000000 0.000000 0.000000 0.000000 0.000000 0.000000 0.000000 0.000000 0.000000 0.000000 0.000000 0.000000 0.000000 0.000000 0.000000 0.000000 0.000000 0.000000 0.000000 0.000000 0.000000 0.000000 0.000000 0.000000 0.000000 0.000000 0.000000 0.000000 0.000000 0.000000 0.000000 0.000000 0.000000 0.000000 0.000000 0.000000 0.000000 0.000000 0.000000 0.000000 0.000000 0.000000 0.000000 0.000000 0.000000 0.000000 0.000000 0.000000 0.000000 0.000000 0.000000 0.000000 0.000000 0.000000 0.000000 0.000000 0.000000 0.000000 0.000000 0.000000 0.000000 0.000000 0.000000 0.000000 0.000000 0.000000 0.000000 0.000000 0.000000 0.000000 0.000000 0.000000 0.000000 0.000000 0.000000 0.000000 0.000000 0.000000 0.000000 0.000000 0.000000 0.000000 0.000000 0.000000 0.000000 0.000000 0.000000 0.000000 0.000000 0.000000 0.000000 0.000000 0.000000 0.000000
0.000000 0.000000 0.000000 0.000000 0.000000 0.000000 0.000000 0.000000 0.000000 0.000000 0.000000 0.000000 0.000000 0.000000 0.000000 0.000000 0.000000 0.000000 0.000000 0.000000 0.000000 0.000000 0.000000 0.000000 0.000000 0.000000 0.000000 0.000000 0.000000 0.000000 0.000000 0.000000 0.000000 0.000000 0.000000 20.716763 20.716763 20.716763 20.716763 20.716763 20.716763 20.716763 20.716763 20.716763 20.716763 20.716763 20.716763 12.306937 12.306937 12.306937 12.306937 12.306937 12.306937 12.306937 0.000000 0.000000 0.000000 0.000000 0.000000 0.000000 0.000000 0.000000 0.000000 0.000000 0.000000 0.000000 0.000000 0.000000 0.000000 0.000000 0.000000 0.000000 0.000000 0.000000 0.000000 0.000000 0.000000 0.000000 0.000000 0.000000 0.000000 0.000000 0.000000 0.000000 0.000000 0.000000 0.000000 0.000000 0.000000 0.000000 0.000000 0.000000 0.000000 0.000000 0.000000 0.000000 0.000000 0.000000 0.000000 0.000000 0.000000 0.000000 0.000000
0.000000 0.000000 0.000000 0.000000 0.000000 0.000000 0.000000 0.000000 0.000000 0.000000 0.000000 0.000000 0.000000 0.000000 0.000000 0.000000 0.000000 0.000000 0.000000 0.000000 0.000000 0.000000 0.000000 0.000000 0.000000 0.000000 0.000000 0.000000 0.000000 0.000000 0.000000 0.000000 0.000000 0.000000 0.000000 20.716763 20.716763 20.716763 20.716763 20.716763 20.716763 20.716763 20.716763 20.716763 20.716763 20.716763 20.716763 12.306937 12.306937 12.306937 12.306937 12.306937 12.306937 12.306937 0.000000 0.000000 0.000000 0.000000 0.000000 0.000000 0.000000 0.000000 0.000000 0.000000 0.000000 0.000000 0.000000 0.000000 0.000000 0.000000 0.000000 0.000000 0.000000 0.000000 0.000000 0.000000 0.000000 0.000000 0.000000 0.000000 0.000000 0.000000 0.000000 0.000000 0.000000 0.000000 0.000000 0.000000 0.000000 0.000000 0.000000 0.000000 0.000000 0.000000 0.000000 0.000000 0.000000 0.000000 0.000000 0.000000 0.000000 0.000000 0.000000
0.000000 0.000000 0.000000 0.000000 0.000000 0.000000 28.357649 28.357649 28.357649 28.357649 28.357649 28.357649 28.357649 28.357649 28.357649 28.357649 0.000000 0.000000 0.000000 0.000000 25.759370 25.759370 25.759370 25.759370 25.759370 25.759370 25.759370 25.759370 25.759370 0.000000 0.000000 0.000000 0.000000 0.000000 0.000000 20.716763 20.716763 20.716763 20.716763 20.716763 20.716763 20.716763 20.716763 20.716763 20.716763 20.716763 20.716763 12.306937 12.306937 12.306937 12.306937 12.306937 12.306937 12.306937 0.000000 0.000000 0.000000 0.000000 0.000000 0.000000 0.000000 0.000000 0.000000 0.000000 0.000000 0.000000 0.000000 0.000000 0.000000 0.000000 0.000000 0.000000 0.000000 0.000000 0.000000 0.000000 0.000000 0.000000 0.000000 23.347284 23.347284 23.347284 23.347284 23.347284 23.347284 23.347284 23.347284 0.000000 0.000000 0.000000 0.000000 0.000000 0.000000 0.000000 0.000000 0.000000 0.000000 0.000000 0.000000 0.000000 0.000000 0.000000 0.000000
0.000000 0.000000 0.000000 0.000000 0.000000 0.000000 28.357649 28.357649 28.357649 28.357649 28.357649 28.357649 28.357649 28.357649 28.357649 28.357649 0.000000 0.000000 0.000000 0.000000 25.759370 25.759370 25.759370 25.759370 25.759370 25.759370 25.759370 25.759370 25.759370 0.000000 0.000000 0.000000 0.000000 0.000000 0.000000 20.716763 20.716763 20.716763 20.716763 20.716763 20.716763 20.716763 20.716763 20.716763 20.716763 20.716763 20.716763 12.306937 12.306937 12.306937 12.306937 12.306937 12.306937 12.306937 0.000000 0.000000 0.000000 0.000000 0.000000 0.000000 0.000000 0.000000 0.000000 0.000000 0.000000 0.000000 0.000000 0.000000 0.000000 0.000000 0.000000 0.000000 0.000000 0.000000 0.000000 0.000000 0.000000 0.000000 0.000000 23.347284 23.347284 23.347284 23.347284 23.347284 23.347284 23.347284 23.347284 0.000000 0.000000 0.000000 0.000000 0.000000 0.000000 0.000000 0.000000 0.000000 0.000000 0.000000 0.000000 0.000000 0.000000 0.000000 0.000000
0.000000 0.000000 0.000000 0.000000 0.000000 0.000000 28.357649 28.357649 28.357649 28.357649 28.357649 28.357649 28.357649 28.357649 28.357649 28.357649 0.000000 0.000000 0.000000 0.000000 25.759370 25.759370 25.759370 25.759370 25.759370 25.759370 25.759370 25.759370 25.759370 0.000000 0.000000 0.000000 0.000000 0.000000 0.000000 20.716763 20.716763 20.716763 20.716763 20.716763 20.716763 20.716763 20.716763 20.716763 20.716763 20.716763 20.716763 12.306937 12.306937 12.306937 12.306937 12.306937 12.306937 12.306937 0.000000 0.000000 0.000000 0.000000 0.000000 0.000000 0.000000 0.000000 0.000000 0.000000 0.000000 0.000000 0.000000 0.000000 0.000000 0.000000 0.000000 0.000000 0.000000 0.000000 0.000000 0.000000 0.000000 0.000000 0.000000 23.347284 23.347284 23.347284 23.347284 23.347284 23.347284 23.347284 23.347284 0.000000 0.000000 0.000000 0.000000 0.000000 0.000000 0.000000 0.000000 0.000000 0.000000 0.000000 0.000000 0.000000 0.000000 0.000000 0.000000
0.000000 0.000000 0.000000 0.000000 0.000000 0.000000 28.357649 28.357649 28.357649 28.357649 28.357649 28.357649 28.357649 28.357649 28.357649 28.357649 0.000000 0.000000 0.000000 0.000000 25.759370 25.759370 25.759370 25.759370 25.759370 25.759370 25.759370 25.759370 25.759370 0.000000 0.000000 0.000000 0.000000 0.000000 0.000000 20.716763 20.716763 20.716763 20.716763 20.716763 20.716763 20.716763 20.716763 20.716763 20.716763 20.716763 20.716763 12.306937 12.306937 12.306937 12.306937 12.306937 12.306937 12.306937 0.000000 0.000000 0.000000 0.000000 0.000000 0.000000 0.000000 0.000000 0.000000 0.000000 0.000000 0.000000 0.000000 0.000000 0.000000 0.000000 0.000000 0.000000 0.000000 0.000000 0.000000 0.000000 0.000000 0.000000 0.000000 23.347284 23.347284 23.347284 23.347284 23.347284 23.347284 23.347284 23.347284 0.000000 0.000000 0.000000 0.000000 0.000000 0.000000 0.000000 0.000000 0.000000 0.000000 0.000000 0.000000 0.000000 0.000000 0.000000 0.000000
0.000000 0.000000 0.000000 0.000000 0.000000 0.000000 28.357649 28.357649 28.357649 28.357649 28.357649 28.357649 28.357649 28.357649 28.357649 28.357649 0.000000 0.000000 0.000000 0.000000 25.759370 25.759370 25.759370 25.759370 25.759370 25.759370 25.759370 25.759370 25.759370 0.000000 0.000000 0.000000 0.000000 0.000000 0.000000 20.716763 20.716763 20.716763 20.716763 20.716763 20.716763 20.716763 20.716763 20.716763 20.716763 20.716763 20.716763 12.306937 12.306937 12.306937 12.306937 12.306937 12.306937 12.306937 0.000000 0.000000 0.000000 0.000000 0.000000 0.000000 0.000000 0.000000 0.000000 0.000000 0.000000 0.000000 0.000000 0.000000 0.000000 0.000000 0.000000 0.000000 0.000000 0.000000 0.000000 0.000000 0.000000 0.000000 0.000000 23.347284 23.347284 23.347284 23.347284 23.347284 23.347284 23.347284 23.347284 0.000000 0.000000 0.000000 0.000000 0.000000 0.000000 0.000000 0.000000 0.000000 0.000000 0.000000 0.000000 0.000000 0.000000 0.000000 0.000000
0.000000 0.000000 0.000000 0.000000 0.000000 0.000000 28.357649 28.357649 28.357649 28.357649 28.357649 28.357649 28.357649 28.357649 28.357649 28.357649 0.000000 0.000000 0.000000 0.000000 25.759370 25.759370 25.759370 25.759370 25.759370 25.759370 25.759370 25.759370 25.759370 0.000000 0.000000 0.000000 0.000000 0.000000 0.000000 22.296862 22.296862 22.296862 22.296862 22.296862 22.296862 22.296862 22.296862 22.296862 22.296862 22.296862 22.296862 13.245606 13.245606 13.245606 13.245606 13.245606 13.245606 13.245606 13.407220 13.407220 13.407220 13.407220 13.407220 13.407220 0.000000 0.000000 0.000000 0.000000 0.000000 0.000000 0.000000 0.000000 0.000000 0.000000 0.000000 0.000000 0.000000 0.000000 0.000000 0.000000 0.000000 0.000000 0.000000 23.347284 23.347284 23.347284 23.347284 23.347284 23.347284 23.347284 23.347284 0.000000 0.000000 0.000000 0.000000 0.000000 0.000000 0.000000 0.000000 0.000000 0.000000 0.000000 0.000000 0.000000 0.000000 0.000000 0.000000
0.000000 0.000000 0.000000 0.000000 0.000000 0.000000 28.357649 28.357649 28.357649 28.357649 28.357649 28.357649 28.357649 28.357649 28.357649 28.357649 0.000000 0.000000 0.000000 0.000000 25.759370 25.759370 25.759370 25.759370 25.759370 25.759370 25.759370 25.759370 25.759370 0.000000 0.000000 0.000000 0.000000 0.000000 0.000000 22.296862 22.296862 22.296862 22.296862 22.296862 22.296862 22.296862 22.296862 22.296862 22.296862 22.296862 22.296862 13.245606 13.245606 13.245606 13.245606 13.245606 13.245606 13.245606 13.407220 13.407220 13.407220 13.407220 13.407220 13.407220 0.000000 0.000000 0.000000 0.000000 0.000000 0.000000 0.000000 0.000000 0.000000 0.000000 0.000000 0.000000 0.000000 0.000000 0.000000 0.000000 0.000000 0.000000 0.000000 23.347284 23.347284 23.347284 23.347284 23.347284 23.347284 23.347284 23.347284 0.000000 0.000000 0.000000 0.000000 0.000000 0.000000 0.000000 0.000000 0.000000 0.000000 0.000000 0.000000 0.000000 0.000000 0.000000 0.000000
0.000000 0.000000 0.000000 0.000000 0.000000 0.000000 28.357649 28.357649 28.357649 28.357649 28.357649 28.357649 28.357649 28.357649 28.357649 28.357649 0.000000 0.000000 0.000000 0.000000 25.759370 25.759370 25.759370 25.759370 25.759370 25.759370 25.759370 25.759370 25.759370 0.000000 0.000000 0.000000 0.000000 0.000000 0.000000 22.296862 22.296862 22.296862 22.296862 22.296862 22.296862 22.296862 22.296862 22.296862 22.296862 22.296862 22.296862 13.245606 13.245606 13.245606 13.245606 13.245606 13.245606 13.245606 13.407220 13.407220 13.407220 13.407220 13.407220 13.407220 0.000000 0.000000 0.000000 0.000000 0.000000 11.933673 11.933673 11.933673 11.933673 11.933673 11.933673 11.933673 0.000000 0.000000 0.000000 0.000000 0.000000 0.000000 0.000000 23.347284 23.347284 23.347284 23.347284 23.347284 23.347284 23.347284 23.347284 0.000000 0.000000 0.000000 0.000000 0.000000 0.000000 0.000000 0.000000 0.000000 0.000000 0.000000 0.000000 0.000000 0.000000 0.000000 0.000000
0.000000 0.000000 0.000000 0.000000 0.000000 0.000000 28.357649 28.357649 28.357649 28.357649 28.357649 28.357649 28.357649 28.357649 28.357649 28.357649 0.000000 0.000000 0.000000 0.000000 25.759370 25.759370 25.759370 25.759370 25.759370 25.759370 25.759370 25.759370 25.759370 0.000000 0.000000 0.000000 0.000000 0.000000 0.000000 22.296862 22.296862 22.296862 22.296862 22.296862 22.296862 22.296862 22.296862 22.296862 22.296862 22.296862 22.296862 13.245606 13.245606 13.245606 13.245606 13.245606 13.245606 13.245606 13.407220 13.407220 13.407220 13.407220 13.407220 13.407220 0.000000 0.000000 0.000000 0.000000 0.000000 11.933673 11.933673 11.933673 11.933673 11.933673 11.933673 11.933673 0.000000 0.000000 0.000000 0.000000 0.000000 0.000000 0.000000 23.347284 23.347284 23.347284 23.347284 23.347284 23.347284 23.347284 23.347284 0.000000 0.000000 0.000000 0.000000 0.000000 0.000000 0.000000 0.000000 0.000000 0.000000 0.000000 0.000000 0.000000 0.000000 0.000000 0.000000
0.000000 0.000000 0.000000 0.000000 0.000000 0.000000 28.357649 28.357649 28.357649 28.357649 28.357649 28.357649 28.357649 28.357649 28.357649 28.357649 0.000000 0.000000 0.000000 0.000000 25.759370 25.759370 25.759370 25.759370 25.759370 25.759370 25.759370 25.759370 25.759370 0.000000 0.000000 0.000000 0.000000 0.000000 0.000000 22.296862 22.296862 22.296862 22.296862 22.296862 22.296862 22.296862 22.296862 22.296862 22.296862 22.296862 22.296862 13.245606 13.245606 13.245606 13.245606 13.245606 13.245606 13.245606 13.407220 13.407220 13.407220 13.407220 13.407220 13.407220 0.000000 0.000000 0.000000 0.000000 0.000000 11.933673 11.933673 11.933673 11.933673 11.933673 11.933673 11.933673 0.000000 0.000000 0.000000 0.000000 0.000000 0.000000 0.000000 23.347284 23.347284 23.347284 23.347284 23.347284 23.347284 23.347284 23.347284 0.000000 0.000000 0.000000 0.000000 0.000000 0.000000 0.000000 0.000000 0.000000 0.000000 0.000000 0.000000 0.000000 0.000000 0.000000 0.000000
0.000000 0.000000 0.000000 0.000000 0.000000 0.000000 28.357649 28.357649 28.357649 28.357649 28.357649 28.357649 28.357649 28.357649 28.357649 28.357649 0.000000 0.000000 0.000000 0.000000 25.759370 25.759370 25.759370 25.759370 25.759370 25.759370 25.759370 25.759370 25.759370 0.000000 0.000000 0.000000 0.000000 0.000000 0.000000 22.296862 22.296862 22.296862 22.296862 22.296862 22.296862 22.296862 22.296862 22.296862 22.296862 22.296862 22.296862 13.245606 13.245606 13.245606 13.245606 13.245606 13.245606 13.245606 13.407220 13.407220 13.407220 13.407220 13.407220 13.407220 0.000000 0.000000 0.000000 0.000000 0.000000 11.933673 11.933673 11.933673 11.933673 11.933673 11.933673 11.933673 0.000000 0.000000 0.000000 0.000000 0.000000 0.000000 0.000000 23.347284 23.347284 23.347284 23.347284 23.347284 23.347284 23.347284 23.347284 0.000000 0.000000 0.000000 0.000000 0.000000 0.000000 0.000000 0.000000 0.000000 0.000000 0.000000 0.000000 0.000000 0.000000 0.000000 0.000000
0.000000 0.000000 0.000000 0.000000 0.000000 0.000000 28.357649 28.357649 28.357649 28.357649 28.357649 28.357649 28.357649 28.357649 28.357649 28.357649 0.000000 0.000000 0.000000 0.000000 25.759370 25.759370 25.759370 25.759370 25.759370 25.759370 25.759370 25.759370 25.759370 0.000000 0.000000 0.000000 0.000000 0.000000 0.000000 22.296862 22.296862 22.296862 22.296862 22.296862 22.296862 22.296862 22.296862 22.296862 22.296862 22.296862 22.296862 13.245606 13.245606 13.245606 13.245606 13.245606 13.245606 13.245606 13.407220 13.407220 13.407220 13.407220 13.407220 13.407220 0.000000 0.000000 0.000000 0.000000 0.000000 11.933673 11.933673 11.933673 11.933673 11.933673 11.933673 11.933673 0.000000 0.000000 0.000000 0.000000 0.000000 0.000000 0.000000 23.347284 23.347284 23.347284 23.347284 23.347284 23.347284 23.347284 23.347284 0.000000 0.000000 0.000000 0.000000 0.000000 0.000000 0.000000 0.000000 0.000000 0.000000 0.000000 0.000000 0.000000 0.000000 0.000000 0.000000
0.000000 0.000000 0.000000 0.000000 0.000000 0.000000 0.000000 0.000000 0.000000 0.000000 0.000000 0.000000 0.000000 0.000000 0.000000 0.000000 0.000000 0.000000 0.000000 0.000000 0.000000 0.000000 0.000000 0.000000 0.000000 0.000000 0.000000 0.000000 0.000000 0.000000 0.000000 0.000000 0.000000 0.000000 0.000000 22.296862 22.296862 22.296862 22.296862 22.296862 22.296862 22.296862 22.296862 22.296862 22.296862 22.296862 22.296862 13.245606 13.245606 13.245606 13.245606 13.245606 13.245606 13.245606 13.407220 13.407220 13.407220 13.407220 13.407220 13.407220 0.000000 0.000000 0.000000 0.000000 0.000000 11.933673 11.933673 11.933673 11.933673 11.933673 11.933673 11.933673 0.000000 0.000000 0.000000 0.000000 0.000000 0.000000 0.000000 0.000000 0.000000 0.000000 0.000000 0.000000 0.000000 0.000000 0.000000 0.000000 0.000000 0.000000 0.000000 0.000000 0.000000 0.000000 0.000000 0.000000 0.000000 0.000000 0.000000 0.000000 0.000000 0.000000 0.000000
0.000000 0.000000 0.000000 0.000000 0.000000 0.000000 0.000000 0.000000 0.000000 0.000000 0.000000 0.000000 0.000000 0.000000 0.000000 0.000000 0.000000 0.000000 0.000000 0.000000 0.000000 0.000000 0.000000 0.000000 0.000000 0.000000 0.000000 0.000000 0.000000 0.000000 0.000000 0.000000 0.000000 0.000000 0.000000 22.296862 22.296862 22.296862 22.296862 22.296862 22.296862 22.296862 22.296862 22.296862 22.296862 22.296862 22.296862 13.245606 13.245606 13.245606 13.245606 13.245606 13.245606 13.245606 13.407220 13.407220 13.407220 13.407220 13.407220 13.407220 0.000000 0.000000 0.000000 0.000000 0.000000 11.933673 11.933673 11.933673 11.933673 11.933673 11.933673 11.933673 0.000000 0.000000 0.000000 0.000000 0.000000 0.000000 0.000000 0.000000 0.000000 0.000000 0.000000 0.000000 0.000000 0.000000 0.000000 0.000000 0.000000 0.000000 0.000000 0.000000 0.000000 0.000000 0.000000 0.000000 0.000000 0.000000 0.000000 0.000000 0.000000 0.000000 0.000000
0.000000 0.000000 0.000000 0.000000 0.000000 0.000000 0.000000 0.000000 0.000000 0.000000 0.000000 0.000000 0.000000 0.000000 0.000000 0.000000 0.000000 0.000000 0.000000 0.000000 0.000000 0.000000 0.000000 0.000000 0.000000 0.000000 0.000000 0.000000 0.000000 0.000000 0.000000 0.000000 0.000000 0.000000 0.000000 0.000000 0.000000 0.000000 0.000000 0.000000 0.000000 0.000000 0.000000 0.000000 0.000000 0.000000 0.000000 0.000000 0.000000 0.000000 0.000000 0.000000 0.000000 0.000000 0.000000 0.000000 0.000000 0.000000 0.000000 0.000000 0.000000 0.000000 0.000000 0.000000 0.000000 0.000000 0.000000 0.000000 0.000000 0.000000 0.000000 0.000000 0.000000 0.000000 0.000000 0.000000 0.000000 0.000000 0.000000 0.000000 0.000000 0.000000 0.000000 0.000000 0.000000 0.000000 0.000000 0.000000 0.000000 0.000000 0.000000 0.000000 0.000000 0.000000 0.000000 0.000000 0.000000 0.000000 0.000000 0.000000 0.000000 0.000000 0.000000
0.000000 0.000000 0.000000 0.000000 0.000000 0.000000 0.000000 0.000000 0.000000 0.000000 0.000000 0.000000 0.000000 0.000000 0.000000 0.000000 0.000000 0.000000 0.000000 0.000000 0.000000 0.000000 0.000000 0.000000 0.000000 0.000000 0.000000 0.000000 0.000000 0.000000 0.000000 0.000000 0.000000 0.000000 0.000000 0.000000 0.000000 0.000000 0.000000 0.000000 0.000000 0.000000 0.000000 0.000000 0.000000 0.000000 0.000000 0.000000 0.000000 0.000000 0.000000 0.000000 0.000000 0.000000 0.000000 0.000000 0.000000 0.000000 0.000000 0.000000 0.000000 0.000000 0.000000 0.000000 0.000000 0.000000 0.000000 0.000000 0.000000 0.000000 0.000000 0.000000 0.000000 0.000000 0.000000 0.000000 0.000000 0.000000 0.000000 0.000000 0.000000 0.000000 0.000000 0.000000 0.000000 0.000000 0.000000 0.000000 0.000000 0.000000 0.000000 0.000000 0.000000 0.000000 0.000000 0.000000 0.000000 0.000000 0.000000 0.000000 0.000000 0.000000 0.000000
0.000000 0.000000 0.000000 0.000000 0.000000 0.000000 0.000000 0.000000 0.000000 0.000000 0.000000 0.000000 0.000000 0.000000 0.000000 0.000000 0.000000 0.000000 0.000000 0.000000 0.000000 0.000000 0.000000 0.000000 0.000000 0.000000 0.000000 0.000000 0.000000 0.000000 0.000000 0.000000 0.000000 0.000000 0.000000 0.000000 0.000000 0.000000 0.000000 0.000000 0.000000 0.000000 0.000000 0.000000 0.000000 0.000000 0.000000 0.000000 0.000000 0.000000 0.000000 0.000000 0.000000 0.000000 0.000000 0.000000 0.000000 0.000000 0.000000 0.000000 0.000000 0.000000 0.000000 0.000000 0.000000 0.000000 0.000000 0.000000 0.000000 0.000000 0.000000 0.000000 0.000000 0.000000 0.000000 0.000000 0.000000 0.000000 0.000000 0.000000 0.000000 0.000000 0.000000 0.000000 0.000000 0.000000 0.000000 0.000000 0.000000 0.000000 0.000000 0.000000 0.000000 0.000000 0.000000 0.000000 0.000000 0.000000 0.000000 0.000000 0.000000 0.000000 0.000000
0.000000 0.000000 0.000000 0.000000 0.000000 0.000000 0.000000 0.000000 0.000000 0.000000 0.000000 0.000000 0.000000 0.000000 0.000000 0.000000 0.000000 0.000000 0.000000 0.000000 0.000000 0.000000 0.000000 0.000000 0.000000 0.000000 0.000000 0.000000 0.000000 0.000000 0.000000 0.000000 0.000000 0.000000 0.000000 0.000000 0.000000 0.000000 0.000000 0.000000 0.000000 0.000000 0.000000 0.000000 0.000000 0.000000 0.000000 0.000000 0.000000 0.000000 0.000000 0.000000 0.000000 0.000000 0.000000 0.000000 0.000000 0.000000 0.000000 0.000000 0.000000 0.000000 0.000000 0.000000 0.000000 0.000000 0.000000 0.000000 0.000000 0.000000 0.000000 0.000000 0.000000 0.000000 0.000000 0.000000 0.000000 0.000000 0.000000 0.000000 0.000000 0.000000 0.000000 0.000000 0.000000 0.000000 0.000000 0.000000 0.000000 0.000000 0.000000 0.000000 0.000000 0.000000 0.000000 0.000000 0.000000 0.000000 0.000000 0.000000 0.000000 0.000000 0.000000
0.000000 0.000000 0.000000 0.000000 0.000000 0.000000 0.000000 0.000000 0.000000 0.000000 0.000000 0.000000 0.000000 0.000000 0.000000 0.000000 0.000000 0.000000 0.000000 0.000000 0.000000 0.000000 0.000000 0.000000 0.000000 0.000000 0.000000 0.000000 0.000000 0.000000 0.000000 0.000000 0.000000 0.000000 0.000000 0.000000 0.000000 0.000000 0.000000 0.000000 0.000000 0.000000 0.000000 0.000000 0.000000 0.000000 0.000000 0.000000 0.000000 0.000000 0.000000 0.000000 0.000000 0.000000 0.000000 0.000000 0.000000 0.000000 0.000000 0.000000 0.000000 0.000000 0.000000 0.000000 0.000000 0.000000 0.000000 0.000000 0.000000 0.000000 0.000000 0.000000 0.000000 0.000000 0.000000 0.000000 0.000000 0.000000 0.000000 0.000000 0.000000 0.000000 0.000000 0.000000 0.000000 0.000000 0.000000 0.000000 0.000000 0.000000 0.000000 0.000000 0.000000 0.000000 0.000000 0.000000 0.000000 0.000000 0.000000 0.000000 0.000000 0.000000 0.000000
0.000000 0.000000 0.000000 0.000000 9.557555 9.557555 9.557555 9.557555 9.557555 9.557555 9.557555 9.509925 9.509925 9.509925 9.509925 9.509925 9.509925 0.000000 0.000000 0.000000 0.000000 0.000000 0.000000 0.000000 0.000000 0.000000 0.000000 0.000000 0.000000 0.000000 0.000000 0.000000 0.000000 0.000000 0.000000 14.996560 14.996560 14.996560 14.996560 14.996560 14.996560 14.996560 14.996560 14.996560 14.996560 11.706706 11.706706 11.706706 11.706706 11.706706 11.706706 11.706706 11.706706 11.007190 11.007190 11.007190 11.007190 11.007190 11.007190 11.007190 0.000000 0.000000 0.000000 0.000000 0.000000 0.000000 0.000000 0.000000 0.000000 0.000000 0.000000 0.000000 0.000000 0.000000 0.000000 0.000000 0.000000 0.000000 0.000000 0.000000 0.000000 0.000000 0.000000 0.000000 0.000000 0.000000 0.000000 0.000000 0.000000 0.000000 0.000000 0.000000 0.000000 0.000000 0.000000 0.000000 0.000000 0.000000 0.000000 0.000000 0.000000 0.000000 0.000000
0.000000 0.000000 0.000000 0.000000 9.557555 9.557555 9.557555 9.557555 9.557555 9.557555 9.557555 9.509925 9.509925 9.509925 9.509925 9.509925 9.509925 0.000000 0.000000 0.000000 0.000000 0.000000 0.000000 0.000000 0.000000 0.000000 0.000000 0.000000 0.000000 0.000000 0.000000 0.000000 0.000000 0.000000 0.000000 14.996560 14.996560 14.996560 14.996560 14.996560 14.996560 14.996560 14.996560 14.996560 14.996560 11.706706 11.706706 11.706706 11.706706 11.706706 11.706706 11.706706 11.706706 11.007190 11.007190 11.007190 11.007190 11.007190 11.007190 11.007190 0.000000 0.000000 0.000000 0.000000 0.000000 0.000000 0.000000 0.000000 0.000000 0.000000 0.000000 0.000000 0.000000 0.000000 0.000000 0.000000 0.000000 0.000000 0.000000 0.000000 0.000000 0.000000 0.000000 0.000000 0.000000 0.000000 0.000000 0.000000 0.000000 0.000000 0.000000 0.000000 0.000000 0.000000 0.000000 0.000000 0.000000 0.000000 0.000000 0.000000 0.000000 0.000000 0.000000
0.000000 0.000000 0.000000 0.000000 9.557555 9.557555 9.557555 9.557555 9.557555 9.557555 9.557555 9.509925 9.509925 9.509925 9.509925 9.509925 9.509925 0.000000 0.000000 0.000000 0.000000 0.000000 0.000000 0.000000 0.000000 0.000000 0.000000 0.000000 0.000000 0.000000 0.000000 0.000000 0.000000 0.000000 0.000000 14.996560 14.996560 14.996560 14.996560 14.996560 14.996560 14.996560 14.996560 14.996560 14.996560 11.706706 11.706706 11.706706 11.706706 11.706706 11.706706 11.706706 11.706706 11.007190 11.007190 11.007190 11.007190 11.007190 11.007190 11.007190 0.000000 0.000000 0.000000 0.000000 0.000000 0.000000 0.000000 0.000000 0.000000 0.000000 0.000000 0.000000 0.000000 0.000000 0.000000 0.000000 0.000000 0.000000 0.000000 14.721910 14.721910 14.721910 14.721910 14.721910 14.721910 14.721910 0.000000 0.000000 0.000000 0.000000 16.353502 16.353502 16.353502 16.353502 16.353502 16.353502 16.353502 0.000000 0.000000 0.000000 0.000000 0.000000 0.000000
0.000000 0.000000 0.000000 0.000000 9.557555 9.557555 9.557555 9.557555 9.557555 9.557555 9.557555 9.509925 9.509925 9.509925 9.509925 9.509925 9.509925 0.000000 0.000000 0.000000 0.000000 0.000000 0.000000 0.000000 0.000000 0.000000 0.000000 0.000000 0.000000 0.000000 0.000000 0.000000 0.000000 0.000000 0.000000 14.996560 14.996560 14.996560 14.996560 14.996560 14.996560 14.996560 14.996560 14.996560 14.996560 11.706706 11.706706 11.706706 11.706706 11.706706 11.706706 11.706706 11.706706 11.007190 11.007190 11.007190 11.007190 11.007190 11.007190 11.007190 0.000000 0.000000 0.000000 0.000000 0.000000 0.000000 0.000000 0.000000 0.000000 0.000000 0.000000 0.000000 0.000000 0.000000 0.000000 0.000000 0.000000 0.000000 0.000000 14.721910 14.721910 14.721910 14.721910 14.721910 14.721910 14.721910 0.000000 0.000000 0.000000 0.000000 16.353502 16.353502 16.353502 16.353502 16.353502 16.353502 16.353502 0.000000 0.000000 0.000000 0.000000 0.000000 0.000000
0.000000 0.000000 0.000000 0.000000 9.557555 9.557555 9.557555 9.557555 9.557555 9.557555 9.557555 9.509925 9.509925 9.509925 9.509925 9.509925 9.509925 0.000000 0.000000 0.000000 0.000000 0.000000 0.000000 0.000000 0.000000 0.000000 0.000000 0.000000 0.000000 0.000000 0.000000 0.000000 0.000000 0.000000 0.000000 14.996560 14.996560 14.996560 14.996560 14.996560 14.996560 14.996560 14.996560 14.996560 14.996560 11.706706 11.706706 11.706706 11.706706 11.706706 11.706706 11.706706 11.706706 11.007190 11.007190 11.007190 11.007190 11.007190 11.007190 11.007190 0.000000 0.000000 0.000000 0.000000 0.000000 0.000000 0.000000 0.000000 0.000000 0.000000 0.000000 0.000000 0.000000 0.000000 0.000000 0.000000 0.000000 0.000000 0.000000 14.721910 14.721910 14.721910 14.721910 14.721910 14.721910 14.721910 0.000000 0.000000 0.000000 0.000000 16.353502 16.353502 16.353502 16.353502 16.353502 16.353502 16.353502 0.000000 0.000000 0.000000 0.000000 0.000000 0.000000
0.000000 0.000000 0.000000 0.000000 9.557555 9.557555 9.557555 9.557555 9.557555 9.557555 9.557555 9.509925 9.509925 9.509925 9.509925 9.509925 9.509925 0.000000 0.000000 0.000000 0.000000 0.000000 0.000000 0.000000 0.000000 0.000000 0.000000 0.000000 0.000000 0.000000 0.000000 0.000000 0.000000 0.000000 0.000000 14.996560 14.996560 14.996560 14.996560 14.996560 14.996560 14.996560 14.996560 14.996560 14.996560 11.706706 11.706706 11.706706 11.706706 11.706706 11.706706 11.706706 11.706706 11.007190 11.007190 11.007190 11.007190 11.007190 11.007190 11.007190 0.000000 0.000000 0.000000 0.000000 0.000000 0.000000 0.000000 0.000000 0.000000 0.000000 0.000000 0.000000 0.000000 0.000000 0.000000 0.000000 0.000000 0.000000 0.000000 14.721910 14.721910 14.721910 14.721910 14.721910 14.721910 14.721910 0.000000 0.000000 0.000000 0.000000 16.353502 16.353502 16.353502 16.353502 16.353502 16.353502 16.353502 0.000000 0.000000 0.000000 0.000000 0.000000 0.000000
0.000000 0.000000 0.000000 0.000000 9.741876 9.741876 9.741876 9.741876 9.741876 9.741876 9.741876 0.000000 0.000000 0.000000 0.000000 0.000000 0.000000 0.000000 0.000000 0.000000 0.000000 0.000000 0.000000 0.000000 0.000000 0.000000 0.000000 0.000000 0.000000 0.000000 0.000000 0.000000 0.000000 0.000000 0.000000 15.100466 15.100466 15.100466 15.100466 15.100466 15.100466 15.100466 15.100466 15.100466 15.100466 11.787818 11.787818 11.787818 11.787818 11.787818 11.787818 11.787818 11.787818 11.083455 11.083455 11.083455 11.083455 11.083455 11.083455 11.083455 0.000000 0.000000 0.000000 0.000000 0.000000 0.000000 0.000000 0.000000 0.000000 0.000000 0.000000 0.000000 0.000000 0.000000 0.000000 0.000000 0.000000 0.000000 0.000000 14.721910 14.721910 14.721910 14.721910 14.721910 14.721910 14.721910 0.000000 0.000000 0.000000 0.000000 16.353502 16.353502 16.353502 16.353502 16.353502 16.353502 16.353502 0.000000 0.000000 0.000000 0.000000 0.000000 0.000000
0.000000 0.000000 0.000000 0.000000 9.741876 9.741876 9.741876 9.741876 9.741876 9.741876 9.741876 0.000000 0.000000 0.000000 0.000000 0.000000 0.000000 0.000000 0.000000 0.000000 0.000000 0.000000 0.000000 0.000000 0.000000 0.000000 0.000000 0.000000 0.000000 0.000000 0.000000 0.000000 0.000000 0.000000 0.000000 15.100466 15.100466 15.100466 15.100466 15.100466 15.100466 15.100466 15.100466 15.100466 15.100466 11.787818 11.787818 11.787818 11.787818 11.787818 11.787818 11.787818 11.787818 11.083455 11.083455 11.083455 11.083455 11.083455 11.083455 11.083455 0.000000 0.000000 0.000000 0.000000 0.000000 0.000000 0.000000 0.000000 0.000000 0.000000 0.000000 0.000000 0.000000 0.000000 0.000000 0.000000 0.000000 0.000000 0.000000 14.721910 14.721910 14.721910 14.721910 14.721910 14.721910 14.721910 0.000000 0.000000 0.000000 0.000000 16.353502 16.353502 16.353502 16.353502 16.353502 16.353502 16.353502 0.000000 0.000000 0.000000 0.000000 0.000000 0.000000
0.000000 0.000000 0.000000 0.000000 9.741876 9.741876 9.741876 9.741876 9.741876 9.741876 9.741876 0.000000 0.000000 0.000000 0.000000 0.000000 0.000000 0.000000 0.000000 0.000000 0.000000 0.000000 0.000000 0.000000 0.000000 0.000000 0.000000 0.000000 0.000000 0.000000 0.000000 0.000000 0.000000 0.000000 0.000000 15.100466 15.100466 15.100466 15.100466 15.100466 15.100466 15.100466 15.100466 15.100466 15.100466 11.787818 11.787818 11.787818 11.787818 11.787818 11.787818 11.787818 11.787818 11.083455 11.083455 11.083455 11.083455 11.083455 11.083455 11.083455 0.000000 0.000000 0.000000 0.000000 0.000000 0.000000 0.000000 0.000000 0.000000 0.000000 0.000000 0.000000 0.000000 0.000000 0.000000 0.000000 0.000000 0.000000 0.000000 14.721910 14.721910 14.721910 14.721910 14.721910 14.721910 14.721910 0.000000 0.000000 0.000000 0.000000 16.353502 16.353502 16.353502 16.353502 16.353502 16.353502 16.353502 0.000000 0.000000 0.000000 0.000000 0.000000 0.000000
0.000000 0.000000 0.000000 0.000000 9.741876 9.741876 9.741876 9.741876 9.741876 9.741876 9.741876 0.000000 0.000000 0.000000 0.000000 0.000000 0.000000 0.000000 0.000000 0.000000 0.000000 0.000000 0.000000 0.000000 0.000000 0.000000 0.000000 0.000000 0.000000 0.000000 0.000000 0.000000 0.000000 0.000000 0.000000 15.100466 15.100466 15.100466 15.100466 15.100466 15.100466 15.100466 15.100466 15.100466 15.100466 11.787818 11.787818 11.787818 11.787818 11.787818 11.787818 11.787818 11.787818 11.083455 11.083455 11.083455 11.083455 11.083455 11.083455 11.083455 0.000000 0.000000 0.000000 0.000000 0.000000 0.000000 0.000000 0.000000 0.000000 0.000000 0.000000 0.000000 0.000000 0.000000 0.000000 0.000000 0.000000 0.000000 0.000000 14.721910 14.721910 14.721910 14.721910 14.721910 14.721910 14.721910 0.000000 0.000000 0.000000 0.000000 16.353502 16.353502 16.353502 16.353502 16.353502 16.353502 16.353502 0.000000 0.000000 0.000000 0.000000 0.000000 0.000000
0.000000 0.000000 0.000000 0.000000 9.741876 9.741876 9.741876 9.741876 9.741876 9.741876 9.741876 0.000000 0.000000 0.000000 0.000000 0.000000 0.000000 0.000000 0.000000 0.000000 0.000000 0.000000 0.000000 0.000000 0.000000 0.000000 0.000000 0.000000 0.000000 0.000000 0.000000 0.000000 0.000000 0.000000 0.000000 15.100466 15.100466 15.100466 15.100466 15.100466 15.100466 15.100466 15.100466 15.100466 15.100466 11.787818 11.787818 11.787818 11.787818 11.787818 11.787818 11.787818 11.787818 11.083455 11.083455 11.083455 11.083455 11.083455 11.083455 11.083455 0.000000 0.000000 0.000000 0.000000 0.000000 0.000000 0.000000 0.000000 0.000000 0.000000 0.000000 0.000000 0.000000 0.000000 0.000000 0.000000 0.000000 0.000000 0.000000 0.000000 0.000000 0.000000 0.000000 0.000000 0.000000 0.000000 0.000000 0.000000 0.000000 0.000000 0.000000 0.000000 0.000000 0.000000 0.000000 0.000000 0.000000 0.000000 0.000000 0.000000 0.000000 0.000000 0.000000
0.000000 0.000000 0.000000 0.000000 9.741876 9.741876 9.741876 9.741876 9.741876 9.741876 9.741876 0.000000 0.000000 0.000000 0.000000 0.000000 0.000000 0.000000 0.000000 0.000000 0.000000 0.000000 0.000000 0.000000 0.000000 0.000000 0.000000 0.000000 0.000000 0.000000 0.000000 0.000000 0.000000 0.000000 0.000000 15.100466 15.100466 15.100466 15.100466 15.100466 15.100466 15.100466 15.100466 15.100466 15.100466 11.787818 11.787818 11.787818 11.787818 11.787818 11.787818 11.787818 11.787818 11.083455 11.083455 11.083455 11.083455 11.083455 11.083455 11.083455 0.000000 0.000000 0.000000 0.000000 0.000000 0.000000 0.000000 0.000000 0.000000 0.000000 0.000000 0.000000 0.000000 0.000000 0.000000 0.000000 0.000000 0.000000 0.000000 0.000000 0.000000 0.000000 0.000000 0.000000 0.000000 0.000000 0.000000 0.000000 0.000000 0.000000 0.000000 0.000000 0.000000 0.000000 0.000000 0.000000 0.000000 0.000000 0.000000 0.000000 0.000000 0.000000 0.000000
0.000000 0.000000 0.000000 0.000000 0.000000 0.000000 0.000000 0.000000 0.000000 0.000000 0.000000 0.000000 0.000000 0.000000 0.000000 0.000000 0.000000 0.000000 0.000000 0.000000 0.000000 0.000000 0.000000 0.000000 0.000000 0.000000 0.000000 0.000000 0.000000 0.000000 0.000000 0.000000 0.000000 0.000000 0.000000 0.000000 0.000000 0.000000 0.000000 0.000000 0.000000 0.000000 0.000000 0.000000 0.000000 0.000000 0.000000 0.000000 0.000000 0.000000 0.000000 0.000000 0.000000 0.000000 0.000000 0.000000 0.000000 0.000000 0.000000 0.000000 0.000000 0.000000 0.000000 0.000000 0.000000 0.000000 0.000000 0.000000 0.000000 0.000000 0.000000 0.000000 0.000000 0.000000 0.000000 0.000000 0.000000 0.000000 0.000000 0.000000 0.000000 0.000000 0.000000 0.000000 0.000000 0.000000 0.000000 0.000000 0.000000 0.000000 0.000000 0.000000 0.000000 0.000000 0.000000 0.000000 0.000000 0.000000 0.000000 0.000000 0.000000 0.000000 0.000000
0.000000 0.000000 0.000000 0.000000 0.000000 0.000000 0.000000 0.000000 0.000000 0.000000 0.000000 0.000000 0.000000 0.000000 0.000000 0.000000 0.000000 0.000000 0.000000 0.000000 0.000000 0.000000 0.000000 0.000000 0.000000 0.000000 0.000000 0.000000 0.000000 0.000000 0.000000 0.000000 0.000000 0.000000 0.000000 0.000000 0.000000 0.000000 0.000000 0.000000 0.000000 0.000000 0.000000 0.000000 0.000000 0.000000 0.000000 0.000000 0.000000 0.000000 0.000000 0.000000 0.000000 0.000000 0.000000 0.000000 0.000000 0.000000 0.000000 0.000000 0.000000 0.000000 0.000000 0.000000 0.000000 0.000000 0.000000 0.000000 0.000000 0.000000 0.000000 0.000000 0.000000 0.000000 0.000000 0.000000 0.000000 0.000000 0.000000 0.000000 0.000000 0.000000 0.000000 0.000000 0.000000 0.000000 0.000000 0.000000 0.000000 0.000000 0.000000 0.000000 0.000000 0.000000 0.000000 0.000000 0.000000 0.000000 0.000000 0.000000 0.000000 0.000000 0.000000
0.000000 0.000000 0.000000 0.000000 0.000000 0.000000 0.000000 0.000000 0.000000 0.000000 0.000000 0.000000 0.000000 0.000000 0.000000 0.000000 0.000000 0.000000 0.000000 0.000000 0.000000 0.000000 0.000000 0.000000 0.000000 0.000000 0.000000 0.000000 0.000000 0.000000 0.000000 0.000000 0.000000 0.000000 0.000000 0.000000 0.000000 0.000000 0.000000 0.000000 0.000000 0.000000 0.000000 0.000000 0.000000 0.000000 0.000000 0.000000 0.000000 0.000000 0.000000 0.000000 0.000000 0.000000 0.000000 0.000000 0.000000 0.000000 0.000000 0.000000 0.000000 0.000000 0.000000 0.000000 0.000000 0.000000 0.000000 0.000000 0.000000 0.000000 0.000000 0.000000 0.000000 0.000000 0.000000 0.000000 0.000000 0.000000 0.000000 0.000000 0.000000 0.000000 0.000000 0.000000 0.000000 0.000000 0.000000 0.000000 0.000000 0.000000 0.000000 0.000000 0.000000 0.000000 0.000000 0.000000 0.000000 0.000000 0.000000 0.000000 0.000000 0.000000 0.000000
0.000000 0.000000 0.000000 0.000000 0.000000 0.000000 0.000000 0.000000 0.000000 0.000000 0.000000 0.000000 0.000000 0.000000 0.000000 0.000000 0.000000 0.000000 0.000000 0.000000 0.000000 0.000000 0.000000 0.000000 0.000000 0.000000 0.000000 0.000000 0.000000 0.000000 0.000000 0.000000 0.000000 0.000000 0.000000 0.000000 0.000000 0.000000 0.000000 0.000000 0.000000 0.000000 0.000000 0.000000 0.000000 0.000000 0.000000 0.000000 0.000000 0.000000 0.000000 0.000000 0.000000 0.000000 0.000000 0.000000 0.000000 0.000000 0.000000 0.000000 0.000000 0.000000 0.000000 0.000000 0.000000 0.000000 0.000000 0.000000 0.000000 0.000000 0.000000 0.000000 0.000000 0.000000 0.000000 0.000000 0.000000 0.000000 0.000000 0.000000 0.000000 0.000000 0.000000 0.000000 0.000000 0.000000 0.000000 0.000000 0.000000 0.000000 0.000000 0.000000 0.000000 0.000000 0.000000 0.000000 0.000000 0.000000 0.000000 0.000000 0.000000 0.000000 0.000000
0.000000 0.000000 0.000000 0.000000 0.000000 0.000000 0.000000 0.000000 0.000000 0.000000 0.000000 0.000000 0.000000 0.000000 0.000000 0.000000 0.000000 0.000000 0.000000 0.000000 0.000000 0.000000 0.000000 0.000000 0.000000 0.000000 0.000000 0.000000 0.000000 0.000000 0.000000 0.000000 0.000000 0.000000 0.000000 0.000000 0.000000 0.000000 0.000000 0.000000 0.000000 0.000000 0.000000 0.000000 0.000000 0.000000 0.000000 0.000000 0.000000 0.000000 0.000000 0.000000 0.000000 0.000000 0.000000 0.000000 0.000000 0.000000 0.000000 0.000000 0.000000 0.000000 0.000000 0.000000 0.000000 0.000000 0.000000 0.000000 0.000000 0.000000 0.000000 0.000000 0.000000 0.000000 0.000000 0.000000 0.000000 0.000000 0.000000 0.000000 0.000000 0.000000 0.000000 0.000000 0.000000 0.000000 0.000000 0.000000 0.000000 0.000000 0.000000 0.000000 0.000000 0.000000 0.000000 0.000000 0.000000 0.000000 0.000000 0.000000 0.000000 0.000000 0.000000
0.000000 0.000000 0.000000 0.000000 12.476532 12.476532 12.476532 12.476532 12.476532 12.476532 12.476532 12.476532 12.476532 9.920238 9.920238 9.920238 9.920238 9.920238 9.920238 16.948090 16.948090 16.948090 16.948090 16.948090 16.948090 16.948090 16.948090 16.948090 16.948090 16.948090 0.000000 0.000000 0.000000 0.000000 0.000000 0.000000 0.000000 0.000000 0.000000 0.000000 0.000000 0.000000 0.000000 0.000000 0.000000 0.000000 0.000000 0.000000 0.000000 0.000000 0.000000 0.000000 0.000000 0.000000 0.000000 0.000000 0.000000 0.000000 0.000000 0.000000 0.000000 0.000000 0.000000 0.000000 0.000000 0.000000 0.000000 0.000000 0.000000 0.000000 0.000000 0.000000 0.000000 0.000000 0.000000 0.000000 0.000000 0.000000 0.000000 0.000000 0.000000 0.000000 0.000000 0.000000 0.000000 0.000000 0.000000 0.000000 0.000000 0.000000 0.000000 0.000000 0.000000 0.000000 0.000000 0.000000 0.000000 0.000000 0.000000 0.000000 0.000000 0.000000 0.000000
0.000000 0.000000 0.000000 0.000000 12.476532 12.476532 12.476532 12.476532 12.476532 12.476532 12.476532 12.476532 12.476532 9.920238 9.920238 9.920238 9.920238 9.920238 9.920238 16.948090 16.948090 16.948090 16.948090 16.948090 16.948090 16.948090 16.948090 16.948090 16.948090 16.948090 0.000000 0.000000 0.000000 0.000000 0.000000 0.000000 0.000000 0.000000 0.000000 0.000000 0.000000 0.000000 0.000000 0.000000 0.000000 0.000000 0.000000 0.000000 0.000000 0.000000 0.000000 0.000000 0.000000 0.000000 0.000000 0.000000 0.000000 0.000000 0.000000 0.000000 0.000000 0.000000 0.000000 0.000000 0.000000 0.000000 0.000000 0.000000 0.000000 0.000000 0.000000 0.000000 0.000000 0.000000 0.000000 0.000000 0.000000 0.000000 0.000000 0.000000 0.000000 0.000000 0.000000 0.000000 0.000000 0.000000 0.000000 0.000000 0.000000 0.000000 0.000000 0.000000 0.000000 0.000000 0.000000 0.000000 0.000000 0.000000 0.000000 0.000000 0.000000 0.000000 0.000000
0.000000 0.000000 0.000000 0.000000 12.476532 12.476532 12.476532 12.476532 12.476532 12.476532 12.476532 12.476532 12.476532 9.920238 9.920238 9.920238 9.920238 9.920238 9.920238 16.948090 16.948090 16.948090 16.948090 16.948090 16.948090 16.948090 16.948090 16.948090 16.948090 16.948090 0.000000 0.000000 0.000000 0.000000 0.000000 0.000000 0.000000 0.000000 0.000000 0.000000 0.000000 0.000000 0.000000 0.000000 0.000000 0.000000 0.000000 0.000000 0.000000 0.000000 10.452881 10.452881 10.452881 10.452881 10.452881 10.452881 10.452881 10.452881 0.000000 0.000000 0.000000 0.000000 0.000000 0.000000 0.000000 0.000000 0.000000 0.000000 0.000000 0.000000 0.000000 0.000000 0.000000 0.000000 0.000000 0.000000 0.000000 0.000000 0.000000 34.042538 34.042538 34.042538 34.042538 34.042538 34.042538 34.042538 34.042538 0.000000 0.000000 0.000000 0.000000 27.546794 27.546794 27.546794 27.546794 27.546794 27.546794 0.000000 0.000000 0.000000 0.000000 0.000000 0.000000
0.000000 0.000000 0.000000 0.000000 12.476532 12.476532 12.476532 12.476532 12.476532 12.476532 12.476532 12.476532 12.476532 9.920238 9.920238 9.920238 9.920238 9.920238 9.920238 16.948090 16.948090 16.948090 16.948090 16.948090 16.948090 16.948090 16.948090 16.948090 16.948090 16.948090 0.000000 0.000000 0.000000 0.000000 0.000000 0.000000 0.000000 0.000000 0.000000 0.000000 0.000000 0.000000 0.000000 0.000000 0.000000 0.000000 0.000000 0.000000 0.000000 0.000000 10.452881 10.452881 10.452881 10.452881 10.452881 10.452881 10.452881 10.452881 0.000000 0.000000 0.000000 0.000000 0.000000 0.000000 0.000000 0.000000 0.000000 0.000000 0.000000 0.000000 0.000000 0.000000 0.000000 0.000000 0.000000 0.000000 0.000000 0.000000 0.000000 34.042538 34.042538 34.042538 34.042538 34.042538 34.042538 34.042538 34.042538 0.000000 0.000000 0.000000 0.000000 27.546794 27.546794 27.546794 27.546794 27.546794 27.546794 0.000000 0.000000 0.000000 0.000000 0.000000 0.000000
0.000000 0.000000 0.000000 0.000000 12.476532 12.476532 12.476532 12.476532 12.476532 12.476532 12.476532 12.476532 12.476532 9.920238 9.920238 9.920238 9.920238 9.920238 9.920238 16.948090 16.948090 16.948090 16.948090 16.948090 16.948090 16.948090 16.948090 16.948090 16.948090 16.948090 0.000000 0.000000 0.000000 0.000000 0.000000 0.000000 0.000000 0.000000 0.000000 0.000000 0.000000 0.000000 0.000000 0.000000 0.000000 0.000000 0.000000 0.000000 0.000000 0.000000 10.452881 10.452881 10.452881 10.452881 10.452881 10.452881 10.452881 10.452881 0.000000 0.000000 0.000000 0.000000 0.000000 0.000000 0.000000 0.000000 0.000000 0.000000 0.000000 0.000000 0.000000 0.000000 0.000000 0.000000 0.000000 0.000000 0.000000 0.000000 0.000000 34.042538 34.042538 34.042538 34.042538 34.042538 34.042538 34.042538 34.042538 0.000000 0.000000 0.000000 0.000000 27.546794 27.546794 27.546794 27.546794 27.546794 27.546794 0.000000 0.000000 0.000000 0.000000 0.000000 0.000000
0.000000 0.000000 0.000000 0.000000 12.476532 12.476532 12.476532 12.476532 12.476532 12.476532 12.476532 12.476532 12.476532 9.920238 9.920238 9.920238 9.920238 9.920238 9.920238 16.948090 16.948090 16.948090 16.948090 16.948090 16.948090 16.948090 16.948090 16.948090 16.948090 16.948090 0.000000 0.000000 0.000000 0.000000 0.000000 0.000000 0.000000 0.000000 0.000000 0.000000 0.000000 0.000000 0.000000 0.000000 0.000000 0.000000 0.000000 0.000000 0.000000 0.000000 10.452881 10.452881 10.452881 10.452881 10.452881 10.452881 10.452881 10.452881 0.000000 0.000000 0.000000 0.000000 0.000000 0.000000 0.000000 0.000000 0.000000 0.000000 0.000000 0.000000 0.000000 0.000000 0.000000 0.000000 0.000000 0.000000 0.000000 0.000000 0.000000 34.042538 34.042538 34.042538 34.042538 34.042538 34.042538 34.042538 34.042538 0.000000 0.000000 0.000000 0.000000 27.546794 27.546794 27.546794 27.546794 27.546794 27.546794 0.000000 0.000000 0.000000 0.000000 0.000000 0.000000
0.000000 0.000000 0.000000 0.000000 12.476532 12.476532 12.476532 12.476532 12.476532 12.476532 12.476532 12.476532 12.476532 9.920238 9.920238 9.920238 9.920238 9.920238 9.920238 16.948090 16.948090 16.948090 16.948090 16.948090 16.948090 16.948090 16.948090 16.948090 16.948090 16.948090 0.000000 0.000000 0.000000 0.000000 0.000000 0.000000 0.000000 0.000000 0.000000 0.000000 0.000000 0.000000 0.000000 0.000000 0.000000 0.000000 0.000000 0.000000 0.000000 0.000000 10.452881 10.452881 10.452881 10.452881 10.452881 10.452881 10.452881 10.452881 0.000000 0.000000 0.000000 0.000000 0.000000 0.000000 0.000000 0.000000 0.000000 0.000000 0.000000 0.000000 0.000000 0.000000 0.000000 0.000000 0.000000 0.000000 0.000000 0.000000 0.000000 34.042538 34.042538 34.042538 34.042538 34.042538 34.042538 34.042538 34.042538 0.000000 0.000000 0.000000 0.000000 27.546794 27.546794 27.546794 27.546794 27.546794 27.546794 0.000000 0.000000 0.000000 0.000000 0.000000 0.000000
0.000000 0.000000 0.000000 0.000000 12.469751 12.469751 12.469751 12.469751 12.469751 12.469751 12.469751 12.469751 12.469751 0.000000 0.000000 0.000000 0.000000 0.000000 0.000000 16.974277 16.974277 16.974277 16.974277 16.974277 16.974277 16.974277 16.974277 16.974277 16.974277 16.974277 0.000000 0.000000 0.000000 0.000000 0.000000 26.736251 26.736251 26.736251 26.736251 26.736251 26.736251 26.736251 26.736251 26.736251 26.736251 26.736251 26.736251 26.736251 0.000000 0.000000 0.000000 0.000000 0.000000 0.000000 0.000000 0.000000 0.000000 0.000000 0.000000 0.000000 0.000000 0.000000 0.000000 0.000000 0.000000 0.000000 0.000000 0.000000 0.000000 0.000000 0.000000 0.000000 0.000000 0.000000 0.000000 0.000000 0.000000 0.000000 0.000000 34.042538 34.042538 34.042538 34.042538 34.042538 34.042538 34.042538 34.042538 0.000000 0.000000 0.000000 0.000000 27.546794 27.546794 27.546794 27.546794 27.546794 27.546794 0.000000 0.000000 0.000000 0.000000 0.000000 0.000000
0.000000 0.000000 0.000000 0.000000 12.469751 12.469751 12.469751 12.469751 12.469751 12.469751 12.469751 12.469751 12.469751 0.000000 0.000000 0.000000 0.000000 0.000000 0.000000 16.974277 16.974277 16.974277 16.974277 16.974277 16.974277 16.974277 16.974277 16.974277 16.974277 16.974277 0.000000 0.000000 0.000000 0.000000 0.000000 26.736251 26.736251 26.736251 26.736251 26.736251 26.736251 26.736251 26.736251 26.736251 26.736251 26.736251 26.736251 26.736251 0.000000 0.000000 0.000000 0.000000 0.000000 0.000000 0.000000 0.000000 0.000000 0.000000 0.000000 0.000000 0.000000 0.000000 0.000000 0.000000 0.000000 0.000000 0.000000 0.000000 0.000000 0.000000 0.000000 0.000000 0.000000 0.000000 0.000000 0.000000 0.000000 0.000000 0.000000 34.042538 34.042538 34.042538 34.042538 34.042538 34.042538 34.042538 34.042538 0.000000 0.000000 0.000000 0.000000 27.546794 27.546794 27.546794 27.546794 27.546794 27.546794 0.000000 0.000000 0.000000 0.000000 0.000000 0.000000
0.000000 0.000000 0.000000 0.000000 12.469751 12.469751 12.469751 12.469751 12.469751 12.469751 12.469751 12.469751 12.469751 0.000000 0.000000 0.000000 0.000000 0.000000 0.000000 16.974277 16.974277 16.974277 16.974277 16.974277 16.974277 16.974277 16.974277 16.974277 16.974277 16.974277 0.000000 0.000000 0.000000 0.000000 0.000000 26.736251 26.736251 26.736251 26.736251 26.736251 26.736251 26.736251 26.736251 26.736251 26.736251 26.736251 26.736251 26.736251 0.000000 0.000000 0.000000 0.000000 0.000000 0.000000 0.000000 0.000000 0.000000 0.000000 0.000000 0.000000 0.000000 0.000000 0.000000 0.000000 0.000000 0.000000 0.000000 0.000000 0.000000 0.000000 0.000000 0.000000 0.000000 0.000000 0.000000 0.000000 0.000000 0.000000 0.000000 34.042538 34.042538 34.042538 34.042538 34.042538 34.042538 34.042538 34.042538 0.000000 0.000000 0.000000 0.000000 27.546794 27.546794 27.546794 27.546794 27.546794 27.546794 0.000000 0.000000 0.000000 0.000000 0.000000 0.000000
0.000000 0.000000 0.000000 0.000000 12.469751 12.469751 12.469751 12.469751 12.469751 12.469751 12.469751 12.469751 12.469751 0.000000 0.000000 0.000000 0.000000 0.000000 0.000000 16.974277 16.974277 16.974277 16.974277 16.974277 16.974277 16.974277 16.974277 16.974277 16.974277 16.974277 0.000000 0.000000 0.000000 0.000000 0.000000 26.736251 26.736251 26.736251 26.736251 26.736251 26.736251 26.736251 26.736251 26.736251 26.736251 26.736251 26.736251 26.736251 0.000000 0.000000 0.000000 0.000000 0.000000 0.000000 0.000000 0.000000 0.000000 0.000000 0.000000 0.000000 0.000000 0.000000 0.000000 0.000000 0.000000 0.000000 0.000000 0.000000 0.000000 0.000000 0.000000 0.000000 0.000000 0.000000 0.000000 0.000000 0.000000 0.000000 0.000000 34.042538 34.042538 34.042538 34.042538 34.042538 34.042538 34.042538 34.042538 0.000000 0.000000 0.000000 0.000000 27.546794 27.546794 27.546794 27.546794 27.546794 27.546794 0.000000 0.000000 0.000000 0.000000 0.000000 0.000000
0.000000 0.000000 0.000000 0.000000 12.469751 12.469751 12.469751 12.469751 12.469751 12.469751 12.469751 12.469751 12.469751 0.000000 0.000000 0.000000 0.000000 0.000000 0.000000 16.974277 16.974277 16.974277 16.974277 16.974277 16.974277 16.974277 16.974277 16.974277 16.974277 16.974277 0.000000 0.000000 0.000000 0.000000 0.000000 26.736251 26.736251 26.736251 26.736251 26.736251 26.736251 26.736251 26.736251 26.736251 26.736251 26.736251 26.736251 26.736251 0.000000 0.000000 6.859797 6.859797 6.859797 6.859797 6.859797 6.859797 6.859797 6.859797 0.000000 0.000000 0.000000 0.000000 0.000000 0.000000 0.000000 0.000000 0.000000 0.000000 0.000000 0.000000 0.000000 0.000000 0.000000 0.000000 0.000000 0.000000 0.000000 0.000000 0.000000 34.042538 34.042538 34.042538 34.042538 34.042538 34.042538 34.042538 34.042538 0.000000 0.000000 0.000000 0.000000 27.546794 27.546794 27.546794 27.546794 27.546794 27.546794 0.000000 0.000000 0.000000 0.000000 0.000000 0.000000
0.000000 0.000000 0.000000 0.000000 12.469751 12.469751 12.469751 12.469751 12.469751 12.469751 12.469751 12.469751 12.469751 0.000000 0.000000 0.000000 0.000000 0.000000 0.000000 16.974277 16.974277 16.974277 16.974277 16.974277 16.974277 16.974277 16.974277 16.974277 16.974277 16.974277 0.000000 0.000000 0.000000 0.000000 0.000000 26.736251 26.736251 26.736251 26.736251 26.736251 26.736251 26.736251 26.736251 26.736251 26.736251 26.736251 26.736251 26.736251 0.000000 0.000000 6.859797 6.859797 6.859797 6.859797 6.859797 6.859797 6.859797 6.859797 0.000000 0.000000 0.000000 0.000000 0.000000 0.000000 0.000000 0.000000 0.000000 0.000000 0.000000 0.000000 0.000000 0.000000 0.000000 0.000000 0.000000 0.000000 0.000000 0.000000 0.000000 34.042538 34.042538 34.042538 34.042538 34.042538 34.042538 34.042538 34.042538 0.000000 0.000000 0.000000 0.000000 27.546794 27.546794 27.546794 27.546794 27.546794 27.546794 0.000000 0.000000 0.000000 0.000000 0.000000 0.000000
0.000000 0.000000 0.000000 0.000000 12.636813 12.636813 12.636813 12.636813 12.636813 12.636813 12.636813 12.636813 12.636813 0.000000 0.000000 0.000000 0.000000 0.000000 0.000000 0.000000 0.000000 0.000000 0.000000 0.000000 0.000000 0.000000 0.000000 0.000000 0.000000 0.000000 0.000000 0.000000 0.000000 0.000000 0.000000 26.736251 26.736251 26.736251 26.736251 26.736251 26.736251 26.736251 26.736251 26.736251 26.736251 26.736251 26.736251 26.736251 0.000000 0.000000 6.859797 6.859797 6.859797 6.859797 6.859797 6.859797 6.859797 6.859797 0.000000 0.000000 0.000000 0.000000 0.000000 0.000000 0.000000 0.000000 0.000000 9.478733 9.478733 9.478733 0.000000 0.000000 0.000000 0.000000 0.000000 0.000000 0.000000 0.000000 0.000000 34.042538 34.042538 34.042538 34.042538 34.042538 34.042538 34.042538 34.042538 0.000000 0.000000 0.000000 0.000000 27.546794 27.546794 27.546794 27.546794 27.546794 27.546794 0.000000 0.000000 0.000000 0.000000 0.000000 0.000000
0.000000 0.000000 0.000000 0.000000 12.636813 12.636813 12.636813 12.636813 12.636813 12.636813 12.636813 12.636813 12.636813 0.000000 0.000000 0.000000 0.000000 0.000000 0.000000 0.000000 0.000000 0.000000 0.000000 0.000000 0.000000 0.000000 0.000000 0.000000 0.000000 0.000000 0.000000 0.000000 0.000000 0.000000 0.000000 26.736251 26.736251 26.736251 26.736251 26.736251 26.736251 26.736251 26.736251 26.736251 26.736251 26.736251 26.736251 26.736251 0.000000 0.000000 0.000000 0.000000 0.000000 0.000000 0.000000 0.000000 0.000000 0.000000 0.000000 0.000000 0.000000 0.000000 0.000000 0.000000 0.000000 0.000000 0.000000 9.478733 9.478733 9.478733 0.000000 0.000000 0.000000 0.000000 0.000000 0.000000 0.000000 0.000000 0.000000 34.042538 34.042538 34.042538 34.042538 34.042538 34.042538 34.042538 34.042538 0.000000 0.000000 0.000000 0.000000 27.546794 27.546794 27.546794 27.546794 27.546794 27.546794 0.000000 0.000000 0.000000 0.000000 0.000000 0.000000
0.000000 0.000000 0.000000 0.000000 12.636813 12.636813 12.636813 12.636813 12.636813 12.636813 12.636813 12.636813 12.636813 0.000000 6.281591 6.281591 6.281591 0.000000 0.000000 0.000000 0.000000 0.000000 0.000000 0.000000 0.000000 0.000000 0.000000 0.000000 0.000000 0.000000 0.000000 0.000000 0.000000 0.000000 0.000000 26.736251 26.736251 26.736251 26.736251 26.736251 26.736251 26.736251 26.736251 26.736251 26.736251 26.736251 26.736251 26.736251 0.000000 0.000000 0.000000 0.000000 0.000000 0.000000 0.000000 0.000000 0.000000 0.000000 0.000000 0.000000 0.000000 0.000000 0.000000 0.000000 0.000000 0.000000 0.000000 9.478733 9.478733 9.478733 0.000000 0.000000 0.000000 0.000000 0.000000 0.000000 0.000000 0.000000 0.000000 34.042538 34.042538 34.042538 34.042538 34.042538 34.042538 34.042538 34.042538 0.000000 0.000000 0.000000 0.000000 27.546794 27.546794 27.546794 27.546794 27.546794 27.546794 0.000000 0.000000 0.000000 0.000000 0.000000 0.000000
0.000000 0.000000 0.000000 0.000000 12.636813 12.636813 12.636813 12.636813 12.636813 12.636813 12.636813 12.636813 12.636813 0.000000 6.281591 6.281591 6.281591 0.000000 0.000000 0.000000 0.000000 0.000000 0.000000 0.000000 0.000000 0.000000 0.000000 0.000000 0.000000 0.000000 0.000000 0.000000 0.000000 0.000000 0.000000 0.000000 0.000000 0.000000 0.000000 0.000000 0.000000 0.000000 0.000000 0.000000 0.000000 0.000000 0.000000 0.000000 0.000000 0.000000 0.000000 0.000000 0.000000 0.000000 0.000000 0.000000 0.000000 0.000000 0.000000 0.000000 0.000000 0.000000 0.000000 0.000000 0.000000 0.000000 0.000000 9.478733 9.478733 9.478733 0.000000 0.000000 0.000000 0.000000 0.000000 0.000000 0.000000 0.000000 0.000000 34.042538 34.042538 34.042538 34.042538 34.042538 34.042538 34.042538 34.042538 0.000000 0.000000 0.000000 0.000000 27.546794 27.546794 27.546794 27.546794 27.546794 27.546794 0.000000 0.000000 0.000000 0.000000 0.000000 0.000000
0.000000 0.000000 0.000000 0.000000 12.636813 12.636813 12.636813 12.636813 12.636813 12.636813 12.636813 12.636813 12.636813 0.000000 6.281591 6.281591 6.281591 0.000000 0.000000 0.000000 0.000000 0.000000 0.000000 0.000000 0.000000 0.000000 0.000000 0.000000 0.000000 0.000000 0.000000 0.000000 0.000000 0.000000 0.000000 0.000000 0.000000 0.000000 0.000000 0.000000 0.000000 0.000000 0.000000 0.000000 0.000000 0.000000 0.000000 0.000000 0.000000 0.000000 0.000000 0.000000 0.000000 0.000000 0.000000 0.000000 0.000000 0.000000 0.000000 0.000000 0.000000 0.000000 0.000000 0.000000 0.000000 0.000000 0.000000 9.478733 9.478733 9.478733 0.000000 0.000000 0.000000 0.000000 0.000000 0.000000 0.000000 0.000000 0.000000 34.042538 34.042538 34.042538 34.042538 34.042538 34.042538 34.042538 34.042538 0.000000 0.000000 0.000000 0.000000 27.546794 27.546794 27.546794 27.546794 27.546794 27.546794 0.000000 0.000000 0.000000 0.000000 0.000000 0.000000
0.000000 0.000000 0.000000 0.000000 12.636813 12.636813 12.636813 12.636813 12.636813 12.636813 12.636813 12.636813 12.636813 0.000000 6.281591 6.281591 6.281591 0.000000 0.000000 0.000000 0.000000 0.000000 0.000000 0.000000 0.000000 0.000000 0.000000 0.000000 0.000000 0.000000 0.000000 0.000000 0.000000 0.000000 0.000000 0.000000 0.000000 24.048936 24.048936 24.048936 24.048936 24.048936 24.048936 24.048936 24.048936 24.048936 0.000000 0.000000 0.000000 0.000000 6.993464 6.993464 6.993464 6.993464 6.993464 6.993464 6.993464 6.993464 0.000000 0.000000 0.000000 0.000000 0.000000 0.000000 0.000000 0.000000 0.000000 9.478733 9.478733 9.478733 0.000000 0.000000 0.000000 0.000000 0.000000 0.000000 0.000000 0.000000 0.000000 34.042538 34.042538 34.042538 34.042538 34.042538 34.042538 34.042538 34.042538 0.000000 0.000000 0.000000 0.000000 27.546794 27.546794 27.546794 27.546794 27.546794 27.546794 0.000000 0.000000 0.000000 0.000000 0.000000 0.000000
0.000000 0.000000 0.000000 0.000000 0.000000 0.000000 0.000000 0.000000 0.000000 0.000000 0.000000 0.000000 0.000000 0.000000 6.281591 6.281591 6.281591 0.000000 0.000000 0.000000 0.000000 0.000000 0.000000 0.000000 0.000000 0.000000 0.000000 0.000000 0.000000 0.000000 0.000000 0.000000 0.000000 0.000000 0.000000 0.000000 0.000000 24.048936 24.048936 24.048936 24.048936 24.048936 24.048936 24.048936 24.048936 24.048936 0.000000 0.000000 0.000000 0.000000 6.993464 6.993464 6.993464 6.993464 6.993464 6.993464 6.993464 6.993464 0.000000 0.000000 0.000000 0.000000 0.000000 0.000000 0.000000 0.000000 0.000000 9.478733 9.478733 9.478733 0.000000 0.000000 0.000000 0.000000 0.000000 0.000000 0.000000 0.000000 0.000000 34.042538 34.042538 34.042538 34.042538 34.042538 34.042538 34.042538 34.042538 0.000000 0.000000 0.000000 0.000000 27.546794 27.546794 27.546794 27.546794 27.546794 27.546794 0.000000 0.000000 0.000000 0.000000 0.000000 0.000000
0.000000 0.000000 0.000000 0.000000 0.000000 0.000000 0.000000 0.000000 0.000000 0.000000 0.000000 0.000000 0.000000 0.000000 6.281591 6.281591 6.281591 0.000000 0.000000 0.000000 0.000000 0.000000 0.000000 0.000000 0.000000 0.000000 0.000000 0.000000 0.000000 0.000000 0.000000 0.000000 0.000000 0.000000 0.000000 0.000000 0.000000 24.048936 24.048936 24.048936 24.048936 24.048936 24.048936 24.048936 24.048936 24.048936 0.000000 0.000000 0.000000 0.000000 6.993464 6.993464 6.993464 6.993464 6.993464 6.993464 6.993464 6.993464 0.000000 0.000000 0.000000 0.000000 0.000000 0.000000 0.000000 0.000000 0.000000 9.478733 9.478733 9.478733 0.000000 0.000000 0.000000 0.000000 0.000000 0.000000 0.000000 0.000000 0.000000 0.000000 0.000000 0.000000 0.000000 0.000000 0.000000 0.000000 0.000000 0.000000 0.000000 0.000000 0.000000 0.000000 0.000000 0.000000 0.000000 0.000000 0.000000 0.000000 0.000000 0.000000 0.000000 0.000000 0.000000
0.000000 0.000000 0.000000 0.000000 0.000000 0.000000 0.000000 0.000000 0.000000 0.000000 0.000000 0.000000 0.000000 0.000000 6.281591 6.281591 6.281591 0.000000 0.000000 0.000000 0.000000 0.000000 0.000000 0.000000 0.000000 0.000000 0.000000 0.000000 0.000000 0.000000 0.000000 0.000000 0.000000 0.000000 0.000000 0.000000 0.000000 24.048936 24.048936 24.048936 24.048936 24.048936 24.048936 24.048936 24.048936 24.048936 0.000000 0.000000 0.000000 0.000000 0.000000 0.000000 0.000000 0.000000 0.000000 0.000000 0.000000 0.000000 0.000000 0.000000 0.000000 0.000000 0.000000 0.000000 0.000000 0.000000 0.000000 9.478733 9.478733 9.478733 0.000000 0.000000 0.000000 0.000000 0.000000 0.000000 0.000000 0.000000 0.000000 0.000000 0.000000 0.000000 0.000000 0.000000 0.000000 0.000000 0.000000 0.000000 0.000000 0.000000 0.000000 0.000000 0.000000 0.000000 0.000000 0.000000 0.000000 0.000000 0.000000 0.000000 0.000000 0.000000 0.000000
0.000000 0.000000 0.000000 0.000000 0.000000 0.000000 0.000000 0.000000 0.000000 0.000000 0.000000 0.000000 0.000000 0.000000 6.281591 6.281591 6.281591 0.000000 0.000000 0.000000 0.000000 0.000000 0.000000 0.000000 0.000000 0.000000 0.000000 0.000000 0.000000 0.000000 0.000000 0.000000 0.000000 0.000000 0.000000 0.000000 0.000000 24.048936 24.048936 24.048936 24.048936 24.048936 24.048936 24.048936 24.048936 24.048936 0.000000 0.000000 0.000000 0.000000 0.000000 0.000000 0.000000 0.000000 0.000000 0.000000 0.000000 0.000000 0.000000 0.000000 0.000000 0.000000 0.000000 0.000000 0.000000 0.000000 0.000000 9.478733 9.478733 9.478733 0.000000 0.000000 0.000000 0.000000 0.000000 0.000000 0.000000 0.000000 0.000000 0.000000 0.000000 0.000000 0.000000 0.000000 0.000000 0.000000 0.000000 0.000000 0.000000 0.000000 0.000000 0.000000 0.000000 0.000000 0.000000 0.000000 0.000000 0.000000 0.000000 0.000000 0.000000 0.000000 0.000000
0.000000 0.000000 0.000000 0.000000 0.000000 0.000000 0.000000 0.000000 0.000000 0.000000 0.000000 0.000000 0.000000 0.000000 6.281591 6.281591 6.281591 0.000000 0.000000 0.000000 0.000000 0.000000 0.000000 0.000000 0.000000 0.000000 0.000000 0.000000 0.000000 0.000000 0.000000 0.000000 0.000000 0.000000 0.000000 0.000000 0.000000 24.048936 24.048936 24.048936 24.048936 24.048936 24.048936 24.048936 24.048936 24.048936 0.000000 0.000000 24.617606 24.617606 24.617606 24.617606 24.617606 24.617606 24.617606 24.617606 24.617606 24.617606 24.617606 24.617606 0.000000 0.000000 0.000000 0.000000 0.000000 0.000000 0.000000 9.478733 9.478733 9.478733 0.000000 0.000000 0.000000 0.000000 0.000000 0.000000 0.000000 0.000000 0.000000 0.000000 0.000000 0.000000 0.000000 0.000000 0.000000 0.000000 0.000000 0.000000 0.000000 0.000000 0.000000 0.000000 0.000000 0.000000 0.000000 0.000000 0.000000 0.000000 0.000000 0.000000 0.000000 0.000000 0.000000
0.000000 0.000000 0.000000 0.000000 0.000000 0.000000 0.000000 0.000000 0.000000 0.000000 0.000000 0.000000 0.000000 0.000000 0.000000 0.000000 0.000000 0.000000 0.000000 0.000000 0.000000 0.000000 0.000000 0.000000 0.000000 0.000000 0.000000 0.000000 0.000000 0.000000 0.000000 0.000000 0.000000 0.000000 0.000000 0.000000 0.000000 24.048936 24.048936 24.048936 24.048936 24.048936 24.048936 24.048936 24.048936 24.048936 0.000000 0.000000 24.617606 24.617606 24.617606 24.617606 24.617606 24.617606 24.617606 24.617606 24.617606 24.617606 24.617606 24.617606 0.000000 0.000000 0.000000 0.000000 0.000000 0.000000 0.000000 9.478733 9.478733 9.478733 0.000000 0.000000 0.000000 0.000000 0.000000 0.000000 0.000000 0.000000 0.000000 13.919178 13.919178 13.919178 13.919178 13.919178 13.919178 13.919178 13.919178 0.000000 0.000000 0.000000 0.000000 0.000000 0.000000 0.000000 0.000000 0.000000 0.000000 0.000000 0.000000 0.000000 0.000000 0.000000 0.000000
0.000000 0.000000 0.000000 0.000000 0.000000 0.000000 0.000000 0.000000 0.000000 0.000000 0.000000 0.000000 0.000000 0.000000 0.000000 0.000000 0.000000 0.000000 0.000000 0.000000 0.000000 0.000000 0.000000 0.000000 0.000000 0.000000 0.000000 0.000000 0.000000 0.000000 0.000000 0.000000 0.000000 0.000000 0.000000 0.000000 0.000000 24.048936 24.048936 24.048936 24.048936 24.048936 24.048936 24.048936 24.048936 24.048936 0.000000 0.000000 24.617606 24.617606 24.617606 24.617606 24.617606 24.617606 24.617606 24.617606 24.617606 24.617606 24.617606 24.617606 0.000000 0.000000 0.000000 0.000000 0.000000 0.000000 0.000000 0.000000 0.000000 0.000000 0.000000 0.000000 0.000000 0.000000 0.000000 0.000000 0.000000 0.000000 0.000000 13.919178 13.919178 13.919178 13.919178 13.919178 13.919178 13.919178 13.919178 0.000000 0.000000 0.000000 0.000000 0.000000 0.000000 0.000000 0.000000 0.000000 0.000000 0.000000 0.000000 0.000000 0.000000 0.000000 0.000000
0.000000 0.000000 0.000000 0.000000 13.024163 13.024163 13.024163 13.024163 13.024163 13.024163 13.024163 13.024163 13.024163 0.000000 0.000000 0.000000 0.000000 0.000000 0.000000 0.000000 0.000000 0.000000 0.000000 0.000000 0.000000 0.000000 0.000000 0.000000 0.000000 0.000000 0.000000 0.000000 0.000000 0.000000 0.000000 0.000000 0.000000 24.048936 24.048936 24.048936 24.048936 24.048936 24.048936 24.048936 24.048936 24.048936 0.000000 0.000000 24.617606 24.617606 24.617606 24.617606 24.617606 24.617606 24.617606 24.617606 24.617606 24.617606 24.617606 24.617606 0.000000 0.000000 0.000000 0.000000 0.000000 0.000000 0.000000 0.000000 0.000000 0.000000 0.000000 0.000000 0.000000 0.000000 0.000000 0.000000 0.000000 0.000000 0.000000 13.919178 13.919178 13.919178 13.919178 13.919178 13.919178 13.919178 13.919178 0.000000 0.000000 0.000000 0.000000 0.000000 0.000000 0.000000 0.000000 0.000000 0.000000 0.000000 0.000000 0.000000 0.000000 0.000000 0.000000
0.000000 0.000000 0.000000 0.000000 13.024163 13.024163 13.024163 13.024163 13.024163 13.024163 13.024163 13.024163 13.024163 0.000000 0.000000 0.000000 0.000000 0.000000 0.000000 0.000000 0.000000 0.000000 0.000000 0.000000 0.000000 0.000000 0.000000 0.000000 0.000000 0.000000 0.000000 0.000000 0.000000 0.000000 0.000000 0.000000 0.000000 24.048936 24.048936 24.048936 24.048936 24.048936 24.048936 24.048936 24.048936 24.048936 0.000000 0.000000 24.617606 24.617606 24.617606 24.617606 24.617606 24.617606 24.617606 24.617606 24.617606 24.617606 24.617606 24.617606 0.000000 0.000000 0.000000 0.000000 0.000000 0.000000 0.000000 0.000000 0.000000 0.000000 0.000000 0.000000 0.000000 0.000000 0.000000 0.000000 0.000000 0.000000 0.000000 13.919178 13.919178 13.919178 13.919178 13.919178 13.919178 13.919178 13.919178 0.000000 0.000000 0.000000 0.000000 0.000000 0.000000 0.000000 0.000000 0.000000 0.000000 0.000000 0.000000 0.000000 0.000000 0.000000 0.000000
0.000000 0.000000 0.000000 0.000000 13.024163 13.024163 13.024163 13.024163 13.024163 13.024163 13.024163 13.024163 13.024163 0.000000 0.000000 0.000000 0.000000 0.000000 0.000000 0.000000 0.000000 0.000000 0.000000 0.000000 0.000000 0.000000 0.000000 0.000000 0.000000 0.000000 0.000000 0.000000 0.000000 0.000000 0.000000 0.000000 0.000000 24.048936 24.048936 24.048936 24.048936 24.048936 24.048936 24.048936 24.048936 24.048936 0.000000 0.000000 24.617606 24.617606 24.617606 24.617606 24.617606 24.617606 24.617606 24.617606 24.617606 24.617606 24.617606 24.617606 0.000000 0.000000 0.000000 0.000000 0.000000 0.000000 0.000000 0.000000 0.000000 0.000000 0.000000 0.000000 0.000000 0.000000 0.000000 0.000000 0.000000 0.000000 0.000000 13.919178 13.919178 13.919178 13.919178 13.919178 13.919178 13.919178 13.919178 0.000000 0.000000 0.000000 0.000000 0.000000 0.000000 0.000000 0.000000 0.000000 0.000000 0.000000 0.000000 0.000000 0.000000 0.000000 0.000000
0.000000 0.000000 0.000000 0.000000 13.024163 13.024163 13.024163 13.024163 13.024163 13.024163 13.024163 13.024163 13.024163 0.000000 0.000000 0.000000 0.000000 0.000000 0.000000 0.000000 0.000000 0.000000 0.000000 0.000000 0.000000 0.000000 0.000000 0.000000 0.000000 0.000000 0.000000 0.000000 0.000000 0.000000 0.000000 0.000000 0.000000 24.048936 24.048936 24.048936 24.048936 24.048936 24.048936 24.048936 24.048936 24.048936 0.000000 0.000000 24.617606 24.617606 24.617606 24.617606 24.617606 24.617606 24.617606 24.617606 24.617606 24.617606 24.617606 24.617606 0.000000 0.000000 0.000000 0.000000 0.000000 0.000000 0.000000 10.308069 10.308069 10.308069 0.000000 0.000000 0.000000 0.000000 0.000000 0.000000 0.000000 0.000000 0.000000 13.919178 13.919178 13.919178 13.919178 13.919178 13.919178 13.919178 13.919178 0.000000 0.000000 0.000000 0.000000 0.000000 0.000000 0.000000 0.000000 0.000000 0.000000 0.000000 0.000000 0.000000 0.000000 0.000000 0.000000
0.000000 0.000000 0.000000 0.000000 13.024163 13.024163 13.024163 13.024163 13.024163 13.024163 13.024163 13.024163 13.024163 0.000000 0.000000 0.000000 0.000000 0.000000 0.000000 0.000000 0.000000 0.000000 0.000000 0.000000 0.000000 0.000000 0.000000 0.000000 0.000000 0.000000 0.000000 0.000000 0.000000 0.000000 0.000000 0.000000 0.000000 0.000000 0.000000 0.000000 0.000000 0.000000 0.000000 0.000000 0.000000 0.000000 0.000000 0.000000 24.617606 24.617606 24.617606 24.617606 24.617606 24.617606 24.617606 24.617606 24.617606 24.617606 24.617606 24.617606 0.000000 0.000000 0.000000 0.000000 0.000000 0.000000 0.000000 10.308069 10.308069 10.308069 0.000000 0.000000 0.000000 0.000000 0.000000 0.000000 0.000000 0.000000 0.000000 13.919178 13.919178 13.919178 13.919178 13.919178 13.919178 13.919178 13.919178 0.000000 0.000000 0.000000 0.000000 0.000000 0.000000 0.000000 0.000000 0.000000 0.000000 0.000000 0.000000 0.000000 0.000000 0.000000 0.000000
0.000000 0.000000 0.000000 0.000000 13.024163 13.024163 13.024163 13.024163 13.024163 13.024163 13.024163 13.024163 13.024163 0.000000 0.000000 0.000000 0.000000 0.000000 0.000000 0.000000 0.000000 0.000000 0.000000 0.000000 0.000000 0.000000 0.000000 0.000000 0.000000 0.000000 0.000000 0.000000 0.000000 0.000000 0.000000 0.000000 0.000000 0.000000 0.000000 0.000000 0.000000 0.000000 0.000000 0.000000 0.000000 0.000000 0.000000 0.000000 0.000000 0.000000 0.000000 0.000000 0.000000 0.000000 0.000000 0.000000 0.000000 0.000000 0.000000 0.000000 0.000000 0.000000 0.000000 0.000000 0.000000 0.000000 0.000000 10.308069 10.308069 10.308069 0.000000 0.000000 0.000000 0.000000 0.000000 0.000000 0.000000 0.000000 0.000000 0.000000 0.000000 0.000000 0.000000 0.000000 0.000000 0.000000 0.000000 0.000000 0.000000 0.000000 0.000000 0.000000 0.000000 0.000000 0.000000 0.000000 0.000000 0.000000 0.000000 0.000000 0.000000 0.000000 0.000000
0.000000 0.000000 0.000000 0.000000 23.009412 23.009412 23.009412 23.009412 23.009412 23.009412 23.009412 23.009412 23.009412 0.000000 0.000000 0.000000 0.000000 0.000000 0.000000 0.000000 0.000000 0.000000 0.000000 0.000000 0.000000 0.000000 0.000000 0.000000 0.000000 0.000000 0.000000 0.000000 0.000000 0.000000 0.000000 0.000000 0.000000 0.000000 0.000000 0.000000 0.000000 0.000000 0.000000 0.000000 0.000000 0.000000 0.000000 0.000000 0.000000 0.000000 0.000000 0.000000 0.000000 0.000000 0.000000 0.000000 0.000000 0.000000 0.000000 0.000000 0.000000 0.000000 0.000000 0.000000 0.000000 0.000000 0.000000 10.308069 10.308069 10.308069 0.000000 0.000000 0.000000 0.000000 0.000000 0.000000 0.000000 0.000000 0.000000 0.000000 0.000000 0.000000 0.000000 0.000000 0.000000 0.000000 0.000000 0.000000 0.000000 0.000000 0.000000 0.000000 0.000000 0.000000 0.000000 0.000000 0.000000 0.000000 0.000000 0.000000 0.000000 0.000000 0.000000
0.000000 0.000000 0.000000 0.000000 23.009412 23.009412 23.009412 23.009412 23.009412 23.009412 23.009412 23.009412 23.009412 0.000000 0.000000 0.000000 0.000000 0.000000 0.000000 0.000000 0.000000 0.000000 0.000000 0.000000 0.000000 0.000000 0.000000 0.000000 0.000000 0.000000 0.000000 0.000000 0.000000 0.000000 0.000000 0.000000 0.000000 0.000000 0.000000 0.000000 0.000000 0.000000 0.000000 0.000000 0.000000 0.000000 0.000000 0.000000 0.000000 0.000000 18.177829 18.177829 18.177829 18.177829 18.177829 18.177829 18.177829 18.177829 0.000000 0.000000 0.000000 0.000000 0.000000 0.000000 0.000000 0.000000 0.000000 10.308069 10.308069 10.308069 0.000000 0.000000 0.000000 0.000000 0.000000 0.000000 0.000000 0.000000 0.000000 0.000000 0.000000 0.000000 0.000000 0.000000 0.000000 0.000000 0.000000 0.000000 0.000000 0.000000 0.000000 0.000000 0.000000 0.000000 0.000000 0.000000 0.000000 0.000000 0.000000 0.000000 0.000000 0.000000 0.000000
0.000000 0.000000 0.000000 0.000000 23.009412 23.009412 23.009412 23.009412 23.009412 23.009412 23.009412 23.009412 23.009412 0.000000 0.000000 0.000000 0.000000 0.000000 0.000000 0.000000 0.000000 0.000000 0.000000 0.000000 0.000000 0.000000 0.000000 0.000000 0.000000 0.000000 0.000000 0.000000 0.000000 0.000000 0.000000 0.000000 0.000000 0.000000 0.000000 0.000000 0.000000 0.000000 0.000000 0.000000 0.000000 0.000000 0.000000 0.000000 0.000000 0.000000 18.177829 18.177829 18.177829 18.177829 18.177829 18.177829 18.177829 18.177829 0.000000 0.000000 0.000000 0.000000 0.000000 0.000000 0.000000 0.000000 0.000000 10.308069 10.308069 10.308069 0.000000 0.000000 0.000000 0.000000 0.000000 0.000000 0.000000 0.000000 0.000000 0.000000 0.000000 0.000000 0.000000 0.000000 0.000000 0.000000 0.000000 0.000000 0.000000 0.000000 0.000000 0.000000 0.000000 0.000000 0.000000 0.000000 0.000000 0.000000 0.000000 0.000000 0.000000 0.000000 0.000000
0.000000 0.000000 0.000000 0.000000 23.009412 23.009412 23.009412 23.009412 23.009412 23.009412 23.009412 23.009412 23.009412 0.000000 0.000000 0.000000 0.000000 0.000000 0.000000 0.000000 0.000000 0.000000 0.000000 0.000000 0.000000 0.000000 0.000000 0.000000 0.000000 0.000000 0.000000 0.000000 0.000000 0.000000 0.000000 0.000000 0.000000 0.000000 0.000000 0.000000 0.000000 0.000000 0.000000 0.000000 0.000000 0.000000 0.000000 0.000000 0.000000 0.000000 18.177829 18.177829 18.177829 18.177829 18.177829 18.177829 18.177829 18.177829 0.000000 0.000000 0.000000 0.000000 0.000000 0.000000 0.000000 0.000000 0.000000 10.308069 10.308069 10.308069 0.000000 0.000000 0.000000 0.000000 0.000000 0.000000 0.000000 0.000000 0.000000 14.161606 14.161606 14.161606 14.161606 14.161606 14.161606 14.161606 14.161606 0.000000 0.000000 0.000000 0.000000 11.459394 11.459394 11.459394 11.459394 11.459394 11.459394 0.000000 0.000000 0.000000 0.000000 0.000000 0.000000
0.000000 0.000000 0.000000 0.000000 23.009412 23.009412 23.009412 23.009412 23.009412 23.009412 23.009412 23.009412 23.009412 12.435604 12.435604 12.435604 12.435604 12.435604 12.435604 0.000000 0.000000 0.000000 0.000000 0.000000 0.000000 0.000000 0.000000 0.000000 0.000000 0.000000 0.000000 0.000000 0.000000 0.000000 0.000000 0.000000 0.000000 0.000000 0.000000 0.000000 0.000000 0.000000 0.000000 0.000000 0.000000 0.000000 0.000000 0.000000 0.000000 0.000000 18.177829 18.177829 18.177829 18.177829 18.177829 18.177829 18.177829 18.177829 0.000000 0.000000 0.000000 0.000000 0.000000 0.000000 0.000000 0.000000 0.000000 10.308069 10.308069 10.308069 0.000000 0.000000 0.000000 0.000000 0.000000 0.000000 0.000000 0.000000 0.000000 14.161606 14.161606 14.161606 14.161606 14.161606 14.161606 14.161606 14.161606 0.000000 0.000000 0.000000 0.000000 11.459394 11.459394 11.459394 11.459394 11.459394 11.459394 0.000000 0.000000 0.000000 0.000000 0.000000 0.000000
0.000000 0.000000 0.000000 0.000000 23.009412 23.009412 23.009412 23.009412 23.009412 23.009412 23.009412 23.009412 23.009412 12.435604 12.435604 12.435604 12.435604 12.435604 12.435604 0.000000 0.000000 0.000000 0.000000 0.000000 0.000000 0.000000 0.000000 0.000000 0.000000 0.000000 0.000000 0.000000 0.000000 0.000000 0.000000 0.000000 0.000000 0.000000 0.000000 0.000000 0.000000 0.000000 0.000000 0.000000 0.000000 0.000000 0.000000 0.000000 0.000000 0.000000 18.177829 18.177829 18.177829 18.177829 18.177829 18.177829 18.177829 18.177829 0.000000 0.000000 0.000000 0.000000 0.000000 0.000000 0.000000 0.000000 0.000000 10.308069 10.308069 10.308069 0.000000 0.000000 0.000000 0.000000 0.000000 0.000000 0.000000 0.000000 0.000000 14.161606 14.161606 14.161606 14.161606 14.161606 14.161606 14.161606 14.161606 0.000000 0.000000 0.000000 0.000000 11.459394 11.459394 11.459394 11.459394 11.459394 11.459394 0.000000 0.000000 0.000000 0.000000 0.000000 0.000000
0.000000 0.000000 0.000000 0.000000 23.009412 23.009412 23.009412 23.009412 23.009412 23.009412 23.009412 23.009412 23.009412 12.435604 12.435604 12.435604 12.435604 12.435604 12.435604 0.000000 0.000000 0.000000 0.000000 0.000000 0.000000 0.000000 0.000000 0.000000 0.000000 0.000000 0.000000 0.000000 0.000000 0.000000 0.000000 0.000000 0.000000 0.000000 0.000000 0.000000 0.000000 0.000000 0.000000 0.000000 0.000000 0.000000 0.000000 0.000000 0.000000 0.000000 18.177829 18.177829 18.177829 18.177829 18.177829 18.177829 18.177829 18.177829 0.000000 0.000000 0.000000 0.000000 0.000000 0.000000 0.000000 0.000000 0.000000 10.308069 10.308069 10.308069 0.000000 0.000000 0.000000 0.000000 0.000000 0.000000 0.000000 0.000000 0.000000 14.161606 14.161606 14.161606 14.161606 14.161606 14.161606 14.161606 14.161606 0.000000 0.000000 0.000000 0.000000 11.459394 11.459394 11.459394 11.459394 11.459394 11.459394 0.000000 0.000000 0.000000 0.000000 0.000000 0.000000
0.000000 0.000000 0.000000 0.000000 23.009412 23.009412 23.009412 23.009412 23.009412 23.009412 23.009412 23.009412 23.009412 12.435604 12.435604 12.435604 12.435604 12.435604 12.435604 0.000000 0.000000 0.000000 0.000000 0.000000 0.000000 0.000000 0.000000 0.000000 0.000000 0.000000 0.000000 0.000000 0.000000 0.000000 0.000000 0.000000 0.000000 0.000000 0.000000 0.000000 0.000000 0.000000 0.000000 0.000000 0.000000 0.000000 0.000000 0.000000 0.000000 0.000000 18.177829 18.177829 18.177829 18.177829 18.177829 18.177829 18.177829 18.177829 0.000000 0.000000 0.000000 0.000000 0.000000 0.000000 0.000000 0.000000 0.000000 10.308069 10.308069 10.308069 0.000000 0.000000 0.000000 0.000000 0.000000 0.000000 0.000000 0.000000 0.000000 14.161606 14.161606 14.161606 14.161606 14.161606 14.161606 14.161606 14.161606 0.000000 0.000000 0.000000 0.000000 11.459394 11.459394 11.459394 11.459394 11.459394 11.459394 0.000000 0.000000 0.000000 0.000000 0.000000 0.000000
0.000000 0.000000 0.000000 0.000000 23.009412 23.009412 23.009412 23.009412 23.009412 23.009412 23.009412 23.009412 23.009412 12.435604 12.435604 12.435604 12.435604 12.435604 12.435604 0.000000 0.000000 0.000000 0.000000 0.000000 0.000000 0.000000 0.000000 0.000000 0.000000 0.000000 0.000000 0.000000 0.000000 0.000000 0.000000 0.000000 0.000000 0.000000 0.000000 0.000000 0.000000 0.000000 0.000000 0.000000 0.000000 0.000000 0.000000 0.000000 0.000000 0.000000 18.177829 18.177829 18.177829 18.177829 18.177829 18.177829 18.177829 18.177829 0.000000 0.000000 0.000000 0.000000 0.000000 0.000000 0.000000 0.000000 0.000000 10.308069 10.308069 10.308069 0.000000 0.000000 0.000000 0.000000 0.000000 0.000000 0.000000 0.000000 0.000000 14.161606 14.161606 14.161606 14.161606 14.161606 14.161606 14.161606 14.161606 0.000000 0.000000 0.000000 0.000000 11.459394 11.459394 11.459394 11.459394 11.459394 11.459394 0.000000 0.000000 0.000000 0.000000 0.000000 0.000000
0.000000 0.000000 0.000000 0.000000 23.009412 23.009412 23.009412 23.009412 23.009412 23.009412 23.009412 23.009412 23.009412 12.435604 12.435604 12.435604 12.435604 12.435604 12.435604 0.000000 0.000000 0.000000 0.000000 0.000000 0.000000 0.000000 0.000000 0.000000 0.000000 0.000000 0.000000 0.000000 0.000000 0.000000 0.000000 0.000000 0.000000 0.000000 0.000000 0.000000 0.000000 0.000000 0.000000 0.000000 0.000000 0.000000 0.000000 0.000000 0.000000 0.000000 18.177829 18.177829 18.177829 18.177829 18.177829 18.177829 18.177829 18.177829 0.000000 0.000000 0.000000 0.000000 0.000000 0.000000 0.000000 0.000000 0.000000 10.308069 10.308069 10.308069 0.000000 0.000000 0.000000 0.000000 0.000000 0.000000 0.000000 0.000000 0.000000 14.161606 14.161606 14.161606 14.161606 14.161606 14.161606 14.161606 14.161606 0.000000 0.000000 0.000000 0.000000 11.459394 11.459394 11.459394 11.459394 11.459394 11.459394 0.000000 0.000000 0.000000 0.000000 0.000000 0.000000
0.000000 0.000000 0.000000 0.000000 23.009412 23.009412 23.009412 23.009412 23.009412 23.009412 23.009412 23.009412 23.009412 12.435604 12.435604 12.435604 12.435604 12.435604 12.435604 0.000000 0.000000 0.000000 0.000000 0.000000 0.000000 0.000000 0.000000 0.000000 0.000000 0.000000 0.000000 0.000000 0.000000 0.000000 0.000000 0.000000 0.000000 0.000000 0.000000 0.000000 0.000000 0.000000 0.000000 0.000000 0.000000 0.000000 0.000000 0.000000 0.000000 0.000000 0.000000 0.000000 0.000000 0.000000 0.000000 0.000000 0.000000 0.000000 0.000000 0.000000 0.000000 0.000000 0.000000 0.000000 0.000000 0.000000 0.000000 0.000000 0.000000 0.000000 0.000000 0.000000 0.000000 0.000000 0.000000 0.000000 0.000000 0.000000 0.000000 0.000000 0.000000 0.000000 0.000000 0.000000 0.000000 0.000000 0.000000 0.000000 0.000000 0.000000 0.000000 0.000000 0.000000 0.000000 0.000000 0.000000 0.000000 0.000000 0.000000 0.000000 0.000000 0.000000 0.000000
0.000000 0.000000 0.000000 0.000000 23.009412 23.009412 23.009412 23.009412 23.009412 23.009412 23.009412 23.009412 23.009412 12.435604 12.435604 12.435604 12.435604 12.435604 12.435604 0.000000 0.000000 0.000000 0.000000 0.000000 0.000000 0.000000 0.000000 0.000000 0.000000 0.000000 0.000000 0.000000 0.000000 0.000000 0.000000 0.000000 0.000000 0.000000 0.000000 0.000000 0.000000 0.000000 0.000000 0.000000 0.000000 0.000000 0.000000 0.000000 0.000000 0.000000 0.000000 0.000000 0.000000 0.000000 0.000000 0.000000 0.000000 0.000000 0.000000 0.000000 0.000000 0.000000 0.000000 0.000000 0.000000 0.000000 0.000000 0.000000 0.000000 0.000000 0.000000 0.000000 0.000000 0.000000 0.000000 0.000000 0.000000 0.000000 0.000000 0.000000 0.000000 0.000000 0.000000 0.000000 0.000000 0.000000 0.000000 0.000000 0.000000 0.000000 0.000000 0.000000 0.000000 0.000000 0.000000 0.000000 0.000000 0.000000 0.000000 0.000000 0.000000 0.000000 0.000000
0.000000 0.000000 0.000000 0.000000 0.000000 0.000000 0.000000 0.000000 0.000000 0.000000 0.000000 0.000000 0.000000 0.000000 0.000000 0.000000 0.000000 0.000000 0.000000 0.000000 0.000000 0.000000 0.000000 0.000000 0.000000 0.000000 0.000000 0.000000 0.000000 0.000000 0.000000 0.000000 0.000000 0.000000 0.000000 0.000000 0.000000 0.000000 0.000000 0.000000 0.000000 0.000000 0.000000 0.000000 0.000000 0.000000 0.000000 0.000000 0.000000 0.000000 0.000000 0.000000 0.000000 0.000000 0.000000 0.000000 0.000000 0.000000 0.000000 0.000000 0.000000 0.000000 0.000000 0.000000 0.000000 0.000000 0.000000 0.000000 0.000000 0.000000 0.000000 0.000000 0.000000 0.000000 0.000000 0.000000 0.000000 0.000000 0.000000 0.000000 0.000000 0.000000 0.000000 0.000000 0.000000 0.000000 0.000000 0.000000 0.000000 0.000000 0.000000 0.000000 0.000000 0.000000 0.000000 0.000000 0.000000 0.000000 0.000000 0.000000 0.000000 0.000000 0.000000
0.000000 0.000000 0.000000 0.000000 0.000000 0.000000 0.000000 0.000000 0.000000 0.000000 0.000000 0.000000 0.000000 0.000000 0.000000 0.000000 0.000000 0.000000 0.000000 0.000000 0.000000 0.000000 0.000000 0.000000 0.000000 0.000000 0.000000 0.000000 0.000000 0.000000 0.000000 0.000000 0.000000 0.000000 0.000000 0.000000 0.000000 0.000000 0.000000 0.000000 0.000000 0.000000 0.000000 0.000000 0.000000 0.000000 0.000000 0.000000 0.000000 0.000000 0.000000 0.000000 0.000000 0.000000 0.000000 0.000000 0.000000 0.000000 0.000000 0.000000 0.000000 0.000000 0.000000 0.000000 0.000000 0.000000 0.000000 0.000000 0.000000 0.000000 0.000000 0.000000 0.000000 0.000000 0.000000 0.000000 0.000000 0.000000 0.000000 0.000000 0.000000 0.000000 0.000000 0.000000 0.000000 0.000000 0.000000 0.000000 0.000000 0.000000 0.000000 0.000000 0.000000 0.000000 0.000000 0.000000 0.000000 0.000000 0.000000 0.000000 0.000000 0.000000 0.000000
0.000000 0.000000 0.000000 0.000000 0.000000 0.000000 0.000000 0.000000 0.000000 0.000000 0.000000 0.000000 0.000000 0.000000 0.000000 0.000000 0.000000 0.000000 0.000000 0.000000 0.000000 0.000000 0.000000 0.000000 0.000000 0.000000 0.000000 0.000000 0.000000 0.000000 0.000000 0.000000 0.000000 0.000000 0.000000 0.000000 0.000000 0.000000 0.000000 0.000000 0.000000 0.000000 0.000000 0.000000 0.000000 0.000000 0.000000 0.000000 0.000000 0.000000 0.000000 0.000000 0.000000 0.000000 0.000000 0.000000 0.000000 0.000000 0.000000 0.000000 0.000000 0.000000 0.000000 0.000000 0.000000 0.000000 0.000000 0.000000 0.000000 0.000000 0.000000 0.000000 0.000000 0.000000 0.000000 0.000000 0.000000 0.000000 0.000000 0.000000 0.000000 0.000000 0.000000 0.000000 0.000000 0.000000 0.000000 0.000000 0.000000 0.000000 0.000000 0.000000 0.000000 0.000000 0.000000 0.000000 0.000000 0.000000 0.000000 0.000000 0.000000 0.000000 0.000000
0.000000 0.000000 0.000000 0.000000 0.000000 0.000000 0.000000 0.000000 0.000000 0.000000 0.000000 0.000000 0.000000 0.000000 0.000000 0.000000 0.000000 0.000000 0.000000 0.000000 0.000000 0.000000 0.000000 0.000000 0.000000 0.000000 0.000000 0.000000 0.000000 0.000000 0.000000 0.000000 0.000000 0.000000 0.000000 0.000000 0.000000 0.000000 0.000000 0.000000 0.000000 0.000000 0.000000 0.000000 0.000000 0.000000 0.000000 0.000000 0.000000 0.000000 0.000000 0.000000 0.000000 0.000000 0.000000 0.000000 0.000000 0.000000 0.000000 0.000000 0.000000 0.000000 0.000000 0.000000 0.000000 0.000000 0.000000 0.000000 0.000000 0.000000 0.000000 0.000000 0.000000 0.000000 0.000000 0.000000 0.000000 0.000000 0.000000 0.000000 0.000000 0.000000 0.000000 0.000000 0.000000 0.000000 0.000000 0.000000 0.000000 0.000000 0.000000 0.000000 0.000000 0.000000 0.000000 0.000000 0.000000 0.000000 0.000000 0.000000 0.000000 0.000000 0.000000
0.000000 0.000000 0.000000 0.000000 0.000000 0.000000 0.000000 0.000000 0.000000 0.000000 0.000000 0.000000 0.000000 0.000000 0.000000 0.000000 0.000000 0.000000 0.000000 0.000000 0.000000 0.000000 0.000000 0.000000 0.000000 0.000000 0.000000 0.000000 0.000000 0.000000 0.000000 0.000000 0.000000 0.000000 0.000000 0.000000 0.000000 0.000000 0.000000 0.000000 0.000000 0.000000 0.000000 0.000000 0.000000 0.000000 0.000000 0.000000 0.000000 0.000000 0.000000 0.000000 0.000000 0.000000 0.000000 0.000000 0.000000 0.000000 0.000000 0.000000 0.000000 0.000000 0.000000 0.000000 0.000000 0.000000 0.000000 0.000000 0.000000 0.000000 0.000000 0.000000 0.000000 0.000000 0.000000 0.000000 0.000000 0.000000 0.000000 0.000000 0.000000 0.000000 0.000000 0.000000 0.000000 0.000000 0.000000 0.000000 0.000000 0.000000 0.000000 0.000000 0.000000 0.000000 0.000000 0.000000 0.000000 0.000000 0.000000 0.000000 0.000000 0.000000 0.000000
0.000000 0.000000 0.000000 0.000000 0.000000 0.000000 0.000000 0.000000 0.000000 0.000000 0.000000 0.000000 0.000000 0.000000 0.000000 0.000000 0.000000 0.000000 0.000000 0.000000 0.000000 0.000000 0.000000 0.000000 0.000000 0.000000 0.000000 0.000000 0.000000 0.000000 0.000000 0.000000 0.000000 0.000000 0.000000 0.000000 0.000000 0.000000 0.000000 0.000000 0.000000 0.000000 0.000000 0.000000 0.000000 0.000000 0.000000 0.000000 0.000000 0.000000 0.000000 0.000000 0.000000 0.000000 0.000000 0.000000 0.000000 0.000000 0.000000 0.000000 0.000000 0.000000 0.000000 0.000000 0.000000 0.000000 0.000000 0.000000 0.000000 0.000000 0.000000 0.000000 0.000000 0.000000 0.000000 0.000000 0.000000 12.180690 12.180690 12.180690 12.180690 12.180690 12.180690 12.180690 0.000000 0.000000 0.000000 0.000000 0.000000 0.000000 16.954887 16.954887 16.954887 16.954887 16.954887 16.954887 16.954887 16.954887 16.954887 0.000000 0.000000 0.000000 0.000000
0.000000 0.000000 0.000000 0.000000 0.000000 0.000000 0.000000 0.000000 0.000000 0.000000 0.000000 0.000000 0.000000 0.000000 0.000000 0.000000 0.000000 0.000000 0.000000 0.000000 0.000000 0.000000 0.000000 0.000000 0.000000 0.000000 0.000000 0.000000 0.000000 0.000000 0.000000 0.000000 0.000000 0.000000 0.000000 0.000000 0.000000 0.000000 0.000000 0.000000 0.000000 0.000000 0.000000 0.000000 0.000000 0.000000 0.000000 0.000000 0.000000 0.000000 0.000000 0.000000 0.000000 0.000000 0.000000 0.000000 0.000000 0.000000 0.000000 0.000000 0.000000 0.000000 0.000000 0.000000 0.000000 0.000000 0.000000 0.000000 0.000000 0.000000 0.000000 0.000000 0.000000 0.000000 0.000000 0.000000 0.000000 12.180690 12.180690 12.180690 12.180690 12.180690 12.180690 12.180690 0.000000 0.000000 0.000000 0.000000 0.000000 0.000000 16.954887 16.954887 16.954887 16.954887 16.954887 16.954887 16.954887 16.954887 16.954887 0.000000 0.000000 0.000000 0.000000
0.000000 0.000000 0.000000 0.000000 0.000000 0.000000 11.339249 11.339249 11.339249 11.339249 11.339249 11.339249 11.339249 11.339249 11.339249 11.339249 11.339249 0.000000 0.000000 0.000000 0.000000 0.000000 0.000000 0.000000 0.000000 0.000000 0.000000 0.000000 0.000000 0.000000 0.000000 0.000000 0.000000 0.000000 0.000000 0.000000 0.000000 0.000000 0.000000 0.000000 0.000000 0.000000 0.000000 0.000000 0.000000 0.000000 0.000000 0.000000 10.253202 10.253202 10.253202 10.253202 10.253202 10.253202 10.253202 10.253202 10.253202 10.253202 0.000000 0.000000 0.000000 0.000000 0.000000 0.000000 0.000000 0.000000 0.000000 0.000000 0.000000 0.000000 0.000000 0.000000 0.000000 0.000000 0.000000 0.000000 0.000000 12.180690 12.180690 12.180690 12.180690 12.180690 12.180690 12.180690 0.000000 0.000000 0.000000 0.000000 0.000000 0.000000 16.954887 16.954887 16.954887 16.954887 16.954887 16.954887 16.954887 16.954887 16.954887 0.000000 0.000000 0.000000 0.000000
0.000000 0.000000 0.000000 0.000000 0.000000 0.000000 11.339249 11.339249 11.339249 11.339249 11.339249 11.339249 11.339249 11.339249 11.339249 11.339249 11.339249 0.000000 0.000000 0.000000 0.000000 0.000000 0.000000 0.000000 0.000000 0.000000 0.000000 0.000000 0.000000 0.000000 0.000000 0.000000 0.000000 0.000000 0.000000 0.000000 0.000000 0.000000 0.000000 0.000000 0.000000 0.000000 0.000000 0.000000 0.000000 0.000000 0.000000 0.000000 10.253202 10.253202 10.253202 10.253202 10.253202 10.253202 10.253202 10.253202 10.253202 10.253202 0.000000 0.000000 0.000000 0.000000 0.000000 0.000000 0.000000 0.000000 0.000000 0.000000 0.000000 0.000000 0.000000 0.000000 0.000000 0.000000 0.000000 0.000000 0.000000 12.180690 12.180690 12.180690 12.180690 12.180690 12.180690 12.180690 0.000000 0.000000 0.000000 0.000000 0.000000 0.000000 16.954887 16.954887 16.954887 16.954887 16.954887 16.954887 16.954887 16.954887 16.954887 0.000000 0.000000 0.000000 0.000000
0.000000 0.000000 0.000000 0.000000 0.000000 0.000000 11.339249 11.339249 11.339249 11.339249 11.339249 11.339249 11.339249 11.339249 11.339249 11.339249 11.339249 0.000000 0.000000 0.000000 0.000000 0.000000 0.000000 0.000000 0.000000 0.000000 0.000000 0.000000 0.000000 0.000000 0.000000 0.000000 0.000000 0.000000 0.000000 0.000000 0.000000 0.000000 0.000000 0.000000 0.000000 0.000000 0.000000 0.000000 0.000000 0.000000 0.000000 0.000000 10.253202 10.253202 10.253202 10.253202 10.253202 10.253202 10.253202 10.253202 10.253202 10.253202 0.000000 0.000000 0.000000 0.000000 0.000000 0.000000 0.000000 0.000000 0.000000 0.000000 0.000000 0.000000 0.000000 0.000000 0.000000 0.000000 0.000000 0.000000 0.000000 12.180690 12.180690 12.180690 12.180690 12.180690 12.180690 12.180690 0.000000 0.000000 0.000000 0.000000 0.000000 0.000000 16.954887 16.954887 16.954887 16.954887 16.954887 16.954887 16.954887 16.954887 16.954887 0.000000 0.000000 0.000000 0.000000
0.000000 0.000000 0.000000 0.000000 0.000000 0.000000 11.339249 11.339249 11.339249 11.339249 11.339249 11.339249 11.339249 11.339249 11.339249 11.339249 11.339249 0.000000 0.000000 0.000000 0.000000 0.000000 0.000000 0.000000 0.000000 0.000000 0.000000 0.000000 0.000000 0.000000 0.000000 0.000000 0.000000 0.000000 0.000000 0.000000 0.000000 0.000000 0.000000 0.000000 0.000000 0.000000 0.000000 0.000000 0.000000 0.000000 0.000000 0.000000 10.253202 10.253202 10.253202 10.253202 10.253202 10.253202 10.253202 10.253202 10.253202 10.253202 0.000000 0.000000 0.000000 0.000000 0.000000 0.000000 0.000000 0.000000 0.000000 0.000000 0.000000 0.000000 0.000000 0.000000 0.000000 0.000000 0.000000 0.000000 0.000000 12.180690 12.180690 12.180690 12.180690 12.180690 12.180690 12.180690 0.000000 0.000000 0.000000 0.000000 0.000000 0.000000 16.954887 16.954887 16.954887 16.954887 16.954887 16.954887 16.954887 16.954887 16.954887 0.000000 0.000000 0.000000 0.000000
0.000000 0.000000 0.000000 0.000000 0.000000 0.000000 0.000000 0.000000 0.000000 0.000000 0.000000 0.000000 0.000000 0.000000 0.000000 0.000000 0.000000 0.000000 0.000000 0.000000 0.000000 0.000000 0.000000 0.000000 0.000000 0.000000 0.000000 0.000000 0.000000 0.000000 0.000000 0.000000 0.000000 0.000000 0.000000 0.000000 0.000000 0.000000 0.000000 0.000000 0.000000 0.000000 0.000000 0.000000 0.000000 0.000000 0.000000 0.000000 0.000000 0.000000 0.000000 0.000000 0.000000 0.000000 0.000000 0.000000 0.000000 0.000000 0.000000 0.000000 0.000000 0.000000 0.000000 0.000000 0.000000 0.000000 0.000000 0.000000 0.000000 0.000000 0.000000 0.000000 0.000000 0.000000 0.000000 0.000000 0.000000 12.180690 12.180690 12.180690 12.180690 12.180690 12.180690 12.180690 0.000000 0.000000 0.000000 0.000000 0.000000 0.000000 16.954887 16.954887 16.954887 16.954887 16.954887 16.954887 16.954887 16.954887 16.954887 0.000000 0.000000 0.000000 0.000000
0.000000 0.000000 0.000000 0.000000 0.000000 0.000000 0.000000 0.000000 0.000000 0.000000 0.000000 0.000000 0.000000 0.000000 0.000000 0.000000 0.000000 0.000000 0.000000 0.000000 0.000000 0.000000 0.000000 0.000000 0.000000 0.000000 0.000000 0.000000 0.000000 0.000000 0.000000 0.000000 0.000000 0.000000 0.000000 0.000000 0.000000 0.000000 0.000000 0.000000 0.000000 0.000000 0.000000 0.000000 0.000000 0.000000 0.000000 0.000000 0.000000 0.000000 0.000000 0.000000 0.000000 0.000000 0.000000 0.000000 0.000000 0.000000 0.000000 0.000000 0.000000 0.000000 0.000000 0.000000 0.000000 0.000000 0.000000 0.000000 0.000000 0.000000 0.000000 0.000000 0.000000 0.000000 0.000000 0.000000 0.000000 12.180690 12.180690 12.180690 12.180690 12.180690 12.180690 12.180690 0.000000 0.000000 0.000000 0.000000 0.000000 0.000000 16.954887 16.954887 16.954887 16.954887 16.954887 16.954887 16.954887 16.954887 16.954887 0.000000 0.000000 0.000000 0.000000
0.000000 0.000000 0.000000 0.000000 0.000000 0.000000 0.000000 0.000000 0.000000 0.000000 0.000000 0.000000 0.000000 0.000000 0.000000 0.000000 0.000000 0.000000 0.000000 0.000000 0.000000 0.000000 0.000000 0.000000 0.000000 0.000000 0.000000 0.000000 0.000000 0.000000 0.000000 0.000000 0.000000 0.000000 0.000000 0.000000 0.000000 0.000000 0.000000 0.000000 0.000000 0.000000 0.000000 0.000000 0.000000 0.000000 0.000000 0.000000 0.000000 0.000000 0.000000 0.000000 0.000000 0.000000 0.000000 0.000000 0.000000 0.000000 0.000000 0.000000 0.000000 0.000000 0.000000 0.000000 0.000000 0.000000 0.000000 0.000000 0.000000 0.000000 0.000000 0.000000 0.000000 0.000000 0.000000 0.000000 0.000000 0.000000 0.000000 0.000000 0.000000 0.000000 0.000000 0.000000 0.000000 0.000000 0.000000 0.000000 0.000000 0.000000 0.000000 0.000000 0.000000 0.000000 0.000000 0.000000 0.000000 0.000000 0.000000 0.000000 0.000000 0.000000 0.000000
0.000000 0.000000 0.000000 0.000000 0.000000 0.000000 0.000000 0.000000 0.000000 0.000000 0.000000 0.000000 0.000000 0.000000 0.000000 0.000000 0.000000 0.000000 0.000000 0.000000 0.000000 0.000000 0.000000 0.000000 0.000000 0.000000 0.000000 0.000000 0.000000 0.000000 0.000000 0.000000 0.000000 0.000000 0.000000 0.000000 0.000000 0.000000 0.000000 0.000000 0.000000 0.000000 0.000000 0.000000 0.000000 0.000000 0.000000 0.000000 0.000000 0.000000 0.000000 0.000000 0.000000 0.000000 0.000000 0.000000 0.000000 0.000000 0.000000 0.000000 0.000000 0.000000 0.000000 0.000000 0.000000 0.000000 0.000000 0.000000 0.000000 0.000000 0.000000 0.000000 0.000000 0.000000 0.000000 0.000000 0.000000 0.000000 0.000000 0.000000 0.000000 0.000000 0.000000 0.000000 0.000000 0.000000 0.000000 0.000000 0.000000 0.000000 0.000000 0.000000 0.000000 0.000000 0.000000 0.000000 0.000000 0.000000 0.000000 0.000000 0.000000 0.000000 0.000000
0.000000 0.000000 0.000000 0.000000 0.000000 0.000000 0.000000 0.000000 0.000000 0.000000 0.000000 0.000000 0.000000 0.000000 0.000000 0.000000 0.000000 0.000000 0.000000 0.000000 0.000000 0.000000 0.000000 0.000000 0.000000 0.000000 0.000000 0.000000 0.000000 0.000000 0.000000 0.000000 0.000000 0.000000 0.000000 0.000000 0.000000 0.000000 0.000000 0.000000 0.000000 0.000000 0.000000 0.000000 0.000000 0.000000 0.000000 0.000000 0.000000 0.000000 0.000000 0.000000 0.000000 0.000000 0.000000 0.000000 0.000000 0.000000 0.000000 0.000000 0.000000 0.000000 0.000000 0.000000 0.000000 0.000000 0.000000 0.000000 0.000000 0.000000 0.000000 0.000000 0.000000 0.000000 0.000000 0.000000 0.000000 0.000000 0.000000 0.000000 0.000000 0.000000 0.000000 0.000000 0.000000 0.000000 0.000000 0.000000 0.000000 0.000000 0.000000 0.000000 0.000000 0.000000 0.000000 0.000000 0.000000 0.000000 0.000000 0.000000 0.000000 0.000000 0.000000
0.000000 0.000000 0.000000 0.000000 0.000000 0.000000 0.000000 0.000000 0.000000 0.000000 0.000000 0.000000 0.000000 0.000000 0.000000 0.000000 0.000000 0.000000 0.000000 0.000000 0.000000 0.000000 0.000000 0.000000 0.000000 0.000000 0.000000 0.000000 0.000000 0.000000 0.000000 0.000000 0.000000 0.000000 0.000000 0.000000 0.000000 0.000000 0.000000 0.000000 0.000000 0.000000 0.000000 0.000000 0.000000 0.000000 0.000000 0.000000 0.000000 0.000000 0.000000 0.000000 0.000000 0.000000 0.000000 0.000000 0.000000 0.000000 0.000000 0.000000 0.000000 0.000000 0.000000 0.000000 0.000000 0.000000 0.000000 0.000000 0.000000 0.000000 0.000000 0.000000 0.000000 0.000000 0.000000 0.000000 0.000000 0.000000 0.000000 0.000000 0.000000 0.000000 0.000000 0.000000 0.000000 0.000000 0.000000 0.000000 0.000000 0.000000 0.000000 0.000000 0.000000 0.000000 0.000000 0.000000 0.000000 0.000000 0.000000 0.000000 0.000000 0.000000 0.000000
