0.000000 0.000000 0.000000 0.000000 0.000000 0.000000 0.000000 0.000000 0.000000 0.000000 0.000000 0.000000 0.000000 0.000000 0.000000 0.000000 0.000000 0.000000 0.000000 0.000000 0.000000 0.000000 0.000000 0.000000 0.000000 0.000000 0.000000 0.000000 0.000000 0.000000 0.000000 0.000000 0.000000 0.000000 0.000000 0.000000 0.000000 0.000000 0.000000 0.000000 0.000000 0.000000 0.000000 0.000000 0.000000 0.000000 0.000000 0.000000 0.000000 0.000000 0.000000 0.000000 0.000000 0.000000 0.000000 0.000000 0.000000 0.000000 0.000000 0.000000 0.000000 0.000000 0.000000 0.000000 0.000000 0.000000 0.000000 0.000000 0.000000 0.000000 0.000000 0.000000 0.000000 0.000000 0.000000 0.000000 0.000000 0.000000 0.000000 0.000000 0.000000 0.000000 0.000000 0.000000 0.000000 0.000000 0.000000 0.000000 0.000000 0.000000 0.000000 0.000000 0.000000 0.000000 0.000000 0.000000 0.000000 0.000000 0.000000 0.000000 0.000000 0.000000 0.000000
0.000000 0.000000 0.000000 0.000000 0.000000 0.000000 0.000000 0.000000 0.000000 0.000000 0.000000 0.000000 0.000000 0.000000 0.000000 0.000000 0.000000 0.000000 0.000000 0.000000 0.000000 0.000000 0.000000 0.000000 0.000000 0.000000 0.000000 0.000000 0.000000 0.000000 0.000000 0.000000 0.000000 0.000000 0.000000 0.000000 0.000000 0.000000 0.000000 0.000000 0.000000 0.000000 0.000000 0.000000 0.000000 0.000000 0.000000 0.000000 0.000000 0.000000 0.000000 0.000000 0.000000 0.000000 0.000000 0.000000 0.000000 0.000000 0.000000 0.000000 0.000000 0.000000 0.000000 0.000000 0.000000 0.000000 0.000000 0.000000 0.000000 0.000000 0.000000 0.000000 0.000000 0.000000 0.000000 0.000000 0.000000 0.000000 0.000000 0.000000 0.000000 0.000000 0.000000 0.000000 0.000000 0.000000 0.000000 0.000000 0.000000 0.000000 0.000000 0.000000 0.000000 0.000000 0.000000 0.000000 0.000000 0.000000 0.000000 0.000000 0.000000 0.000000 0.000000
0.000000 0.000000 0.000000 0.000000 0.000000 0.000000 0.000000 0.000000 0.000000 0.000000 0.000000 0.000000 0.000000 0.000000 0.000000 0.000000 0.000000 0.000000 0.000000 0.000000 0.000000 0.000000 0.000000 0.000000 0.000000 0.000000 0.000000 0.000000 0.000000 0.000000 0.000000 0.000000 0.000000 0.000000 0.000000 0.000000 0.000000 0.000000 0.000000 0.000000 0.000000 0.000000 0.000000 0.000000 0.000000 0.000000 0.000000 0.000000 0.000000 0.000000 0.000000 0.000000 0.000000 0.000000 0.000000 0.000000 0.000000 0.000000 0.000000 0.000000 0.000000 0.000000 0.000000 0.000000 0.000000 0.000000 0.000000 0.000000 0.000000 0.000000 0.000000 0.000000 0.000000 0.000000 0.000000 0.000000 0.000000 0.000000 0.000000 0.000000 0.000000 0.000000 0.000000 0.000000 0.000000 0.000000 0.000000 0.000000 0.000000 0.000000 0.000000 0.000000 0.000000 0.000000 0.000000 0.000000 0.000000 0.000000 0.000000 0.000000 0.000000 0.000000 0.000000
0.000000 0.000000 0.000000 0.000000 0.000000 0.000000 0.000000 0.000000 0.000000 0.000000 0.000000 0.000000 0.000000 0.000000 0.000000 0.000000 0.000000 0.000000 0.000000 0.000000 0.000000 0.000000 0.000000 0.000000 0.000000 0.000000 0.000000 0.000000 0.000000 0.000000 0.000000 0.000000 0.000000 0.000000 0.000000 0.000000 0.000000 0.000000 0.000000 0.000000 0.000000 0.000000 0.000000 0.000000 0.000000 0.000000 0.000000 0.000000 0.000000 0.000000 0.000000 0.000000 0.000000 0.000000 0.000000 0.000000 0.000000 0.000000 0.000000 0.000000 0.000000 0.000000 0.000000 0.000000 0.000000 0.000000 0.000000 0.000000 0.000000 0.000000 0.000000 0.000000 0.000000 0.000000 0.000000 0.000000 0.000000 0.000000 0.000000 0.000000 0.000000 0.000000 0.000000 0.000000 0.000000 0.000000 0.000000 0.000000 0.000000 0.000000 0.000000 0.000000 0.000000 0.000000 0.000000 0.000000 0.000000 0.000000 0.000000 0.000000 0.000000 0.000000 0.000000
0.000000 0.000000 0.000000 0.000000 41.654334 41.654334 41.654334 41.654334 41.654334 41.654334 41.654334 0.000000 0.000000 0.000000 0.000000 0.000000 0.000000 0.000000 0.000000 0.000000 0.000000 0.000000 0.000000 0.000000 0.000000 0.000000 0.000000 0.000000 0.000000 0.000000 0.000000 0.000000 0.000000 0.000000 0.000000 0.000000 0.000000 0.000000 0.000000 0.000000 0.000000 0.000000 0.000000 0.000000 0.000000 0.000000 0.000000 0.000000 0.000000 0.000000 0.000000 0.000000 0.000000 0.000000 0.000000 0.000000 0.000000 0.000000 0.000000 0.000000 0.000000 0.000000 0.000000 0.000000 0.000000 0.000000 0.000000 0.000000 0.000000 0.000000 0.000000 0.000000 0.000000 0.000000 27.368094 27.368094 27.368094 27.368094 27.368094 27.368094 27.368094 27.368094 27.368094 27.368094 0.000000 0.000000 0.000000 0.000000 0.000000 0.000000 0.000000 0.000000 0.000000 0.000000 0.000000 0.000000 0.000000 0.000000 0.000000 0.000000 0.000000 0.000000 0.000000
0.000000 0.000000 0.000000 0.000000 41.654334 41.654334 41.654334 41.654334 41.654334 41.654334 41.654334 0.000000 0.000000 0.000000 0.000000 0.000000 0.000000 0.000000 0.000000 0.000000 0.000000 0.000000 0.000000 0.000000 0.000000 0.000000 0.000000 0.000000 0.000000 0.000000 0.000000 0.000000 0.000000 0.000000 0.000000 0.000000 0.000000 0.000000 0.000000 0.000000 0.000000 0.000000 0.000000 0.000000 0.000000 0.000000 0.000000 0.000000 0.000000 0.000000 0.000000 0.000000 0.000000 0.000000 0.000000 0.000000 0.000000 0.000000 0.000000 0.000000 0.000000 0.000000 0.000000 0.000000 0.000000 0.000000 0.000000 0.000000 0.000000 0.000000 0.000000 0.000000 0.000000 0.000000 27.368094 27.368094 27.368094 27.368094 27.368094 27.368094 27.368094 27.368094 27.368094 27.368094 0.000000 0.000000 0.000000 0.000000 0.000000 0.000000 0.000000 0.000000 0.000000 0.000000 0.000000 0.000000 0.000000 0.000000 0.000000 0.000000 0.000000 0.000000 0.000000
0.000000 0.000000 0.000000 0.000000 41.654334 41.654334 41.654334 41.654334 41.654334 41.654334 41.654334 0.000000 0.000000 0.000000 0.000000 0.000000 0.000000 0.000000 0.000000 0.000000 0.000000 0.000000 0.000000 0.000000 0.000000 0.000000 0.000000 0.000000 0.000000 0.000000 0.000000 0.000000 0.000000 0.000000 0.000000 0.000000 0.000000 0.000000 0.000000 0.000000 0.000000 0.000000 0.000000 0.000000 0.000000 0.000000 0.000000 0.000000 0.000000 0.000000 0.000000 0.000000 0.000000 0.000000 0.000000 0.000000 0.000000 21.075460 21.075460 21.075460 21.075460 21.075460 21.075460 21.075460 21.075460 21.075460 21.075460 0.000000 0.000000 0.000000 0.000000 0.000000 0.000000 0.000000 27.368094 27.368094 27.368094 27.368094 27.368094 27.368094 27.368094 27.368094 27.368094 27.368094 0.000000 0.000000 0.000000 0.000000 0.000000 0.000000 0.000000 14.833431 14.833431 14.833431 14.833431 14.833431 14.833431 0.000000 0.000000 0.000000 0.000000 0.000000 0.000000
0.000000 0.000000 0.000000 0.000000 41.654334 41.654334 41.654334 41.654334 41.654334 41.654334 41.654334 0.000000 0.000000 0.000000 0.000000 0.000000 0.000000 0.000000 0.000000 0.000000 0.000000 0.000000 0.000000 0.000000 0.000000 0.000000 0.000000 0.000000 0.000000 0.000000 0.000000 0.000000 0.000000 0.000000 0.000000 0.000000 0.000000 0.000000 0.000000 0.000000 0.000000 0.000000 0.000000 0.000000 0.000000 0.000000 0.000000 0.000000 0.000000 0.000000 0.000000 0.000000 0.000000 0.000000 0.000000 0.000000 0.000000 21.075460 21.075460 21.075460 21.075460 21.075460 21.075460 21.075460 21.075460 21.075460 21.075460 0.000000 0.000000 0.000000 0.000000 0.000000 0.000000 0.000000 27.368094 27.368094 27.368094 27.368094 27.368094 27.368094 27.368094 27.368094 27.368094 27.368094 0.000000 0.000000 0.000000 0.000000 0.000000 0.000000 0.000000 14.833431 14.833431 14.833431 14.833431 14.833431 14.833431 0.000000 0.000000 0.000000 0.000000 0.000000 0.000000
0.000000 0.000000 0.000000 0.000000 41.654334 41.654334 41.654334 41.654334 41.654334 41.654334 41.654334 0.000000 0.000000 0.000000 0.000000 0.000000 0.000000 0.000000 0.000000 0.000000 0.000000 0.000000 0.000000 0.000000 0.000000 0.000000 8.340751 8.340751 8.340751 8.340751 8.340751 8.340751 0.000000 0.000000 0.000000 0.000000 0.000000 0.000000 0.000000 20.449250 20.449250 20.449250 20.449250 20.449250 20.449250 20.449250 20.449250 20.449250 20.449250 20.449250 20.449250 0.000000 0.000000 0.000000 0.000000 0.000000 0.000000 21.075460 21.075460 21.075460 21.075460 21.075460 21.075460 21.075460 21.075460 21.075460 21.075460 0.000000 0.000000 0.000000 0.000000 0.000000 0.000000 0.000000 27.368094 27.368094 27.368094 27.368094 27.368094 27.368094 27.368094 27.368094 27.368094 27.368094 0.000000 0.000000 0.000000 0.000000 0.000000 0.000000 0.000000 14.833431 14.833431 14.833431 14.833431 14.833431 14.833431 0.000000 0.000000 0.000000 0.000000 0.000000 0.000000
0.000000 0.000000 0.000000 0.000000 41.654334 41.654334 41.654334 41.654334 41.654334 41.654334 41.654334 0.000000 0.000000 0.000000 0.000000 0.000000 0.000000 0.000000 0.000000 0.000000 0.000000 0.000000 0.000000 0.000000 0.000000 0.000000 8.340751 8.340751 8.340751 8.340751 8.340751 8.340751 0.000000 0.000000 0.000000 0.000000 0.000000 0.000000 0.000000 20.449250 20.449250 20.449250 20.449250 20.449250 20.449250 20.449250 20.449250 20.449250 20.449250 20.449250 20.449250 0.000000 0.000000 0.000000 0.000000 0.000000 0.000000 21.075460 21.075460 21.075460 21.075460 21.075460 21.075460 21.075460 21.075460 21.075460 21.075460 0.000000 0.000000 0.000000 0.000000 0.000000 0.000000 0.000000 27.368094 27.368094 27.368094 27.368094 27.368094 27.368094 27.368094 27.368094 27.368094 27.368094 0.000000 0.000000 0.000000 0.000000 0.000000 0.000000 0.000000 14.833431 14.833431 14.833431 14.833431 14.833431 14.833431 0.000000 0.000000 0.000000 0.000000 0.000000 0.000000
0.000000 0.000000 0.000000 0.000000 41.654334 41.654334 41.654334 41.654334 41.654334 41.654334 41.654334 0.000000 0.000000 0.000000 0.000000 0.000000 0.000000 0.000000 0.000000 0.000000 0.000000 0.000000 0.000000 0.000000 0.000000 0.000000 8.340751 8.340751 8.340751 8.340751 8.340751 8.340751 0.000000 0.000000 0.000000 0.000000 0.000000 0.000000 0.000000 20.449250 20.449250 20.449250 20.449250 20.449250 20.449250 20.449250 20.449250 20.449250 20.449250 20.449250 20.449250 0.000000 0.000000 0.000000 0.000000 0.000000 0.000000 21.075460 21.075460 21.075460 21.075460 21.075460 21.075460 21.075460 21.075460 21.075460 21.075460 0.000000 0.000000 0.000000 0.000000 0.000000 0.000000 0.000000 27.368094 27.368094 27.368094 27.368094 27.368094 27.368094 27.368094 27.368094 27.368094 27.368094 0.000000 0.000000 0.000000 0.000000 0.000000 0.000000 0.000000 14.833431 14.833431 14.833431 14.833431 14.833431 14.833431 0.000000 0.000000 0.000000 0.000000 0.000000 0.000000
0.000000 0.000000 0.000000 0.000000 41.654334 41.654334 41.654334 41.654334 41.654334 41.654334 41.654334 0.000000 0.000000 0.000000 0.000000 0.000000 0.000000 0.000000 0.000000 0.000000 0.000000 0.000000 0.000000 0.000000 0.000000 0.000000 8.340751 8.340751 8.340751 8.340751 8.340751 8.340751 0.000000 0.000000 0.000000 0.000000 0.000000 0.000000 0.000000 20.449250 20.449250 20.449250 20.449250 20.449250 20.449250 20.449250 20.449250 20.449250 20.449250 20.449250 20.449250 0.000000 0.000000 0.000000 0.000000 0.000000 0.000000 21.075460 21.075460 21.075460 21.075460 21.075460 21.075460 21.075460 21.075460 21.075460 21.075460 0.000000 0.000000 0.000000 0.000000 0.000000 0.000000 0.000000 27.368094 27.368094 27.368094 27.368094 27.368094 27.368094 27.368094 27.368094 27.368094 27.368094 0.000000 0.000000 0.000000 0.000000 0.000000 0.000000 0.000000 14.833431 14.833431 14.833431 14.833431 14.833431 14.833431 0.000000 0.000000 0.000000 0.000000 0.000000 0.000000
0.000000 0.000000 0.000000 0.000000 41.654334 41.654334 41.654334 41.654334 41.654334 41.654334 41.654334 0.000000 0.000000 0.000000 0.000000 0.000000 0.000000 0.000000 0.000000 0.000000 0.000000 0.000000 0.000000 0.000000 0.000000 0.000000 8.340751 8.340751 8.340751 8.340751 8.340751 8.340751 0.000000 0.000000 0.000000 0.000000 0.000000 0.000000 0.000000 20.449250 20.449250 20.449250 20.449250 20.449250 20.449250 20.449250 20.449250 20.449250 20.449250 20.449250 20.449250 0.000000 0.000000 0.000000 0.000000 0.000000 0.000000 21.075460 21.075460 21.075460 21.075460 21.075460 21.075460 21.075460 21.075460 21.075460 21.075460 0.000000 0.000000 0.000000 0.000000 0.000000 0.000000 0.000000 27.368094 27.368094 27.368094 27.368094 27.368094 27.368094 27.368094 27.368094 27.368094 27.368094 0.000000 0.000000 0.000000 0.000000 0.000000 0.000000 0.000000 14.833431 14.833431 14.833431 14.833431 14.833431 14.833431 0.000000 0.000000 0.000000 0.000000 0.000000 0.000000
0.000000 0.000000 0.000000 0.000000 41.654334 41.654334 41.654334 41.654334 41.654334 41.654334 41.654334 0.000000 0.000000 0.000000 0.000000 0.000000 0.000000 0.000000 0.000000 0.000000 0.000000 0.000000 0.000000 0.000000 0.000000 0.000000 8.340751 8.340751 8.340751 8.340751 8.340751 8.340751 0.000000 0.000000 0.000000 0.000000 0.000000 0.000000 0.000000 20.449250 20.449250 20.449250 20.449250 20.449250 20.449250 20.449250 20.449250 20.449250 20.449250 20.449250 20.449250 0.000000 0.000000 0.000000 0.000000 0.000000 0.000000 21.075460 21.075460 21.075460 21.075460 21.075460 21.075460 21.075460 21.075460 21.075460 21.075460 0.000000 0.000000 0.000000 0.000000 0.000000 0.000000 0.000000 27.368094 27.368094 27.368094 27.368094 27.368094 27.368094 27.368094 27.368094 27.368094 27.368094 0.000000 0.000000 0.000000 0.000000 0.000000 0.000000 0.000000 14.833431 14.833431 14.833431 14.833431 14.833431 14.833431 0.000000 0.000000 0.000000 0.000000 0.000000 0.000000
0.000000 0.000000 0.000000 0.000000 41.654334 41.654334 41.654334 41.654334 41.654334 41.654334 41.654334 0.000000 0.000000 0.000000 0.000000 0.000000 0.000000 0.000000 0.000000 0.000000 0.000000 0.000000 0.000000 0.000000 0.000000 0.000000 0.000000 0.000000 0.000000 0.000000 0.000000 0.000000 0.000000 0.000000 0.000000 0.000000 0.000000 0.000000 0.000000 20.449250 20.449250 20.449250 20.449250 20.449250 20.449250 20.449250 20.449250 20.449250 20.449250 20.449250 20.449250 0.000000 0.000000 0.000000 0.000000 0.000000 0.000000 29.889854 29.889854 29.889854 29.889854 29.889854 29.889854 29.889854 29.889854 29.889854 29.889854 0.000000 0.000000 0.000000 0.000000 0.000000 0.000000 0.000000 27.368094 27.368094 27.368094 27.368094 27.368094 27.368094 27.368094 27.368094 27.368094 27.368094 0.000000 0.000000 0.000000 0.000000 0.000000 0.000000 0.000000 14.833431 14.833431 14.833431 14.833431 14.833431 14.833431 0.000000 0.000000 0.000000 0.000000 0.000000 0.000000
0.000000 0.000000 0.000000 0.000000 41.654334 41.654334 41.654334 41.654334 41.654334 41.654334 41.654334 0.000000 0.000000 0.000000 0.000000 0.000000 0.000000 0.000000 0.000000 0.000000 0.000000 0.000000 0.000000 0.000000 0.000000 0.000000 0.000000 0.000000 0.000000 0.000000 0.000000 0.000000 0.000000 0.000000 0.000000 0.000000 0.000000 0.000000 0.000000 0.000000 0.000000 0.000000 0.000000 0.000000 0.000000 0.000000 0.000000 0.000000 0.000000 0.000000 0.000000 0.000000 0.000000 0.000000 0.000000 0.000000 0.000000 29.889854 29.889854 29.889854 29.889854 29.889854 29.889854 29.889854 29.889854 29.889854 29.889854 0.000000 0.000000 0.000000 0.000000 0.000000 0.000000 0.000000 0.000000 0.000000 0.000000 0.000000 0.000000 0.000000 0.000000 0.000000 0.000000 0.000000 0.000000 0.000000 0.000000 0.000000 0.000000 0.000000 0.000000 0.000000 0.000000 0.000000 0.000000 0.000000 0.000000 0.000000 0.000000 0.000000 0.000000 0.000000 0.000000
0.000000 0.000000 0.000000 0.000000 41.654334 41.654334 41.654334 41.654334 41.654334 41.654334 41.654334 0.000000 0.000000 0.000000 0.000000 0.000000 0.000000 0.000000 0.000000 0.000000 0.000000 0.000000 0.000000 0.000000 0.000000 0.000000 0.000000 0.000000 0.000000 0.000000 0.000000 0.000000 0.000000 0.000000 0.000000 0.000000 0.000000 0.000000 0.000000 0.000000 0.000000 0.000000 0.000000 0.000000 0.000000 0.000000 0.000000 0.000000 0.000000 0.000000 0.000000 0.000000 0.000000 0.000000 0.000000 0.000000 0.000000 29.889854 29.889854 29.889854 29.889854 29.889854 29.889854 29.889854 29.889854 29.889854 29.889854 0.000000 0.000000 0.000000 0.000000 0.000000 0.000000 0.000000 0.000000 0.000000 0.000000 0.000000 0.000000 0.000000 0.000000 0.000000 0.000000 0.000000 0.000000 0.000000 0.000000 0.000000 0.000000 0.000000 0.000000 0.000000 0.000000 0.000000 0.000000 0.000000 0.000000 0.000000 0.000000 0.000000 0.000000 0.000000 0.000000
0.000000 0.000000 0.000000 0.000000 41.654334 41.654334 41.654334 41.654334 41.654334 41.654334 41.654334 0.000000 0.000000 0.000000 0.000000 0.000000 0.000000 0.000000 0.000000 0.000000 0.000000 0.000000 0.000000 0.000000 0.000000 0.000000 0.000000 0.000000 0.000000 0.000000 0.000000 0.000000 0.000000 0.000000 0.000000 0.000000 0.000000 0.000000 0.000000 0.000000 0.000000 0.000000 0.000000 0.000000 0.000000 0.000000 0.000000 0.000000 0.000000 0.000000 0.000000 0.000000 0.000000 0.000000 0.000000 0.000000 0.000000 29.889854 29.889854 29.889854 29.889854 29.889854 29.889854 29.889854 29.889854 29.889854 29.889854 0.000000 0.000000 0.000000 0.000000 0.000000 0.000000 0.000000 0.000000 0.000000 0.000000 0.000000 0.000000 0.000000 0.000000 0.000000 0.000000 0.000000 0.000000 0.000000 0.000000 0.000000 0.000000 0.000000 0.000000 0.000000 0.000000 0.000000 0.000000 0.000000 0.000000 0.000000 0.000000 0.000000 0.000000 0.000000 0.000000
0.000000 0.000000 0.000000 0.000000 41.654334 41.654334 41.654334 41.654334 41.654334 41.654334 41.654334 0.000000 0.000000 0.000000 0.000000 0.000000 0.000000 0.000000 0.000000 0.000000 0.000000 0.000000 0.000000 0.000000 0.000000 0.000000 9.164186 9.164186 9.164186 9.164186 9.164186 9.164186 0.000000 0.000000 0.000000 0.000000 0.000000 0.000000 0.000000 0.000000 0.000000 0.000000 0.000000 0.000000 0.000000 0.000000 0.000000 0.000000 0.000000 0.000000 0.000000 0.000000 0.000000 0.000000 0.000000 0.000000 0.000000 29.889854 29.889854 29.889854 29.889854 29.889854 29.889854 29.889854 29.889854 29.889854 29.889854 0.000000 0.000000 0.000000 0.000000 0.000000 0.000000 0.000000 0.000000 0.000000 0.000000 0.000000 0.000000 0.000000 0.000000 0.000000 0.000000 0.000000 0.000000 0.000000 0.000000 0.000000 0.000000 0.000000 0.000000 0.000000 0.000000 0.000000 0.000000 0.000000 0.000000 0.000000 0.000000 0.000000 0.000000 0.000000 0.000000
0.000000 0.000000 0.000000 0.000000 41.654334 41.654334 41.654334 41.654334 41.654334 41.654334 41.654334 0.000000 0.000000 0.000000 0.000000 0.000000 0.000000 0.000000 0.000000 0.000000 0.000000 0.000000 0.000000 0.000000 0.000000 0.000000 9.164186 9.164186 9.164186 9.164186 9.164186 9.164186 0.000000 0.000000 0.000000 0.000000 0.000000 0.000000 0.000000 0.000000 0.000000 0.000000 0.000000 0.000000 0.000000 0.000000 0.000000 0.000000 0.000000 0.000000 0.000000 0.000000 0.000000 0.000000 0.000000 0.000000 0.000000 29.889854 29.889854 29.889854 29.889854 29.889854 29.889854 29.889854 29.889854 29.889854 29.889854 0.000000 0.000000 0.000000 0.000000 0.000000 0.000000 0.000000 0.000000 0.000000 0.000000 0.000000 0.000000 0.000000 0.000000 0.000000 0.000000 0.000000 0.000000 0.000000 0.000000 0.000000 0.000000 0.000000 0.000000 0.000000 0.000000 0.000000 0.000000 0.000000 0.000000 0.000000 0.000000 0.000000 0.000000 0.000000 0.000000
0.000000 0.000000 0.000000 0.000000 41.654334 41.654334 41.654334 41.654334 41.654334 41.654334 41.654334 0.000000 0.000000 0.000000 0.000000 0.000000 0.000000 0.000000 0.000000 0.000000 0.000000 0.000000 0.000000 0.000000 0.000000 0.000000 9.164186 9.164186 9.164186 9.164186 9.164186 9.164186 0.000000 0.000000 0.000000 0.000000 0.000000 0.000000 0.000000 0.000000 0.000000 0.000000 0.000000 0.000000 0.000000 0.000000 0.000000 0.000000 0.000000 0.000000 0.000000 0.000000 0.000000 0.000000 0.000000 0.000000 0.000000 29.889854 29.889854 29.889854 29.889854 29.889854 29.889854 29.889854 29.889854 29.889854 29.889854 0.000000 0.000000 0.000000 0.000000 0.000000 0.000000 0.000000 0.000000 0.000000 0.000000 0.000000 0.000000 0.000000 0.000000 0.000000 0.000000 0.000000 0.000000 0.000000 0.000000 0.000000 0.000000 0.000000 0.000000 0.000000 0.000000 0.000000 0.000000 0.000000 0.000000 0.000000 0.000000 0.000000 0.000000 0.000000 0.000000
0.000000 0.000000 0.000000 0.000000 41.654334 41.654334 41.654334 41.654334 41.654334 41.654334 41.654334 0.000000 0.000000 0.000000 0.000000 0.000000 0.000000 0.000000 0.000000 0.000000 0.000000 0.000000 0.000000 0.000000 0.000000 0.000000 9.164186 9.164186 9.164186 9.164186 9.164186 9.164186 0.000000 0.000000 0.000000 0.000000 0.000000 0.000000 0.000000 0.000000 0.000000 0.000000 0.000000 0.000000 0.000000 0.000000 0.000000 0.000000 0.000000 0.000000 0.000000 0.000000 0.000000 0.000000 0.000000 0.000000 0.000000 29.889854 29.889854 29.889854 29.889854 29.889854 29.889854 29.889854 29.889854 29.889854 29.889854 0.000000 0.000000 0.000000 0.000000 0.000000 0.000000 0.000000 0.000000 0.000000 0.000000 0.000000 0.000000 0.000000 0.000000 0.000000 0.000000 0.000000 0.000000 0.000000 0.000000 0.000000 0.000000 0.000000 0.000000 0.000000 0.000000 0.000000 0.000000 0.000000 0.000000 0.000000 0.000000 0.000000 0.000000 0.000000 0.000000
0.000000 0.000000 0.000000 0.000000 41.654334 41.654334 41.654334 41.654334 41.654334 41.654334 41.654334 0.000000 0.000000 0.000000 0.000000 0.000000 0.000000 0.000000 0.000000 0.000000 0.000000 0.000000 0.000000 0.000000 0.000000 0.000000 9.164186 9.164186 9.164186 9.164186 9.164186 9.164186 0.000000 0.000000 0.000000 0.000000 0.000000 0.000000 0.000000 0.000000 0.000000 0.000000 0.000000 0.000000 0.000000 0.000000 0.000000 0.000000 0.000000 0.000000 0.000000 0.000000 0.000000 0.000000 0.000000 0.000000 0.000000 29.889854 29.889854 29.889854 29.889854 29.889854 29.889854 29.889854 29.889854 29.889854 29.889854 0.000000 0.000000 0.000000 0.000000 0.000000 0.000000 0.000000 0.000000 0.000000 0.000000 0.000000 0.000000 0.000000 0.000000 0.000000 0.000000 0.000000 0.000000 0.000000 0.000000 0.000000 0.000000 0.000000 0.000000 0.000000 0.000000 0.000000 0.000000 0.000000 0.000000 0.000000 0.000000 0.000000 0.000000 0.000000 0.000000
0.000000 0.000000 0.000000 0.000000 41.654334 41.654334 41.654334 41.654334 41.654334 41.654334 41.654334 0.000000 0.000000 0.000000 0.000000 0.000000 0.000000 0.000000 0.000000 0.000000 0.000000 0.000000 0.000000 0.000000 0.000000 0.000000 9.164186 9.164186 9.164186 9.164186 9.164186 9.164186 0.000000 0.000000 0.000000 0.000000 0.000000 0.000000 0.000000 0.000000 0.000000 0.000000 0.000000 0.000000 0.000000 0.000000 0.000000 0.000000 0.000000 0.000000 0.000000 0.000000 0.000000 0.000000 0.000000 0.000000 0.000000 29.889854 29.889854 29.889854 29.889854 29.889854 29.889854 29.889854 29.889854 29.889854 29.889854 0.000000 0.000000 0.000000 0.000000 0.000000 0.000000 0.000000 0.000000 0.000000 0.000000 0.000000 0.000000 0.000000 0.000000 0.000000 0.000000 0.000000 0.000000 0.000000 0.000000 0.000000 0.000000 0.000000 0.000000 0.000000 0.000000 0.000000 0.000000 0.000000 0.000000 0.000000 0.000000 0.000000 0.000000 0.000000 0.000000
0.000000 0.000000 0.000000 0.000000 41.654334 41.654334 41.654334 41.654334 41.654334 41.654334 41.654334 0.000000 0.000000 0.000000 0.000000 0.000000 0.000000 0.000000 0.000000 0.000000 0.000000 0.000000 0.000000 0.000000 0.000000 0.000000 9.164186 9.164186 9.164186 9.164186 9.164186 9.164186 0.000000 0.000000 0.000000 0.000000 0.000000 0.000000 0.000000 0.000000 0.000000 0.000000 0.000000 0.000000 0.000000 0.000000 0.000000 0.000000 0.000000 0.000000 0.000000 0.000000 0.000000 0.000000 0.000000 0.000000 0.000000 29.889854 29.889854 29.889854 29.889854 29.889854 29.889854 29.889854 29.889854 29.889854 29.889854 0.000000 0.000000 0.000000 0.000000 0.000000 0.000000 0.000000 0.000000 0.000000 0.000000 0.000000 0.000000 0.000000 0.000000 0.000000 0.000000 0.000000 0.000000 0.000000 0.000000 0.000000 0.000000 0.000000 0.000000 0.000000 0.000000 0.000000 0.000000 0.000000 0.000000 0.000000 0.000000 0.000000 0.000000 0.000000 0.000000
0.000000 0.000000 0.000000 0.000000 41.654334 41.654334 41.654334 41.654334 41.654334 41.654334 41.654334 0.000000 0.000000 0.000000 0.000000 0.000000 0.000000 0.000000 0.000000 0.000000 0.000000 0.000000 0.000000 0.000000 0.000000 0.000000 0.000000 0.000000 0.000000 0.000000 0.000000 0.000000 0.000000 0.000000 0.000000 0.000000 0.000000 0.000000 0.000000 0.000000 0.000000 0.000000 0.000000 0.000000 0.000000 0.000000 0.000000 0.000000 0.000000 0.000000 0.000000 0.000000 0.000000 0.000000 0.000000 0.000000 0.000000 29.889854 29.889854 29.889854 29.889854 29.889854 29.889854 29.889854 29.889854 29.889854 29.889854 0.000000 0.000000 0.000000 0.000000 0.000000 0.000000 0.000000 0.000000 0.000000 0.000000 0.000000 0.000000 0.000000 0.000000 0.000000 0.000000 0.000000 0.000000 0.000000 0.000000 0.000000 0.000000 0.000000 0.000000 0.000000 0.000000 0.000000 0.000000 0.000000 0.000000 0.000000 0.000000 0.000000 0.000000 0.000000 0.000000
0.000000 0.000000 0.000000 0.000000 41.654334 41.654334 41.654334 41.654334 41.654334 41.654334 41.654334 0.000000 0.000000 0.000000 0.000000 0.000000 0.000000 0.000000 0.000000 0.000000 0.000000 0.000000 0.000000 0.000000 0.000000 0.000000 0.000000 0.000000 0.000000 0.000000 0.000000 0.000000 0.000000 0.000000 0.000000 0.000000 0.000000 0.000000 0.000000 0.000000 0.000000 0.000000 0.000000 0.000000 0.000000 0.000000 0.000000 0.000000 0.000000 0.000000 0.000000 0.000000 0.000000 0.000000 0.000000 0.000000 0.000000 0.000000 0.000000 0.000000 0.000000 0.000000 0.000000 0.000000 0.000000 0.000000 0.000000 0.000000 0.000000 0.000000 0.000000 0.000000 0.000000 0.000000 0.000000 0.000000 0.000000 0.000000 0.000000 0.000000 0.000000 0.000000 0.000000 0.000000 0.000000 0.000000 0.000000 0.000000 0.000000 0.000000 0.000000 0.000000 0.000000 0.000000 0.000000 0.000000 0.000000 0.000000 0.000000 0.000000 0.000000 0.000000 0.000000
0.000000 0.000000 0.000000 0.000000 41.654334 41.654334 41.654334 41.654334 41.654334 41.654334 41.654334 0.000000 0.000000 0.000000 0.000000 0.000000 0.000000 0.000000 0.000000 0.000000 0.000000 0.000000 0.000000 0.000000 0.000000 0.000000 0.000000 0.000000 0.000000 0.000000 0.000000 0.000000 0.000000 0.000000 0.000000 0.000000 0.000000 0.000000 0.000000 0.000000 0.000000 0.000000 0.000000 0.000000 0.000000 0.000000 0.000000 0.000000 0.000000 0.000000 0.000000 0.000000 0.000000 0.000000 0.000000 0.000000 0.000000 0.000000 0.000000 0.000000 0.000000 0.000000 0.000000 0.000000 0.000000 0.000000 0.000000 0.000000 0.000000 0.000000 0.000000 0.000000 0.000000 0.000000 0.000000 0.000000 0.000000 0.000000 0.000000 0.000000 0.000000 0.000000 0.000000 0.000000 0.000000 0.000000 0.000000 0.000000 0.000000 0.000000 0.000000 0.000000 0.000000 0.000000 0.000000 0.000000 0.000000 0.000000 0.000000 0.000000 0.000000 0.000000 0.000000
0.000000 0.000000 0.000000 0.000000 41.654334 41.654334 41.654334 41.654334 41.654334 41.654334 41.654334 0.000000 0.000000 0.000000 0.000000 0.000000 0.000000 0.000000 0.000000 0.000000 0.000000 0.000000 0.000000 0.000000 0.000000 0.000000 0.000000 0.000000 0.000000 0.000000 0.000000 0.000000 0.000000 0.000000 0.000000 0.000000 0.000000 0.000000 0.000000 0.000000 0.000000 0.000000 0.000000 0.000000 0.000000 0.000000 0.000000 0.000000 0.000000 0.000000 0.000000 0.000000 0.000000 0.000000 0.000000 0.000000 0.000000 0.000000 0.000000 0.000000 0.000000 0.000000 0.000000 0.000000 0.000000 0.000000 0.000000 0.000000 0.000000 0.000000 0.000000 0.000000 0.000000 0.000000 0.000000 0.000000 0.000000 0.000000 0.000000 0.000000 0.000000 0.000000 0.000000 0.000000 0.000000 0.000000 0.000000 0.000000 0.000000 0.000000 0.000000 0.000000 0.000000 0.000000 0.000000 0.000000 0.000000 0.000000 0.000000 0.000000 0.000000 0.000000 0.000000
0.000000 0.000000 0.000000 0.000000 41.654334 41.654334 41.654334 41.654334 41.654334 41.654334 41.654334 0.000000 0.000000 0.000000 0.000000 0.000000 0.000000 0.000000 0.000000 0.000000 0.000000 0.000000 0.000000 0.000000 0.000000 0.000000 0.000000 0.000000 0.000000 0.000000 0.000000 0.000000 0.000000 0.000000 0.000000 0.000000 0.000000 0.000000 0.000000 0.000000 0.000000 0.000000 0.000000 0.000000 0.000000 0.000000 0.000000 0.000000 0.000000 0.000000 0.000000 0.000000 0.000000 0.000000 0.000000 0.000000 0.000000 0.000000 0.000000 0.000000 0.000000 0.000000 0.000000 0.000000 0.000000 0.000000 0.000000 0.000000 0.000000 0.000000 0.000000 0.000000 0.000000 0.000000 60.214973 60.214973 60.214973 60.214973 60.214973 60.214973 60.214973 60.214973 60.214973 60.214973 0.000000 0.000000 0.000000 0.000000 0.000000 0.000000 0.000000 0.000000 0.000000 0.000000 0.000000 0.000000 0.000000 0.000000 0.000000 0.000000 0.000000 0.000000 0.000000
0.000000 0.000000 0.000000 0.000000 0.000000 0.000000 0.000000 0.000000 0.000000 0.000000 0.000000 21.772594 21.772594 21.772594 21.772594 21.772594 21.772594 0.000000 0.000000 0.000000 0.000000 0.000000 0.000000 0.000000 0.000000 0.000000 0.000000 0.000000 0.000000 0.000000 0.000000 0.000000 0.000000 0.000000 0.000000 0.000000 0.000000 0.000000 0.000000 0.000000 0.000000 0.000000 0.000000 0.000000 0.000000 0.000000 0.000000 10.906722 10.906722 10.906722 10.906722 10.906722 10.906722 0.000000 0.000000 0.000000 0.000000 0.000000 0.000000 0.000000 0.000000 0.000000 0.000000 0.000000 0.000000 0.000000 0.000000 0.000000 0.000000 0.000000 0.000000 0.000000 0.000000 0.000000 60.214973 60.214973 60.214973 60.214973 60.214973 60.214973 60.214973 60.214973 60.214973 60.214973 0.000000 0.000000 0.000000 0.000000 0.000000 0.000000 0.000000 0.000000 0.000000 0.000000 0.000000 0.000000 0.000000 0.000000 0.000000 0.000000 0.000000 0.000000 0.000000
0.000000 0.000000 0.000000 0.000000 0.000000 0.000000 0.000000 0.000000 0.000000 0.000000 0.000000 21.772594 21.772594 21.772594 21.772594 21.772594 21.772594 0.000000 0.000000 0.000000 0.000000 0.000000 0.000000 0.000000 0.000000 0.000000 0.000000 0.000000 0.000000 0.000000 0.000000 0.000000 0.000000 0.000000 0.000000 0.000000 0.000000 0.000000 0.000000 0.000000 0.000000 0.000000 0.000000 0.000000 0.000000 0.000000 0.000000 10.906722 10.906722 10.906722 10.906722 10.906722 10.906722 0.000000 0.000000 0.000000 0.000000 0.000000 0.000000 0.000000 0.000000 0.000000 0.000000 0.000000 0.000000 0.000000 0.000000 0.000000 0.000000 0.000000 0.000000 0.000000 0.000000 0.000000 60.214973 60.214973 60.214973 60.214973 60.214973 60.214973 60.214973 60.214973 60.214973 60.214973 0.000000 0.000000 0.000000 0.000000 0.000000 0.000000 0.000000 0.000000 0.000000 0.000000 0.000000 0.000000 0.000000 0.000000 0.000000 0.000000 0.000000 0.000000 0.000000
0.000000 0.000000 0.000000 0.000000 0.000000 0.000000 0.000000 0.000000 0.000000 0.000000 0.000000 21.772594 21.772594 21.772594 21.772594 21.772594 21.772594 0.000000 0.000000 0.000000 0.000000 0.000000 0.000000 0.000000 0.000000 0.000000 4.504972 4.504972 4.504972 4.504972 4.504972 4.504972 0.000000 0.000000 0.000000 0.000000 0.000000 0.000000 0.000000 0.000000 0.000000 0.000000 0.000000 0.000000 0.000000 0.000000 0.000000 10.906722 10.906722 10.906722 10.906722 10.906722 10.906722 0.000000 0.000000 0.000000 0.000000 0.000000 0.000000 5.306540 5.306540 5.306540 5.306540 5.306540 5.306540 0.000000 0.000000 0.000000 0.000000 0.000000 0.000000 0.000000 0.000000 0.000000 60.214973 60.214973 60.214973 60.214973 60.214973 60.214973 60.214973 60.214973 60.214973 60.214973 0.000000 0.000000 0.000000 0.000000 0.000000 0.000000 0.000000 31.280807 31.280807 31.280807 31.280807 31.280807 31.280807 0.000000 0.000000 0.000000 0.000000 0.000000 0.000000
0.000000 0.000000 0.000000 0.000000 0.000000 0.000000 0.000000 0.000000 0.000000 0.000000 0.000000 21.772594 21.772594 21.772594 21.772594 21.772594 21.772594 0.000000 0.000000 0.000000 0.000000 0.000000 0.000000 0.000000 0.000000 0.000000 4.504972 4.504972 4.504972 4.504972 4.504972 4.504972 0.000000 0.000000 0.000000 0.000000 0.000000 0.000000 0.000000 0.000000 0.000000 0.000000 0.000000 0.000000 0.000000 0.000000 0.000000 10.906722 10.906722 10.906722 10.906722 10.906722 10.906722 0.000000 0.000000 0.000000 0.000000 0.000000 0.000000 5.306540 5.306540 5.306540 5.306540 5.306540 5.306540 0.000000 0.000000 0.000000 0.000000 0.000000 0.000000 0.000000 0.000000 0.000000 60.214973 60.214973 60.214973 60.214973 60.214973 60.214973 60.214973 60.214973 60.214973 60.214973 0.000000 0.000000 0.000000 0.000000 0.000000 0.000000 0.000000 31.280807 31.280807 31.280807 31.280807 31.280807 31.280807 0.000000 0.000000 0.000000 0.000000 0.000000 0.000000
0.000000 0.000000 0.000000 0.000000 0.000000 0.000000 0.000000 0.000000 0.000000 0.000000 0.000000 21.772594 21.772594 21.772594 21.772594 21.772594 21.772594 0.000000 0.000000 0.000000 0.000000 0.000000 0.000000 0.000000 0.000000 0.000000 4.504972 4.504972 4.504972 4.504972 4.504972 4.504972 0.000000 0.000000 0.000000 0.000000 0.000000 0.000000 0.000000 0.000000 0.000000 0.000000 0.000000 0.000000 0.000000 0.000000 0.000000 10.906722 10.906722 10.906722 10.906722 10.906722 10.906722 0.000000 0.000000 0.000000 0.000000 0.000000 0.000000 5.306540 5.306540 5.306540 5.306540 5.306540 5.306540 0.000000 0.000000 0.000000 0.000000 0.000000 0.000000 0.000000 0.000000 0.000000 60.214973 60.214973 60.214973 60.214973 60.214973 60.214973 60.214973 60.214973 60.214973 60.214973 0.000000 0.000000 0.000000 0.000000 0.000000 0.000000 0.000000 31.280807 31.280807 31.280807 31.280807 31.280807 31.280807 0.000000 0.000000 0.000000 0.000000 0.000000 0.000000
0.000000 0.000000 0.000000 0.000000 0.000000 0.000000 0.000000 0.000000 0.000000 0.000000 0.000000 21.772594 21.772594 21.772594 21.772594 21.772594 21.772594 0.000000 0.000000 0.000000 0.000000 0.000000 0.000000 0.000000 0.000000 0.000000 0.000000 0.000000 0.000000 0.000000 0.000000 0.000000 0.000000 0.000000 0.000000 0.000000 0.000000 0.000000 0.000000 0.000000 0.000000 0.000000 0.000000 0.000000 0.000000 0.000000 0.000000 10.906722 10.906722 10.906722 10.906722 10.906722 10.906722 0.000000 0.000000 0.000000 0.000000 0.000000 0.000000 0.000000 0.000000 0.000000 0.000000 0.000000 0.000000 0.000000 0.000000 0.000000 0.000000 0.000000 0.000000 0.000000 0.000000 0.000000 60.214973 60.214973 60.214973 60.214973 60.214973 60.214973 60.214973 60.214973 60.214973 60.214973 0.000000 0.000000 0.000000 0.000000 0.000000 0.000000 0.000000 31.280807 31.280807 31.280807 31.280807 31.280807 31.280807 0.000000 0.000000 0.000000 0.000000 0.000000 0.000000
0.000000 0.000000 0.000000 0.000000 0.000000 0.000000 0.000000 0.000000 0.000000 0.000000 0.000000 21.772594 21.772594 21.772594 21.772594 21.772594 21.772594 0.000000 0.000000 0.000000 0.000000 0.000000 0.000000 0.000000 0.000000 0.000000 0.000000 0.000000 0.000000 0.000000 0.000000 0.000000 0.000000 0.000000 0.000000 0.000000 0.000000 0.000000 0.000000 0.000000 0.000000 0.000000 0.000000 0.000000 0.000000 0.000000 0.000000 10.906722 10.906722 10.906722 10.906722 10.906722 10.906722 0.000000 0.000000 0.000000 0.000000 0.000000 0.000000 0.000000 0.000000 0.000000 0.000000 0.000000 0.000000 0.000000 0.000000 0.000000 0.000000 0.000000 0.000000 0.000000 0.000000 0.000000 60.214973 60.214973 60.214973 60.214973 60.214973 60.214973 60.214973 60.214973 60.214973 60.214973 0.000000 0.000000 0.000000 0.000000 0.000000 0.000000 0.000000 31.280807 31.280807 31.280807 31.280807 31.280807 31.280807 0.000000 0.000000 0.000000 0.000000 0.000000 0.000000
0.000000 0.000000 0.000000 0.000000 0.000000 0.000000 0.000000 0.000000 0.000000 0.000000 0.000000 21.772594 21.772594 21.772594 21.772594 21.772594 21.772594 0.000000 0.000000 0.000000 0.000000 0.000000 0.000000 0.000000 0.000000 0.000000 0.000000 0.000000 0.000000 0.000000 0.000000 0.000000 0.000000 0.000000 0.000000 0.000000 0.000000 0.000000 0.000000 0.000000 0.000000 0.000000 0.000000 0.000000 0.000000 0.000000 0.000000 0.000000 0.000000 0.000000 0.000000 0.000000 0.000000 0.000000 0.000000 0.000000 0.000000 0.000000 0.000000 0.000000 0.000000 0.000000 0.000000 0.000000 0.000000 0.000000 0.000000 0.000000 0.000000 0.000000 0.000000 0.000000 0.000000 0.000000 60.214973 60.214973 60.214973 60.214973 60.214973 60.214973 60.214973 60.214973 60.214973 60.214973 0.000000 0.000000 0.000000 0.000000 0.000000 0.000000 0.000000 31.280807 31.280807 31.280807 31.280807 31.280807 31.280807 0.000000 0.000000 0.000000 0.000000 0.000000 0.000000
0.000000 0.000000 0.000000 0.000000 0.000000 0.000000 0.000000 0.000000 0.000000 0.000000 0.000000 21.772594 21.772594 21.772594 21.772594 21.772594 21.772594 0.000000 0.000000 0.000000 0.000000 0.000000 0.000000 0.000000 0.000000 0.000000 0.000000 0.000000 0.000000 0.000000 0.000000 0.000000 0.000000 0.000000 0.000000 0.000000 0.000000 0.000000 0.000000 0.000000 0.000000 0.000000 0.000000 0.000000 0.000000 0.000000 0.000000 0.000000 0.000000 0.000000 0.000000 0.000000 0.000000 0.000000 0.000000 0.000000 0.000000 0.000000 0.000000 0.000000 0.000000 0.000000 0.000000 0.000000 0.000000 0.000000 0.000000 0.000000 0.000000 0.000000 0.000000 0.000000 0.000000 0.000000 60.214973 60.214973 60.214973 60.214973 60.214973 60.214973 60.214973 60.214973 60.214973 60.214973 0.000000 0.000000 0.000000 0.000000 0.000000 0.000000 0.000000 31.280807 31.280807 31.280807 31.280807 31.280807 31.280807 0.000000 0.000000 0.000000 0.000000 0.000000 0.000000
0.000000 0.000000 0.000000 0.000000 0.000000 0.000000 0.000000 0.000000 0.000000 0.000000 0.000000 21.772594 21.772594 21.772594 21.772594 21.772594 21.772594 0.000000 0.000000 0.000000 0.000000 0.000000 0.000000 0.000000 0.000000 0.000000 0.000000 0.000000 0.000000 0.000000 0.000000 0.000000 0.000000 0.000000 0.000000 0.000000 0.000000 0.000000 0.000000 0.000000 0.000000 0.000000 0.000000 0.000000 0.000000 0.000000 0.000000 0.000000 0.000000 0.000000 0.000000 0.000000 0.000000 0.000000 0.000000 0.000000 0.000000 0.000000 0.000000 0.000000 0.000000 0.000000 0.000000 0.000000 0.000000 0.000000 0.000000 0.000000 0.000000 0.000000 0.000000 0.000000 0.000000 0.000000 60.214973 60.214973 60.214973 60.214973 60.214973 60.214973 60.214973 60.214973 60.214973 60.214973 0.000000 0.000000 0.000000 0.000000 0.000000 0.000000 0.000000 31.280807 31.280807 31.280807 31.280807 31.280807 31.280807 0.000000 0.000000 0.000000 0.000000 0.000000 0.000000
0.000000 0.000000 0.000000 0.000000 0.000000 0.000000 0.000000 0.000000 0.000000 0.000000 0.000000 21.772594 21.772594 21.772594 21.772594 21.772594 21.772594 0.000000 0.000000 0.000000 0.000000 0.000000 0.000000 0.000000 0.000000 0.000000 0.000000 0.000000 0.000000 0.000000 0.000000 0.000000 0.000000 0.000000 0.000000 0.000000 0.000000 0.000000 0.000000 0.000000 0.000000 0.000000 0.000000 0.000000 0.000000 0.000000 0.000000 0.000000 0.000000 0.000000 0.000000 0.000000 0.000000 0.000000 0.000000 0.000000 0.000000 0.000000 0.000000 0.000000 0.000000 0.000000 0.000000 0.000000 0.000000 0.000000 0.000000 0.000000 0.000000 0.000000 0.000000 0.000000 0.000000 0.000000 60.214973 60.214973 60.214973 60.214973 60.214973 60.214973 60.214973 60.214973 60.214973 60.214973 0.000000 0.000000 0.000000 0.000000 0.000000 0.000000 0.000000 31.280807 31.280807 31.280807 31.280807 31.280807 31.280807 0.000000 0.000000 0.000000 0.000000 0.000000 0.000000
0.000000 0.000000 0.000000 0.000000 0.000000 0.000000 0.000000 0.000000 0.000000 0.000000 0.000000 21.772594 21.772594 21.772594 21.772594 21.772594 21.772594 0.000000 0.000000 0.000000 0.000000 0.000000 0.000000 0.000000 0.000000 0.000000 0.000000 0.000000 0.000000 0.000000 0.000000 0.000000 0.000000 0.000000 0.000000 0.000000 0.000000 16.716280 16.716280 16.716280 16.716280 16.716280 16.716280 16.716280 25.042377 25.042377 25.042377 25.042377 25.042377 25.042377 25.042377 25.042377 25.042377 0.000000 0.000000 0.000000 0.000000 0.000000 0.000000 0.000000 0.000000 0.000000 0.000000 0.000000 0.000000 0.000000 0.000000 0.000000 0.000000 0.000000 0.000000 0.000000 0.000000 0.000000 60.214973 60.214973 60.214973 60.214973 60.214973 60.214973 60.214973 60.214973 60.214973 60.214973 0.000000 0.000000 0.000000 0.000000 0.000000 0.000000 0.000000 31.280807 31.280807 31.280807 31.280807 31.280807 31.280807 0.000000 0.000000 0.000000 0.000000 0.000000 0.000000
0.000000 0.000000 0.000000 0.000000 0.000000 0.000000 0.000000 0.000000 0.000000 0.000000 0.000000 21.772594 21.772594 21.772594 21.772594 21.772594 21.772594 0.000000 0.000000 0.000000 0.000000 0.000000 0.000000 0.000000 0.000000 0.000000 0.000000 0.000000 0.000000 0.000000 0.000000 0.000000 0.000000 0.000000 0.000000 0.000000 0.000000 16.716280 16.716280 16.716280 16.716280 16.716280 16.716280 16.716280 25.042377 25.042377 25.042377 25.042377 25.042377 25.042377 25.042377 25.042377 25.042377 0.000000 0.000000 0.000000 0.000000 0.000000 0.000000 0.000000 0.000000 0.000000 0.000000 0.000000 0.000000 0.000000 0.000000 0.000000 0.000000 0.000000 0.000000 0.000000 0.000000 0.000000 60.214973 60.214973 60.214973 60.214973 60.214973 60.214973 60.214973 60.214973 60.214973 60.214973 0.000000 0.000000 0.000000 0.000000 0.000000 0.000000 0.000000 31.280807 31.280807 31.280807 31.280807 31.280807 31.280807 0.000000 0.000000 0.000000 0.000000 0.000000 0.000000
0.000000 0.000000 0.000000 0.000000 0.000000 0.000000 0.000000 0.000000 0.000000 0.000000 0.000000 21.772594 21.772594 21.772594 21.772594 21.772594 21.772594 0.000000 0.000000 0.000000 0.000000 0.000000 0.000000 0.000000 0.000000 0.000000 9.420263 9.420263 9.420263 9.420263 9.420263 9.420263 0.000000 0.000000 0.000000 0.000000 0.000000 16.716280 16.716280 16.716280 16.716280 16.716280 16.716280 16.716280 25.042377 25.042377 25.042377 25.042377 25.042377 25.042377 25.042377 25.042377 25.042377 0.000000 0.000000 0.000000 0.000000 0.000000 0.000000 11.096406 11.096406 11.096406 11.096406 11.096406 11.096406 0.000000 0.000000 0.000000 0.000000 0.000000 0.000000 0.000000 0.000000 0.000000 60.214973 60.214973 60.214973 60.214973 60.214973 60.214973 60.214973 60.214973 60.214973 60.214973 0.000000 0.000000 0.000000 0.000000 0.000000 0.000000 0.000000 31.280807 31.280807 31.280807 31.280807 31.280807 31.280807 0.000000 0.000000 0.000000 0.000000 0.000000 0.000000
0.000000 0.000000 0.000000 0.000000 15.561580 15.561580 15.561580 15.561580 15.561580 15.561580 15.561580 14.516897 14.516897 14.516897 14.516897 14.516897 14.516897 0.000000 0.000000 0.000000 0.000000 0.000000 0.000000 0.000000 0.000000 0.000000 9.420263 9.420263 9.420263 9.420263 9.420263 9.420263 0.000000 0.000000 0.000000 0.000000 0.000000 16.716280 16.716280 16.716280 16.716280 16.716280 16.716280 16.716280 25.042377 25.042377 25.042377 25.042377 25.042377 25.042377 25.042377 25.042377 25.042377 0.000000 0.000000 0.000000 0.000000 0.000000 0.000000 11.096406 11.096406 11.096406 11.096406 11.096406 11.096406 0.000000 0.000000 0.000000 0.000000 0.000000 0.000000 0.000000 0.000000 0.000000 60.214973 60.214973 60.214973 60.214973 60.214973 60.214973 60.214973 60.214973 60.214973 60.214973 0.000000 0.000000 0.000000 0.000000 0.000000 0.000000 0.000000 31.280807 31.280807 31.280807 31.280807 31.280807 31.280807 0.000000 0.000000 0.000000 0.000000 0.000000 0.000000
0.000000 0.000000 0.000000 0.000000 15.561580 15.561580 15.561580 15.561580 15.561580 15.561580 15.561580 14.516897 14.516897 14.516897 14.516897 14.516897 14.516897 0.000000 0.000000 0.000000 0.000000 0.000000 0.000000 0.000000 0.000000 0.000000 9.420263 9.420263 9.420263 9.420263 9.420263 9.420263 0.000000 0.000000 0.000000 0.000000 0.000000 16.716280 16.716280 16.716280 16.716280 16.716280 16.716280 16.716280 25.042377 25.042377 25.042377 25.042377 25.042377 25.042377 25.042377 25.042377 25.042377 0.000000 0.000000 0.000000 0.000000 0.000000 0.000000 11.096406 11.096406 11.096406 11.096406 11.096406 11.096406 0.000000 0.000000 0.000000 0.000000 0.000000 0.000000 0.000000 0.000000 0.000000 60.214973 60.214973 60.214973 60.214973 60.214973 60.214973 60.214973 60.214973 60.214973 60.214973 0.000000 0.000000 0.000000 0.000000 0.000000 0.000000 0.000000 31.280807 31.280807 31.280807 31.280807 31.280807 31.280807 0.000000 0.000000 0.000000 0.000000 0.000000 0.000000
0.000000 0.000000 0.000000 0.000000 15.561580 15.561580 15.561580 15.561580 15.561580 15.561580 15.561580 14.516897 14.516897 14.516897 14.516897 14.516897 14.516897 0.000000 0.000000 0.000000 0.000000 0.000000 0.000000 0.000000 0.000000 0.000000 9.420263 9.420263 9.420263 9.420263 9.420263 9.420263 0.000000 0.000000 0.000000 0.000000 0.000000 16.716280 16.716280 16.716280 16.716280 16.716280 16.716280 16.716280 25.042377 25.042377 25.042377 25.042377 25.042377 25.042377 25.042377 25.042377 25.042377 0.000000 0.000000 0.000000 0.000000 0.000000 0.000000 11.096406 11.096406 11.096406 11.096406 11.096406 11.096406 0.000000 0.000000 0.000000 0.000000 0.000000 0.000000 0.000000 0.000000 0.000000 60.214973 60.214973 60.214973 60.214973 60.214973 60.214973 60.214973 60.214973 60.214973 60.214973 0.000000 0.000000 0.000000 0.000000 0.000000 0.000000 0.000000 31.280807 31.280807 31.280807 31.280807 31.280807 31.280807 0.000000 0.000000 0.000000 0.000000 0.000000 0.000000
0.000000 0.000000 0.000000 0.000000 15.561580 15.561580 15.561580 15.561580 15.561580 15.561580 15.561580 14.516897 14.516897 14.516897 14.516897 14.516897 14.516897 0.000000 0.000000 0.000000 0.000000 0.000000 0.000000 0.000000 0.000000 0.000000 9.420263 9.420263 9.420263 9.420263 9.420263 9.420263 0.000000 0.000000 0.000000 0.000000 0.000000 16.716280 16.716280 16.716280 16.716280 16.716280 16.716280 16.716280 25.042377 25.042377 25.042377 25.042377 25.042377 25.042377 25.042377 25.042377 25.042377 0.000000 0.000000 0.000000 0.000000 0.000000 0.000000 11.096406 11.096406 11.096406 11.096406 11.096406 11.096406 0.000000 0.000000 0.000000 0.000000 0.000000 0.000000 0.000000 0.000000 0.000000 60.214973 60.214973 60.214973 60.214973 60.214973 60.214973 60.214973 60.214973 60.214973 60.214973 0.000000 0.000000 0.000000 0.000000 0.000000 0.000000 0.000000 31.280807 31.280807 31.280807 31.280807 31.280807 31.280807 0.000000 0.000000 0.000000 0.000000 0.000000 0.000000
0.000000 0.000000 0.000000 0.000000 15.561580 15.561580 15.561580 15.561580 15.561580 15.561580 15.561580 14.516897 14.516897 14.516897 14.516897 14.516897 14.516897 0.000000 0.000000 0.000000 0.000000 0.000000 0.000000 0.000000 0.000000 0.000000 9.420263 9.420263 9.420263 9.420263 9.420263 9.420263 0.000000 0.000000 0.000000 0.000000 0.000000 16.716280 16.716280 16.716280 16.716280 16.716280 16.716280 16.716280 25.042377 25.042377 25.042377 25.042377 25.042377 25.042377 25.042377 25.042377 25.042377 0.000000 0.000000 0.000000 0.000000 0.000000 0.000000 11.096406 11.096406 11.096406 11.096406 11.096406 11.096406 0.000000 0.000000 0.000000 0.000000 0.000000 0.000000 0.000000 0.000000 0.000000 60.214973 60.214973 60.214973 60.214973 60.214973 60.214973 60.214973 60.214973 60.214973 60.214973 0.000000 0.000000 0.000000 0.000000 0.000000 0.000000 0.000000 31.280807 31.280807 31.280807 31.280807 31.280807 31.280807 0.000000 0.000000 0.000000 0.000000 0.000000 0.000000
0.000000 0.000000 0.000000 0.000000 15.561580 15.561580 15.561580 15.561580 15.561580 15.561580 15.561580 14.516897 14.516897 14.516897 14.516897 14.516897 14.516897 0.000000 0.000000 0.000000 0.000000 0.000000 0.000000 0.000000 0.000000 0.000000 9.420263 9.420263 9.420263 9.420263 9.420263 9.420263 0.000000 0.000000 0.000000 0.000000 0.000000 16.716280 16.716280 16.716280 16.716280 16.716280 16.716280 16.716280 25.042377 25.042377 25.042377 25.042377 25.042377 25.042377 25.042377 25.042377 25.042377 0.000000 0.000000 0.000000 0.000000 0.000000 0.000000 11.096406 11.096406 11.096406 11.096406 11.096406 11.096406 0.000000 0.000000 0.000000 0.000000 0.000000 0.000000 0.000000 0.000000 0.000000 60.214973 60.214973 60.214973 60.214973 60.214973 60.214973 60.214973 60.214973 60.214973 60.214973 0.000000 0.000000 0.000000 0.000000 0.000000 0.000000 0.000000 31.280807 31.280807 31.280807 31.280807 31.280807 31.280807 0.000000 0.000000 0.000000 0.000000 0.000000 0.000000
0.000000 0.000000 0.000000 0.000000 15.561580 15.561580 15.561580 15.561580 15.561580 15.561580 15.561580 14.516897 14.516897 14.516897 14.516897 14.516897 14.516897 0.000000 0.000000 0.000000 0.000000 0.000000 0.000000 0.000000 0.000000 0.000000 0.000000 0.000000 0.000000 0.000000 0.000000 0.000000 0.000000 0.000000 0.000000 0.000000 0.000000 16.716280 16.716280 16.716280 16.716280 16.716280 16.716280 16.716280 25.042377 25.042377 25.042377 25.042377 25.042377 25.042377 25.042377 25.042377 25.042377 0.000000 0.000000 0.000000 0.000000 0.000000 0.000000 0.000000 0.000000 0.000000 0.000000 0.000000 0.000000 0.000000 0.000000 0.000000 0.000000 0.000000 0.000000 0.000000 0.000000 0.000000 60.214973 60.214973 60.214973 60.214973 60.214973 60.214973 60.214973 60.214973 60.214973 60.214973 0.000000 0.000000 0.000000 0.000000 0.000000 0.000000 0.000000 31.280807 31.280807 31.280807 31.280807 31.280807 31.280807 0.000000 0.000000 0.000000 0.000000 0.000000 0.000000
0.000000 0.000000 0.000000 0.000000 15.561580 15.561580 15.561580 15.561580 15.561580 15.561580 15.561580 14.516897 14.516897 14.516897 14.516897 14.516897 14.516897 0.000000 0.000000 0.000000 0.000000 0.000000 0.000000 0.000000 0.000000 0.000000 0.000000 0.000000 0.000000 0.000000 0.000000 0.000000 0.000000 0.000000 0.000000 0.000000 0.000000 16.716280 16.716280 16.716280 16.716280 16.716280 16.716280 16.716280 25.042377 25.042377 25.042377 25.042377 25.042377 25.042377 25.042377 25.042377 25.042377 0.000000 0.000000 0.000000 0.000000 0.000000 0.000000 0.000000 0.000000 0.000000 0.000000 0.000000 0.000000 0.000000 0.000000 0.000000 0.000000 0.000000 0.000000 0.000000 0.000000 0.000000 60.214973 60.214973 60.214973 60.214973 60.214973 60.214973 60.214973 60.214973 60.214973 60.214973 0.000000 0.000000 0.000000 0.000000 0.000000 0.000000 0.000000 31.280807 31.280807 31.280807 31.280807 31.280807 31.280807 0.000000 0.000000 0.000000 0.000000 0.000000 0.000000
0.000000 0.000000 0.000000 0.000000 15.561580 15.561580 15.561580 15.561580 15.561580 15.561580 15.561580 14.516897 14.516897 14.516897 14.516897 14.516897 14.516897 0.000000 0.000000 0.000000 0.000000 0.000000 0.000000 0.000000 0.000000 0.000000 0.000000 0.000000 0.000000 0.000000 0.000000 0.000000 0.000000 0.000000 0.000000 0.000000 0.000000 0.000000 0.000000 0.000000 0.000000 0.000000 0.000000 0.000000 0.000000 0.000000 0.000000 0.000000 0.000000 0.000000 0.000000 0.000000 0.000000 0.000000 0.000000 0.000000 0.000000 0.000000 0.000000 0.000000 0.000000 0.000000 0.000000 0.000000 0.000000 0.000000 0.000000 0.000000 0.000000 0.000000 0.000000 0.000000 0.000000 0.000000 60.214973 60.214973 60.214973 60.214973 60.214973 60.214973 60.214973 60.214973 60.214973 60.214973 0.000000 0.000000 0.000000 0.000000 0.000000 0.000000 0.000000 0.000000 0.000000 0.000000 0.000000 0.000000 0.000000 0.000000 0.000000 0.000000 0.000000 0.000000 0.000000
0.000000 0.000000 0.000000 0.000000 15.561580 15.561580 15.561580 15.561580 15.561580 15.561580 15.561580 14.516897 14.516897 14.516897 14.516897 14.516897 14.516897 0.000000 0.000000 0.000000 0.000000 0.000000 0.000000 0.000000 0.000000 0.000000 0.000000 0.000000 0.000000 0.000000 0.000000 0.000000 0.000000 0.000000 0.000000 0.000000 0.000000 0.000000 0.000000 0.000000 0.000000 0.000000 0.000000 0.000000 0.000000 0.000000 0.000000 0.000000 0.000000 0.000000 0.000000 0.000000 0.000000 0.000000 0.000000 0.000000 0.000000 0.000000 0.000000 0.000000 0.000000 0.000000 0.000000 0.000000 0.000000 0.000000 0.000000 0.000000 0.000000 0.000000 0.000000 0.000000 0.000000 0.000000 60.214973 60.214973 60.214973 60.214973 60.214973 60.214973 60.214973 60.214973 60.214973 60.214973 0.000000 0.000000 0.000000 0.000000 0.000000 0.000000 0.000000 0.000000 0.000000 0.000000 0.000000 0.000000 0.000000 0.000000 0.000000 0.000000 0.000000 0.000000 0.000000
0.000000 0.000000 0.000000 0.000000 0.000000 0.000000 0.000000 0.000000 0.000000 0.000000 0.000000 0.000000 0.000000 0.000000 0.000000 0.000000 0.000000 0.000000 0.000000 0.000000 0.000000 0.000000 0.000000 0.000000 0.000000 0.000000 0.000000 0.000000 0.000000 0.000000 0.000000 0.000000 0.000000 0.000000 0.000000 0.000000 0.000000 0.000000 0.000000 0.000000 0.000000 0.000000 0.000000 0.000000 0.000000 0.000000 0.000000 0.000000 0.000000 0.000000 0.000000 0.000000 0.000000 0.000000 0.000000 0.000000 0.000000 0.000000 0.000000 0.000000 0.000000 0.000000 0.000000 0.000000 0.000000 0.000000 0.000000 0.000000 0.000000 0.000000 0.000000 0.000000 0.000000 0.000000 0.000000 0.000000 0.000000 0.000000 0.000000 0.000000 0.000000 0.000000 0.000000 0.000000 0.000000 0.000000 0.000000 0.000000 0.000000 0.000000 0.000000 0.000000 0.000000 0.000000 0.000000 0.000000 0.000000 0.000000 0.000000 0.000000 0.000000 0.000000 0.000000
0.000000 0.000000 0.000000 0.000000 0.000000 0.000000 0.000000 0.000000 0.000000 0.000000 0.000000 0.000000 0.000000 0.000000 0.000000 0.000000 0.000000 0.000000 0.000000 0.000000 0.000000 0.000000 0.000000 0.000000 0.000000 0.000000 0.000000 0.000000 0.000000 0.000000 0.000000 0.000000 0.000000 0.000000 0.000000 0.000000 0.000000 0.000000 0.000000 0.000000 0.000000 0.000000 0.000000 0.000000 0.000000 0.000000 0.000000 0.000000 0.000000 0.000000 0.000000 0.000000 0.000000 0.000000 0.000000 0.000000 0.000000 0.000000 0.000000 0.000000 0.000000 0.000000 0.000000 0.000000 0.000000 0.000000 0.000000 0.000000 0.000000 0.000000 0.000000 0.000000 0.000000 0.000000 0.000000 0.000000 0.000000 0.000000 0.000000 0.000000 0.000000 0.000000 0.000000 0.000000 0.000000 0.000000 0.000000 0.000000 0.000000 0.000000 0.000000 0.000000 0.000000 0.000000 0.000000 0.000000 0.000000 0.000000 0.000000 0.000000 0.000000 0.000000 0.000000
0.000000 0.000000 0.000000 0.000000 0.000000 0.000000 0.000000 0.000000 0.000000 0.000000 0.000000 0.000000 0.000000 0.000000 0.000000 0.000000 0.000000 0.000000 0.000000 0.000000 0.000000 0.000000 0.000000 0.000000 0.000000 0.000000 0.000000 0.000000 0.000000 0.000000 0.000000 0.000000 0.000000 0.000000 0.000000 0.000000 0.000000 0.000000 0.000000 0.000000 0.000000 0.000000 0.000000 0.000000 0.000000 0.000000 0.000000 0.000000 0.000000 0.000000 0.000000 0.000000 0.000000 0.000000 0.000000 0.000000 0.000000 0.000000 0.000000 0.000000 0.000000 0.000000 0.000000 0.000000 0.000000 0.000000 0.000000 0.000000 0.000000 0.000000 0.000000 0.000000 0.000000 0.000000 0.000000 0.000000 0.000000 0.000000 0.000000 0.000000 0.000000 0.000000 0.000000 0.000000 0.000000 0.000000 0.000000 0.000000 0.000000 0.000000 0.000000 0.000000 0.000000 0.000000 0.000000 0.000000 0.000000 0.000000 0.000000 0.000000 0.000000 0.000000 0.000000
0.000000 0.000000 0.000000 0.000000 0.000000 0.000000 0.000000 0.000000 0.000000 0.000000 0.000000 0.000000 0.000000 0.000000 0.000000 0.000000 0.000000 0.000000 0.000000 0.000000 0.000000 0.000000 0.000000 0.000000 0.000000 0.000000 0.000000 0.000000 0.000000 0.000000 0.000000 0.000000 0.000000 0.000000 0.000000 0.000000 0.000000 0.000000 0.000000 0.000000 0.000000 0.000000 0.000000 0.000000 0.000000 0.000000 0.000000 0.000000 0.000000 0.000000 0.000000 0.000000 0.000000 0.000000 0.000000 0.000000 0.000000 0.000000 0.000000 0.000000 0.000000 0.000000 0.000000 0.000000 0.000000 0.000000 0.000000 0.000000 0.000000 0.000000 0.000000 0.000000 0.000000 0.000000 0.000000 0.000000 0.000000 0.000000 0.000000 0.000000 0.000000 0.000000 0.000000 0.000000 0.000000 0.000000 0.000000 0.000000 0.000000 0.000000 0.000000 0.000000 0.000000 0.000000 0.000000 0.000000 0.000000 0.000000 0.000000 0.000000 0.000000 0.000000 0.000000
0.000000 0.000000 0.000000 0.000000 0.000000 0.000000 0.000000 0.000000 0.000000 0.000000 0.000000 0.000000 0.000000 0.000000 0.000000 0.000000 0.000000 0.000000 0.000000 0.000000 0.000000 0.000000 0.000000 0.000000 0.000000 0.000000 0.000000 0.000000 0.000000 0.000000 0.000000 0.000000 0.000000 0.000000 0.000000 0.000000 0.000000 0.000000 0.000000 0.000000 0.000000 0.000000 0.000000 0.000000 0.000000 0.000000 0.000000 0.000000 0.000000 0.000000 0.000000 0.000000 0.000000 0.000000 0.000000 0.000000 0.000000 0.000000 0.000000 0.000000 0.000000 0.000000 0.000000 0.000000 0.000000 0.000000 0.000000 0.000000 0.000000 0.000000 0.000000 0.000000 0.000000 0.000000 0.000000 0.000000 0.000000 0.000000 0.000000 0.000000 0.000000 0.000000 0.000000 0.000000 0.000000 0.000000 0.000000 0.000000 0.000000 0.000000 0.000000 0.000000 0.000000 0.000000 0.000000 0.000000 0.000000 0.000000 0.000000 0.000000 0.000000 0.000000 0.000000
0.000000 0.000000 0.000000 0.000000 0.000000 0.000000 0.000000 0.000000 0.000000 0.000000 0.000000 0.000000 0.000000 0.000000 0.000000 0.000000 0.000000 0.000000 0.000000 0.000000 0.000000 0.000000 10.498927 10.498927 10.498927 10.498927 10.498927 10.498927 10.498927 32.885963 32.885963 32.885963 32.885963 32.885963 32.885963 32.885963 32.885963 32.885963 32.885963 32.885963 32.885963 32.885963 32.885963 32.885963 32.885963 32.885963 32.885963 32.885963 32.885963 32.928518 32.928518 32.928518 32.928518 32.928518 32.928518 32.928518 32.928518 32.928518 32.928518 32.928518 32.928518 32.928518 32.928518 32.928518 32.928518 32.928518 32.928518 32.928518 32.928518 0.000000 0.000000 0.000000 0.000000 0.000000 0.000000 0.000000 0.000000 0.000000 0.000000 0.000000 0.000000 0.000000 0.000000 0.000000 0.000000 0.000000 0.000000 0.000000 0.000000 16.496893 16.496893 16.496893 16.496893 16.496893 16.496893 16.496893 16.496893 16.496893 16.496893 0.000000 0.000000 0.000000 0.000000
0.000000 0.000000 0.000000 0.000000 0.000000 0.000000 0.000000 0.000000 0.000000 0.000000 0.000000 0.000000 0.000000 0.000000 0.000000 0.000000 0.000000 0.000000 0.000000 0.000000 0.000000 0.000000 10.498927 10.498927 10.498927 10.498927 10.498927 10.498927 10.498927 32.885963 32.885963 32.885963 32.885963 32.885963 32.885963 32.885963 32.885963 32.885963 32.885963 32.885963 32.885963 32.885963 32.885963 32.885963 32.885963 32.885963 32.885963 32.885963 32.885963 32.928518 32.928518 32.928518 32.928518 32.928518 32.928518 32.928518 32.928518 32.928518 32.928518 32.928518 32.928518 32.928518 32.928518 32.928518 32.928518 32.928518 32.928518 32.928518 32.928518 0.000000 0.000000 0.000000 0.000000 0.000000 0.000000 0.000000 0.000000 0.000000 0.000000 0.000000 0.000000 0.000000 0.000000 0.000000 0.000000 0.000000 0.000000 0.000000 0.000000 16.496893 16.496893 16.496893 16.496893 16.496893 16.496893 16.496893 16.496893 16.496893 16.496893 0.000000 0.000000 0.000000 0.000000
0.000000 0.000000 0.000000 0.000000 0.000000 0.000000 0.000000 0.000000 0.000000 0.000000 0.000000 0.000000 0.000000 0.000000 0.000000 0.000000 0.000000 0.000000 0.000000 0.000000 0.000000 0.000000 10.498927 10.498927 10.498927 10.498927 10.498927 10.498927 10.498927 32.885963 32.885963 32.885963 32.885963 32.885963 32.885963 32.885963 32.885963 32.885963 32.885963 32.885963 32.885963 32.885963 32.885963 32.885963 32.885963 32.885963 32.885963 32.885963 32.885963 32.928518 32.928518 32.928518 32.928518 32.928518 32.928518 32.928518 32.928518 32.928518 32.928518 32.928518 32.928518 32.928518 32.928518 32.928518 32.928518 32.928518 32.928518 32.928518 32.928518 0.000000 0.000000 0.000000 0.000000 0.000000 0.000000 0.000000 14.420918 14.420918 14.420918 14.420918 14.420918 14.420918 0.000000 0.000000 0.000000 0.000000 0.000000 0.000000 0.000000 16.496893 16.496893 16.496893 16.496893 16.496893 16.496893 16.496893 16.496893 16.496893 16.496893 0.000000 0.000000 0.000000 0.000000
0.000000 0.000000 0.000000 0.000000 0.000000 0.000000 0.000000 0.000000 0.000000 0.000000 0.000000 0.000000 0.000000 0.000000 0.000000 0.000000 0.000000 0.000000 0.000000 0.000000 0.000000 0.000000 10.498927 10.498927 10.498927 10.498927 10.498927 10.498927 10.498927 32.885963 32.885963 32.885963 32.885963 32.885963 32.885963 32.885963 32.885963 32.885963 32.885963 32.885963 32.885963 32.885963 32.885963 32.885963 32.885963 32.885963 32.885963 32.885963 32.885963 32.928518 32.928518 32.928518 32.928518 32.928518 32.928518 32.928518 32.928518 32.928518 32.928518 32.928518 32.928518 32.928518 32.928518 32.928518 32.928518 32.928518 32.928518 32.928518 32.928518 0.000000 0.000000 0.000000 0.000000 0.000000 0.000000 0.000000 14.420918 14.420918 14.420918 14.420918 14.420918 14.420918 0.000000 0.000000 0.000000 0.000000 0.000000 0.000000 0.000000 16.496893 16.496893 16.496893 16.496893 16.496893 16.496893 16.496893 16.496893 16.496893 16.496893 0.000000 0.000000 0.000000 0.000000
0.000000 0.000000 0.000000 0.000000 0.000000 0.000000 0.000000 0.000000 0.000000 0.000000 0.000000 0.000000 0.000000 0.000000 0.000000 0.000000 0.000000 0.000000 0.000000 0.000000 0.000000 0.000000 10.498927 10.498927 10.498927 10.498927 10.498927 10.498927 10.498927 32.885963 32.885963 32.885963 32.885963 32.885963 32.885963 32.885963 32.885963 32.885963 32.885963 32.885963 32.885963 32.885963 32.885963 32.885963 32.885963 32.885963 32.885963 32.885963 32.885963 32.928518 32.928518 32.928518 32.928518 32.928518 32.928518 32.928518 32.928518 32.928518 32.928518 32.928518 32.928518 32.928518 32.928518 32.928518 32.928518 32.928518 32.928518 32.928518 32.928518 0.000000 0.000000 0.000000 0.000000 0.000000 0.000000 0.000000 14.420918 14.420918 14.420918 14.420918 14.420918 14.420918 0.000000 0.000000 0.000000 0.000000 0.000000 0.000000 0.000000 16.496893 16.496893 16.496893 16.496893 16.496893 16.496893 16.496893 16.496893 16.496893 16.496893 0.000000 0.000000 0.000000 0.000000
0.000000 0.000000 0.000000 0.000000 0.000000 0.000000 0.000000 0.000000 0.000000 0.000000 0.000000 0.000000 0.000000 0.000000 0.000000 0.000000 0.000000 0.000000 0.000000 0.000000 0.000000 0.000000 10.498927 10.498927 10.498927 10.498927 10.498927 10.498927 10.498927 32.885963 32.885963 32.885963 32.885963 32.885963 32.885963 32.885963 32.885963 32.885963 32.885963 32.885963 32.885963 32.885963 32.885963 32.885963 32.885963 32.885963 32.885963 32.885963 32.885963 32.928518 32.928518 32.928518 32.928518 32.928518 32.928518 32.928518 32.928518 32.928518 32.928518 32.928518 32.928518 32.928518 32.928518 32.928518 32.928518 32.928518 32.928518 32.928518 32.928518 0.000000 0.000000 0.000000 0.000000 0.000000 0.000000 0.000000 14.420918 14.420918 14.420918 14.420918 14.420918 14.420918 0.000000 0.000000 0.000000 0.000000 0.000000 0.000000 0.000000 16.496893 16.496893 16.496893 16.496893 16.496893 16.496893 16.496893 16.496893 16.496893 16.496893 0.000000 0.000000 0.000000 0.000000
0.000000 0.000000 0.000000 0.000000 0.000000 0.000000 0.000000 0.000000 0.000000 0.000000 0.000000 0.000000 0.000000 0.000000 0.000000 0.000000 0.000000 0.000000 0.000000 0.000000 0.000000 0.000000 10.498927 10.498927 10.498927 10.498927 10.498927 10.498927 10.498927 32.885963 32.885963 32.885963 32.885963 32.885963 32.885963 32.885963 32.885963 32.885963 32.885963 32.885963 32.885963 32.885963 32.885963 32.885963 32.885963 32.885963 32.885963 32.885963 32.885963 32.928518 32.928518 32.928518 32.928518 32.928518 32.928518 32.928518 32.928518 32.928518 32.928518 32.928518 32.928518 32.928518 32.928518 32.928518 32.928518 32.928518 32.928518 32.928518 32.928518 0.000000 0.000000 0.000000 0.000000 0.000000 0.000000 0.000000 14.420918 14.420918 14.420918 14.420918 14.420918 14.420918 0.000000 0.000000 0.000000 0.000000 0.000000 0.000000 0.000000 16.496893 16.496893 16.496893 16.496893 16.496893 16.496893 16.496893 16.496893 16.496893 16.496893 0.000000 0.000000 0.000000 0.000000
0.000000 0.000000 0.000000 0.000000 9.859436 9.859436 9.859436 9.859436 9.859436 9.859436 9.859436 0.000000 0.000000 0.000000 0.000000 0.000000 0.000000 0.000000 0.000000 0.000000 0.000000 0.000000 0.000000 0.000000 0.000000 0.000000 0.000000 0.000000 0.000000 32.136203 32.136203 32.136203 32.136203 32.136203 32.136203 32.136203 32.136203 32.136203 32.136203 32.136203 32.136203 32.136203 32.136203 32.136203 32.136203 32.136203 32.136203 32.136203 32.136203 32.177788 32.177788 32.177788 32.177788 32.177788 32.177788 32.177788 32.177788 32.177788 32.177788 32.177788 32.177788 32.177788 32.177788 32.177788 32.177788 32.177788 32.177788 32.177788 32.177788 0.000000 0.000000 0.000000 0.000000 0.000000 0.000000 0.000000 14.420918 14.420918 14.420918 14.420918 14.420918 14.420918 0.000000 0.000000 0.000000 0.000000 0.000000 0.000000 0.000000 16.546496 16.546496 16.546496 16.546496 16.546496 16.546496 16.546496 16.546496 16.546496 16.546496 0.000000 0.000000 0.000000 0.000000
0.000000 0.000000 0.000000 0.000000 9.859436 9.859436 9.859436 9.859436 9.859436 9.859436 9.859436 0.000000 0.000000 0.000000 0.000000 0.000000 0.000000 0.000000 0.000000 0.000000 0.000000 0.000000 0.000000 0.000000 0.000000 0.000000 0.000000 0.000000 0.000000 32.136203 32.136203 32.136203 32.136203 32.136203 32.136203 32.136203 32.136203 32.136203 32.136203 32.136203 32.136203 32.136203 32.136203 32.136203 32.136203 32.136203 32.136203 32.136203 32.136203 32.177788 32.177788 32.177788 32.177788 32.177788 32.177788 32.177788 32.177788 32.177788 32.177788 32.177788 32.177788 32.177788 32.177788 32.177788 32.177788 32.177788 32.177788 32.177788 32.177788 0.000000 0.000000 0.000000 0.000000 0.000000 0.000000 0.000000 14.420918 14.420918 14.420918 14.420918 14.420918 14.420918 0.000000 0.000000 0.000000 0.000000 0.000000 0.000000 0.000000 16.546496 16.546496 16.546496 16.546496 16.546496 16.546496 16.546496 16.546496 16.546496 16.546496 0.000000 0.000000 0.000000 0.000000
0.000000 0.000000 0.000000 0.000000 9.859436 9.859436 9.859436 9.859436 9.859436 9.859436 9.859436 0.000000 0.000000 0.000000 0.000000 0.000000 0.000000 0.000000 0.000000 0.000000 0.000000 0.000000 0.000000 0.000000 0.000000 0.000000 0.000000 0.000000 0.000000 32.136203 32.136203 32.136203 32.136203 32.136203 32.136203 32.136203 32.136203 32.136203 32.136203 32.136203 32.136203 32.136203 32.136203 32.136203 32.136203 32.136203 32.136203 32.136203 32.136203 32.177788 32.177788 32.177788 32.177788 32.177788 32.177788 32.177788 32.177788 32.177788 32.177788 32.177788 32.177788 32.177788 32.177788 32.177788 32.177788 32.177788 32.177788 32.177788 32.177788 0.000000 0.000000 0.000000 0.000000 0.000000 0.000000 0.000000 14.420918 14.420918 14.420918 14.420918 14.420918 14.420918 0.000000 0.000000 0.000000 0.000000 0.000000 0.000000 0.000000 16.546496 16.546496 16.546496 16.546496 16.546496 16.546496 16.546496 16.546496 16.546496 16.546496 0.000000 0.000000 0.000000 0.000000
0.000000 0.000000 0.000000 0.000000 9.859436 9.859436 9.859436 9.859436 9.859436 9.859436 9.859436 0.000000 0.000000 0.000000 0.000000 0.000000 0.000000 0.000000 0.000000 0.000000 0.000000 0.000000 0.000000 0.000000 0.000000 0.000000 0.000000 0.000000 0.000000 32.136203 32.136203 32.136203 32.136203 32.136203 32.136203 32.136203 32.136203 32.136203 32.136203 32.136203 32.136203 32.136203 32.136203 32.136203 32.136203 32.136203 32.136203 32.136203 32.136203 32.177788 32.177788 32.177788 32.177788 32.177788 32.177788 32.177788 32.177788 32.177788 32.177788 32.177788 32.177788 32.177788 32.177788 32.177788 32.177788 32.177788 32.177788 32.177788 32.177788 0.000000 0.000000 0.000000 0.000000 0.000000 0.000000 0.000000 14.420918 14.420918 14.420918 14.420918 14.420918 14.420918 0.000000 0.000000 0.000000 0.000000 0.000000 0.000000 0.000000 16.546496 16.546496 16.546496 16.546496 16.546496 16.546496 16.546496 16.546496 16.546496 16.546496 0.000000 0.000000 0.000000 0.000000
0.000000 0.000000 0.000000 0.000000 9.859436 9.859436 9.859436 9.859436 9.859436 9.859436 9.859436 0.000000 0.000000 0.000000 0.000000 0.000000 0.000000 0.000000 0.000000 0.000000 0.000000 0.000000 0.000000 0.000000 0.000000 0.000000 0.000000 0.000000 0.000000 32.136203 32.136203 32.136203 32.136203 32.136203 32.136203 32.136203 32.136203 32.136203 32.136203 32.136203 32.136203 32.136203 32.136203 32.136203 32.136203 32.136203 32.136203 32.136203 32.136203 32.177788 32.177788 32.177788 32.177788 32.177788 32.177788 32.177788 32.177788 32.177788 32.177788 32.177788 32.177788 32.177788 32.177788 32.177788 32.177788 32.177788 32.177788 32.177788 32.177788 0.000000 0.000000 0.000000 0.000000 0.000000 0.000000 0.000000 0.000000 0.000000 0.000000 0.000000 0.000000 0.000000 0.000000 0.000000 0.000000 0.000000 0.000000 0.000000 0.000000 16.546496 16.546496 16.546496 16.546496 16.546496 16.546496 16.546496 16.546496 16.546496 16.546496 0.000000 0.000000 0.000000 0.000000
0.000000 0.000000 0.000000 0.000000 9.859436 9.859436 9.859436 9.859436 9.859436 9.859436 9.859436 0.000000 0.000000 0.000000 0.000000 0.000000 0.000000 0.000000 0.000000 0.000000 0.000000 0.000000 0.000000 0.000000 0.000000 0.000000 0.000000 0.000000 0.000000 32.136203 32.136203 32.136203 32.136203 32.136203 32.136203 32.136203 32.136203 32.136203 32.136203 32.136203 32.136203 32.136203 32.136203 32.136203 32.136203 32.136203 32.136203 32.136203 32.136203 32.177788 32.177788 32.177788 32.177788 32.177788 32.177788 32.177788 32.177788 32.177788 32.177788 32.177788 32.177788 32.177788 32.177788 32.177788 32.177788 32.177788 32.177788 32.177788 32.177788 0.000000 0.000000 0.000000 0.000000 0.000000 0.000000 0.000000 0.000000 0.000000 0.000000 0.000000 0.000000 0.000000 0.000000 0.000000 0.000000 0.000000 0.000000 0.000000 0.000000 16.546496 16.546496 16.546496 16.546496 16.546496 16.546496 16.546496 16.546496 16.546496 16.546496 0.000000 0.000000 0.000000 0.000000
0.000000 0.000000 0.000000 0.000000 0.000000 0.000000 0.000000 0.000000 0.000000 0.000000 0.000000 0.000000 0.000000 0.000000 0.000000 0.000000 0.000000 0.000000 0.000000 0.000000 0.000000 0.000000 0.000000 0.000000 0.000000 0.000000 0.000000 0.000000 0.000000 0.000000 0.000000 0.000000 0.000000 0.000000 0.000000 0.000000 0.000000 0.000000 0.000000 0.000000 0.000000 0.000000 0.000000 0.000000 0.000000 0.000000 0.000000 0.000000 0.000000 0.000000 0.000000 0.000000 0.000000 0.000000 0.000000 0.000000 0.000000 0.000000 0.000000 0.000000 0.000000 0.000000 0.000000 0.000000 0.000000 0.000000 0.000000 0.000000 0.000000 0.000000 0.000000 0.000000 0.000000 0.000000 0.000000 0.000000 0.000000 0.000000 0.000000 0.000000 0.000000 0.000000 0.000000 0.000000 0.000000 0.000000 0.000000 0.000000 0.000000 0.000000 0.000000 0.000000 0.000000 0.000000 0.000000 0.000000 0.000000 0.000000 0.000000 0.000000 0.000000 0.000000 0.000000
0.000000 0.000000 0.000000 0.000000 0.000000 0.000000 0.000000 0.000000 0.000000 0.000000 0.000000 0.000000 0.000000 0.000000 0.000000 0.000000 0.000000 0.000000 0.000000 0.000000 0.000000 0.000000 0.000000 0.000000 0.000000 0.000000 0.000000 0.000000 0.000000 0.000000 0.000000 0.000000 0.000000 0.000000 0.000000 0.000000 0.000000 0.000000 0.000000 0.000000 0.000000 0.000000 0.000000 0.000000 0.000000 0.000000 0.000000 0.000000 0.000000 0.000000 0.000000 0.000000 0.000000 0.000000 0.000000 0.000000 0.000000 0.000000 0.000000 0.000000 0.000000 0.000000 0.000000 0.000000 0.000000 0.000000 0.000000 0.000000 0.000000 0.000000 0.000000 0.000000 0.000000 0.000000 0.000000 0.000000 0.000000 0.000000 0.000000 0.000000 0.000000 0.000000 0.000000 0.000000 0.000000 0.000000 0.000000 0.000000 0.000000 0.000000 0.000000 0.000000 0.000000 0.000000 0.000000 0.000000 0.000000 0.000000 0.000000 0.000000 0.000000 0.000000 0.000000
0.000000 0.000000 0.000000 0.000000 0.000000 0.000000 0.000000 0.000000 0.000000 0.000000 0.000000 0.000000 0.000000 0.000000 0.000000 0.000000 0.000000 0.000000 0.000000 0.000000 0.000000 0.000000 0.000000 0.000000 0.000000 0.000000 0.000000 0.000000 0.000000 0.000000 0.000000 0.000000 0.000000 0.000000 0.000000 0.000000 0.000000 0.000000 0.000000 0.000000 0.000000 0.000000 0.000000 0.000000 0.000000 0.000000 0.000000 0.000000 0.000000 0.000000 0.000000 0.000000 0.000000 0.000000 0.000000 0.000000 0.000000 0.000000 0.000000 0.000000 0.000000 0.000000 0.000000 0.000000 0.000000 0.000000 0.000000 0.000000 0.000000 0.000000 0.000000 0.000000 0.000000 0.000000 0.000000 0.000000 0.000000 0.000000 0.000000 0.000000 0.000000 0.000000 0.000000 0.000000 0.000000 0.000000 0.000000 0.000000 0.000000 0.000000 0.000000 0.000000 0.000000 0.000000 0.000000 0.000000 0.000000 0.000000 0.000000 0.000000 0.000000 0.000000 0.000000
0.000000 0.000000 0.000000 0.000000 0.000000 0.000000 0.000000 0.000000 0.000000 0.000000 0.000000 0.000000 0.000000 0.000000 0.000000 0.000000 0.000000 0.000000 0.000000 0.000000 0.000000 0.000000 0.000000 0.000000 0.000000 0.000000 0.000000 0.000000 0.000000 0.000000 0.000000 0.000000 0.000000 0.000000 0.000000 0.000000 0.000000 0.000000 0.000000 0.000000 0.000000 0.000000 0.000000 0.000000 0.000000 0.000000 0.000000 0.000000 0.000000 0.000000 0.000000 0.000000 0.000000 0.000000 0.000000 0.000000 0.000000 0.000000 0.000000 0.000000 0.000000 0.000000 0.000000 0.000000 0.000000 0.000000 0.000000 0.000000 0.000000 0.000000 0.000000 0.000000 0.000000 0.000000 0.000000 0.000000 0.000000 0.000000 0.000000 0.000000 0.000000 0.000000 0.000000 0.000000 0.000000 0.000000 0.000000 0.000000 0.000000 0.000000 0.000000 0.000000 0.000000 0.000000 0.000000 0.000000 0.000000 0.000000 0.000000 0.000000 0.000000 0.000000 0.000000
0.000000 0.000000 0.000000 0.000000 0.000000 0.000000 0.000000 0.000000 0.000000 0.000000 0.000000 0.000000 0.000000 0.000000 0.000000 0.000000 0.000000 0.000000 0.000000 0.000000 0.000000 0.000000 0.000000 0.000000 0.000000 0.000000 0.000000 0.000000 0.000000 0.000000 0.000000 0.000000 0.000000 0.000000 0.000000 0.000000 0.000000 0.000000 0.000000 0.000000 0.000000 0.000000 0.000000 0.000000 0.000000 0.000000 0.000000 0.000000 0.000000 0.000000 0.000000 0.000000 0.000000 0.000000 0.000000 0.000000 0.000000 0.000000 0.000000 0.000000 0.000000 0.000000 0.000000 0.000000 0.000000 0.000000 0.000000 0.000000 0.000000 0.000000 0.000000 0.000000 0.000000 0.000000 0.000000 0.000000 0.000000 0.000000 0.000000 0.000000 0.000000 0.000000 0.000000 0.000000 0.000000 0.000000 0.000000 0.000000 0.000000 0.000000 0.000000 0.000000 0.000000 0.000000 0.000000 0.000000 0.000000 0.000000 0.000000 0.000000 0.000000 0.000000 0.000000
0.000000 0.000000 0.000000 0.000000 11.072068 11.072068 11.072068 11.072068 11.072068 11.072068 11.072068 11.329877 11.329877 11.329877 11.329877 11.329877 11.329877 0.000000 0.000000 0.000000 0.000000 0.000000 0.000000 0.000000 0.000000 0.000000 0.000000 0.000000 0.000000 0.000000 0.000000 0.000000 0.000000 0.000000 0.000000 0.000000 0.000000 0.000000 0.000000 0.000000 0.000000 0.000000 0.000000 0.000000 0.000000 0.000000 0.000000 0.000000 0.000000 0.000000 0.000000 0.000000 0.000000 0.000000 0.000000 0.000000 0.000000 0.000000 0.000000 0.000000 0.000000 0.000000 0.000000 0.000000 0.000000 0.000000 0.000000 0.000000 0.000000 0.000000 0.000000 0.000000 0.000000 0.000000 17.175720 17.175720 17.175720 17.175720 17.175720 17.175720 17.175720 17.175720 17.175720 17.175720 0.000000 0.000000 0.000000 0.000000 0.000000 0.000000 0.000000 0.000000 0.000000 0.000000 0.000000 0.000000 0.000000 0.000000 0.000000 0.000000 0.000000 0.000000 0.000000
0.000000 0.000000 0.000000 0.000000 11.072068 11.072068 11.072068 11.072068 11.072068 11.072068 11.072068 11.329877 11.329877 11.329877 11.329877 11.329877 11.329877 0.000000 0.000000 0.000000 0.000000 0.000000 0.000000 0.000000 0.000000 0.000000 0.000000 0.000000 0.000000 0.000000 0.000000 0.000000 0.000000 0.000000 0.000000 0.000000 0.000000 0.000000 0.000000 0.000000 0.000000 0.000000 0.000000 0.000000 0.000000 0.000000 0.000000 0.000000 0.000000 0.000000 0.000000 0.000000 0.000000 0.000000 0.000000 0.000000 0.000000 0.000000 0.000000 0.000000 0.000000 0.000000 0.000000 0.000000 0.000000 0.000000 0.000000 0.000000 0.000000 0.000000 0.000000 0.000000 0.000000 0.000000 17.175720 17.175720 17.175720 17.175720 17.175720 17.175720 17.175720 17.175720 17.175720 17.175720 0.000000 0.000000 0.000000 0.000000 0.000000 0.000000 0.000000 0.000000 0.000000 0.000000 0.000000 0.000000 0.000000 0.000000 0.000000 0.000000 0.000000 0.000000 0.000000
0.000000 0.000000 0.000000 0.000000 11.072068 11.072068 11.072068 11.072068 11.072068 11.072068 11.072068 11.329877 11.329877 11.329877 11.329877 11.329877 11.329877 0.000000 0.000000 0.000000 0.000000 0.000000 0.000000 0.000000 0.000000 0.000000 0.000000 0.000000 0.000000 0.000000 0.000000 0.000000 0.000000 0.000000 0.000000 0.000000 0.000000 0.000000 0.000000 0.000000 7.069406 7.069406 7.069406 7.069406 7.069406 7.069406 7.069406 7.069406 7.069406 0.000000 0.000000 0.000000 12.157507 12.157507 12.157507 12.157507 12.157507 12.157507 12.157507 12.157507 12.157507 12.157507 12.157507 12.157507 12.157507 12.157507 12.157507 0.000000 0.000000 0.000000 0.000000 0.000000 0.000000 0.000000 17.175720 17.175720 17.175720 17.175720 17.175720 17.175720 17.175720 17.175720 17.175720 17.175720 0.000000 0.000000 0.000000 0.000000 0.000000 0.000000 0.000000 5.363613 5.363613 5.363613 5.363613 5.363613 5.363613 0.000000 0.000000 0.000000 0.000000 0.000000 0.000000
0.000000 0.000000 0.000000 0.000000 11.072068 11.072068 11.072068 11.072068 11.072068 11.072068 11.072068 11.329877 11.329877 11.329877 11.329877 11.329877 11.329877 0.000000 0.000000 0.000000 0.000000 0.000000 0.000000 0.000000 0.000000 0.000000 0.000000 0.000000 0.000000 0.000000 0.000000 0.000000 0.000000 0.000000 0.000000 0.000000 0.000000 0.000000 0.000000 0.000000 7.069406 7.069406 7.069406 7.069406 7.069406 7.069406 7.069406 7.069406 7.069406 0.000000 0.000000 0.000000 12.157507 12.157507 12.157507 12.157507 12.157507 12.157507 12.157507 12.157507 12.157507 12.157507 12.157507 12.157507 12.157507 12.157507 12.157507 0.000000 0.000000 0.000000 0.000000 0.000000 0.000000 0.000000 17.175720 17.175720 17.175720 17.175720 17.175720 17.175720 17.175720 17.175720 17.175720 17.175720 0.000000 0.000000 0.000000 0.000000 0.000000 0.000000 0.000000 5.363613 5.363613 5.363613 5.363613 5.363613 5.363613 0.000000 0.000000 0.000000 0.000000 0.000000 0.000000
0.000000 0.000000 0.000000 0.000000 11.072068 11.072068 11.072068 11.072068 11.072068 11.072068 11.072068 11.329877 11.329877 11.329877 11.329877 11.329877 11.329877 0.000000 0.000000 0.000000 0.000000 0.000000 0.000000 0.000000 0.000000 0.000000 0.000000 0.000000 0.000000 0.000000 0.000000 0.000000 0.000000 0.000000 0.000000 0.000000 0.000000 0.000000 0.000000 0.000000 7.069406 7.069406 7.069406 7.069406 7.069406 7.069406 7.069406 7.069406 7.069406 0.000000 0.000000 0.000000 12.157507 12.157507 12.157507 12.157507 12.157507 12.157507 12.157507 12.157507 12.157507 12.157507 12.157507 12.157507 12.157507 12.157507 12.157507 0.000000 0.000000 0.000000 0.000000 0.000000 0.000000 0.000000 17.175720 17.175720 17.175720 17.175720 17.175720 17.175720 17.175720 17.175720 17.175720 17.175720 0.000000 0.000000 0.000000 0.000000 0.000000 0.000000 0.000000 5.363613 5.363613 5.363613 5.363613 5.363613 5.363613 0.000000 0.000000 0.000000 0.000000 0.000000 0.000000
0.000000 0.000000 0.000000 0.000000 11.072068 11.072068 11.072068 11.072068 11.072068 11.072068 11.072068 11.329877 11.329877 11.329877 11.329877 11.329877 11.329877 0.000000 0.000000 0.000000 0.000000 0.000000 0.000000 0.000000 0.000000 0.000000 0.000000 0.000000 0.000000 0.000000 0.000000 0.000000 0.000000 0.000000 0.000000 0.000000 0.000000 0.000000 0.000000 0.000000 7.069406 7.069406 7.069406 7.069406 7.069406 7.069406 7.069406 7.069406 7.069406 0.000000 0.000000 0.000000 12.157507 12.157507 12.157507 12.157507 12.157507 12.157507 12.157507 12.157507 12.157507 12.157507 12.157507 12.157507 12.157507 12.157507 12.157507 0.000000 0.000000 0.000000 0.000000 0.000000 0.000000 0.000000 17.175720 17.175720 17.175720 17.175720 17.175720 17.175720 17.175720 17.175720 17.175720 17.175720 0.000000 0.000000 0.000000 0.000000 0.000000 0.000000 0.000000 5.363613 5.363613 5.363613 5.363613 5.363613 5.363613 0.000000 0.000000 0.000000 0.000000 0.000000 0.000000
0.000000 0.000000 0.000000 0.000000 11.072068 11.072068 11.072068 11.072068 11.072068 11.072068 11.072068 11.329877 11.329877 11.329877 11.329877 11.329877 11.329877 0.000000 0.000000 0.000000 0.000000 0.000000 0.000000 0.000000 0.000000 0.000000 0.000000 0.000000 0.000000 0.000000 0.000000 0.000000 0.000000 0.000000 0.000000 0.000000 0.000000 0.000000 0.000000 0.000000 0.000000 0.000000 0.000000 0.000000 0.000000 0.000000 0.000000 0.000000 0.000000 0.000000 0.000000 0.000000 0.000000 0.000000 0.000000 0.000000 0.000000 0.000000 0.000000 0.000000 0.000000 0.000000 0.000000 0.000000 0.000000 0.000000 0.000000 0.000000 0.000000 0.000000 0.000000 0.000000 0.000000 0.000000 17.175720 17.175720 17.175720 17.175720 17.175720 17.175720 17.175720 17.175720 17.175720 17.175720 0.000000 0.000000 0.000000 0.000000 0.000000 0.000000 0.000000 0.000000 0.000000 0.000000 0.000000 0.000000 0.000000 0.000000 0.000000 0.000000 0.000000 0.000000 0.000000
0.000000 0.000000 0.000000 0.000000 0.000000 0.000000 0.000000 0.000000 0.000000 0.000000 0.000000 0.000000 0.000000 0.000000 0.000000 0.000000 0.000000 0.000000 0.000000 0.000000 0.000000 0.000000 0.000000 0.000000 0.000000 0.000000 0.000000 0.000000 0.000000 0.000000 0.000000 0.000000 0.000000 0.000000 0.000000 0.000000 0.000000 0.000000 0.000000 0.000000 0.000000 0.000000 0.000000 0.000000 0.000000 0.000000 0.000000 0.000000 0.000000 0.000000 0.000000 0.000000 0.000000 0.000000 0.000000 0.000000 0.000000 0.000000 0.000000 0.000000 0.000000 0.000000 0.000000 0.000000 0.000000 0.000000 0.000000 0.000000 0.000000 0.000000 0.000000 0.000000 0.000000 0.000000 0.000000 0.000000 0.000000 0.000000 0.000000 0.000000 0.000000 0.000000 0.000000 0.000000 0.000000 0.000000 0.000000 0.000000 0.000000 0.000000 0.000000 0.000000 0.000000 0.000000 0.000000 0.000000 0.000000 0.000000 0.000000 0.000000 0.000000 0.000000 0.000000
0.000000 0.000000 0.000000 0.000000 0.000000 0.000000 0.000000 0.000000 0.000000 0.000000 0.000000 0.000000 0.000000 0.000000 0.000000 0.000000 0.000000 0.000000 0.000000 0.000000 0.000000 0.000000 0.000000 0.000000 0.000000 0.000000 0.000000 0.000000 0.000000 0.000000 0.000000 0.000000 0.000000 0.000000 0.000000 0.000000 0.000000 0.000000 0.000000 0.000000 0.000000 0.000000 0.000000 0.000000 0.000000 0.000000 0.000000 0.000000 0.000000 0.000000 0.000000 0.000000 0.000000 0.000000 0.000000 0.000000 0.000000 0.000000 0.000000 0.000000 0.000000 0.000000 0.000000 0.000000 0.000000 0.000000 0.000000 0.000000 0.000000 0.000000 0.000000 0.000000 0.000000 0.000000 0.000000 0.000000 0.000000 0.000000 0.000000 0.000000 0.000000 0.000000 0.000000 0.000000 0.000000 0.000000 0.000000 0.000000 0.000000 0.000000 0.000000 0.000000 0.000000 0.000000 0.000000 0.000000 0.000000 0.000000 0.000000 0.000000 0.000000 0.000000 0.000000
0.000000 0.000000 0.000000 0.000000 0.000000 0.000000 0.000000 0.000000 0.000000 0.000000 0.000000 0.000000 0.000000 0.000000 0.000000 0.000000 0.000000 0.000000 0.000000 0.000000 0.000000 0.000000 0.000000 0.000000 0.000000 0.000000 0.000000 0.000000 0.000000 0.000000 0.000000 0.000000 0.000000 0.000000 0.000000 0.000000 0.000000 0.000000 0.000000 0.000000 0.000000 0.000000 0.000000 0.000000 0.000000 0.000000 0.000000 0.000000 0.000000 0.000000 0.000000 0.000000 0.000000 0.000000 0.000000 0.000000 0.000000 0.000000 0.000000 0.000000 0.000000 0.000000 0.000000 0.000000 0.000000 0.000000 0.000000 0.000000 0.000000 0.000000 0.000000 0.000000 0.000000 0.000000 0.000000 0.000000 0.000000 0.000000 0.000000 0.000000 0.000000 0.000000 0.000000 0.000000 0.000000 0.000000 0.000000 0.000000 0.000000 0.000000 0.000000 0.000000 0.000000 0.000000 0.000000 0.000000 0.000000 0.000000 0.000000 0.000000 0.000000 0.000000 0.000000
0.000000 0.000000 0.000000 0.000000 0.000000 0.000000 0.000000 0.000000 0.000000 0.000000 0.000000 0.000000 0.000000 0.000000 0.000000 0.000000 0.000000 0.000000 0.000000 0.000000 0.000000 0.000000 0.000000 0.000000 0.000000 0.000000 0.000000 0.000000 0.000000 0.000000 0.000000 0.000000 0.000000 0.000000 0.000000 0.000000 0.000000 0.000000 0.000000 0.000000 0.000000 0.000000 0.000000 0.000000 0.000000 0.000000 0.000000 0.000000 0.000000 0.000000 0.000000 0.000000 0.000000 0.000000 0.000000 0.000000 0.000000 0.000000 0.000000 0.000000 0.000000 0.000000 0.000000 0.000000 0.000000 0.000000 0.000000 0.000000 0.000000 0.000000 0.000000 0.000000 0.000000 0.000000 0.000000 0.000000 0.000000 0.000000 0.000000 0.000000 0.000000 0.000000 0.000000 0.000000 0.000000 0.000000 0.000000 0.000000 0.000000 0.000000 0.000000 0.000000 0.000000 0.000000 0.000000 0.000000 0.000000 0.000000 0.000000 0.000000 0.000000 0.000000 0.000000
0.000000 0.000000 0.000000 0.000000 0.000000 0.000000 0.000000 0.000000 0.000000 0.000000 0.000000 0.000000 0.000000 0.000000 0.000000 0.000000 0.000000 0.000000 0.000000 0.000000 0.000000 0.000000 0.000000 0.000000 0.000000 0.000000 0.000000 0.000000 0.000000 0.000000 0.000000 0.000000 0.000000 0.000000 0.000000 0.000000 0.000000 0.000000 0.000000 0.000000 0.000000 0.000000 0.000000 0.000000 0.000000 0.000000 0.000000 0.000000 0.000000 0.000000 0.000000 0.000000 0.000000 0.000000 0.000000 0.000000 0.000000 0.000000 0.000000 0.000000 0.000000 0.000000 0.000000 0.000000 0.000000 0.000000 0.000000 0.000000 0.000000 0.000000 0.000000 0.000000 0.000000 0.000000 0.000000 0.000000 0.000000 0.000000 0.000000 0.000000 0.000000 0.000000 0.000000 0.000000 0.000000 0.000000 0.000000 0.000000 0.000000 0.000000 0.000000 0.000000 0.000000 0.000000 0.000000 0.000000 0.000000 0.000000 0.000000 0.000000 0.000000 0.000000 0.000000
0.000000 0.000000 0.000000 0.000000 0.000000 0.000000 0.000000 0.000000 0.000000 0.000000 0.000000 0.000000 0.000000 0.000000 0.000000 0.000000 0.000000 0.000000 0.000000 0.000000 0.000000 0.000000 0.000000 0.000000 0.000000 0.000000 0.000000 0.000000 0.000000 0.000000 0.000000 0.000000 0.000000 0.000000 0.000000 0.000000 0.000000 0.000000 0.000000 0.000000 0.000000 0.000000 0.000000 0.000000 0.000000 0.000000 0.000000 0.000000 0.000000 0.000000 0.000000 0.000000 0.000000 0.000000 0.000000 0.000000 0.000000 0.000000 0.000000 0.000000 0.000000 0.000000 0.000000 0.000000 0.000000 0.000000 0.000000 0.000000 0.000000 0.000000 0.000000 0.000000 0.000000 0.000000 0.000000 0.000000 0.000000 0.000000 0.000000 0.000000 0.000000 0.000000 0.000000 0.000000 0.000000 0.000000 0.000000 0.000000 0.000000 23.177756 23.177756 23.177756 23.177756 23.177756 23.177756 23.177756 23.177756 23.177756 23.177756 0.000000 0.000000 0.000000 0.000000
0.000000 0.000000 0.000000 0.000000 0.000000 0.000000 0.000000 0.000000 0.000000 0.000000 0.000000 0.000000 0.000000 0.000000 0.000000 0.000000 0.000000 0.000000 0.000000 0.000000 0.000000 0.000000 0.000000 0.000000 0.000000 0.000000 0.000000 0.000000 0.000000 0.000000 0.000000 0.000000 0.000000 0.000000 0.000000 0.000000 0.000000 0.000000 0.000000 0.000000 0.000000 0.000000 0.000000 0.000000 0.000000 0.000000 0.000000 0.000000 0.000000 0.000000 0.000000 0.000000 0.000000 0.000000 0.000000 0.000000 0.000000 0.000000 0.000000 0.000000 0.000000 0.000000 0.000000 0.000000 0.000000 0.000000 0.000000 0.000000 0.000000 0.000000 0.000000 0.000000 0.000000 0.000000 0.000000 0.000000 0.000000 0.000000 0.000000 0.000000 0.000000 0.000000 0.000000 0.000000 0.000000 0.000000 0.000000 0.000000 0.000000 23.177756 23.177756 23.177756 23.177756 23.177756 23.177756 23.177756 23.177756 23.177756 23.177756 0.000000 0.000000 0.000000 0.000000
0.000000 0.000000 0.000000 0.000000 0.000000 0.000000 0.000000 0.000000 0.000000 0.000000 0.000000 0.000000 0.000000 0.000000 0.000000 0.000000 0.000000 0.000000 0.000000 0.000000 0.000000 0.000000 0.000000 0.000000 0.000000 0.000000 0.000000 0.000000 0.000000 0.000000 0.000000 0.000000 0.000000 0.000000 0.000000 0.000000 0.000000 0.000000 0.000000 0.000000 0.000000 0.000000 0.000000 0.000000 0.000000 0.000000 0.000000 0.000000 0.000000 0.000000 0.000000 0.000000 0.000000 0.000000 0.000000 0.000000 0.000000 0.000000 0.000000 0.000000 0.000000 0.000000 0.000000 0.000000 0.000000 0.000000 0.000000 0.000000 0.000000 0.000000 0.000000 0.000000 0.000000 0.000000 0.000000 0.000000 0.000000 0.000000 0.000000 0.000000 0.000000 0.000000 0.000000 0.000000 0.000000 0.000000 0.000000 0.000000 0.000000 23.177756 23.177756 23.177756 23.177756 23.177756 23.177756 23.177756 23.177756 23.177756 23.177756 0.000000 0.000000 0.000000 0.000000
0.000000 0.000000 0.000000 0.000000 0.000000 0.000000 0.000000 0.000000 0.000000 0.000000 0.000000 0.000000 0.000000 0.000000 0.000000 0.000000 0.000000 0.000000 0.000000 0.000000 0.000000 0.000000 0.000000 0.000000 0.000000 0.000000 0.000000 0.000000 0.000000 0.000000 0.000000 0.000000 0.000000 0.000000 0.000000 0.000000 0.000000 0.000000 0.000000 0.000000 0.000000 0.000000 0.000000 0.000000 0.000000 0.000000 0.000000 0.000000 0.000000 0.000000 0.000000 0.000000 0.000000 0.000000 0.000000 0.000000 0.000000 0.000000 0.000000 0.000000 0.000000 0.000000 0.000000 0.000000 0.000000 0.000000 0.000000 0.000000 0.000000 0.000000 0.000000 0.000000 0.000000 0.000000 0.000000 0.000000 0.000000 0.000000 0.000000 0.000000 0.000000 0.000000 0.000000 0.000000 0.000000 0.000000 0.000000 0.000000 0.000000 23.177756 23.177756 23.177756 23.177756 23.177756 23.177756 23.177756 23.177756 23.177756 23.177756 0.000000 0.000000 0.000000 0.000000
0.000000 0.000000 0.000000 0.000000 0.000000 0.000000 0.000000 0.000000 0.000000 0.000000 0.000000 0.000000 0.000000 0.000000 0.000000 0.000000 0.000000 0.000000 0.000000 0.000000 0.000000 0.000000 0.000000 0.000000 0.000000 0.000000 0.000000 0.000000 0.000000 0.000000 0.000000 0.000000 0.000000 0.000000 0.000000 0.000000 0.000000 0.000000 0.000000 0.000000 0.000000 0.000000 0.000000 0.000000 0.000000 0.000000 0.000000 0.000000 0.000000 0.000000 0.000000 0.000000 0.000000 0.000000 0.000000 0.000000 0.000000 0.000000 0.000000 0.000000 0.000000 0.000000 0.000000 0.000000 0.000000 0.000000 0.000000 0.000000 0.000000 0.000000 0.000000 0.000000 0.000000 0.000000 0.000000 0.000000 0.000000 0.000000 0.000000 0.000000 0.000000 0.000000 0.000000 0.000000 0.000000 0.000000 0.000000 0.000000 0.000000 23.177756 23.177756 23.177756 23.177756 23.177756 23.177756 23.177756 23.177756 23.177756 23.177756 0.000000 0.000000 0.000000 0.000000
0.000000 0.000000 0.000000 0.000000 0.000000 0.000000 0.000000 0.000000 0.000000 0.000000 0.000000 0.000000 0.000000 0.000000 0.000000 0.000000 0.000000 0.000000 0.000000 0.000000 0.000000 0.000000 0.000000 0.000000 0.000000 0.000000 0.000000 0.000000 0.000000 0.000000 0.000000 0.000000 0.000000 0.000000 0.000000 0.000000 0.000000 0.000000 0.000000 0.000000 0.000000 0.000000 0.000000 0.000000 0.000000 0.000000 0.000000 0.000000 0.000000 0.000000 0.000000 0.000000 0.000000 0.000000 0.000000 0.000000 0.000000 0.000000 0.000000 0.000000 0.000000 0.000000 0.000000 0.000000 0.000000 0.000000 0.000000 0.000000 0.000000 0.000000 0.000000 0.000000 0.000000 0.000000 0.000000 0.000000 0.000000 0.000000 0.000000 0.000000 0.000000 0.000000 0.000000 0.000000 0.000000 0.000000 0.000000 0.000000 0.000000 23.177756 23.177756 23.177756 23.177756 23.177756 23.177756 23.177756 23.177756 23.177756 23.177756 0.000000 0.000000 0.000000 0.000000
0.000000 0.000000 0.000000 0.000000 0.000000 0.000000 0.000000 0.000000 0.000000 0.000000 0.000000 0.000000 0.000000 0.000000 0.000000 0.000000 0.000000 0.000000 0.000000 0.000000 0.000000 0.000000 0.000000 0.000000 0.000000 0.000000 0.000000 0.000000 0.000000 0.000000 0.000000 0.000000 0.000000 0.000000 0.000000 0.000000 0.000000 0.000000 0.000000 0.000000 0.000000 0.000000 0.000000 0.000000 0.000000 0.000000 0.000000 0.000000 0.000000 0.000000 0.000000 0.000000 0.000000 0.000000 0.000000 0.000000 0.000000 0.000000 0.000000 0.000000 0.000000 0.000000 0.000000 0.000000 0.000000 0.000000 0.000000 0.000000 0.000000 0.000000 0.000000 0.000000 0.000000 0.000000 0.000000 0.000000 0.000000 0.000000 0.000000 0.000000 0.000000 0.000000 0.000000 0.000000 0.000000 0.000000 0.000000 0.000000 0.000000 23.177756 23.177756 23.177756 23.177756 23.177756 23.177756 23.177756 23.177756 23.177756 23.177756 0.000000 0.000000 0.000000 0.000000
0.000000 0.000000 0.000000 0.000000 0.000000 0.000000 0.000000 0.000000 0.000000 0.000000 0.000000 0.000000 0.000000 0.000000 0.000000 0.000000 0.000000 0.000000 0.000000 0.000000 0.000000 0.000000 0.000000 0.000000 0.000000 0.000000 0.000000 0.000000 0.000000 0.000000 0.000000 0.000000 0.000000 0.000000 0.000000 0.000000 0.000000 0.000000 0.000000 0.000000 0.000000 0.000000 0.000000 0.000000 0.000000 0.000000 0.000000 0.000000 0.000000 0.000000 0.000000 0.000000 0.000000 0.000000 0.000000 0.000000 0.000000 0.000000 0.000000 0.000000 0.000000 0.000000 0.000000 0.000000 0.000000 0.000000 0.000000 0.000000 0.000000 0.000000 0.000000 0.000000 0.000000 0.000000 0.000000 0.000000 0.000000 0.000000 0.000000 0.000000 0.000000 0.000000 0.000000 0.000000 0.000000 0.000000 0.000000 0.000000 0.000000 23.177756 23.177756 23.177756 23.177756 23.177756 23.177756 23.177756 23.177756 23.177756 23.177756 0.000000 0.000000 0.000000 0.000000
0.000000 0.000000 0.000000 0.000000 0.000000 0.000000 0.000000 0.000000 0.000000 0.000000 0.000000 0.000000 0.000000 0.000000 0.000000 0.000000 0.000000 0.000000 0.000000 0.000000 0.000000 0.000000 0.000000 0.000000 0.000000 0.000000 0.000000 0.000000 0.000000 0.000000 0.000000 0.000000 0.000000 0.000000 0.000000 0.000000 0.000000 0.000000 0.000000 0.000000 0.000000 0.000000 0.000000 0.000000 0.000000 0.000000 0.000000 0.000000 0.000000 0.000000 0.000000 0.000000 0.000000 0.000000 0.000000 0.000000 0.000000 0.000000 0.000000 0.000000 0.000000 0.000000 0.000000 0.000000 0.000000 0.000000 0.000000 0.000000 0.000000 0.000000 0.000000 0.000000 0.000000 0.000000 0.000000 0.000000 0.000000 0.000000 0.000000 0.000000 0.000000 0.000000 0.000000 0.000000 0.000000 0.000000 0.000000 0.000000 0.000000 23.177756 23.177756 23.177756 23.177756 23.177756 23.177756 23.177756 23.177756 23.177756 23.177756 0.000000 0.000000 0.000000 0.000000
0.000000 0.000000 0.000000 0.000000 0.000000 0.000000 0.000000 0.000000 0.000000 0.000000 0.000000 0.000000 0.000000 0.000000 0.000000 0.000000 0.000000 0.000000 0.000000 0.000000 0.000000 0.000000 0.000000 0.000000 0.000000 0.000000 0.000000 0.000000 0.000000 0.000000 0.000000 0.000000 0.000000 0.000000 0.000000 0.000000 0.000000 0.000000 0.000000 0.000000 0.000000 0.000000 0.000000 0.000000 0.000000 0.000000 0.000000 0.000000 0.000000 0.000000 0.000000 0.000000 0.000000 0.000000 0.000000 0.000000 0.000000 0.000000 0.000000 0.000000 0.000000 0.000000 0.000000 0.000000 0.000000 0.000000 0.000000 0.000000 0.000000 0.000000 0.000000 0.000000 0.000000 0.000000 0.000000 0.000000 0.000000 0.000000 0.000000 0.000000 0.000000 0.000000 0.000000 0.000000 0.000000 0.000000 0.000000 0.000000 0.000000 23.177756 23.177756 23.177756 23.177756 23.177756 23.177756 23.177756 23.177756 23.177756 23.177756 0.000000 0.000000 0.000000 0.000000
0.000000 0.000000 0.000000 0.000000 0.000000 0.000000 0.000000 0.000000 0.000000 0.000000 0.000000 0.000000 0.000000 0.000000 0.000000 0.000000 0.000000 0.000000 0.000000 0.000000 0.000000 0.000000 0.000000 0.000000 0.000000 0.000000 0.000000 0.000000 0.000000 0.000000 0.000000 0.000000 0.000000 0.000000 0.000000 0.000000 0.000000 0.000000 0.000000 0.000000 0.000000 0.000000 0.000000 0.000000 0.000000 0.000000 0.000000 0.000000 0.000000 0.000000 0.000000 0.000000 0.000000 0.000000 0.000000 0.000000 0.000000 0.000000 0.000000 0.000000 0.000000 0.000000 0.000000 0.000000 0.000000 0.000000 0.000000 0.000000 0.000000 0.000000 0.000000 0.000000 0.000000 0.000000 0.000000 0.000000 0.000000 0.000000 0.000000 0.000000 0.000000 0.000000 0.000000 0.000000 0.000000 0.000000 0.000000 0.000000 0.000000 0.000000 0.000000 0.000000 0.000000 0.000000 0.000000 0.000000 0.000000 0.000000 0.000000 0.000000 0.000000 0.000000 0.000000
0.000000 0.000000 0.000000 0.000000 0.000000 0.000000 0.000000 0.000000 0.000000 0.000000 0.000000 0.000000 0.000000 0.000000 0.000000 0.000000 0.000000 0.000000 0.000000 0.000000 0.000000 0.000000 0.000000 0.000000 0.000000 0.000000 0.000000 0.000000 0.000000 0.000000 0.000000 0.000000 0.000000 0.000000 0.000000 0.000000 0.000000 0.000000 0.000000 0.000000 0.000000 0.000000 0.000000 0.000000 0.000000 0.000000 0.000000 0.000000 0.000000 0.000000 0.000000 0.000000 0.000000 0.000000 0.000000 0.000000 0.000000 0.000000 0.000000 0.000000 0.000000 0.000000 0.000000 0.000000 0.000000 0.000000 0.000000 0.000000 0.000000 0.000000 0.000000 0.000000 0.000000 0.000000 0.000000 0.000000 0.000000 0.000000 0.000000 0.000000 0.000000 0.000000 0.000000 0.000000 0.000000 0.000000 0.000000 0.000000 0.000000 0.000000 0.000000 0.000000 0.000000 0.000000 0.000000 0.000000 0.000000 0.000000 0.000000 0.000000 0.000000 0.000000 0.000000
0.000000 0.000000 0.000000 0.000000 0.000000 0.000000 0.000000 0.000000 0.000000 0.000000 0.000000 0.000000 0.000000 0.000000 0.000000 0.000000 0.000000 0.000000 0.000000 0.000000 0.000000 0.000000 0.000000 0.000000 0.000000 0.000000 0.000000 0.000000 0.000000 0.000000 0.000000 0.000000 0.000000 0.000000 0.000000 0.000000 0.000000 0.000000 0.000000 0.000000 0.000000 0.000000 0.000000 0.000000 0.000000 0.000000 0.000000 0.000000 0.000000 0.000000 0.000000 0.000000 0.000000 0.000000 0.000000 0.000000 0.000000 0.000000 0.000000 0.000000 0.000000 0.000000 0.000000 0.000000 0.000000 0.000000 0.000000 0.000000 0.000000 0.000000 0.000000 0.000000 0.000000 0.000000 0.000000 0.000000 0.000000 0.000000 0.000000 0.000000 0.000000 0.000000 0.000000 0.000000 0.000000 0.000000 0.000000 0.000000 0.000000 0.000000 0.000000 0.000000 0.000000 0.000000 0.000000 0.000000 0.000000 0.000000 0.000000 0.000000 0.000000 0.000000 0.000000
0.000000 0.000000 0.000000 0.000000 0.000000 0.000000 0.000000 0.000000 0.000000 0.000000 0.000000 0.000000 0.000000 0.000000 0.000000 0.000000 0.000000 0.000000 0.000000 0.000000 0.000000 0.000000 0.000000 0.000000 0.000000 0.000000 0.000000 0.000000 0.000000 0.000000 0.000000 0.000000 0.000000 0.000000 0.000000 0.000000 0.000000 0.000000 0.000000 0.000000 0.000000 0.000000 0.000000 0.000000 0.000000 0.000000 0.000000 0.000000 0.000000 0.000000 0.000000 0.000000 0.000000 0.000000 0.000000 0.000000 0.000000 0.000000 0.000000 0.000000 0.000000 0.000000 0.000000 0.000000 0.000000 0.000000 0.000000 0.000000 0.000000 0.000000 0.000000 0.000000 0.000000 0.000000 0.000000 0.000000 0.000000 0.000000 0.000000 0.000000 0.000000 0.000000 0.000000 0.000000 0.000000 0.000000 0.000000 0.000000 0.000000 0.000000 0.000000 0.000000 0.000000 0.000000 0.000000 0.000000 0.000000 0.000000 0.000000 0.000000 0.000000 0.000000 0.000000
