0.000000 0.000000 0.000000 0.000000 0.000000 0.000000 0.000000 0.000000 0.000000 0.000000 0.000000 0.000000 0.000000 0.000000 0.000000 0.000000 0.000000 0.000000 0.000000 0.000000 0.000000 0.000000 0.000000 0.000000 0.000000 0.000000 0.000000 0.000000 0.000000 0.000000 0.000000 0.000000 0.000000 0.000000 0.000000 0.000000 0.000000 0.000000 0.000000 0.000000 0.000000 0.000000 0.000000 0.000000 0.000000 0.000000 0.000000 0.000000 0.000000 0.000000 0.000000 0.000000 0.000000 0.000000 0.000000 0.000000 0.000000 0.000000 0.000000 0.000000 0.000000 0.000000 0.000000 0.000000 0.000000 0.000000 0.000000 0.000000 0.000000 0.000000 0.000000 0.000000 0.000000 0.000000 0.000000 0.000000 0.000000 0.000000 0.000000 0.000000 0.000000 0.000000 0.000000 0.000000 0.000000 0.000000 0.000000 0.000000 0.000000 0.000000 0.000000 0.000000 0.000000 0.000000 0.000000 0.000000 0.000000 0.000000 0.000000 0.000000 0.000000 0.000000 0.000000
0.000000 0.000000 0.000000 0.000000 0.000000 0.000000 0.000000 0.000000 0.000000 0.000000 0.000000 0.000000 0.000000 0.000000 0.000000 0.000000 0.000000 0.000000 0.000000 0.000000 0.000000 0.000000 0.000000 0.000000 0.000000 0.000000 0.000000 0.000000 0.000000 0.000000 0.000000 0.000000 0.000000 0.000000 0.000000 0.000000 0.000000 0.000000 0.000000 0.000000 0.000000 0.000000 0.000000 0.000000 0.000000 0.000000 0.000000 0.000000 0.000000 0.000000 0.000000 0.000000 0.000000 0.000000 0.000000 0.000000 0.000000 0.000000 0.000000 0.000000 0.000000 0.000000 0.000000 0.000000 0.000000 0.000000 0.000000 0.000000 0.000000 0.000000 0.000000 0.000000 0.000000 0.000000 0.000000 0.000000 0.000000 0.000000 0.000000 0.000000 0.000000 0.000000 0.000000 0.000000 0.000000 0.000000 0.000000 0.000000 0.000000 0.000000 0.000000 0.000000 0.000000 0.000000 0.000000 0.000000 0.000000 0.000000 0.000000 0.000000 0.000000 0.000000 0.000000
0.000000 0.000000 0.000000 0.000000 0.000000 0.000000 0.000000 0.000000 0.000000 0.000000 0.000000 0.000000 0.000000 0.000000 0.000000 0.000000 0.000000 0.000000 0.000000 0.000000 0.000000 0.000000 0.000000 0.000000 0.000000 0.000000 0.000000 0.000000 0.000000 0.000000 0.000000 0.000000 0.000000 0.000000 0.000000 0.000000 0.000000 0.000000 0.000000 0.000000 0.000000 0.000000 0.000000 0.000000 0.000000 0.000000 0.000000 0.000000 0.000000 0.000000 0.000000 0.000000 0.000000 0.000000 0.000000 0.000000 0.000000 0.000000 0.000000 0.000000 0.000000 0.000000 0.000000 0.000000 0.000000 0.000000 0.000000 0.000000 0.000000 0.000000 0.000000 0.000000 0.000000 0.000000 0.000000 0.000000 0.000000 0.000000 0.000000 0.000000 0.000000 0.000000 0.000000 0.000000 0.000000 0.000000 0.000000 0.000000 0.000000 0.000000 0.000000 0.000000 0.000000 0.000000 0.000000 0.000000 0.000000 0.000000 0.000000 0.000000 0.000000 0.000000 0.000000
0.000000 0.000000 0.000000 0.000000 0.000000 0.000000 0.000000 0.000000 0.000000 0.000000 0.000000 0.000000 0.000000 0.000000 0.000000 0.000000 0.000000 0.000000 0.000000 0.000000 0.000000 0.000000 0.000000 0.000000 0.000000 0.000000 0.000000 0.000000 0.000000 0.000000 0.000000 0.000000 0.000000 0.000000 0.000000 0.000000 0.000000 0.000000 0.000000 0.000000 0.000000 0.000000 0.000000 0.000000 0.000000 0.000000 0.000000 0.000000 0.000000 0.000000 0.000000 0.000000 0.000000 0.000000 0.000000 0.000000 0.000000 0.000000 0.000000 0.000000 0.000000 0.000000 0.000000 0.000000 0.000000 0.000000 0.000000 0.000000 0.000000 0.000000 0.000000 0.000000 0.000000 0.000000 0.000000 0.000000 0.000000 0.000000 0.000000 0.000000 0.000000 0.000000 0.000000 0.000000 0.000000 0.000000 0.000000 0.000000 0.000000 0.000000 0.000000 0.000000 0.000000 0.000000 0.000000 0.000000 0.000000 0.000000 0.000000 0.000000 0.000000 0.000000 0.000000
0.000000 0.000000 0.000000 0.000000 29.239583 29.239583 29.239583 29.239583 29.239583 29.239583 29.239583 29.239583 29.239583 29.239583 29.239583 29.239583 29.239583 29.239583 29.239583 0.000000 0.000000 0.000000 0.000000 0.000000 0.000000 0.000000 23.128224 23.128224 23.128224 23.128224 23.128224 23.128224 23.128224 23.128224 23.128224 23.128224 23.128224 23.128224 0.000000 0.000000 0.000000 0.000000 0.000000 0.000000 0.000000 0.000000 0.000000 0.000000 0.000000 0.000000 0.000000 0.000000 0.000000 0.000000 0.000000 0.000000 0.000000 0.000000 0.000000 0.000000 0.000000 0.000000 0.000000 0.000000 0.000000 0.000000 0.000000 0.000000 0.000000 0.000000 0.000000 0.000000 0.000000 0.000000 0.000000 0.000000 0.000000 0.000000 0.000000 0.000000 0.000000 0.000000 0.000000 0.000000 0.000000 0.000000 0.000000 0.000000 0.000000 17.028478 17.028478 17.028478 17.028478 17.028478 17.028478 17.028478 17.028478 17.028478 17.028478 0.000000 0.000000 0.000000 0.000000
0.000000 0.000000 0.000000 0.000000 29.239583 29.239583 29.239583 29.239583 29.239583 29.239583 29.239583 29.239583 29.239583 29.239583 29.239583 29.239583 29.239583 29.239583 29.239583 0.000000 0.000000 0.000000 0.000000 0.000000 0.000000 0.000000 23.128224 23.128224 23.128224 23.128224 23.128224 23.128224 23.128224 23.128224 23.128224 23.128224 23.128224 23.128224 0.000000 0.000000 0.000000 0.000000 0.000000 0.000000 0.000000 0.000000 0.000000 0.000000 0.000000 0.000000 0.000000 0.000000 0.000000 0.000000 0.000000 0.000000 0.000000 0.000000 0.000000 0.000000 0.000000 0.000000 0.000000 0.000000 0.000000 0.000000 0.000000 0.000000 0.000000 0.000000 0.000000 0.000000 0.000000 0.000000 0.000000 0.000000 0.000000 0.000000 0.000000 0.000000 0.000000 0.000000 0.000000 0.000000 0.000000 0.000000 0.000000 0.000000 0.000000 17.028478 17.028478 17.028478 17.028478 17.028478 17.028478 17.028478 17.028478 17.028478 17.028478 0.000000 0.000000 0.000000 0.000000
0.000000 0.000000 0.000000 0.000000 29.239583 29.239583 29.239583 29.239583 29.239583 29.239583 29.239583 29.239583 29.239583 29.239583 29.239583 29.239583 29.239583 29.239583 29.239583 0.000000 0.000000 0.000000 0.000000 0.000000 0.000000 0.000000 23.128224 23.128224 23.128224 23.128224 23.128224 23.128224 23.128224 23.128224 23.128224 23.128224 23.128224 23.128224 0.000000 0.000000 0.000000 0.000000 0.000000 0.000000 0.000000 23.261902 23.261902 23.261902 23.261902 23.261902 23.261902 23.261902 23.261902 0.000000 0.000000 0.000000 40.372110 40.372110 40.372110 40.372110 40.372110 40.372110 40.372110 40.372110 40.372110 40.372110 40.372110 40.372110 40.372110 40.372110 0.000000 0.000000 0.000000 0.000000 0.000000 0.000000 0.000000 0.000000 0.000000 10.989263 10.989263 10.989263 0.000000 0.000000 0.000000 0.000000 0.000000 0.000000 0.000000 17.028478 17.028478 17.028478 17.028478 17.028478 17.028478 17.028478 17.028478 17.028478 17.028478 0.000000 0.000000 0.000000 0.000000
0.000000 0.000000 0.000000 0.000000 29.239583 29.239583 29.239583 29.239583 29.239583 29.239583 29.239583 29.239583 29.239583 29.239583 29.239583 29.239583 29.239583 29.239583 29.239583 0.000000 0.000000 0.000000 0.000000 0.000000 0.000000 0.000000 23.128224 23.128224 23.128224 23.128224 23.128224 23.128224 23.128224 23.128224 23.128224 23.128224 23.128224 23.128224 0.000000 0.000000 0.000000 0.000000 0.000000 0.000000 0.000000 23.261902 23.261902 23.261902 23.261902 23.261902 23.261902 23.261902 23.261902 0.000000 0.000000 0.000000 40.372110 40.372110 40.372110 40.372110 40.372110 40.372110 40.372110 40.372110 40.372110 40.372110 40.372110 40.372110 40.372110 40.372110 0.000000 0.000000 0.000000 0.000000 0.000000 0.000000 0.000000 0.000000 0.000000 10.989263 10.989263 10.989263 0.000000 0.000000 0.000000 0.000000 0.000000 0.000000 0.000000 17.028478 17.028478 17.028478 17.028478 17.028478 17.028478 17.028478 17.028478 17.028478 17.028478 0.000000 0.000000 0.000000 0.000000
0.000000 0.000000 0.000000 0.000000 29.239583 29.239583 29.239583 29.239583 29.239583 29.239583 29.239583 29.239583 29.239583 29.239583 29.239583 29.239583 29.239583 29.239583 29.239583 0.000000 0.000000 0.000000 0.000000 0.000000 0.000000 0.000000 23.128224 23.128224 23.128224 23.128224 23.128224 23.128224 23.128224 23.128224 23.128224 23.128224 23.128224 23.128224 0.000000 0.000000 0.000000 0.000000 0.000000 0.000000 0.000000 23.261902 23.261902 23.261902 23.261902 23.261902 23.261902 23.261902 23.261902 0.000000 0.000000 0.000000 40.372110 40.372110 40.372110 40.372110 40.372110 40.372110 40.372110 40.372110 40.372110 40.372110 40.372110 40.372110 40.372110 40.372110 0.000000 0.000000 0.000000 0.000000 0.000000 0.000000 0.000000 0.000000 0.000000 10.989263 10.989263 10.989263 0.000000 0.000000 0.000000 0.000000 0.000000 0.000000 0.000000 17.028478 17.028478 17.028478 17.028478 17.028478 17.028478 17.028478 17.028478 17.028478 17.028478 0.000000 0.000000 0.000000 0.000000
0.000000 0.000000 0.000000 0.000000 29.239583 29.239583 29.239583 29.239583 29.239583 29.239583 29.239583 29.239583 29.239583 29.239583 29.239583 29.239583 29.239583 29.239583 29.239583 0.000000 0.000000 0.000000 0.000000 0.000000 0.000000 0.000000 23.128224 23.128224 23.128224 23.128224 23.128224 23.128224 23.128224 23.128224 23.128224 23.128224 23.128224 23.128224 0.000000 0.000000 0.000000 0.000000 0.000000 0.000000 0.000000 23.261902 23.261902 23.261902 23.261902 23.261902 23.261902 23.261902 23.261902 0.000000 0.000000 0.000000 40.372110 40.372110 40.372110 40.372110 40.372110 40.372110 40.372110 40.372110 40.372110 40.372110 40.372110 40.372110 40.372110 40.372110 0.000000 0.000000 0.000000 0.000000 0.000000 0.000000 0.000000 0.000000 0.000000 10.989263 10.989263 10.989263 0.000000 0.000000 0.000000 0.000000 0.000000 0.000000 0.000000 17.028478 17.028478 17.028478 17.028478 17.028478 17.028478 17.028478 17.028478 17.028478 17.028478 0.000000 0.000000 0.000000 0.000000
0.000000 0.000000 0.000000 0.000000 29.239583 29.239583 29.239583 29.239583 29.239583 29.239583 29.239583 29.239583 29.239583 29.239583 29.239583 29.239583 29.239583 29.239583 29.239583 0.000000 0.000000 0.000000 0.000000 0.000000 0.000000 0.000000 23.128224 23.128224 23.128224 23.128224 23.128224 23.128224 23.128224 23.128224 23.128224 23.128224 23.128224 23.128224 0.000000 0.000000 0.000000 0.000000 0.000000 0.000000 0.000000 23.261902 23.261902 23.261902 23.261902 23.261902 23.261902 23.261902 23.261902 0.000000 0.000000 0.000000 40.372110 40.372110 40.372110 40.372110 40.372110 40.372110 40.372110 40.372110 40.372110 40.372110 40.372110 40.372110 40.372110 40.372110 0.000000 0.000000 0.000000 0.000000 0.000000 0.000000 0.000000 0.000000 0.000000 10.989263 10.989263 10.989263 0.000000 0.000000 0.000000 0.000000 0.000000 0.000000 0.000000 17.028478 17.028478 17.028478 17.028478 17.028478 17.028478 17.028478 17.028478 17.028478 17.028478 0.000000 0.000000 0.000000 0.000000
0.000000 0.000000 0.000000 0.000000 29.239583 29.239583 29.239583 29.239583 29.239583 29.239583 29.239583 29.239583 29.239583 29.239583 29.239583 29.239583 29.239583 29.239583 29.239583 0.000000 0.000000 0.000000 0.000000 0.000000 0.000000 0.000000 23.128224 23.128224 23.128224 23.128224 23.128224 23.128224 23.128224 23.128224 23.128224 23.128224 23.128224 23.128224 0.000000 0.000000 0.000000 0.000000 0.000000 0.000000 0.000000 23.261902 23.261902 23.261902 23.261902 23.261902 23.261902 23.261902 23.261902 0.000000 0.000000 0.000000 40.372110 40.372110 40.372110 40.372110 40.372110 40.372110 40.372110 40.372110 40.372110 40.372110 40.372110 40.372110 40.372110 40.372110 0.000000 0.000000 0.000000 0.000000 0.000000 0.000000 0.000000 0.000000 0.000000 10.989263 10.989263 10.989263 0.000000 0.000000 0.000000 0.000000 0.000000 0.000000 0.000000 21.608905 21.608905 21.608905 21.608905 21.608905 21.608905 21.608905 21.608905 21.608905 21.608905 0.000000 0.000000 0.000000 0.000000
0.000000 0.000000 0.000000 0.000000 27.540344 27.540344 27.540344 27.540344 27.540344 27.540344 27.540344 27.540344 27.540344 27.540344 27.540344 27.540344 27.540344 27.540344 27.540344 0.000000 0.000000 0.000000 0.000000 0.000000 0.000000 0.000000 21.784143 21.784143 21.784143 21.784143 21.784143 21.784143 21.784143 21.784143 21.784143 21.784143 21.784143 21.784143 0.000000 0.000000 0.000000 0.000000 0.000000 0.000000 0.000000 23.261902 23.261902 23.261902 23.261902 23.261902 23.261902 23.261902 23.261902 0.000000 0.000000 0.000000 40.372110 40.372110 40.372110 40.372110 40.372110 40.372110 40.372110 40.372110 40.372110 40.372110 40.372110 40.372110 40.372110 40.372110 0.000000 0.000000 0.000000 0.000000 0.000000 0.000000 0.000000 0.000000 0.000000 10.989263 10.989263 10.989263 0.000000 0.000000 0.000000 0.000000 0.000000 0.000000 0.000000 21.608905 21.608905 21.608905 21.608905 21.608905 21.608905 21.608905 21.608905 21.608905 21.608905 0.000000 0.000000 0.000000 0.000000
0.000000 0.000000 0.000000 0.000000 27.540344 27.540344 27.540344 27.540344 27.540344 27.540344 27.540344 27.540344 27.540344 27.540344 27.540344 27.540344 27.540344 27.540344 27.540344 0.000000 0.000000 0.000000 0.000000 0.000000 0.000000 0.000000 21.784143 21.784143 21.784143 21.784143 21.784143 21.784143 21.784143 21.784143 21.784143 21.784143 21.784143 21.784143 0.000000 0.000000 0.000000 0.000000 0.000000 0.000000 0.000000 23.261902 23.261902 23.261902 23.261902 23.261902 23.261902 23.261902 23.261902 0.000000 0.000000 0.000000 40.372110 40.372110 40.372110 40.372110 40.372110 40.372110 40.372110 40.372110 40.372110 40.372110 40.372110 40.372110 40.372110 40.372110 0.000000 0.000000 0.000000 0.000000 0.000000 0.000000 0.000000 0.000000 0.000000 10.989263 10.989263 10.989263 0.000000 0.000000 0.000000 0.000000 0.000000 0.000000 0.000000 21.608905 21.608905 21.608905 21.608905 21.608905 21.608905 21.608905 21.608905 21.608905 21.608905 0.000000 0.000000 0.000000 0.000000
0.000000 0.000000 0.000000 0.000000 27.540344 27.540344 27.540344 27.540344 27.540344 27.540344 27.540344 27.540344 27.540344 27.540344 27.540344 27.540344 27.540344 27.540344 27.540344 0.000000 0.000000 0.000000 0.000000 0.000000 0.000000 0.000000 21.784143 21.784143 21.784143 21.784143 21.784143 21.784143 21.784143 21.784143 21.784143 21.784143 21.784143 21.784143 0.000000 0.000000 0.000000 0.000000 0.000000 0.000000 0.000000 23.261902 23.261902 23.261902 23.261902 23.261902 23.261902 23.261902 23.261902 0.000000 0.000000 0.000000 40.372110 40.372110 40.372110 40.372110 40.372110 40.372110 40.372110 40.372110 40.372110 40.372110 40.372110 40.372110 40.372110 40.372110 0.000000 0.000000 0.000000 0.000000 0.000000 0.000000 0.000000 0.000000 0.000000 10.989263 10.989263 10.989263 0.000000 0.000000 0.000000 0.000000 0.000000 0.000000 0.000000 21.608905 21.608905 21.608905 21.608905 21.608905 21.608905 21.608905 21.608905 21.608905 21.608905 0.000000 0.000000 0.000000 0.000000
0.000000 0.000000 0.000000 0.000000 27.540344 27.540344 27.540344 27.540344 27.540344 27.540344 27.540344 27.540344 27.540344 27.540344 27.540344 27.540344 27.540344 27.540344 27.540344 0.000000 0.000000 0.000000 0.000000 0.000000 0.000000 0.000000 21.784143 21.784143 21.784143 21.784143 21.784143 21.784143 21.784143 21.784143 21.784143 21.784143 21.784143 21.784143 0.000000 0.000000 0.000000 0.000000 0.000000 0.000000 0.000000 23.261902 23.261902 23.261902 23.261902 23.261902 23.261902 23.261902 23.261902 0.000000 0.000000 0.000000 40.372110 40.372110 40.372110 40.372110 40.372110 40.372110 40.372110 40.372110 40.372110 40.372110 40.372110 40.372110 40.372110 40.372110 0.000000 0.000000 0.000000 0.000000 0.000000 0.000000 0.000000 0.000000 0.000000 10.989263 10.989263 10.989263 0.000000 0.000000 0.000000 0.000000 0.000000 0.000000 0.000000 21.608905 21.608905 21.608905 21.608905 21.608905 21.608905 21.608905 21.608905 21.608905 21.608905 0.000000 0.000000 0.000000 0.000000
0.000000 0.000000 0.000000 0.000000 27.540344 27.540344 27.540344 27.540344 27.540344 27.540344 27.540344 27.540344 27.540344 27.540344 27.540344 27.540344 27.540344 27.540344 27.540344 0.000000 0.000000 0.000000 0.000000 0.000000 0.000000 0.000000 21.784143 21.784143 21.784143 21.784143 21.784143 21.784143 21.784143 21.784143 21.784143 21.784143 21.784143 21.784143 0.000000 0.000000 0.000000 0.000000 0.000000 0.000000 0.000000 23.261902 23.261902 23.261902 23.261902 23.261902 23.261902 23.261902 23.261902 0.000000 0.000000 0.000000 40.372110 40.372110 40.372110 40.372110 40.372110 40.372110 40.372110 40.372110 40.372110 40.372110 40.372110 40.372110 40.372110 40.372110 0.000000 0.000000 0.000000 0.000000 0.000000 0.000000 0.000000 0.000000 0.000000 10.989263 10.989263 10.989263 0.000000 0.000000 0.000000 0.000000 0.000000 0.000000 0.000000 21.608905 21.608905 21.608905 21.608905 21.608905 21.608905 21.608905 21.608905 21.608905 21.608905 0.000000 0.000000 0.000000 0.000000
0.000000 0.000000 0.000000 0.000000 27.540344 27.540344 27.540344 27.540344 27.540344 27.540344 27.540344 27.540344 27.540344 27.540344 27.540344 27.540344 27.540344 27.540344 27.540344 0.000000 0.000000 0.000000 0.000000 0.000000 0.000000 0.000000 21.784143 21.784143 21.784143 21.784143 21.784143 21.784143 21.784143 21.784143 21.784143 21.784143 21.784143 21.784143 0.000000 0.000000 0.000000 0.000000 0.000000 0.000000 0.000000 23.261902 23.261902 23.261902 23.261902 23.261902 23.261902 23.261902 23.261902 0.000000 0.000000 0.000000 40.372110 40.372110 40.372110 40.372110 40.372110 40.372110 40.372110 40.372110 40.372110 40.372110 40.372110 40.372110 40.372110 40.372110 0.000000 0.000000 0.000000 0.000000 0.000000 0.000000 0.000000 0.000000 0.000000 10.989263 10.989263 10.989263 0.000000 0.000000 0.000000 0.000000 0.000000 0.000000 0.000000 21.608905 21.608905 21.608905 21.608905 21.608905 21.608905 21.608905 21.608905 21.608905 21.608905 0.000000 0.000000 0.000000 0.000000
0.000000 0.000000 0.000000 0.000000 27.540344 27.540344 27.540344 27.540344 27.540344 27.540344 27.540344 27.540344 27.540344 27.540344 27.540344 27.540344 27.540344 27.540344 27.540344 0.000000 0.000000 0.000000 0.000000 0.000000 0.000000 0.000000 21.784143 21.784143 21.784143 21.784143 21.784143 21.784143 21.784143 21.784143 21.784143 21.784143 21.784143 21.784143 0.000000 0.000000 0.000000 0.000000 0.000000 0.000000 0.000000 0.000000 0.000000 0.000000 0.000000 0.000000 0.000000 0.000000 0.000000 0.000000 0.000000 0.000000 0.000000 0.000000 0.000000 0.000000 0.000000 0.000000 0.000000 0.000000 0.000000 0.000000 0.000000 0.000000 0.000000 0.000000 0.000000 0.000000 0.000000 0.000000 0.000000 0.000000 0.000000 0.000000 0.000000 0.000000 0.000000 0.000000 0.000000 0.000000 0.000000 0.000000 0.000000 0.000000 0.000000 21.608905 21.608905 21.608905 21.608905 21.608905 21.608905 21.608905 21.608905 21.608905 21.608905 0.000000 0.000000 0.000000 0.000000
0.000000 0.000000 0.000000 0.000000 27.540344 27.540344 27.540344 27.540344 27.540344 27.540344 27.540344 27.540344 27.540344 27.540344 27.540344 27.540344 27.540344 27.540344 27.540344 0.000000 0.000000 0.000000 0.000000 0.000000 0.000000 0.000000 21.784143 21.784143 21.784143 21.784143 21.784143 21.784143 21.784143 21.784143 21.784143 21.784143 21.784143 21.784143 0.000000 0.000000 0.000000 0.000000 0.000000 0.000000 0.000000 0.000000 0.000000 0.000000 0.000000 0.000000 0.000000 0.000000 0.000000 0.000000 0.000000 0.000000 0.000000 0.000000 0.000000 0.000000 0.000000 0.000000 0.000000 0.000000 0.000000 0.000000 0.000000 0.000000 0.000000 0.000000 0.000000 0.000000 0.000000 0.000000 0.000000 0.000000 0.000000 0.000000 0.000000 0.000000 0.000000 0.000000 0.000000 0.000000 0.000000 0.000000 0.000000 0.000000 0.000000 21.608905 21.608905 21.608905 21.608905 21.608905 21.608905 21.608905 21.608905 21.608905 21.608905 0.000000 0.000000 0.000000 0.000000
0.000000 0.000000 0.000000 0.000000 0.000000 0.000000 0.000000 0.000000 0.000000 0.000000 0.000000 0.000000 0.000000 0.000000 0.000000 0.000000 0.000000 0.000000 0.000000 0.000000 0.000000 0.000000 0.000000 0.000000 0.000000 0.000000 0.000000 0.000000 0.000000 0.000000 0.000000 0.000000 0.000000 0.000000 0.000000 0.000000 0.000000 0.000000 0.000000 0.000000 0.000000 0.000000 0.000000 0.000000 0.000000 0.000000 0.000000 0.000000 0.000000 0.000000 0.000000 0.000000 0.000000 0.000000 0.000000 0.000000 0.000000 0.000000 0.000000 0.000000 0.000000 0.000000 0.000000 0.000000 0.000000 0.000000 0.000000 0.000000 0.000000 0.000000 0.000000 0.000000 0.000000 0.000000 0.000000 0.000000 0.000000 0.000000 0.000000 0.000000 0.000000 0.000000 0.000000 0.000000 0.000000 0.000000 0.000000 0.000000 0.000000 0.000000 0.000000 0.000000 0.000000 0.000000 0.000000 0.000000 0.000000 0.000000 0.000000 0.000000 0.000000 0.000000 0.000000
0.000000 0.000000 0.000000 0.000000 0.000000 0.000000 0.000000 0.000000 0.000000 0.000000 0.000000 0.000000 0.000000 0.000000 0.000000 0.000000 0.000000 0.000000 0.000000 0.000000 0.000000 0.000000 0.000000 0.000000 0.000000 0.000000 0.000000 0.000000 0.000000 0.000000 0.000000 0.000000 0.000000 0.000000 0.000000 0.000000 0.000000 0.000000 0.000000 0.000000 0.000000 0.000000 0.000000 0.000000 0.000000 0.000000 0.000000 0.000000 0.000000 0.000000 0.000000 0.000000 0.000000 0.000000 0.000000 0.000000 0.000000 0.000000 0.000000 0.000000 0.000000 0.000000 0.000000 0.000000 0.000000 0.000000 0.000000 0.000000 0.000000 0.000000 0.000000 0.000000 0.000000 0.000000 0.000000 0.000000 0.000000 0.000000 0.000000 0.000000 0.000000 0.000000 0.000000 0.000000 0.000000 0.000000 0.000000 0.000000 0.000000 0.000000 0.000000 0.000000 0.000000 0.000000 0.000000 0.000000 0.000000 0.000000 0.000000 0.000000 0.000000 0.000000 0.000000
0.000000 0.000000 0.000000 0.000000 0.000000 0.000000 0.000000 0.000000 0.000000 0.000000 0.000000 0.000000 0.000000 0.000000 0.000000 0.000000 0.000000 0.000000 0.000000 0.000000 0.000000 0.000000 0.000000 0.000000 0.000000 0.000000 0.000000 0.000000 0.000000 0.000000 0.000000 0.000000 0.000000 0.000000 0.000000 0.000000 0.000000 0.000000 0.000000 0.000000 0.000000 0.000000 0.000000 0.000000 0.000000 0.000000 0.000000 0.000000 0.000000 0.000000 0.000000 0.000000 0.000000 0.000000 0.000000 0.000000 0.000000 0.000000 0.000000 0.000000 0.000000 0.000000 0.000000 0.000000 0.000000 0.000000 0.000000 0.000000 0.000000 0.000000 0.000000 0.000000 0.000000 0.000000 0.000000 0.000000 0.000000 0.000000 0.000000 0.000000 0.000000 0.000000 0.000000 0.000000 0.000000 0.000000 0.000000 0.000000 0.000000 0.000000 0.000000 0.000000 0.000000 0.000000 0.000000 0.000000 0.000000 0.000000 0.000000 0.000000 0.000000 0.000000 0.000000
0.000000 0.000000 0.000000 0.000000 0.000000 0.000000 0.000000 0.000000 0.000000 0.000000 0.000000 0.000000 0.000000 0.000000 0.000000 0.000000 0.000000 0.000000 0.000000 0.000000 0.000000 0.000000 0.000000 0.000000 0.000000 0.000000 0.000000 0.000000 0.000000 0.000000 0.000000 0.000000 0.000000 0.000000 0.000000 0.000000 0.000000 0.000000 0.000000 0.000000 0.000000 0.000000 0.000000 0.000000 0.000000 0.000000 0.000000 0.000000 0.000000 0.000000 0.000000 0.000000 0.000000 0.000000 0.000000 0.000000 0.000000 0.000000 0.000000 0.000000 0.000000 0.000000 0.000000 0.000000 0.000000 0.000000 0.000000 0.000000 0.000000 0.000000 0.000000 0.000000 0.000000 0.000000 0.000000 0.000000 0.000000 0.000000 0.000000 0.000000 0.000000 0.000000 0.000000 0.000000 0.000000 0.000000 0.000000 0.000000 0.000000 0.000000 0.000000 0.000000 0.000000 0.000000 0.000000 0.000000 0.000000 0.000000 0.000000 0.000000 0.000000 0.000000 0.000000
0.000000 0.000000 0.000000 0.000000 0.000000 0.000000 0.000000 0.000000 0.000000 0.000000 0.000000 0.000000 0.000000 0.000000 0.000000 0.000000 0.000000 0.000000 0.000000 0.000000 0.000000 0.000000 0.000000 0.000000 0.000000 0.000000 0.000000 0.000000 0.000000 0.000000 0.000000 0.000000 0.000000 0.000000 0.000000 0.000000 0.000000 0.000000 0.000000 0.000000 0.000000 0.000000 0.000000 0.000000 0.000000 0.000000 0.000000 0.000000 0.000000 0.000000 0.000000 0.000000 0.000000 0.000000 0.000000 0.000000 0.000000 0.000000 0.000000 0.000000 0.000000 0.000000 0.000000 0.000000 0.000000 0.000000 0.000000 0.000000 0.000000 0.000000 0.000000 0.000000 0.000000 0.000000 0.000000 0.000000 0.000000 0.000000 0.000000 0.000000 0.000000 0.000000 0.000000 0.000000 0.000000 0.000000 0.000000 0.000000 0.000000 0.000000 0.000000 0.000000 0.000000 0.000000 0.000000 0.000000 0.000000 0.000000 0.000000 0.000000 0.000000 0.000000 0.000000
0.000000 0.000000 0.000000 0.000000 15.218012 15.218012 15.218012 15.218012 15.218012 15.218012 15.218012 15.218012 15.218012 15.218012 0.000000 0.000000 0.000000 0.000000 0.000000 0.000000 0.000000 0.000000 0.000000 0.000000 0.000000 0.000000 0.000000 0.000000 0.000000 0.000000 0.000000 0.000000 0.000000 0.000000 0.000000 0.000000 0.000000 0.000000 0.000000 0.000000 0.000000 0.000000 0.000000 0.000000 0.000000 0.000000 0.000000 0.000000 0.000000 0.000000 0.000000 0.000000 0.000000 0.000000 0.000000 0.000000 0.000000 0.000000 0.000000 0.000000 0.000000 0.000000 0.000000 0.000000 0.000000 0.000000 0.000000 0.000000 0.000000 0.000000 0.000000 0.000000 0.000000 0.000000 0.000000 0.000000 0.000000 0.000000 0.000000 0.000000 0.000000 0.000000 0.000000 0.000000 0.000000 0.000000 0.000000 0.000000 0.000000 15.455471 15.455471 15.455471 15.455471 15.455471 15.455471 15.455471 15.455471 15.455471 15.455471 0.000000 0.000000 0.000000 0.000000
0.000000 0.000000 0.000000 0.000000 15.218012 15.218012 15.218012 15.218012 15.218012 15.218012 15.218012 15.218012 15.218012 15.218012 0.000000 0.000000 0.000000 0.000000 0.000000 0.000000 0.000000 0.000000 0.000000 0.000000 0.000000 0.000000 0.000000 0.000000 0.000000 0.000000 0.000000 0.000000 0.000000 0.000000 0.000000 0.000000 0.000000 0.000000 0.000000 0.000000 0.000000 0.000000 0.000000 0.000000 0.000000 0.000000 0.000000 0.000000 0.000000 0.000000 0.000000 0.000000 0.000000 0.000000 0.000000 0.000000 0.000000 0.000000 0.000000 0.000000 0.000000 0.000000 0.000000 0.000000 0.000000 0.000000 0.000000 0.000000 0.000000 0.000000 0.000000 0.000000 0.000000 0.000000 0.000000 0.000000 0.000000 0.000000 0.000000 0.000000 0.000000 0.000000 0.000000 0.000000 0.000000 0.000000 0.000000 0.000000 0.000000 15.455471 15.455471 15.455471 15.455471 15.455471 15.455471 15.455471 15.455471 15.455471 15.455471 0.000000 0.000000 0.000000 0.000000
0.000000 0.000000 0.000000 0.000000 15.218012 15.218012 15.218012 15.218012 15.218012 15.218012 15.218012 15.218012 15.218012 15.218012 0.000000 0.000000 0.000000 0.000000 0.000000 0.000000 0.000000 0.000000 0.000000 0.000000 0.000000 0.000000 0.000000 0.000000 0.000000 0.000000 0.000000 0.000000 0.000000 0.000000 0.000000 0.000000 0.000000 0.000000 0.000000 0.000000 0.000000 0.000000 0.000000 0.000000 0.000000 0.000000 0.000000 0.000000 0.000000 0.000000 0.000000 0.000000 0.000000 0.000000 0.000000 0.000000 0.000000 0.000000 0.000000 0.000000 0.000000 0.000000 0.000000 0.000000 0.000000 0.000000 0.000000 0.000000 0.000000 0.000000 0.000000 0.000000 0.000000 0.000000 0.000000 0.000000 0.000000 0.000000 0.000000 0.000000 0.000000 0.000000 0.000000 0.000000 0.000000 0.000000 0.000000 0.000000 0.000000 15.455471 15.455471 15.455471 15.455471 15.455471 15.455471 15.455471 15.455471 15.455471 15.455471 0.000000 0.000000 0.000000 0.000000
0.000000 0.000000 0.000000 0.000000 15.218012 15.218012 15.218012 15.218012 15.218012 15.218012 15.218012 15.218012 15.218012 15.218012 0.000000 0.000000 0.000000 0.000000 0.000000 0.000000 0.000000 0.000000 0.000000 0.000000 0.000000 0.000000 0.000000 0.000000 0.000000 0.000000 0.000000 0.000000 0.000000 0.000000 0.000000 0.000000 0.000000 0.000000 0.000000 0.000000 0.000000 0.000000 0.000000 0.000000 0.000000 0.000000 0.000000 0.000000 0.000000 0.000000 0.000000 0.000000 0.000000 0.000000 0.000000 0.000000 0.000000 0.000000 0.000000 0.000000 0.000000 0.000000 0.000000 0.000000 0.000000 0.000000 0.000000 0.000000 0.000000 0.000000 0.000000 0.000000 0.000000 0.000000 0.000000 0.000000 0.000000 0.000000 0.000000 0.000000 0.000000 0.000000 0.000000 0.000000 0.000000 0.000000 0.000000 0.000000 0.000000 15.455471 15.455471 15.455471 15.455471 15.455471 15.455471 15.455471 15.455471 15.455471 15.455471 0.000000 0.000000 0.000000 0.000000
0.000000 0.000000 0.000000 0.000000 15.218012 15.218012 15.218012 15.218012 15.218012 15.218012 15.218012 15.218012 15.218012 15.218012 0.000000 0.000000 0.000000 0.000000 0.000000 0.000000 0.000000 0.000000 0.000000 0.000000 0.000000 0.000000 0.000000 0.000000 0.000000 0.000000 0.000000 0.000000 0.000000 0.000000 0.000000 0.000000 0.000000 0.000000 0.000000 0.000000 0.000000 0.000000 0.000000 0.000000 0.000000 0.000000 0.000000 0.000000 0.000000 0.000000 0.000000 0.000000 0.000000 0.000000 0.000000 0.000000 0.000000 0.000000 0.000000 0.000000 0.000000 0.000000 0.000000 0.000000 0.000000 0.000000 0.000000 0.000000 0.000000 0.000000 0.000000 0.000000 0.000000 0.000000 0.000000 0.000000 0.000000 0.000000 0.000000 0.000000 0.000000 0.000000 0.000000 0.000000 0.000000 0.000000 0.000000 0.000000 0.000000 15.455471 15.455471 15.455471 15.455471 15.455471 15.455471 15.455471 15.455471 15.455471 15.455471 0.000000 0.000000 0.000000 0.000000
0.000000 0.000000 0.000000 0.000000 15.218012 15.218012 15.218012 15.218012 15.218012 15.218012 15.218012 15.218012 15.218012 15.218012 0.000000 0.000000 0.000000 0.000000 0.000000 0.000000 0.000000 0.000000 0.000000 0.000000 0.000000 0.000000 0.000000 0.000000 0.000000 0.000000 0.000000 0.000000 0.000000 0.000000 0.000000 0.000000 0.000000 0.000000 0.000000 0.000000 0.000000 0.000000 0.000000 0.000000 0.000000 0.000000 0.000000 0.000000 0.000000 0.000000 0.000000 0.000000 0.000000 0.000000 0.000000 0.000000 0.000000 0.000000 0.000000 0.000000 0.000000 0.000000 0.000000 0.000000 0.000000 0.000000 0.000000 0.000000 0.000000 0.000000 0.000000 0.000000 0.000000 0.000000 0.000000 0.000000 0.000000 0.000000 0.000000 0.000000 0.000000 0.000000 0.000000 0.000000 0.000000 0.000000 0.000000 0.000000 0.000000 15.455471 15.455471 15.455471 15.455471 15.455471 15.455471 15.455471 15.455471 15.455471 15.455471 0.000000 0.000000 0.000000 0.000000
0.000000 0.000000 0.000000 0.000000 0.000000 0.000000 0.000000 0.000000 0.000000 0.000000 0.000000 0.000000 0.000000 0.000000 0.000000 0.000000 0.000000 0.000000 0.000000 0.000000 0.000000 0.000000 0.000000 0.000000 0.000000 0.000000 0.000000 0.000000 0.000000 0.000000 0.000000 0.000000 0.000000 0.000000 0.000000 0.000000 0.000000 0.000000 0.000000 0.000000 0.000000 0.000000 0.000000 0.000000 0.000000 0.000000 0.000000 0.000000 0.000000 0.000000 0.000000 0.000000 0.000000 0.000000 0.000000 0.000000 0.000000 0.000000 0.000000 0.000000 0.000000 0.000000 0.000000 0.000000 0.000000 0.000000 0.000000 0.000000 0.000000 0.000000 0.000000 0.000000 0.000000 0.000000 0.000000 0.000000 0.000000 0.000000 0.000000 0.000000 0.000000 0.000000 0.000000 0.000000 0.000000 0.000000 0.000000 0.000000 0.000000 0.000000 0.000000 0.000000 0.000000 0.000000 0.000000 0.000000 0.000000 0.000000 0.000000 0.000000 0.000000 0.000000 0.000000
0.000000 0.000000 0.000000 0.000000 0.000000 0.000000 0.000000 0.000000 0.000000 0.000000 0.000000 0.000000 0.000000 0.000000 0.000000 0.000000 0.000000 0.000000 0.000000 0.000000 0.000000 0.000000 0.000000 0.000000 0.000000 0.000000 0.000000 0.000000 0.000000 0.000000 0.000000 0.000000 0.000000 0.000000 0.000000 0.000000 0.000000 0.000000 0.000000 0.000000 0.000000 0.000000 0.000000 0.000000 0.000000 0.000000 0.000000 0.000000 0.000000 0.000000 0.000000 0.000000 0.000000 0.000000 0.000000 0.000000 0.000000 0.000000 0.000000 0.000000 0.000000 0.000000 0.000000 0.000000 0.000000 0.000000 0.000000 0.000000 0.000000 0.000000 0.000000 0.000000 0.000000 0.000000 0.000000 0.000000 0.000000 0.000000 0.000000 0.000000 0.000000 0.000000 0.000000 0.000000 0.000000 0.000000 0.000000 0.000000 0.000000 0.000000 0.000000 0.000000 0.000000 0.000000 0.000000 0.000000 0.000000 0.000000 0.000000 0.000000 0.000000 0.000000 0.000000
0.000000 0.000000 0.000000 0.000000 0.000000 0.000000 0.000000 0.000000 0.000000 0.000000 0.000000 0.000000 0.000000 0.000000 0.000000 0.000000 0.000000 0.000000 0.000000 0.000000 0.000000 0.000000 0.000000 0.000000 0.000000 0.000000 0.000000 0.000000 0.000000 0.000000 0.000000 0.000000 0.000000 0.000000 0.000000 0.000000 0.000000 0.000000 0.000000 0.000000 0.000000 0.000000 0.000000 0.000000 0.000000 0.000000 0.000000 0.000000 0.000000 0.000000 0.000000 0.000000 0.000000 0.000000 0.000000 0.000000 0.000000 0.000000 0.000000 0.000000 0.000000 0.000000 0.000000 0.000000 0.000000 0.000000 0.000000 0.000000 0.000000 0.000000 0.000000 0.000000 0.000000 0.000000 0.000000 0.000000 0.000000 0.000000 0.000000 0.000000 0.000000 0.000000 0.000000 0.000000 0.000000 0.000000 0.000000 0.000000 0.000000 0.000000 0.000000 0.000000 0.000000 0.000000 0.000000 0.000000 0.000000 0.000000 0.000000 0.000000 0.000000 0.000000 0.000000
0.000000 0.000000 0.000000 0.000000 0.000000 0.000000 0.000000 0.000000 0.000000 0.000000 0.000000 0.000000 0.000000 0.000000 0.000000 0.000000 0.000000 0.000000 0.000000 0.000000 0.000000 0.000000 0.000000 0.000000 0.000000 0.000000 0.000000 0.000000 0.000000 0.000000 0.000000 0.000000 0.000000 0.000000 0.000000 0.000000 0.000000 0.000000 0.000000 0.000000 0.000000 0.000000 0.000000 0.000000 0.000000 0.000000 0.000000 0.000000 0.000000 0.000000 0.000000 0.000000 0.000000 0.000000 0.000000 0.000000 0.000000 0.000000 0.000000 0.000000 0.000000 0.000000 0.000000 0.000000 0.000000 0.000000 0.000000 0.000000 0.000000 0.000000 0.000000 0.000000 0.000000 0.000000 0.000000 0.000000 0.000000 0.000000 0.000000 0.000000 0.000000 0.000000 0.000000 0.000000 0.000000 0.000000 0.000000 0.000000 0.000000 0.000000 0.000000 0.000000 0.000000 0.000000 0.000000 0.000000 0.000000 0.000000 0.000000 0.000000 0.000000 0.000000 0.000000
0.000000 0.000000 0.000000 0.000000 0.000000 0.000000 0.000000 0.000000 0.000000 0.000000 0.000000 0.000000 0.000000 0.000000 0.000000 0.000000 0.000000 0.000000 0.000000 0.000000 0.000000 0.000000 0.000000 0.000000 0.000000 0.000000 0.000000 0.000000 0.000000 0.000000 0.000000 0.000000 0.000000 0.000000 0.000000 0.000000 0.000000 0.000000 0.000000 0.000000 0.000000 0.000000 0.000000 0.000000 0.000000 0.000000 0.000000 0.000000 0.000000 0.000000 0.000000 0.000000 0.000000 0.000000 0.000000 0.000000 0.000000 0.000000 0.000000 0.000000 0.000000 0.000000 0.000000 0.000000 0.000000 0.000000 0.000000 0.000000 0.000000 0.000000 0.000000 0.000000 0.000000 0.000000 0.000000 0.000000 0.000000 0.000000 0.000000 0.000000 0.000000 0.000000 0.000000 0.000000 0.000000 0.000000 0.000000 0.000000 0.000000 0.000000 0.000000 0.000000 0.000000 0.000000 0.000000 0.000000 0.000000 0.000000 0.000000 0.000000 0.000000 0.000000 0.000000
0.000000 0.000000 0.000000 0.000000 21.557535 21.557535 21.557535 21.557535 21.557535 21.557535 21.557535 21.557535 21.557535 21.557535 21.557535 21.557535 0.000000 0.000000 0.000000 0.000000 0.000000 0.000000 0.000000 0.000000 0.000000 0.000000 0.000000 0.000000 0.000000 0.000000 0.000000 0.000000 0.000000 0.000000 0.000000 0.000000 0.000000 0.000000 0.000000 0.000000 0.000000 0.000000 0.000000 0.000000 0.000000 0.000000 0.000000 0.000000 0.000000 0.000000 0.000000 0.000000 0.000000 0.000000 0.000000 0.000000 0.000000 0.000000 0.000000 0.000000 0.000000 0.000000 0.000000 0.000000 0.000000 0.000000 0.000000 0.000000 0.000000 0.000000 0.000000 0.000000 0.000000 0.000000 0.000000 0.000000 0.000000 20.133349 20.133349 20.133349 20.133349 20.133349 20.133349 20.133349 0.000000 0.000000 0.000000 0.000000 0.000000 16.836124 16.836124 16.836124 16.836124 16.836124 16.836124 16.836124 16.836124 16.836124 16.836124 0.000000 0.000000 0.000000 0.000000
0.000000 0.000000 0.000000 0.000000 21.557535 21.557535 21.557535 21.557535 21.557535 21.557535 21.557535 21.557535 21.557535 21.557535 21.557535 21.557535 0.000000 0.000000 0.000000 0.000000 0.000000 0.000000 0.000000 0.000000 0.000000 0.000000 0.000000 0.000000 0.000000 0.000000 0.000000 0.000000 0.000000 0.000000 0.000000 0.000000 0.000000 0.000000 0.000000 0.000000 0.000000 0.000000 0.000000 0.000000 0.000000 0.000000 0.000000 0.000000 0.000000 0.000000 0.000000 0.000000 0.000000 0.000000 0.000000 0.000000 0.000000 0.000000 0.000000 0.000000 0.000000 0.000000 0.000000 0.000000 0.000000 0.000000 0.000000 0.000000 0.000000 0.000000 0.000000 0.000000 0.000000 0.000000 0.000000 0.000000 0.000000 20.133349 20.133349 20.133349 20.133349 20.133349 20.133349 20.133349 0.000000 0.000000 0.000000 0.000000 0.000000 16.836124 16.836124 16.836124 16.836124 16.836124 16.836124 16.836124 16.836124 16.836124 16.836124 0.000000 0.000000 0.000000 0.000000
0.000000 0.000000 0.000000 0.000000 21.557535 21.557535 21.557535 21.557535 21.557535 21.557535 21.557535 21.557535 21.557535 21.557535 21.557535 21.557535 0.000000 0.000000 0.000000 0.000000 0.000000 0.000000 0.000000 0.000000 0.000000 0.000000 0.000000 0.000000 0.000000 0.000000 0.000000 0.000000 0.000000 0.000000 0.000000 0.000000 0.000000 0.000000 0.000000 0.000000 0.000000 0.000000 0.000000 0.000000 0.000000 48.417994 48.417994 48.417994 48.417994 48.417994 48.417994 48.417994 48.417994 48.417994 48.417994 48.417994 48.417994 48.417994 48.417994 0.000000 0.000000 0.000000 0.000000 22.820102 22.820102 22.820102 22.820102 22.820102 22.820102 22.820102 0.000000 0.000000 0.000000 0.000000 0.000000 0.000000 0.000000 20.133349 20.133349 20.133349 20.133349 20.133349 20.133349 20.133349 0.000000 0.000000 0.000000 0.000000 0.000000 16.836124 16.836124 16.836124 16.836124 16.836124 16.836124 16.836124 16.836124 16.836124 16.836124 0.000000 0.000000 0.000000 0.000000
0.000000 0.000000 0.000000 0.000000 21.557535 21.557535 21.557535 21.557535 21.557535 21.557535 21.557535 21.557535 21.557535 21.557535 21.557535 21.557535 0.000000 0.000000 0.000000 0.000000 0.000000 0.000000 0.000000 0.000000 0.000000 0.000000 0.000000 0.000000 0.000000 0.000000 0.000000 0.000000 0.000000 0.000000 0.000000 0.000000 0.000000 0.000000 0.000000 0.000000 0.000000 0.000000 0.000000 0.000000 0.000000 48.417994 48.417994 48.417994 48.417994 48.417994 48.417994 48.417994 48.417994 48.417994 48.417994 48.417994 48.417994 48.417994 48.417994 0.000000 0.000000 0.000000 0.000000 22.820102 22.820102 22.820102 22.820102 22.820102 22.820102 22.820102 0.000000 0.000000 0.000000 0.000000 0.000000 0.000000 0.000000 20.133349 20.133349 20.133349 20.133349 20.133349 20.133349 20.133349 0.000000 0.000000 0.000000 0.000000 0.000000 16.836124 16.836124 16.836124 16.836124 16.836124 16.836124 16.836124 16.836124 16.836124 16.836124 0.000000 0.000000 0.000000 0.000000
0.000000 0.000000 0.000000 0.000000 21.557535 21.557535 21.557535 21.557535 21.557535 21.557535 21.557535 21.557535 21.557535 21.557535 21.557535 21.557535 0.000000 0.000000 0.000000 0.000000 0.000000 0.000000 0.000000 0.000000 0.000000 0.000000 0.000000 0.000000 0.000000 0.000000 0.000000 0.000000 0.000000 0.000000 0.000000 0.000000 0.000000 0.000000 0.000000 0.000000 0.000000 0.000000 0.000000 0.000000 0.000000 48.417994 48.417994 48.417994 48.417994 48.417994 48.417994 48.417994 48.417994 48.417994 48.417994 48.417994 48.417994 48.417994 48.417994 0.000000 0.000000 0.000000 0.000000 22.820102 22.820102 22.820102 22.820102 22.820102 22.820102 22.820102 0.000000 0.000000 0.000000 0.000000 0.000000 0.000000 0.000000 20.133349 20.133349 20.133349 20.133349 20.133349 20.133349 20.133349 0.000000 0.000000 0.000000 0.000000 0.000000 16.836124 16.836124 16.836124 16.836124 16.836124 16.836124 16.836124 16.836124 16.836124 16.836124 0.000000 0.000000 0.000000 0.000000
0.000000 0.000000 0.000000 0.000000 21.557535 21.557535 21.557535 21.557535 21.557535 21.557535 21.557535 21.557535 21.557535 21.557535 21.557535 21.557535 0.000000 0.000000 0.000000 0.000000 0.000000 0.000000 0.000000 0.000000 0.000000 0.000000 0.000000 0.000000 0.000000 0.000000 0.000000 0.000000 0.000000 0.000000 0.000000 0.000000 0.000000 0.000000 0.000000 0.000000 0.000000 0.000000 0.000000 0.000000 0.000000 48.417994 48.417994 48.417994 48.417994 48.417994 48.417994 48.417994 48.417994 48.417994 48.417994 48.417994 48.417994 48.417994 48.417994 0.000000 0.000000 0.000000 0.000000 22.820102 22.820102 22.820102 22.820102 22.820102 22.820102 22.820102 0.000000 0.000000 0.000000 0.000000 0.000000 0.000000 0.000000 20.133349 20.133349 20.133349 20.133349 20.133349 20.133349 20.133349 0.000000 0.000000 0.000000 0.000000 0.000000 16.836124 16.836124 16.836124 16.836124 16.836124 16.836124 16.836124 16.836124 16.836124 16.836124 0.000000 0.000000 0.000000 0.000000
0.000000 0.000000 0.000000 0.000000 21.557535 21.557535 21.557535 21.557535 21.557535 21.557535 21.557535 21.557535 21.557535 21.557535 21.557535 21.557535 0.000000 0.000000 0.000000 0.000000 0.000000 0.000000 0.000000 0.000000 0.000000 0.000000 0.000000 0.000000 0.000000 0.000000 0.000000 0.000000 0.000000 0.000000 0.000000 0.000000 0.000000 0.000000 0.000000 0.000000 0.000000 0.000000 0.000000 0.000000 0.000000 48.417994 48.417994 48.417994 48.417994 48.417994 48.417994 48.417994 48.417994 48.417994 48.417994 48.417994 48.417994 48.417994 48.417994 0.000000 0.000000 0.000000 0.000000 22.820102 22.820102 22.820102 22.820102 22.820102 22.820102 22.820102 0.000000 0.000000 0.000000 0.000000 0.000000 0.000000 0.000000 20.133349 20.133349 20.133349 20.133349 20.133349 20.133349 20.133349 0.000000 0.000000 0.000000 0.000000 0.000000 16.836124 16.836124 16.836124 16.836124 16.836124 16.836124 16.836124 16.836124 16.836124 16.836124 0.000000 0.000000 0.000000 0.000000
0.000000 0.000000 0.000000 0.000000 21.557535 21.557535 21.557535 21.557535 21.557535 21.557535 21.557535 21.557535 21.557535 21.557535 21.557535 21.557535 0.000000 0.000000 0.000000 0.000000 0.000000 0.000000 0.000000 0.000000 0.000000 0.000000 0.000000 0.000000 0.000000 0.000000 0.000000 0.000000 0.000000 0.000000 0.000000 0.000000 0.000000 0.000000 0.000000 0.000000 0.000000 0.000000 0.000000 0.000000 0.000000 48.417994 48.417994 48.417994 48.417994 48.417994 48.417994 48.417994 48.417994 48.417994 48.417994 48.417994 48.417994 48.417994 48.417994 0.000000 0.000000 0.000000 0.000000 22.820102 22.820102 22.820102 22.820102 22.820102 22.820102 22.820102 0.000000 0.000000 0.000000 0.000000 0.000000 0.000000 0.000000 20.133349 20.133349 20.133349 20.133349 20.133349 20.133349 20.133349 0.000000 0.000000 0.000000 0.000000 0.000000 31.993412 31.993412 31.993412 31.993412 31.993412 31.993412 31.993412 31.993412 31.993412 31.993412 0.000000 0.000000 0.000000 0.000000
0.000000 0.000000 0.000000 0.000000 0.000000 0.000000 0.000000 0.000000 0.000000 0.000000 0.000000 0.000000 0.000000 0.000000 0.000000 0.000000 11.865555 11.865555 11.865555 11.865555 11.865555 11.865555 15.094592 15.094592 15.094592 15.094592 15.094592 15.094592 15.094592 15.094592 0.000000 0.000000 0.000000 0.000000 0.000000 0.000000 0.000000 0.000000 0.000000 0.000000 0.000000 0.000000 0.000000 0.000000 0.000000 48.417994 48.417994 48.417994 48.417994 48.417994 48.417994 48.417994 48.417994 48.417994 48.417994 48.417994 48.417994 48.417994 48.417994 0.000000 0.000000 0.000000 0.000000 22.820102 22.820102 22.820102 22.820102 22.820102 22.820102 22.820102 0.000000 0.000000 0.000000 0.000000 0.000000 0.000000 0.000000 20.133349 20.133349 20.133349 20.133349 20.133349 20.133349 20.133349 0.000000 0.000000 0.000000 0.000000 0.000000 31.993412 31.993412 31.993412 31.993412 31.993412 31.993412 31.993412 31.993412 31.993412 31.993412 0.000000 0.000000 0.000000 0.000000
0.000000 0.000000 0.000000 0.000000 0.000000 0.000000 0.000000 0.000000 0.000000 0.000000 0.000000 0.000000 0.000000 0.000000 0.000000 0.000000 11.865555 11.865555 11.865555 11.865555 11.865555 11.865555 15.094592 15.094592 15.094592 15.094592 15.094592 15.094592 15.094592 15.094592 0.000000 0.000000 0.000000 0.000000 0.000000 0.000000 0.000000 0.000000 0.000000 0.000000 0.000000 0.000000 0.000000 0.000000 0.000000 48.417994 48.417994 48.417994 48.417994 48.417994 48.417994 48.417994 48.417994 48.417994 48.417994 48.417994 48.417994 48.417994 48.417994 0.000000 0.000000 0.000000 0.000000 22.820102 22.820102 22.820102 22.820102 22.820102 22.820102 22.820102 0.000000 0.000000 0.000000 0.000000 0.000000 0.000000 0.000000 20.133349 20.133349 20.133349 20.133349 20.133349 20.133349 20.133349 0.000000 0.000000 0.000000 0.000000 0.000000 31.993412 31.993412 31.993412 31.993412 31.993412 31.993412 31.993412 31.993412 31.993412 31.993412 0.000000 0.000000 0.000000 0.000000
0.000000 0.000000 0.000000 0.000000 0.000000 0.000000 0.000000 0.000000 0.000000 0.000000 0.000000 0.000000 0.000000 0.000000 0.000000 0.000000 11.865555 11.865555 11.865555 11.865555 11.865555 11.865555 15.094592 15.094592 15.094592 15.094592 15.094592 15.094592 15.094592 15.094592 0.000000 0.000000 4.138795 4.138795 4.138795 4.138795 0.000000 0.000000 0.000000 0.000000 0.000000 0.000000 0.000000 0.000000 0.000000 48.417994 48.417994 48.417994 48.417994 48.417994 48.417994 48.417994 48.417994 48.417994 48.417994 48.417994 48.417994 48.417994 48.417994 0.000000 0.000000 0.000000 0.000000 22.820102 22.820102 22.820102 22.820102 22.820102 22.820102 22.820102 0.000000 0.000000 0.000000 0.000000 0.000000 0.000000 0.000000 20.133349 20.133349 20.133349 20.133349 20.133349 20.133349 20.133349 0.000000 0.000000 0.000000 0.000000 0.000000 31.993412 31.993412 31.993412 31.993412 31.993412 31.993412 31.993412 31.993412 31.993412 31.993412 0.000000 0.000000 0.000000 0.000000
0.000000 0.000000 0.000000 0.000000 0.000000 0.000000 0.000000 0.000000 0.000000 0.000000 0.000000 0.000000 0.000000 0.000000 0.000000 0.000000 11.865555 11.865555 11.865555 11.865555 11.865555 11.865555 15.094592 15.094592 15.094592 15.094592 15.094592 15.094592 15.094592 15.094592 0.000000 0.000000 4.138795 4.138795 4.138795 4.138795 0.000000 0.000000 0.000000 0.000000 0.000000 0.000000 0.000000 0.000000 0.000000 48.417994 48.417994 48.417994 48.417994 48.417994 48.417994 48.417994 48.417994 48.417994 48.417994 48.417994 48.417994 48.417994 48.417994 0.000000 0.000000 0.000000 0.000000 22.820102 22.820102 22.820102 22.820102 22.820102 22.820102 22.820102 0.000000 0.000000 0.000000 0.000000 0.000000 0.000000 0.000000 20.133349 20.133349 20.133349 20.133349 20.133349 20.133349 20.133349 0.000000 0.000000 0.000000 0.000000 0.000000 31.993412 31.993412 31.993412 31.993412 31.993412 31.993412 31.993412 31.993412 31.993412 31.993412 0.000000 0.000000 0.000000 0.000000
0.000000 0.000000 0.000000 0.000000 0.000000 0.000000 0.000000 0.000000 0.000000 0.000000 0.000000 0.000000 0.000000 0.000000 0.000000 0.000000 11.865555 11.865555 11.865555 11.865555 11.865555 11.865555 15.094592 15.094592 15.094592 15.094592 15.094592 15.094592 15.094592 15.094592 0.000000 0.000000 4.138795 4.138795 4.138795 4.138795 0.000000 0.000000 0.000000 0.000000 0.000000 0.000000 0.000000 0.000000 0.000000 48.417994 48.417994 48.417994 48.417994 48.417994 48.417994 48.417994 48.417994 48.417994 48.417994 48.417994 48.417994 48.417994 48.417994 0.000000 0.000000 0.000000 0.000000 22.820102 22.820102 22.820102 22.820102 22.820102 22.820102 22.820102 0.000000 0.000000 0.000000 0.000000 0.000000 0.000000 0.000000 14.768294 14.768294 14.768294 14.768294 14.768294 14.768294 14.768294 0.000000 0.000000 0.000000 0.000000 0.000000 31.993412 31.993412 31.993412 31.993412 31.993412 31.993412 31.993412 31.993412 31.993412 31.993412 0.000000 0.000000 0.000000 0.000000
0.000000 0.000000 0.000000 0.000000 0.000000 0.000000 0.000000 0.000000 0.000000 0.000000 0.000000 0.000000 0.000000 0.000000 0.000000 0.000000 11.865555 11.865555 11.865555 11.865555 11.865555 11.865555 15.094592 15.094592 15.094592 15.094592 15.094592 15.094592 15.094592 15.094592 0.000000 0.000000 4.138795 4.138795 4.138795 4.138795 0.000000 0.000000 0.000000 0.000000 0.000000 0.000000 0.000000 0.000000 0.000000 48.417994 48.417994 48.417994 48.417994 48.417994 48.417994 48.417994 48.417994 48.417994 48.417994 48.417994 48.417994 48.417994 48.417994 0.000000 0.000000 0.000000 0.000000 22.820102 22.820102 22.820102 22.820102 22.820102 22.820102 22.820102 0.000000 0.000000 0.000000 0.000000 0.000000 0.000000 0.000000 14.768294 14.768294 14.768294 14.768294 14.768294 14.768294 14.768294 0.000000 0.000000 0.000000 0.000000 0.000000 31.993412 31.993412 31.993412 31.993412 31.993412 31.993412 31.993412 31.993412 31.993412 31.993412 0.000000 0.000000 0.000000 0.000000
0.000000 0.000000 0.000000 0.000000 0.000000 0.000000 0.000000 0.000000 0.000000 0.000000 0.000000 0.000000 0.000000 0.000000 0.000000 0.000000 11.865555 11.865555 11.865555 11.865555 11.865555 11.865555 15.094592 15.094592 15.094592 15.094592 15.094592 15.094592 15.094592 15.094592 0.000000 0.000000 0.000000 0.000000 0.000000 0.000000 0.000000 0.000000 0.000000 0.000000 0.000000 0.000000 0.000000 0.000000 0.000000 48.417994 48.417994 48.417994 48.417994 48.417994 48.417994 48.417994 48.417994 48.417994 48.417994 48.417994 48.417994 48.417994 48.417994 0.000000 0.000000 0.000000 0.000000 22.820102 22.820102 22.820102 22.820102 22.820102 22.820102 22.820102 0.000000 0.000000 0.000000 0.000000 0.000000 0.000000 0.000000 14.768294 14.768294 14.768294 14.768294 14.768294 14.768294 14.768294 0.000000 0.000000 0.000000 0.000000 0.000000 31.993412 31.993412 31.993412 31.993412 31.993412 31.993412 31.993412 31.993412 31.993412 31.993412 0.000000 0.000000 0.000000 0.000000
0.000000 0.000000 0.000000 0.000000 0.000000 0.000000 0.000000 0.000000 0.000000 0.000000 0.000000 0.000000 0.000000 0.000000 0.000000 0.000000 11.865555 11.865555 11.865555 11.865555 11.865555 11.865555 15.094592 15.094592 15.094592 15.094592 15.094592 15.094592 15.094592 15.094592 0.000000 0.000000 0.000000 0.000000 0.000000 0.000000 0.000000 0.000000 0.000000 0.000000 0.000000 0.000000 0.000000 0.000000 0.000000 48.417994 48.417994 48.417994 48.417994 48.417994 48.417994 48.417994 48.417994 48.417994 48.417994 48.417994 48.417994 48.417994 48.417994 0.000000 0.000000 0.000000 0.000000 22.820102 22.820102 22.820102 22.820102 22.820102 22.820102 22.820102 0.000000 0.000000 0.000000 0.000000 0.000000 0.000000 0.000000 14.768294 14.768294 14.768294 14.768294 14.768294 14.768294 14.768294 0.000000 0.000000 0.000000 0.000000 0.000000 31.993412 31.993412 31.993412 31.993412 31.993412 31.993412 31.993412 31.993412 31.993412 31.993412 0.000000 0.000000 0.000000 0.000000
0.000000 0.000000 0.000000 0.000000 0.000000 0.000000 0.000000 0.000000 0.000000 0.000000 0.000000 0.000000 0.000000 0.000000 0.000000 0.000000 13.033896 13.033896 13.033896 13.033896 13.033896 13.033896 13.033896 0.000000 0.000000 0.000000 0.000000 0.000000 0.000000 0.000000 12.717125 12.717125 12.717125 12.717125 12.717125 12.717125 12.717125 12.717125 0.000000 0.000000 0.000000 0.000000 0.000000 0.000000 0.000000 0.000000 0.000000 0.000000 0.000000 0.000000 0.000000 0.000000 0.000000 0.000000 0.000000 0.000000 0.000000 0.000000 0.000000 0.000000 0.000000 0.000000 0.000000 0.000000 0.000000 0.000000 0.000000 0.000000 0.000000 0.000000 0.000000 0.000000 0.000000 0.000000 0.000000 0.000000 0.000000 14.768294 14.768294 14.768294 14.768294 14.768294 14.768294 14.768294 0.000000 0.000000 0.000000 0.000000 0.000000 31.993412 31.993412 31.993412 31.993412 31.993412 31.993412 31.993412 31.993412 31.993412 31.993412 0.000000 0.000000 0.000000 0.000000
0.000000 0.000000 0.000000 0.000000 0.000000 0.000000 0.000000 0.000000 0.000000 0.000000 0.000000 0.000000 0.000000 0.000000 0.000000 0.000000 13.033896 13.033896 13.033896 13.033896 13.033896 13.033896 13.033896 0.000000 0.000000 0.000000 0.000000 0.000000 0.000000 0.000000 12.717125 12.717125 12.717125 12.717125 12.717125 12.717125 12.717125 12.717125 0.000000 0.000000 0.000000 0.000000 0.000000 0.000000 0.000000 0.000000 0.000000 0.000000 0.000000 0.000000 0.000000 0.000000 0.000000 0.000000 0.000000 0.000000 0.000000 0.000000 0.000000 0.000000 0.000000 0.000000 0.000000 0.000000 0.000000 0.000000 0.000000 0.000000 0.000000 0.000000 0.000000 0.000000 0.000000 0.000000 0.000000 0.000000 0.000000 14.768294 14.768294 14.768294 14.768294 14.768294 14.768294 14.768294 0.000000 0.000000 0.000000 0.000000 0.000000 31.993412 31.993412 31.993412 31.993412 31.993412 31.993412 31.993412 31.993412 31.993412 31.993412 0.000000 0.000000 0.000000 0.000000
0.000000 0.000000 0.000000 0.000000 0.000000 0.000000 18.192173 18.192173 18.192173 18.192173 18.192173 18.192173 18.192173 18.192173 0.000000 0.000000 13.033896 13.033896 13.033896 13.033896 13.033896 13.033896 13.033896 0.000000 0.000000 2.465078 2.465078 2.465078 0.000000 0.000000 12.717125 12.717125 12.717125 12.717125 12.717125 12.717125 12.717125 12.717125 0.000000 0.000000 0.000000 0.000000 0.000000 0.000000 0.000000 0.000000 0.000000 0.000000 0.000000 0.000000 0.000000 0.000000 0.000000 0.000000 0.000000 0.000000 0.000000 0.000000 0.000000 0.000000 0.000000 0.000000 0.000000 0.000000 0.000000 0.000000 0.000000 0.000000 0.000000 0.000000 0.000000 0.000000 0.000000 0.000000 0.000000 0.000000 0.000000 14.768294 14.768294 14.768294 14.768294 14.768294 14.768294 14.768294 0.000000 0.000000 0.000000 0.000000 0.000000 31.993412 31.993412 31.993412 31.993412 31.993412 31.993412 31.993412 31.993412 31.993412 31.993412 0.000000 0.000000 0.000000 0.000000
0.000000 0.000000 0.000000 0.000000 0.000000 0.000000 18.192173 18.192173 18.192173 18.192173 18.192173 18.192173 18.192173 18.192173 0.000000 0.000000 13.033896 13.033896 13.033896 13.033896 13.033896 13.033896 13.033896 0.000000 0.000000 2.465078 2.465078 2.465078 0.000000 0.000000 12.717125 12.717125 12.717125 12.717125 12.717125 12.717125 12.717125 12.717125 0.000000 0.000000 0.000000 0.000000 0.000000 0.000000 0.000000 0.000000 0.000000 0.000000 0.000000 0.000000 0.000000 0.000000 0.000000 0.000000 0.000000 0.000000 0.000000 0.000000 0.000000 0.000000 0.000000 0.000000 0.000000 0.000000 0.000000 0.000000 0.000000 0.000000 0.000000 0.000000 0.000000 0.000000 0.000000 0.000000 0.000000 0.000000 0.000000 14.768294 14.768294 14.768294 14.768294 14.768294 14.768294 14.768294 0.000000 0.000000 0.000000 0.000000 0.000000 31.993412 31.993412 31.993412 31.993412 31.993412 31.993412 31.993412 31.993412 31.993412 31.993412 0.000000 0.000000 0.000000 0.000000
0.000000 0.000000 0.000000 0.000000 0.000000 0.000000 18.192173 18.192173 18.192173 18.192173 18.192173 18.192173 18.192173 18.192173 0.000000 0.000000 13.033896 13.033896 13.033896 13.033896 13.033896 13.033896 13.033896 0.000000 0.000000 2.465078 2.465078 2.465078 0.000000 0.000000 12.717125 12.717125 12.717125 12.717125 12.717125 12.717125 12.717125 12.717125 0.000000 0.000000 0.000000 0.000000 0.000000 0.000000 0.000000 27.694183 27.694183 27.694183 27.694183 27.694183 27.694183 27.694183 27.694183 27.694183 27.694183 27.694183 27.694183 27.694183 27.694183 0.000000 0.000000 0.000000 0.000000 0.000000 0.000000 0.000000 0.000000 0.000000 0.000000 0.000000 0.000000 0.000000 0.000000 0.000000 0.000000 0.000000 0.000000 17.432477 17.432477 17.432477 17.432477 17.432477 17.432477 17.432477 0.000000 0.000000 0.000000 0.000000 0.000000 31.993412 31.993412 31.993412 31.993412 31.993412 31.993412 31.993412 31.993412 31.993412 31.993412 0.000000 0.000000 0.000000 0.000000
0.000000 0.000000 0.000000 0.000000 0.000000 0.000000 18.192173 18.192173 18.192173 18.192173 18.192173 18.192173 18.192173 18.192173 0.000000 0.000000 13.033896 13.033896 13.033896 13.033896 13.033896 13.033896 13.033896 0.000000 0.000000 0.000000 0.000000 0.000000 0.000000 0.000000 12.717125 12.717125 12.717125 12.717125 12.717125 12.717125 12.717125 12.717125 0.000000 0.000000 0.000000 0.000000 0.000000 0.000000 0.000000 27.694183 27.694183 27.694183 27.694183 27.694183 27.694183 27.694183 27.694183 27.694183 27.694183 27.694183 27.694183 27.694183 27.694183 0.000000 0.000000 0.000000 0.000000 0.000000 0.000000 0.000000 0.000000 0.000000 0.000000 0.000000 0.000000 0.000000 0.000000 0.000000 0.000000 0.000000 0.000000 17.432477 17.432477 17.432477 17.432477 17.432477 17.432477 17.432477 0.000000 0.000000 0.000000 0.000000 0.000000 0.000000 0.000000 0.000000 0.000000 0.000000 0.000000 0.000000 0.000000 0.000000 0.000000 0.000000 0.000000 0.000000 0.000000
0.000000 0.000000 0.000000 0.000000 0.000000 0.000000 18.192173 18.192173 18.192173 18.192173 18.192173 18.192173 18.192173 18.192173 0.000000 0.000000 13.033896 13.033896 13.033896 13.033896 13.033896 13.033896 13.033896 0.000000 0.000000 0.000000 0.000000 0.000000 0.000000 0.000000 12.717125 12.717125 12.717125 12.717125 12.717125 12.717125 12.717125 12.717125 0.000000 0.000000 0.000000 0.000000 0.000000 0.000000 0.000000 27.694183 27.694183 27.694183 27.694183 27.694183 27.694183 27.694183 27.694183 27.694183 27.694183 27.694183 27.694183 27.694183 27.694183 0.000000 0.000000 0.000000 0.000000 0.000000 0.000000 0.000000 0.000000 0.000000 0.000000 0.000000 0.000000 0.000000 0.000000 0.000000 0.000000 0.000000 0.000000 17.432477 17.432477 17.432477 17.432477 17.432477 17.432477 17.432477 0.000000 0.000000 0.000000 0.000000 0.000000 0.000000 0.000000 0.000000 0.000000 0.000000 0.000000 0.000000 0.000000 0.000000 0.000000 0.000000 0.000000 0.000000 0.000000
0.000000 0.000000 0.000000 0.000000 0.000000 0.000000 18.192173 18.192173 18.192173 18.192173 18.192173 18.192173 18.192173 18.192173 0.000000 0.000000 0.000000 0.000000 0.000000 0.000000 0.000000 0.000000 0.000000 0.000000 0.000000 0.000000 0.000000 0.000000 0.000000 0.000000 12.932673 12.932673 12.932673 12.932673 12.932673 12.932673 12.932673 12.932673 0.000000 0.000000 0.000000 0.000000 0.000000 0.000000 0.000000 27.694183 27.694183 27.694183 27.694183 27.694183 27.694183 27.694183 27.694183 27.694183 27.694183 27.694183 27.694183 27.694183 27.694183 0.000000 0.000000 0.000000 0.000000 0.000000 0.000000 0.000000 0.000000 0.000000 0.000000 0.000000 0.000000 0.000000 0.000000 0.000000 0.000000 0.000000 0.000000 17.432477 17.432477 17.432477 17.432477 17.432477 17.432477 17.432477 0.000000 0.000000 0.000000 0.000000 0.000000 0.000000 0.000000 0.000000 0.000000 0.000000 0.000000 0.000000 0.000000 0.000000 0.000000 0.000000 0.000000 0.000000 0.000000
0.000000 0.000000 0.000000 0.000000 0.000000 0.000000 18.192173 18.192173 18.192173 18.192173 18.192173 18.192173 18.192173 18.192173 0.000000 0.000000 0.000000 0.000000 0.000000 0.000000 0.000000 0.000000 0.000000 0.000000 0.000000 0.000000 0.000000 0.000000 0.000000 0.000000 12.932673 12.932673 12.932673 12.932673 12.932673 12.932673 12.932673 12.932673 0.000000 0.000000 0.000000 0.000000 0.000000 0.000000 0.000000 27.694183 27.694183 27.694183 27.694183 27.694183 27.694183 27.694183 27.694183 27.694183 27.694183 27.694183 27.694183 27.694183 27.694183 0.000000 0.000000 0.000000 0.000000 0.000000 0.000000 0.000000 0.000000 0.000000 0.000000 0.000000 0.000000 0.000000 0.000000 0.000000 0.000000 0.000000 0.000000 17.432477 17.432477 17.432477 17.432477 17.432477 17.432477 17.432477 0.000000 0.000000 0.000000 0.000000 0.000000 0.000000 0.000000 0.000000 0.000000 0.000000 0.000000 0.000000 0.000000 0.000000 0.000000 0.000000 0.000000 0.000000 0.000000
0.000000 0.000000 0.000000 0.000000 0.000000 0.000000 18.192173 18.192173 18.192173 18.192173 18.192173 18.192173 18.192173 18.192173 0.000000 0.000000 0.000000 0.000000 2.298126 2.298126 2.298126 0.000000 0.000000 0.000000 0.000000 1.803174 1.803174 1.803174 0.000000 0.000000 12.932673 12.932673 12.932673 12.932673 12.932673 12.932673 12.932673 12.932673 0.000000 0.000000 0.000000 0.000000 0.000000 0.000000 0.000000 27.694183 27.694183 27.694183 27.694183 27.694183 27.694183 27.694183 27.694183 27.694183 27.694183 27.694183 27.694183 27.694183 27.694183 0.000000 0.000000 0.000000 0.000000 0.000000 0.000000 0.000000 0.000000 0.000000 0.000000 0.000000 0.000000 0.000000 0.000000 0.000000 0.000000 0.000000 0.000000 17.432477 17.432477 17.432477 17.432477 17.432477 17.432477 17.432477 0.000000 0.000000 0.000000 0.000000 0.000000 0.000000 0.000000 0.000000 0.000000 0.000000 0.000000 0.000000 0.000000 0.000000 0.000000 0.000000 0.000000 0.000000 0.000000
0.000000 0.000000 0.000000 0.000000 0.000000 0.000000 18.192173 18.192173 18.192173 18.192173 18.192173 18.192173 18.192173 18.192173 0.000000 0.000000 0.000000 0.000000 2.298126 2.298126 2.298126 0.000000 0.000000 0.000000 0.000000 1.803174 1.803174 1.803174 0.000000 0.000000 12.932673 12.932673 12.932673 12.932673 12.932673 12.932673 12.932673 12.932673 0.000000 0.000000 0.000000 0.000000 0.000000 0.000000 0.000000 27.694183 27.694183 27.694183 27.694183 27.694183 27.694183 27.694183 27.694183 27.694183 27.694183 27.694183 27.694183 27.694183 27.694183 0.000000 0.000000 0.000000 0.000000 0.000000 0.000000 0.000000 0.000000 0.000000 0.000000 0.000000 0.000000 0.000000 0.000000 0.000000 0.000000 0.000000 0.000000 17.432477 17.432477 17.432477 17.432477 17.432477 17.432477 17.432477 0.000000 0.000000 0.000000 0.000000 0.000000 0.000000 0.000000 0.000000 0.000000 0.000000 0.000000 0.000000 0.000000 0.000000 0.000000 0.000000 0.000000 0.000000 0.000000
0.000000 0.000000 0.000000 0.000000 0.000000 0.000000 18.192173 18.192173 18.192173 18.192173 18.192173 18.192173 18.192173 18.192173 0.000000 0.000000 0.000000 0.000000 2.298126 2.298126 2.298126 0.000000 0.000000 0.000000 0.000000 1.803174 1.803174 1.803174 0.000000 0.000000 12.932673 12.932673 12.932673 12.932673 12.932673 12.932673 12.932673 12.932673 0.000000 0.000000 0.000000 0.000000 0.000000 0.000000 0.000000 27.694183 27.694183 27.694183 27.694183 27.694183 27.694183 27.694183 27.694183 27.694183 27.694183 27.694183 27.694183 27.694183 27.694183 0.000000 0.000000 0.000000 0.000000 0.000000 0.000000 0.000000 0.000000 0.000000 0.000000 0.000000 0.000000 0.000000 0.000000 0.000000 0.000000 0.000000 0.000000 17.432477 17.432477 17.432477 17.432477 17.432477 17.432477 17.432477 0.000000 0.000000 0.000000 0.000000 0.000000 0.000000 0.000000 0.000000 0.000000 0.000000 0.000000 0.000000 0.000000 0.000000 0.000000 0.000000 0.000000 0.000000 0.000000
0.000000 0.000000 0.000000 0.000000 0.000000 0.000000 0.000000 0.000000 0.000000 0.000000 0.000000 0.000000 0.000000 0.000000 0.000000 0.000000 0.000000 0.000000 0.000000 0.000000 0.000000 0.000000 0.000000 0.000000 0.000000 0.000000 0.000000 0.000000 0.000000 0.000000 12.932673 12.932673 12.932673 12.932673 12.932673 12.932673 12.932673 12.932673 0.000000 0.000000 0.000000 0.000000 0.000000 0.000000 0.000000 0.000000 0.000000 0.000000 0.000000 0.000000 0.000000 0.000000 0.000000 0.000000 0.000000 0.000000 0.000000 0.000000 0.000000 0.000000 0.000000 0.000000 0.000000 0.000000 0.000000 0.000000 0.000000 0.000000 0.000000 0.000000 0.000000 0.000000 0.000000 0.000000 0.000000 0.000000 0.000000 17.432477 17.432477 17.432477 17.432477 17.432477 17.432477 17.432477 0.000000 0.000000 0.000000 0.000000 0.000000 0.000000 0.000000 0.000000 0.000000 0.000000 0.000000 0.000000 0.000000 0.000000 0.000000 0.000000 0.000000 0.000000 0.000000
0.000000 0.000000 0.000000 0.000000 0.000000 0.000000 0.000000 0.000000 0.000000 0.000000 0.000000 0.000000 0.000000 0.000000 0.000000 0.000000 0.000000 0.000000 0.000000 0.000000 0.000000 0.000000 0.000000 0.000000 0.000000 0.000000 0.000000 0.000000 0.000000 0.000000 12.932673 12.932673 12.932673 12.932673 12.932673 12.932673 12.932673 12.932673 0.000000 0.000000 0.000000 0.000000 0.000000 0.000000 0.000000 0.000000 0.000000 0.000000 0.000000 0.000000 0.000000 0.000000 0.000000 0.000000 0.000000 0.000000 0.000000 0.000000 0.000000 0.000000 0.000000 0.000000 0.000000 0.000000 0.000000 0.000000 0.000000 0.000000 0.000000 0.000000 0.000000 0.000000 0.000000 0.000000 0.000000 0.000000 0.000000 17.432477 17.432477 17.432477 17.432477 17.432477 17.432477 17.432477 0.000000 0.000000 0.000000 0.000000 0.000000 0.000000 0.000000 0.000000 0.000000 0.000000 0.000000 0.000000 0.000000 0.000000 0.000000 0.000000 0.000000 0.000000 0.000000
0.000000 0.000000 0.000000 0.000000 0.000000 0.000000 0.000000 0.000000 0.000000 0.000000 0.000000 0.000000 0.000000 0.000000 0.000000 0.000000 0.000000 0.000000 0.000000 0.000000 0.000000 0.000000 0.000000 0.000000 0.000000 0.000000 0.000000 0.000000 0.000000 0.000000 0.000000 0.000000 0.000000 0.000000 0.000000 0.000000 0.000000 0.000000 0.000000 0.000000 0.000000 0.000000 0.000000 0.000000 0.000000 0.000000 0.000000 0.000000 0.000000 0.000000 0.000000 0.000000 0.000000 0.000000 0.000000 0.000000 0.000000 0.000000 0.000000 0.000000 0.000000 0.000000 0.000000 0.000000 0.000000 0.000000 0.000000 0.000000 0.000000 0.000000 0.000000 0.000000 0.000000 0.000000 0.000000 0.000000 0.000000 0.000000 0.000000 0.000000 0.000000 0.000000 0.000000 0.000000 0.000000 0.000000 0.000000 0.000000 0.000000 0.000000 0.000000 0.000000 0.000000 0.000000 0.000000 0.000000 0.000000 0.000000 0.000000 0.000000 0.000000 0.000000 0.000000
0.000000 0.000000 0.000000 0.000000 0.000000 0.000000 0.000000 0.000000 0.000000 0.000000 0.000000 0.000000 0.000000 0.000000 0.000000 0.000000 0.000000 0.000000 0.000000 0.000000 0.000000 0.000000 0.000000 0.000000 0.000000 0.000000 0.000000 0.000000 0.000000 0.000000 0.000000 0.000000 0.000000 0.000000 0.000000 0.000000 0.000000 0.000000 0.000000 0.000000 0.000000 0.000000 0.000000 0.000000 0.000000 0.000000 0.000000 0.000000 0.000000 0.000000 0.000000 0.000000 0.000000 0.000000 0.000000 0.000000 0.000000 0.000000 0.000000 0.000000 0.000000 0.000000 0.000000 0.000000 0.000000 0.000000 0.000000 0.000000 0.000000 0.000000 0.000000 0.000000 0.000000 0.000000 0.000000 0.000000 0.000000 0.000000 0.000000 0.000000 0.000000 0.000000 0.000000 0.000000 0.000000 0.000000 0.000000 0.000000 0.000000 0.000000 0.000000 0.000000 0.000000 0.000000 0.000000 0.000000 0.000000 0.000000 0.000000 0.000000 0.000000 0.000000 0.000000
0.000000 0.000000 0.000000 0.000000 0.000000 0.000000 0.000000 0.000000 0.000000 0.000000 0.000000 0.000000 0.000000 0.000000 0.000000 0.000000 0.000000 0.000000 0.000000 0.000000 0.000000 0.000000 0.000000 0.000000 0.000000 0.000000 0.000000 0.000000 0.000000 0.000000 0.000000 0.000000 0.000000 0.000000 0.000000 0.000000 0.000000 0.000000 0.000000 0.000000 0.000000 0.000000 0.000000 0.000000 0.000000 0.000000 0.000000 0.000000 0.000000 0.000000 0.000000 0.000000 0.000000 0.000000 0.000000 0.000000 0.000000 0.000000 0.000000 0.000000 0.000000 0.000000 0.000000 0.000000 0.000000 0.000000 0.000000 0.000000 0.000000 0.000000 0.000000 0.000000 0.000000 0.000000 0.000000 0.000000 0.000000 0.000000 0.000000 0.000000 0.000000 0.000000 0.000000 0.000000 0.000000 0.000000 0.000000 0.000000 0.000000 0.000000 0.000000 0.000000 0.000000 0.000000 0.000000 0.000000 0.000000 0.000000 0.000000 0.000000 0.000000 0.000000 0.000000
0.000000 0.000000 0.000000 0.000000 0.000000 0.000000 0.000000 0.000000 0.000000 0.000000 0.000000 0.000000 0.000000 0.000000 0.000000 0.000000 0.000000 0.000000 0.000000 0.000000 0.000000 0.000000 0.000000 0.000000 0.000000 0.000000 0.000000 0.000000 0.000000 0.000000 0.000000 0.000000 0.000000 0.000000 0.000000 0.000000 0.000000 0.000000 0.000000 0.000000 0.000000 0.000000 0.000000 0.000000 0.000000 0.000000 0.000000 0.000000 0.000000 0.000000 0.000000 0.000000 0.000000 0.000000 0.000000 0.000000 0.000000 0.000000 0.000000 0.000000 0.000000 0.000000 0.000000 0.000000 0.000000 0.000000 0.000000 0.000000 0.000000 0.000000 0.000000 0.000000 0.000000 0.000000 0.000000 0.000000 0.000000 0.000000 0.000000 0.000000 0.000000 0.000000 0.000000 0.000000 0.000000 0.000000 0.000000 0.000000 0.000000 0.000000 0.000000 0.000000 0.000000 0.000000 0.000000 0.000000 0.000000 0.000000 0.000000 0.000000 0.000000 0.000000 0.000000
0.000000 0.000000 0.000000 0.000000 0.000000 0.000000 0.000000 0.000000 0.000000 0.000000 0.000000 0.000000 0.000000 0.000000 0.000000 0.000000 0.000000 0.000000 0.000000 0.000000 0.000000 0.000000 0.000000 0.000000 0.000000 0.000000 0.000000 0.000000 0.000000 0.000000 0.000000 0.000000 0.000000 0.000000 0.000000 0.000000 0.000000 0.000000 0.000000 0.000000 0.000000 0.000000 0.000000 0.000000 0.000000 0.000000 0.000000 0.000000 0.000000 0.000000 0.000000 0.000000 0.000000 0.000000 0.000000 0.000000 0.000000 0.000000 0.000000 0.000000 0.000000 0.000000 0.000000 0.000000 0.000000 0.000000 0.000000 0.000000 0.000000 0.000000 0.000000 0.000000 0.000000 0.000000 0.000000 0.000000 0.000000 0.000000 0.000000 0.000000 0.000000 0.000000 0.000000 0.000000 0.000000 0.000000 0.000000 0.000000 0.000000 0.000000 0.000000 0.000000 0.000000 0.000000 0.000000 0.000000 0.000000 0.000000 0.000000 0.000000 0.000000 0.000000 0.000000
0.000000 0.000000 0.000000 0.000000 0.000000 0.000000 0.000000 0.000000 0.000000 0.000000 0.000000 0.000000 0.000000 0.000000 0.000000 0.000000 0.000000 0.000000 0.000000 0.000000 0.000000 0.000000 0.000000 0.000000 0.000000 0.000000 0.000000 0.000000 0.000000 0.000000 0.000000 0.000000 0.000000 0.000000 0.000000 0.000000 0.000000 0.000000 0.000000 0.000000 0.000000 0.000000 0.000000 0.000000 0.000000 0.000000 0.000000 0.000000 0.000000 0.000000 0.000000 0.000000 0.000000 0.000000 0.000000 0.000000 0.000000 0.000000 0.000000 0.000000 0.000000 0.000000 0.000000 0.000000 0.000000 0.000000 0.000000 0.000000 0.000000 0.000000 0.000000 0.000000 0.000000 0.000000 0.000000 0.000000 0.000000 0.000000 0.000000 0.000000 0.000000 0.000000 0.000000 0.000000 0.000000 0.000000 0.000000 0.000000 0.000000 0.000000 0.000000 0.000000 0.000000 0.000000 0.000000 0.000000 0.000000 0.000000 0.000000 0.000000 0.000000 0.000000 0.000000
0.000000 0.000000 0.000000 0.000000 0.000000 0.000000 0.000000 0.000000 0.000000 0.000000 0.000000 0.000000 0.000000 0.000000 0.000000 0.000000 0.000000 0.000000 0.000000 0.000000 0.000000 0.000000 0.000000 0.000000 0.000000 0.000000 0.000000 0.000000 0.000000 0.000000 0.000000 0.000000 0.000000 0.000000 0.000000 0.000000 0.000000 0.000000 0.000000 0.000000 0.000000 0.000000 0.000000 0.000000 0.000000 0.000000 0.000000 0.000000 0.000000 0.000000 0.000000 0.000000 0.000000 0.000000 0.000000 0.000000 0.000000 0.000000 0.000000 0.000000 0.000000 0.000000 0.000000 0.000000 0.000000 0.000000 0.000000 0.000000 0.000000 0.000000 0.000000 0.000000 0.000000 0.000000 0.000000 0.000000 0.000000 0.000000 0.000000 0.000000 0.000000 0.000000 0.000000 0.000000 0.000000 0.000000 0.000000 0.000000 0.000000 0.000000 0.000000 0.000000 0.000000 0.000000 0.000000 0.000000 0.000000 0.000000 0.000000 0.000000 0.000000 0.000000 0.000000
0.000000 0.000000 0.000000 0.000000 0.000000 0.000000 6.386655 6.386655 6.386655 6.386655 6.386655 6.386655 6.386655 0.000000 0.000000 0.000000 0.000000 0.000000 0.000000 0.000000 0.000000 0.000000 0.000000 0.000000 0.000000 0.000000 0.000000 0.000000 0.000000 0.000000 0.000000 0.000000 0.000000 0.000000 0.000000 0.000000 0.000000 0.000000 0.000000 0.000000 0.000000 0.000000 0.000000 0.000000 0.000000 31.250156 31.250156 31.250156 31.250156 31.250156 31.250156 31.250156 31.250156 31.250156 31.250156 31.250156 31.250156 31.250156 0.000000 0.000000 0.000000 0.000000 0.000000 0.000000 0.000000 0.000000 0.000000 0.000000 0.000000 0.000000 0.000000 0.000000 0.000000 0.000000 0.000000 0.000000 0.000000 0.000000 0.000000 6.262591 6.262591 6.262591 0.000000 0.000000 0.000000 0.000000 0.000000 0.000000 0.000000 0.000000 0.000000 12.641885 12.641885 12.641885 12.641885 12.641885 12.641885 0.000000 0.000000 0.000000 0.000000 0.000000 0.000000
0.000000 0.000000 0.000000 0.000000 0.000000 0.000000 6.386655 6.386655 6.386655 6.386655 6.386655 6.386655 6.386655 0.000000 0.000000 0.000000 0.000000 0.000000 0.000000 0.000000 0.000000 0.000000 0.000000 0.000000 0.000000 0.000000 0.000000 0.000000 0.000000 0.000000 0.000000 0.000000 0.000000 0.000000 0.000000 0.000000 0.000000 0.000000 0.000000 0.000000 0.000000 0.000000 0.000000 0.000000 0.000000 31.250156 31.250156 31.250156 31.250156 31.250156 31.250156 31.250156 31.250156 31.250156 31.250156 31.250156 31.250156 31.250156 0.000000 0.000000 0.000000 0.000000 0.000000 0.000000 0.000000 0.000000 0.000000 0.000000 0.000000 0.000000 0.000000 0.000000 0.000000 0.000000 0.000000 0.000000 0.000000 0.000000 0.000000 6.262591 6.262591 6.262591 0.000000 0.000000 0.000000 0.000000 0.000000 0.000000 0.000000 0.000000 0.000000 12.641885 12.641885 12.641885 12.641885 12.641885 12.641885 0.000000 0.000000 0.000000 0.000000 0.000000 0.000000
0.000000 0.000000 0.000000 0.000000 0.000000 0.000000 6.386655 6.386655 6.386655 6.386655 6.386655 6.386655 6.386655 0.000000 0.000000 0.000000 0.000000 0.000000 0.000000 0.000000 0.000000 0.000000 0.000000 0.000000 0.000000 0.000000 0.000000 0.000000 0.000000 0.000000 0.000000 0.000000 0.000000 0.000000 0.000000 0.000000 0.000000 0.000000 0.000000 0.000000 0.000000 0.000000 0.000000 0.000000 0.000000 31.250156 31.250156 31.250156 31.250156 31.250156 31.250156 31.250156 31.250156 31.250156 31.250156 31.250156 31.250156 31.250156 0.000000 0.000000 0.000000 0.000000 0.000000 0.000000 0.000000 0.000000 0.000000 0.000000 0.000000 0.000000 0.000000 0.000000 0.000000 0.000000 0.000000 0.000000 0.000000 0.000000 0.000000 6.262591 6.262591 6.262591 0.000000 0.000000 0.000000 0.000000 0.000000 0.000000 0.000000 0.000000 0.000000 12.641885 12.641885 12.641885 12.641885 12.641885 12.641885 0.000000 0.000000 0.000000 0.000000 0.000000 0.000000
0.000000 0.000000 0.000000 0.000000 0.000000 0.000000 0.000000 0.000000 0.000000 0.000000 0.000000 0.000000 0.000000 0.000000 0.000000 0.000000 0.000000 0.000000 0.000000 0.000000 0.000000 0.000000 0.000000 0.000000 0.000000 0.000000 0.000000 0.000000 0.000000 0.000000 0.000000 0.000000 0.000000 0.000000 0.000000 0.000000 0.000000 0.000000 0.000000 0.000000 0.000000 0.000000 0.000000 0.000000 0.000000 31.250156 31.250156 31.250156 31.250156 31.250156 31.250156 31.250156 31.250156 31.250156 31.250156 31.250156 31.250156 31.250156 0.000000 0.000000 0.000000 0.000000 0.000000 0.000000 0.000000 0.000000 0.000000 0.000000 0.000000 0.000000 0.000000 0.000000 0.000000 0.000000 0.000000 0.000000 0.000000 0.000000 0.000000 6.262591 6.262591 6.262591 0.000000 0.000000 0.000000 0.000000 0.000000 0.000000 0.000000 0.000000 0.000000 12.641885 12.641885 12.641885 12.641885 12.641885 12.641885 0.000000 0.000000 0.000000 0.000000 0.000000 0.000000
0.000000 0.000000 0.000000 0.000000 0.000000 0.000000 0.000000 0.000000 0.000000 0.000000 0.000000 0.000000 0.000000 0.000000 0.000000 0.000000 0.000000 0.000000 0.000000 0.000000 0.000000 0.000000 0.000000 0.000000 0.000000 0.000000 0.000000 0.000000 0.000000 0.000000 0.000000 0.000000 0.000000 0.000000 0.000000 0.000000 0.000000 0.000000 0.000000 0.000000 0.000000 0.000000 0.000000 0.000000 0.000000 31.250156 31.250156 31.250156 31.250156 31.250156 31.250156 31.250156 31.250156 31.250156 31.250156 31.250156 31.250156 31.250156 0.000000 0.000000 0.000000 0.000000 0.000000 0.000000 0.000000 0.000000 0.000000 0.000000 0.000000 0.000000 0.000000 0.000000 0.000000 0.000000 0.000000 0.000000 0.000000 0.000000 0.000000 6.262591 6.262591 6.262591 0.000000 0.000000 0.000000 0.000000 0.000000 0.000000 0.000000 0.000000 0.000000 12.641885 12.641885 12.641885 12.641885 12.641885 12.641885 0.000000 0.000000 0.000000 0.000000 0.000000 0.000000
0.000000 0.000000 0.000000 0.000000 31.257776 31.257776 31.257776 31.257776 31.257776 31.257776 31.257776 31.257776 31.257776 31.257776 31.257776 27.456202 27.456202 27.456202 27.456202 27.456202 27.456202 27.456202 27.456202 27.456202 18.985433 18.985433 18.985433 18.985433 18.985433 18.985433 18.985433 20.310397 20.310397 20.310397 20.310397 20.310397 20.310397 20.310397 0.000000 0.000000 0.000000 0.000000 0.000000 0.000000 0.000000 31.250156 31.250156 31.250156 31.250156 31.250156 31.250156 31.250156 31.250156 31.250156 31.250156 31.250156 31.250156 31.250156 0.000000 0.000000 0.000000 0.000000 0.000000 0.000000 0.000000 0.000000 0.000000 0.000000 0.000000 0.000000 0.000000 0.000000 0.000000 0.000000 0.000000 0.000000 0.000000 0.000000 0.000000 6.262591 6.262591 6.262591 0.000000 0.000000 0.000000 0.000000 0.000000 0.000000 0.000000 0.000000 0.000000 12.641885 12.641885 12.641885 12.641885 12.641885 12.641885 0.000000 0.000000 0.000000 0.000000 0.000000 0.000000
0.000000 0.000000 0.000000 0.000000 31.257776 31.257776 31.257776 31.257776 31.257776 31.257776 31.257776 31.257776 31.257776 31.257776 31.257776 27.456202 27.456202 27.456202 27.456202 27.456202 27.456202 27.456202 27.456202 27.456202 18.985433 18.985433 18.985433 18.985433 18.985433 18.985433 18.985433 20.310397 20.310397 20.310397 20.310397 20.310397 20.310397 20.310397 0.000000 0.000000 0.000000 0.000000 0.000000 0.000000 0.000000 31.250156 31.250156 31.250156 31.250156 31.250156 31.250156 31.250156 31.250156 31.250156 31.250156 31.250156 31.250156 31.250156 0.000000 0.000000 0.000000 0.000000 0.000000 0.000000 0.000000 0.000000 0.000000 0.000000 0.000000 0.000000 0.000000 0.000000 0.000000 0.000000 0.000000 0.000000 0.000000 0.000000 0.000000 6.262591 6.262591 6.262591 0.000000 0.000000 0.000000 0.000000 0.000000 0.000000 0.000000 0.000000 0.000000 12.641885 12.641885 12.641885 12.641885 12.641885 12.641885 0.000000 0.000000 0.000000 0.000000 0.000000 0.000000
0.000000 0.000000 0.000000 0.000000 31.257776 31.257776 31.257776 31.257776 31.257776 31.257776 31.257776 31.257776 31.257776 31.257776 31.257776 27.456202 27.456202 27.456202 27.456202 27.456202 27.456202 27.456202 27.456202 27.456202 18.985433 18.985433 18.985433 18.985433 18.985433 18.985433 18.985433 20.310397 20.310397 20.310397 20.310397 20.310397 20.310397 20.310397 0.000000 0.000000 0.000000 0.000000 0.000000 0.000000 0.000000 31.250156 31.250156 31.250156 31.250156 31.250156 31.250156 31.250156 31.250156 31.250156 31.250156 31.250156 31.250156 31.250156 0.000000 0.000000 0.000000 0.000000 0.000000 0.000000 0.000000 0.000000 0.000000 0.000000 0.000000 0.000000 0.000000 0.000000 0.000000 0.000000 0.000000 0.000000 0.000000 0.000000 0.000000 0.000000 0.000000 0.000000 0.000000 0.000000 0.000000 0.000000 0.000000 0.000000 0.000000 0.000000 0.000000 12.641885 12.641885 12.641885 12.641885 12.641885 12.641885 0.000000 0.000000 0.000000 0.000000 0.000000 0.000000
0.000000 0.000000 0.000000 0.000000 31.257776 31.257776 31.257776 31.257776 31.257776 31.257776 31.257776 31.257776 31.257776 31.257776 31.257776 27.456202 27.456202 27.456202 27.456202 27.456202 27.456202 27.456202 27.456202 27.456202 18.985433 18.985433 18.985433 18.985433 18.985433 18.985433 18.985433 20.310397 20.310397 20.310397 20.310397 20.310397 20.310397 20.310397 0.000000 0.000000 0.000000 0.000000 0.000000 0.000000 0.000000 31.250156 31.250156 31.250156 31.250156 31.250156 31.250156 31.250156 31.250156 31.250156 31.250156 31.250156 31.250156 31.250156 0.000000 0.000000 0.000000 0.000000 0.000000 0.000000 0.000000 0.000000 0.000000 0.000000 0.000000 0.000000 0.000000 0.000000 0.000000 0.000000 0.000000 0.000000 0.000000 0.000000 0.000000 0.000000 0.000000 0.000000 0.000000 0.000000 0.000000 0.000000 0.000000 0.000000 0.000000 0.000000 0.000000 0.000000 0.000000 0.000000 0.000000 0.000000 0.000000 0.000000 0.000000 0.000000 0.000000 0.000000 0.000000
0.000000 0.000000 0.000000 0.000000 31.257776 31.257776 31.257776 31.257776 31.257776 31.257776 31.257776 31.257776 31.257776 31.257776 31.257776 27.456202 27.456202 27.456202 27.456202 27.456202 27.456202 27.456202 27.456202 27.456202 18.985433 18.985433 18.985433 18.985433 18.985433 18.985433 18.985433 20.310397 20.310397 20.310397 20.310397 20.310397 20.310397 20.310397 0.000000 0.000000 0.000000 0.000000 0.000000 0.000000 0.000000 0.000000 0.000000 0.000000 0.000000 0.000000 0.000000 0.000000 0.000000 0.000000 0.000000 0.000000 0.000000 0.000000 0.000000 0.000000 0.000000 0.000000 0.000000 0.000000 0.000000 0.000000 0.000000 0.000000 0.000000 0.000000 0.000000 0.000000 0.000000 0.000000 0.000000 0.000000 0.000000 0.000000 0.000000 0.000000 0.000000 0.000000 0.000000 0.000000 0.000000 0.000000 0.000000 0.000000 0.000000 0.000000 0.000000 0.000000 0.000000 0.000000 0.000000 0.000000 0.000000 0.000000 0.000000 0.000000 0.000000 0.000000 0.000000
0.000000 0.000000 0.000000 0.000000 31.257776 31.257776 31.257776 31.257776 31.257776 31.257776 31.257776 31.257776 31.257776 31.257776 31.257776 27.456202 27.456202 27.456202 27.456202 27.456202 27.456202 27.456202 27.456202 27.456202 18.985433 18.985433 18.985433 18.985433 18.985433 18.985433 18.985433 20.310397 20.310397 20.310397 20.310397 20.310397 20.310397 20.310397 0.000000 0.000000 0.000000 0.000000 0.000000 0.000000 0.000000 0.000000 0.000000 0.000000 0.000000 0.000000 0.000000 0.000000 0.000000 0.000000 0.000000 0.000000 0.000000 0.000000 0.000000 0.000000 0.000000 0.000000 0.000000 0.000000 0.000000 0.000000 0.000000 0.000000 0.000000 0.000000 0.000000 0.000000 0.000000 0.000000 0.000000 0.000000 0.000000 0.000000 0.000000 0.000000 0.000000 0.000000 0.000000 0.000000 0.000000 0.000000 0.000000 0.000000 0.000000 0.000000 0.000000 0.000000 0.000000 0.000000 0.000000 0.000000 0.000000 0.000000 0.000000 0.000000 0.000000 0.000000 0.000000
0.000000 0.000000 0.000000 0.000000 31.257776 31.257776 31.257776 31.257776 31.257776 31.257776 31.257776 31.257776 31.257776 31.257776 31.257776 27.456202 27.456202 27.456202 27.456202 27.456202 27.456202 27.456202 27.456202 27.456202 18.985433 18.985433 18.985433 18.985433 18.985433 18.985433 18.985433 20.310397 20.310397 20.310397 20.310397 20.310397 20.310397 20.310397 0.000000 0.000000 0.000000 0.000000 0.000000 0.000000 0.000000 0.000000 0.000000 0.000000 0.000000 0.000000 0.000000 0.000000 0.000000 0.000000 0.000000 0.000000 0.000000 0.000000 0.000000 0.000000 0.000000 0.000000 0.000000 0.000000 0.000000 0.000000 0.000000 0.000000 0.000000 0.000000 0.000000 0.000000 0.000000 0.000000 0.000000 0.000000 0.000000 0.000000 0.000000 0.000000 0.000000 0.000000 0.000000 0.000000 0.000000 0.000000 0.000000 0.000000 0.000000 0.000000 0.000000 0.000000 0.000000 0.000000 0.000000 0.000000 0.000000 0.000000 0.000000 0.000000 0.000000 0.000000 0.000000
0.000000 0.000000 0.000000 0.000000 31.257776 31.257776 31.257776 31.257776 31.257776 31.257776 31.257776 31.257776 31.257776 31.257776 31.257776 27.456202 27.456202 27.456202 27.456202 27.456202 27.456202 27.456202 27.456202 27.456202 18.985433 18.985433 18.985433 18.985433 18.985433 18.985433 18.985433 20.310397 20.310397 20.310397 20.310397 20.310397 20.310397 20.310397 0.000000 0.000000 0.000000 0.000000 0.000000 0.000000 0.000000 0.000000 0.000000 0.000000 0.000000 0.000000 0.000000 0.000000 0.000000 0.000000 0.000000 0.000000 0.000000 0.000000 0.000000 0.000000 0.000000 0.000000 0.000000 0.000000 0.000000 0.000000 0.000000 0.000000 0.000000 0.000000 0.000000 0.000000 0.000000 0.000000 0.000000 0.000000 0.000000 0.000000 0.000000 0.000000 0.000000 0.000000 0.000000 0.000000 0.000000 0.000000 0.000000 0.000000 0.000000 0.000000 0.000000 0.000000 0.000000 0.000000 0.000000 0.000000 0.000000 0.000000 0.000000 0.000000 0.000000 0.000000 0.000000
0.000000 0.000000 0.000000 0.000000 31.257776 31.257776 31.257776 31.257776 31.257776 31.257776 31.257776 31.257776 31.257776 31.257776 31.257776 27.456202 27.456202 27.456202 27.456202 27.456202 27.456202 27.456202 27.456202 27.456202 18.985433 18.985433 18.985433 18.985433 18.985433 18.985433 18.985433 20.310397 20.310397 20.310397 20.310397 20.310397 20.310397 20.310397 0.000000 0.000000 0.000000 0.000000 0.000000 0.000000 0.000000 34.549250 34.549250 34.549250 34.549250 34.549250 34.549250 34.549250 34.549250 34.549250 34.549250 34.549250 34.549250 34.549250 0.000000 0.000000 0.000000 0.000000 21.388693 21.388693 21.388693 21.388693 21.388693 21.388693 21.388693 21.388693 0.000000 0.000000 0.000000 0.000000 0.000000 0.000000 0.000000 0.000000 0.000000 0.000000 0.000000 0.000000 0.000000 0.000000 0.000000 0.000000 0.000000 0.000000 0.000000 0.000000 0.000000 0.000000 0.000000 0.000000 0.000000 0.000000 0.000000 0.000000 0.000000 0.000000 0.000000 0.000000 0.000000
0.000000 0.000000 0.000000 0.000000 31.257776 31.257776 31.257776 31.257776 31.257776 31.257776 31.257776 31.257776 31.257776 31.257776 31.257776 27.456202 27.456202 27.456202 27.456202 27.456202 27.456202 27.456202 27.456202 27.456202 18.985433 18.985433 18.985433 18.985433 18.985433 18.985433 18.985433 20.310397 20.310397 20.310397 20.310397 20.310397 20.310397 20.310397 0.000000 0.000000 0.000000 0.000000 0.000000 0.000000 0.000000 34.549250 34.549250 34.549250 34.549250 34.549250 34.549250 34.549250 34.549250 34.549250 34.549250 34.549250 34.549250 34.549250 0.000000 0.000000 0.000000 0.000000 21.388693 21.388693 21.388693 21.388693 21.388693 21.388693 21.388693 21.388693 0.000000 0.000000 0.000000 0.000000 0.000000 0.000000 0.000000 0.000000 0.000000 0.000000 0.000000 0.000000 0.000000 0.000000 0.000000 0.000000 0.000000 0.000000 0.000000 0.000000 0.000000 0.000000 0.000000 0.000000 0.000000 0.000000 0.000000 0.000000 0.000000 0.000000 0.000000 0.000000 0.000000
0.000000 0.000000 0.000000 0.000000 31.257776 31.257776 31.257776 31.257776 31.257776 31.257776 31.257776 31.257776 31.257776 31.257776 31.257776 27.456202 27.456202 27.456202 27.456202 27.456202 27.456202 27.456202 27.456202 27.456202 18.985433 18.985433 18.985433 18.985433 18.985433 18.985433 18.985433 20.310397 20.310397 20.310397 20.310397 20.310397 20.310397 20.310397 0.000000 0.000000 0.000000 0.000000 0.000000 0.000000 0.000000 34.549250 34.549250 34.549250 34.549250 34.549250 34.549250 34.549250 34.549250 34.549250 34.549250 34.549250 34.549250 34.549250 0.000000 0.000000 0.000000 0.000000 21.388693 21.388693 21.388693 21.388693 21.388693 21.388693 21.388693 21.388693 0.000000 0.000000 0.000000 0.000000 0.000000 0.000000 0.000000 0.000000 0.000000 0.000000 0.000000 0.000000 0.000000 0.000000 0.000000 0.000000 0.000000 0.000000 0.000000 0.000000 0.000000 0.000000 0.000000 0.000000 0.000000 0.000000 0.000000 0.000000 0.000000 0.000000 0.000000 0.000000 0.000000
0.000000 0.000000 0.000000 0.000000 31.257776 31.257776 31.257776 31.257776 31.257776 31.257776 31.257776 31.257776 31.257776 31.257776 31.257776 27.456202 27.456202 27.456202 27.456202 27.456202 27.456202 27.456202 27.456202 27.456202 18.985433 18.985433 18.985433 18.985433 18.985433 18.985433 18.985433 20.310397 20.310397 20.310397 20.310397 20.310397 20.310397 20.310397 0.000000 0.000000 0.000000 0.000000 0.000000 0.000000 0.000000 34.549250 34.549250 34.549250 34.549250 34.549250 34.549250 34.549250 34.549250 34.549250 34.549250 34.549250 34.549250 34.549250 0.000000 0.000000 0.000000 0.000000 21.388693 21.388693 21.388693 21.388693 21.388693 21.388693 21.388693 21.388693 0.000000 0.000000 0.000000 0.000000 0.000000 0.000000 0.000000 0.000000 0.000000 0.000000 0.000000 0.000000 0.000000 0.000000 0.000000 0.000000 0.000000 0.000000 0.000000 0.000000 0.000000 0.000000 0.000000 0.000000 0.000000 0.000000 0.000000 0.000000 0.000000 0.000000 0.000000 0.000000 0.000000
0.000000 0.000000 0.000000 0.000000 0.000000 0.000000 0.000000 0.000000 0.000000 0.000000 0.000000 0.000000 0.000000 0.000000 0.000000 0.000000 0.000000 0.000000 0.000000 0.000000 0.000000 0.000000 0.000000 0.000000 14.196703 14.196703 14.196703 14.196703 14.196703 14.196703 14.196703 13.189257 13.189257 13.189257 13.189257 13.189257 13.189257 13.189257 0.000000 0.000000 0.000000 0.000000 0.000000 0.000000 0.000000 34.549250 34.549250 34.549250 34.549250 34.549250 34.549250 34.549250 34.549250 34.549250 34.549250 34.549250 34.549250 34.549250 0.000000 0.000000 0.000000 0.000000 21.388693 21.388693 21.388693 21.388693 21.388693 21.388693 21.388693 21.388693 0.000000 0.000000 0.000000 0.000000 0.000000 0.000000 0.000000 0.000000 0.000000 0.000000 0.000000 0.000000 0.000000 0.000000 0.000000 0.000000 0.000000 0.000000 0.000000 0.000000 0.000000 0.000000 0.000000 0.000000 0.000000 0.000000 0.000000 0.000000 0.000000 0.000000 0.000000 0.000000 0.000000
0.000000 0.000000 0.000000 0.000000 0.000000 0.000000 0.000000 0.000000 0.000000 0.000000 0.000000 0.000000 0.000000 0.000000 0.000000 0.000000 0.000000 0.000000 0.000000 0.000000 0.000000 0.000000 0.000000 0.000000 14.196703 14.196703 14.196703 14.196703 14.196703 14.196703 14.196703 13.189257 13.189257 13.189257 13.189257 13.189257 13.189257 13.189257 0.000000 0.000000 0.000000 0.000000 0.000000 0.000000 0.000000 34.549250 34.549250 34.549250 34.549250 34.549250 34.549250 34.549250 34.549250 34.549250 34.549250 34.549250 34.549250 34.549250 0.000000 0.000000 0.000000 0.000000 21.388693 21.388693 21.388693 21.388693 21.388693 21.388693 21.388693 21.388693 0.000000 0.000000 0.000000 0.000000 0.000000 0.000000 0.000000 0.000000 0.000000 0.000000 0.000000 0.000000 0.000000 0.000000 0.000000 0.000000 0.000000 0.000000 0.000000 0.000000 0.000000 0.000000 0.000000 0.000000 0.000000 0.000000 0.000000 0.000000 0.000000 0.000000 0.000000 0.000000 0.000000
0.000000 0.000000 0.000000 0.000000 0.000000 0.000000 0.000000 0.000000 0.000000 0.000000 0.000000 0.000000 0.000000 0.000000 0.000000 0.000000 0.000000 6.415023 6.415023 6.415023 6.415023 6.415023 6.415023 0.000000 14.196703 14.196703 14.196703 14.196703 14.196703 14.196703 14.196703 13.189257 13.189257 13.189257 13.189257 13.189257 13.189257 13.189257 0.000000 0.000000 0.000000 0.000000 0.000000 0.000000 0.000000 34.549250 34.549250 34.549250 34.549250 34.549250 34.549250 34.549250 34.549250 34.549250 34.549250 34.549250 34.549250 34.549250 0.000000 0.000000 0.000000 0.000000 21.388693 21.388693 21.388693 21.388693 21.388693 21.388693 21.388693 21.388693 0.000000 0.000000 0.000000 0.000000 0.000000 0.000000 0.000000 0.000000 0.000000 0.000000 0.000000 0.000000 0.000000 0.000000 0.000000 0.000000 0.000000 0.000000 0.000000 0.000000 0.000000 0.000000 0.000000 0.000000 0.000000 0.000000 0.000000 0.000000 0.000000 0.000000 0.000000 0.000000 0.000000
0.000000 0.000000 0.000000 0.000000 0.000000 0.000000 0.000000 0.000000 0.000000 0.000000 0.000000 0.000000 0.000000 0.000000 0.000000 0.000000 0.000000 6.415023 6.415023 6.415023 6.415023 6.415023 6.415023 0.000000 14.196703 14.196703 14.196703 14.196703 14.196703 14.196703 14.196703 13.189257 13.189257 13.189257 13.189257 13.189257 13.189257 13.189257 0.000000 0.000000 0.000000 0.000000 0.000000 0.000000 0.000000 34.549250 34.549250 34.549250 34.549250 34.549250 34.549250 34.549250 34.549250 34.549250 34.549250 34.549250 34.549250 34.549250 0.000000 0.000000 0.000000 0.000000 21.388693 21.388693 21.388693 21.388693 21.388693 21.388693 21.388693 21.388693 0.000000 0.000000 0.000000 0.000000 0.000000 0.000000 0.000000 0.000000 0.000000 0.000000 0.000000 0.000000 0.000000 0.000000 0.000000 0.000000 0.000000 0.000000 0.000000 0.000000 0.000000 0.000000 0.000000 0.000000 0.000000 0.000000 0.000000 0.000000 0.000000 0.000000 0.000000 0.000000 0.000000
0.000000 0.000000 0.000000 0.000000 0.000000 0.000000 0.000000 0.000000 0.000000 0.000000 0.000000 0.000000 0.000000 0.000000 0.000000 0.000000 0.000000 6.415023 6.415023 6.415023 6.415023 6.415023 6.415023 0.000000 14.196703 14.196703 14.196703 14.196703 14.196703 14.196703 14.196703 13.189257 13.189257 13.189257 13.189257 13.189257 13.189257 13.189257 0.000000 0.000000 0.000000 0.000000 0.000000 0.000000 0.000000 34.549250 34.549250 34.549250 34.549250 34.549250 34.549250 34.549250 34.549250 34.549250 34.549250 34.549250 34.549250 34.549250 0.000000 0.000000 0.000000 0.000000 21.388693 21.388693 21.388693 21.388693 21.388693 21.388693 21.388693 21.388693 0.000000 0.000000 0.000000 0.000000 0.000000 0.000000 0.000000 0.000000 0.000000 0.000000 0.000000 0.000000 0.000000 0.000000 0.000000 0.000000 0.000000 0.000000 0.000000 0.000000 0.000000 0.000000 0.000000 0.000000 0.000000 0.000000 0.000000 0.000000 0.000000 0.000000 0.000000 0.000000 0.000000
0.000000 0.000000 0.000000 0.000000 0.000000 0.000000 0.000000 0.000000 0.000000 0.000000 0.000000 0.000000 0.000000 0.000000 0.000000 0.000000 0.000000 6.415023 6.415023 6.415023 6.415023 6.415023 6.415023 0.000000 14.196703 14.196703 14.196703 14.196703 14.196703 14.196703 14.196703 13.189257 13.189257 13.189257 13.189257 13.189257 13.189257 13.189257 0.000000 0.000000 0.000000 0.000000 0.000000 0.000000 0.000000 34.549250 34.549250 34.549250 34.549250 34.549250 34.549250 34.549250 34.549250 34.549250 34.549250 34.549250 34.549250 34.549250 0.000000 0.000000 0.000000 0.000000 21.388693 21.388693 21.388693 21.388693 21.388693 21.388693 21.388693 21.388693 0.000000 0.000000 0.000000 0.000000 0.000000 0.000000 0.000000 0.000000 0.000000 0.000000 0.000000 0.000000 0.000000 0.000000 0.000000 0.000000 0.000000 0.000000 0.000000 0.000000 0.000000 0.000000 0.000000 0.000000 0.000000 0.000000 0.000000 0.000000 0.000000 0.000000 0.000000 0.000000 0.000000
0.000000 0.000000 0.000000 0.000000 0.000000 0.000000 0.000000 0.000000 0.000000 0.000000 0.000000 0.000000 0.000000 0.000000 0.000000 0.000000 0.000000 6.415023 6.415023 6.415023 6.415023 6.415023 6.415023 0.000000 14.196703 14.196703 14.196703 14.196703 14.196703 14.196703 14.196703 13.189257 13.189257 13.189257 13.189257 13.189257 13.189257 13.189257 0.000000 0.000000 0.000000 0.000000 0.000000 0.000000 0.000000 34.549250 34.549250 34.549250 34.549250 34.549250 34.549250 34.549250 34.549250 34.549250 34.549250 34.549250 34.549250 34.549250 0.000000 0.000000 0.000000 0.000000 21.388693 21.388693 21.388693 21.388693 21.388693 21.388693 21.388693 21.388693 0.000000 0.000000 0.000000 0.000000 0.000000 0.000000 0.000000 0.000000 0.000000 0.000000 0.000000 0.000000 0.000000 0.000000 0.000000 0.000000 0.000000 0.000000 0.000000 0.000000 0.000000 0.000000 0.000000 0.000000 0.000000 0.000000 0.000000 0.000000 0.000000 0.000000 0.000000 0.000000 0.000000
0.000000 0.000000 0.000000 0.000000 0.000000 0.000000 0.000000 0.000000 0.000000 0.000000 0.000000 0.000000 0.000000 0.000000 0.000000 0.000000 0.000000 0.000000 0.000000 0.000000 0.000000 0.000000 0.000000 0.000000 14.196703 14.196703 14.196703 14.196703 14.196703 14.196703 14.196703 13.189257 13.189257 13.189257 13.189257 13.189257 13.189257 13.189257 0.000000 0.000000 0.000000 0.000000 0.000000 0.000000 0.000000 0.000000 0.000000 0.000000 0.000000 0.000000 0.000000 0.000000 0.000000 0.000000 0.000000 0.000000 0.000000 0.000000 0.000000 0.000000 0.000000 0.000000 0.000000 0.000000 0.000000 0.000000 0.000000 0.000000 0.000000 0.000000 0.000000 0.000000 0.000000 0.000000 0.000000 0.000000 0.000000 0.000000 0.000000 0.000000 0.000000 0.000000 0.000000 0.000000 0.000000 0.000000 0.000000 0.000000 0.000000 0.000000 0.000000 0.000000 0.000000 0.000000 0.000000 0.000000 0.000000 0.000000 0.000000 0.000000 0.000000 0.000000 0.000000
0.000000 0.000000 0.000000 0.000000 0.000000 0.000000 0.000000 0.000000 0.000000 0.000000 0.000000 0.000000 0.000000 0.000000 0.000000 0.000000 0.000000 0.000000 0.000000 0.000000 0.000000 0.000000 0.000000 0.000000 14.196703 14.196703 14.196703 14.196703 14.196703 14.196703 14.196703 13.189257 13.189257 13.189257 13.189257 13.189257 13.189257 13.189257 0.000000 0.000000 0.000000 0.000000 0.000000 0.000000 0.000000 0.000000 0.000000 0.000000 0.000000 0.000000 0.000000 0.000000 0.000000 0.000000 0.000000 0.000000 0.000000 0.000000 0.000000 0.000000 0.000000 0.000000 0.000000 0.000000 0.000000 0.000000 0.000000 0.000000 0.000000 0.000000 0.000000 0.000000 0.000000 0.000000 0.000000 0.000000 0.000000 0.000000 0.000000 0.000000 0.000000 0.000000 0.000000 0.000000 0.000000 0.000000 0.000000 0.000000 0.000000 0.000000 0.000000 0.000000 0.000000 0.000000 0.000000 0.000000 0.000000 0.000000 0.000000 0.000000 0.000000 0.000000 0.000000
0.000000 0.000000 0.000000 0.000000 0.000000 0.000000 0.000000 0.000000 0.000000 0.000000 0.000000 0.000000 0.000000 0.000000 0.000000 0.000000 0.000000 0.000000 0.000000 0.000000 0.000000 0.000000 0.000000 0.000000 0.000000 0.000000 0.000000 0.000000 0.000000 0.000000 0.000000 0.000000 0.000000 0.000000 0.000000 0.000000 0.000000 0.000000 0.000000 0.000000 0.000000 0.000000 0.000000 0.000000 0.000000 0.000000 0.000000 0.000000 0.000000 0.000000 0.000000 0.000000 0.000000 0.000000 0.000000 0.000000 0.000000 0.000000 0.000000 0.000000 0.000000 0.000000 0.000000 0.000000 0.000000 0.000000 0.000000 0.000000 0.000000 0.000000 0.000000 0.000000 0.000000 0.000000 0.000000 0.000000 0.000000 0.000000 0.000000 0.000000 0.000000 0.000000 0.000000 0.000000 0.000000 0.000000 0.000000 0.000000 0.000000 0.000000 0.000000 0.000000 0.000000 0.000000 0.000000 0.000000 0.000000 0.000000 0.000000 0.000000 0.000000 0.000000 0.000000
0.000000 0.000000 0.000000 0.000000 0.000000 0.000000 0.000000 0.000000 0.000000 0.000000 0.000000 0.000000 0.000000 0.000000 0.000000 0.000000 0.000000 0.000000 0.000000 0.000000 0.000000 0.000000 0.000000 0.000000 0.000000 0.000000 0.000000 0.000000 0.000000 0.000000 0.000000 0.000000 0.000000 0.000000 0.000000 0.000000 0.000000 0.000000 0.000000 0.000000 0.000000 0.000000 0.000000 0.000000 0.000000 0.000000 0.000000 0.000000 0.000000 0.000000 0.000000 0.000000 0.000000 0.000000 0.000000 0.000000 0.000000 0.000000 0.000000 0.000000 0.000000 0.000000 0.000000 0.000000 0.000000 0.000000 0.000000 0.000000 0.000000 0.000000 0.000000 0.000000 0.000000 0.000000 0.000000 0.000000 0.000000 0.000000 0.000000 0.000000 0.000000 0.000000 0.000000 0.000000 0.000000 0.000000 0.000000 0.000000 0.000000 0.000000 0.000000 0.000000 0.000000 0.000000 0.000000 0.000000 0.000000 0.000000 0.000000 0.000000 0.000000 0.000000 0.000000
0.000000 0.000000 0.000000 0.000000 0.000000 0.000000 0.000000 0.000000 0.000000 0.000000 0.000000 0.000000 0.000000 0.000000 0.000000 0.000000 0.000000 0.000000 0.000000 0.000000 0.000000 0.000000 0.000000 0.000000 0.000000 0.000000 0.000000 0.000000 0.000000 0.000000 0.000000 0.000000 0.000000 0.000000 0.000000 0.000000 0.000000 0.000000 0.000000 0.000000 0.000000 0.000000 0.000000 0.000000 0.000000 0.000000 0.000000 0.000000 0.000000 0.000000 0.000000 0.000000 0.000000 0.000000 0.000000 0.000000 0.000000 0.000000 0.000000 0.000000 0.000000 0.000000 0.000000 0.000000 0.000000 0.000000 0.000000 0.000000 0.000000 0.000000 0.000000 0.000000 0.000000 0.000000 0.000000 0.000000 0.000000 0.000000 0.000000 0.000000 0.000000 0.000000 0.000000 0.000000 0.000000 0.000000 0.000000 0.000000 0.000000 0.000000 0.000000 0.000000 0.000000 0.000000 0.000000 0.000000 0.000000 0.000000 0.000000 0.000000 0.000000 0.000000 0.000000
0.000000 0.000000 0.000000 0.000000 0.000000 0.000000 0.000000 0.000000 0.000000 0.000000 0.000000 0.000000 0.000000 0.000000 0.000000 0.000000 0.000000 0.000000 0.000000 0.000000 0.000000 0.000000 0.000000 0.000000 0.000000 0.000000 0.000000 0.000000 0.000000 0.000000 0.000000 0.000000 0.000000 0.000000 0.000000 0.000000 0.000000 0.000000 0.000000 0.000000 0.000000 0.000000 0.000000 0.000000 0.000000 0.000000 0.000000 0.000000 0.000000 0.000000 0.000000 0.000000 0.000000 0.000000 0.000000 0.000000 0.000000 0.000000 0.000000 0.000000 0.000000 0.000000 0.000000 0.000000 0.000000 0.000000 0.000000 0.000000 0.000000 0.000000 0.000000 0.000000 0.000000 0.000000 0.000000 0.000000 0.000000 0.000000 0.000000 0.000000 0.000000 0.000000 0.000000 0.000000 0.000000 0.000000 0.000000 0.000000 0.000000 0.000000 0.000000 0.000000 0.000000 0.000000 0.000000 0.000000 0.000000 0.000000 0.000000 0.000000 0.000000 0.000000 0.000000
