0.000000 0.000000 0.000000 0.000000 0.000000 0.000000 0.000000 0.000000 0.000000 0.000000 0.000000 0.000000 0.000000 0.000000 0.000000 0.000000 0.000000 0.000000 0.000000 0.000000 0.000000 0.000000 0.000000 0.000000 0.000000 0.000000 0.000000 0.000000 0.000000 0.000000 0.000000 0.000000 0.000000 0.000000 0.000000 0.000000 0.000000 0.000000 0.000000 0.000000 0.000000 0.000000 0.000000 0.000000 0.000000 0.000000 0.000000 0.000000 0.000000 0.000000 0.000000 0.000000 0.000000 0.000000 0.000000 0.000000 0.000000 0.000000 0.000000 0.000000 0.000000 0.000000 0.000000 0.000000 0.000000 0.000000 0.000000 0.000000 0.000000 0.000000 0.000000 0.000000 0.000000 0.000000 0.000000 0.000000 0.000000 0.000000 0.000000 0.000000 0.000000 0.000000 0.000000 0.000000 0.000000 0.000000 0.000000 0.000000 0.000000 0.000000 0.000000 0.000000 0.000000 0.000000 0.000000 0.000000 0.000000 0.000000 0.000000 0.000000 0.000000 0.000000 0.000000
0.000000 0.000000 0.000000 0.000000 0.000000 0.000000 0.000000 0.000000 0.000000 0.000000 0.000000 0.000000 0.000000 0.000000 0.000000 0.000000 0.000000 0.000000 0.000000 0.000000 0.000000 0.000000 0.000000 0.000000 0.000000 0.000000 0.000000 0.000000 0.000000 0.000000 0.000000 0.000000 0.000000 0.000000 0.000000 0.000000 0.000000 0.000000 0.000000 0.000000 0.000000 0.000000 0.000000 0.000000 0.000000 0.000000 0.000000 0.000000 0.000000 0.000000 0.000000 0.000000 0.000000 0.000000 0.000000 0.000000 0.000000 0.000000 0.000000 0.000000 0.000000 0.000000 0.000000 0.000000 0.000000 0.000000 0.000000 0.000000 0.000000 0.000000 0.000000 0.000000 0.000000 0.000000 0.000000 0.000000 0.000000 0.000000 0.000000 0.000000 0.000000 0.000000 0.000000 0.000000 0.000000 0.000000 0.000000 0.000000 0.000000 0.000000 0.000000 0.000000 0.000000 0.000000 0.000000 0.000000 0.000000 0.000000 0.000000 0.000000 0.000000 0.000000 0.000000
0.000000 0.000000 0.000000 0.000000 0.000000 0.000000 0.000000 0.000000 0.000000 0.000000 0.000000 0.000000 0.000000 0.000000 0.000000 0.000000 0.000000 0.000000 0.000000 0.000000 0.000000 0.000000 0.000000 0.000000 0.000000 0.000000 0.000000 0.000000 0.000000 0.000000 0.000000 0.000000 0.000000 0.000000 0.000000 0.000000 0.000000 0.000000 0.000000 0.000000 0.000000 0.000000 0.000000 0.000000 0.000000 0.000000 0.000000 0.000000 0.000000 0.000000 0.000000 0.000000 0.000000 0.000000 0.000000 0.000000 0.000000 0.000000 0.000000 0.000000 0.000000 0.000000 0.000000 0.000000 0.000000 0.000000 0.000000 0.000000 0.000000 0.000000 0.000000 0.000000 0.000000 0.000000 0.000000 0.000000 0.000000 0.000000 0.000000 0.000000 0.000000 0.000000 0.000000 0.000000 0.000000 0.000000 0.000000 0.000000 0.000000 0.000000 0.000000 0.000000 0.000000 0.000000 0.000000 0.000000 0.000000 0.000000 0.000000 0.000000 0.000000 0.000000 0.000000
0.000000 0.000000 0.000000 0.000000 0.000000 0.000000 0.000000 0.000000 0.000000 0.000000 0.000000 0.000000 0.000000 0.000000 0.000000 0.000000 0.000000 0.000000 0.000000 0.000000 0.000000 0.000000 0.000000 0.000000 0.000000 0.000000 0.000000 0.000000 0.000000 0.000000 0.000000 0.000000 0.000000 0.000000 0.000000 0.000000 0.000000 0.000000 0.000000 0.000000 0.000000 0.000000 0.000000 0.000000 0.000000 0.000000 0.000000 0.000000 0.000000 0.000000 0.000000 0.000000 0.000000 0.000000 0.000000 0.000000 0.000000 0.000000 0.000000 0.000000 0.000000 0.000000 0.000000 0.000000 0.000000 0.000000 0.000000 0.000000 0.000000 0.000000 0.000000 0.000000 0.000000 0.000000 0.000000 0.000000 0.000000 0.000000 0.000000 0.000000 0.000000 0.000000 0.000000 0.000000 0.000000 0.000000 0.000000 0.000000 0.000000 0.000000 0.000000 0.000000 0.000000 0.000000 0.000000 0.000000 0.000000 0.000000 0.000000 0.000000 0.000000 0.000000 0.000000
0.000000 0.000000 0.000000 0.000000 0.000000 0.000000 0.000000 0.000000 0.000000 0.000000 0.000000 0.000000 0.000000 0.000000 0.000000 0.000000 0.000000 0.000000 0.000000 0.000000 0.000000 0.000000 0.000000 0.000000 0.000000 0.000000 0.000000 0.000000 0.000000 0.000000 0.000000 0.000000 0.000000 0.000000 0.000000 0.000000 0.000000 0.000000 0.000000 0.000000 0.000000 0.000000 0.000000 0.000000 0.000000 0.000000 0.000000 0.000000 0.000000 0.000000 0.000000 0.000000 0.000000 0.000000 0.000000 0.000000 0.000000 0.000000 0.000000 0.000000 0.000000 0.000000 0.000000 0.000000 0.000000 0.000000 0.000000 0.000000 0.000000 18.451867 18.451867 18.451867 18.451867 18.451867 18.451867 18.451867 18.451867 18.451867 18.451867 18.451867 20.869672 20.869672 20.869672 20.869672 20.869672 20.869672 20.869672 20.869672 20.869672 20.869672 20.869672 0.000000 0.000000 0.000000 0.000000 0.000000 0.000000 0.000000 0.000000 0.000000 0.000000 0.000000 0.000000
0.000000 0.000000 0.000000 0.000000 0.000000 0.000000 0.000000 0.000000 0.000000 0.000000 0.000000 0.000000 0.000000 0.000000 0.000000 0.000000 0.000000 0.000000 0.000000 0.000000 0.000000 0.000000 0.000000 0.000000 0.000000 0.000000 0.000000 0.000000 0.000000 0.000000 0.000000 0.000000 0.000000 0.000000 0.000000 0.000000 0.000000 0.000000 0.000000 0.000000 0.000000 0.000000 0.000000 0.000000 0.000000 0.000000 0.000000 0.000000 0.000000 0.000000 0.000000 0.000000 0.000000 0.000000 0.000000 0.000000 0.000000 0.000000 0.000000 0.000000 0.000000 0.000000 0.000000 0.000000 0.000000 0.000000 0.000000 0.000000 0.000000 18.451867 18.451867 18.451867 18.451867 18.451867 18.451867 18.451867 18.451867 18.451867 18.451867 18.451867 20.869672 20.869672 20.869672 20.869672 20.869672 20.869672 20.869672 20.869672 20.869672 20.869672 20.869672 0.000000 0.000000 0.000000 0.000000 0.000000 0.000000 0.000000 0.000000 0.000000 0.000000 0.000000 0.000000
0.000000 0.000000 0.000000 0.000000 0.000000 0.000000 0.000000 0.000000 0.000000 0.000000 0.000000 0.000000 0.000000 0.000000 0.000000 0.000000 0.000000 0.000000 0.000000 0.000000 0.000000 0.000000 0.000000 0.000000 0.000000 0.000000 0.000000 0.000000 0.000000 0.000000 0.000000 0.000000 0.000000 0.000000 0.000000 0.000000 0.000000 0.000000 0.000000 0.000000 0.000000 0.000000 0.000000 0.000000 0.000000 0.000000 0.000000 0.000000 0.000000 0.000000 0.000000 0.000000 0.000000 0.000000 0.000000 0.000000 0.000000 32.306151 32.306151 32.306151 32.306151 32.306151 32.306151 32.306151 32.306151 32.306151 32.306151 0.000000 0.000000 18.451867 18.451867 18.451867 18.451867 18.451867 18.451867 18.451867 18.451867 18.451867 18.451867 18.451867 20.869672 20.869672 20.869672 20.869672 20.869672 20.869672 20.869672 20.869672 20.869672 20.869672 20.869672 0.000000 0.000000 5.116739 5.116739 5.116739 5.116739 0.000000 0.000000 0.000000 0.000000 0.000000 0.000000
0.000000 0.000000 0.000000 0.000000 0.000000 0.000000 0.000000 0.000000 0.000000 0.000000 0.000000 0.000000 0.000000 0.000000 0.000000 0.000000 0.000000 0.000000 0.000000 0.000000 0.000000 0.000000 0.000000 0.000000 0.000000 0.000000 0.000000 0.000000 0.000000 0.000000 0.000000 0.000000 0.000000 0.000000 0.000000 0.000000 0.000000 0.000000 0.000000 0.000000 0.000000 0.000000 0.000000 0.000000 0.000000 0.000000 0.000000 0.000000 0.000000 0.000000 0.000000 0.000000 0.000000 0.000000 0.000000 0.000000 0.000000 32.306151 32.306151 32.306151 32.306151 32.306151 32.306151 32.306151 32.306151 32.306151 32.306151 0.000000 0.000000 18.451867 18.451867 18.451867 18.451867 18.451867 18.451867 18.451867 18.451867 18.451867 18.451867 18.451867 20.869672 20.869672 20.869672 20.869672 20.869672 20.869672 20.869672 20.869672 20.869672 20.869672 20.869672 0.000000 0.000000 5.116739 5.116739 5.116739 5.116739 0.000000 0.000000 0.000000 0.000000 0.000000 0.000000
0.000000 0.000000 0.000000 0.000000 0.000000 0.000000 0.000000 0.000000 0.000000 0.000000 0.000000 0.000000 0.000000 0.000000 0.000000 0.000000 0.000000 0.000000 0.000000 0.000000 0.000000 0.000000 0.000000 0.000000 0.000000 0.000000 0.000000 0.000000 0.000000 0.000000 0.000000 0.000000 0.000000 0.000000 0.000000 0.000000 0.000000 0.000000 0.000000 0.000000 0.000000 0.000000 0.000000 0.000000 0.000000 0.000000 0.000000 0.000000 0.000000 0.000000 0.000000 0.000000 0.000000 0.000000 0.000000 0.000000 0.000000 32.306151 32.306151 32.306151 32.306151 32.306151 32.306151 32.306151 32.306151 32.306151 32.306151 0.000000 0.000000 18.451867 18.451867 18.451867 18.451867 18.451867 18.451867 18.451867 18.451867 18.451867 18.451867 18.451867 20.869672 20.869672 20.869672 20.869672 20.869672 20.869672 20.869672 20.869672 20.869672 20.869672 20.869672 0.000000 0.000000 5.116739 5.116739 5.116739 5.116739 0.000000 0.000000 0.000000 0.000000 0.000000 0.000000
0.000000 0.000000 0.000000 0.000000 0.000000 0.000000 0.000000 0.000000 0.000000 0.000000 0.000000 0.000000 0.000000 0.000000 0.000000 0.000000 0.000000 0.000000 0.000000 0.000000 0.000000 0.000000 0.000000 0.000000 0.000000 0.000000 0.000000 0.000000 0.000000 0.000000 0.000000 0.000000 0.000000 0.000000 0.000000 0.000000 0.000000 0.000000 0.000000 0.000000 0.000000 0.000000 0.000000 0.000000 0.000000 0.000000 0.000000 0.000000 0.000000 0.000000 0.000000 0.000000 0.000000 0.000000 0.000000 0.000000 0.000000 32.306151 32.306151 32.306151 32.306151 32.306151 32.306151 32.306151 32.306151 32.306151 32.306151 0.000000 0.000000 18.451867 18.451867 18.451867 18.451867 18.451867 18.451867 18.451867 18.451867 18.451867 18.451867 18.451867 20.869672 20.869672 20.869672 20.869672 20.869672 20.869672 20.869672 20.869672 20.869672 20.869672 20.869672 0.000000 0.000000 5.116739 5.116739 5.116739 5.116739 0.000000 0.000000 0.000000 0.000000 0.000000 0.000000
0.000000 0.000000 0.000000 0.000000 0.000000 0.000000 0.000000 0.000000 0.000000 0.000000 0.000000 0.000000 0.000000 0.000000 0.000000 0.000000 0.000000 0.000000 0.000000 0.000000 0.000000 0.000000 0.000000 0.000000 0.000000 0.000000 0.000000 0.000000 0.000000 0.000000 0.000000 0.000000 0.000000 0.000000 0.000000 0.000000 0.000000 0.000000 0.000000 0.000000 0.000000 0.000000 0.000000 0.000000 0.000000 0.000000 0.000000 0.000000 0.000000 0.000000 0.000000 0.000000 0.000000 0.000000 0.000000 0.000000 0.000000 32.306151 32.306151 32.306151 32.306151 32.306151 32.306151 32.306151 32.306151 32.306151 32.306151 0.000000 0.000000 18.451867 18.451867 18.451867 18.451867 18.451867 18.451867 18.451867 18.451867 18.451867 18.451867 18.451867 20.869672 20.869672 20.869672 20.869672 20.869672 20.869672 20.869672 20.869672 20.869672 20.869672 20.869672 0.000000 0.000000 0.000000 0.000000 0.000000 0.000000 0.000000 0.000000 0.000000 0.000000 0.000000 0.000000
0.000000 0.000000 0.000000 0.000000 0.000000 0.000000 0.000000 0.000000 0.000000 0.000000 0.000000 0.000000 0.000000 0.000000 0.000000 0.000000 0.000000 0.000000 0.000000 0.000000 0.000000 0.000000 0.000000 0.000000 0.000000 0.000000 0.000000 0.000000 0.000000 0.000000 0.000000 0.000000 0.000000 0.000000 0.000000 0.000000 0.000000 0.000000 0.000000 0.000000 0.000000 0.000000 0.000000 0.000000 0.000000 0.000000 0.000000 0.000000 0.000000 0.000000 0.000000 0.000000 0.000000 0.000000 0.000000 0.000000 0.000000 32.306151 32.306151 32.306151 32.306151 32.306151 32.306151 32.306151 32.306151 32.306151 32.306151 0.000000 0.000000 22.749858 22.749858 22.749858 22.749858 22.749858 22.749858 22.749858 22.749858 22.749858 22.749858 22.749858 20.869672 20.869672 20.869672 20.869672 20.869672 20.869672 20.869672 20.869672 20.869672 20.869672 20.869672 0.000000 0.000000 0.000000 0.000000 0.000000 0.000000 0.000000 0.000000 0.000000 0.000000 0.000000 0.000000
0.000000 0.000000 0.000000 0.000000 0.000000 0.000000 0.000000 0.000000 0.000000 0.000000 0.000000 0.000000 0.000000 0.000000 0.000000 0.000000 0.000000 0.000000 0.000000 0.000000 0.000000 0.000000 0.000000 0.000000 0.000000 0.000000 0.000000 0.000000 0.000000 0.000000 0.000000 0.000000 0.000000 0.000000 0.000000 0.000000 0.000000 0.000000 0.000000 0.000000 0.000000 0.000000 0.000000 0.000000 0.000000 0.000000 0.000000 0.000000 0.000000 0.000000 0.000000 0.000000 0.000000 0.000000 0.000000 0.000000 0.000000 32.306151 32.306151 32.306151 32.306151 32.306151 32.306151 32.306151 32.306151 32.306151 32.306151 0.000000 0.000000 22.749858 22.749858 22.749858 22.749858 22.749858 22.749858 22.749858 22.749858 22.749858 22.749858 22.749858 0.000000 0.000000 0.000000 0.000000 0.000000 0.000000 0.000000 0.000000 0.000000 0.000000 0.000000 0.000000 0.000000 0.000000 0.000000 0.000000 0.000000 0.000000 0.000000 0.000000 0.000000 0.000000 0.000000
0.000000 0.000000 0.000000 0.000000 0.000000 0.000000 0.000000 0.000000 0.000000 0.000000 0.000000 0.000000 0.000000 0.000000 0.000000 0.000000 0.000000 0.000000 0.000000 0.000000 0.000000 0.000000 0.000000 0.000000 0.000000 0.000000 0.000000 0.000000 0.000000 0.000000 0.000000 0.000000 0.000000 0.000000 0.000000 0.000000 0.000000 0.000000 0.000000 0.000000 0.000000 0.000000 0.000000 0.000000 0.000000 0.000000 0.000000 0.000000 0.000000 0.000000 0.000000 0.000000 0.000000 0.000000 0.000000 0.000000 0.000000 32.306151 32.306151 32.306151 32.306151 32.306151 32.306151 32.306151 32.306151 32.306151 32.306151 0.000000 0.000000 22.749858 22.749858 22.749858 22.749858 22.749858 22.749858 22.749858 22.749858 22.749858 22.749858 22.749858 0.000000 0.000000 0.000000 0.000000 0.000000 0.000000 0.000000 0.000000 0.000000 0.000000 0.000000 0.000000 0.000000 0.000000 0.000000 0.000000 0.000000 0.000000 0.000000 0.000000 0.000000 0.000000 0.000000
0.000000 0.000000 0.000000 0.000000 0.000000 0.000000 0.000000 0.000000 0.000000 0.000000 0.000000 0.000000 0.000000 0.000000 0.000000 0.000000 0.000000 0.000000 0.000000 0.000000 0.000000 0.000000 0.000000 0.000000 0.000000 0.000000 0.000000 0.000000 0.000000 0.000000 0.000000 0.000000 0.000000 0.000000 0.000000 0.000000 0.000000 0.000000 0.000000 0.000000 0.000000 0.000000 0.000000 0.000000 0.000000 0.000000 0.000000 0.000000 0.000000 0.000000 0.000000 0.000000 0.000000 0.000000 0.000000 0.000000 0.000000 32.306151 32.306151 32.306151 32.306151 32.306151 32.306151 32.306151 32.306151 32.306151 32.306151 0.000000 0.000000 22.749858 22.749858 22.749858 22.749858 22.749858 22.749858 22.749858 22.749858 22.749858 22.749858 22.749858 0.000000 0.000000 0.000000 0.000000 0.000000 0.000000 0.000000 0.000000 0.000000 0.000000 0.000000 0.000000 0.000000 0.000000 0.000000 0.000000 0.000000 0.000000 0.000000 0.000000 0.000000 0.000000 0.000000
0.000000 0.000000 0.000000 0.000000 0.000000 0.000000 0.000000 0.000000 0.000000 0.000000 0.000000 0.000000 0.000000 0.000000 0.000000 0.000000 0.000000 0.000000 0.000000 0.000000 0.000000 0.000000 0.000000 0.000000 0.000000 0.000000 0.000000 0.000000 0.000000 0.000000 0.000000 0.000000 0.000000 0.000000 0.000000 0.000000 0.000000 0.000000 0.000000 0.000000 0.000000 0.000000 0.000000 0.000000 0.000000 0.000000 0.000000 0.000000 0.000000 0.000000 0.000000 0.000000 0.000000 0.000000 0.000000 0.000000 0.000000 32.306151 32.306151 32.306151 32.306151 32.306151 32.306151 32.306151 32.306151 32.306151 32.306151 0.000000 0.000000 22.749858 22.749858 22.749858 22.749858 22.749858 22.749858 22.749858 22.749858 22.749858 22.749858 22.749858 0.000000 0.000000 0.000000 0.000000 0.000000 0.000000 0.000000 0.000000 0.000000 0.000000 0.000000 0.000000 0.000000 0.000000 0.000000 0.000000 0.000000 0.000000 0.000000 0.000000 0.000000 0.000000 0.000000
0.000000 0.000000 0.000000 0.000000 0.000000 0.000000 0.000000 0.000000 0.000000 0.000000 0.000000 0.000000 0.000000 0.000000 0.000000 0.000000 0.000000 0.000000 0.000000 0.000000 0.000000 0.000000 0.000000 0.000000 0.000000 0.000000 0.000000 0.000000 0.000000 0.000000 0.000000 0.000000 0.000000 0.000000 0.000000 0.000000 0.000000 0.000000 0.000000 0.000000 0.000000 10.961884 10.961884 10.961884 10.961884 10.961884 10.961884 10.961884 0.000000 0.000000 0.000000 0.000000 0.000000 0.000000 0.000000 0.000000 0.000000 32.306151 32.306151 32.306151 32.306151 32.306151 32.306151 32.306151 32.306151 32.306151 32.306151 0.000000 0.000000 22.749858 22.749858 22.749858 22.749858 22.749858 22.749858 22.749858 22.749858 22.749858 22.749858 22.749858 0.000000 0.000000 0.000000 0.000000 0.000000 0.000000 0.000000 0.000000 0.000000 0.000000 0.000000 0.000000 0.000000 0.000000 0.000000 0.000000 0.000000 0.000000 0.000000 0.000000 0.000000 0.000000 0.000000
0.000000 0.000000 0.000000 0.000000 0.000000 0.000000 0.000000 0.000000 0.000000 0.000000 0.000000 0.000000 0.000000 0.000000 0.000000 0.000000 0.000000 0.000000 0.000000 0.000000 0.000000 0.000000 0.000000 0.000000 0.000000 0.000000 0.000000 0.000000 0.000000 0.000000 0.000000 0.000000 0.000000 0.000000 0.000000 0.000000 0.000000 0.000000 0.000000 0.000000 0.000000 10.961884 10.961884 10.961884 10.961884 10.961884 10.961884 10.961884 0.000000 0.000000 0.000000 0.000000 0.000000 0.000000 0.000000 0.000000 0.000000 32.306151 32.306151 32.306151 32.306151 32.306151 32.306151 32.306151 32.306151 32.306151 32.306151 0.000000 0.000000 22.749858 22.749858 22.749858 22.749858 22.749858 22.749858 22.749858 22.749858 22.749858 22.749858 22.749858 0.000000 0.000000 0.000000 0.000000 0.000000 0.000000 0.000000 0.000000 0.000000 0.000000 0.000000 0.000000 0.000000 0.000000 0.000000 0.000000 0.000000 0.000000 0.000000 0.000000 0.000000 0.000000 0.000000
0.000000 0.000000 0.000000 0.000000 0.000000 0.000000 0.000000 0.000000 0.000000 0.000000 0.000000 0.000000 0.000000 0.000000 0.000000 0.000000 0.000000 0.000000 0.000000 0.000000 0.000000 0.000000 37.375726 37.375726 37.375726 37.375726 37.375726 37.375726 37.375726 37.375726 37.375726 37.375726 37.375726 37.375726 0.000000 0.000000 0.000000 0.000000 0.000000 0.000000 0.000000 10.961884 10.961884 10.961884 10.961884 10.961884 10.961884 10.961884 0.000000 0.000000 0.000000 0.000000 0.000000 0.000000 0.000000 0.000000 0.000000 0.000000 0.000000 0.000000 0.000000 0.000000 0.000000 0.000000 0.000000 0.000000 0.000000 0.000000 0.000000 22.749858 22.749858 22.749858 22.749858 22.749858 22.749858 22.749858 22.749858 22.749858 22.749858 22.749858 0.000000 0.000000 0.000000 0.000000 0.000000 0.000000 0.000000 0.000000 0.000000 0.000000 0.000000 0.000000 0.000000 0.000000 0.000000 0.000000 0.000000 0.000000 0.000000 0.000000 0.000000 0.000000 0.000000
0.000000 0.000000 0.000000 0.000000 0.000000 0.000000 0.000000 0.000000 0.000000 0.000000 0.000000 0.000000 0.000000 0.000000 0.000000 0.000000 0.000000 0.000000 0.000000 0.000000 0.000000 0.000000 37.375726 37.375726 37.375726 37.375726 37.375726 37.375726 37.375726 37.375726 37.375726 37.375726 37.375726 37.375726 0.000000 0.000000 0.000000 0.000000 0.000000 0.000000 0.000000 10.961884 10.961884 10.961884 10.961884 10.961884 10.961884 10.961884 0.000000 0.000000 0.000000 0.000000 0.000000 0.000000 0.000000 0.000000 0.000000 0.000000 0.000000 0.000000 0.000000 0.000000 0.000000 0.000000 0.000000 0.000000 0.000000 0.000000 0.000000 22.749858 22.749858 22.749858 22.749858 22.749858 22.749858 22.749858 22.749858 22.749858 22.749858 22.749858 0.000000 0.000000 0.000000 0.000000 0.000000 0.000000 0.000000 0.000000 0.000000 0.000000 0.000000 0.000000 0.000000 0.000000 0.000000 0.000000 0.000000 0.000000 0.000000 0.000000 0.000000 0.000000 0.000000
0.000000 0.000000 0.000000 0.000000 0.000000 0.000000 0.000000 0.000000 0.000000 0.000000 0.000000 0.000000 0.000000 0.000000 0.000000 0.000000 0.000000 0.000000 0.000000 0.000000 0.000000 0.000000 37.375726 37.375726 37.375726 37.375726 37.375726 37.375726 37.375726 37.375726 37.375726 37.375726 37.375726 37.375726 0.000000 0.000000 0.000000 0.000000 0.000000 0.000000 0.000000 10.961884 10.961884 10.961884 10.961884 10.961884 10.961884 10.961884 0.000000 0.000000 0.000000 0.000000 0.000000 0.000000 0.000000 0.000000 0.000000 0.000000 0.000000 0.000000 0.000000 0.000000 0.000000 16.475490 16.475490 16.475490 16.475490 16.475490 16.475490 0.000000 0.000000 0.000000 0.000000 0.000000 0.000000 0.000000 0.000000 0.000000 0.000000 0.000000 28.974847 28.974847 28.974847 28.974847 28.974847 28.974847 28.974847 28.974847 28.974847 28.974847 28.974847 28.974847 19.237055 19.237055 19.237055 19.237055 19.237055 19.237055 19.237055 0.000000 0.000000 0.000000 0.000000
0.000000 0.000000 0.000000 0.000000 0.000000 0.000000 0.000000 0.000000 0.000000 0.000000 0.000000 0.000000 0.000000 0.000000 0.000000 0.000000 0.000000 0.000000 0.000000 0.000000 0.000000 0.000000 37.375726 37.375726 37.375726 37.375726 37.375726 37.375726 37.375726 37.375726 37.375726 37.375726 37.375726 37.375726 0.000000 0.000000 0.000000 0.000000 0.000000 0.000000 0.000000 10.961884 10.961884 10.961884 10.961884 10.961884 10.961884 10.961884 0.000000 0.000000 0.000000 0.000000 0.000000 0.000000 0.000000 0.000000 0.000000 0.000000 0.000000 0.000000 0.000000 0.000000 0.000000 16.475490 16.475490 16.475490 16.475490 16.475490 16.475490 0.000000 0.000000 0.000000 0.000000 0.000000 0.000000 0.000000 0.000000 0.000000 0.000000 0.000000 28.974847 28.974847 28.974847 28.974847 28.974847 28.974847 28.974847 28.974847 28.974847 28.974847 28.974847 28.974847 19.237055 19.237055 19.237055 19.237055 19.237055 19.237055 19.237055 0.000000 0.000000 0.000000 0.000000
0.000000 0.000000 0.000000 0.000000 0.000000 0.000000 0.000000 0.000000 0.000000 0.000000 0.000000 0.000000 0.000000 0.000000 0.000000 0.000000 0.000000 0.000000 0.000000 0.000000 0.000000 0.000000 37.375726 37.375726 37.375726 37.375726 37.375726 37.375726 37.375726 37.375726 37.375726 37.375726 37.375726 37.375726 0.000000 0.000000 0.000000 0.000000 0.000000 0.000000 0.000000 10.961884 10.961884 10.961884 10.961884 10.961884 10.961884 10.961884 0.000000 0.000000 0.000000 0.000000 0.000000 0.000000 0.000000 0.000000 0.000000 0.000000 0.000000 0.000000 0.000000 0.000000 0.000000 16.475490 16.475490 16.475490 16.475490 16.475490 16.475490 0.000000 0.000000 0.000000 0.000000 0.000000 0.000000 0.000000 0.000000 0.000000 0.000000 0.000000 28.974847 28.974847 28.974847 28.974847 28.974847 28.974847 28.974847 28.974847 28.974847 28.974847 28.974847 28.974847 19.237055 19.237055 19.237055 19.237055 19.237055 19.237055 19.237055 0.000000 0.000000 0.000000 0.000000
0.000000 0.000000 0.000000 0.000000 0.000000 0.000000 0.000000 0.000000 0.000000 0.000000 0.000000 0.000000 0.000000 0.000000 0.000000 0.000000 0.000000 0.000000 0.000000 0.000000 0.000000 0.000000 37.375726 37.375726 37.375726 37.375726 37.375726 37.375726 37.375726 37.375726 37.375726 37.375726 37.375726 37.375726 0.000000 0.000000 0.000000 0.000000 0.000000 0.000000 0.000000 0.000000 0.000000 0.000000 0.000000 0.000000 0.000000 0.000000 0.000000 0.000000 0.000000 0.000000 0.000000 0.000000 0.000000 0.000000 0.000000 0.000000 0.000000 0.000000 0.000000 0.000000 0.000000 16.475490 16.475490 16.475490 16.475490 16.475490 16.475490 0.000000 0.000000 0.000000 0.000000 0.000000 0.000000 0.000000 0.000000 0.000000 0.000000 0.000000 28.974847 28.974847 28.974847 28.974847 28.974847 28.974847 28.974847 28.974847 28.974847 28.974847 28.974847 28.974847 19.237055 19.237055 19.237055 19.237055 19.237055 19.237055 19.237055 0.000000 0.000000 0.000000 0.000000
0.000000 0.000000 0.000000 0.000000 0.000000 0.000000 32.516882 32.516882 32.516882 32.516882 32.516882 32.516882 32.516882 32.516882 32.516882 0.000000 0.000000 0.000000 0.000000 0.000000 0.000000 0.000000 37.375726 37.375726 37.375726 37.375726 37.375726 37.375726 37.375726 37.375726 37.375726 37.375726 37.375726 37.375726 0.000000 0.000000 0.000000 0.000000 0.000000 0.000000 0.000000 0.000000 0.000000 0.000000 0.000000 0.000000 0.000000 0.000000 0.000000 0.000000 0.000000 0.000000 0.000000 0.000000 0.000000 0.000000 0.000000 0.000000 0.000000 0.000000 0.000000 0.000000 0.000000 16.475490 16.475490 16.475490 16.475490 16.475490 16.475490 0.000000 0.000000 0.000000 0.000000 0.000000 0.000000 0.000000 0.000000 0.000000 0.000000 0.000000 28.974847 28.974847 28.974847 28.974847 28.974847 28.974847 28.974847 28.974847 28.974847 28.974847 28.974847 28.974847 19.237055 19.237055 19.237055 19.237055 19.237055 19.237055 19.237055 0.000000 0.000000 0.000000 0.000000
0.000000 0.000000 0.000000 0.000000 0.000000 0.000000 32.516882 32.516882 32.516882 32.516882 32.516882 32.516882 32.516882 32.516882 32.516882 0.000000 0.000000 0.000000 0.000000 0.000000 0.000000 0.000000 37.375726 37.375726 37.375726 37.375726 37.375726 37.375726 37.375726 37.375726 37.375726 37.375726 37.375726 37.375726 0.000000 0.000000 0.000000 0.000000 0.000000 0.000000 0.000000 0.000000 0.000000 0.000000 0.000000 0.000000 0.000000 0.000000 0.000000 0.000000 0.000000 0.000000 0.000000 0.000000 0.000000 0.000000 0.000000 0.000000 0.000000 0.000000 0.000000 0.000000 0.000000 16.475490 16.475490 16.475490 16.475490 16.475490 16.475490 0.000000 0.000000 0.000000 0.000000 0.000000 0.000000 0.000000 0.000000 0.000000 0.000000 0.000000 28.974847 28.974847 28.974847 28.974847 28.974847 28.974847 28.974847 28.974847 28.974847 28.974847 28.974847 28.974847 19.237055 19.237055 19.237055 19.237055 19.237055 19.237055 19.237055 0.000000 0.000000 0.000000 0.000000
0.000000 0.000000 0.000000 0.000000 0.000000 0.000000 32.516882 32.516882 32.516882 32.516882 32.516882 32.516882 32.516882 32.516882 32.516882 0.000000 0.000000 0.000000 0.000000 0.000000 0.000000 0.000000 37.375726 37.375726 37.375726 37.375726 37.375726 37.375726 37.375726 37.375726 37.375726 37.375726 37.375726 37.375726 0.000000 0.000000 0.000000 0.000000 0.000000 0.000000 0.000000 0.000000 0.000000 0.000000 0.000000 0.000000 0.000000 0.000000 0.000000 0.000000 0.000000 0.000000 0.000000 0.000000 0.000000 0.000000 0.000000 0.000000 0.000000 0.000000 0.000000 0.000000 0.000000 16.475490 16.475490 16.475490 16.475490 16.475490 16.475490 0.000000 0.000000 0.000000 0.000000 0.000000 0.000000 0.000000 0.000000 0.000000 0.000000 0.000000 28.974847 28.974847 28.974847 28.974847 28.974847 28.974847 28.974847 28.974847 28.974847 28.974847 28.974847 28.974847 19.237055 19.237055 19.237055 19.237055 19.237055 19.237055 19.237055 0.000000 0.000000 0.000000 0.000000
0.000000 0.000000 0.000000 0.000000 0.000000 0.000000 32.516882 32.516882 32.516882 32.516882 32.516882 32.516882 32.516882 32.516882 32.516882 0.000000 0.000000 0.000000 0.000000 0.000000 0.000000 0.000000 37.375726 37.375726 37.375726 37.375726 37.375726 37.375726 37.375726 37.375726 37.375726 37.375726 37.375726 37.375726 0.000000 0.000000 0.000000 0.000000 0.000000 0.000000 0.000000 21.558426 21.558426 21.558426 21.558426 21.558426 21.558426 21.558426 0.000000 0.000000 0.000000 0.000000 0.000000 0.000000 0.000000 0.000000 0.000000 0.000000 0.000000 0.000000 0.000000 0.000000 0.000000 16.475490 16.475490 16.475490 16.475490 16.475490 16.475490 0.000000 0.000000 0.000000 0.000000 0.000000 0.000000 0.000000 0.000000 0.000000 0.000000 0.000000 28.974847 28.974847 28.974847 28.974847 28.974847 28.974847 28.974847 28.974847 28.974847 28.974847 28.974847 28.974847 19.237055 19.237055 19.237055 19.237055 19.237055 19.237055 19.237055 0.000000 0.000000 0.000000 0.000000
0.000000 0.000000 0.000000 0.000000 0.000000 0.000000 32.516882 32.516882 32.516882 32.516882 32.516882 32.516882 32.516882 32.516882 32.516882 0.000000 0.000000 0.000000 0.000000 0.000000 0.000000 0.000000 37.375726 37.375726 37.375726 37.375726 37.375726 37.375726 37.375726 37.375726 37.375726 37.375726 37.375726 37.375726 0.000000 0.000000 0.000000 0.000000 0.000000 0.000000 0.000000 21.558426 21.558426 21.558426 21.558426 21.558426 21.558426 21.558426 0.000000 0.000000 0.000000 0.000000 0.000000 0.000000 0.000000 0.000000 0.000000 0.000000 0.000000 0.000000 0.000000 0.000000 0.000000 16.475490 16.475490 16.475490 16.475490 16.475490 16.475490 0.000000 0.000000 0.000000 0.000000 0.000000 0.000000 0.000000 0.000000 0.000000 0.000000 0.000000 28.974847 28.974847 28.974847 28.974847 28.974847 28.974847 28.974847 28.974847 28.974847 28.974847 28.974847 28.974847 19.237055 19.237055 19.237055 19.237055 19.237055 19.237055 19.237055 0.000000 0.000000 0.000000 0.000000
0.000000 0.000000 0.000000 0.000000 0.000000 0.000000 32.516882 32.516882 32.516882 32.516882 32.516882 32.516882 32.516882 32.516882 32.516882 0.000000 0.000000 0.000000 0.000000 0.000000 0.000000 0.000000 37.375726 37.375726 37.375726 37.375726 37.375726 37.375726 37.375726 37.375726 37.375726 37.375726 37.375726 37.375726 0.000000 0.000000 0.000000 0.000000 0.000000 0.000000 0.000000 21.558426 21.558426 21.558426 21.558426 21.558426 21.558426 21.558426 0.000000 0.000000 0.000000 0.000000 0.000000 0.000000 0.000000 0.000000 0.000000 0.000000 0.000000 0.000000 0.000000 0.000000 0.000000 16.475490 16.475490 16.475490 16.475490 16.475490 16.475490 0.000000 0.000000 0.000000 0.000000 0.000000 0.000000 0.000000 0.000000 0.000000 0.000000 0.000000 28.974847 28.974847 28.974847 28.974847 28.974847 28.974847 28.974847 28.974847 28.974847 28.974847 28.974847 28.974847 19.237055 19.237055 19.237055 19.237055 19.237055 19.237055 19.237055 0.000000 0.000000 0.000000 0.000000
0.000000 0.000000 0.000000 0.000000 0.000000 0.000000 32.516882 32.516882 32.516882 32.516882 32.516882 32.516882 32.516882 32.516882 32.516882 0.000000 0.000000 0.000000 0.000000 0.000000 0.000000 0.000000 37.375726 37.375726 37.375726 37.375726 37.375726 37.375726 37.375726 37.375726 37.375726 37.375726 37.375726 37.375726 0.000000 0.000000 0.000000 0.000000 0.000000 0.000000 0.000000 21.558426 21.558426 21.558426 21.558426 21.558426 21.558426 21.558426 0.000000 0.000000 0.000000 0.000000 0.000000 0.000000 0.000000 0.000000 0.000000 0.000000 0.000000 0.000000 0.000000 0.000000 0.000000 0.000000 0.000000 0.000000 0.000000 0.000000 0.000000 0.000000 0.000000 0.000000 0.000000 0.000000 0.000000 0.000000 0.000000 0.000000 0.000000 0.000000 24.162741 24.162741 24.162741 24.162741 24.162741 24.162741 24.162741 24.162741 24.162741 24.162741 0.000000 0.000000 0.000000 0.000000 0.000000 0.000000 0.000000 0.000000 0.000000 0.000000 0.000000 0.000000 0.000000
0.000000 0.000000 0.000000 0.000000 0.000000 0.000000 32.516882 32.516882 32.516882 32.516882 32.516882 32.516882 32.516882 32.516882 32.516882 0.000000 0.000000 0.000000 0.000000 0.000000 0.000000 0.000000 28.985008 28.985008 28.985008 28.985008 28.985008 28.985008 28.985008 28.985008 28.985008 28.985008 28.985008 28.985008 0.000000 0.000000 0.000000 0.000000 0.000000 0.000000 0.000000 21.558426 21.558426 21.558426 21.558426 21.558426 21.558426 21.558426 0.000000 0.000000 0.000000 0.000000 0.000000 0.000000 0.000000 0.000000 0.000000 0.000000 0.000000 0.000000 0.000000 0.000000 0.000000 0.000000 0.000000 0.000000 0.000000 0.000000 0.000000 0.000000 0.000000 0.000000 0.000000 0.000000 0.000000 0.000000 0.000000 0.000000 0.000000 0.000000 24.162741 24.162741 24.162741 24.162741 24.162741 24.162741 24.162741 24.162741 24.162741 24.162741 0.000000 0.000000 0.000000 0.000000 0.000000 0.000000 0.000000 0.000000 0.000000 0.000000 0.000000 0.000000 0.000000
0.000000 0.000000 0.000000 0.000000 0.000000 0.000000 32.516882 32.516882 32.516882 32.516882 32.516882 32.516882 32.516882 32.516882 32.516882 0.000000 0.000000 0.000000 0.000000 0.000000 0.000000 0.000000 28.985008 28.985008 28.985008 28.985008 28.985008 28.985008 28.985008 28.985008 28.985008 28.985008 28.985008 28.985008 0.000000 0.000000 0.000000 0.000000 0.000000 0.000000 0.000000 21.558426 21.558426 21.558426 21.558426 21.558426 21.558426 21.558426 0.000000 0.000000 0.000000 0.000000 0.000000 0.000000 0.000000 0.000000 0.000000 17.379862 17.379862 17.379862 17.379862 17.379862 17.379862 17.379862 17.379862 17.379862 17.379862 0.000000 0.000000 0.000000 0.000000 11.002448 11.002448 11.002448 11.002448 11.002448 11.002448 11.002448 0.000000 0.000000 24.162741 24.162741 24.162741 24.162741 24.162741 24.162741 24.162741 24.162741 24.162741 24.162741 0.000000 0.000000 0.000000 0.000000 0.000000 0.000000 0.000000 0.000000 0.000000 0.000000 0.000000 0.000000 0.000000
0.000000 0.000000 0.000000 0.000000 0.000000 0.000000 32.516882 32.516882 32.516882 32.516882 32.516882 32.516882 32.516882 32.516882 32.516882 0.000000 0.000000 0.000000 0.000000 0.000000 0.000000 0.000000 28.985008 28.985008 28.985008 28.985008 28.985008 28.985008 28.985008 28.985008 28.985008 28.985008 28.985008 28.985008 0.000000 0.000000 0.000000 0.000000 0.000000 0.000000 0.000000 21.558426 21.558426 21.558426 21.558426 21.558426 21.558426 21.558426 0.000000 0.000000 0.000000 0.000000 0.000000 0.000000 0.000000 0.000000 0.000000 17.379862 17.379862 17.379862 17.379862 17.379862 17.379862 17.379862 17.379862 17.379862 17.379862 0.000000 0.000000 0.000000 0.000000 11.002448 11.002448 11.002448 11.002448 11.002448 11.002448 11.002448 0.000000 0.000000 24.162741 24.162741 24.162741 24.162741 24.162741 24.162741 24.162741 24.162741 24.162741 24.162741 0.000000 0.000000 0.000000 0.000000 0.000000 0.000000 0.000000 0.000000 0.000000 0.000000 0.000000 0.000000 0.000000
0.000000 0.000000 0.000000 0.000000 0.000000 0.000000 32.516882 32.516882 32.516882 32.516882 32.516882 32.516882 32.516882 32.516882 32.516882 0.000000 0.000000 0.000000 0.000000 0.000000 0.000000 0.000000 28.985008 28.985008 28.985008 28.985008 28.985008 28.985008 28.985008 28.985008 28.985008 28.985008 28.985008 28.985008 0.000000 0.000000 0.000000 0.000000 0.000000 0.000000 0.000000 21.558426 21.558426 21.558426 21.558426 21.558426 21.558426 21.558426 0.000000 0.000000 0.000000 0.000000 0.000000 0.000000 0.000000 0.000000 0.000000 17.379862 17.379862 17.379862 17.379862 17.379862 17.379862 17.379862 17.379862 17.379862 17.379862 0.000000 0.000000 0.000000 0.000000 11.002448 11.002448 11.002448 11.002448 11.002448 11.002448 11.002448 0.000000 0.000000 24.162741 24.162741 24.162741 24.162741 24.162741 24.162741 24.162741 24.162741 24.162741 24.162741 0.000000 0.000000 0.000000 0.000000 0.000000 0.000000 0.000000 0.000000 0.000000 0.000000 0.000000 0.000000 0.000000
0.000000 0.000000 0.000000 0.000000 0.000000 0.000000 32.516882 32.516882 32.516882 32.516882 32.516882 32.516882 32.516882 32.516882 32.516882 0.000000 0.000000 0.000000 0.000000 0.000000 0.000000 0.000000 28.985008 28.985008 28.985008 28.985008 28.985008 28.985008 28.985008 28.985008 28.985008 28.985008 28.985008 28.985008 0.000000 0.000000 0.000000 0.000000 0.000000 0.000000 0.000000 21.558426 21.558426 21.558426 21.558426 21.558426 21.558426 21.558426 0.000000 0.000000 0.000000 0.000000 0.000000 0.000000 0.000000 0.000000 0.000000 17.379862 17.379862 17.379862 17.379862 17.379862 17.379862 17.379862 17.379862 17.379862 17.379862 0.000000 0.000000 0.000000 0.000000 11.002448 11.002448 11.002448 11.002448 11.002448 11.002448 11.002448 0.000000 0.000000 24.162741 24.162741 24.162741 24.162741 24.162741 24.162741 24.162741 24.162741 24.162741 24.162741 0.000000 0.000000 0.000000 0.000000 0.000000 0.000000 0.000000 0.000000 0.000000 0.000000 0.000000 0.000000 0.000000
0.000000 0.000000 0.000000 0.000000 0.000000 0.000000 32.516882 32.516882 32.516882 32.516882 32.516882 32.516882 32.516882 32.516882 32.516882 0.000000 0.000000 0.000000 0.000000 0.000000 0.000000 0.000000 28.985008 28.985008 28.985008 28.985008 28.985008 28.985008 28.985008 28.985008 28.985008 28.985008 28.985008 28.985008 0.000000 0.000000 0.000000 0.000000 0.000000 0.000000 0.000000 21.558426 21.558426 21.558426 21.558426 21.558426 21.558426 21.558426 0.000000 0.000000 0.000000 0.000000 0.000000 0.000000 0.000000 0.000000 0.000000 17.379862 17.379862 17.379862 17.379862 17.379862 17.379862 17.379862 17.379862 17.379862 17.379862 0.000000 0.000000 0.000000 0.000000 11.002448 11.002448 11.002448 11.002448 11.002448 11.002448 11.002448 0.000000 0.000000 24.162741 24.162741 24.162741 24.162741 24.162741 24.162741 24.162741 24.162741 24.162741 24.162741 0.000000 0.000000 0.000000 0.000000 0.000000 0.000000 0.000000 0.000000 0.000000 0.000000 0.000000 0.000000 0.000000
0.000000 0.000000 0.000000 0.000000 0.000000 0.000000 32.516882 32.516882 32.516882 32.516882 32.516882 32.516882 32.516882 32.516882 32.516882 0.000000 0.000000 0.000000 0.000000 0.000000 0.000000 0.000000 28.985008 28.985008 28.985008 28.985008 28.985008 28.985008 28.985008 28.985008 28.985008 28.985008 28.985008 28.985008 0.000000 0.000000 0.000000 0.000000 0.000000 0.000000 0.000000 21.558426 21.558426 21.558426 21.558426 21.558426 21.558426 21.558426 0.000000 0.000000 0.000000 0.000000 0.000000 0.000000 0.000000 0.000000 0.000000 17.379862 17.379862 17.379862 17.379862 17.379862 17.379862 17.379862 17.379862 17.379862 17.379862 0.000000 0.000000 0.000000 0.000000 11.002448 11.002448 11.002448 11.002448 11.002448 11.002448 11.002448 0.000000 0.000000 24.162741 24.162741 24.162741 24.162741 24.162741 24.162741 24.162741 24.162741 24.162741 24.162741 0.000000 0.000000 0.000000 0.000000 0.000000 0.000000 0.000000 0.000000 0.000000 0.000000 0.000000 0.000000 0.000000
0.000000 0.000000 0.000000 0.000000 0.000000 0.000000 32.516882 32.516882 32.516882 32.516882 32.516882 32.516882 32.516882 32.516882 32.516882 0.000000 0.000000 0.000000 0.000000 0.000000 0.000000 0.000000 28.985008 28.985008 28.985008 28.985008 28.985008 28.985008 28.985008 28.985008 28.985008 28.985008 28.985008 28.985008 0.000000 0.000000 0.000000 0.000000 0.000000 0.000000 0.000000 21.558426 21.558426 21.558426 21.558426 21.558426 21.558426 21.558426 0.000000 0.000000 0.000000 0.000000 0.000000 0.000000 0.000000 0.000000 0.000000 17.379862 17.379862 17.379862 17.379862 17.379862 17.379862 17.379862 17.379862 17.379862 17.379862 0.000000 0.000000 0.000000 0.000000 11.002448 11.002448 11.002448 11.002448 11.002448 11.002448 11.002448 0.000000 0.000000 24.162741 24.162741 24.162741 24.162741 24.162741 24.162741 24.162741 24.162741 24.162741 24.162741 0.000000 0.000000 0.000000 0.000000 0.000000 0.000000 0.000000 0.000000 0.000000 0.000000 0.000000 0.000000 0.000000
0.000000 0.000000 0.000000 0.000000 0.000000 0.000000 0.000000 0.000000 0.000000 0.000000 0.000000 0.000000 0.000000 0.000000 0.000000 0.000000 0.000000 0.000000 0.000000 0.000000 0.000000 0.000000 28.985008 28.985008 28.985008 28.985008 28.985008 28.985008 28.985008 28.985008 28.985008 28.985008 28.985008 28.985008 0.000000 0.000000 0.000000 0.000000 0.000000 0.000000 0.000000 0.000000 0.000000 0.000000 0.000000 0.000000 0.000000 0.000000 0.000000 0.000000 0.000000 0.000000 0.000000 0.000000 0.000000 0.000000 0.000000 0.000000 0.000000 0.000000 0.000000 0.000000 0.000000 0.000000 0.000000 0.000000 0.000000 0.000000 0.000000 0.000000 0.000000 0.000000 0.000000 0.000000 0.000000 0.000000 0.000000 0.000000 0.000000 0.000000 24.162741 24.162741 24.162741 24.162741 24.162741 24.162741 24.162741 24.162741 24.162741 24.162741 0.000000 0.000000 0.000000 0.000000 0.000000 0.000000 0.000000 0.000000 0.000000 0.000000 0.000000 0.000000 0.000000
0.000000 0.000000 0.000000 0.000000 0.000000 0.000000 0.000000 0.000000 0.000000 0.000000 0.000000 0.000000 0.000000 0.000000 0.000000 0.000000 0.000000 0.000000 0.000000 0.000000 0.000000 0.000000 28.985008 28.985008 28.985008 28.985008 28.985008 28.985008 28.985008 28.985008 28.985008 28.985008 28.985008 28.985008 0.000000 0.000000 0.000000 0.000000 0.000000 0.000000 0.000000 0.000000 0.000000 0.000000 0.000000 0.000000 0.000000 0.000000 0.000000 0.000000 0.000000 0.000000 0.000000 0.000000 0.000000 0.000000 0.000000 0.000000 0.000000 0.000000 0.000000 0.000000 0.000000 0.000000 0.000000 0.000000 0.000000 0.000000 0.000000 0.000000 0.000000 0.000000 0.000000 0.000000 0.000000 0.000000 0.000000 0.000000 0.000000 0.000000 24.162741 24.162741 24.162741 24.162741 24.162741 24.162741 24.162741 24.162741 24.162741 24.162741 0.000000 0.000000 0.000000 0.000000 0.000000 0.000000 0.000000 0.000000 0.000000 0.000000 0.000000 0.000000 0.000000
0.000000 0.000000 0.000000 0.000000 0.000000 0.000000 0.000000 0.000000 0.000000 0.000000 0.000000 0.000000 0.000000 0.000000 0.000000 0.000000 0.000000 0.000000 0.000000 0.000000 0.000000 0.000000 0.000000 0.000000 0.000000 0.000000 0.000000 0.000000 0.000000 0.000000 0.000000 0.000000 0.000000 0.000000 0.000000 0.000000 0.000000 0.000000 0.000000 0.000000 0.000000 0.000000 0.000000 0.000000 0.000000 0.000000 0.000000 0.000000 0.000000 0.000000 0.000000 0.000000 0.000000 0.000000 0.000000 0.000000 0.000000 0.000000 0.000000 0.000000 0.000000 0.000000 0.000000 0.000000 0.000000 0.000000 0.000000 0.000000 0.000000 0.000000 0.000000 0.000000 0.000000 0.000000 0.000000 0.000000 0.000000 0.000000 0.000000 0.000000 0.000000 0.000000 0.000000 0.000000 0.000000 0.000000 0.000000 0.000000 0.000000 0.000000 0.000000 0.000000 0.000000 0.000000 0.000000 0.000000 0.000000 0.000000 0.000000 0.000000 0.000000 0.000000 0.000000
0.000000 0.000000 0.000000 0.000000 0.000000 0.000000 0.000000 0.000000 0.000000 0.000000 0.000000 0.000000 0.000000 0.000000 0.000000 0.000000 0.000000 0.000000 0.000000 0.000000 0.000000 0.000000 0.000000 0.000000 0.000000 0.000000 0.000000 0.000000 0.000000 0.000000 0.000000 0.000000 0.000000 0.000000 0.000000 0.000000 0.000000 0.000000 0.000000 0.000000 0.000000 0.000000 0.000000 0.000000 0.000000 0.000000 0.000000 0.000000 0.000000 0.000000 0.000000 0.000000 0.000000 0.000000 0.000000 0.000000 0.000000 0.000000 0.000000 0.000000 0.000000 0.000000 0.000000 0.000000 0.000000 0.000000 0.000000 0.000000 0.000000 0.000000 0.000000 0.000000 0.000000 0.000000 0.000000 0.000000 0.000000 0.000000 0.000000 0.000000 0.000000 0.000000 0.000000 0.000000 0.000000 0.000000 0.000000 0.000000 0.000000 0.000000 0.000000 0.000000 0.000000 0.000000 0.000000 0.000000 0.000000 0.000000 0.000000 0.000000 0.000000 0.000000 0.000000
0.000000 0.000000 0.000000 0.000000 0.000000 0.000000 0.000000 0.000000 0.000000 0.000000 0.000000 0.000000 0.000000 0.000000 0.000000 0.000000 0.000000 0.000000 0.000000 0.000000 0.000000 0.000000 0.000000 0.000000 0.000000 0.000000 0.000000 0.000000 0.000000 0.000000 0.000000 0.000000 0.000000 0.000000 0.000000 0.000000 0.000000 0.000000 0.000000 0.000000 0.000000 0.000000 0.000000 0.000000 0.000000 0.000000 0.000000 0.000000 0.000000 0.000000 0.000000 0.000000 0.000000 0.000000 0.000000 0.000000 0.000000 0.000000 0.000000 0.000000 0.000000 0.000000 0.000000 0.000000 0.000000 0.000000 0.000000 0.000000 0.000000 0.000000 0.000000 0.000000 0.000000 0.000000 0.000000 0.000000 0.000000 0.000000 0.000000 0.000000 0.000000 0.000000 0.000000 0.000000 0.000000 0.000000 0.000000 0.000000 0.000000 0.000000 0.000000 0.000000 0.000000 0.000000 0.000000 0.000000 0.000000 0.000000 0.000000 0.000000 0.000000 0.000000 0.000000
0.000000 0.000000 0.000000 0.000000 0.000000 0.000000 0.000000 0.000000 0.000000 0.000000 0.000000 0.000000 0.000000 0.000000 0.000000 0.000000 0.000000 0.000000 0.000000 0.000000 0.000000 0.000000 0.000000 0.000000 0.000000 0.000000 0.000000 0.000000 0.000000 0.000000 0.000000 0.000000 0.000000 0.000000 0.000000 0.000000 0.000000 0.000000 0.000000 0.000000 0.000000 0.000000 0.000000 0.000000 0.000000 0.000000 0.000000 0.000000 0.000000 0.000000 0.000000 0.000000 0.000000 0.000000 0.000000 0.000000 0.000000 0.000000 0.000000 0.000000 0.000000 0.000000 0.000000 0.000000 0.000000 0.000000 0.000000 0.000000 0.000000 0.000000 0.000000 0.000000 0.000000 0.000000 0.000000 0.000000 0.000000 0.000000 0.000000 0.000000 0.000000 0.000000 0.000000 0.000000 0.000000 0.000000 0.000000 0.000000 0.000000 0.000000 0.000000 0.000000 0.000000 0.000000 0.000000 0.000000 0.000000 0.000000 0.000000 0.000000 0.000000 0.000000 0.000000
0.000000 0.000000 0.000000 0.000000 0.000000 0.000000 0.000000 0.000000 0.000000 0.000000 0.000000 0.000000 0.000000 0.000000 0.000000 0.000000 0.000000 0.000000 0.000000 0.000000 0.000000 0.000000 0.000000 0.000000 0.000000 0.000000 0.000000 0.000000 0.000000 0.000000 0.000000 0.000000 0.000000 0.000000 0.000000 0.000000 0.000000 0.000000 0.000000 0.000000 0.000000 0.000000 0.000000 0.000000 0.000000 0.000000 0.000000 0.000000 0.000000 0.000000 0.000000 0.000000 0.000000 0.000000 0.000000 0.000000 0.000000 0.000000 0.000000 0.000000 0.000000 0.000000 0.000000 0.000000 0.000000 0.000000 0.000000 0.000000 0.000000 0.000000 0.000000 0.000000 0.000000 0.000000 0.000000 0.000000 0.000000 0.000000 0.000000 0.000000 0.000000 0.000000 0.000000 0.000000 0.000000 0.000000 0.000000 0.000000 0.000000 0.000000 0.000000 0.000000 0.000000 0.000000 0.000000 0.000000 0.000000 0.000000 0.000000 0.000000 0.000000 0.000000 0.000000
0.000000 0.000000 0.000000 0.000000 0.000000 0.000000 0.000000 0.000000 0.000000 0.000000 0.000000 0.000000 0.000000 0.000000 0.000000 0.000000 0.000000 0.000000 0.000000 0.000000 0.000000 0.000000 28.194520 28.194520 28.194520 28.194520 28.194520 28.194520 28.194520 28.194520 28.194520 28.194520 28.194520 28.194520 0.000000 0.000000 0.000000 0.000000 0.000000 18.669440 18.669440 18.669440 18.669440 18.669440 18.669440 18.669440 18.669440 18.669440 18.669440 18.669440 0.000000 0.000000 0.000000 0.000000 0.000000 0.000000 0.000000 0.000000 0.000000 0.000000 0.000000 0.000000 0.000000 0.000000 0.000000 0.000000 0.000000 0.000000 0.000000 0.000000 0.000000 0.000000 0.000000 0.000000 0.000000 0.000000 0.000000 0.000000 0.000000 0.000000 0.000000 0.000000 0.000000 0.000000 0.000000 0.000000 0.000000 0.000000 0.000000 0.000000 0.000000 0.000000 0.000000 0.000000 0.000000 0.000000 0.000000 0.000000 0.000000 0.000000 0.000000 0.000000 0.000000
0.000000 0.000000 0.000000 0.000000 0.000000 0.000000 0.000000 0.000000 0.000000 0.000000 0.000000 0.000000 0.000000 0.000000 0.000000 0.000000 0.000000 0.000000 0.000000 0.000000 0.000000 0.000000 28.194520 28.194520 28.194520 28.194520 28.194520 28.194520 28.194520 28.194520 28.194520 28.194520 28.194520 28.194520 0.000000 0.000000 0.000000 0.000000 0.000000 18.669440 18.669440 18.669440 18.669440 18.669440 18.669440 18.669440 18.669440 18.669440 18.669440 18.669440 0.000000 0.000000 0.000000 0.000000 0.000000 0.000000 0.000000 0.000000 0.000000 0.000000 0.000000 0.000000 0.000000 0.000000 0.000000 0.000000 0.000000 0.000000 0.000000 0.000000 0.000000 0.000000 0.000000 0.000000 0.000000 0.000000 0.000000 0.000000 0.000000 0.000000 0.000000 0.000000 0.000000 0.000000 0.000000 0.000000 0.000000 0.000000 0.000000 0.000000 0.000000 0.000000 0.000000 0.000000 0.000000 0.000000 0.000000 0.000000 0.000000 0.000000 0.000000 0.000000 0.000000
0.000000 0.000000 0.000000 0.000000 0.000000 0.000000 0.000000 0.000000 0.000000 0.000000 0.000000 0.000000 0.000000 0.000000 0.000000 0.000000 0.000000 0.000000 0.000000 0.000000 0.000000 0.000000 28.194520 28.194520 28.194520 28.194520 28.194520 28.194520 28.194520 28.194520 28.194520 28.194520 28.194520 28.194520 0.000000 0.000000 0.000000 0.000000 0.000000 18.669440 18.669440 18.669440 18.669440 18.669440 18.669440 18.669440 18.669440 18.669440 18.669440 18.669440 0.000000 0.000000 0.000000 0.000000 0.000000 0.000000 0.000000 30.444388 30.444388 30.444388 30.444388 30.444388 30.444388 30.444388 30.444388 30.444388 30.444388 30.444388 30.444388 30.444388 30.444388 30.444388 30.444388 0.000000 0.000000 0.000000 0.000000 18.139836 18.139836 18.139836 18.139836 18.139836 18.139836 18.139836 18.139836 18.139836 0.000000 0.000000 0.000000 0.000000 0.000000 0.000000 0.000000 0.000000 0.000000 0.000000 0.000000 0.000000 0.000000 0.000000 0.000000 0.000000 0.000000
0.000000 0.000000 0.000000 0.000000 0.000000 0.000000 0.000000 0.000000 0.000000 0.000000 0.000000 0.000000 0.000000 0.000000 0.000000 0.000000 0.000000 0.000000 0.000000 0.000000 0.000000 0.000000 28.194520 28.194520 28.194520 28.194520 28.194520 28.194520 28.194520 28.194520 28.194520 28.194520 28.194520 28.194520 0.000000 0.000000 0.000000 0.000000 0.000000 18.669440 18.669440 18.669440 18.669440 18.669440 18.669440 18.669440 18.669440 18.669440 18.669440 18.669440 0.000000 0.000000 0.000000 0.000000 0.000000 0.000000 0.000000 30.444388 30.444388 30.444388 30.444388 30.444388 30.444388 30.444388 30.444388 30.444388 30.444388 30.444388 30.444388 30.444388 30.444388 30.444388 30.444388 0.000000 0.000000 0.000000 0.000000 18.139836 18.139836 18.139836 18.139836 18.139836 18.139836 18.139836 18.139836 18.139836 0.000000 0.000000 0.000000 0.000000 0.000000 0.000000 0.000000 0.000000 0.000000 0.000000 0.000000 0.000000 0.000000 0.000000 0.000000 0.000000 0.000000
0.000000 0.000000 0.000000 0.000000 0.000000 0.000000 0.000000 0.000000 0.000000 0.000000 0.000000 0.000000 0.000000 0.000000 0.000000 0.000000 0.000000 0.000000 0.000000 0.000000 0.000000 0.000000 28.194520 28.194520 28.194520 28.194520 28.194520 28.194520 28.194520 28.194520 28.194520 28.194520 28.194520 28.194520 0.000000 0.000000 0.000000 0.000000 0.000000 18.669440 18.669440 18.669440 18.669440 18.669440 18.669440 18.669440 18.669440 18.669440 18.669440 18.669440 0.000000 0.000000 0.000000 0.000000 0.000000 0.000000 0.000000 30.444388 30.444388 30.444388 30.444388 30.444388 30.444388 30.444388 30.444388 30.444388 30.444388 30.444388 30.444388 30.444388 30.444388 30.444388 30.444388 0.000000 0.000000 0.000000 0.000000 18.139836 18.139836 18.139836 18.139836 18.139836 18.139836 18.139836 18.139836 18.139836 0.000000 0.000000 0.000000 0.000000 0.000000 0.000000 0.000000 0.000000 0.000000 0.000000 0.000000 0.000000 0.000000 0.000000 0.000000 0.000000 0.000000
0.000000 0.000000 0.000000 0.000000 0.000000 0.000000 0.000000 0.000000 0.000000 0.000000 0.000000 0.000000 0.000000 0.000000 0.000000 0.000000 0.000000 0.000000 0.000000 0.000000 0.000000 0.000000 28.194520 28.194520 28.194520 28.194520 28.194520 28.194520 28.194520 28.194520 28.194520 28.194520 28.194520 28.194520 0.000000 0.000000 0.000000 0.000000 0.000000 18.669440 18.669440 18.669440 18.669440 18.669440 18.669440 18.669440 18.669440 18.669440 18.669440 18.669440 0.000000 0.000000 0.000000 0.000000 0.000000 0.000000 0.000000 30.444388 30.444388 30.444388 30.444388 30.444388 30.444388 30.444388 30.444388 30.444388 30.444388 30.444388 30.444388 30.444388 30.444388 30.444388 30.444388 0.000000 0.000000 0.000000 0.000000 18.139836 18.139836 18.139836 18.139836 18.139836 18.139836 18.139836 18.139836 18.139836 0.000000 0.000000 0.000000 0.000000 0.000000 0.000000 0.000000 0.000000 0.000000 0.000000 0.000000 0.000000 0.000000 0.000000 0.000000 0.000000 0.000000
0.000000 0.000000 0.000000 0.000000 0.000000 0.000000 0.000000 0.000000 0.000000 0.000000 0.000000 0.000000 0.000000 0.000000 0.000000 0.000000 0.000000 0.000000 0.000000 0.000000 0.000000 0.000000 28.194520 28.194520 28.194520 28.194520 28.194520 28.194520 28.194520 28.194520 28.194520 28.194520 28.194520 28.194520 0.000000 0.000000 0.000000 0.000000 0.000000 18.669440 18.669440 18.669440 18.669440 18.669440 18.669440 18.669440 18.669440 18.669440 18.669440 18.669440 0.000000 0.000000 0.000000 0.000000 0.000000 0.000000 0.000000 30.444388 30.444388 30.444388 30.444388 30.444388 30.444388 30.444388 30.444388 30.444388 30.444388 30.444388 30.444388 30.444388 30.444388 30.444388 30.444388 0.000000 0.000000 0.000000 0.000000 18.139836 18.139836 18.139836 18.139836 18.139836 18.139836 18.139836 18.139836 18.139836 0.000000 0.000000 0.000000 0.000000 0.000000 0.000000 0.000000 0.000000 0.000000 0.000000 0.000000 0.000000 0.000000 0.000000 0.000000 0.000000 0.000000
0.000000 0.000000 0.000000 0.000000 0.000000 0.000000 0.000000 0.000000 0.000000 0.000000 0.000000 0.000000 0.000000 0.000000 0.000000 0.000000 0.000000 0.000000 0.000000 0.000000 0.000000 0.000000 28.194520 28.194520 28.194520 28.194520 28.194520 28.194520 28.194520 28.194520 28.194520 28.194520 28.194520 28.194520 0.000000 0.000000 0.000000 0.000000 0.000000 0.000000 0.000000 0.000000 0.000000 0.000000 0.000000 0.000000 0.000000 0.000000 0.000000 0.000000 0.000000 0.000000 0.000000 0.000000 0.000000 0.000000 0.000000 30.444388 30.444388 30.444388 30.444388 30.444388 30.444388 30.444388 30.444388 30.444388 30.444388 30.444388 30.444388 30.444388 30.444388 30.444388 30.444388 0.000000 0.000000 0.000000 0.000000 18.139836 18.139836 18.139836 18.139836 18.139836 18.139836 18.139836 18.139836 18.139836 0.000000 0.000000 0.000000 0.000000 0.000000 0.000000 0.000000 0.000000 0.000000 0.000000 0.000000 0.000000 0.000000 0.000000 0.000000 0.000000 0.000000
0.000000 0.000000 0.000000 0.000000 0.000000 0.000000 0.000000 0.000000 0.000000 0.000000 0.000000 0.000000 0.000000 0.000000 0.000000 0.000000 0.000000 0.000000 0.000000 0.000000 0.000000 0.000000 28.194520 28.194520 28.194520 28.194520 28.194520 28.194520 28.194520 28.194520 28.194520 28.194520 28.194520 28.194520 0.000000 0.000000 0.000000 0.000000 0.000000 0.000000 0.000000 0.000000 0.000000 0.000000 0.000000 0.000000 0.000000 0.000000 0.000000 0.000000 0.000000 0.000000 0.000000 0.000000 0.000000 0.000000 0.000000 30.444388 30.444388 30.444388 30.444388 30.444388 30.444388 30.444388 30.444388 30.444388 30.444388 30.444388 30.444388 30.444388 30.444388 30.444388 30.444388 0.000000 0.000000 0.000000 0.000000 18.139836 18.139836 18.139836 18.139836 18.139836 18.139836 18.139836 18.139836 18.139836 0.000000 0.000000 0.000000 0.000000 0.000000 0.000000 0.000000 0.000000 0.000000 0.000000 0.000000 0.000000 0.000000 0.000000 0.000000 0.000000 0.000000
0.000000 0.000000 0.000000 0.000000 0.000000 0.000000 0.000000 0.000000 0.000000 0.000000 0.000000 0.000000 0.000000 0.000000 0.000000 0.000000 0.000000 0.000000 0.000000 0.000000 0.000000 0.000000 28.194520 28.194520 28.194520 28.194520 28.194520 28.194520 28.194520 28.194520 28.194520 28.194520 28.194520 28.194520 0.000000 0.000000 0.000000 0.000000 0.000000 0.000000 0.000000 0.000000 0.000000 0.000000 0.000000 0.000000 0.000000 0.000000 0.000000 0.000000 0.000000 0.000000 0.000000 0.000000 0.000000 0.000000 0.000000 30.444388 30.444388 30.444388 30.444388 30.444388 30.444388 30.444388 30.444388 30.444388 30.444388 30.444388 30.444388 30.444388 30.444388 30.444388 30.444388 0.000000 0.000000 0.000000 0.000000 18.139836 18.139836 18.139836 18.139836 18.139836 18.139836 18.139836 18.139836 18.139836 0.000000 0.000000 0.000000 0.000000 0.000000 0.000000 0.000000 0.000000 0.000000 0.000000 0.000000 0.000000 0.000000 0.000000 0.000000 0.000000 0.000000
0.000000 0.000000 0.000000 0.000000 0.000000 0.000000 0.000000 0.000000 0.000000 0.000000 0.000000 0.000000 0.000000 0.000000 0.000000 0.000000 0.000000 0.000000 0.000000 0.000000 0.000000 0.000000 18.109215 18.109215 18.109215 18.109215 18.109215 18.109215 18.109215 18.109215 18.109215 18.109215 18.109215 18.109215 0.000000 0.000000 0.000000 0.000000 0.000000 0.000000 0.000000 0.000000 0.000000 0.000000 0.000000 0.000000 0.000000 0.000000 0.000000 0.000000 0.000000 0.000000 0.000000 0.000000 0.000000 0.000000 0.000000 0.000000 0.000000 0.000000 0.000000 0.000000 0.000000 0.000000 0.000000 0.000000 0.000000 0.000000 0.000000 0.000000 0.000000 0.000000 0.000000 0.000000 0.000000 0.000000 0.000000 0.000000 0.000000 0.000000 0.000000 0.000000 0.000000 0.000000 0.000000 0.000000 0.000000 0.000000 0.000000 0.000000 0.000000 0.000000 0.000000 0.000000 0.000000 0.000000 0.000000 0.000000 0.000000 0.000000 0.000000 0.000000 0.000000
0.000000 0.000000 0.000000 0.000000 0.000000 0.000000 0.000000 0.000000 0.000000 0.000000 0.000000 0.000000 0.000000 0.000000 0.000000 0.000000 0.000000 0.000000 0.000000 0.000000 0.000000 0.000000 18.109215 18.109215 18.109215 18.109215 18.109215 18.109215 18.109215 18.109215 18.109215 18.109215 18.109215 18.109215 0.000000 0.000000 0.000000 0.000000 0.000000 0.000000 0.000000 0.000000 0.000000 0.000000 0.000000 0.000000 0.000000 0.000000 0.000000 0.000000 0.000000 0.000000 0.000000 0.000000 0.000000 0.000000 0.000000 0.000000 0.000000 0.000000 0.000000 0.000000 0.000000 0.000000 0.000000 0.000000 0.000000 0.000000 0.000000 0.000000 0.000000 0.000000 0.000000 0.000000 0.000000 0.000000 0.000000 0.000000 0.000000 0.000000 0.000000 0.000000 0.000000 0.000000 0.000000 0.000000 0.000000 0.000000 0.000000 0.000000 0.000000 0.000000 0.000000 0.000000 0.000000 0.000000 0.000000 0.000000 0.000000 0.000000 0.000000 0.000000 0.000000
0.000000 0.000000 0.000000 0.000000 0.000000 0.000000 0.000000 0.000000 0.000000 0.000000 0.000000 0.000000 0.000000 0.000000 0.000000 0.000000 0.000000 0.000000 0.000000 0.000000 0.000000 0.000000 18.109215 18.109215 18.109215 18.109215 18.109215 18.109215 18.109215 18.109215 18.109215 18.109215 18.109215 18.109215 0.000000 0.000000 0.000000 0.000000 0.000000 0.000000 0.000000 0.000000 0.000000 0.000000 0.000000 0.000000 0.000000 0.000000 0.000000 0.000000 0.000000 0.000000 0.000000 0.000000 0.000000 0.000000 0.000000 0.000000 0.000000 0.000000 0.000000 0.000000 0.000000 0.000000 0.000000 0.000000 0.000000 0.000000 0.000000 0.000000 0.000000 0.000000 0.000000 0.000000 0.000000 0.000000 0.000000 0.000000 0.000000 0.000000 0.000000 0.000000 0.000000 0.000000 0.000000 0.000000 0.000000 0.000000 0.000000 0.000000 0.000000 0.000000 0.000000 0.000000 0.000000 0.000000 0.000000 0.000000 0.000000 0.000000 0.000000 0.000000 0.000000
0.000000 0.000000 0.000000 0.000000 0.000000 0.000000 16.132988 16.132988 16.132988 16.132988 16.132988 16.132988 16.132988 16.132988 16.132988 0.000000 0.000000 0.000000 0.000000 0.000000 0.000000 0.000000 18.109215 18.109215 18.109215 18.109215 18.109215 18.109215 18.109215 18.109215 18.109215 18.109215 18.109215 18.109215 0.000000 0.000000 0.000000 0.000000 0.000000 0.000000 0.000000 0.000000 0.000000 0.000000 0.000000 0.000000 0.000000 0.000000 0.000000 0.000000 0.000000 0.000000 0.000000 0.000000 0.000000 0.000000 0.000000 29.220150 29.220150 29.220150 29.220150 29.220150 29.220150 29.220150 29.220150 29.220150 29.220150 29.220150 29.220150 29.220150 29.220150 29.220150 29.220150 0.000000 0.000000 0.000000 0.000000 17.410392 17.410392 17.410392 17.410392 17.410392 17.410392 17.410392 17.410392 17.410392 0.000000 0.000000 0.000000 0.000000 13.307953 13.307953 13.307953 13.307953 13.307953 13.307953 13.307953 0.000000 0.000000 0.000000 0.000000 0.000000 0.000000
0.000000 0.000000 0.000000 0.000000 0.000000 0.000000 16.132988 16.132988 16.132988 16.132988 16.132988 16.132988 16.132988 16.132988 16.132988 0.000000 0.000000 0.000000 0.000000 0.000000 0.000000 0.000000 18.109215 18.109215 18.109215 18.109215 18.109215 18.109215 18.109215 18.109215 18.109215 18.109215 18.109215 18.109215 0.000000 0.000000 0.000000 0.000000 0.000000 23.885414 23.885414 23.885414 23.885414 23.885414 23.885414 23.885414 23.885414 23.885414 23.885414 23.885414 0.000000 0.000000 0.000000 0.000000 0.000000 0.000000 0.000000 29.220150 29.220150 29.220150 29.220150 29.220150 29.220150 29.220150 29.220150 29.220150 29.220150 29.220150 29.220150 29.220150 29.220150 29.220150 29.220150 0.000000 0.000000 0.000000 0.000000 17.410392 17.410392 17.410392 17.410392 17.410392 17.410392 17.410392 17.410392 17.410392 0.000000 0.000000 0.000000 0.000000 13.307953 13.307953 13.307953 13.307953 13.307953 13.307953 13.307953 0.000000 0.000000 0.000000 0.000000 0.000000 0.000000
0.000000 0.000000 0.000000 0.000000 0.000000 0.000000 16.132988 16.132988 16.132988 16.132988 16.132988 16.132988 16.132988 16.132988 16.132988 0.000000 0.000000 0.000000 0.000000 0.000000 0.000000 0.000000 18.109215 18.109215 18.109215 18.109215 18.109215 18.109215 18.109215 18.109215 18.109215 18.109215 18.109215 18.109215 0.000000 0.000000 0.000000 0.000000 0.000000 23.885414 23.885414 23.885414 23.885414 23.885414 23.885414 23.885414 23.885414 23.885414 23.885414 23.885414 0.000000 0.000000 0.000000 0.000000 0.000000 0.000000 0.000000 29.220150 29.220150 29.220150 29.220150 29.220150 29.220150 29.220150 29.220150 29.220150 29.220150 29.220150 29.220150 29.220150 29.220150 29.220150 29.220150 0.000000 0.000000 0.000000 0.000000 17.410392 17.410392 17.410392 17.410392 17.410392 17.410392 17.410392 17.410392 17.410392 0.000000 0.000000 0.000000 0.000000 13.307953 13.307953 13.307953 13.307953 13.307953 13.307953 13.307953 0.000000 0.000000 0.000000 0.000000 0.000000 0.000000
0.000000 0.000000 0.000000 0.000000 0.000000 0.000000 16.132988 16.132988 16.132988 16.132988 16.132988 16.132988 16.132988 16.132988 16.132988 0.000000 0.000000 0.000000 0.000000 0.000000 0.000000 0.000000 0.000000 0.000000 0.000000 0.000000 0.000000 0.000000 0.000000 0.000000 0.000000 0.000000 0.000000 0.000000 0.000000 0.000000 0.000000 0.000000 0.000000 23.885414 23.885414 23.885414 23.885414 23.885414 23.885414 23.885414 23.885414 23.885414 23.885414 23.885414 0.000000 0.000000 0.000000 0.000000 0.000000 0.000000 0.000000 29.220150 29.220150 29.220150 29.220150 29.220150 29.220150 29.220150 29.220150 29.220150 29.220150 29.220150 29.220150 29.220150 29.220150 29.220150 29.220150 0.000000 0.000000 0.000000 0.000000 17.410392 17.410392 17.410392 17.410392 17.410392 17.410392 17.410392 17.410392 17.410392 0.000000 0.000000 0.000000 0.000000 13.307953 13.307953 13.307953 13.307953 13.307953 13.307953 13.307953 0.000000 0.000000 0.000000 0.000000 0.000000 0.000000
0.000000 0.000000 0.000000 0.000000 0.000000 0.000000 16.132988 16.132988 16.132988 16.132988 16.132988 16.132988 16.132988 16.132988 16.132988 0.000000 0.000000 0.000000 0.000000 0.000000 0.000000 0.000000 0.000000 0.000000 0.000000 0.000000 0.000000 0.000000 0.000000 0.000000 0.000000 0.000000 0.000000 0.000000 0.000000 0.000000 0.000000 0.000000 0.000000 23.885414 23.885414 23.885414 23.885414 23.885414 23.885414 23.885414 23.885414 23.885414 23.885414 23.885414 0.000000 0.000000 0.000000 0.000000 0.000000 0.000000 0.000000 29.220150 29.220150 29.220150 29.220150 29.220150 29.220150 29.220150 29.220150 29.220150 29.220150 29.220150 29.220150 29.220150 29.220150 29.220150 29.220150 0.000000 0.000000 0.000000 0.000000 17.410392 17.410392 17.410392 17.410392 17.410392 17.410392 17.410392 17.410392 17.410392 0.000000 0.000000 0.000000 0.000000 13.307953 13.307953 13.307953 13.307953 13.307953 13.307953 13.307953 0.000000 0.000000 0.000000 0.000000 0.000000 0.000000
0.000000 0.000000 0.000000 0.000000 0.000000 0.000000 16.132988 16.132988 16.132988 16.132988 16.132988 16.132988 16.132988 16.132988 16.132988 0.000000 0.000000 0.000000 0.000000 0.000000 0.000000 0.000000 0.000000 0.000000 0.000000 0.000000 0.000000 0.000000 0.000000 0.000000 0.000000 0.000000 0.000000 0.000000 0.000000 0.000000 0.000000 0.000000 0.000000 23.885414 23.885414 23.885414 23.885414 23.885414 23.885414 23.885414 23.885414 23.885414 23.885414 23.885414 0.000000 0.000000 0.000000 0.000000 0.000000 0.000000 0.000000 29.220150 29.220150 29.220150 29.220150 29.220150 29.220150 29.220150 29.220150 29.220150 29.220150 29.220150 29.220150 29.220150 29.220150 29.220150 29.220150 0.000000 0.000000 0.000000 0.000000 17.410392 17.410392 17.410392 17.410392 17.410392 17.410392 17.410392 17.410392 17.410392 0.000000 0.000000 0.000000 0.000000 13.307953 13.307953 13.307953 13.307953 13.307953 13.307953 13.307953 0.000000 0.000000 0.000000 0.000000 0.000000 0.000000
0.000000 0.000000 0.000000 0.000000 0.000000 0.000000 16.132988 16.132988 16.132988 16.132988 16.132988 16.132988 16.132988 16.132988 16.132988 0.000000 0.000000 0.000000 0.000000 0.000000 0.000000 0.000000 0.000000 0.000000 0.000000 0.000000 0.000000 0.000000 0.000000 0.000000 0.000000 0.000000 0.000000 0.000000 0.000000 0.000000 0.000000 0.000000 0.000000 23.885414 23.885414 23.885414 23.885414 23.885414 23.885414 23.885414 23.885414 23.885414 23.885414 23.885414 0.000000 0.000000 0.000000 0.000000 0.000000 0.000000 0.000000 29.220150 29.220150 29.220150 29.220150 29.220150 29.220150 29.220150 29.220150 29.220150 29.220150 29.220150 29.220150 29.220150 29.220150 29.220150 29.220150 0.000000 0.000000 0.000000 0.000000 17.410392 17.410392 17.410392 17.410392 17.410392 17.410392 17.410392 17.410392 17.410392 0.000000 0.000000 0.000000 0.000000 13.307953 13.307953 13.307953 13.307953 13.307953 13.307953 13.307953 0.000000 0.000000 0.000000 0.000000 0.000000 0.000000
0.000000 0.000000 0.000000 0.000000 0.000000 0.000000 16.132988 16.132988 16.132988 16.132988 16.132988 16.132988 16.132988 16.132988 16.132988 0.000000 0.000000 0.000000 0.000000 0.000000 0.000000 0.000000 0.000000 0.000000 0.000000 0.000000 0.000000 0.000000 0.000000 0.000000 0.000000 0.000000 0.000000 0.000000 0.000000 0.000000 0.000000 0.000000 0.000000 23.885414 23.885414 23.885414 23.885414 23.885414 23.885414 23.885414 23.885414 23.885414 23.885414 23.885414 0.000000 0.000000 0.000000 0.000000 0.000000 0.000000 0.000000 29.220150 29.220150 29.220150 29.220150 29.220150 29.220150 29.220150 29.220150 29.220150 29.220150 29.220150 29.220150 29.220150 29.220150 29.220150 29.220150 0.000000 0.000000 0.000000 0.000000 17.410392 17.410392 17.410392 17.410392 17.410392 17.410392 17.410392 17.410392 17.410392 0.000000 0.000000 0.000000 0.000000 13.307953 13.307953 13.307953 13.307953 13.307953 13.307953 13.307953 0.000000 0.000000 0.000000 0.000000 0.000000 0.000000
0.000000 0.000000 0.000000 0.000000 0.000000 0.000000 0.000000 0.000000 0.000000 0.000000 0.000000 0.000000 0.000000 0.000000 0.000000 0.000000 0.000000 0.000000 0.000000 0.000000 0.000000 0.000000 0.000000 0.000000 0.000000 0.000000 0.000000 0.000000 0.000000 0.000000 0.000000 0.000000 0.000000 0.000000 0.000000 0.000000 0.000000 0.000000 0.000000 23.885414 23.885414 23.885414 23.885414 23.885414 23.885414 23.885414 23.885414 23.885414 23.885414 23.885414 0.000000 0.000000 0.000000 0.000000 0.000000 0.000000 0.000000 0.000000 0.000000 0.000000 0.000000 0.000000 0.000000 0.000000 0.000000 0.000000 0.000000 0.000000 0.000000 0.000000 0.000000 0.000000 0.000000 0.000000 0.000000 0.000000 0.000000 0.000000 0.000000 0.000000 0.000000 0.000000 0.000000 0.000000 0.000000 0.000000 0.000000 0.000000 0.000000 0.000000 0.000000 0.000000 0.000000 0.000000 0.000000 0.000000 0.000000 0.000000 0.000000 0.000000 0.000000 0.000000 0.000000
0.000000 0.000000 0.000000 0.000000 0.000000 0.000000 0.000000 0.000000 0.000000 0.000000 0.000000 0.000000 0.000000 0.000000 0.000000 0.000000 0.000000 0.000000 0.000000 0.000000 0.000000 0.000000 0.000000 0.000000 0.000000 0.000000 0.000000 0.000000 0.000000 0.000000 0.000000 0.000000 0.000000 0.000000 0.000000 0.000000 0.000000 0.000000 0.000000 23.885414 23.885414 23.885414 23.885414 23.885414 23.885414 23.885414 23.885414 23.885414 23.885414 23.885414 0.000000 0.000000 0.000000 0.000000 0.000000 0.000000 0.000000 0.000000 0.000000 0.000000 0.000000 0.000000 0.000000 0.000000 0.000000 0.000000 0.000000 0.000000 0.000000 0.000000 0.000000 0.000000 0.000000 0.000000 0.000000 0.000000 0.000000 0.000000 0.000000 0.000000 0.000000 0.000000 0.000000 0.000000 0.000000 0.000000 0.000000 0.000000 0.000000 0.000000 0.000000 0.000000 0.000000 0.000000 0.000000 0.000000 0.000000 0.000000 0.000000 0.000000 0.000000 0.000000 0.000000
0.000000 0.000000 0.000000 0.000000 0.000000 0.000000 0.000000 0.000000 0.000000 0.000000 0.000000 0.000000 0.000000 0.000000 0.000000 0.000000 0.000000 0.000000 0.000000 0.000000 0.000000 0.000000 0.000000 0.000000 0.000000 0.000000 0.000000 0.000000 0.000000 0.000000 0.000000 0.000000 0.000000 0.000000 0.000000 0.000000 0.000000 0.000000 0.000000 0.000000 0.000000 0.000000 0.000000 0.000000 0.000000 0.000000 0.000000 0.000000 0.000000 0.000000 0.000000 0.000000 0.000000 0.000000 0.000000 0.000000 0.000000 0.000000 0.000000 0.000000 0.000000 0.000000 0.000000 0.000000 0.000000 0.000000 0.000000 0.000000 0.000000 0.000000 0.000000 0.000000 0.000000 0.000000 0.000000 0.000000 0.000000 0.000000 0.000000 0.000000 0.000000 0.000000 0.000000 0.000000 0.000000 0.000000 0.000000 0.000000 0.000000 0.000000 0.000000 0.000000 0.000000 0.000000 0.000000 0.000000 0.000000 0.000000 0.000000 0.000000 0.000000 0.000000 0.000000
0.000000 0.000000 0.000000 0.000000 0.000000 0.000000 0.000000 0.000000 0.000000 0.000000 0.000000 0.000000 0.000000 0.000000 0.000000 0.000000 0.000000 0.000000 0.000000 0.000000 0.000000 0.000000 0.000000 0.000000 0.000000 0.000000 0.000000 0.000000 0.000000 0.000000 0.000000 0.000000 0.000000 0.000000 0.000000 0.000000 0.000000 0.000000 0.000000 0.000000 0.000000 0.000000 0.000000 0.000000 0.000000 0.000000 0.000000 0.000000 0.000000 0.000000 0.000000 0.000000 0.000000 0.000000 0.000000 0.000000 0.000000 0.000000 0.000000 0.000000 0.000000 0.000000 0.000000 0.000000 0.000000 0.000000 0.000000 0.000000 0.000000 0.000000 0.000000 0.000000 0.000000 0.000000 0.000000 0.000000 0.000000 0.000000 0.000000 0.000000 0.000000 0.000000 0.000000 0.000000 0.000000 0.000000 0.000000 0.000000 0.000000 0.000000 0.000000 0.000000 0.000000 0.000000 0.000000 0.000000 0.000000 0.000000 0.000000 0.000000 0.000000 0.000000 0.000000
0.000000 0.000000 0.000000 0.000000 0.000000 0.000000 0.000000 0.000000 0.000000 0.000000 0.000000 0.000000 0.000000 0.000000 0.000000 0.000000 0.000000 0.000000 0.000000 0.000000 0.000000 0.000000 0.000000 0.000000 0.000000 0.000000 0.000000 0.000000 0.000000 0.000000 0.000000 0.000000 0.000000 0.000000 0.000000 0.000000 0.000000 0.000000 0.000000 0.000000 0.000000 0.000000 0.000000 0.000000 0.000000 0.000000 0.000000 0.000000 0.000000 0.000000 0.000000 0.000000 0.000000 0.000000 0.000000 0.000000 0.000000 0.000000 0.000000 0.000000 0.000000 0.000000 0.000000 0.000000 0.000000 0.000000 0.000000 0.000000 0.000000 0.000000 0.000000 0.000000 0.000000 0.000000 0.000000 0.000000 0.000000 0.000000 0.000000 0.000000 0.000000 0.000000 0.000000 0.000000 0.000000 0.000000 0.000000 0.000000 0.000000 0.000000 0.000000 0.000000 0.000000 0.000000 0.000000 0.000000 0.000000 0.000000 0.000000 0.000000 0.000000 0.000000 0.000000
0.000000 0.000000 0.000000 0.000000 0.000000 0.000000 0.000000 0.000000 0.000000 0.000000 0.000000 0.000000 0.000000 0.000000 0.000000 0.000000 0.000000 0.000000 0.000000 0.000000 0.000000 0.000000 0.000000 0.000000 0.000000 0.000000 0.000000 0.000000 0.000000 0.000000 0.000000 0.000000 0.000000 0.000000 0.000000 0.000000 0.000000 0.000000 0.000000 0.000000 0.000000 0.000000 0.000000 0.000000 0.000000 0.000000 0.000000 0.000000 0.000000 0.000000 0.000000 0.000000 0.000000 0.000000 0.000000 0.000000 0.000000 0.000000 0.000000 0.000000 0.000000 0.000000 0.000000 0.000000 0.000000 0.000000 0.000000 0.000000 0.000000 0.000000 0.000000 0.000000 0.000000 0.000000 0.000000 0.000000 0.000000 0.000000 0.000000 0.000000 0.000000 0.000000 0.000000 0.000000 0.000000 0.000000 0.000000 0.000000 0.000000 0.000000 0.000000 0.000000 0.000000 0.000000 0.000000 0.000000 0.000000 0.000000 0.000000 0.000000 0.000000 0.000000 0.000000
0.000000 0.000000 0.000000 0.000000 0.000000 0.000000 0.000000 0.000000 0.000000 0.000000 0.000000 0.000000 0.000000 0.000000 0.000000 0.000000 0.000000 0.000000 0.000000 0.000000 0.000000 0.000000 0.000000 0.000000 0.000000 0.000000 0.000000 0.000000 0.000000 0.000000 0.000000 0.000000 0.000000 0.000000 0.000000 0.000000 0.000000 0.000000 0.000000 0.000000 0.000000 0.000000 0.000000 0.000000 0.000000 0.000000 0.000000 0.000000 0.000000 0.000000 0.000000 0.000000 0.000000 0.000000 0.000000 0.000000 0.000000 0.000000 0.000000 0.000000 0.000000 0.000000 0.000000 0.000000 0.000000 0.000000 0.000000 0.000000 0.000000 0.000000 0.000000 0.000000 0.000000 0.000000 0.000000 0.000000 0.000000 0.000000 0.000000 0.000000 0.000000 0.000000 0.000000 0.000000 0.000000 0.000000 0.000000 0.000000 0.000000 0.000000 0.000000 0.000000 0.000000 0.000000 0.000000 0.000000 0.000000 0.000000 0.000000 0.000000 0.000000 0.000000 0.000000
0.000000 0.000000 0.000000 0.000000 0.000000 0.000000 0.000000 0.000000 0.000000 0.000000 0.000000 0.000000 0.000000 0.000000 0.000000 0.000000 0.000000 0.000000 0.000000 0.000000 0.000000 0.000000 21.872078 21.872078 21.872078 21.872078 21.872078 21.872078 21.872078 21.872078 21.872078 21.872078 21.872078 21.872078 0.000000 0.000000 0.000000 0.000000 0.000000 0.000000 0.000000 0.000000 0.000000 0.000000 0.000000 0.000000 0.000000 0.000000 0.000000 0.000000 0.000000 0.000000 0.000000 0.000000 0.000000 0.000000 0.000000 0.000000 0.000000 0.000000 0.000000 0.000000 0.000000 0.000000 0.000000 0.000000 0.000000 0.000000 0.000000 0.000000 0.000000 0.000000 0.000000 0.000000 0.000000 0.000000 0.000000 0.000000 0.000000 0.000000 0.000000 0.000000 0.000000 0.000000 0.000000 0.000000 0.000000 0.000000 0.000000 0.000000 0.000000 0.000000 0.000000 0.000000 0.000000 0.000000 0.000000 0.000000 0.000000 0.000000 0.000000 0.000000 0.000000
0.000000 0.000000 0.000000 0.000000 0.000000 0.000000 0.000000 0.000000 0.000000 0.000000 0.000000 0.000000 0.000000 0.000000 0.000000 0.000000 0.000000 0.000000 0.000000 0.000000 0.000000 0.000000 21.872078 21.872078 21.872078 21.872078 21.872078 21.872078 21.872078 21.872078 21.872078 21.872078 21.872078 21.872078 0.000000 0.000000 0.000000 0.000000 0.000000 0.000000 0.000000 0.000000 0.000000 0.000000 0.000000 0.000000 0.000000 0.000000 0.000000 0.000000 0.000000 0.000000 0.000000 0.000000 0.000000 0.000000 0.000000 0.000000 0.000000 0.000000 0.000000 0.000000 0.000000 0.000000 0.000000 0.000000 0.000000 0.000000 0.000000 0.000000 0.000000 0.000000 0.000000 0.000000 0.000000 0.000000 0.000000 0.000000 0.000000 0.000000 0.000000 0.000000 0.000000 0.000000 0.000000 0.000000 0.000000 0.000000 0.000000 0.000000 0.000000 0.000000 0.000000 0.000000 0.000000 0.000000 0.000000 0.000000 0.000000 0.000000 0.000000 0.000000 0.000000
0.000000 0.000000 0.000000 0.000000 0.000000 0.000000 0.000000 0.000000 0.000000 0.000000 0.000000 0.000000 0.000000 0.000000 0.000000 0.000000 0.000000 0.000000 0.000000 0.000000 0.000000 0.000000 21.872078 21.872078 21.872078 21.872078 21.872078 21.872078 21.872078 21.872078 21.872078 21.872078 21.872078 21.872078 0.000000 0.000000 0.000000 0.000000 0.000000 0.000000 0.000000 0.000000 0.000000 0.000000 0.000000 0.000000 0.000000 0.000000 0.000000 0.000000 0.000000 0.000000 0.000000 0.000000 0.000000 0.000000 0.000000 8.450024 8.450024 8.450024 8.450024 8.450024 8.450024 8.450024 8.450024 8.450024 0.000000 0.000000 0.000000 6.725753 6.725753 6.725753 6.725753 6.725753 6.725753 6.725753 0.000000 0.000000 0.000000 0.000000 16.407663 16.407663 16.407663 16.407663 16.407663 16.407663 16.407663 16.407663 16.407663 16.407663 16.407663 16.407663 16.407663 16.407663 16.407663 16.407663 16.407663 0.000000 0.000000 0.000000 0.000000 0.000000 0.000000
0.000000 0.000000 0.000000 0.000000 0.000000 0.000000 0.000000 0.000000 0.000000 0.000000 0.000000 0.000000 0.000000 0.000000 0.000000 0.000000 0.000000 0.000000 0.000000 0.000000 0.000000 0.000000 21.872078 21.872078 21.872078 21.872078 21.872078 21.872078 21.872078 21.872078 21.872078 21.872078 21.872078 21.872078 0.000000 0.000000 0.000000 0.000000 0.000000 0.000000 0.000000 0.000000 0.000000 0.000000 0.000000 0.000000 0.000000 0.000000 0.000000 0.000000 0.000000 0.000000 0.000000 0.000000 0.000000 0.000000 0.000000 8.450024 8.450024 8.450024 8.450024 8.450024 8.450024 8.450024 8.450024 8.450024 0.000000 0.000000 0.000000 6.725753 6.725753 6.725753 6.725753 6.725753 6.725753 6.725753 0.000000 0.000000 0.000000 0.000000 16.407663 16.407663 16.407663 16.407663 16.407663 16.407663 16.407663 16.407663 16.407663 16.407663 16.407663 16.407663 16.407663 16.407663 16.407663 16.407663 16.407663 0.000000 0.000000 0.000000 0.000000 0.000000 0.000000
0.000000 0.000000 0.000000 0.000000 0.000000 0.000000 0.000000 0.000000 0.000000 0.000000 0.000000 0.000000 0.000000 0.000000 0.000000 0.000000 0.000000 0.000000 0.000000 0.000000 0.000000 0.000000 21.872078 21.872078 21.872078 21.872078 21.872078 21.872078 21.872078 21.872078 21.872078 21.872078 21.872078 21.872078 0.000000 0.000000 0.000000 0.000000 0.000000 0.000000 0.000000 0.000000 0.000000 0.000000 0.000000 0.000000 0.000000 0.000000 0.000000 0.000000 0.000000 0.000000 0.000000 0.000000 0.000000 0.000000 0.000000 8.450024 8.450024 8.450024 8.450024 8.450024 8.450024 8.450024 8.450024 8.450024 0.000000 0.000000 0.000000 6.725753 6.725753 6.725753 6.725753 6.725753 6.725753 6.725753 0.000000 0.000000 0.000000 0.000000 16.407663 16.407663 16.407663 16.407663 16.407663 16.407663 16.407663 16.407663 16.407663 16.407663 16.407663 16.407663 16.407663 16.407663 16.407663 16.407663 16.407663 0.000000 0.000000 0.000000 0.000000 0.000000 0.000000
0.000000 0.000000 0.000000 0.000000 0.000000 0.000000 0.000000 0.000000 0.000000 0.000000 0.000000 0.000000 0.000000 0.000000 0.000000 0.000000 0.000000 0.000000 0.000000 0.000000 0.000000 0.000000 21.872078 21.872078 21.872078 21.872078 21.872078 21.872078 21.872078 21.872078 21.872078 21.872078 21.872078 21.872078 0.000000 0.000000 0.000000 0.000000 0.000000 0.000000 0.000000 0.000000 0.000000 0.000000 0.000000 0.000000 0.000000 0.000000 0.000000 0.000000 0.000000 0.000000 0.000000 0.000000 0.000000 0.000000 0.000000 8.450024 8.450024 8.450024 8.450024 8.450024 8.450024 8.450024 8.450024 8.450024 0.000000 0.000000 0.000000 6.725753 6.725753 6.725753 6.725753 6.725753 6.725753 6.725753 0.000000 0.000000 0.000000 0.000000 16.407663 16.407663 16.407663 16.407663 16.407663 16.407663 16.407663 16.407663 16.407663 16.407663 16.407663 16.407663 16.407663 16.407663 16.407663 16.407663 16.407663 0.000000 0.000000 0.000000 0.000000 0.000000 0.000000
0.000000 0.000000 0.000000 0.000000 0.000000 0.000000 0.000000 0.000000 0.000000 0.000000 0.000000 0.000000 0.000000 0.000000 0.000000 0.000000 0.000000 0.000000 0.000000 0.000000 0.000000 0.000000 21.872078 21.872078 21.872078 21.872078 21.872078 21.872078 21.872078 21.872078 21.872078 21.872078 21.872078 21.872078 0.000000 0.000000 0.000000 0.000000 0.000000 0.000000 0.000000 0.000000 0.000000 0.000000 0.000000 0.000000 0.000000 0.000000 0.000000 0.000000 0.000000 0.000000 0.000000 0.000000 0.000000 0.000000 0.000000 0.000000 0.000000 0.000000 0.000000 0.000000 0.000000 0.000000 0.000000 0.000000 0.000000 0.000000 0.000000 0.000000 0.000000 0.000000 0.000000 0.000000 0.000000 0.000000 0.000000 0.000000 0.000000 0.000000 0.000000 0.000000 0.000000 0.000000 0.000000 0.000000 0.000000 0.000000 0.000000 0.000000 0.000000 0.000000 0.000000 0.000000 0.000000 0.000000 0.000000 0.000000 0.000000 0.000000 0.000000 0.000000 0.000000
0.000000 0.000000 0.000000 0.000000 0.000000 0.000000 0.000000 0.000000 0.000000 0.000000 0.000000 0.000000 0.000000 0.000000 0.000000 0.000000 0.000000 0.000000 0.000000 0.000000 0.000000 0.000000 0.000000 0.000000 0.000000 0.000000 0.000000 0.000000 0.000000 0.000000 0.000000 0.000000 0.000000 0.000000 0.000000 0.000000 0.000000 0.000000 0.000000 0.000000 0.000000 0.000000 0.000000 0.000000 0.000000 0.000000 0.000000 0.000000 0.000000 0.000000 0.000000 0.000000 0.000000 0.000000 0.000000 0.000000 0.000000 0.000000 0.000000 0.000000 0.000000 0.000000 0.000000 0.000000 0.000000 0.000000 0.000000 0.000000 0.000000 0.000000 0.000000 0.000000 0.000000 0.000000 0.000000 0.000000 0.000000 0.000000 0.000000 0.000000 0.000000 0.000000 0.000000 0.000000 0.000000 0.000000 0.000000 0.000000 0.000000 0.000000 0.000000 0.000000 0.000000 0.000000 0.000000 0.000000 0.000000 0.000000 0.000000 0.000000 0.000000 0.000000 0.000000
0.000000 0.000000 0.000000 0.000000 0.000000 0.000000 0.000000 0.000000 0.000000 0.000000 0.000000 0.000000 0.000000 0.000000 0.000000 0.000000 0.000000 0.000000 0.000000 0.000000 0.000000 0.000000 0.000000 0.000000 0.000000 0.000000 0.000000 0.000000 0.000000 0.000000 0.000000 0.000000 0.000000 0.000000 0.000000 0.000000 0.000000 0.000000 0.000000 0.000000 0.000000 0.000000 0.000000 0.000000 0.000000 0.000000 0.000000 0.000000 0.000000 0.000000 0.000000 0.000000 0.000000 0.000000 0.000000 0.000000 0.000000 0.000000 0.000000 0.000000 0.000000 0.000000 0.000000 0.000000 0.000000 0.000000 0.000000 0.000000 0.000000 0.000000 0.000000 0.000000 0.000000 0.000000 0.000000 0.000000 0.000000 0.000000 0.000000 0.000000 0.000000 0.000000 0.000000 0.000000 0.000000 0.000000 0.000000 0.000000 0.000000 0.000000 0.000000 0.000000 0.000000 0.000000 0.000000 0.000000 0.000000 0.000000 0.000000 0.000000 0.000000 0.000000 0.000000
0.000000 0.000000 0.000000 0.000000 0.000000 0.000000 0.000000 0.000000 0.000000 0.000000 0.000000 0.000000 0.000000 0.000000 0.000000 0.000000 0.000000 0.000000 0.000000 0.000000 0.000000 0.000000 0.000000 0.000000 0.000000 0.000000 0.000000 0.000000 0.000000 0.000000 0.000000 0.000000 0.000000 0.000000 0.000000 0.000000 0.000000 0.000000 0.000000 0.000000 0.000000 0.000000 0.000000 0.000000 0.000000 0.000000 0.000000 0.000000 0.000000 0.000000 0.000000 0.000000 0.000000 0.000000 0.000000 0.000000 0.000000 0.000000 0.000000 0.000000 0.000000 0.000000 0.000000 0.000000 0.000000 0.000000 0.000000 0.000000 0.000000 0.000000 0.000000 0.000000 0.000000 0.000000 0.000000 0.000000 0.000000 0.000000 0.000000 0.000000 0.000000 0.000000 0.000000 0.000000 0.000000 0.000000 0.000000 0.000000 0.000000 0.000000 0.000000 0.000000 0.000000 0.000000 0.000000 0.000000 0.000000 0.000000 0.000000 0.000000 0.000000 0.000000 0.000000
0.000000 0.000000 0.000000 0.000000 0.000000 0.000000 0.000000 0.000000 0.000000 0.000000 0.000000 0.000000 0.000000 0.000000 0.000000 0.000000 0.000000 0.000000 0.000000 0.000000 0.000000 0.000000 0.000000 0.000000 0.000000 0.000000 0.000000 0.000000 0.000000 0.000000 0.000000 0.000000 0.000000 0.000000 0.000000 0.000000 0.000000 0.000000 0.000000 0.000000 0.000000 0.000000 0.000000 0.000000 0.000000 0.000000 0.000000 0.000000 0.000000 0.000000 0.000000 0.000000 0.000000 0.000000 0.000000 0.000000 0.000000 0.000000 0.000000 0.000000 0.000000 0.000000 0.000000 0.000000 0.000000 0.000000 0.000000 0.000000 0.000000 0.000000 0.000000 0.000000 0.000000 0.000000 0.000000 0.000000 0.000000 0.000000 0.000000 0.000000 0.000000 0.000000 0.000000 0.000000 0.000000 0.000000 0.000000 0.000000 0.000000 0.000000 0.000000 0.000000 0.000000 0.000000 0.000000 0.000000 0.000000 0.000000 0.000000 0.000000 0.000000 0.000000 0.000000
0.000000 0.000000 0.000000 0.000000 0.000000 0.000000 0.000000 0.000000 0.000000 0.000000 0.000000 0.000000 0.000000 0.000000 0.000000 0.000000 0.000000 0.000000 0.000000 0.000000 0.000000 0.000000 0.000000 0.000000 0.000000 0.000000 0.000000 0.000000 0.000000 0.000000 0.000000 0.000000 0.000000 0.000000 0.000000 0.000000 0.000000 0.000000 0.000000 0.000000 0.000000 0.000000 0.000000 0.000000 0.000000 0.000000 0.000000 0.000000 0.000000 0.000000 0.000000 0.000000 0.000000 0.000000 0.000000 0.000000 0.000000 0.000000 0.000000 0.000000 0.000000 0.000000 0.000000 0.000000 0.000000 0.000000 0.000000 0.000000 0.000000 0.000000 0.000000 0.000000 0.000000 0.000000 0.000000 0.000000 0.000000 0.000000 0.000000 0.000000 0.000000 0.000000 0.000000 0.000000 0.000000 0.000000 0.000000 0.000000 0.000000 0.000000 0.000000 0.000000 0.000000 0.000000 0.000000 0.000000 0.000000 0.000000 0.000000 0.000000 0.000000 0.000000 0.000000
0.000000 0.000000 0.000000 0.000000 19.151041 19.151041 19.151041 19.151041 19.151041 19.151041 19.151041 18.792090 18.792090 18.792090 18.792090 18.792090 18.792090 0.000000 0.000000 0.000000 0.000000 0.000000 0.000000 0.000000 0.000000 0.000000 0.000000 0.000000 0.000000 0.000000 0.000000 0.000000 0.000000 0.000000 0.000000 0.000000 0.000000 0.000000 0.000000 0.000000 0.000000 0.000000 0.000000 0.000000 0.000000 0.000000 0.000000 0.000000 0.000000 0.000000 0.000000 0.000000 0.000000 0.000000 0.000000 0.000000 0.000000 0.000000 0.000000 0.000000 0.000000 0.000000 0.000000 0.000000 0.000000 0.000000 0.000000 0.000000 0.000000 0.000000 0.000000 0.000000 0.000000 0.000000 0.000000 0.000000 0.000000 0.000000 0.000000 0.000000 0.000000 0.000000 0.000000 0.000000 0.000000 0.000000 0.000000 0.000000 0.000000 0.000000 0.000000 0.000000 0.000000 0.000000 0.000000 0.000000 0.000000 0.000000 0.000000 0.000000 0.000000 0.000000 0.000000
0.000000 0.000000 0.000000 0.000000 19.151041 19.151041 19.151041 19.151041 19.151041 19.151041 19.151041 18.792090 18.792090 18.792090 18.792090 18.792090 18.792090 0.000000 0.000000 0.000000 0.000000 0.000000 0.000000 0.000000 0.000000 0.000000 0.000000 0.000000 0.000000 0.000000 0.000000 0.000000 0.000000 0.000000 0.000000 0.000000 0.000000 0.000000 0.000000 0.000000 0.000000 0.000000 0.000000 0.000000 0.000000 0.000000 0.000000 0.000000 0.000000 0.000000 0.000000 0.000000 0.000000 0.000000 0.000000 0.000000 0.000000 0.000000 0.000000 0.000000 0.000000 0.000000 0.000000 0.000000 0.000000 0.000000 0.000000 0.000000 0.000000 0.000000 0.000000 0.000000 0.000000 0.000000 0.000000 0.000000 0.000000 0.000000 0.000000 0.000000 0.000000 0.000000 0.000000 0.000000 0.000000 0.000000 0.000000 0.000000 0.000000 0.000000 0.000000 0.000000 0.000000 0.000000 0.000000 0.000000 0.000000 0.000000 0.000000 0.000000 0.000000 0.000000 0.000000
0.000000 0.000000 0.000000 0.000000 19.151041 19.151041 19.151041 19.151041 19.151041 19.151041 19.151041 18.792090 18.792090 18.792090 18.792090 18.792090 18.792090 0.000000 0.000000 0.000000 0.000000 0.000000 0.000000 0.000000 16.749095 16.749095 16.749095 16.749095 16.749095 16.749095 16.749095 16.749095 0.000000 0.000000 0.000000 0.000000 0.000000 0.000000 0.000000 0.000000 0.000000 0.000000 0.000000 0.000000 0.000000 0.000000 0.000000 0.000000 0.000000 0.000000 0.000000 0.000000 0.000000 0.000000 0.000000 0.000000 0.000000 17.722651 17.722651 17.722651 17.722651 17.722651 17.722651 17.722651 17.722651 0.000000 0.000000 0.000000 0.000000 20.295179 20.295179 20.295179 20.295179 20.295179 20.295179 20.295179 20.295179 20.295179 20.295179 0.000000 0.000000 0.000000 0.000000 0.000000 0.000000 0.000000 0.000000 0.000000 0.000000 0.000000 0.000000 0.000000 0.000000 0.000000 0.000000 0.000000 0.000000 0.000000 0.000000 0.000000 0.000000 0.000000 0.000000
0.000000 0.000000 0.000000 0.000000 19.151041 19.151041 19.151041 19.151041 19.151041 19.151041 19.151041 18.792090 18.792090 18.792090 18.792090 18.792090 18.792090 0.000000 0.000000 0.000000 0.000000 0.000000 0.000000 0.000000 16.749095 16.749095 16.749095 16.749095 16.749095 16.749095 16.749095 16.749095 0.000000 0.000000 0.000000 0.000000 0.000000 0.000000 0.000000 0.000000 0.000000 0.000000 0.000000 0.000000 0.000000 0.000000 0.000000 0.000000 0.000000 0.000000 0.000000 0.000000 0.000000 0.000000 0.000000 0.000000 0.000000 17.722651 17.722651 17.722651 17.722651 17.722651 17.722651 17.722651 17.722651 0.000000 0.000000 0.000000 0.000000 20.295179 20.295179 20.295179 20.295179 20.295179 20.295179 20.295179 20.295179 20.295179 20.295179 0.000000 0.000000 0.000000 0.000000 0.000000 0.000000 0.000000 0.000000 0.000000 0.000000 0.000000 0.000000 0.000000 0.000000 0.000000 0.000000 0.000000 0.000000 0.000000 0.000000 0.000000 0.000000 0.000000 0.000000
0.000000 0.000000 0.000000 0.000000 19.151041 19.151041 19.151041 19.151041 19.151041 19.151041 19.151041 18.792090 18.792090 18.792090 18.792090 18.792090 18.792090 0.000000 0.000000 0.000000 0.000000 0.000000 0.000000 0.000000 16.749095 16.749095 16.749095 16.749095 16.749095 16.749095 16.749095 16.749095 0.000000 0.000000 0.000000 0.000000 0.000000 0.000000 0.000000 0.000000 0.000000 0.000000 0.000000 0.000000 0.000000 0.000000 0.000000 0.000000 0.000000 0.000000 0.000000 0.000000 0.000000 0.000000 0.000000 0.000000 0.000000 17.722651 17.722651 17.722651 17.722651 17.722651 17.722651 17.722651 17.722651 0.000000 0.000000 0.000000 0.000000 20.295179 20.295179 20.295179 20.295179 20.295179 20.295179 20.295179 20.295179 20.295179 20.295179 0.000000 0.000000 0.000000 0.000000 0.000000 0.000000 0.000000 0.000000 0.000000 0.000000 0.000000 0.000000 0.000000 0.000000 0.000000 0.000000 0.000000 0.000000 0.000000 0.000000 0.000000 0.000000 0.000000 0.000000
0.000000 0.000000 0.000000 0.000000 19.151041 19.151041 19.151041 19.151041 19.151041 19.151041 19.151041 18.792090 18.792090 18.792090 18.792090 18.792090 18.792090 0.000000 0.000000 0.000000 0.000000 0.000000 0.000000 0.000000 16.749095 16.749095 16.749095 16.749095 16.749095 16.749095 16.749095 16.749095 0.000000 0.000000 0.000000 0.000000 0.000000 0.000000 0.000000 0.000000 0.000000 0.000000 0.000000 0.000000 0.000000 0.000000 0.000000 0.000000 0.000000 0.000000 0.000000 0.000000 0.000000 0.000000 0.000000 0.000000 0.000000 17.722651 17.722651 17.722651 17.722651 17.722651 17.722651 17.722651 17.722651 0.000000 0.000000 0.000000 0.000000 20.295179 20.295179 20.295179 20.295179 20.295179 20.295179 20.295179 20.295179 20.295179 20.295179 0.000000 0.000000 0.000000 0.000000 0.000000 0.000000 0.000000 0.000000 0.000000 0.000000 0.000000 0.000000 0.000000 0.000000 0.000000 0.000000 0.000000 0.000000 0.000000 0.000000 0.000000 0.000000 0.000000 0.000000
0.000000 0.000000 0.000000 0.000000 19.151041 19.151041 19.151041 19.151041 19.151041 19.151041 19.151041 18.792090 18.792090 18.792090 18.792090 18.792090 18.792090 0.000000 0.000000 0.000000 0.000000 0.000000 0.000000 0.000000 16.749095 16.749095 16.749095 16.749095 16.749095 16.749095 16.749095 16.749095 0.000000 0.000000 0.000000 0.000000 0.000000 0.000000 0.000000 0.000000 0.000000 0.000000 0.000000 0.000000 0.000000 0.000000 0.000000 0.000000 0.000000 0.000000 0.000000 0.000000 0.000000 0.000000 0.000000 0.000000 0.000000 17.722651 17.722651 17.722651 17.722651 17.722651 17.722651 17.722651 17.722651 0.000000 0.000000 0.000000 0.000000 20.295179 20.295179 20.295179 20.295179 20.295179 20.295179 20.295179 20.295179 20.295179 20.295179 0.000000 0.000000 0.000000 0.000000 0.000000 0.000000 0.000000 0.000000 0.000000 0.000000 0.000000 0.000000 0.000000 0.000000 0.000000 0.000000 0.000000 0.000000 0.000000 0.000000 0.000000 0.000000 0.000000 0.000000
0.000000 0.000000 0.000000 0.000000 19.151041 19.151041 19.151041 19.151041 19.151041 19.151041 19.151041 18.792090 18.792090 18.792090 18.792090 18.792090 18.792090 0.000000 0.000000 0.000000 0.000000 0.000000 0.000000 0.000000 16.749095 16.749095 16.749095 16.749095 16.749095 16.749095 16.749095 16.749095 0.000000 0.000000 0.000000 0.000000 0.000000 0.000000 0.000000 0.000000 0.000000 0.000000 0.000000 0.000000 0.000000 0.000000 0.000000 0.000000 0.000000 0.000000 0.000000 0.000000 0.000000 0.000000 0.000000 0.000000 0.000000 17.722651 17.722651 17.722651 17.722651 17.722651 17.722651 17.722651 17.722651 0.000000 0.000000 0.000000 0.000000 20.295179 20.295179 20.295179 20.295179 20.295179 20.295179 20.295179 20.295179 20.295179 20.295179 0.000000 0.000000 0.000000 0.000000 0.000000 0.000000 0.000000 0.000000 0.000000 0.000000 0.000000 0.000000 0.000000 0.000000 0.000000 0.000000 0.000000 0.000000 0.000000 0.000000 0.000000 0.000000 0.000000 0.000000
0.000000 0.000000 0.000000 0.000000 19.151041 19.151041 19.151041 19.151041 19.151041 19.151041 19.151041 18.792090 18.792090 18.792090 18.792090 18.792090 18.792090 0.000000 0.000000 0.000000 0.000000 0.000000 0.000000 0.000000 16.749095 16.749095 16.749095 16.749095 16.749095 16.749095 16.749095 16.749095 0.000000 0.000000 0.000000 0.000000 0.000000 0.000000 0.000000 0.000000 0.000000 0.000000 0.000000 0.000000 0.000000 0.000000 0.000000 0.000000 0.000000 0.000000 0.000000 0.000000 0.000000 0.000000 0.000000 0.000000 0.000000 17.722651 17.722651 17.722651 17.722651 17.722651 17.722651 17.722651 17.722651 0.000000 0.000000 0.000000 0.000000 20.295179 20.295179 20.295179 20.295179 20.295179 20.295179 20.295179 20.295179 20.295179 20.295179 0.000000 0.000000 0.000000 0.000000 0.000000 0.000000 0.000000 0.000000 0.000000 0.000000 0.000000 0.000000 0.000000 0.000000 0.000000 0.000000 0.000000 0.000000 0.000000 0.000000 0.000000 0.000000 0.000000 0.000000
0.000000 0.000000 0.000000 0.000000 19.151041 19.151041 19.151041 19.151041 19.151041 19.151041 19.151041 18.792090 18.792090 18.792090 18.792090 18.792090 18.792090 0.000000 0.000000 0.000000 0.000000 0.000000 0.000000 0.000000 16.749095 16.749095 16.749095 16.749095 16.749095 16.749095 16.749095 16.749095 0.000000 0.000000 0.000000 0.000000 0.000000 0.000000 0.000000 0.000000 0.000000 0.000000 0.000000 0.000000 0.000000 0.000000 0.000000 0.000000 0.000000 0.000000 0.000000 0.000000 0.000000 0.000000 0.000000 0.000000 0.000000 17.722651 17.722651 17.722651 17.722651 17.722651 17.722651 17.722651 17.722651 0.000000 0.000000 0.000000 0.000000 20.295179 20.295179 20.295179 20.295179 20.295179 20.295179 20.295179 20.295179 20.295179 20.295179 0.000000 0.000000 0.000000 0.000000 0.000000 0.000000 0.000000 0.000000 0.000000 0.000000 0.000000 0.000000 0.000000 0.000000 0.000000 0.000000 0.000000 0.000000 0.000000 0.000000 0.000000 0.000000 0.000000 0.000000
0.000000 0.000000 0.000000 0.000000 19.151041 19.151041 19.151041 19.151041 19.151041 19.151041 19.151041 18.792090 18.792090 18.792090 18.792090 18.792090 18.792090 0.000000 0.000000 0.000000 0.000000 0.000000 0.000000 0.000000 16.749095 16.749095 16.749095 16.749095 16.749095 16.749095 16.749095 16.749095 0.000000 0.000000 0.000000 0.000000 0.000000 0.000000 0.000000 0.000000 0.000000 0.000000 0.000000 0.000000 0.000000 0.000000 0.000000 0.000000 0.000000 0.000000 0.000000 0.000000 0.000000 0.000000 0.000000 0.000000 0.000000 17.722651 17.722651 17.722651 17.722651 17.722651 17.722651 17.722651 17.722651 0.000000 0.000000 0.000000 0.000000 20.295179 20.295179 20.295179 20.295179 20.295179 20.295179 20.295179 20.295179 20.295179 20.295179 0.000000 0.000000 0.000000 0.000000 0.000000 0.000000 0.000000 0.000000 0.000000 0.000000 0.000000 0.000000 0.000000 0.000000 0.000000 0.000000 0.000000 0.000000 0.000000 0.000000 0.000000 0.000000 0.000000 0.000000
0.000000 0.000000 0.000000 0.000000 19.151041 19.151041 19.151041 19.151041 19.151041 19.151041 19.151041 18.792090 18.792090 18.792090 18.792090 18.792090 18.792090 0.000000 0.000000 0.000000 0.000000 0.000000 0.000000 0.000000 0.000000 0.000000 0.000000 0.000000 0.000000 0.000000 0.000000 0.000000 0.000000 0.000000 0.000000 0.000000 0.000000 0.000000 0.000000 0.000000 0.000000 0.000000 0.000000 0.000000 0.000000 0.000000 0.000000 0.000000 0.000000 0.000000 0.000000 0.000000 0.000000 0.000000 0.000000 0.000000 0.000000 0.000000 0.000000 0.000000 0.000000 0.000000 0.000000 0.000000 0.000000 0.000000 0.000000 0.000000 0.000000 0.000000 0.000000 0.000000 0.000000 0.000000 0.000000 0.000000 0.000000 0.000000 0.000000 0.000000 0.000000 0.000000 0.000000 0.000000 0.000000 0.000000 0.000000 0.000000 0.000000 0.000000 0.000000 0.000000 0.000000 0.000000 0.000000 0.000000 0.000000 0.000000 0.000000 0.000000 0.000000 0.000000 0.000000
0.000000 0.000000 0.000000 0.000000 19.151041 19.151041 19.151041 19.151041 19.151041 19.151041 19.151041 18.792090 18.792090 18.792090 18.792090 18.792090 18.792090 0.000000 0.000000 0.000000 0.000000 0.000000 0.000000 0.000000 0.000000 0.000000 0.000000 0.000000 0.000000 0.000000 0.000000 0.000000 0.000000 0.000000 0.000000 0.000000 0.000000 0.000000 0.000000 0.000000 0.000000 0.000000 0.000000 0.000000 0.000000 0.000000 0.000000 0.000000 0.000000 0.000000 0.000000 0.000000 0.000000 0.000000 0.000000 0.000000 0.000000 0.000000 0.000000 0.000000 0.000000 0.000000 0.000000 0.000000 0.000000 0.000000 0.000000 0.000000 0.000000 0.000000 0.000000 0.000000 0.000000 0.000000 0.000000 0.000000 0.000000 0.000000 0.000000 0.000000 0.000000 0.000000 0.000000 0.000000 0.000000 0.000000 0.000000 0.000000 0.000000 0.000000 0.000000 0.000000 0.000000 0.000000 0.000000 0.000000 0.000000 0.000000 0.000000 0.000000 0.000000 0.000000 0.000000
0.000000 0.000000 0.000000 0.000000 0.000000 0.000000 0.000000 0.000000 0.000000 0.000000 0.000000 0.000000 0.000000 0.000000 0.000000 0.000000 0.000000 0.000000 0.000000 0.000000 0.000000 0.000000 0.000000 0.000000 0.000000 0.000000 0.000000 0.000000 0.000000 0.000000 0.000000 0.000000 0.000000 0.000000 0.000000 0.000000 0.000000 0.000000 0.000000 0.000000 0.000000 0.000000 0.000000 0.000000 0.000000 0.000000 0.000000 0.000000 0.000000 0.000000 0.000000 0.000000 0.000000 0.000000 0.000000 0.000000 0.000000 0.000000 0.000000 0.000000 0.000000 0.000000 0.000000 0.000000 0.000000 0.000000 0.000000 0.000000 0.000000 0.000000 0.000000 0.000000 0.000000 0.000000 0.000000 0.000000 0.000000 0.000000 0.000000 0.000000 0.000000 0.000000 0.000000 0.000000 0.000000 0.000000 0.000000 0.000000 0.000000 0.000000 0.000000 0.000000 0.000000 0.000000 0.000000 0.000000 0.000000 0.000000 0.000000 0.000000 0.000000 0.000000 0.000000
0.000000 0.000000 0.000000 0.000000 0.000000 0.000000 0.000000 0.000000 0.000000 0.000000 0.000000 0.000000 0.000000 0.000000 0.000000 0.000000 0.000000 0.000000 0.000000 0.000000 0.000000 0.000000 0.000000 0.000000 0.000000 0.000000 0.000000 0.000000 0.000000 0.000000 0.000000 0.000000 0.000000 0.000000 0.000000 0.000000 0.000000 0.000000 0.000000 0.000000 0.000000 0.000000 0.000000 0.000000 0.000000 0.000000 0.000000 0.000000 0.000000 0.000000 0.000000 0.000000 0.000000 0.000000 0.000000 0.000000 0.000000 0.000000 0.000000 0.000000 0.000000 0.000000 0.000000 0.000000 0.000000 0.000000 0.000000 0.000000 0.000000 0.000000 0.000000 0.000000 0.000000 0.000000 0.000000 0.000000 0.000000 0.000000 0.000000 0.000000 0.000000 0.000000 0.000000 0.000000 0.000000 0.000000 0.000000 0.000000 0.000000 0.000000 0.000000 0.000000 0.000000 0.000000 0.000000 0.000000 0.000000 0.000000 0.000000 0.000000 0.000000 0.000000 0.000000
0.000000 0.000000 0.000000 0.000000 0.000000 0.000000 0.000000 0.000000 0.000000 0.000000 0.000000 0.000000 0.000000 0.000000 0.000000 0.000000 0.000000 0.000000 0.000000 0.000000 0.000000 0.000000 0.000000 0.000000 0.000000 0.000000 0.000000 0.000000 0.000000 0.000000 0.000000 0.000000 0.000000 0.000000 0.000000 0.000000 0.000000 0.000000 0.000000 0.000000 0.000000 0.000000 0.000000 0.000000 0.000000 0.000000 0.000000 0.000000 0.000000 0.000000 0.000000 0.000000 0.000000 0.000000 0.000000 0.000000 0.000000 0.000000 0.000000 0.000000 0.000000 0.000000 0.000000 0.000000 0.000000 0.000000 0.000000 0.000000 0.000000 0.000000 0.000000 0.000000 0.000000 0.000000 0.000000 0.000000 0.000000 0.000000 0.000000 0.000000 0.000000 0.000000 0.000000 0.000000 0.000000 0.000000 0.000000 0.000000 0.000000 0.000000 0.000000 0.000000 0.000000 0.000000 0.000000 0.000000 0.000000 0.000000 0.000000 0.000000 0.000000 0.000000 0.000000
0.000000 0.000000 0.000000 0.000000 0.000000 0.000000 0.000000 0.000000 0.000000 0.000000 0.000000 0.000000 0.000000 0.000000 0.000000 0.000000 0.000000 0.000000 0.000000 0.000000 0.000000 0.000000 0.000000 0.000000 0.000000 0.000000 0.000000 0.000000 0.000000 0.000000 0.000000 0.000000 0.000000 0.000000 0.000000 0.000000 0.000000 0.000000 0.000000 0.000000 0.000000 0.000000 0.000000 0.000000 0.000000 0.000000 0.000000 0.000000 0.000000 0.000000 0.000000 0.000000 0.000000 0.000000 0.000000 0.000000 0.000000 0.000000 0.000000 0.000000 0.000000 0.000000 0.000000 0.000000 0.000000 0.000000 0.000000 0.000000 0.000000 0.000000 0.000000 0.000000 0.000000 0.000000 0.000000 0.000000 0.000000 0.000000 0.000000 0.000000 0.000000 0.000000 0.000000 0.000000 0.000000 0.000000 0.000000 0.000000 0.000000 0.000000 0.000000 0.000000 0.000000 0.000000 0.000000 0.000000 0.000000 0.000000 0.000000 0.000000 0.000000 0.000000 0.000000
