0.000000 0.000000 0.000000 0.000000 0.000000 0.000000 0.000000 0.000000 0.000000 0.000000 0.000000 0.000000 0.000000 0.000000 0.000000 0.000000 0.000000 0.000000 0.000000 0.000000 0.000000 0.000000 0.000000 0.000000 0.000000 0.000000 0.000000 0.000000 0.000000 0.000000 0.000000 0.000000 0.000000 0.000000 0.000000 0.000000 0.000000 0.000000 0.000000 0.000000 0.000000 0.000000 0.000000 0.000000 0.000000 0.000000 0.000000 0.000000 0.000000 0.000000 0.000000 0.000000 0.000000 0.000000 0.000000 0.000000 0.000000 0.000000 0.000000 0.000000 0.000000 0.000000 0.000000 0.000000 0.000000 0.000000 0.000000 0.000000 0.000000 0.000000 0.000000 0.000000 0.000000 0.000000 0.000000 0.000000 0.000000 0.000000 0.000000 0.000000 0.000000 0.000000 0.000000 0.000000 0.000000 0.000000 0.000000 0.000000 0.000000 0.000000 0.000000 0.000000 0.000000 0.000000 0.000000 0.000000 0.000000 0.000000 0.000000 0.000000 0.000000 0.000000 0.000000
0.000000 0.000000 0.000000 0.000000 0.000000 0.000000 0.000000 0.000000 0.000000 0.000000 0.000000 0.000000 0.000000 0.000000 0.000000 0.000000 0.000000 0.000000 0.000000 0.000000 0.000000 0.000000 0.000000 0.000000 0.000000 0.000000 0.000000 0.000000 0.000000 0.000000 0.000000 0.000000 0.000000 0.000000 0.000000 0.000000 0.000000 0.000000 0.000000 0.000000 0.000000 0.000000 0.000000 0.000000 0.000000 0.000000 0.000000 0.000000 0.000000 0.000000 0.000000 0.000000 0.000000 0.000000 0.000000 0.000000 0.000000 0.000000 0.000000 0.000000 0.000000 0.000000 0.000000 0.000000 0.000000 0.000000 0.000000 0.000000 0.000000 0.000000 0.000000 0.000000 0.000000 0.000000 0.000000 0.000000 0.000000 0.000000 0.000000 0.000000 0.000000 0.000000 0.000000 0.000000 0.000000 0.000000 0.000000 0.000000 0.000000 0.000000 0.000000 0.000000 0.000000 0.000000 0.000000 0.000000 0.000000 0.000000 0.000000 0.000000 0.000000 0.000000 0.000000
0.000000 0.000000 0.000000 0.000000 0.000000 0.000000 0.000000 0.000000 0.000000 0.000000 0.000000 0.000000 0.000000 0.000000 0.000000 0.000000 0.000000 0.000000 0.000000 0.000000 0.000000 0.000000 0.000000 0.000000 0.000000 0.000000 0.000000 0.000000 0.000000 0.000000 0.000000 0.000000 0.000000 0.000000 0.000000 0.000000 0.000000 0.000000 0.000000 0.000000 0.000000 0.000000 0.000000 0.000000 0.000000 0.000000 0.000000 0.000000 0.000000 0.000000 0.000000 0.000000 0.000000 0.000000 0.000000 0.000000 0.000000 0.000000 0.000000 0.000000 0.000000 0.000000 0.000000 0.000000 0.000000 0.000000 0.000000 0.000000 0.000000 0.000000 0.000000 0.000000 0.000000 0.000000 0.000000 0.000000 0.000000 0.000000 0.000000 0.000000 0.000000 0.000000 0.000000 0.000000 0.000000 0.000000 0.000000 0.000000 0.000000 0.000000 0.000000 0.000000 0.000000 0.000000 0.000000 0.000000 0.000000 0.000000 0.000000 0.000000 0.000000 0.000000 0.000000
0.000000 0.000000 0.000000 0.000000 0.000000 0.000000 0.000000 0.000000 0.000000 0.000000 0.000000 0.000000 0.000000 0.000000 0.000000 0.000000 0.000000 0.000000 0.000000 0.000000 0.000000 0.000000 0.000000 0.000000 0.000000 0.000000 0.000000 0.000000 0.000000 0.000000 0.000000 0.000000 0.000000 0.000000 0.000000 0.000000 0.000000 0.000000 0.000000 0.000000 0.000000 0.000000 0.000000 0.000000 0.000000 0.000000 0.000000 0.000000 0.000000 0.000000 0.000000 0.000000 0.000000 0.000000 0.000000 0.000000 0.000000 0.000000 0.000000 0.000000 0.000000 0.000000 0.000000 0.000000 0.000000 0.000000 0.000000 0.000000 0.000000 0.000000 0.000000 0.000000 0.000000 0.000000 0.000000 0.000000 0.000000 0.000000 0.000000 0.000000 0.000000 0.000000 0.000000 0.000000 0.000000 0.000000 0.000000 0.000000 0.000000 0.000000 0.000000 0.000000 0.000000 0.000000 0.000000 0.000000 0.000000 0.000000 0.000000 0.000000 0.000000 0.000000 0.000000
0.000000 0.000000 0.000000 0.000000 0.000000 0.000000 0.000000 0.000000 0.000000 0.000000 0.000000 0.000000 0.000000 0.000000 0.000000 0.000000 0.000000 0.000000 0.000000 0.000000 0.000000 0.000000 0.000000 0.000000 0.000000 0.000000 0.000000 0.000000 0.000000 0.000000 0.000000 0.000000 0.000000 0.000000 0.000000 0.000000 13.428610 13.428610 13.428610 13.428610 13.428610 13.428610 13.428610 13.428610 33.556296 33.556296 33.556296 33.556296 33.556296 33.556296 33.556296 33.556296 33.556296 33.556296 33.556296 33.556296 33.556296 33.556296 33.556296 33.556296 33.556296 33.556296 33.556296 33.556296 33.556296 0.000000 0.000000 0.000000 0.000000 0.000000 0.000000 0.000000 0.000000 0.000000 0.000000 0.000000 0.000000 0.000000 0.000000 0.000000 0.000000 0.000000 0.000000 0.000000 0.000000 0.000000 0.000000 0.000000 0.000000 0.000000 0.000000 0.000000 0.000000 0.000000 0.000000 0.000000 0.000000 0.000000 0.000000 0.000000 0.000000 0.000000 0.000000
0.000000 0.000000 0.000000 0.000000 0.000000 0.000000 0.000000 0.000000 0.000000 0.000000 0.000000 0.000000 0.000000 0.000000 0.000000 0.000000 0.000000 0.000000 0.000000 0.000000 0.000000 0.000000 0.000000 0.000000 0.000000 0.000000 0.000000 0.000000 0.000000 0.000000 0.000000 0.000000 0.000000 0.000000 0.000000 0.000000 13.428610 13.428610 13.428610 13.428610 13.428610 13.428610 13.428610 13.428610 33.556296 33.556296 33.556296 33.556296 33.556296 33.556296 33.556296 33.556296 33.556296 33.556296 33.556296 33.556296 33.556296 33.556296 33.556296 33.556296 33.556296 33.556296 33.556296 33.556296 33.556296 0.000000 0.000000 0.000000 0.000000 0.000000 0.000000 0.000000 0.000000 0.000000 0.000000 0.000000 0.000000 0.000000 0.000000 0.000000 0.000000 0.000000 0.000000 0.000000 0.000000 0.000000 0.000000 0.000000 0.000000 0.000000 0.000000 0.000000 0.000000 0.000000 0.000000 0.000000 0.000000 0.000000 0.000000 0.000000 0.000000 0.000000 0.000000
0.000000 0.000000 0.000000 0.000000 0.000000 0.000000 6.591241 6.591241 6.591241 6.591241 6.591241 6.591241 6.591241 6.591241 6.591241 6.591241 0.000000 0.000000 0.000000 0.000000 0.000000 0.000000 0.000000 0.000000 3.223860 3.223860 3.223860 3.223860 3.223860 0.000000 0.000000 0.000000 0.000000 0.000000 0.000000 0.000000 13.428610 13.428610 13.428610 13.428610 13.428610 13.428610 13.428610 13.428610 33.556296 33.556296 33.556296 33.556296 33.556296 33.556296 33.556296 33.556296 33.556296 33.556296 33.556296 33.556296 33.556296 33.556296 33.556296 33.556296 33.556296 33.556296 33.556296 33.556296 33.556296 0.000000 0.000000 0.000000 0.000000 0.000000 0.000000 0.000000 0.000000 0.000000 0.000000 0.000000 0.000000 0.000000 0.000000 0.000000 0.000000 0.000000 0.000000 0.000000 0.000000 0.000000 0.000000 0.000000 0.000000 0.000000 0.000000 0.000000 0.000000 0.000000 0.000000 0.000000 0.000000 0.000000 0.000000 0.000000 0.000000 0.000000 0.000000
0.000000 0.000000 0.000000 0.000000 0.000000 0.000000 6.591241 6.591241 6.591241 6.591241 6.591241 6.591241 6.591241 6.591241 6.591241 6.591241 0.000000 0.000000 0.000000 0.000000 0.000000 0.000000 0.000000 0.000000 3.223860 3.223860 3.223860 3.223860 3.223860 0.000000 0.000000 0.000000 0.000000 0.000000 0.000000 0.000000 13.428610 13.428610 13.428610 13.428610 13.428610 13.428610 13.428610 13.428610 33.556296 33.556296 33.556296 33.556296 33.556296 33.556296 33.556296 33.556296 33.556296 33.556296 33.556296 33.556296 33.556296 33.556296 33.556296 33.556296 33.556296 33.556296 33.556296 33.556296 33.556296 0.000000 0.000000 0.000000 0.000000 0.000000 0.000000 0.000000 0.000000 0.000000 0.000000 0.000000 0.000000 0.000000 0.000000 0.000000 0.000000 0.000000 0.000000 0.000000 0.000000 0.000000 0.000000 0.000000 0.000000 0.000000 0.000000 0.000000 0.000000 0.000000 0.000000 0.000000 0.000000 0.000000 0.000000 0.000000 0.000000 0.000000 0.000000
0.000000 0.000000 0.000000 0.000000 0.000000 0.000000 6.591241 6.591241 6.591241 6.591241 6.591241 6.591241 6.591241 6.591241 6.591241 6.591241 0.000000 0.000000 0.000000 0.000000 0.000000 0.000000 0.000000 0.000000 3.223860 3.223860 3.223860 3.223860 3.223860 0.000000 0.000000 0.000000 0.000000 0.000000 0.000000 0.000000 13.428610 13.428610 13.428610 13.428610 13.428610 13.428610 13.428610 13.428610 33.556296 33.556296 33.556296 33.556296 33.556296 33.556296 33.556296 33.556296 33.556296 33.556296 33.556296 33.556296 33.556296 33.556296 33.556296 33.556296 33.556296 33.556296 33.556296 33.556296 33.556296 0.000000 0.000000 0.000000 0.000000 0.000000 0.000000 0.000000 0.000000 0.000000 0.000000 0.000000 0.000000 0.000000 0.000000 0.000000 0.000000 0.000000 0.000000 0.000000 0.000000 0.000000 0.000000 0.000000 0.000000 0.000000 0.000000 0.000000 0.000000 0.000000 0.000000 0.000000 0.000000 0.000000 0.000000 0.000000 0.000000 0.000000 0.000000
0.000000 0.000000 0.000000 0.000000 0.000000 0.000000 0.000000 0.000000 0.000000 0.000000 0.000000 0.000000 0.000000 0.000000 0.000000 0.000000 0.000000 0.000000 0.000000 0.000000 0.000000 0.000000 0.000000 0.000000 0.000000 0.000000 0.000000 0.000000 0.000000 0.000000 0.000000 0.000000 0.000000 0.000000 0.000000 0.000000 13.428610 13.428610 13.428610 13.428610 13.428610 13.428610 13.428610 13.428610 33.556296 33.556296 33.556296 33.556296 33.556296 33.556296 33.556296 33.556296 33.556296 33.556296 33.556296 33.556296 33.556296 33.556296 33.556296 33.556296 33.556296 33.556296 33.556296 33.556296 33.556296 0.000000 0.000000 0.000000 0.000000 0.000000 0.000000 0.000000 0.000000 0.000000 0.000000 0.000000 0.000000 0.000000 0.000000 0.000000 0.000000 0.000000 0.000000 0.000000 0.000000 0.000000 0.000000 0.000000 0.000000 0.000000 0.000000 0.000000 0.000000 0.000000 0.000000 0.000000 0.000000 0.000000 0.000000 0.000000 0.000000 0.000000 0.000000
0.000000 0.000000 0.000000 0.000000 0.000000 0.000000 0.000000 0.000000 0.000000 0.000000 0.000000 0.000000 0.000000 0.000000 0.000000 0.000000 0.000000 0.000000 0.000000 0.000000 0.000000 0.000000 0.000000 0.000000 0.000000 0.000000 0.000000 0.000000 0.000000 0.000000 0.000000 0.000000 0.000000 0.000000 0.000000 0.000000 13.428610 13.428610 13.428610 13.428610 13.428610 13.428610 13.428610 13.428610 33.556296 33.556296 33.556296 33.556296 33.556296 33.556296 33.556296 33.556296 33.556296 33.556296 33.556296 33.556296 33.556296 33.556296 33.556296 33.556296 33.556296 33.556296 33.556296 33.556296 33.556296 0.000000 0.000000 0.000000 0.000000 0.000000 0.000000 0.000000 0.000000 0.000000 0.000000 0.000000 0.000000 0.000000 0.000000 0.000000 0.000000 0.000000 0.000000 0.000000 0.000000 0.000000 0.000000 0.000000 0.000000 0.000000 0.000000 0.000000 0.000000 0.000000 0.000000 0.000000 0.000000 0.000000 0.000000 0.000000 0.000000 0.000000 0.000000
0.000000 0.000000 0.000000 0.000000 0.000000 0.000000 0.000000 0.000000 0.000000 0.000000 0.000000 0.000000 0.000000 0.000000 0.000000 0.000000 0.000000 0.000000 0.000000 0.000000 0.000000 0.000000 0.000000 0.000000 0.000000 0.000000 0.000000 0.000000 0.000000 0.000000 0.000000 0.000000 0.000000 0.000000 0.000000 0.000000 0.000000 0.000000 0.000000 0.000000 0.000000 0.000000 0.000000 0.000000 0.000000 0.000000 0.000000 0.000000 0.000000 0.000000 0.000000 0.000000 0.000000 0.000000 0.000000 0.000000 0.000000 0.000000 0.000000 0.000000 0.000000 0.000000 0.000000 0.000000 0.000000 0.000000 0.000000 0.000000 0.000000 0.000000 0.000000 0.000000 0.000000 0.000000 0.000000 0.000000 0.000000 0.000000 0.000000 0.000000 0.000000 0.000000 0.000000 0.000000 0.000000 0.000000 0.000000 0.000000 0.000000 0.000000 0.000000 0.000000 0.000000 0.000000 0.000000 0.000000 0.000000 0.000000 0.000000 0.000000 0.000000 0.000000 0.000000
0.000000 0.000000 0.000000 0.000000 0.000000 0.000000 0.000000 0.000000 0.000000 0.000000 0.000000 0.000000 0.000000 0.000000 0.000000 0.000000 0.000000 0.000000 0.000000 0.000000 0.000000 0.000000 0.000000 0.000000 0.000000 0.000000 0.000000 0.000000 0.000000 0.000000 0.000000 0.000000 0.000000 0.000000 0.000000 0.000000 0.000000 0.000000 0.000000 0.000000 0.000000 0.000000 0.000000 0.000000 0.000000 0.000000 0.000000 0.000000 0.000000 0.000000 0.000000 0.000000 0.000000 0.000000 0.000000 0.000000 0.000000 0.000000 0.000000 0.000000 0.000000 0.000000 0.000000 0.000000 0.000000 0.000000 0.000000 0.000000 0.000000 0.000000 0.000000 0.000000 0.000000 0.000000 0.000000 0.000000 0.000000 0.000000 0.000000 0.000000 0.000000 0.000000 0.000000 0.000000 0.000000 0.000000 0.000000 0.000000 0.000000 0.000000 0.000000 0.000000 0.000000 0.000000 0.000000 0.000000 0.000000 0.000000 0.000000 0.000000 0.000000 0.000000 0.000000
0.000000 0.000000 0.000000 0.000000 0.000000 0.000000 0.000000 0.000000 0.000000 0.000000 0.000000 0.000000 0.000000 0.000000 0.000000 0.000000 0.000000 0.000000 0.000000 0.000000 0.000000 0.000000 0.000000 0.000000 0.000000 0.000000 0.000000 0.000000 0.000000 0.000000 0.000000 0.000000 0.000000 0.000000 0.000000 0.000000 0.000000 0.000000 0.000000 0.000000 0.000000 0.000000 0.000000 0.000000 0.000000 0.000000 0.000000 0.000000 0.000000 0.000000 0.000000 0.000000 0.000000 0.000000 0.000000 0.000000 0.000000 0.000000 0.000000 0.000000 0.000000 0.000000 0.000000 0.000000 0.000000 0.000000 0.000000 0.000000 0.000000 0.000000 0.000000 0.000000 0.000000 0.000000 0.000000 0.000000 0.000000 0.000000 0.000000 0.000000 0.000000 0.000000 0.000000 0.000000 0.000000 0.000000 0.000000 0.000000 0.000000 0.000000 0.000000 0.000000 0.000000 0.000000 0.000000 0.000000 0.000000 0.000000 0.000000 0.000000 0.000000 0.000000 0.000000
0.000000 0.000000 0.000000 0.000000 0.000000 0.000000 0.000000 0.000000 0.000000 0.000000 0.000000 0.000000 0.000000 0.000000 0.000000 0.000000 0.000000 0.000000 0.000000 0.000000 0.000000 0.000000 0.000000 0.000000 0.000000 0.000000 0.000000 0.000000 0.000000 0.000000 0.000000 0.000000 0.000000 0.000000 0.000000 0.000000 0.000000 0.000000 0.000000 0.000000 0.000000 0.000000 0.000000 0.000000 0.000000 0.000000 0.000000 0.000000 0.000000 0.000000 0.000000 0.000000 0.000000 0.000000 0.000000 0.000000 0.000000 0.000000 0.000000 0.000000 0.000000 0.000000 0.000000 0.000000 0.000000 0.000000 0.000000 0.000000 0.000000 0.000000 0.000000 0.000000 0.000000 0.000000 0.000000 0.000000 0.000000 0.000000 0.000000 0.000000 0.000000 0.000000 0.000000 0.000000 0.000000 0.000000 0.000000 0.000000 0.000000 0.000000 0.000000 0.000000 0.000000 0.000000 0.000000 0.000000 0.000000 0.000000 0.000000 0.000000 0.000000 0.000000 0.000000
0.000000 0.000000 0.000000 0.000000 0.000000 0.000000 0.000000 0.000000 0.000000 0.000000 0.000000 0.000000 0.000000 0.000000 0.000000 0.000000 0.000000 0.000000 0.000000 0.000000 0.000000 0.000000 0.000000 0.000000 0.000000 0.000000 0.000000 0.000000 0.000000 0.000000 0.000000 0.000000 0.000000 0.000000 0.000000 0.000000 0.000000 0.000000 0.000000 0.000000 0.000000 0.000000 0.000000 0.000000 0.000000 0.000000 0.000000 0.000000 0.000000 0.000000 0.000000 0.000000 0.000000 0.000000 0.000000 0.000000 0.000000 0.000000 0.000000 0.000000 0.000000 0.000000 0.000000 0.000000 0.000000 0.000000 0.000000 0.000000 0.000000 0.000000 0.000000 0.000000 0.000000 0.000000 0.000000 0.000000 0.000000 0.000000 0.000000 0.000000 0.000000 0.000000 0.000000 0.000000 0.000000 0.000000 0.000000 0.000000 0.000000 0.000000 0.000000 0.000000 0.000000 0.000000 0.000000 0.000000 0.000000 0.000000 0.000000 0.000000 0.000000 0.000000 0.000000
0.000000 0.000000 0.000000 0.000000 15.362974 15.362974 15.362974 15.362974 15.362974 15.362974 15.362974 13.952261 13.952261 13.952261 13.952261 13.952261 13.952261 0.000000 0.000000 0.000000 0.000000 0.000000 0.000000 0.000000 0.000000 0.000000 0.000000 0.000000 0.000000 0.000000 0.000000 0.000000 0.000000 0.000000 0.000000 0.000000 58.077123 58.077123 58.077123 58.077123 58.077123 58.077123 58.077123 58.077123 58.077123 58.077123 58.077123 58.077123 58.077123 58.077123 58.077123 58.077123 58.077123 58.077123 58.077123 58.077123 58.077123 58.077123 58.077123 58.077123 26.410015 26.410015 26.410015 26.410015 26.410015 26.410015 26.410015 26.410015 26.410015 26.410015 26.410015 34.790437 34.790437 34.790437 34.790437 34.790437 34.790437 34.790437 34.790437 34.790437 34.790437 34.790437 34.790437 34.790437 34.790437 0.000000 0.000000 0.000000 0.000000 0.000000 15.449454 15.449454 15.449454 15.449454 15.449454 15.449454 15.449454 15.449454 15.449454 0.000000 0.000000 0.000000 0.000000
0.000000 0.000000 0.000000 0.000000 15.362974 15.362974 15.362974 15.362974 15.362974 15.362974 15.362974 13.952261 13.952261 13.952261 13.952261 13.952261 13.952261 0.000000 0.000000 0.000000 0.000000 0.000000 0.000000 0.000000 0.000000 0.000000 0.000000 0.000000 0.000000 0.000000 0.000000 0.000000 0.000000 0.000000 0.000000 0.000000 58.077123 58.077123 58.077123 58.077123 58.077123 58.077123 58.077123 58.077123 58.077123 58.077123 58.077123 58.077123 58.077123 58.077123 58.077123 58.077123 58.077123 58.077123 58.077123 58.077123 58.077123 58.077123 58.077123 58.077123 26.410015 26.410015 26.410015 26.410015 26.410015 26.410015 26.410015 26.410015 26.410015 26.410015 26.410015 34.790437 34.790437 34.790437 34.790437 34.790437 34.790437 34.790437 34.790437 34.790437 34.790437 34.790437 34.790437 34.790437 34.790437 0.000000 0.000000 0.000000 0.000000 0.000000 15.449454 15.449454 15.449454 15.449454 15.449454 15.449454 15.449454 15.449454 15.449454 0.000000 0.000000 0.000000 0.000000
0.000000 0.000000 0.000000 0.000000 15.362974 15.362974 15.362974 15.362974 15.362974 15.362974 15.362974 13.952261 13.952261 13.952261 13.952261 13.952261 13.952261 0.000000 0.000000 0.000000 0.000000 0.000000 0.000000 0.000000 0.000000 0.000000 0.000000 0.000000 0.000000 0.000000 0.000000 0.000000 0.000000 0.000000 0.000000 0.000000 58.077123 58.077123 58.077123 58.077123 58.077123 58.077123 58.077123 58.077123 58.077123 58.077123 58.077123 58.077123 58.077123 58.077123 58.077123 58.077123 58.077123 58.077123 58.077123 58.077123 58.077123 58.077123 58.077123 58.077123 26.410015 26.410015 26.410015 26.410015 26.410015 26.410015 26.410015 26.410015 26.410015 26.410015 26.410015 34.790437 34.790437 34.790437 34.790437 34.790437 34.790437 34.790437 34.790437 34.790437 34.790437 34.790437 34.790437 34.790437 34.790437 0.000000 0.000000 0.000000 0.000000 0.000000 15.449454 15.449454 15.449454 15.449454 15.449454 15.449454 15.449454 15.449454 15.449454 0.000000 0.000000 0.000000 0.000000
0.000000 0.000000 0.000000 0.000000 15.362974 15.362974 15.362974 15.362974 15.362974 15.362974 15.362974 13.952261 13.952261 13.952261 13.952261 13.952261 13.952261 0.000000 0.000000 0.000000 0.000000 0.000000 0.000000 0.000000 0.000000 0.000000 0.000000 0.000000 0.000000 0.000000 0.000000 0.000000 0.000000 0.000000 0.000000 0.000000 58.077123 58.077123 58.077123 58.077123 58.077123 58.077123 58.077123 58.077123 58.077123 58.077123 58.077123 58.077123 58.077123 58.077123 58.077123 58.077123 58.077123 58.077123 58.077123 58.077123 58.077123 58.077123 58.077123 58.077123 26.410015 26.410015 26.410015 26.410015 26.410015 26.410015 26.410015 26.410015 26.410015 26.410015 26.410015 34.790437 34.790437 34.790437 34.790437 34.790437 34.790437 34.790437 34.790437 34.790437 34.790437 34.790437 34.790437 34.790437 34.790437 0.000000 0.000000 0.000000 0.000000 0.000000 15.449454 15.449454 15.449454 15.449454 15.449454 15.449454 15.449454 15.449454 15.449454 0.000000 0.000000 0.000000 0.000000
0.000000 0.000000 0.000000 0.000000 15.362974 15.362974 15.362974 15.362974 15.362974 15.362974 15.362974 13.952261 13.952261 13.952261 13.952261 13.952261 13.952261 0.000000 0.000000 0.000000 0.000000 0.000000 0.000000 0.000000 0.000000 0.000000 0.000000 0.000000 0.000000 0.000000 0.000000 0.000000 0.000000 0.000000 0.000000 0.000000 58.077123 58.077123 58.077123 58.077123 58.077123 58.077123 58.077123 58.077123 58.077123 58.077123 58.077123 58.077123 58.077123 58.077123 58.077123 58.077123 58.077123 58.077123 58.077123 58.077123 58.077123 58.077123 58.077123 58.077123 26.410015 26.410015 26.410015 26.410015 26.410015 26.410015 26.410015 26.410015 26.410015 26.410015 26.410015 34.790437 34.790437 34.790437 34.790437 34.790437 34.790437 34.790437 34.790437 34.790437 34.790437 34.790437 34.790437 34.790437 34.790437 0.000000 0.000000 0.000000 0.000000 0.000000 15.449454 15.449454 15.449454 15.449454 15.449454 15.449454 15.449454 15.449454 15.449454 0.000000 0.000000 0.000000 0.000000
0.000000 0.000000 0.000000 0.000000 15.362974 15.362974 15.362974 15.362974 15.362974 15.362974 15.362974 13.952261 13.952261 13.952261 13.952261 13.952261 13.952261 0.000000 0.000000 0.000000 0.000000 0.000000 0.000000 0.000000 0.000000 0.000000 0.000000 0.000000 0.000000 0.000000 0.000000 0.000000 0.000000 0.000000 0.000000 0.000000 58.077123 58.077123 58.077123 58.077123 58.077123 58.077123 58.077123 58.077123 58.077123 58.077123 58.077123 58.077123 58.077123 58.077123 58.077123 58.077123 58.077123 58.077123 58.077123 58.077123 58.077123 58.077123 58.077123 58.077123 26.410015 26.410015 26.410015 26.410015 26.410015 26.410015 26.410015 26.410015 26.410015 26.410015 26.410015 34.790437 34.790437 34.790437 34.790437 34.790437 34.790437 34.790437 34.790437 34.790437 34.790437 34.790437 34.790437 34.790437 34.790437 0.000000 0.000000 0.000000 0.000000 0.000000 15.449454 15.449454 15.449454 15.449454 15.449454 15.449454 15.449454 15.449454 15.449454 0.000000 0.000000 0.000000 0.000000
0.000000 0.000000 0.000000 0.000000 15.362974 15.362974 15.362974 15.362974 15.362974 15.362974 15.362974 13.952261 13.952261 13.952261 13.952261 13.952261 13.952261 0.000000 0.000000 0.000000 0.000000 0.000000 0.000000 0.000000 0.000000 0.000000 0.000000 0.000000 0.000000 0.000000 0.000000 0.000000 0.000000 0.000000 0.000000 0.000000 58.077123 58.077123 58.077123 58.077123 58.077123 58.077123 58.077123 58.077123 58.077123 58.077123 58.077123 58.077123 58.077123 58.077123 58.077123 58.077123 58.077123 58.077123 58.077123 58.077123 58.077123 58.077123 58.077123 58.077123 26.410015 26.410015 26.410015 26.410015 26.410015 26.410015 26.410015 26.410015 26.410015 26.410015 26.410015 34.790437 34.790437 34.790437 34.790437 34.790437 34.790437 34.790437 34.790437 34.790437 34.790437 34.790437 34.790437 34.790437 34.790437 0.000000 0.000000 0.000000 0.000000 0.000000 24.470031 24.470031 24.470031 24.470031 24.470031 24.470031 24.470031 24.470031 24.470031 0.000000 0.000000 0.000000 0.000000
0.000000 0.000000 0.000000 0.000000 15.362974 15.362974 15.362974 15.362974 15.362974 15.362974 15.362974 13.952261 13.952261 13.952261 13.952261 13.952261 13.952261 0.000000 0.000000 0.000000 0.000000 0.000000 0.000000 0.000000 0.000000 0.000000 0.000000 0.000000 0.000000 0.000000 0.000000 0.000000 0.000000 0.000000 0.000000 0.000000 58.077123 58.077123 58.077123 58.077123 58.077123 58.077123 58.077123 58.077123 58.077123 58.077123 58.077123 58.077123 58.077123 58.077123 58.077123 58.077123 58.077123 58.077123 58.077123 58.077123 58.077123 58.077123 58.077123 58.077123 26.410015 26.410015 26.410015 26.410015 26.410015 26.410015 26.410015 26.410015 26.410015 26.410015 26.410015 34.790437 34.790437 34.790437 34.790437 34.790437 34.790437 34.790437 34.790437 34.790437 34.790437 34.790437 34.790437 34.790437 34.790437 0.000000 0.000000 0.000000 0.000000 0.000000 24.470031 24.470031 24.470031 24.470031 24.470031 24.470031 24.470031 24.470031 24.470031 0.000000 0.000000 0.000000 0.000000
0.000000 0.000000 0.000000 0.000000 15.362974 15.362974 15.362974 15.362974 15.362974 15.362974 15.362974 13.952261 13.952261 13.952261 13.952261 13.952261 13.952261 0.000000 0.000000 0.000000 0.000000 0.000000 0.000000 0.000000 0.000000 0.000000 0.000000 0.000000 0.000000 0.000000 0.000000 0.000000 0.000000 0.000000 0.000000 0.000000 58.077123 58.077123 58.077123 58.077123 58.077123 58.077123 58.077123 58.077123 58.077123 58.077123 58.077123 58.077123 58.077123 58.077123 58.077123 58.077123 58.077123 58.077123 58.077123 58.077123 58.077123 58.077123 58.077123 58.077123 26.410015 26.410015 26.410015 26.410015 26.410015 26.410015 26.410015 26.410015 26.410015 26.410015 26.410015 34.790437 34.790437 34.790437 34.790437 34.790437 34.790437 34.790437 34.790437 34.790437 34.790437 34.790437 34.790437 34.790437 34.790437 0.000000 0.000000 0.000000 0.000000 0.000000 24.470031 24.470031 24.470031 24.470031 24.470031 24.470031 24.470031 24.470031 24.470031 0.000000 0.000000 0.000000 0.000000
0.000000 0.000000 0.000000 0.000000 0.000000 0.000000 0.000000 0.000000 0.000000 0.000000 0.000000 12.557915 12.557915 12.557915 12.557915 12.557915 12.557915 0.000000 0.000000 0.000000 0.000000 0.000000 0.000000 0.000000 0.000000 0.000000 0.000000 0.000000 0.000000 0.000000 0.000000 0.000000 0.000000 0.000000 0.000000 0.000000 58.077123 58.077123 58.077123 58.077123 58.077123 58.077123 58.077123 58.077123 58.077123 58.077123 58.077123 58.077123 58.077123 58.077123 58.077123 58.077123 58.077123 58.077123 58.077123 58.077123 58.077123 58.077123 58.077123 58.077123 26.410015 26.410015 26.410015 26.410015 26.410015 26.410015 26.410015 26.410015 26.410015 26.410015 26.410015 34.790437 34.790437 34.790437 34.790437 34.790437 34.790437 34.790437 34.790437 34.790437 34.790437 34.790437 34.790437 34.790437 34.790437 0.000000 0.000000 0.000000 0.000000 0.000000 24.470031 24.470031 24.470031 24.470031 24.470031 24.470031 24.470031 24.470031 24.470031 0.000000 0.000000 0.000000 0.000000
0.000000 0.000000 0.000000 0.000000 0.000000 0.000000 0.000000 0.000000 0.000000 0.000000 0.000000 12.557915 12.557915 12.557915 12.557915 12.557915 12.557915 0.000000 0.000000 0.000000 0.000000 0.000000 14.294759 14.294759 14.294759 14.294759 14.294759 14.294759 14.294759 14.294759 14.294759 0.000000 0.000000 0.000000 0.000000 0.000000 42.672538 42.672538 42.672538 42.672538 42.672538 42.672538 42.672538 42.672538 42.672538 42.672538 42.672538 42.672538 42.672538 42.672538 42.672538 42.672538 42.672538 42.672538 42.672538 42.672538 42.672538 42.672538 42.672538 42.672538 19.404928 19.404928 19.404928 19.404928 19.404928 19.404928 19.404928 19.404928 19.404928 19.404928 19.404928 25.562496 25.562496 25.562496 25.562496 25.562496 25.562496 25.562496 25.562496 25.562496 25.562496 25.562496 25.562496 25.562496 25.562496 0.000000 0.000000 0.000000 0.000000 0.000000 24.470031 24.470031 24.470031 24.470031 24.470031 24.470031 24.470031 24.470031 24.470031 0.000000 0.000000 0.000000 0.000000
0.000000 0.000000 0.000000 0.000000 0.000000 0.000000 0.000000 0.000000 0.000000 0.000000 0.000000 12.557915 12.557915 12.557915 12.557915 12.557915 12.557915 0.000000 0.000000 0.000000 0.000000 0.000000 14.294759 14.294759 14.294759 14.294759 14.294759 14.294759 14.294759 14.294759 14.294759 0.000000 0.000000 0.000000 0.000000 0.000000 42.672538 42.672538 42.672538 42.672538 42.672538 42.672538 42.672538 42.672538 42.672538 42.672538 42.672538 42.672538 42.672538 42.672538 42.672538 42.672538 42.672538 42.672538 42.672538 42.672538 42.672538 42.672538 42.672538 42.672538 19.404928 19.404928 19.404928 19.404928 19.404928 19.404928 19.404928 19.404928 19.404928 19.404928 19.404928 25.562496 25.562496 25.562496 25.562496 25.562496 25.562496 25.562496 25.562496 25.562496 25.562496 25.562496 25.562496 25.562496 25.562496 0.000000 0.000000 0.000000 0.000000 0.000000 24.470031 24.470031 24.470031 24.470031 24.470031 24.470031 24.470031 24.470031 24.470031 0.000000 0.000000 0.000000 0.000000
0.000000 0.000000 0.000000 0.000000 0.000000 0.000000 0.000000 0.000000 0.000000 0.000000 0.000000 12.557915 12.557915 12.557915 12.557915 12.557915 12.557915 0.000000 0.000000 0.000000 0.000000 0.000000 14.294759 14.294759 14.294759 14.294759 14.294759 14.294759 14.294759 14.294759 14.294759 0.000000 0.000000 0.000000 0.000000 0.000000 42.672538 42.672538 42.672538 42.672538 42.672538 42.672538 42.672538 42.672538 42.672538 42.672538 42.672538 42.672538 42.672538 42.672538 42.672538 42.672538 42.672538 42.672538 42.672538 42.672538 42.672538 42.672538 42.672538 42.672538 19.404928 19.404928 19.404928 19.404928 19.404928 19.404928 19.404928 19.404928 19.404928 19.404928 19.404928 25.562496 25.562496 25.562496 25.562496 25.562496 25.562496 25.562496 25.562496 25.562496 25.562496 25.562496 25.562496 25.562496 25.562496 0.000000 0.000000 0.000000 0.000000 0.000000 24.470031 24.470031 24.470031 24.470031 24.470031 24.470031 24.470031 24.470031 24.470031 0.000000 0.000000 0.000000 0.000000
0.000000 0.000000 0.000000 0.000000 0.000000 0.000000 0.000000 0.000000 0.000000 0.000000 0.000000 12.557915 12.557915 12.557915 12.557915 12.557915 12.557915 0.000000 0.000000 0.000000 0.000000 0.000000 14.294759 14.294759 14.294759 14.294759 14.294759 14.294759 14.294759 14.294759 14.294759 0.000000 0.000000 0.000000 0.000000 0.000000 42.672538 42.672538 42.672538 42.672538 42.672538 42.672538 42.672538 42.672538 42.672538 42.672538 42.672538 42.672538 42.672538 42.672538 42.672538 42.672538 42.672538 42.672538 42.672538 42.672538 42.672538 42.672538 42.672538 42.672538 19.404928 19.404928 19.404928 19.404928 19.404928 19.404928 19.404928 19.404928 19.404928 19.404928 19.404928 25.562496 25.562496 25.562496 25.562496 25.562496 25.562496 25.562496 25.562496 25.562496 25.562496 25.562496 25.562496 25.562496 25.562496 0.000000 0.000000 0.000000 0.000000 0.000000 24.470031 24.470031 24.470031 24.470031 24.470031 24.470031 24.470031 24.470031 24.470031 0.000000 0.000000 0.000000 0.000000
0.000000 0.000000 0.000000 0.000000 0.000000 0.000000 0.000000 0.000000 0.000000 0.000000 0.000000 12.557915 12.557915 12.557915 12.557915 12.557915 12.557915 0.000000 0.000000 0.000000 0.000000 0.000000 14.294759 14.294759 14.294759 14.294759 14.294759 14.294759 14.294759 14.294759 14.294759 0.000000 0.000000 0.000000 0.000000 0.000000 42.672538 42.672538 42.672538 42.672538 42.672538 42.672538 42.672538 42.672538 42.672538 42.672538 42.672538 42.672538 42.672538 42.672538 42.672538 42.672538 42.672538 42.672538 42.672538 42.672538 42.672538 42.672538 42.672538 42.672538 19.404928 19.404928 19.404928 19.404928 19.404928 19.404928 19.404928 19.404928 19.404928 19.404928 19.404928 25.562496 25.562496 25.562496 25.562496 25.562496 25.562496 25.562496 25.562496 25.562496 25.562496 25.562496 25.562496 25.562496 25.562496 0.000000 0.000000 0.000000 0.000000 0.000000 24.470031 24.470031 24.470031 24.470031 24.470031 24.470031 24.470031 24.470031 24.470031 0.000000 0.000000 0.000000 0.000000
0.000000 0.000000 0.000000 0.000000 0.000000 0.000000 0.000000 0.000000 0.000000 0.000000 0.000000 12.557915 12.557915 12.557915 12.557915 12.557915 12.557915 0.000000 0.000000 0.000000 0.000000 0.000000 14.294759 14.294759 14.294759 14.294759 14.294759 14.294759 14.294759 14.294759 14.294759 0.000000 0.000000 0.000000 0.000000 0.000000 42.672538 42.672538 42.672538 42.672538 42.672538 42.672538 42.672538 42.672538 42.672538 42.672538 42.672538 42.672538 42.672538 42.672538 42.672538 42.672538 42.672538 42.672538 42.672538 42.672538 42.672538 42.672538 42.672538 42.672538 19.404928 19.404928 19.404928 19.404928 19.404928 19.404928 19.404928 19.404928 19.404928 19.404928 19.404928 25.562496 25.562496 25.562496 25.562496 25.562496 25.562496 25.562496 25.562496 25.562496 25.562496 25.562496 25.562496 25.562496 25.562496 0.000000 0.000000 0.000000 0.000000 0.000000 24.470031 24.470031 24.470031 24.470031 24.470031 24.470031 24.470031 24.470031 24.470031 0.000000 0.000000 0.000000 0.000000
0.000000 0.000000 0.000000 0.000000 0.000000 0.000000 0.000000 0.000000 0.000000 0.000000 0.000000 12.557915 12.557915 12.557915 12.557915 12.557915 12.557915 0.000000 0.000000 0.000000 0.000000 0.000000 14.294759 14.294759 14.294759 14.294759 14.294759 14.294759 14.294759 14.294759 14.294759 0.000000 0.000000 0.000000 0.000000 0.000000 42.672538 42.672538 42.672538 42.672538 42.672538 42.672538 42.672538 42.672538 42.672538 42.672538 42.672538 42.672538 42.672538 42.672538 42.672538 42.672538 42.672538 42.672538 42.672538 42.672538 42.672538 42.672538 42.672538 42.672538 19.404928 19.404928 19.404928 19.404928 19.404928 19.404928 19.404928 19.404928 19.404928 19.404928 19.404928 25.562496 25.562496 25.562496 25.562496 25.562496 25.562496 25.562496 25.562496 25.562496 25.562496 25.562496 25.562496 25.562496 25.562496 0.000000 0.000000 0.000000 0.000000 0.000000 24.470031 24.470031 24.470031 24.470031 24.470031 24.470031 24.470031 24.470031 24.470031 0.000000 0.000000 0.000000 0.000000
0.000000 0.000000 0.000000 0.000000 0.000000 0.000000 0.000000 0.000000 0.000000 0.000000 0.000000 0.000000 0.000000 0.000000 0.000000 0.000000 0.000000 0.000000 0.000000 0.000000 0.000000 0.000000 0.000000 0.000000 0.000000 0.000000 0.000000 0.000000 0.000000 0.000000 0.000000 0.000000 0.000000 0.000000 0.000000 0.000000 0.000000 0.000000 0.000000 0.000000 0.000000 0.000000 0.000000 0.000000 0.000000 0.000000 0.000000 0.000000 0.000000 0.000000 0.000000 0.000000 0.000000 0.000000 0.000000 0.000000 0.000000 0.000000 0.000000 0.000000 0.000000 0.000000 0.000000 0.000000 0.000000 0.000000 0.000000 0.000000 0.000000 0.000000 0.000000 0.000000 0.000000 0.000000 0.000000 0.000000 0.000000 0.000000 0.000000 0.000000 0.000000 0.000000 0.000000 0.000000 0.000000 0.000000 0.000000 0.000000 0.000000 0.000000 0.000000 0.000000 0.000000 0.000000 0.000000 0.000000 0.000000 0.000000 0.000000 0.000000 0.000000 0.000000 0.000000
0.000000 0.000000 0.000000 0.000000 0.000000 0.000000 0.000000 0.000000 0.000000 0.000000 0.000000 0.000000 0.000000 0.000000 0.000000 0.000000 0.000000 0.000000 0.000000 0.000000 0.000000 0.000000 0.000000 0.000000 0.000000 0.000000 0.000000 0.000000 0.000000 0.000000 0.000000 0.000000 0.000000 0.000000 0.000000 0.000000 0.000000 0.000000 0.000000 0.000000 0.000000 0.000000 0.000000 0.000000 0.000000 0.000000 0.000000 0.000000 0.000000 0.000000 0.000000 0.000000 0.000000 0.000000 0.000000 0.000000 0.000000 0.000000 0.000000 0.000000 0.000000 0.000000 0.000000 0.000000 0.000000 0.000000 0.000000 0.000000 0.000000 0.000000 0.000000 0.000000 0.000000 0.000000 0.000000 0.000000 0.000000 0.000000 0.000000 0.000000 0.000000 0.000000 0.000000 0.000000 0.000000 0.000000 0.000000 0.000000 0.000000 0.000000 0.000000 0.000000 0.000000 0.000000 0.000000 0.000000 0.000000 0.000000 0.000000 0.000000 0.000000 0.000000 0.000000
0.000000 0.000000 0.000000 0.000000 0.000000 0.000000 0.000000 0.000000 0.000000 0.000000 0.000000 0.000000 0.000000 0.000000 0.000000 0.000000 0.000000 0.000000 0.000000 0.000000 0.000000 0.000000 0.000000 0.000000 0.000000 0.000000 0.000000 0.000000 0.000000 0.000000 0.000000 0.000000 0.000000 0.000000 0.000000 0.000000 0.000000 0.000000 0.000000 0.000000 0.000000 0.000000 0.000000 0.000000 0.000000 0.000000 0.000000 0.000000 0.000000 0.000000 0.000000 0.000000 0.000000 0.000000 0.000000 0.000000 0.000000 0.000000 0.000000 0.000000 0.000000 0.000000 0.000000 0.000000 0.000000 0.000000 0.000000 0.000000 0.000000 0.000000 0.000000 0.000000 0.000000 0.000000 0.000000 0.000000 0.000000 0.000000 0.000000 0.000000 0.000000 0.000000 0.000000 0.000000 0.000000 0.000000 0.000000 0.000000 0.000000 0.000000 0.000000 0.000000 0.000000 0.000000 0.000000 0.000000 0.000000 0.000000 0.000000 0.000000 0.000000 0.000000 0.000000
0.000000 0.000000 0.000000 0.000000 0.000000 0.000000 0.000000 0.000000 0.000000 0.000000 0.000000 0.000000 0.000000 0.000000 0.000000 0.000000 0.000000 0.000000 0.000000 0.000000 0.000000 0.000000 0.000000 0.000000 0.000000 0.000000 0.000000 0.000000 0.000000 0.000000 0.000000 0.000000 0.000000 0.000000 0.000000 0.000000 0.000000 0.000000 0.000000 0.000000 0.000000 0.000000 0.000000 0.000000 0.000000 0.000000 0.000000 0.000000 0.000000 0.000000 0.000000 0.000000 0.000000 0.000000 0.000000 0.000000 0.000000 0.000000 0.000000 0.000000 0.000000 0.000000 0.000000 0.000000 0.000000 0.000000 0.000000 0.000000 0.000000 0.000000 0.000000 0.000000 0.000000 0.000000 0.000000 0.000000 0.000000 0.000000 0.000000 0.000000 0.000000 0.000000 0.000000 0.000000 0.000000 0.000000 0.000000 0.000000 0.000000 0.000000 0.000000 0.000000 0.000000 0.000000 0.000000 0.000000 0.000000 0.000000 0.000000 0.000000 0.000000 0.000000 0.000000
0.000000 0.000000 0.000000 0.000000 0.000000 0.000000 0.000000 0.000000 0.000000 0.000000 0.000000 0.000000 0.000000 0.000000 0.000000 0.000000 0.000000 0.000000 0.000000 0.000000 0.000000 0.000000 0.000000 0.000000 0.000000 0.000000 0.000000 0.000000 0.000000 0.000000 0.000000 0.000000 0.000000 0.000000 0.000000 0.000000 0.000000 0.000000 0.000000 0.000000 0.000000 0.000000 0.000000 0.000000 0.000000 0.000000 0.000000 0.000000 0.000000 0.000000 0.000000 0.000000 0.000000 0.000000 0.000000 0.000000 0.000000 0.000000 0.000000 0.000000 0.000000 0.000000 0.000000 0.000000 0.000000 0.000000 0.000000 0.000000 0.000000 0.000000 0.000000 0.000000 0.000000 0.000000 0.000000 0.000000 0.000000 0.000000 0.000000 0.000000 0.000000 0.000000 0.000000 0.000000 0.000000 0.000000 0.000000 0.000000 0.000000 0.000000 0.000000 0.000000 0.000000 0.000000 0.000000 0.000000 0.000000 0.000000 0.000000 0.000000 0.000000 0.000000 0.000000
0.000000 0.000000 0.000000 0.000000 10.922496 10.922496 10.922496 10.922496 10.922496 10.922496 10.922496 11.229257 11.229257 11.229257 11.229257 11.229257 11.229257 0.000000 0.000000 0.000000 0.000000 0.000000 12.816259 12.816259 12.816259 12.816259 12.816259 12.816259 12.816259 12.816259 12.816259 0.000000 0.000000 0.000000 0.000000 0.000000 0.000000 0.000000 0.000000 0.000000 0.000000 0.000000 0.000000 0.000000 0.000000 0.000000 0.000000 0.000000 0.000000 0.000000 0.000000 0.000000 0.000000 0.000000 0.000000 0.000000 0.000000 0.000000 0.000000 0.000000 0.000000 0.000000 0.000000 0.000000 0.000000 0.000000 0.000000 0.000000 0.000000 0.000000 0.000000 0.000000 0.000000 0.000000 0.000000 0.000000 0.000000 0.000000 0.000000 0.000000 0.000000 0.000000 0.000000 0.000000 0.000000 0.000000 0.000000 0.000000 0.000000 0.000000 17.043922 17.043922 17.043922 17.043922 17.043922 17.043922 17.043922 17.043922 17.043922 0.000000 0.000000 0.000000 0.000000
0.000000 0.000000 0.000000 0.000000 10.922496 10.922496 10.922496 10.922496 10.922496 10.922496 10.922496 11.229257 11.229257 11.229257 11.229257 11.229257 11.229257 0.000000 0.000000 0.000000 0.000000 0.000000 12.816259 12.816259 12.816259 12.816259 12.816259 12.816259 12.816259 12.816259 12.816259 0.000000 0.000000 0.000000 0.000000 0.000000 0.000000 0.000000 0.000000 0.000000 0.000000 0.000000 0.000000 0.000000 0.000000 0.000000 0.000000 0.000000 0.000000 0.000000 0.000000 0.000000 0.000000 0.000000 0.000000 0.000000 0.000000 0.000000 0.000000 0.000000 0.000000 0.000000 0.000000 0.000000 0.000000 0.000000 0.000000 0.000000 0.000000 0.000000 0.000000 0.000000 0.000000 0.000000 0.000000 0.000000 0.000000 0.000000 0.000000 0.000000 0.000000 0.000000 0.000000 0.000000 0.000000 0.000000 0.000000 0.000000 0.000000 0.000000 17.043922 17.043922 17.043922 17.043922 17.043922 17.043922 17.043922 17.043922 17.043922 0.000000 0.000000 0.000000 0.000000
0.000000 0.000000 0.000000 0.000000 10.922496 10.922496 10.922496 10.922496 10.922496 10.922496 10.922496 11.229257 11.229257 11.229257 11.229257 11.229257 11.229257 0.000000 0.000000 0.000000 0.000000 0.000000 12.816259 12.816259 12.816259 12.816259 12.816259 12.816259 12.816259 12.816259 12.816259 0.000000 0.000000 0.000000 0.000000 0.000000 0.000000 0.000000 0.000000 0.000000 0.000000 0.000000 0.000000 0.000000 0.000000 0.000000 0.000000 0.000000 29.771733 29.771733 29.771733 29.771733 29.771733 29.771733 29.771733 29.771733 29.771733 29.771733 29.771733 29.771733 0.000000 0.000000 0.000000 0.000000 0.000000 0.000000 0.000000 0.000000 0.000000 0.000000 0.000000 0.000000 0.000000 0.000000 0.000000 0.000000 0.000000 0.000000 0.000000 0.000000 0.000000 0.000000 0.000000 0.000000 0.000000 0.000000 0.000000 0.000000 0.000000 0.000000 17.043922 17.043922 17.043922 17.043922 17.043922 17.043922 17.043922 17.043922 17.043922 0.000000 0.000000 0.000000 0.000000
0.000000 0.000000 0.000000 0.000000 10.922496 10.922496 10.922496 10.922496 10.922496 10.922496 10.922496 11.229257 11.229257 11.229257 11.229257 11.229257 11.229257 0.000000 0.000000 0.000000 0.000000 0.000000 12.816259 12.816259 12.816259 12.816259 12.816259 12.816259 12.816259 12.816259 12.816259 0.000000 0.000000 0.000000 0.000000 0.000000 0.000000 0.000000 0.000000 0.000000 0.000000 0.000000 0.000000 0.000000 0.000000 0.000000 0.000000 0.000000 29.771733 29.771733 29.771733 29.771733 29.771733 29.771733 29.771733 29.771733 29.771733 29.771733 29.771733 29.771733 0.000000 0.000000 0.000000 0.000000 0.000000 0.000000 0.000000 0.000000 0.000000 0.000000 0.000000 0.000000 0.000000 0.000000 0.000000 0.000000 0.000000 0.000000 0.000000 0.000000 0.000000 0.000000 0.000000 0.000000 0.000000 0.000000 0.000000 0.000000 0.000000 0.000000 17.043922 17.043922 17.043922 17.043922 17.043922 17.043922 17.043922 17.043922 17.043922 0.000000 0.000000 0.000000 0.000000
0.000000 0.000000 0.000000 0.000000 10.922496 10.922496 10.922496 10.922496 10.922496 10.922496 10.922496 11.229257 11.229257 11.229257 11.229257 11.229257 11.229257 0.000000 0.000000 0.000000 0.000000 0.000000 12.816259 12.816259 12.816259 12.816259 12.816259 12.816259 12.816259 12.816259 12.816259 0.000000 0.000000 0.000000 0.000000 0.000000 0.000000 0.000000 0.000000 0.000000 0.000000 0.000000 0.000000 0.000000 0.000000 0.000000 0.000000 0.000000 29.771733 29.771733 29.771733 29.771733 29.771733 29.771733 29.771733 29.771733 29.771733 29.771733 29.771733 29.771733 0.000000 0.000000 0.000000 0.000000 0.000000 0.000000 0.000000 0.000000 0.000000 0.000000 0.000000 0.000000 0.000000 0.000000 0.000000 0.000000 0.000000 0.000000 0.000000 0.000000 0.000000 0.000000 0.000000 0.000000 0.000000 0.000000 0.000000 0.000000 0.000000 0.000000 17.043922 17.043922 17.043922 17.043922 17.043922 17.043922 17.043922 17.043922 17.043922 0.000000 0.000000 0.000000 0.000000
0.000000 0.000000 0.000000 0.000000 10.922496 10.922496 10.922496 10.922496 10.922496 10.922496 10.922496 11.229257 11.229257 11.229257 11.229257 11.229257 11.229257 0.000000 0.000000 0.000000 0.000000 0.000000 12.816259 12.816259 12.816259 12.816259 12.816259 12.816259 12.816259 12.816259 12.816259 0.000000 0.000000 0.000000 0.000000 0.000000 0.000000 0.000000 0.000000 0.000000 0.000000 0.000000 0.000000 0.000000 0.000000 0.000000 0.000000 0.000000 29.771733 29.771733 29.771733 29.771733 29.771733 29.771733 29.771733 29.771733 29.771733 29.771733 29.771733 29.771733 0.000000 0.000000 0.000000 0.000000 0.000000 0.000000 0.000000 0.000000 0.000000 0.000000 0.000000 0.000000 0.000000 0.000000 0.000000 0.000000 0.000000 0.000000 0.000000 0.000000 0.000000 0.000000 0.000000 0.000000 0.000000 0.000000 0.000000 0.000000 0.000000 0.000000 17.043922 17.043922 17.043922 17.043922 17.043922 17.043922 17.043922 17.043922 17.043922 0.000000 0.000000 0.000000 0.000000
0.000000 0.000000 0.000000 0.000000 10.922496 10.922496 10.922496 10.922496 10.922496 10.922496 10.922496 11.229257 11.229257 11.229257 11.229257 11.229257 11.229257 0.000000 0.000000 0.000000 0.000000 0.000000 12.816259 12.816259 12.816259 12.816259 12.816259 12.816259 12.816259 12.816259 12.816259 0.000000 0.000000 0.000000 0.000000 0.000000 0.000000 0.000000 0.000000 0.000000 0.000000 0.000000 0.000000 0.000000 0.000000 0.000000 0.000000 0.000000 29.771733 29.771733 29.771733 29.771733 29.771733 29.771733 29.771733 29.771733 29.771733 29.771733 29.771733 29.771733 0.000000 0.000000 0.000000 0.000000 0.000000 0.000000 0.000000 0.000000 0.000000 0.000000 0.000000 0.000000 0.000000 0.000000 0.000000 0.000000 0.000000 0.000000 0.000000 0.000000 0.000000 0.000000 0.000000 0.000000 0.000000 0.000000 0.000000 0.000000 0.000000 0.000000 17.043922 17.043922 17.043922 17.043922 17.043922 17.043922 17.043922 17.043922 17.043922 0.000000 0.000000 0.000000 0.000000
0.000000 0.000000 0.000000 0.000000 0.000000 0.000000 0.000000 0.000000 0.000000 0.000000 0.000000 11.802185 11.802185 11.802185 11.802185 11.802185 11.802185 0.000000 0.000000 0.000000 0.000000 0.000000 16.005838 16.005838 16.005838 16.005838 16.005838 16.005838 16.005838 16.005838 16.005838 0.000000 0.000000 0.000000 0.000000 0.000000 0.000000 0.000000 0.000000 0.000000 0.000000 0.000000 0.000000 0.000000 0.000000 0.000000 0.000000 0.000000 29.771733 29.771733 29.771733 29.771733 29.771733 29.771733 29.771733 29.771733 29.771733 29.771733 29.771733 29.771733 0.000000 0.000000 0.000000 0.000000 0.000000 0.000000 0.000000 0.000000 0.000000 0.000000 0.000000 0.000000 0.000000 0.000000 0.000000 0.000000 0.000000 0.000000 0.000000 0.000000 0.000000 0.000000 0.000000 0.000000 0.000000 0.000000 0.000000 0.000000 0.000000 0.000000 17.043922 17.043922 17.043922 17.043922 17.043922 17.043922 17.043922 17.043922 17.043922 0.000000 0.000000 0.000000 0.000000
0.000000 0.000000 0.000000 0.000000 0.000000 0.000000 0.000000 0.000000 0.000000 0.000000 0.000000 11.802185 11.802185 11.802185 11.802185 11.802185 11.802185 0.000000 0.000000 0.000000 0.000000 0.000000 16.005838 16.005838 16.005838 16.005838 16.005838 16.005838 16.005838 16.005838 16.005838 0.000000 0.000000 0.000000 0.000000 0.000000 0.000000 0.000000 0.000000 0.000000 0.000000 0.000000 0.000000 0.000000 0.000000 0.000000 0.000000 0.000000 29.771733 29.771733 29.771733 29.771733 29.771733 29.771733 29.771733 29.771733 29.771733 29.771733 29.771733 29.771733 0.000000 0.000000 0.000000 0.000000 0.000000 0.000000 0.000000 0.000000 0.000000 0.000000 0.000000 0.000000 0.000000 0.000000 0.000000 0.000000 0.000000 0.000000 0.000000 0.000000 0.000000 0.000000 0.000000 0.000000 0.000000 0.000000 0.000000 0.000000 0.000000 0.000000 0.000000 0.000000 0.000000 0.000000 0.000000 0.000000 0.000000 0.000000 0.000000 0.000000 0.000000 0.000000 0.000000
0.000000 0.000000 0.000000 0.000000 0.000000 0.000000 0.000000 0.000000 0.000000 0.000000 0.000000 11.802185 11.802185 11.802185 11.802185 11.802185 11.802185 0.000000 0.000000 0.000000 0.000000 0.000000 16.005838 16.005838 16.005838 16.005838 16.005838 16.005838 16.005838 16.005838 16.005838 0.000000 0.000000 0.000000 0.000000 0.000000 0.000000 0.000000 0.000000 0.000000 0.000000 0.000000 0.000000 0.000000 0.000000 0.000000 0.000000 0.000000 29.771733 29.771733 29.771733 29.771733 29.771733 29.771733 29.771733 29.771733 29.771733 29.771733 29.771733 29.771733 0.000000 0.000000 0.000000 0.000000 0.000000 0.000000 0.000000 0.000000 0.000000 0.000000 0.000000 0.000000 0.000000 0.000000 0.000000 0.000000 0.000000 0.000000 0.000000 0.000000 0.000000 0.000000 0.000000 0.000000 0.000000 0.000000 0.000000 0.000000 0.000000 0.000000 0.000000 0.000000 0.000000 0.000000 0.000000 0.000000 0.000000 0.000000 0.000000 0.000000 0.000000 0.000000 0.000000
0.000000 0.000000 0.000000 0.000000 0.000000 0.000000 0.000000 0.000000 0.000000 0.000000 0.000000 11.802185 11.802185 11.802185 11.802185 11.802185 11.802185 0.000000 0.000000 0.000000 0.000000 0.000000 16.005838 16.005838 16.005838 16.005838 16.005838 16.005838 16.005838 16.005838 16.005838 0.000000 0.000000 0.000000 0.000000 0.000000 0.000000 0.000000 0.000000 0.000000 0.000000 0.000000 0.000000 0.000000 0.000000 0.000000 0.000000 0.000000 29.771733 29.771733 29.771733 29.771733 29.771733 29.771733 29.771733 29.771733 29.771733 29.771733 29.771733 29.771733 0.000000 0.000000 0.000000 0.000000 0.000000 0.000000 0.000000 0.000000 0.000000 0.000000 0.000000 0.000000 0.000000 0.000000 0.000000 0.000000 0.000000 0.000000 0.000000 0.000000 0.000000 0.000000 0.000000 0.000000 0.000000 0.000000 0.000000 0.000000 0.000000 0.000000 0.000000 0.000000 0.000000 0.000000 0.000000 0.000000 0.000000 0.000000 0.000000 0.000000 0.000000 0.000000 0.000000
0.000000 0.000000 0.000000 0.000000 0.000000 0.000000 0.000000 0.000000 0.000000 0.000000 0.000000 11.802185 11.802185 11.802185 11.802185 11.802185 11.802185 0.000000 0.000000 0.000000 0.000000 0.000000 16.005838 16.005838 16.005838 16.005838 16.005838 16.005838 16.005838 16.005838 16.005838 0.000000 0.000000 0.000000 0.000000 0.000000 0.000000 0.000000 0.000000 0.000000 0.000000 0.000000 0.000000 0.000000 0.000000 0.000000 0.000000 0.000000 29.771733 29.771733 29.771733 29.771733 29.771733 29.771733 29.771733 29.771733 29.771733 29.771733 29.771733 29.771733 0.000000 0.000000 0.000000 0.000000 0.000000 0.000000 0.000000 0.000000 0.000000 0.000000 0.000000 0.000000 0.000000 0.000000 0.000000 0.000000 0.000000 0.000000 0.000000 0.000000 0.000000 0.000000 0.000000 0.000000 0.000000 0.000000 0.000000 0.000000 0.000000 0.000000 0.000000 0.000000 0.000000 0.000000 0.000000 0.000000 0.000000 0.000000 0.000000 0.000000 0.000000 0.000000 0.000000
0.000000 0.000000 0.000000 0.000000 0.000000 0.000000 0.000000 0.000000 0.000000 0.000000 0.000000 11.802185 11.802185 11.802185 11.802185 11.802185 11.802185 0.000000 0.000000 0.000000 0.000000 0.000000 16.005838 16.005838 16.005838 16.005838 16.005838 16.005838 16.005838 16.005838 16.005838 0.000000 0.000000 0.000000 0.000000 0.000000 0.000000 0.000000 0.000000 0.000000 0.000000 0.000000 0.000000 0.000000 0.000000 0.000000 0.000000 0.000000 29.771733 29.771733 29.771733 29.771733 29.771733 29.771733 29.771733 29.771733 29.771733 29.771733 29.771733 29.771733 0.000000 0.000000 0.000000 0.000000 0.000000 0.000000 0.000000 0.000000 0.000000 0.000000 0.000000 0.000000 0.000000 0.000000 0.000000 0.000000 0.000000 0.000000 0.000000 0.000000 0.000000 0.000000 0.000000 0.000000 0.000000 0.000000 0.000000 0.000000 0.000000 0.000000 0.000000 0.000000 0.000000 0.000000 0.000000 0.000000 0.000000 0.000000 0.000000 0.000000 0.000000 0.000000 0.000000
0.000000 0.000000 0.000000 0.000000 0.000000 0.000000 0.000000 0.000000 0.000000 0.000000 0.000000 11.802185 11.802185 11.802185 11.802185 11.802185 11.802185 0.000000 0.000000 0.000000 0.000000 0.000000 16.005838 16.005838 16.005838 16.005838 16.005838 16.005838 16.005838 16.005838 16.005838 0.000000 0.000000 0.000000 0.000000 0.000000 0.000000 0.000000 0.000000 0.000000 0.000000 0.000000 0.000000 0.000000 0.000000 0.000000 0.000000 0.000000 0.000000 0.000000 0.000000 0.000000 0.000000 0.000000 0.000000 0.000000 0.000000 0.000000 0.000000 0.000000 0.000000 0.000000 0.000000 0.000000 0.000000 0.000000 0.000000 0.000000 0.000000 0.000000 0.000000 0.000000 0.000000 0.000000 0.000000 0.000000 0.000000 0.000000 0.000000 0.000000 0.000000 0.000000 0.000000 0.000000 0.000000 0.000000 0.000000 0.000000 0.000000 0.000000 0.000000 0.000000 0.000000 0.000000 0.000000 0.000000 0.000000 0.000000 0.000000 0.000000 0.000000 0.000000 0.000000
0.000000 0.000000 0.000000 0.000000 0.000000 0.000000 0.000000 0.000000 0.000000 0.000000 0.000000 0.000000 0.000000 0.000000 0.000000 0.000000 0.000000 0.000000 0.000000 0.000000 0.000000 0.000000 0.000000 0.000000 0.000000 0.000000 0.000000 0.000000 0.000000 0.000000 0.000000 0.000000 0.000000 0.000000 0.000000 0.000000 0.000000 0.000000 0.000000 0.000000 0.000000 0.000000 0.000000 0.000000 0.000000 0.000000 0.000000 0.000000 0.000000 0.000000 0.000000 0.000000 0.000000 0.000000 0.000000 0.000000 0.000000 0.000000 0.000000 0.000000 0.000000 0.000000 0.000000 0.000000 0.000000 0.000000 0.000000 0.000000 0.000000 0.000000 0.000000 0.000000 0.000000 0.000000 0.000000 0.000000 0.000000 0.000000 0.000000 0.000000 0.000000 0.000000 0.000000 0.000000 0.000000 0.000000 0.000000 0.000000 0.000000 0.000000 0.000000 0.000000 0.000000 0.000000 0.000000 0.000000 0.000000 0.000000 0.000000 0.000000 0.000000 0.000000 0.000000
0.000000 0.000000 0.000000 0.000000 0.000000 0.000000 0.000000 0.000000 0.000000 0.000000 0.000000 0.000000 0.000000 0.000000 0.000000 0.000000 0.000000 0.000000 0.000000 0.000000 0.000000 0.000000 0.000000 0.000000 0.000000 0.000000 0.000000 0.000000 0.000000 0.000000 0.000000 0.000000 0.000000 0.000000 0.000000 0.000000 0.000000 0.000000 0.000000 0.000000 0.000000 0.000000 0.000000 0.000000 0.000000 0.000000 0.000000 0.000000 0.000000 0.000000 0.000000 0.000000 0.000000 0.000000 0.000000 0.000000 0.000000 0.000000 0.000000 0.000000 0.000000 0.000000 0.000000 0.000000 0.000000 0.000000 0.000000 0.000000 0.000000 0.000000 0.000000 0.000000 0.000000 0.000000 0.000000 0.000000 0.000000 0.000000 0.000000 0.000000 0.000000 0.000000 0.000000 0.000000 0.000000 0.000000 0.000000 0.000000 0.000000 0.000000 0.000000 0.000000 0.000000 0.000000 0.000000 0.000000 0.000000 0.000000 0.000000 0.000000 0.000000 0.000000 0.000000
0.000000 0.000000 0.000000 0.000000 0.000000 0.000000 0.000000 0.000000 0.000000 0.000000 0.000000 0.000000 0.000000 0.000000 0.000000 0.000000 0.000000 0.000000 0.000000 0.000000 0.000000 0.000000 0.000000 0.000000 0.000000 0.000000 0.000000 0.000000 0.000000 0.000000 0.000000 0.000000 0.000000 0.000000 0.000000 0.000000 0.000000 0.000000 0.000000 0.000000 0.000000 0.000000 0.000000 0.000000 0.000000 0.000000 0.000000 0.000000 0.000000 0.000000 0.000000 0.000000 0.000000 0.000000 0.000000 0.000000 0.000000 0.000000 0.000000 0.000000 0.000000 0.000000 0.000000 0.000000 0.000000 0.000000 0.000000 0.000000 0.000000 0.000000 0.000000 0.000000 0.000000 0.000000 0.000000 0.000000 0.000000 0.000000 0.000000 0.000000 0.000000 0.000000 0.000000 0.000000 0.000000 0.000000 0.000000 0.000000 0.000000 0.000000 0.000000 0.000000 0.000000 0.000000 0.000000 0.000000 0.000000 0.000000 0.000000 0.000000 0.000000 0.000000 0.000000
0.000000 0.000000 0.000000 0.000000 0.000000 0.000000 0.000000 0.000000 0.000000 0.000000 0.000000 0.000000 0.000000 0.000000 0.000000 0.000000 0.000000 0.000000 0.000000 0.000000 0.000000 0.000000 0.000000 0.000000 0.000000 0.000000 0.000000 0.000000 0.000000 0.000000 0.000000 0.000000 0.000000 0.000000 0.000000 0.000000 0.000000 0.000000 0.000000 0.000000 0.000000 0.000000 0.000000 0.000000 0.000000 0.000000 0.000000 0.000000 0.000000 0.000000 0.000000 0.000000 0.000000 0.000000 0.000000 0.000000 0.000000 0.000000 0.000000 0.000000 0.000000 0.000000 0.000000 0.000000 0.000000 0.000000 0.000000 0.000000 0.000000 0.000000 0.000000 0.000000 0.000000 0.000000 0.000000 0.000000 0.000000 0.000000 0.000000 0.000000 0.000000 0.000000 0.000000 0.000000 0.000000 0.000000 0.000000 0.000000 0.000000 0.000000 0.000000 0.000000 0.000000 0.000000 0.000000 0.000000 0.000000 0.000000 0.000000 0.000000 0.000000 0.000000 0.000000
0.000000 0.000000 0.000000 0.000000 0.000000 0.000000 0.000000 0.000000 0.000000 0.000000 0.000000 0.000000 0.000000 0.000000 0.000000 0.000000 0.000000 0.000000 0.000000 0.000000 0.000000 0.000000 0.000000 0.000000 0.000000 0.000000 0.000000 0.000000 0.000000 0.000000 0.000000 0.000000 0.000000 0.000000 0.000000 0.000000 0.000000 0.000000 0.000000 0.000000 0.000000 0.000000 0.000000 0.000000 0.000000 0.000000 0.000000 0.000000 0.000000 0.000000 0.000000 0.000000 0.000000 0.000000 0.000000 0.000000 0.000000 0.000000 0.000000 0.000000 0.000000 0.000000 0.000000 0.000000 0.000000 0.000000 0.000000 0.000000 0.000000 0.000000 0.000000 0.000000 0.000000 0.000000 0.000000 0.000000 0.000000 0.000000 0.000000 0.000000 0.000000 0.000000 0.000000 0.000000 0.000000 0.000000 0.000000 0.000000 0.000000 0.000000 0.000000 0.000000 0.000000 0.000000 0.000000 0.000000 0.000000 0.000000 0.000000 0.000000 0.000000 0.000000 0.000000
0.000000 0.000000 0.000000 0.000000 41.769824 41.769824 41.769824 41.769824 41.769824 41.769824 41.769824 38.252033 38.252033 38.252033 38.252033 38.252033 38.252033 0.000000 0.000000 0.000000 0.000000 0.000000 36.731851 36.731851 36.731851 36.731851 36.731851 36.731851 36.731851 36.731851 36.731851 0.000000 0.000000 0.000000 0.000000 0.000000 0.000000 0.000000 0.000000 0.000000 0.000000 0.000000 0.000000 0.000000 0.000000 0.000000 0.000000 0.000000 0.000000 0.000000 0.000000 0.000000 25.551411 25.551411 25.551411 25.551411 25.551411 25.551411 25.551411 25.551411 25.551411 25.551411 25.551411 25.551411 0.000000 0.000000 0.000000 0.000000 0.000000 0.000000 0.000000 0.000000 0.000000 0.000000 0.000000 0.000000 0.000000 0.000000 0.000000 0.000000 0.000000 0.000000 0.000000 0.000000 0.000000 0.000000 0.000000 0.000000 0.000000 0.000000 0.000000 0.000000 0.000000 0.000000 0.000000 0.000000 0.000000 0.000000 0.000000 0.000000 0.000000 0.000000 0.000000
0.000000 0.000000 0.000000 0.000000 41.769824 41.769824 41.769824 41.769824 41.769824 41.769824 41.769824 38.252033 38.252033 38.252033 38.252033 38.252033 38.252033 0.000000 0.000000 0.000000 0.000000 0.000000 36.731851 36.731851 36.731851 36.731851 36.731851 36.731851 36.731851 36.731851 36.731851 0.000000 0.000000 0.000000 0.000000 0.000000 0.000000 0.000000 0.000000 0.000000 0.000000 0.000000 0.000000 0.000000 0.000000 0.000000 0.000000 0.000000 0.000000 0.000000 0.000000 0.000000 25.551411 25.551411 25.551411 25.551411 25.551411 25.551411 25.551411 25.551411 25.551411 25.551411 25.551411 25.551411 0.000000 0.000000 0.000000 0.000000 0.000000 0.000000 0.000000 0.000000 0.000000 0.000000 0.000000 0.000000 0.000000 0.000000 0.000000 0.000000 0.000000 0.000000 0.000000 0.000000 0.000000 0.000000 0.000000 0.000000 0.000000 0.000000 0.000000 0.000000 0.000000 0.000000 0.000000 0.000000 0.000000 0.000000 0.000000 0.000000 0.000000 0.000000 0.000000
0.000000 0.000000 0.000000 0.000000 41.769824 41.769824 41.769824 41.769824 41.769824 41.769824 41.769824 38.252033 38.252033 38.252033 38.252033 38.252033 38.252033 0.000000 0.000000 0.000000 0.000000 0.000000 36.731851 36.731851 36.731851 36.731851 36.731851 36.731851 36.731851 36.731851 36.731851 0.000000 0.000000 0.000000 0.000000 0.000000 0.000000 0.000000 14.277423 14.277423 14.277423 14.277423 14.277423 14.277423 14.277423 14.277423 14.277423 14.277423 14.277423 14.277423 0.000000 0.000000 25.551411 25.551411 25.551411 25.551411 25.551411 25.551411 25.551411 25.551411 25.551411 25.551411 25.551411 25.551411 0.000000 0.000000 7.373131 7.373131 7.373131 7.373131 7.373131 7.373131 7.373131 0.000000 0.000000 0.000000 7.771482 7.771482 7.771482 7.771482 7.771482 7.771482 7.771482 0.000000 0.000000 0.000000 0.000000 0.000000 0.000000 0.000000 0.000000 0.000000 0.000000 0.000000 0.000000 0.000000 0.000000 0.000000 0.000000 0.000000 0.000000 0.000000 0.000000
0.000000 0.000000 0.000000 0.000000 41.769824 41.769824 41.769824 41.769824 41.769824 41.769824 41.769824 38.252033 38.252033 38.252033 38.252033 38.252033 38.252033 0.000000 0.000000 0.000000 0.000000 0.000000 36.731851 36.731851 36.731851 36.731851 36.731851 36.731851 36.731851 36.731851 36.731851 0.000000 0.000000 0.000000 0.000000 0.000000 0.000000 0.000000 14.277423 14.277423 14.277423 14.277423 14.277423 14.277423 14.277423 14.277423 14.277423 14.277423 14.277423 14.277423 0.000000 0.000000 25.551411 25.551411 25.551411 25.551411 25.551411 25.551411 25.551411 25.551411 25.551411 25.551411 25.551411 25.551411 0.000000 0.000000 7.373131 7.373131 7.373131 7.373131 7.373131 7.373131 7.373131 0.000000 0.000000 0.000000 7.771482 7.771482 7.771482 7.771482 7.771482 7.771482 7.771482 0.000000 0.000000 0.000000 0.000000 0.000000 0.000000 0.000000 0.000000 0.000000 0.000000 0.000000 0.000000 0.000000 0.000000 0.000000 0.000000 0.000000 0.000000 0.000000 0.000000
0.000000 0.000000 0.000000 0.000000 41.769824 41.769824 41.769824 41.769824 41.769824 41.769824 41.769824 38.252033 38.252033 38.252033 38.252033 38.252033 38.252033 0.000000 0.000000 0.000000 0.000000 0.000000 36.731851 36.731851 36.731851 36.731851 36.731851 36.731851 36.731851 36.731851 36.731851 0.000000 0.000000 0.000000 0.000000 0.000000 0.000000 0.000000 14.277423 14.277423 14.277423 14.277423 14.277423 14.277423 14.277423 14.277423 14.277423 14.277423 14.277423 14.277423 0.000000 0.000000 25.551411 25.551411 25.551411 25.551411 25.551411 25.551411 25.551411 25.551411 25.551411 25.551411 25.551411 25.551411 0.000000 0.000000 7.373131 7.373131 7.373131 7.373131 7.373131 7.373131 7.373131 0.000000 0.000000 0.000000 7.771482 7.771482 7.771482 7.771482 7.771482 7.771482 7.771482 0.000000 0.000000 0.000000 0.000000 0.000000 0.000000 0.000000 0.000000 0.000000 0.000000 0.000000 0.000000 0.000000 0.000000 0.000000 0.000000 0.000000 0.000000 0.000000 0.000000
0.000000 0.000000 0.000000 0.000000 41.769824 41.769824 41.769824 41.769824 41.769824 41.769824 41.769824 38.252033 38.252033 38.252033 38.252033 38.252033 38.252033 0.000000 0.000000 0.000000 0.000000 0.000000 36.731851 36.731851 36.731851 36.731851 36.731851 36.731851 36.731851 36.731851 36.731851 0.000000 0.000000 0.000000 0.000000 0.000000 0.000000 0.000000 14.277423 14.277423 14.277423 14.277423 14.277423 14.277423 14.277423 14.277423 14.277423 14.277423 14.277423 14.277423 0.000000 0.000000 25.551411 25.551411 25.551411 25.551411 25.551411 25.551411 25.551411 25.551411 25.551411 25.551411 25.551411 25.551411 0.000000 0.000000 7.373131 7.373131 7.373131 7.373131 7.373131 7.373131 7.373131 0.000000 0.000000 0.000000 7.771482 7.771482 7.771482 7.771482 7.771482 7.771482 7.771482 0.000000 0.000000 0.000000 0.000000 0.000000 0.000000 0.000000 0.000000 0.000000 0.000000 0.000000 0.000000 0.000000 0.000000 0.000000 0.000000 0.000000 0.000000 0.000000 0.000000
0.000000 0.000000 0.000000 0.000000 41.769824 41.769824 41.769824 41.769824 41.769824 41.769824 41.769824 38.252033 38.252033 38.252033 38.252033 38.252033 38.252033 0.000000 0.000000 0.000000 0.000000 0.000000 36.731851 36.731851 36.731851 36.731851 36.731851 36.731851 36.731851 36.731851 36.731851 0.000000 0.000000 0.000000 0.000000 0.000000 0.000000 0.000000 14.277423 14.277423 14.277423 14.277423 14.277423 14.277423 14.277423 14.277423 14.277423 14.277423 14.277423 14.277423 0.000000 0.000000 25.551411 25.551411 25.551411 25.551411 25.551411 25.551411 25.551411 25.551411 25.551411 25.551411 25.551411 25.551411 0.000000 0.000000 7.373131 7.373131 7.373131 7.373131 7.373131 7.373131 7.373131 0.000000 0.000000 0.000000 7.771482 7.771482 7.771482 7.771482 7.771482 7.771482 7.771482 0.000000 0.000000 0.000000 0.000000 0.000000 0.000000 0.000000 0.000000 0.000000 0.000000 0.000000 0.000000 0.000000 0.000000 0.000000 0.000000 0.000000 0.000000 0.000000 0.000000
0.000000 0.000000 0.000000 0.000000 41.769824 41.769824 41.769824 41.769824 41.769824 41.769824 41.769824 38.252033 38.252033 38.252033 38.252033 38.252033 38.252033 0.000000 0.000000 0.000000 0.000000 0.000000 36.731851 36.731851 36.731851 36.731851 36.731851 36.731851 36.731851 36.731851 36.731851 0.000000 0.000000 0.000000 0.000000 0.000000 0.000000 0.000000 0.000000 0.000000 0.000000 0.000000 0.000000 0.000000 0.000000 0.000000 0.000000 0.000000 0.000000 0.000000 0.000000 0.000000 25.551411 25.551411 25.551411 25.551411 25.551411 25.551411 25.551411 25.551411 25.551411 25.551411 25.551411 25.551411 0.000000 0.000000 0.000000 0.000000 0.000000 0.000000 0.000000 0.000000 0.000000 0.000000 0.000000 0.000000 0.000000 0.000000 0.000000 0.000000 0.000000 0.000000 0.000000 0.000000 0.000000 0.000000 0.000000 0.000000 0.000000 0.000000 0.000000 0.000000 0.000000 0.000000 0.000000 0.000000 0.000000 0.000000 0.000000 0.000000 0.000000 0.000000 0.000000
0.000000 0.000000 0.000000 0.000000 41.769824 41.769824 41.769824 41.769824 41.769824 41.769824 41.769824 38.252033 38.252033 38.252033 38.252033 38.252033 38.252033 0.000000 0.000000 0.000000 0.000000 0.000000 36.731851 36.731851 36.731851 36.731851 36.731851 36.731851 36.731851 36.731851 36.731851 0.000000 0.000000 0.000000 0.000000 0.000000 0.000000 0.000000 0.000000 0.000000 0.000000 0.000000 0.000000 0.000000 0.000000 0.000000 0.000000 0.000000 0.000000 0.000000 0.000000 0.000000 25.551411 25.551411 25.551411 25.551411 25.551411 25.551411 25.551411 25.551411 25.551411 25.551411 25.551411 25.551411 0.000000 0.000000 0.000000 0.000000 0.000000 0.000000 0.000000 0.000000 0.000000 0.000000 0.000000 0.000000 0.000000 0.000000 0.000000 0.000000 0.000000 0.000000 0.000000 0.000000 0.000000 0.000000 0.000000 0.000000 0.000000 0.000000 0.000000 0.000000 0.000000 0.000000 0.000000 0.000000 0.000000 0.000000 0.000000 0.000000 0.000000 0.000000 0.000000
0.000000 0.000000 0.000000 0.000000 41.769824 41.769824 41.769824 41.769824 41.769824 41.769824 41.769824 38.252033 38.252033 38.252033 38.252033 38.252033 38.252033 0.000000 0.000000 0.000000 0.000000 0.000000 36.731851 36.731851 36.731851 36.731851 36.731851 36.731851 36.731851 36.731851 36.731851 0.000000 0.000000 0.000000 0.000000 0.000000 0.000000 0.000000 0.000000 0.000000 0.000000 0.000000 0.000000 0.000000 0.000000 0.000000 0.000000 0.000000 0.000000 0.000000 0.000000 0.000000 0.000000 0.000000 0.000000 0.000000 0.000000 0.000000 0.000000 0.000000 0.000000 0.000000 0.000000 0.000000 0.000000 0.000000 0.000000 0.000000 0.000000 0.000000 0.000000 0.000000 0.000000 0.000000 0.000000 0.000000 0.000000 0.000000 0.000000 0.000000 0.000000 0.000000 0.000000 0.000000 0.000000 0.000000 0.000000 0.000000 0.000000 0.000000 0.000000 0.000000 0.000000 0.000000 0.000000 0.000000 0.000000 0.000000 0.000000 0.000000 0.000000 0.000000 0.000000
0.000000 0.000000 0.000000 0.000000 41.769824 41.769824 41.769824 41.769824 41.769824 41.769824 41.769824 38.252033 38.252033 38.252033 38.252033 38.252033 38.252033 0.000000 0.000000 0.000000 0.000000 0.000000 36.731851 36.731851 36.731851 36.731851 36.731851 36.731851 36.731851 36.731851 36.731851 0.000000 0.000000 0.000000 0.000000 0.000000 0.000000 0.000000 0.000000 0.000000 0.000000 0.000000 0.000000 0.000000 0.000000 0.000000 0.000000 0.000000 0.000000 0.000000 0.000000 0.000000 0.000000 0.000000 0.000000 0.000000 0.000000 0.000000 0.000000 0.000000 0.000000 0.000000 0.000000 0.000000 0.000000 0.000000 0.000000 0.000000 0.000000 0.000000 0.000000 0.000000 0.000000 0.000000 0.000000 0.000000 0.000000 0.000000 0.000000 0.000000 0.000000 0.000000 0.000000 0.000000 0.000000 0.000000 0.000000 0.000000 0.000000 0.000000 0.000000 0.000000 0.000000 0.000000 0.000000 0.000000 0.000000 0.000000 0.000000 0.000000 0.000000 0.000000 0.000000
0.000000 0.000000 0.000000 0.000000 41.769824 41.769824 41.769824 41.769824 41.769824 41.769824 41.769824 38.252033 38.252033 38.252033 38.252033 38.252033 38.252033 0.000000 0.000000 0.000000 0.000000 0.000000 36.731851 36.731851 36.731851 36.731851 36.731851 36.731851 36.731851 36.731851 36.731851 0.000000 0.000000 0.000000 0.000000 0.000000 0.000000 0.000000 0.000000 0.000000 0.000000 0.000000 0.000000 0.000000 0.000000 0.000000 0.000000 0.000000 0.000000 0.000000 0.000000 0.000000 0.000000 0.000000 0.000000 0.000000 0.000000 0.000000 0.000000 0.000000 0.000000 0.000000 0.000000 0.000000 0.000000 0.000000 0.000000 0.000000 0.000000 0.000000 0.000000 0.000000 0.000000 0.000000 0.000000 0.000000 14.517277 14.517277 14.517277 14.517277 14.517277 14.517277 14.517277 0.000000 0.000000 0.000000 0.000000 0.000000 0.000000 0.000000 0.000000 0.000000 0.000000 0.000000 0.000000 0.000000 0.000000 0.000000 0.000000 0.000000 0.000000 0.000000 0.000000
0.000000 0.000000 0.000000 0.000000 41.769824 41.769824 41.769824 41.769824 41.769824 41.769824 41.769824 38.252033 38.252033 38.252033 38.252033 38.252033 38.252033 0.000000 0.000000 0.000000 0.000000 0.000000 36.731851 36.731851 36.731851 36.731851 36.731851 36.731851 36.731851 36.731851 36.731851 0.000000 0.000000 0.000000 0.000000 0.000000 0.000000 0.000000 0.000000 0.000000 0.000000 0.000000 0.000000 0.000000 0.000000 0.000000 0.000000 0.000000 0.000000 0.000000 0.000000 0.000000 0.000000 0.000000 0.000000 0.000000 0.000000 0.000000 0.000000 0.000000 0.000000 0.000000 0.000000 0.000000 0.000000 0.000000 0.000000 0.000000 0.000000 0.000000 0.000000 0.000000 0.000000 0.000000 0.000000 0.000000 14.517277 14.517277 14.517277 14.517277 14.517277 14.517277 14.517277 0.000000 0.000000 0.000000 0.000000 0.000000 0.000000 0.000000 0.000000 0.000000 0.000000 0.000000 0.000000 0.000000 0.000000 0.000000 0.000000 0.000000 0.000000 0.000000 0.000000
0.000000 0.000000 0.000000 0.000000 41.769824 41.769824 41.769824 41.769824 41.769824 41.769824 41.769824 38.252033 38.252033 38.252033 38.252033 38.252033 38.252033 0.000000 0.000000 0.000000 0.000000 0.000000 36.731851 36.731851 36.731851 36.731851 36.731851 36.731851 36.731851 36.731851 36.731851 0.000000 0.000000 0.000000 0.000000 0.000000 0.000000 0.000000 0.000000 0.000000 0.000000 0.000000 0.000000 0.000000 0.000000 0.000000 0.000000 0.000000 0.000000 0.000000 0.000000 0.000000 0.000000 0.000000 0.000000 0.000000 0.000000 0.000000 0.000000 0.000000 0.000000 0.000000 0.000000 0.000000 0.000000 0.000000 0.000000 0.000000 0.000000 0.000000 0.000000 0.000000 0.000000 0.000000 0.000000 0.000000 14.517277 14.517277 14.517277 14.517277 14.517277 14.517277 14.517277 0.000000 0.000000 0.000000 0.000000 0.000000 0.000000 0.000000 0.000000 0.000000 0.000000 0.000000 0.000000 0.000000 0.000000 0.000000 0.000000 0.000000 0.000000 0.000000 0.000000
0.000000 0.000000 0.000000 0.000000 41.769824 41.769824 41.769824 41.769824 41.769824 41.769824 41.769824 38.252033 38.252033 38.252033 38.252033 38.252033 38.252033 0.000000 0.000000 0.000000 0.000000 0.000000 36.731851 36.731851 36.731851 36.731851 36.731851 36.731851 36.731851 36.731851 36.731851 0.000000 0.000000 0.000000 0.000000 0.000000 0.000000 0.000000 0.000000 0.000000 0.000000 0.000000 0.000000 0.000000 0.000000 0.000000 0.000000 0.000000 0.000000 0.000000 0.000000 0.000000 0.000000 0.000000 0.000000 0.000000 0.000000 0.000000 0.000000 0.000000 0.000000 0.000000 0.000000 0.000000 0.000000 0.000000 0.000000 0.000000 0.000000 0.000000 0.000000 0.000000 0.000000 0.000000 0.000000 0.000000 14.517277 14.517277 14.517277 14.517277 14.517277 14.517277 14.517277 0.000000 0.000000 0.000000 0.000000 0.000000 0.000000 0.000000 0.000000 0.000000 0.000000 0.000000 0.000000 0.000000 0.000000 0.000000 0.000000 0.000000 0.000000 0.000000 0.000000
0.000000 0.000000 0.000000 0.000000 41.769824 41.769824 41.769824 41.769824 41.769824 41.769824 41.769824 38.252033 38.252033 38.252033 38.252033 38.252033 38.252033 0.000000 0.000000 0.000000 0.000000 0.000000 36.731851 36.731851 36.731851 36.731851 36.731851 36.731851 36.731851 36.731851 36.731851 0.000000 0.000000 0.000000 0.000000 0.000000 0.000000 0.000000 0.000000 0.000000 0.000000 0.000000 0.000000 0.000000 0.000000 0.000000 0.000000 0.000000 0.000000 0.000000 0.000000 0.000000 0.000000 0.000000 0.000000 0.000000 0.000000 0.000000 0.000000 0.000000 0.000000 0.000000 0.000000 0.000000 0.000000 0.000000 0.000000 0.000000 0.000000 0.000000 0.000000 0.000000 0.000000 0.000000 0.000000 0.000000 14.517277 14.517277 14.517277 14.517277 14.517277 14.517277 14.517277 0.000000 0.000000 0.000000 0.000000 0.000000 0.000000 0.000000 0.000000 0.000000 0.000000 0.000000 0.000000 0.000000 0.000000 0.000000 0.000000 0.000000 0.000000 0.000000 0.000000
0.000000 0.000000 0.000000 0.000000 41.769824 41.769824 41.769824 41.769824 41.769824 41.769824 41.769824 38.252033 38.252033 38.252033 38.252033 38.252033 38.252033 0.000000 0.000000 0.000000 0.000000 0.000000 36.731851 36.731851 36.731851 36.731851 36.731851 36.731851 36.731851 36.731851 36.731851 0.000000 0.000000 0.000000 0.000000 0.000000 0.000000 0.000000 0.000000 0.000000 0.000000 0.000000 0.000000 0.000000 0.000000 0.000000 0.000000 0.000000 0.000000 0.000000 0.000000 0.000000 0.000000 0.000000 0.000000 0.000000 0.000000 0.000000 0.000000 0.000000 0.000000 0.000000 0.000000 0.000000 0.000000 0.000000 0.000000 0.000000 0.000000 0.000000 0.000000 0.000000 0.000000 0.000000 0.000000 0.000000 14.517277 14.517277 14.517277 14.517277 14.517277 14.517277 14.517277 0.000000 0.000000 0.000000 0.000000 0.000000 0.000000 0.000000 0.000000 0.000000 0.000000 0.000000 0.000000 0.000000 0.000000 0.000000 0.000000 0.000000 0.000000 0.000000 0.000000
0.000000 0.000000 0.000000 0.000000 41.769824 41.769824 41.769824 41.769824 41.769824 41.769824 41.769824 38.252033 38.252033 38.252033 38.252033 38.252033 38.252033 0.000000 0.000000 0.000000 0.000000 0.000000 36.731851 36.731851 36.731851 36.731851 36.731851 36.731851 36.731851 36.731851 36.731851 0.000000 0.000000 0.000000 0.000000 0.000000 0.000000 0.000000 0.000000 0.000000 0.000000 0.000000 0.000000 0.000000 0.000000 0.000000 0.000000 0.000000 0.000000 0.000000 0.000000 0.000000 0.000000 0.000000 0.000000 0.000000 0.000000 0.000000 0.000000 0.000000 0.000000 0.000000 0.000000 0.000000 0.000000 0.000000 0.000000 0.000000 0.000000 0.000000 0.000000 0.000000 0.000000 0.000000 0.000000 0.000000 14.517277 14.517277 14.517277 14.517277 14.517277 14.517277 14.517277 0.000000 0.000000 0.000000 0.000000 0.000000 0.000000 0.000000 0.000000 0.000000 0.000000 0.000000 0.000000 0.000000 0.000000 0.000000 0.000000 0.000000 0.000000 0.000000 0.000000
0.000000 0.000000 0.000000 0.000000 41.769824 41.769824 41.769824 41.769824 41.769824 41.769824 41.769824 38.252033 38.252033 38.252033 38.252033 38.252033 38.252033 0.000000 0.000000 0.000000 0.000000 0.000000 36.731851 36.731851 36.731851 36.731851 36.731851 36.731851 36.731851 36.731851 36.731851 0.000000 0.000000 0.000000 0.000000 0.000000 0.000000 0.000000 0.000000 0.000000 0.000000 0.000000 0.000000 0.000000 0.000000 0.000000 0.000000 0.000000 0.000000 0.000000 0.000000 0.000000 0.000000 0.000000 0.000000 0.000000 0.000000 0.000000 0.000000 0.000000 0.000000 0.000000 0.000000 0.000000 0.000000 0.000000 0.000000 0.000000 0.000000 0.000000 0.000000 0.000000 0.000000 0.000000 0.000000 0.000000 14.517277 14.517277 14.517277 14.517277 14.517277 14.517277 14.517277 0.000000 0.000000 0.000000 0.000000 0.000000 0.000000 0.000000 0.000000 0.000000 0.000000 0.000000 0.000000 0.000000 0.000000 0.000000 0.000000 0.000000 0.000000 0.000000 0.000000
0.000000 0.000000 0.000000 0.000000 41.769824 41.769824 41.769824 41.769824 41.769824 41.769824 41.769824 38.252033 38.252033 38.252033 38.252033 38.252033 38.252033 0.000000 0.000000 0.000000 0.000000 0.000000 0.000000 0.000000 0.000000 0.000000 0.000000 0.000000 0.000000 0.000000 0.000000 0.000000 0.000000 0.000000 0.000000 0.000000 0.000000 0.000000 0.000000 0.000000 0.000000 0.000000 0.000000 0.000000 0.000000 0.000000 0.000000 0.000000 0.000000 0.000000 0.000000 0.000000 0.000000 0.000000 0.000000 0.000000 0.000000 0.000000 0.000000 0.000000 0.000000 0.000000 0.000000 0.000000 0.000000 0.000000 0.000000 0.000000 0.000000 0.000000 0.000000 0.000000 0.000000 0.000000 0.000000 0.000000 14.517277 14.517277 14.517277 14.517277 14.517277 14.517277 14.517277 0.000000 0.000000 0.000000 0.000000 0.000000 0.000000 0.000000 0.000000 0.000000 0.000000 0.000000 0.000000 0.000000 0.000000 0.000000 0.000000 0.000000 0.000000 0.000000 0.000000
0.000000 0.000000 0.000000 0.000000 41.769824 41.769824 41.769824 41.769824 41.769824 41.769824 41.769824 38.252033 38.252033 38.252033 38.252033 38.252033 38.252033 0.000000 0.000000 0.000000 0.000000 0.000000 0.000000 0.000000 0.000000 0.000000 0.000000 0.000000 0.000000 0.000000 0.000000 0.000000 0.000000 0.000000 0.000000 0.000000 0.000000 0.000000 0.000000 0.000000 0.000000 0.000000 0.000000 0.000000 0.000000 0.000000 0.000000 0.000000 0.000000 0.000000 0.000000 0.000000 0.000000 0.000000 0.000000 0.000000 0.000000 0.000000 0.000000 0.000000 0.000000 0.000000 0.000000 0.000000 0.000000 0.000000 0.000000 0.000000 0.000000 0.000000 0.000000 0.000000 0.000000 0.000000 0.000000 0.000000 0.000000 0.000000 0.000000 0.000000 0.000000 0.000000 0.000000 0.000000 0.000000 0.000000 0.000000 0.000000 0.000000 0.000000 0.000000 0.000000 0.000000 0.000000 0.000000 0.000000 0.000000 0.000000 0.000000 0.000000 0.000000 0.000000 0.000000
0.000000 0.000000 0.000000 0.000000 41.769824 41.769824 41.769824 41.769824 41.769824 41.769824 41.769824 38.252033 38.252033 38.252033 38.252033 38.252033 38.252033 0.000000 0.000000 0.000000 0.000000 0.000000 0.000000 0.000000 0.000000 0.000000 0.000000 0.000000 0.000000 0.000000 0.000000 0.000000 0.000000 0.000000 0.000000 0.000000 0.000000 0.000000 0.000000 0.000000 0.000000 0.000000 0.000000 0.000000 0.000000 0.000000 0.000000 0.000000 0.000000 0.000000 0.000000 0.000000 0.000000 0.000000 0.000000 0.000000 0.000000 0.000000 0.000000 0.000000 0.000000 0.000000 0.000000 0.000000 0.000000 0.000000 0.000000 0.000000 0.000000 0.000000 0.000000 0.000000 0.000000 0.000000 0.000000 0.000000 0.000000 0.000000 0.000000 0.000000 0.000000 0.000000 0.000000 0.000000 0.000000 0.000000 0.000000 0.000000 0.000000 0.000000 0.000000 0.000000 0.000000 0.000000 0.000000 0.000000 0.000000 0.000000 0.000000 0.000000 0.000000 0.000000 0.000000
0.000000 0.000000 0.000000 0.000000 41.769824 41.769824 41.769824 41.769824 41.769824 41.769824 41.769824 38.252033 38.252033 38.252033 38.252033 38.252033 38.252033 0.000000 0.000000 0.000000 0.000000 0.000000 0.000000 0.000000 0.000000 0.000000 0.000000 0.000000 0.000000 0.000000 0.000000 0.000000 0.000000 0.000000 0.000000 0.000000 0.000000 0.000000 0.000000 0.000000 0.000000 0.000000 0.000000 0.000000 0.000000 0.000000 0.000000 0.000000 0.000000 0.000000 0.000000 0.000000 0.000000 0.000000 0.000000 0.000000 0.000000 0.000000 0.000000 0.000000 0.000000 0.000000 0.000000 0.000000 0.000000 0.000000 0.000000 0.000000 0.000000 0.000000 0.000000 0.000000 0.000000 31.322490 31.322490 31.322490 31.322490 31.322490 31.322490 31.322490 31.322490 31.322490 31.322490 31.322490 31.322490 0.000000 0.000000 0.000000 0.000000 0.000000 0.000000 0.000000 0.000000 0.000000 0.000000 0.000000 0.000000 0.000000 0.000000 0.000000 0.000000 0.000000 0.000000
0.000000 0.000000 0.000000 0.000000 41.769824 41.769824 41.769824 41.769824 41.769824 41.769824 41.769824 38.252033 38.252033 38.252033 38.252033 38.252033 38.252033 0.000000 0.000000 0.000000 0.000000 0.000000 0.000000 0.000000 0.000000 0.000000 0.000000 0.000000 0.000000 0.000000 0.000000 0.000000 0.000000 0.000000 0.000000 0.000000 0.000000 0.000000 0.000000 0.000000 0.000000 0.000000 0.000000 0.000000 0.000000 0.000000 0.000000 0.000000 0.000000 0.000000 0.000000 0.000000 0.000000 0.000000 0.000000 0.000000 0.000000 0.000000 0.000000 0.000000 0.000000 0.000000 0.000000 0.000000 0.000000 0.000000 0.000000 0.000000 0.000000 0.000000 0.000000 0.000000 0.000000 31.322490 31.322490 31.322490 31.322490 31.322490 31.322490 31.322490 31.322490 31.322490 31.322490 31.322490 31.322490 0.000000 0.000000 0.000000 0.000000 0.000000 0.000000 0.000000 0.000000 0.000000 0.000000 0.000000 0.000000 0.000000 0.000000 0.000000 0.000000 0.000000 0.000000
0.000000 0.000000 0.000000 0.000000 41.769824 41.769824 41.769824 41.769824 41.769824 41.769824 41.769824 38.252033 38.252033 38.252033 38.252033 38.252033 38.252033 0.000000 0.000000 0.000000 0.000000 0.000000 0.000000 0.000000 0.000000 0.000000 0.000000 0.000000 0.000000 0.000000 0.000000 0.000000 0.000000 0.000000 0.000000 0.000000 0.000000 0.000000 0.000000 0.000000 0.000000 0.000000 0.000000 0.000000 0.000000 0.000000 0.000000 0.000000 0.000000 0.000000 0.000000 0.000000 0.000000 0.000000 0.000000 0.000000 0.000000 0.000000 0.000000 0.000000 0.000000 0.000000 0.000000 0.000000 0.000000 0.000000 0.000000 0.000000 0.000000 0.000000 0.000000 0.000000 0.000000 31.322490 31.322490 31.322490 31.322490 31.322490 31.322490 31.322490 31.322490 31.322490 31.322490 31.322490 31.322490 0.000000 0.000000 0.000000 0.000000 0.000000 0.000000 0.000000 0.000000 0.000000 0.000000 0.000000 0.000000 0.000000 0.000000 0.000000 0.000000 0.000000 0.000000
0.000000 0.000000 0.000000 0.000000 41.769824 41.769824 41.769824 41.769824 41.769824 41.769824 41.769824 38.252033 38.252033 38.252033 38.252033 38.252033 38.252033 0.000000 0.000000 0.000000 0.000000 0.000000 0.000000 0.000000 0.000000 0.000000 0.000000 0.000000 0.000000 0.000000 0.000000 0.000000 0.000000 0.000000 0.000000 0.000000 0.000000 0.000000 0.000000 0.000000 0.000000 0.000000 0.000000 0.000000 0.000000 0.000000 0.000000 0.000000 0.000000 0.000000 0.000000 0.000000 0.000000 0.000000 0.000000 0.000000 0.000000 0.000000 0.000000 0.000000 0.000000 0.000000 0.000000 0.000000 0.000000 0.000000 0.000000 0.000000 0.000000 0.000000 0.000000 0.000000 0.000000 31.322490 31.322490 31.322490 31.322490 31.322490 31.322490 31.322490 31.322490 31.322490 31.322490 31.322490 31.322490 0.000000 0.000000 0.000000 0.000000 0.000000 0.000000 0.000000 0.000000 0.000000 0.000000 0.000000 0.000000 0.000000 0.000000 0.000000 0.000000 0.000000 0.000000
0.000000 0.000000 0.000000 0.000000 12.219907 12.219907 12.219907 12.219907 12.219907 12.219907 12.219907 11.190765 11.190765 11.190765 11.190765 11.190765 11.190765 0.000000 0.000000 0.000000 0.000000 0.000000 0.000000 0.000000 0.000000 0.000000 0.000000 0.000000 0.000000 0.000000 0.000000 0.000000 0.000000 0.000000 0.000000 0.000000 0.000000 0.000000 0.000000 0.000000 0.000000 0.000000 0.000000 0.000000 0.000000 0.000000 0.000000 0.000000 0.000000 0.000000 0.000000 0.000000 0.000000 0.000000 0.000000 0.000000 0.000000 0.000000 0.000000 0.000000 0.000000 0.000000 0.000000 0.000000 0.000000 0.000000 0.000000 0.000000 0.000000 0.000000 0.000000 0.000000 0.000000 31.322490 31.322490 31.322490 31.322490 31.322490 31.322490 31.322490 31.322490 31.322490 31.322490 31.322490 31.322490 0.000000 0.000000 0.000000 0.000000 0.000000 0.000000 0.000000 0.000000 0.000000 0.000000 0.000000 0.000000 0.000000 0.000000 0.000000 0.000000 0.000000 0.000000
0.000000 0.000000 0.000000 0.000000 12.219907 12.219907 12.219907 12.219907 12.219907 12.219907 12.219907 11.190765 11.190765 11.190765 11.190765 11.190765 11.190765 0.000000 0.000000 0.000000 0.000000 0.000000 29.728572 29.728572 29.728572 29.728572 29.728572 29.728572 29.728572 29.728572 29.728572 0.000000 0.000000 0.000000 0.000000 0.000000 0.000000 0.000000 0.000000 0.000000 0.000000 0.000000 0.000000 0.000000 0.000000 0.000000 0.000000 0.000000 0.000000 0.000000 0.000000 0.000000 0.000000 0.000000 0.000000 0.000000 0.000000 0.000000 0.000000 0.000000 0.000000 0.000000 0.000000 0.000000 0.000000 0.000000 0.000000 0.000000 0.000000 0.000000 0.000000 0.000000 0.000000 31.322490 31.322490 31.322490 31.322490 31.322490 31.322490 31.322490 31.322490 31.322490 31.322490 31.322490 31.322490 0.000000 0.000000 0.000000 0.000000 0.000000 0.000000 0.000000 0.000000 0.000000 0.000000 0.000000 0.000000 0.000000 0.000000 0.000000 0.000000 0.000000 0.000000
0.000000 0.000000 0.000000 0.000000 12.219907 12.219907 12.219907 12.219907 12.219907 12.219907 12.219907 11.190765 11.190765 11.190765 11.190765 11.190765 11.190765 0.000000 0.000000 0.000000 0.000000 0.000000 29.728572 29.728572 29.728572 29.728572 29.728572 29.728572 29.728572 29.728572 29.728572 0.000000 0.000000 0.000000 0.000000 0.000000 0.000000 0.000000 0.000000 0.000000 0.000000 0.000000 0.000000 0.000000 0.000000 0.000000 0.000000 0.000000 0.000000 0.000000 0.000000 0.000000 0.000000 0.000000 0.000000 0.000000 0.000000 0.000000 0.000000 0.000000 0.000000 0.000000 0.000000 0.000000 0.000000 0.000000 0.000000 0.000000 0.000000 0.000000 0.000000 0.000000 0.000000 31.322490 31.322490 31.322490 31.322490 31.322490 31.322490 31.322490 31.322490 31.322490 31.322490 31.322490 31.322490 0.000000 0.000000 0.000000 0.000000 0.000000 0.000000 0.000000 0.000000 0.000000 0.000000 0.000000 0.000000 0.000000 0.000000 0.000000 0.000000 0.000000 0.000000
0.000000 0.000000 0.000000 0.000000 12.219907 12.219907 12.219907 12.219907 12.219907 12.219907 12.219907 11.190765 11.190765 11.190765 11.190765 11.190765 11.190765 0.000000 0.000000 0.000000 0.000000 0.000000 29.728572 29.728572 29.728572 29.728572 29.728572 29.728572 29.728572 29.728572 29.728572 0.000000 0.000000 0.000000 0.000000 0.000000 0.000000 0.000000 0.000000 0.000000 0.000000 0.000000 0.000000 0.000000 0.000000 0.000000 0.000000 0.000000 0.000000 0.000000 0.000000 0.000000 0.000000 0.000000 0.000000 0.000000 0.000000 0.000000 0.000000 0.000000 0.000000 0.000000 0.000000 0.000000 0.000000 0.000000 0.000000 0.000000 0.000000 0.000000 0.000000 0.000000 0.000000 31.322490 31.322490 31.322490 31.322490 31.322490 31.322490 31.322490 31.322490 31.322490 31.322490 31.322490 31.322490 0.000000 0.000000 0.000000 0.000000 0.000000 0.000000 0.000000 0.000000 0.000000 0.000000 0.000000 0.000000 0.000000 0.000000 0.000000 0.000000 0.000000 0.000000
0.000000 0.000000 0.000000 0.000000 12.219907 12.219907 12.219907 12.219907 12.219907 12.219907 12.219907 11.190765 11.190765 11.190765 11.190765 11.190765 11.190765 0.000000 0.000000 0.000000 0.000000 0.000000 29.728572 29.728572 29.728572 29.728572 29.728572 29.728572 29.728572 29.728572 29.728572 0.000000 0.000000 0.000000 0.000000 0.000000 0.000000 0.000000 0.000000 0.000000 0.000000 0.000000 0.000000 0.000000 0.000000 0.000000 0.000000 0.000000 0.000000 0.000000 0.000000 0.000000 0.000000 0.000000 0.000000 0.000000 0.000000 0.000000 0.000000 0.000000 0.000000 0.000000 0.000000 0.000000 0.000000 0.000000 0.000000 0.000000 0.000000 0.000000 0.000000 0.000000 0.000000 31.322490 31.322490 31.322490 31.322490 31.322490 31.322490 31.322490 31.322490 31.322490 31.322490 31.322490 31.322490 0.000000 0.000000 0.000000 0.000000 0.000000 0.000000 0.000000 0.000000 0.000000 0.000000 0.000000 0.000000 0.000000 0.000000 0.000000 0.000000 0.000000 0.000000
0.000000 0.000000 0.000000 0.000000 12.219907 12.219907 12.219907 12.219907 12.219907 12.219907 12.219907 11.190765 11.190765 11.190765 11.190765 11.190765 11.190765 0.000000 0.000000 0.000000 0.000000 0.000000 29.728572 29.728572 29.728572 29.728572 29.728572 29.728572 29.728572 29.728572 29.728572 0.000000 0.000000 0.000000 0.000000 0.000000 0.000000 0.000000 0.000000 0.000000 0.000000 0.000000 0.000000 0.000000 0.000000 0.000000 0.000000 0.000000 0.000000 0.000000 0.000000 0.000000 33.326541 33.326541 33.326541 33.326541 33.326541 33.326541 33.326541 33.326541 33.326541 33.326541 33.326541 33.326541 0.000000 0.000000 0.000000 0.000000 0.000000 0.000000 0.000000 0.000000 0.000000 31.322490 31.322490 31.322490 31.322490 31.322490 31.322490 31.322490 31.322490 31.322490 31.322490 31.322490 31.322490 0.000000 0.000000 0.000000 0.000000 0.000000 0.000000 0.000000 0.000000 0.000000 0.000000 0.000000 0.000000 0.000000 0.000000 0.000000 0.000000 0.000000 0.000000
0.000000 0.000000 0.000000 0.000000 12.219907 12.219907 12.219907 12.219907 12.219907 12.219907 12.219907 11.190765 11.190765 11.190765 11.190765 11.190765 11.190765 0.000000 0.000000 0.000000 0.000000 0.000000 29.728572 29.728572 29.728572 29.728572 29.728572 29.728572 29.728572 29.728572 29.728572 0.000000 0.000000 0.000000 0.000000 0.000000 0.000000 0.000000 0.000000 0.000000 0.000000 0.000000 0.000000 0.000000 0.000000 0.000000 0.000000 0.000000 0.000000 0.000000 0.000000 0.000000 33.326541 33.326541 33.326541 33.326541 33.326541 33.326541 33.326541 33.326541 33.326541 33.326541 33.326541 33.326541 0.000000 0.000000 0.000000 0.000000 0.000000 0.000000 0.000000 0.000000 0.000000 31.322490 31.322490 31.322490 31.322490 31.322490 31.322490 31.322490 31.322490 31.322490 31.322490 31.322490 31.322490 0.000000 0.000000 0.000000 0.000000 0.000000 0.000000 0.000000 0.000000 0.000000 0.000000 0.000000 0.000000 0.000000 0.000000 0.000000 0.000000 0.000000 0.000000
0.000000 0.000000 0.000000 0.000000 14.392998 14.392998 14.392998 14.392998 14.392998 14.392998 14.392998 13.180841 13.180841 13.180841 13.180841 13.180841 13.180841 0.000000 0.000000 0.000000 0.000000 0.000000 29.728572 29.728572 29.728572 29.728572 29.728572 29.728572 29.728572 29.728572 29.728572 0.000000 0.000000 0.000000 0.000000 0.000000 0.000000 0.000000 0.000000 0.000000 0.000000 0.000000 0.000000 0.000000 0.000000 0.000000 0.000000 0.000000 0.000000 0.000000 0.000000 0.000000 33.326541 33.326541 33.326541 33.326541 33.326541 33.326541 33.326541 33.326541 33.326541 33.326541 33.326541 33.326541 0.000000 0.000000 0.000000 0.000000 0.000000 0.000000 0.000000 0.000000 0.000000 25.663846 25.663846 25.663846 25.663846 25.663846 25.663846 25.663846 25.663846 25.663846 25.663846 25.663846 25.663846 0.000000 0.000000 0.000000 0.000000 0.000000 0.000000 0.000000 0.000000 0.000000 0.000000 0.000000 0.000000 0.000000 0.000000 0.000000 0.000000 0.000000 0.000000
0.000000 0.000000 0.000000 0.000000 14.392998 14.392998 14.392998 14.392998 14.392998 14.392998 14.392998 13.180841 13.180841 13.180841 13.180841 13.180841 13.180841 0.000000 0.000000 0.000000 0.000000 0.000000 29.728572 29.728572 29.728572 29.728572 29.728572 29.728572 29.728572 29.728572 29.728572 0.000000 0.000000 0.000000 0.000000 0.000000 0.000000 0.000000 0.000000 0.000000 0.000000 0.000000 0.000000 0.000000 0.000000 0.000000 0.000000 0.000000 0.000000 0.000000 0.000000 0.000000 33.326541 33.326541 33.326541 33.326541 33.326541 33.326541 33.326541 33.326541 33.326541 33.326541 33.326541 33.326541 0.000000 0.000000 0.000000 0.000000 0.000000 0.000000 0.000000 0.000000 0.000000 25.663846 25.663846 25.663846 25.663846 25.663846 25.663846 25.663846 25.663846 25.663846 25.663846 25.663846 25.663846 0.000000 0.000000 0.000000 0.000000 0.000000 0.000000 0.000000 0.000000 0.000000 0.000000 0.000000 0.000000 0.000000 0.000000 0.000000 0.000000 0.000000 0.000000
0.000000 0.000000 0.000000 0.000000 14.392998 14.392998 14.392998 14.392998 14.392998 14.392998 14.392998 13.180841 13.180841 13.180841 13.180841 13.180841 13.180841 0.000000 0.000000 0.000000 0.000000 0.000000 29.728572 29.728572 29.728572 29.728572 29.728572 29.728572 29.728572 29.728572 29.728572 0.000000 0.000000 0.000000 0.000000 0.000000 0.000000 0.000000 0.000000 0.000000 0.000000 0.000000 0.000000 0.000000 0.000000 0.000000 0.000000 0.000000 0.000000 0.000000 0.000000 0.000000 33.326541 33.326541 33.326541 33.326541 33.326541 33.326541 33.326541 33.326541 33.326541 33.326541 33.326541 33.326541 0.000000 0.000000 0.000000 0.000000 0.000000 0.000000 0.000000 0.000000 0.000000 25.663846 25.663846 25.663846 25.663846 25.663846 25.663846 25.663846 25.663846 25.663846 25.663846 25.663846 25.663846 0.000000 0.000000 0.000000 0.000000 0.000000 15.788472 15.788472 15.788472 15.788472 15.788472 15.788472 15.788472 15.788472 15.788472 0.000000 0.000000 0.000000 0.000000
0.000000 0.000000 0.000000 0.000000 14.392998 14.392998 14.392998 14.392998 14.392998 14.392998 14.392998 13.180841 13.180841 13.180841 13.180841 13.180841 13.180841 0.000000 0.000000 0.000000 0.000000 0.000000 29.728572 29.728572 29.728572 29.728572 29.728572 29.728572 29.728572 29.728572 29.728572 0.000000 0.000000 0.000000 0.000000 0.000000 0.000000 0.000000 0.000000 0.000000 0.000000 0.000000 0.000000 0.000000 0.000000 0.000000 0.000000 0.000000 0.000000 0.000000 0.000000 0.000000 33.326541 33.326541 33.326541 33.326541 33.326541 33.326541 33.326541 33.326541 33.326541 33.326541 33.326541 33.326541 0.000000 0.000000 0.000000 0.000000 0.000000 0.000000 0.000000 0.000000 0.000000 25.663846 25.663846 25.663846 25.663846 25.663846 25.663846 25.663846 25.663846 25.663846 25.663846 25.663846 25.663846 0.000000 0.000000 0.000000 0.000000 0.000000 15.788472 15.788472 15.788472 15.788472 15.788472 15.788472 15.788472 15.788472 15.788472 0.000000 0.000000 0.000000 0.000000
0.000000 0.000000 0.000000 0.000000 14.392998 14.392998 14.392998 14.392998 14.392998 14.392998 14.392998 13.180841 13.180841 13.180841 13.180841 13.180841 13.180841 0.000000 0.000000 0.000000 0.000000 0.000000 29.728572 29.728572 29.728572 29.728572 29.728572 29.728572 29.728572 29.728572 29.728572 0.000000 0.000000 0.000000 0.000000 0.000000 0.000000 0.000000 0.000000 0.000000 0.000000 0.000000 0.000000 0.000000 0.000000 0.000000 0.000000 0.000000 0.000000 0.000000 0.000000 0.000000 33.326541 33.326541 33.326541 33.326541 33.326541 33.326541 33.326541 33.326541 33.326541 33.326541 33.326541 33.326541 0.000000 0.000000 0.000000 0.000000 0.000000 0.000000 0.000000 0.000000 0.000000 25.663846 25.663846 25.663846 25.663846 25.663846 25.663846 25.663846 25.663846 25.663846 25.663846 25.663846 25.663846 0.000000 0.000000 0.000000 0.000000 0.000000 15.788472 15.788472 15.788472 15.788472 15.788472 15.788472 15.788472 15.788472 15.788472 0.000000 0.000000 0.000000 0.000000
0.000000 0.000000 0.000000 0.000000 14.392998 14.392998 14.392998 14.392998 14.392998 14.392998 14.392998 13.180841 13.180841 13.180841 13.180841 13.180841 13.180841 0.000000 0.000000 0.000000 0.000000 0.000000 29.728572 29.728572 29.728572 29.728572 29.728572 29.728572 29.728572 29.728572 29.728572 0.000000 0.000000 0.000000 0.000000 0.000000 0.000000 0.000000 0.000000 0.000000 0.000000 0.000000 0.000000 0.000000 0.000000 0.000000 0.000000 0.000000 0.000000 0.000000 0.000000 0.000000 33.326541 33.326541 33.326541 33.326541 33.326541 33.326541 33.326541 33.326541 33.326541 33.326541 33.326541 33.326541 0.000000 0.000000 0.000000 0.000000 0.000000 0.000000 0.000000 0.000000 0.000000 25.663846 25.663846 25.663846 25.663846 25.663846 25.663846 25.663846 25.663846 25.663846 25.663846 25.663846 25.663846 0.000000 0.000000 0.000000 0.000000 0.000000 15.788472 15.788472 15.788472 15.788472 15.788472 15.788472 15.788472 15.788472 15.788472 0.000000 0.000000 0.000000 0.000000
0.000000 0.000000 0.000000 0.000000 14.392998 14.392998 14.392998 14.392998 14.392998 14.392998 14.392998 13.180841 13.180841 13.180841 13.180841 13.180841 13.180841 0.000000 0.000000 0.000000 0.000000 0.000000 29.728572 29.728572 29.728572 29.728572 29.728572 29.728572 29.728572 29.728572 29.728572 0.000000 0.000000 0.000000 0.000000 0.000000 0.000000 0.000000 0.000000 0.000000 0.000000 0.000000 0.000000 0.000000 0.000000 0.000000 0.000000 0.000000 0.000000 0.000000 0.000000 0.000000 33.326541 33.326541 33.326541 33.326541 33.326541 33.326541 33.326541 33.326541 33.326541 33.326541 33.326541 33.326541 0.000000 0.000000 0.000000 0.000000 0.000000 0.000000 0.000000 0.000000 0.000000 25.663846 25.663846 25.663846 25.663846 25.663846 25.663846 25.663846 25.663846 25.663846 25.663846 25.663846 25.663846 0.000000 0.000000 0.000000 0.000000 0.000000 15.788472 15.788472 15.788472 15.788472 15.788472 15.788472 15.788472 15.788472 15.788472 0.000000 0.000000 0.000000 0.000000
0.000000 0.000000 0.000000 0.000000 14.392998 14.392998 14.392998 14.392998 14.392998 14.392998 14.392998 13.180841 13.180841 13.180841 13.180841 13.180841 13.180841 0.000000 0.000000 0.000000 0.000000 0.000000 29.728572 29.728572 29.728572 29.728572 29.728572 29.728572 29.728572 29.728572 29.728572 0.000000 0.000000 0.000000 0.000000 0.000000 0.000000 0.000000 0.000000 0.000000 0.000000 0.000000 0.000000 0.000000 0.000000 0.000000 0.000000 0.000000 0.000000 0.000000 0.000000 0.000000 33.326541 33.326541 33.326541 33.326541 33.326541 33.326541 33.326541 33.326541 33.326541 33.326541 33.326541 33.326541 0.000000 0.000000 0.000000 0.000000 0.000000 0.000000 0.000000 0.000000 0.000000 25.663846 25.663846 25.663846 25.663846 25.663846 25.663846 25.663846 25.663846 25.663846 25.663846 25.663846 25.663846 0.000000 0.000000 0.000000 0.000000 0.000000 15.788472 15.788472 15.788472 15.788472 15.788472 15.788472 15.788472 15.788472 15.788472 0.000000 0.000000 0.000000 0.000000
0.000000 0.000000 0.000000 0.000000 14.392998 14.392998 14.392998 14.392998 14.392998 14.392998 14.392998 13.180841 13.180841 13.180841 13.180841 13.180841 13.180841 0.000000 0.000000 0.000000 0.000000 0.000000 29.728572 29.728572 29.728572 29.728572 29.728572 29.728572 29.728572 29.728572 29.728572 0.000000 0.000000 0.000000 0.000000 0.000000 0.000000 0.000000 0.000000 0.000000 0.000000 0.000000 0.000000 0.000000 0.000000 0.000000 0.000000 0.000000 0.000000 0.000000 0.000000 0.000000 33.326541 33.326541 33.326541 33.326541 33.326541 33.326541 33.326541 33.326541 33.326541 33.326541 33.326541 33.326541 0.000000 0.000000 0.000000 0.000000 0.000000 0.000000 0.000000 0.000000 0.000000 25.663846 25.663846 25.663846 25.663846 25.663846 25.663846 25.663846 25.663846 25.663846 25.663846 25.663846 25.663846 0.000000 0.000000 0.000000 0.000000 0.000000 15.788472 15.788472 15.788472 15.788472 15.788472 15.788472 15.788472 15.788472 15.788472 0.000000 0.000000 0.000000 0.000000
0.000000 0.000000 0.000000 0.000000 0.000000 0.000000 0.000000 0.000000 0.000000 0.000000 0.000000 0.000000 0.000000 0.000000 0.000000 0.000000 0.000000 0.000000 0.000000 0.000000 0.000000 0.000000 0.000000 0.000000 0.000000 0.000000 0.000000 0.000000 0.000000 0.000000 0.000000 0.000000 0.000000 0.000000 0.000000 0.000000 0.000000 0.000000 0.000000 0.000000 0.000000 0.000000 0.000000 0.000000 0.000000 0.000000 0.000000 0.000000 0.000000 0.000000 0.000000 0.000000 0.000000 0.000000 0.000000 0.000000 0.000000 0.000000 0.000000 0.000000 0.000000 0.000000 0.000000 0.000000 0.000000 0.000000 0.000000 0.000000 0.000000 0.000000 0.000000 0.000000 0.000000 0.000000 0.000000 0.000000 0.000000 0.000000 0.000000 0.000000 0.000000 0.000000 0.000000 0.000000 0.000000 0.000000 0.000000 0.000000 0.000000 0.000000 0.000000 0.000000 0.000000 0.000000 0.000000 0.000000 0.000000 0.000000 0.000000 0.000000 0.000000 0.000000 0.000000
0.000000 0.000000 0.000000 0.000000 0.000000 0.000000 0.000000 0.000000 0.000000 0.000000 0.000000 0.000000 0.000000 0.000000 0.000000 0.000000 0.000000 0.000000 0.000000 0.000000 0.000000 0.000000 0.000000 0.000000 0.000000 0.000000 0.000000 0.000000 0.000000 0.000000 0.000000 0.000000 0.000000 0.000000 0.000000 0.000000 0.000000 0.000000 0.000000 0.000000 0.000000 0.000000 0.000000 0.000000 0.000000 0.000000 0.000000 0.000000 0.000000 0.000000 0.000000 0.000000 0.000000 0.000000 0.000000 0.000000 0.000000 0.000000 0.000000 0.000000 0.000000 0.000000 0.000000 0.000000 0.000000 0.000000 0.000000 0.000000 0.000000 0.000000 0.000000 0.000000 0.000000 0.000000 0.000000 0.000000 0.000000 0.000000 0.000000 0.000000 0.000000 0.000000 0.000000 0.000000 0.000000 0.000000 0.000000 0.000000 0.000000 0.000000 0.000000 0.000000 0.000000 0.000000 0.000000 0.000000 0.000000 0.000000 0.000000 0.000000 0.000000 0.000000 0.000000
0.000000 0.000000 0.000000 0.000000 0.000000 0.000000 0.000000 0.000000 0.000000 0.000000 0.000000 0.000000 0.000000 0.000000 0.000000 0.000000 0.000000 0.000000 0.000000 0.000000 0.000000 0.000000 0.000000 0.000000 0.000000 0.000000 0.000000 0.000000 0.000000 0.000000 0.000000 0.000000 0.000000 0.000000 0.000000 0.000000 0.000000 0.000000 0.000000 0.000000 0.000000 0.000000 0.000000 0.000000 0.000000 0.000000 0.000000 0.000000 0.000000 0.000000 0.000000 0.000000 0.000000 0.000000 0.000000 0.000000 0.000000 0.000000 0.000000 0.000000 0.000000 0.000000 0.000000 0.000000 0.000000 0.000000 0.000000 0.000000 0.000000 0.000000 0.000000 0.000000 0.000000 0.000000 0.000000 0.000000 0.000000 0.000000 0.000000 0.000000 0.000000 0.000000 0.000000 0.000000 0.000000 0.000000 0.000000 0.000000 0.000000 0.000000 0.000000 0.000000 0.000000 0.000000 0.000000 0.000000 0.000000 0.000000 0.000000 0.000000 0.000000 0.000000 0.000000
0.000000 0.000000 0.000000 0.000000 0.000000 0.000000 0.000000 0.000000 0.000000 0.000000 0.000000 0.000000 0.000000 0.000000 0.000000 0.000000 0.000000 0.000000 0.000000 0.000000 0.000000 0.000000 0.000000 0.000000 0.000000 0.000000 0.000000 0.000000 0.000000 0.000000 0.000000 0.000000 0.000000 0.000000 0.000000 0.000000 0.000000 0.000000 0.000000 0.000000 0.000000 0.000000 0.000000 0.000000 0.000000 0.000000 0.000000 0.000000 0.000000 0.000000 0.000000 0.000000 0.000000 0.000000 0.000000 0.000000 0.000000 0.000000 0.000000 0.000000 0.000000 0.000000 0.000000 0.000000 0.000000 0.000000 0.000000 0.000000 0.000000 0.000000 0.000000 0.000000 0.000000 0.000000 0.000000 0.000000 0.000000 0.000000 0.000000 0.000000 0.000000 0.000000 0.000000 0.000000 0.000000 0.000000 0.000000 0.000000 0.000000 0.000000 0.000000 0.000000 0.000000 0.000000 0.000000 0.000000 0.000000 0.000000 0.000000 0.000000 0.000000 0.000000 0.000000
