0.000000 0.000000 0.000000 0.000000 0.000000 0.000000 0.000000 0.000000 0.000000 0.000000 0.000000 0.000000 0.000000 0.000000 0.000000 0.000000 0.000000 0.000000 0.000000 0.000000 0.000000 0.000000 0.000000 0.000000 0.000000 0.000000 0.000000 0.000000 0.000000 0.000000 0.000000 0.000000 0.000000 0.000000 0.000000 0.000000 0.000000 0.000000 0.000000 0.000000 0.000000 0.000000 0.000000 0.000000 0.000000 0.000000 0.000000 0.000000 0.000000 0.000000 0.000000 0.000000 0.000000 0.000000 0.000000 0.000000 0.000000 0.000000 0.000000 0.000000 0.000000 0.000000 0.000000 0.000000 0.000000 0.000000 0.000000 0.000000 0.000000 0.000000 0.000000 0.000000 0.000000 0.000000 0.000000 0.000000 0.000000 0.000000 0.000000 0.000000 0.000000 0.000000 0.000000 0.000000 0.000000 0.000000 0.000000 0.000000 0.000000 0.000000 0.000000 0.000000 0.000000 0.000000 0.000000 0.000000 0.000000 0.000000 0.000000 0.000000 0.000000 0.000000 0.000000
0.000000 0.000000 0.000000 0.000000 0.000000 0.000000 0.000000 0.000000 0.000000 0.000000 0.000000 0.000000 0.000000 0.000000 0.000000 0.000000 0.000000 0.000000 0.000000 0.000000 0.000000 0.000000 0.000000 0.000000 0.000000 0.000000 0.000000 0.000000 0.000000 0.000000 0.000000 0.000000 0.000000 0.000000 0.000000 0.000000 0.000000 0.000000 0.000000 0.000000 0.000000 0.000000 0.000000 0.000000 0.000000 0.000000 0.000000 0.000000 0.000000 0.000000 0.000000 0.000000 0.000000 0.000000 0.000000 0.000000 0.000000 0.000000 0.000000 0.000000 0.000000 0.000000 0.000000 0.000000 0.000000 0.000000 0.000000 0.000000 0.000000 0.000000 0.000000 0.000000 0.000000 0.000000 0.000000 0.000000 0.000000 0.000000 0.000000 0.000000 0.000000 0.000000 0.000000 0.000000 0.000000 0.000000 0.000000 0.000000 0.000000 0.000000 0.000000 0.000000 0.000000 0.000000 0.000000 0.000000 0.000000 0.000000 0.000000 0.000000 0.000000 0.000000 0.000000
0.000000 0.000000 0.000000 0.000000 0.000000 0.000000 0.000000 0.000000 0.000000 0.000000 0.000000 0.000000 0.000000 0.000000 0.000000 0.000000 0.000000 0.000000 0.000000 0.000000 0.000000 0.000000 0.000000 0.000000 0.000000 0.000000 0.000000 0.000000 0.000000 0.000000 0.000000 0.000000 0.000000 0.000000 0.000000 0.000000 0.000000 0.000000 0.000000 0.000000 0.000000 0.000000 0.000000 0.000000 0.000000 0.000000 0.000000 0.000000 0.000000 0.000000 0.000000 0.000000 0.000000 0.000000 0.000000 0.000000 0.000000 0.000000 0.000000 0.000000 0.000000 0.000000 0.000000 0.000000 0.000000 0.000000 0.000000 0.000000 0.000000 0.000000 0.000000 0.000000 0.000000 0.000000 0.000000 0.000000 0.000000 0.000000 0.000000 0.000000 0.000000 0.000000 0.000000 0.000000 0.000000 0.000000 0.000000 0.000000 0.000000 0.000000 0.000000 0.000000 0.000000 0.000000 0.000000 0.000000 0.000000 0.000000 0.000000 0.000000 0.000000 0.000000 0.000000
0.000000 0.000000 0.000000 0.000000 0.000000 0.000000 0.000000 0.000000 0.000000 0.000000 0.000000 0.000000 0.000000 0.000000 0.000000 0.000000 0.000000 0.000000 0.000000 0.000000 0.000000 0.000000 0.000000 0.000000 0.000000 0.000000 0.000000 0.000000 0.000000 0.000000 0.000000 0.000000 0.000000 0.000000 0.000000 0.000000 0.000000 0.000000 0.000000 0.000000 0.000000 0.000000 0.000000 0.000000 0.000000 0.000000 0.000000 0.000000 0.000000 0.000000 0.000000 0.000000 0.000000 0.000000 0.000000 0.000000 0.000000 0.000000 0.000000 0.000000 0.000000 0.000000 0.000000 0.000000 0.000000 0.000000 0.000000 0.000000 0.000000 0.000000 0.000000 0.000000 0.000000 0.000000 0.000000 0.000000 0.000000 0.000000 0.000000 0.000000 0.000000 0.000000 0.000000 0.000000 0.000000 0.000000 0.000000 0.000000 0.000000 0.000000 0.000000 0.000000 0.000000 0.000000 0.000000 0.000000 0.000000 0.000000 0.000000 0.000000 0.000000 0.000000 0.000000
0.000000 0.000000 0.000000 0.000000 0.000000 0.000000 0.000000 0.000000 0.000000 0.000000 0.000000 0.000000 0.000000 0.000000 0.000000 0.000000 0.000000 0.000000 0.000000 0.000000 0.000000 0.000000 0.000000 0.000000 0.000000 0.000000 0.000000 0.000000 0.000000 0.000000 0.000000 0.000000 0.000000 0.000000 0.000000 0.000000 0.000000 0.000000 0.000000 0.000000 0.000000 0.000000 0.000000 0.000000 0.000000 0.000000 0.000000 0.000000 0.000000 0.000000 23.334105 23.334105 23.334105 23.334105 23.334105 23.334105 23.334105 23.334105 23.334105 23.334105 16.628489 16.628489 16.628489 16.628489 16.628489 16.628489 16.628489 0.000000 0.000000 0.000000 0.000000 0.000000 0.000000 0.000000 0.000000 0.000000 0.000000 0.000000 0.000000 0.000000 0.000000 0.000000 0.000000 0.000000 0.000000 0.000000 0.000000 0.000000 0.000000 0.000000 0.000000 0.000000 0.000000 0.000000 0.000000 0.000000 0.000000 0.000000 0.000000 0.000000 0.000000 0.000000 0.000000
0.000000 0.000000 0.000000 0.000000 0.000000 0.000000 0.000000 0.000000 0.000000 0.000000 0.000000 0.000000 0.000000 0.000000 0.000000 0.000000 0.000000 0.000000 0.000000 0.000000 0.000000 0.000000 0.000000 0.000000 0.000000 0.000000 0.000000 0.000000 0.000000 0.000000 0.000000 0.000000 0.000000 0.000000 0.000000 0.000000 0.000000 0.000000 0.000000 0.000000 0.000000 0.000000 0.000000 0.000000 0.000000 0.000000 0.000000 0.000000 0.000000 0.000000 23.334105 23.334105 23.334105 23.334105 23.334105 23.334105 23.334105 23.334105 23.334105 23.334105 16.628489 16.628489 16.628489 16.628489 16.628489 16.628489 16.628489 0.000000 0.000000 0.000000 0.000000 0.000000 0.000000 0.000000 0.000000 0.000000 0.000000 0.000000 0.000000 0.000000 0.000000 0.000000 0.000000 0.000000 0.000000 0.000000 0.000000 0.000000 0.000000 0.000000 0.000000 0.000000 0.000000 0.000000 0.000000 0.000000 0.000000 0.000000 0.000000 0.000000 0.000000 0.000000 0.000000
0.000000 0.000000 0.000000 0.000000 0.000000 0.000000 0.000000 0.000000 0.000000 0.000000 0.000000 0.000000 0.000000 0.000000 0.000000 0.000000 0.000000 0.000000 0.000000 0.000000 0.000000 0.000000 0.000000 0.000000 0.000000 0.000000 0.000000 0.000000 0.000000 0.000000 0.000000 0.000000 0.000000 0.000000 0.000000 0.000000 0.000000 15.008814 15.008814 15.008814 15.008814 15.008814 15.008814 0.000000 0.000000 0.000000 0.000000 0.000000 0.000000 0.000000 23.334105 23.334105 23.334105 23.334105 23.334105 23.334105 23.334105 23.334105 23.334105 23.334105 16.628489 16.628489 16.628489 16.628489 16.628489 16.628489 16.628489 0.000000 0.000000 0.000000 0.000000 0.000000 0.000000 29.395863 29.395863 29.395863 29.395863 29.395863 29.395863 29.395863 29.395863 29.395863 0.000000 0.000000 0.000000 0.000000 40.320068 40.320068 40.320068 40.320068 40.320068 40.320068 40.320068 40.320068 40.320068 40.320068 40.320068 0.000000 0.000000 0.000000 0.000000 0.000000 0.000000
0.000000 0.000000 0.000000 0.000000 0.000000 0.000000 0.000000 0.000000 0.000000 0.000000 0.000000 0.000000 0.000000 0.000000 0.000000 0.000000 0.000000 0.000000 0.000000 0.000000 0.000000 0.000000 0.000000 0.000000 0.000000 0.000000 0.000000 0.000000 0.000000 0.000000 0.000000 0.000000 0.000000 0.000000 0.000000 0.000000 0.000000 15.008814 15.008814 15.008814 15.008814 15.008814 15.008814 0.000000 0.000000 0.000000 0.000000 0.000000 0.000000 0.000000 23.334105 23.334105 23.334105 23.334105 23.334105 23.334105 23.334105 23.334105 23.334105 23.334105 16.628489 16.628489 16.628489 16.628489 16.628489 16.628489 16.628489 0.000000 0.000000 0.000000 0.000000 0.000000 0.000000 29.395863 29.395863 29.395863 29.395863 29.395863 29.395863 29.395863 29.395863 29.395863 0.000000 0.000000 0.000000 0.000000 40.320068 40.320068 40.320068 40.320068 40.320068 40.320068 40.320068 40.320068 40.320068 40.320068 40.320068 0.000000 0.000000 0.000000 0.000000 0.000000 0.000000
0.000000 0.000000 0.000000 0.000000 0.000000 0.000000 0.000000 0.000000 0.000000 0.000000 0.000000 0.000000 0.000000 0.000000 0.000000 0.000000 0.000000 0.000000 0.000000 0.000000 0.000000 0.000000 0.000000 0.000000 0.000000 0.000000 0.000000 0.000000 0.000000 0.000000 0.000000 0.000000 0.000000 0.000000 0.000000 0.000000 0.000000 15.008814 15.008814 15.008814 15.008814 15.008814 15.008814 0.000000 0.000000 0.000000 0.000000 0.000000 0.000000 0.000000 23.334105 23.334105 23.334105 23.334105 23.334105 23.334105 23.334105 23.334105 23.334105 23.334105 16.628489 16.628489 16.628489 16.628489 16.628489 16.628489 16.628489 0.000000 0.000000 0.000000 0.000000 0.000000 0.000000 29.395863 29.395863 29.395863 29.395863 29.395863 29.395863 29.395863 29.395863 29.395863 0.000000 0.000000 0.000000 0.000000 40.320068 40.320068 40.320068 40.320068 40.320068 40.320068 40.320068 40.320068 40.320068 40.320068 40.320068 0.000000 0.000000 0.000000 0.000000 0.000000 0.000000
0.000000 0.000000 0.000000 0.000000 0.000000 0.000000 0.000000 0.000000 0.000000 0.000000 0.000000 0.000000 0.000000 0.000000 0.000000 0.000000 0.000000 0.000000 0.000000 0.000000 0.000000 0.000000 0.000000 0.000000 0.000000 0.000000 0.000000 0.000000 0.000000 0.000000 0.000000 0.000000 0.000000 0.000000 0.000000 0.000000 0.000000 15.008814 15.008814 15.008814 15.008814 15.008814 15.008814 0.000000 0.000000 0.000000 0.000000 0.000000 0.000000 0.000000 23.334105 23.334105 23.334105 23.334105 23.334105 23.334105 23.334105 23.334105 23.334105 23.334105 16.628489 16.628489 16.628489 16.628489 16.628489 16.628489 16.628489 0.000000 0.000000 0.000000 0.000000 0.000000 0.000000 29.395863 29.395863 29.395863 29.395863 29.395863 29.395863 29.395863 29.395863 29.395863 0.000000 0.000000 0.000000 0.000000 40.320068 40.320068 40.320068 40.320068 40.320068 40.320068 40.320068 40.320068 40.320068 40.320068 40.320068 0.000000 0.000000 0.000000 0.000000 0.000000 0.000000
0.000000 0.000000 0.000000 0.000000 0.000000 0.000000 0.000000 0.000000 0.000000 0.000000 0.000000 0.000000 0.000000 0.000000 0.000000 0.000000 0.000000 0.000000 0.000000 0.000000 0.000000 0.000000 0.000000 0.000000 0.000000 0.000000 0.000000 0.000000 0.000000 0.000000 0.000000 0.000000 0.000000 0.000000 0.000000 0.000000 0.000000 15.008814 15.008814 15.008814 15.008814 15.008814 15.008814 0.000000 0.000000 0.000000 0.000000 0.000000 0.000000 0.000000 23.334105 23.334105 23.334105 23.334105 23.334105 23.334105 23.334105 23.334105 23.334105 23.334105 16.628489 16.628489 16.628489 16.628489 16.628489 16.628489 16.628489 0.000000 0.000000 0.000000 0.000000 0.000000 0.000000 29.395863 29.395863 29.395863 29.395863 29.395863 29.395863 29.395863 29.395863 29.395863 0.000000 0.000000 0.000000 0.000000 40.320068 40.320068 40.320068 40.320068 40.320068 40.320068 40.320068 40.320068 40.320068 40.320068 40.320068 0.000000 0.000000 0.000000 0.000000 0.000000 0.000000
0.000000 0.000000 0.000000 0.000000 0.000000 0.000000 0.000000 0.000000 0.000000 0.000000 0.000000 0.000000 0.000000 0.000000 0.000000 0.000000 0.000000 0.000000 0.000000 0.000000 0.000000 0.000000 0.000000 0.000000 0.000000 0.000000 0.000000 0.000000 0.000000 0.000000 0.000000 0.000000 0.000000 0.000000 0.000000 0.000000 0.000000 15.008814 15.008814 15.008814 15.008814 15.008814 15.008814 0.000000 0.000000 0.000000 0.000000 0.000000 0.000000 0.000000 23.334105 23.334105 23.334105 23.334105 23.334105 23.334105 23.334105 23.334105 23.334105 23.334105 16.628489 16.628489 16.628489 16.628489 16.628489 16.628489 16.628489 0.000000 0.000000 0.000000 0.000000 0.000000 0.000000 29.395863 29.395863 29.395863 29.395863 29.395863 29.395863 29.395863 29.395863 29.395863 0.000000 0.000000 0.000000 0.000000 40.320068 40.320068 40.320068 40.320068 40.320068 40.320068 40.320068 40.320068 40.320068 40.320068 40.320068 0.000000 0.000000 0.000000 0.000000 0.000000 0.000000
0.000000 0.000000 0.000000 0.000000 0.000000 0.000000 0.000000 0.000000 0.000000 0.000000 0.000000 0.000000 0.000000 0.000000 0.000000 0.000000 0.000000 0.000000 0.000000 0.000000 0.000000 0.000000 0.000000 0.000000 0.000000 0.000000 0.000000 0.000000 0.000000 0.000000 0.000000 0.000000 0.000000 0.000000 0.000000 0.000000 0.000000 15.008814 15.008814 15.008814 15.008814 15.008814 15.008814 0.000000 0.000000 0.000000 0.000000 0.000000 0.000000 0.000000 23.334105 23.334105 23.334105 23.334105 23.334105 23.334105 23.334105 23.334105 23.334105 23.334105 16.628489 16.628489 16.628489 16.628489 16.628489 16.628489 16.628489 0.000000 0.000000 0.000000 0.000000 0.000000 0.000000 29.395863 29.395863 29.395863 29.395863 29.395863 29.395863 29.395863 29.395863 29.395863 0.000000 0.000000 0.000000 0.000000 40.320068 40.320068 40.320068 40.320068 40.320068 40.320068 40.320068 40.320068 40.320068 40.320068 40.320068 0.000000 0.000000 0.000000 0.000000 0.000000 0.000000
0.000000 0.000000 0.000000 0.000000 0.000000 0.000000 0.000000 0.000000 0.000000 0.000000 0.000000 0.000000 0.000000 0.000000 0.000000 0.000000 0.000000 0.000000 0.000000 0.000000 0.000000 0.000000 0.000000 0.000000 0.000000 0.000000 0.000000 0.000000 0.000000 0.000000 0.000000 0.000000 0.000000 0.000000 0.000000 0.000000 0.000000 15.008814 15.008814 15.008814 15.008814 15.008814 15.008814 0.000000 0.000000 0.000000 0.000000 0.000000 0.000000 0.000000 23.334105 23.334105 23.334105 23.334105 23.334105 23.334105 23.334105 23.334105 23.334105 23.334105 16.628489 16.628489 16.628489 16.628489 16.628489 16.628489 16.628489 0.000000 0.000000 0.000000 0.000000 0.000000 0.000000 29.395863 29.395863 29.395863 29.395863 29.395863 29.395863 29.395863 29.395863 29.395863 0.000000 0.000000 0.000000 0.000000 40.320068 40.320068 40.320068 40.320068 40.320068 40.320068 40.320068 40.320068 40.320068 40.320068 40.320068 0.000000 0.000000 0.000000 0.000000 0.000000 0.000000
0.000000 0.000000 0.000000 0.000000 0.000000 0.000000 0.000000 0.000000 0.000000 0.000000 0.000000 0.000000 0.000000 0.000000 0.000000 0.000000 0.000000 0.000000 0.000000 0.000000 0.000000 0.000000 0.000000 0.000000 0.000000 0.000000 0.000000 0.000000 0.000000 0.000000 0.000000 0.000000 0.000000 0.000000 0.000000 0.000000 0.000000 15.008814 15.008814 15.008814 15.008814 15.008814 15.008814 0.000000 0.000000 0.000000 0.000000 0.000000 0.000000 0.000000 30.701047 30.701047 30.701047 30.701047 30.701047 30.701047 30.701047 30.701047 30.701047 30.701047 21.878364 21.878364 21.878364 21.878364 21.878364 21.878364 21.878364 0.000000 0.000000 0.000000 0.000000 0.000000 0.000000 29.395863 29.395863 29.395863 29.395863 29.395863 29.395863 29.395863 29.395863 29.395863 0.000000 0.000000 0.000000 0.000000 40.320068 40.320068 40.320068 40.320068 40.320068 40.320068 40.320068 40.320068 40.320068 40.320068 40.320068 0.000000 0.000000 0.000000 0.000000 0.000000 0.000000
0.000000 0.000000 0.000000 0.000000 0.000000 0.000000 0.000000 0.000000 0.000000 0.000000 0.000000 0.000000 0.000000 0.000000 0.000000 0.000000 0.000000 0.000000 0.000000 0.000000 0.000000 0.000000 0.000000 0.000000 0.000000 0.000000 0.000000 0.000000 0.000000 0.000000 0.000000 0.000000 0.000000 0.000000 0.000000 0.000000 0.000000 15.008814 15.008814 15.008814 15.008814 15.008814 15.008814 0.000000 0.000000 0.000000 0.000000 0.000000 0.000000 0.000000 30.701047 30.701047 30.701047 30.701047 30.701047 30.701047 30.701047 30.701047 30.701047 30.701047 21.878364 21.878364 21.878364 21.878364 21.878364 21.878364 21.878364 0.000000 0.000000 0.000000 0.000000 0.000000 0.000000 29.395863 29.395863 29.395863 29.395863 29.395863 29.395863 29.395863 29.395863 29.395863 0.000000 0.000000 0.000000 0.000000 40.320068 40.320068 40.320068 40.320068 40.320068 40.320068 40.320068 40.320068 40.320068 40.320068 40.320068 0.000000 0.000000 0.000000 0.000000 0.000000 0.000000
0.000000 0.000000 0.000000 0.000000 0.000000 0.000000 0.000000 0.000000 0.000000 0.000000 0.000000 0.000000 0.000000 0.000000 0.000000 0.000000 0.000000 0.000000 0.000000 0.000000 0.000000 0.000000 0.000000 0.000000 0.000000 0.000000 0.000000 0.000000 0.000000 0.000000 0.000000 0.000000 0.000000 0.000000 0.000000 0.000000 0.000000 0.000000 0.000000 0.000000 0.000000 0.000000 0.000000 0.000000 0.000000 0.000000 0.000000 0.000000 0.000000 0.000000 30.701047 30.701047 30.701047 30.701047 30.701047 30.701047 30.701047 30.701047 30.701047 30.701047 21.878364 21.878364 21.878364 21.878364 21.878364 21.878364 21.878364 0.000000 0.000000 0.000000 0.000000 0.000000 0.000000 29.395863 29.395863 29.395863 29.395863 29.395863 29.395863 29.395863 29.395863 29.395863 0.000000 0.000000 0.000000 0.000000 40.320068 40.320068 40.320068 40.320068 40.320068 40.320068 40.320068 40.320068 40.320068 40.320068 40.320068 0.000000 0.000000 0.000000 0.000000 0.000000 0.000000
0.000000 0.000000 0.000000 0.000000 0.000000 0.000000 0.000000 0.000000 0.000000 0.000000 0.000000 0.000000 0.000000 0.000000 0.000000 0.000000 0.000000 0.000000 0.000000 0.000000 0.000000 0.000000 0.000000 0.000000 0.000000 0.000000 0.000000 0.000000 0.000000 0.000000 0.000000 0.000000 0.000000 0.000000 0.000000 0.000000 0.000000 0.000000 0.000000 0.000000 0.000000 0.000000 0.000000 0.000000 0.000000 0.000000 0.000000 0.000000 0.000000 0.000000 30.701047 30.701047 30.701047 30.701047 30.701047 30.701047 30.701047 30.701047 30.701047 30.701047 21.878364 21.878364 21.878364 21.878364 21.878364 21.878364 21.878364 0.000000 0.000000 0.000000 0.000000 0.000000 0.000000 29.395863 29.395863 29.395863 29.395863 29.395863 29.395863 29.395863 29.395863 29.395863 0.000000 0.000000 0.000000 0.000000 40.320068 40.320068 40.320068 40.320068 40.320068 40.320068 40.320068 40.320068 40.320068 40.320068 40.320068 0.000000 0.000000 0.000000 0.000000 0.000000 0.000000
0.000000 0.000000 0.000000 0.000000 0.000000 0.000000 0.000000 0.000000 0.000000 0.000000 0.000000 0.000000 0.000000 0.000000 0.000000 0.000000 0.000000 0.000000 0.000000 0.000000 0.000000 0.000000 0.000000 0.000000 0.000000 0.000000 0.000000 0.000000 0.000000 0.000000 0.000000 0.000000 0.000000 0.000000 0.000000 0.000000 0.000000 0.000000 0.000000 0.000000 0.000000 0.000000 0.000000 0.000000 0.000000 0.000000 0.000000 0.000000 0.000000 0.000000 30.701047 30.701047 30.701047 30.701047 30.701047 30.701047 30.701047 30.701047 30.701047 30.701047 21.878364 21.878364 21.878364 21.878364 21.878364 21.878364 21.878364 0.000000 0.000000 0.000000 0.000000 0.000000 0.000000 29.395863 29.395863 29.395863 29.395863 29.395863 29.395863 29.395863 29.395863 29.395863 0.000000 0.000000 0.000000 0.000000 40.320068 40.320068 40.320068 40.320068 40.320068 40.320068 40.320068 40.320068 40.320068 40.320068 40.320068 0.000000 0.000000 0.000000 0.000000 0.000000 0.000000
0.000000 0.000000 0.000000 0.000000 0.000000 0.000000 20.023474 20.023474 20.023474 20.023474 20.023474 20.023474 20.023474 20.023474 20.023474 20.023474 0.000000 0.000000 0.000000 0.000000 16.313769 16.313769 16.313769 16.313769 16.313769 16.313769 16.313769 16.313769 0.000000 0.000000 0.000000 0.000000 0.000000 0.000000 0.000000 0.000000 0.000000 0.000000 0.000000 0.000000 0.000000 0.000000 0.000000 0.000000 0.000000 0.000000 0.000000 0.000000 0.000000 0.000000 30.701047 30.701047 30.701047 30.701047 30.701047 30.701047 30.701047 30.701047 30.701047 30.701047 21.878364 21.878364 21.878364 21.878364 21.878364 21.878364 21.878364 0.000000 0.000000 0.000000 0.000000 0.000000 0.000000 29.395863 29.395863 29.395863 29.395863 29.395863 29.395863 29.395863 29.395863 29.395863 0.000000 0.000000 0.000000 0.000000 40.320068 40.320068 40.320068 40.320068 40.320068 40.320068 40.320068 40.320068 40.320068 40.320068 40.320068 0.000000 0.000000 0.000000 0.000000 0.000000 0.000000
0.000000 0.000000 0.000000 0.000000 0.000000 0.000000 20.023474 20.023474 20.023474 20.023474 20.023474 20.023474 20.023474 20.023474 20.023474 20.023474 0.000000 0.000000 0.000000 0.000000 16.313769 16.313769 16.313769 16.313769 16.313769 16.313769 16.313769 16.313769 0.000000 0.000000 0.000000 0.000000 0.000000 0.000000 0.000000 0.000000 0.000000 0.000000 0.000000 0.000000 0.000000 0.000000 0.000000 0.000000 0.000000 0.000000 0.000000 0.000000 0.000000 0.000000 30.701047 30.701047 30.701047 30.701047 30.701047 30.701047 30.701047 30.701047 30.701047 30.701047 21.878364 21.878364 21.878364 21.878364 21.878364 21.878364 21.878364 0.000000 0.000000 0.000000 0.000000 0.000000 0.000000 0.000000 0.000000 0.000000 0.000000 0.000000 0.000000 0.000000 0.000000 0.000000 0.000000 0.000000 0.000000 0.000000 0.000000 0.000000 0.000000 0.000000 0.000000 0.000000 0.000000 0.000000 0.000000 0.000000 0.000000 0.000000 0.000000 0.000000 0.000000 0.000000 0.000000
0.000000 0.000000 0.000000 0.000000 0.000000 0.000000 20.023474 20.023474 20.023474 20.023474 20.023474 20.023474 20.023474 20.023474 20.023474 20.023474 0.000000 0.000000 0.000000 0.000000 16.313769 16.313769 16.313769 16.313769 16.313769 16.313769 16.313769 16.313769 0.000000 0.000000 0.000000 0.000000 0.000000 0.000000 0.000000 0.000000 0.000000 0.000000 0.000000 0.000000 0.000000 0.000000 0.000000 0.000000 0.000000 0.000000 0.000000 0.000000 0.000000 0.000000 30.701047 30.701047 30.701047 30.701047 30.701047 30.701047 30.701047 30.701047 30.701047 30.701047 21.878364 21.878364 21.878364 21.878364 21.878364 21.878364 21.878364 0.000000 0.000000 0.000000 0.000000 0.000000 0.000000 0.000000 0.000000 0.000000 0.000000 0.000000 0.000000 0.000000 0.000000 0.000000 0.000000 0.000000 0.000000 0.000000 0.000000 0.000000 0.000000 0.000000 0.000000 0.000000 0.000000 0.000000 0.000000 0.000000 0.000000 0.000000 0.000000 0.000000 0.000000 0.000000 0.000000
0.000000 0.000000 0.000000 0.000000 0.000000 0.000000 20.023474 20.023474 20.023474 20.023474 20.023474 20.023474 20.023474 20.023474 20.023474 20.023474 0.000000 0.000000 0.000000 0.000000 16.313769 16.313769 16.313769 16.313769 16.313769 16.313769 16.313769 16.313769 0.000000 0.000000 0.000000 0.000000 0.000000 0.000000 0.000000 0.000000 0.000000 0.000000 0.000000 0.000000 0.000000 0.000000 0.000000 0.000000 0.000000 0.000000 0.000000 0.000000 0.000000 0.000000 30.701047 30.701047 30.701047 30.701047 30.701047 30.701047 30.701047 30.701047 30.701047 30.701047 21.878364 21.878364 21.878364 21.878364 21.878364 21.878364 21.878364 0.000000 0.000000 0.000000 0.000000 0.000000 0.000000 0.000000 0.000000 0.000000 0.000000 0.000000 0.000000 0.000000 0.000000 0.000000 0.000000 0.000000 0.000000 0.000000 0.000000 0.000000 0.000000 0.000000 0.000000 0.000000 0.000000 0.000000 0.000000 0.000000 0.000000 0.000000 0.000000 0.000000 0.000000 0.000000 0.000000
0.000000 0.000000 0.000000 0.000000 0.000000 0.000000 20.023474 20.023474 20.023474 20.023474 20.023474 20.023474 20.023474 20.023474 20.023474 20.023474 0.000000 0.000000 0.000000 0.000000 16.313769 16.313769 16.313769 16.313769 16.313769 16.313769 16.313769 16.313769 0.000000 0.000000 0.000000 0.000000 0.000000 0.000000 0.000000 0.000000 0.000000 0.000000 0.000000 0.000000 0.000000 0.000000 0.000000 0.000000 0.000000 0.000000 0.000000 0.000000 0.000000 0.000000 30.701047 30.701047 30.701047 30.701047 30.701047 30.701047 30.701047 30.701047 30.701047 30.701047 21.878364 21.878364 21.878364 21.878364 21.878364 21.878364 21.878364 0.000000 0.000000 0.000000 0.000000 0.000000 0.000000 0.000000 0.000000 0.000000 0.000000 0.000000 0.000000 0.000000 0.000000 0.000000 0.000000 0.000000 0.000000 0.000000 0.000000 0.000000 0.000000 0.000000 0.000000 0.000000 0.000000 0.000000 0.000000 0.000000 0.000000 0.000000 0.000000 0.000000 0.000000 0.000000 0.000000
0.000000 0.000000 0.000000 0.000000 0.000000 0.000000 20.023474 20.023474 20.023474 20.023474 20.023474 20.023474 20.023474 20.023474 20.023474 20.023474 0.000000 0.000000 0.000000 0.000000 16.313769 16.313769 16.313769 16.313769 16.313769 16.313769 16.313769 16.313769 0.000000 0.000000 0.000000 0.000000 0.000000 0.000000 0.000000 0.000000 0.000000 0.000000 0.000000 0.000000 0.000000 0.000000 0.000000 0.000000 0.000000 0.000000 0.000000 0.000000 0.000000 0.000000 30.701047 30.701047 30.701047 30.701047 30.701047 30.701047 30.701047 30.701047 30.701047 30.701047 21.878364 21.878364 21.878364 21.878364 21.878364 21.878364 21.878364 0.000000 0.000000 0.000000 0.000000 0.000000 0.000000 0.000000 0.000000 0.000000 0.000000 0.000000 0.000000 0.000000 0.000000 0.000000 0.000000 0.000000 0.000000 0.000000 0.000000 0.000000 0.000000 0.000000 0.000000 0.000000 0.000000 0.000000 0.000000 0.000000 0.000000 0.000000 0.000000 0.000000 0.000000 0.000000 0.000000
0.000000 0.000000 0.000000 0.000000 0.000000 0.000000 20.023474 20.023474 20.023474 20.023474 20.023474 20.023474 20.023474 20.023474 20.023474 20.023474 0.000000 0.000000 0.000000 0.000000 16.313769 16.313769 16.313769 16.313769 16.313769 16.313769 16.313769 16.313769 0.000000 0.000000 0.000000 0.000000 0.000000 0.000000 0.000000 0.000000 0.000000 0.000000 0.000000 0.000000 0.000000 0.000000 0.000000 0.000000 0.000000 0.000000 0.000000 0.000000 0.000000 0.000000 30.701047 30.701047 30.701047 30.701047 30.701047 30.701047 30.701047 30.701047 30.701047 30.701047 21.878364 21.878364 21.878364 21.878364 21.878364 21.878364 21.878364 0.000000 0.000000 0.000000 0.000000 0.000000 0.000000 0.000000 0.000000 0.000000 0.000000 0.000000 0.000000 0.000000 0.000000 0.000000 0.000000 0.000000 0.000000 0.000000 0.000000 0.000000 0.000000 0.000000 0.000000 0.000000 0.000000 0.000000 0.000000 0.000000 0.000000 0.000000 0.000000 0.000000 0.000000 0.000000 0.000000
0.000000 0.000000 0.000000 0.000000 0.000000 0.000000 20.023474 20.023474 20.023474 20.023474 20.023474 20.023474 20.023474 20.023474 20.023474 20.023474 0.000000 0.000000 0.000000 0.000000 16.313769 16.313769 16.313769 16.313769 16.313769 16.313769 16.313769 16.313769 0.000000 0.000000 0.000000 0.000000 0.000000 0.000000 0.000000 0.000000 0.000000 0.000000 0.000000 0.000000 0.000000 0.000000 0.000000 0.000000 0.000000 0.000000 0.000000 0.000000 0.000000 0.000000 30.701047 30.701047 30.701047 30.701047 30.701047 30.701047 30.701047 30.701047 30.701047 30.701047 21.878364 21.878364 21.878364 21.878364 21.878364 21.878364 21.878364 0.000000 0.000000 0.000000 0.000000 0.000000 0.000000 0.000000 0.000000 0.000000 0.000000 0.000000 0.000000 0.000000 0.000000 0.000000 0.000000 0.000000 0.000000 0.000000 0.000000 0.000000 0.000000 0.000000 0.000000 0.000000 0.000000 0.000000 0.000000 0.000000 0.000000 0.000000 0.000000 0.000000 0.000000 0.000000 0.000000
0.000000 0.000000 0.000000 0.000000 0.000000 0.000000 20.023474 20.023474 20.023474 20.023474 20.023474 20.023474 20.023474 20.023474 20.023474 20.023474 0.000000 0.000000 0.000000 0.000000 16.313769 16.313769 16.313769 16.313769 16.313769 16.313769 16.313769 16.313769 0.000000 0.000000 0.000000 0.000000 0.000000 0.000000 0.000000 0.000000 0.000000 0.000000 0.000000 0.000000 0.000000 0.000000 0.000000 0.000000 0.000000 0.000000 0.000000 0.000000 0.000000 0.000000 30.840006 30.840006 30.840006 30.840006 30.840006 30.840006 30.840006 30.840006 30.840006 30.840006 0.000000 0.000000 0.000000 0.000000 0.000000 0.000000 0.000000 0.000000 0.000000 0.000000 0.000000 0.000000 0.000000 0.000000 0.000000 0.000000 0.000000 0.000000 0.000000 0.000000 0.000000 0.000000 0.000000 0.000000 0.000000 0.000000 0.000000 0.000000 0.000000 0.000000 0.000000 0.000000 0.000000 0.000000 0.000000 0.000000 0.000000 0.000000 0.000000 0.000000 0.000000 0.000000 0.000000
0.000000 0.000000 0.000000 0.000000 0.000000 0.000000 0.000000 0.000000 0.000000 0.000000 0.000000 0.000000 0.000000 0.000000 0.000000 0.000000 0.000000 0.000000 0.000000 0.000000 0.000000 0.000000 0.000000 0.000000 0.000000 0.000000 0.000000 0.000000 0.000000 0.000000 0.000000 0.000000 0.000000 0.000000 0.000000 0.000000 0.000000 0.000000 0.000000 0.000000 0.000000 0.000000 0.000000 0.000000 0.000000 0.000000 0.000000 0.000000 0.000000 0.000000 30.840006 30.840006 30.840006 30.840006 30.840006 30.840006 30.840006 30.840006 30.840006 30.840006 0.000000 0.000000 0.000000 0.000000 0.000000 0.000000 0.000000 0.000000 0.000000 0.000000 0.000000 0.000000 0.000000 0.000000 0.000000 0.000000 0.000000 0.000000 0.000000 0.000000 0.000000 0.000000 0.000000 0.000000 0.000000 0.000000 0.000000 0.000000 0.000000 0.000000 0.000000 0.000000 0.000000 0.000000 0.000000 0.000000 0.000000 0.000000 0.000000 0.000000 0.000000 0.000000 0.000000
0.000000 0.000000 0.000000 0.000000 0.000000 0.000000 0.000000 0.000000 0.000000 0.000000 0.000000 0.000000 0.000000 0.000000 0.000000 0.000000 0.000000 0.000000 0.000000 0.000000 0.000000 0.000000 0.000000 0.000000 0.000000 0.000000 0.000000 0.000000 0.000000 0.000000 0.000000 0.000000 0.000000 0.000000 0.000000 0.000000 0.000000 0.000000 0.000000 0.000000 0.000000 0.000000 0.000000 0.000000 0.000000 0.000000 0.000000 0.000000 0.000000 0.000000 30.840006 30.840006 30.840006 30.840006 30.840006 30.840006 30.840006 30.840006 30.840006 30.840006 0.000000 0.000000 0.000000 0.000000 0.000000 0.000000 0.000000 0.000000 0.000000 0.000000 0.000000 0.000000 0.000000 0.000000 0.000000 0.000000 0.000000 0.000000 0.000000 0.000000 0.000000 0.000000 0.000000 0.000000 0.000000 0.000000 0.000000 0.000000 0.000000 0.000000 0.000000 0.000000 0.000000 0.000000 0.000000 0.000000 0.000000 0.000000 0.000000 0.000000 0.000000 0.000000 0.000000
0.000000 0.000000 0.000000 0.000000 0.000000 0.000000 0.000000 0.000000 0.000000 0.000000 0.000000 0.000000 0.000000 0.000000 0.000000 0.000000 0.000000 0.000000 0.000000 0.000000 0.000000 0.000000 0.000000 0.000000 0.000000 0.000000 0.000000 0.000000 0.000000 0.000000 0.000000 0.000000 0.000000 0.000000 0.000000 0.000000 0.000000 11.315396 11.315396 11.315396 11.315396 11.315396 11.315396 0.000000 0.000000 0.000000 0.000000 0.000000 0.000000 0.000000 30.840006 30.840006 30.840006 30.840006 30.840006 30.840006 30.840006 30.840006 30.840006 30.840006 0.000000 0.000000 0.000000 0.000000 0.000000 0.000000 0.000000 0.000000 0.000000 0.000000 0.000000 0.000000 0.000000 0.000000 0.000000 0.000000 0.000000 0.000000 0.000000 0.000000 0.000000 0.000000 0.000000 0.000000 0.000000 0.000000 0.000000 0.000000 0.000000 0.000000 0.000000 0.000000 0.000000 0.000000 0.000000 0.000000 0.000000 0.000000 0.000000 0.000000 0.000000 0.000000 0.000000
0.000000 0.000000 0.000000 0.000000 0.000000 0.000000 17.108096 17.108096 17.108096 17.108096 17.108096 17.108096 17.108096 17.108096 17.108096 17.108096 0.000000 0.000000 0.000000 0.000000 13.938517 13.938517 13.938517 13.938517 13.938517 13.938517 13.938517 13.938517 0.000000 0.000000 0.000000 0.000000 0.000000 0.000000 0.000000 0.000000 0.000000 11.315396 11.315396 11.315396 11.315396 11.315396 11.315396 0.000000 0.000000 0.000000 0.000000 0.000000 0.000000 0.000000 30.840006 30.840006 30.840006 30.840006 30.840006 30.840006 30.840006 30.840006 30.840006 30.840006 0.000000 0.000000 0.000000 0.000000 0.000000 0.000000 0.000000 0.000000 0.000000 0.000000 0.000000 0.000000 0.000000 0.000000 0.000000 0.000000 0.000000 0.000000 0.000000 0.000000 0.000000 0.000000 0.000000 0.000000 0.000000 0.000000 0.000000 0.000000 0.000000 0.000000 0.000000 0.000000 0.000000 0.000000 0.000000 0.000000 0.000000 0.000000 0.000000 0.000000 0.000000 0.000000 0.000000
0.000000 0.000000 0.000000 0.000000 0.000000 0.000000 17.108096 17.108096 17.108096 17.108096 17.108096 17.108096 17.108096 17.108096 17.108096 17.108096 0.000000 0.000000 0.000000 0.000000 13.938517 13.938517 13.938517 13.938517 13.938517 13.938517 13.938517 13.938517 0.000000 0.000000 0.000000 0.000000 0.000000 0.000000 0.000000 0.000000 0.000000 11.315396 11.315396 11.315396 11.315396 11.315396 11.315396 0.000000 0.000000 0.000000 0.000000 0.000000 0.000000 0.000000 30.840006 30.840006 30.840006 30.840006 30.840006 30.840006 30.840006 30.840006 30.840006 30.840006 0.000000 0.000000 0.000000 0.000000 0.000000 0.000000 0.000000 0.000000 0.000000 0.000000 0.000000 0.000000 0.000000 0.000000 0.000000 0.000000 0.000000 0.000000 0.000000 0.000000 0.000000 0.000000 0.000000 0.000000 0.000000 0.000000 0.000000 0.000000 0.000000 0.000000 0.000000 0.000000 0.000000 0.000000 0.000000 0.000000 0.000000 0.000000 0.000000 0.000000 0.000000 0.000000 0.000000
0.000000 0.000000 0.000000 0.000000 0.000000 0.000000 17.108096 17.108096 17.108096 17.108096 17.108096 17.108096 17.108096 17.108096 17.108096 17.108096 0.000000 0.000000 0.000000 0.000000 13.938517 13.938517 13.938517 13.938517 13.938517 13.938517 13.938517 13.938517 0.000000 0.000000 0.000000 0.000000 0.000000 0.000000 0.000000 0.000000 0.000000 11.315396 11.315396 11.315396 11.315396 11.315396 11.315396 0.000000 0.000000 0.000000 0.000000 0.000000 0.000000 0.000000 30.840006 30.840006 30.840006 30.840006 30.840006 30.840006 30.840006 30.840006 30.840006 30.840006 0.000000 0.000000 0.000000 0.000000 0.000000 0.000000 0.000000 0.000000 0.000000 0.000000 0.000000 0.000000 0.000000 0.000000 0.000000 0.000000 0.000000 0.000000 0.000000 0.000000 0.000000 0.000000 0.000000 0.000000 0.000000 0.000000 0.000000 0.000000 0.000000 0.000000 0.000000 0.000000 0.000000 0.000000 0.000000 0.000000 0.000000 0.000000 0.000000 0.000000 0.000000 0.000000 0.000000
0.000000 0.000000 0.000000 0.000000 0.000000 0.000000 17.108096 17.108096 17.108096 17.108096 17.108096 17.108096 17.108096 17.108096 17.108096 17.108096 0.000000 0.000000 0.000000 0.000000 13.938517 13.938517 13.938517 13.938517 13.938517 13.938517 13.938517 13.938517 0.000000 0.000000 0.000000 0.000000 0.000000 0.000000 0.000000 0.000000 0.000000 11.315396 11.315396 11.315396 11.315396 11.315396 11.315396 0.000000 0.000000 0.000000 0.000000 0.000000 0.000000 0.000000 30.840006 30.840006 30.840006 30.840006 30.840006 30.840006 30.840006 30.840006 30.840006 30.840006 0.000000 0.000000 0.000000 0.000000 0.000000 0.000000 0.000000 0.000000 0.000000 0.000000 0.000000 0.000000 0.000000 0.000000 0.000000 0.000000 0.000000 0.000000 0.000000 0.000000 0.000000 0.000000 0.000000 0.000000 0.000000 0.000000 0.000000 0.000000 0.000000 0.000000 0.000000 0.000000 0.000000 0.000000 0.000000 0.000000 0.000000 0.000000 0.000000 0.000000 0.000000 0.000000 0.000000
0.000000 0.000000 0.000000 0.000000 0.000000 0.000000 17.108096 17.108096 17.108096 17.108096 17.108096 17.108096 17.108096 17.108096 17.108096 17.108096 0.000000 0.000000 0.000000 0.000000 13.938517 13.938517 13.938517 13.938517 13.938517 13.938517 13.938517 13.938517 0.000000 0.000000 0.000000 0.000000 0.000000 0.000000 0.000000 0.000000 0.000000 11.315396 11.315396 11.315396 11.315396 11.315396 11.315396 0.000000 0.000000 0.000000 0.000000 0.000000 0.000000 0.000000 30.840006 30.840006 30.840006 30.840006 30.840006 30.840006 30.840006 30.840006 30.840006 30.840006 0.000000 0.000000 0.000000 0.000000 0.000000 0.000000 0.000000 0.000000 0.000000 0.000000 0.000000 0.000000 0.000000 0.000000 0.000000 0.000000 0.000000 0.000000 0.000000 0.000000 0.000000 0.000000 0.000000 0.000000 0.000000 0.000000 0.000000 0.000000 0.000000 0.000000 0.000000 0.000000 0.000000 0.000000 0.000000 0.000000 0.000000 0.000000 0.000000 0.000000 0.000000 0.000000 0.000000
0.000000 0.000000 0.000000 0.000000 0.000000 0.000000 17.108096 17.108096 17.108096 17.108096 17.108096 17.108096 17.108096 17.108096 17.108096 17.108096 0.000000 0.000000 0.000000 0.000000 13.938517 13.938517 13.938517 13.938517 13.938517 13.938517 13.938517 13.938517 0.000000 0.000000 0.000000 0.000000 0.000000 0.000000 0.000000 0.000000 0.000000 11.315396 11.315396 11.315396 11.315396 11.315396 11.315396 0.000000 0.000000 0.000000 0.000000 0.000000 0.000000 0.000000 30.840006 30.840006 30.840006 30.840006 30.840006 30.840006 30.840006 30.840006 30.840006 30.840006 0.000000 0.000000 0.000000 0.000000 0.000000 0.000000 0.000000 0.000000 0.000000 0.000000 0.000000 0.000000 0.000000 0.000000 0.000000 0.000000 0.000000 0.000000 0.000000 0.000000 0.000000 0.000000 0.000000 0.000000 0.000000 0.000000 0.000000 0.000000 0.000000 0.000000 0.000000 0.000000 0.000000 0.000000 0.000000 0.000000 0.000000 0.000000 0.000000 0.000000 0.000000 0.000000 0.000000
0.000000 0.000000 0.000000 0.000000 0.000000 0.000000 17.108096 17.108096 17.108096 17.108096 17.108096 17.108096 17.108096 17.108096 17.108096 17.108096 0.000000 0.000000 0.000000 0.000000 13.938517 13.938517 13.938517 13.938517 13.938517 13.938517 13.938517 13.938517 0.000000 0.000000 0.000000 0.000000 0.000000 0.000000 0.000000 0.000000 0.000000 11.315396 11.315396 11.315396 11.315396 11.315396 11.315396 0.000000 0.000000 0.000000 0.000000 0.000000 0.000000 0.000000 30.840006 30.840006 30.840006 30.840006 30.840006 30.840006 30.840006 30.840006 30.840006 30.840006 0.000000 0.000000 0.000000 0.000000 0.000000 0.000000 0.000000 0.000000 0.000000 0.000000 0.000000 0.000000 0.000000 0.000000 0.000000 0.000000 0.000000 0.000000 0.000000 0.000000 0.000000 0.000000 0.000000 0.000000 0.000000 0.000000 0.000000 0.000000 0.000000 0.000000 0.000000 0.000000 0.000000 0.000000 0.000000 0.000000 0.000000 0.000000 0.000000 0.000000 0.000000 0.000000 0.000000
0.000000 0.000000 0.000000 0.000000 0.000000 0.000000 0.000000 0.000000 0.000000 0.000000 0.000000 0.000000 0.000000 0.000000 0.000000 0.000000 0.000000 0.000000 0.000000 0.000000 0.000000 0.000000 0.000000 0.000000 0.000000 0.000000 0.000000 0.000000 0.000000 0.000000 0.000000 0.000000 0.000000 0.000000 0.000000 0.000000 0.000000 0.000000 0.000000 0.000000 0.000000 0.000000 0.000000 0.000000 0.000000 0.000000 0.000000 0.000000 0.000000 0.000000 30.840006 30.840006 30.840006 30.840006 30.840006 30.840006 30.840006 30.840006 30.840006 30.840006 0.000000 0.000000 0.000000 0.000000 0.000000 0.000000 0.000000 0.000000 0.000000 0.000000 0.000000 0.000000 0.000000 0.000000 0.000000 0.000000 0.000000 0.000000 0.000000 0.000000 0.000000 0.000000 0.000000 0.000000 0.000000 0.000000 0.000000 0.000000 0.000000 0.000000 0.000000 0.000000 0.000000 0.000000 0.000000 0.000000 0.000000 0.000000 0.000000 0.000000 0.000000 0.000000 0.000000
0.000000 0.000000 0.000000 0.000000 0.000000 0.000000 0.000000 0.000000 0.000000 0.000000 0.000000 0.000000 0.000000 0.000000 0.000000 0.000000 0.000000 0.000000 0.000000 0.000000 0.000000 0.000000 0.000000 0.000000 0.000000 0.000000 0.000000 0.000000 0.000000 0.000000 0.000000 0.000000 0.000000 0.000000 0.000000 0.000000 0.000000 0.000000 0.000000 0.000000 0.000000 0.000000 0.000000 0.000000 0.000000 0.000000 0.000000 0.000000 0.000000 0.000000 30.840006 30.840006 30.840006 30.840006 30.840006 30.840006 30.840006 30.840006 30.840006 30.840006 0.000000 0.000000 0.000000 0.000000 0.000000 0.000000 0.000000 0.000000 0.000000 0.000000 0.000000 0.000000 0.000000 0.000000 0.000000 0.000000 0.000000 0.000000 0.000000 0.000000 0.000000 0.000000 0.000000 0.000000 0.000000 0.000000 0.000000 0.000000 0.000000 0.000000 0.000000 0.000000 0.000000 0.000000 0.000000 0.000000 0.000000 0.000000 0.000000 0.000000 0.000000 0.000000 0.000000
0.000000 0.000000 0.000000 0.000000 0.000000 0.000000 0.000000 0.000000 0.000000 0.000000 0.000000 0.000000 0.000000 0.000000 0.000000 0.000000 0.000000 0.000000 0.000000 0.000000 0.000000 0.000000 0.000000 0.000000 0.000000 0.000000 0.000000 0.000000 0.000000 0.000000 0.000000 0.000000 0.000000 0.000000 0.000000 0.000000 0.000000 0.000000 0.000000 0.000000 0.000000 0.000000 0.000000 0.000000 0.000000 0.000000 0.000000 0.000000 0.000000 0.000000 0.000000 0.000000 0.000000 0.000000 0.000000 0.000000 0.000000 0.000000 0.000000 0.000000 0.000000 0.000000 0.000000 0.000000 0.000000 0.000000 0.000000 0.000000 0.000000 0.000000 0.000000 0.000000 0.000000 0.000000 0.000000 0.000000 0.000000 0.000000 0.000000 0.000000 0.000000 0.000000 0.000000 0.000000 0.000000 0.000000 0.000000 0.000000 0.000000 0.000000 0.000000 0.000000 0.000000 0.000000 0.000000 0.000000 0.000000 0.000000 0.000000 0.000000 0.000000 0.000000 0.000000
0.000000 0.000000 0.000000 0.000000 0.000000 0.000000 0.000000 0.000000 0.000000 0.000000 0.000000 0.000000 0.000000 0.000000 0.000000 0.000000 0.000000 0.000000 0.000000 0.000000 0.000000 0.000000 0.000000 0.000000 0.000000 0.000000 0.000000 0.000000 0.000000 0.000000 0.000000 0.000000 0.000000 0.000000 0.000000 0.000000 0.000000 0.000000 0.000000 0.000000 0.000000 0.000000 0.000000 0.000000 0.000000 0.000000 0.000000 0.000000 0.000000 0.000000 0.000000 0.000000 0.000000 0.000000 0.000000 0.000000 0.000000 0.000000 0.000000 0.000000 0.000000 0.000000 0.000000 0.000000 0.000000 0.000000 0.000000 0.000000 0.000000 0.000000 0.000000 0.000000 0.000000 0.000000 0.000000 0.000000 0.000000 0.000000 0.000000 0.000000 0.000000 0.000000 0.000000 0.000000 0.000000 0.000000 0.000000 0.000000 0.000000 0.000000 0.000000 0.000000 0.000000 0.000000 0.000000 0.000000 0.000000 0.000000 0.000000 0.000000 0.000000 0.000000 0.000000
0.000000 0.000000 0.000000 0.000000 0.000000 0.000000 0.000000 0.000000 0.000000 0.000000 0.000000 0.000000 0.000000 0.000000 0.000000 0.000000 0.000000 0.000000 0.000000 0.000000 0.000000 0.000000 0.000000 0.000000 0.000000 0.000000 0.000000 0.000000 0.000000 0.000000 0.000000 0.000000 0.000000 0.000000 0.000000 0.000000 0.000000 0.000000 0.000000 0.000000 0.000000 0.000000 0.000000 0.000000 0.000000 0.000000 0.000000 0.000000 0.000000 0.000000 0.000000 0.000000 0.000000 0.000000 0.000000 0.000000 0.000000 0.000000 0.000000 0.000000 0.000000 0.000000 0.000000 0.000000 0.000000 0.000000 0.000000 0.000000 0.000000 0.000000 0.000000 0.000000 0.000000 0.000000 0.000000 0.000000 0.000000 0.000000 0.000000 0.000000 0.000000 0.000000 0.000000 0.000000 0.000000 0.000000 0.000000 0.000000 0.000000 0.000000 0.000000 0.000000 0.000000 0.000000 0.000000 0.000000 0.000000 0.000000 0.000000 0.000000 0.000000 0.000000 0.000000
0.000000 0.000000 0.000000 0.000000 0.000000 0.000000 0.000000 0.000000 0.000000 0.000000 0.000000 0.000000 0.000000 0.000000 0.000000 0.000000 0.000000 0.000000 0.000000 0.000000 0.000000 0.000000 0.000000 0.000000 0.000000 0.000000 0.000000 0.000000 0.000000 0.000000 0.000000 0.000000 0.000000 0.000000 0.000000 0.000000 0.000000 0.000000 0.000000 0.000000 0.000000 0.000000 0.000000 0.000000 0.000000 0.000000 0.000000 0.000000 0.000000 0.000000 0.000000 0.000000 0.000000 0.000000 0.000000 0.000000 0.000000 0.000000 0.000000 0.000000 0.000000 0.000000 0.000000 0.000000 0.000000 0.000000 0.000000 0.000000 0.000000 0.000000 0.000000 0.000000 0.000000 0.000000 0.000000 0.000000 0.000000 0.000000 0.000000 0.000000 0.000000 0.000000 0.000000 0.000000 0.000000 0.000000 0.000000 0.000000 0.000000 0.000000 0.000000 0.000000 0.000000 0.000000 0.000000 0.000000 0.000000 0.000000 0.000000 0.000000 0.000000 0.000000 0.000000
0.000000 0.000000 0.000000 0.000000 0.000000 0.000000 0.000000 0.000000 0.000000 0.000000 0.000000 0.000000 0.000000 0.000000 0.000000 0.000000 0.000000 0.000000 0.000000 0.000000 0.000000 0.000000 0.000000 0.000000 0.000000 0.000000 0.000000 0.000000 0.000000 0.000000 0.000000 0.000000 0.000000 0.000000 0.000000 0.000000 0.000000 0.000000 0.000000 0.000000 0.000000 0.000000 0.000000 0.000000 0.000000 0.000000 0.000000 0.000000 0.000000 0.000000 0.000000 0.000000 0.000000 0.000000 0.000000 0.000000 0.000000 0.000000 0.000000 0.000000 0.000000 0.000000 0.000000 0.000000 0.000000 0.000000 0.000000 0.000000 0.000000 0.000000 0.000000 0.000000 0.000000 0.000000 0.000000 0.000000 0.000000 0.000000 0.000000 0.000000 0.000000 0.000000 0.000000 0.000000 0.000000 0.000000 0.000000 0.000000 0.000000 0.000000 0.000000 0.000000 0.000000 0.000000 0.000000 0.000000 0.000000 0.000000 0.000000 0.000000 0.000000 0.000000 0.000000
0.000000 0.000000 0.000000 0.000000 0.000000 0.000000 0.000000 0.000000 0.000000 0.000000 0.000000 0.000000 0.000000 0.000000 0.000000 0.000000 0.000000 0.000000 0.000000 0.000000 0.000000 0.000000 0.000000 12.000301 12.000301 12.000301 12.000301 12.000301 12.000301 12.000301 0.000000 0.000000 0.000000 0.000000 0.000000 15.473048 15.473048 15.473048 15.473048 15.473048 15.473048 15.473048 15.473048 15.473048 15.473048 0.000000 0.000000 0.000000 0.000000 0.000000 0.000000 0.000000 0.000000 0.000000 0.000000 0.000000 0.000000 0.000000 0.000000 0.000000 0.000000 0.000000 0.000000 0.000000 0.000000 0.000000 0.000000 0.000000 0.000000 0.000000 0.000000 0.000000 0.000000 0.000000 0.000000 0.000000 0.000000 0.000000 0.000000 0.000000 0.000000 0.000000 0.000000 0.000000 0.000000 0.000000 22.039462 22.039462 22.039462 22.039462 22.039462 22.039462 22.039462 22.039462 22.039462 22.039462 22.039462 22.039462 22.039462 0.000000 0.000000 0.000000 0.000000
0.000000 0.000000 0.000000 0.000000 0.000000 0.000000 0.000000 0.000000 0.000000 0.000000 0.000000 0.000000 0.000000 0.000000 0.000000 0.000000 0.000000 0.000000 0.000000 0.000000 0.000000 0.000000 0.000000 12.000301 12.000301 12.000301 12.000301 12.000301 12.000301 12.000301 0.000000 0.000000 0.000000 0.000000 0.000000 15.473048 15.473048 15.473048 15.473048 15.473048 15.473048 15.473048 15.473048 15.473048 15.473048 0.000000 0.000000 0.000000 0.000000 0.000000 0.000000 0.000000 0.000000 0.000000 0.000000 0.000000 0.000000 0.000000 0.000000 0.000000 0.000000 0.000000 0.000000 0.000000 0.000000 0.000000 0.000000 0.000000 0.000000 0.000000 0.000000 0.000000 0.000000 0.000000 0.000000 0.000000 0.000000 0.000000 0.000000 0.000000 0.000000 0.000000 0.000000 0.000000 0.000000 0.000000 22.039462 22.039462 22.039462 22.039462 22.039462 22.039462 22.039462 22.039462 22.039462 22.039462 22.039462 22.039462 22.039462 0.000000 0.000000 0.000000 0.000000
0.000000 0.000000 0.000000 0.000000 0.000000 0.000000 0.000000 0.000000 0.000000 0.000000 0.000000 0.000000 0.000000 0.000000 0.000000 0.000000 0.000000 0.000000 0.000000 0.000000 0.000000 0.000000 0.000000 12.000301 12.000301 12.000301 12.000301 12.000301 12.000301 12.000301 0.000000 0.000000 0.000000 0.000000 0.000000 15.473048 15.473048 15.473048 15.473048 15.473048 15.473048 15.473048 15.473048 15.473048 15.473048 0.000000 0.000000 0.000000 0.000000 0.000000 0.000000 0.000000 0.000000 0.000000 0.000000 0.000000 0.000000 0.000000 0.000000 0.000000 0.000000 0.000000 0.000000 0.000000 0.000000 0.000000 0.000000 0.000000 0.000000 0.000000 0.000000 0.000000 0.000000 0.000000 0.000000 0.000000 0.000000 0.000000 0.000000 0.000000 0.000000 0.000000 0.000000 0.000000 0.000000 0.000000 22.039462 22.039462 22.039462 22.039462 22.039462 22.039462 22.039462 22.039462 22.039462 22.039462 22.039462 22.039462 22.039462 0.000000 0.000000 0.000000 0.000000
0.000000 0.000000 0.000000 0.000000 0.000000 0.000000 0.000000 0.000000 0.000000 0.000000 0.000000 0.000000 0.000000 0.000000 0.000000 0.000000 0.000000 0.000000 0.000000 0.000000 0.000000 0.000000 0.000000 12.000301 12.000301 12.000301 12.000301 12.000301 12.000301 12.000301 0.000000 0.000000 0.000000 0.000000 0.000000 15.473048 15.473048 15.473048 15.473048 15.473048 15.473048 15.473048 15.473048 15.473048 15.473048 0.000000 0.000000 0.000000 0.000000 0.000000 0.000000 0.000000 0.000000 0.000000 0.000000 0.000000 0.000000 0.000000 0.000000 0.000000 0.000000 0.000000 0.000000 0.000000 0.000000 0.000000 0.000000 0.000000 0.000000 0.000000 0.000000 0.000000 0.000000 0.000000 0.000000 0.000000 0.000000 0.000000 0.000000 0.000000 0.000000 0.000000 0.000000 0.000000 0.000000 0.000000 22.039462 22.039462 22.039462 22.039462 22.039462 22.039462 22.039462 22.039462 22.039462 22.039462 22.039462 22.039462 22.039462 0.000000 0.000000 0.000000 0.000000
0.000000 0.000000 0.000000 0.000000 0.000000 0.000000 0.000000 0.000000 0.000000 0.000000 0.000000 0.000000 0.000000 0.000000 0.000000 0.000000 0.000000 0.000000 0.000000 0.000000 0.000000 0.000000 0.000000 12.000301 12.000301 12.000301 12.000301 12.000301 12.000301 12.000301 0.000000 0.000000 0.000000 0.000000 0.000000 15.473048 15.473048 15.473048 15.473048 15.473048 15.473048 15.473048 15.473048 15.473048 15.473048 0.000000 0.000000 0.000000 0.000000 0.000000 0.000000 0.000000 0.000000 0.000000 0.000000 0.000000 0.000000 0.000000 0.000000 0.000000 0.000000 0.000000 0.000000 0.000000 0.000000 0.000000 0.000000 0.000000 0.000000 0.000000 0.000000 0.000000 0.000000 0.000000 0.000000 0.000000 0.000000 0.000000 0.000000 0.000000 0.000000 0.000000 0.000000 0.000000 0.000000 0.000000 22.039462 22.039462 22.039462 22.039462 22.039462 22.039462 22.039462 22.039462 22.039462 22.039462 22.039462 22.039462 22.039462 0.000000 0.000000 0.000000 0.000000
0.000000 0.000000 0.000000 0.000000 0.000000 0.000000 0.000000 0.000000 0.000000 0.000000 0.000000 0.000000 0.000000 0.000000 0.000000 0.000000 0.000000 0.000000 0.000000 0.000000 0.000000 0.000000 0.000000 12.000301 12.000301 12.000301 12.000301 12.000301 12.000301 12.000301 0.000000 0.000000 0.000000 0.000000 0.000000 15.473048 15.473048 15.473048 15.473048 15.473048 15.473048 15.473048 15.473048 15.473048 15.473048 0.000000 0.000000 0.000000 0.000000 0.000000 0.000000 0.000000 0.000000 0.000000 0.000000 0.000000 0.000000 0.000000 0.000000 0.000000 0.000000 0.000000 0.000000 0.000000 0.000000 0.000000 0.000000 0.000000 0.000000 0.000000 0.000000 0.000000 0.000000 0.000000 0.000000 0.000000 0.000000 0.000000 0.000000 0.000000 0.000000 0.000000 0.000000 0.000000 0.000000 0.000000 22.039462 22.039462 22.039462 22.039462 22.039462 22.039462 22.039462 22.039462 22.039462 22.039462 22.039462 22.039462 22.039462 0.000000 0.000000 0.000000 0.000000
0.000000 0.000000 0.000000 0.000000 0.000000 0.000000 0.000000 0.000000 0.000000 0.000000 0.000000 0.000000 0.000000 0.000000 0.000000 0.000000 0.000000 0.000000 0.000000 0.000000 0.000000 0.000000 0.000000 12.000301 12.000301 12.000301 12.000301 12.000301 12.000301 12.000301 0.000000 0.000000 0.000000 0.000000 0.000000 15.473048 15.473048 15.473048 15.473048 15.473048 15.473048 15.473048 15.473048 15.473048 15.473048 0.000000 0.000000 0.000000 0.000000 0.000000 0.000000 0.000000 0.000000 0.000000 0.000000 0.000000 0.000000 0.000000 0.000000 0.000000 0.000000 0.000000 0.000000 0.000000 0.000000 0.000000 0.000000 0.000000 0.000000 0.000000 0.000000 0.000000 0.000000 0.000000 0.000000 0.000000 0.000000 0.000000 0.000000 0.000000 0.000000 0.000000 0.000000 0.000000 0.000000 0.000000 22.039462 22.039462 22.039462 22.039462 22.039462 22.039462 22.039462 22.039462 22.039462 22.039462 22.039462 22.039462 22.039462 0.000000 0.000000 0.000000 0.000000
0.000000 0.000000 0.000000 0.000000 0.000000 0.000000 0.000000 0.000000 0.000000 0.000000 0.000000 0.000000 0.000000 0.000000 0.000000 0.000000 0.000000 0.000000 0.000000 0.000000 0.000000 0.000000 0.000000 0.000000 0.000000 0.000000 0.000000 0.000000 0.000000 0.000000 0.000000 0.000000 0.000000 0.000000 0.000000 0.000000 0.000000 0.000000 0.000000 0.000000 0.000000 0.000000 0.000000 0.000000 0.000000 0.000000 0.000000 0.000000 0.000000 0.000000 0.000000 0.000000 0.000000 0.000000 0.000000 0.000000 0.000000 0.000000 0.000000 0.000000 0.000000 0.000000 0.000000 0.000000 0.000000 0.000000 0.000000 0.000000 0.000000 0.000000 0.000000 0.000000 0.000000 0.000000 0.000000 0.000000 0.000000 0.000000 0.000000 0.000000 0.000000 0.000000 0.000000 0.000000 0.000000 0.000000 0.000000 0.000000 0.000000 0.000000 0.000000 0.000000 0.000000 0.000000 0.000000 0.000000 0.000000 0.000000 0.000000 0.000000 0.000000 0.000000 0.000000
0.000000 0.000000 0.000000 0.000000 0.000000 0.000000 0.000000 0.000000 0.000000 0.000000 0.000000 0.000000 0.000000 0.000000 0.000000 0.000000 0.000000 0.000000 0.000000 0.000000 0.000000 0.000000 0.000000 0.000000 0.000000 0.000000 0.000000 0.000000 0.000000 0.000000 0.000000 0.000000 0.000000 0.000000 0.000000 0.000000 0.000000 0.000000 0.000000 0.000000 0.000000 0.000000 0.000000 0.000000 0.000000 0.000000 0.000000 0.000000 0.000000 0.000000 0.000000 0.000000 0.000000 0.000000 0.000000 0.000000 0.000000 0.000000 0.000000 0.000000 0.000000 0.000000 0.000000 0.000000 0.000000 0.000000 0.000000 0.000000 0.000000 0.000000 0.000000 0.000000 0.000000 0.000000 0.000000 0.000000 0.000000 0.000000 0.000000 0.000000 0.000000 0.000000 0.000000 0.000000 0.000000 0.000000 0.000000 0.000000 0.000000 0.000000 0.000000 0.000000 0.000000 0.000000 0.000000 0.000000 0.000000 0.000000 0.000000 0.000000 0.000000 0.000000 0.000000
0.000000 0.000000 0.000000 0.000000 0.000000 0.000000 0.000000 0.000000 0.000000 0.000000 0.000000 0.000000 0.000000 0.000000 0.000000 0.000000 0.000000 0.000000 0.000000 0.000000 0.000000 0.000000 0.000000 0.000000 0.000000 0.000000 0.000000 0.000000 0.000000 0.000000 0.000000 0.000000 0.000000 0.000000 0.000000 0.000000 0.000000 0.000000 0.000000 0.000000 0.000000 0.000000 0.000000 0.000000 0.000000 0.000000 0.000000 0.000000 0.000000 0.000000 0.000000 0.000000 0.000000 0.000000 0.000000 0.000000 0.000000 0.000000 0.000000 0.000000 0.000000 0.000000 0.000000 0.000000 0.000000 0.000000 0.000000 0.000000 0.000000 0.000000 0.000000 0.000000 0.000000 0.000000 0.000000 0.000000 0.000000 0.000000 0.000000 0.000000 0.000000 0.000000 0.000000 0.000000 0.000000 0.000000 0.000000 0.000000 0.000000 0.000000 0.000000 0.000000 0.000000 0.000000 0.000000 0.000000 0.000000 0.000000 0.000000 0.000000 0.000000 0.000000 0.000000
0.000000 0.000000 0.000000 0.000000 0.000000 0.000000 0.000000 0.000000 0.000000 0.000000 0.000000 0.000000 0.000000 0.000000 0.000000 0.000000 0.000000 0.000000 0.000000 0.000000 0.000000 0.000000 0.000000 0.000000 0.000000 0.000000 0.000000 0.000000 0.000000 0.000000 0.000000 0.000000 0.000000 0.000000 0.000000 0.000000 0.000000 0.000000 0.000000 0.000000 0.000000 0.000000 0.000000 0.000000 0.000000 0.000000 0.000000 0.000000 0.000000 0.000000 0.000000 0.000000 0.000000 0.000000 0.000000 0.000000 0.000000 0.000000 0.000000 0.000000 0.000000 0.000000 0.000000 0.000000 0.000000 0.000000 0.000000 0.000000 0.000000 0.000000 0.000000 0.000000 0.000000 0.000000 0.000000 0.000000 0.000000 0.000000 0.000000 0.000000 0.000000 0.000000 0.000000 0.000000 0.000000 0.000000 0.000000 0.000000 0.000000 0.000000 0.000000 0.000000 0.000000 0.000000 0.000000 0.000000 0.000000 0.000000 0.000000 0.000000 0.000000 0.000000 0.000000
0.000000 0.000000 0.000000 0.000000 0.000000 0.000000 0.000000 0.000000 0.000000 0.000000 0.000000 0.000000 0.000000 0.000000 0.000000 0.000000 0.000000 0.000000 0.000000 0.000000 0.000000 0.000000 0.000000 0.000000 0.000000 0.000000 0.000000 0.000000 0.000000 0.000000 0.000000 0.000000 0.000000 0.000000 0.000000 0.000000 0.000000 0.000000 0.000000 0.000000 0.000000 0.000000 0.000000 0.000000 0.000000 0.000000 0.000000 0.000000 0.000000 0.000000 0.000000 0.000000 0.000000 0.000000 0.000000 0.000000 0.000000 0.000000 0.000000 0.000000 0.000000 0.000000 0.000000 0.000000 0.000000 0.000000 0.000000 0.000000 0.000000 0.000000 0.000000 0.000000 0.000000 0.000000 0.000000 0.000000 0.000000 0.000000 0.000000 0.000000 0.000000 0.000000 0.000000 0.000000 0.000000 0.000000 0.000000 0.000000 0.000000 0.000000 0.000000 0.000000 0.000000 0.000000 0.000000 0.000000 0.000000 0.000000 0.000000 0.000000 0.000000 0.000000 0.000000
0.000000 0.000000 0.000000 0.000000 0.000000 0.000000 0.000000 0.000000 0.000000 0.000000 0.000000 0.000000 0.000000 0.000000 0.000000 0.000000 0.000000 0.000000 0.000000 0.000000 0.000000 0.000000 0.000000 0.000000 0.000000 0.000000 0.000000 0.000000 0.000000 0.000000 0.000000 0.000000 0.000000 0.000000 0.000000 0.000000 0.000000 0.000000 0.000000 0.000000 0.000000 0.000000 0.000000 0.000000 0.000000 0.000000 0.000000 0.000000 0.000000 0.000000 0.000000 0.000000 0.000000 0.000000 0.000000 0.000000 0.000000 0.000000 0.000000 0.000000 0.000000 0.000000 0.000000 0.000000 0.000000 0.000000 0.000000 0.000000 0.000000 0.000000 0.000000 0.000000 0.000000 0.000000 0.000000 0.000000 0.000000 0.000000 0.000000 0.000000 0.000000 0.000000 0.000000 0.000000 0.000000 0.000000 0.000000 0.000000 0.000000 0.000000 0.000000 0.000000 0.000000 0.000000 0.000000 0.000000 0.000000 0.000000 0.000000 0.000000 0.000000 0.000000 0.000000
0.000000 0.000000 0.000000 0.000000 0.000000 0.000000 0.000000 0.000000 0.000000 0.000000 0.000000 0.000000 0.000000 0.000000 0.000000 0.000000 0.000000 0.000000 0.000000 0.000000 0.000000 0.000000 0.000000 0.000000 0.000000 0.000000 0.000000 0.000000 0.000000 0.000000 0.000000 0.000000 0.000000 0.000000 0.000000 0.000000 0.000000 0.000000 0.000000 0.000000 0.000000 0.000000 0.000000 0.000000 0.000000 0.000000 0.000000 0.000000 0.000000 0.000000 0.000000 0.000000 0.000000 0.000000 0.000000 0.000000 0.000000 0.000000 0.000000 0.000000 0.000000 0.000000 0.000000 0.000000 0.000000 0.000000 0.000000 0.000000 0.000000 0.000000 0.000000 0.000000 0.000000 0.000000 0.000000 0.000000 0.000000 0.000000 0.000000 0.000000 0.000000 0.000000 0.000000 0.000000 0.000000 0.000000 0.000000 0.000000 0.000000 0.000000 0.000000 0.000000 0.000000 0.000000 0.000000 0.000000 0.000000 0.000000 0.000000 0.000000 0.000000 0.000000 0.000000
0.000000 0.000000 0.000000 0.000000 0.000000 0.000000 9.295470 9.295470 9.295470 9.295470 9.295470 9.295470 9.295470 9.295470 9.295470 9.295470 0.000000 0.000000 0.000000 0.000000 8.394016 8.394016 8.394016 8.394016 8.394016 8.394016 8.394016 8.394016 0.000000 0.000000 0.000000 0.000000 0.000000 0.000000 0.000000 0.000000 0.000000 0.000000 0.000000 0.000000 0.000000 0.000000 0.000000 0.000000 0.000000 0.000000 0.000000 0.000000 0.000000 0.000000 0.000000 0.000000 12.298776 12.298776 12.298776 12.298776 12.298776 12.298776 12.298776 12.298776 12.298776 12.298776 12.298776 12.298776 12.298776 0.000000 0.000000 0.000000 0.000000 0.000000 0.000000 0.000000 0.000000 12.657278 12.657278 12.657278 12.657278 12.657278 12.657278 12.657278 12.657278 12.657278 12.657278 12.657278 12.657278 12.657278 12.657278 0.000000 0.000000 0.000000 0.000000 0.000000 0.000000 0.000000 0.000000 0.000000 0.000000 0.000000 0.000000 0.000000 0.000000 0.000000 0.000000
0.000000 0.000000 0.000000 0.000000 0.000000 0.000000 9.295470 9.295470 9.295470 9.295470 9.295470 9.295470 9.295470 9.295470 9.295470 9.295470 0.000000 0.000000 0.000000 0.000000 8.394016 8.394016 8.394016 8.394016 8.394016 8.394016 8.394016 8.394016 0.000000 0.000000 0.000000 0.000000 0.000000 0.000000 0.000000 0.000000 0.000000 0.000000 0.000000 0.000000 0.000000 0.000000 0.000000 0.000000 0.000000 0.000000 0.000000 0.000000 0.000000 0.000000 0.000000 0.000000 12.298776 12.298776 12.298776 12.298776 12.298776 12.298776 12.298776 12.298776 12.298776 12.298776 12.298776 12.298776 12.298776 0.000000 0.000000 0.000000 0.000000 0.000000 0.000000 0.000000 0.000000 12.657278 12.657278 12.657278 12.657278 12.657278 12.657278 12.657278 12.657278 12.657278 12.657278 12.657278 12.657278 12.657278 12.657278 0.000000 0.000000 0.000000 0.000000 0.000000 0.000000 0.000000 0.000000 0.000000 0.000000 0.000000 0.000000 0.000000 0.000000 0.000000 0.000000
0.000000 0.000000 0.000000 0.000000 0.000000 0.000000 9.295470 9.295470 9.295470 9.295470 9.295470 9.295470 9.295470 9.295470 9.295470 9.295470 0.000000 0.000000 0.000000 0.000000 8.394016 8.394016 8.394016 8.394016 8.394016 8.394016 8.394016 8.394016 0.000000 0.000000 0.000000 0.000000 0.000000 0.000000 0.000000 0.000000 0.000000 0.000000 0.000000 0.000000 0.000000 0.000000 0.000000 0.000000 0.000000 0.000000 0.000000 0.000000 0.000000 0.000000 0.000000 0.000000 12.298776 12.298776 12.298776 12.298776 12.298776 12.298776 12.298776 12.298776 12.298776 12.298776 12.298776 12.298776 12.298776 0.000000 0.000000 0.000000 0.000000 0.000000 0.000000 0.000000 0.000000 12.657278 12.657278 12.657278 12.657278 12.657278 12.657278 12.657278 12.657278 12.657278 12.657278 12.657278 12.657278 12.657278 12.657278 0.000000 0.000000 0.000000 0.000000 0.000000 0.000000 0.000000 0.000000 0.000000 0.000000 0.000000 0.000000 0.000000 0.000000 0.000000 0.000000
0.000000 0.000000 0.000000 0.000000 0.000000 0.000000 9.295470 9.295470 9.295470 9.295470 9.295470 9.295470 9.295470 9.295470 9.295470 9.295470 0.000000 0.000000 0.000000 0.000000 8.394016 8.394016 8.394016 8.394016 8.394016 8.394016 8.394016 8.394016 0.000000 0.000000 0.000000 0.000000 0.000000 0.000000 0.000000 0.000000 0.000000 0.000000 0.000000 0.000000 0.000000 0.000000 0.000000 0.000000 0.000000 0.000000 0.000000 0.000000 0.000000 0.000000 0.000000 0.000000 12.298776 12.298776 12.298776 12.298776 12.298776 12.298776 12.298776 12.298776 12.298776 12.298776 12.298776 12.298776 12.298776 0.000000 0.000000 0.000000 0.000000 0.000000 0.000000 0.000000 0.000000 12.657278 12.657278 12.657278 12.657278 12.657278 12.657278 12.657278 12.657278 12.657278 12.657278 12.657278 12.657278 12.657278 12.657278 0.000000 0.000000 0.000000 0.000000 0.000000 0.000000 0.000000 0.000000 0.000000 0.000000 0.000000 0.000000 0.000000 0.000000 0.000000 0.000000
0.000000 0.000000 0.000000 0.000000 0.000000 0.000000 0.000000 0.000000 0.000000 0.000000 0.000000 0.000000 0.000000 0.000000 0.000000 0.000000 0.000000 0.000000 0.000000 0.000000 0.000000 0.000000 0.000000 0.000000 0.000000 0.000000 0.000000 0.000000 0.000000 0.000000 0.000000 0.000000 0.000000 0.000000 0.000000 0.000000 0.000000 0.000000 0.000000 0.000000 0.000000 0.000000 0.000000 0.000000 0.000000 0.000000 0.000000 0.000000 0.000000 0.000000 0.000000 0.000000 0.000000 0.000000 0.000000 0.000000 0.000000 0.000000 0.000000 0.000000 0.000000 0.000000 0.000000 0.000000 0.000000 0.000000 0.000000 0.000000 0.000000 0.000000 0.000000 0.000000 0.000000 0.000000 0.000000 0.000000 0.000000 0.000000 0.000000 0.000000 0.000000 0.000000 0.000000 0.000000 0.000000 0.000000 0.000000 0.000000 0.000000 0.000000 0.000000 0.000000 0.000000 0.000000 0.000000 0.000000 0.000000 0.000000 0.000000 0.000000 0.000000 0.000000 0.000000
0.000000 0.000000 0.000000 0.000000 0.000000 0.000000 0.000000 0.000000 0.000000 0.000000 0.000000 0.000000 0.000000 0.000000 0.000000 0.000000 0.000000 0.000000 0.000000 0.000000 0.000000 0.000000 0.000000 0.000000 0.000000 0.000000 0.000000 0.000000 0.000000 0.000000 0.000000 0.000000 0.000000 0.000000 0.000000 0.000000 0.000000 0.000000 0.000000 0.000000 0.000000 0.000000 0.000000 0.000000 0.000000 0.000000 0.000000 0.000000 0.000000 0.000000 0.000000 0.000000 0.000000 0.000000 0.000000 0.000000 0.000000 0.000000 0.000000 0.000000 0.000000 0.000000 0.000000 0.000000 0.000000 0.000000 0.000000 0.000000 0.000000 0.000000 0.000000 0.000000 0.000000 0.000000 0.000000 0.000000 0.000000 0.000000 0.000000 0.000000 0.000000 0.000000 0.000000 0.000000 0.000000 0.000000 0.000000 0.000000 0.000000 0.000000 0.000000 0.000000 0.000000 0.000000 0.000000 0.000000 0.000000 0.000000 0.000000 0.000000 0.000000 0.000000 0.000000
0.000000 0.000000 0.000000 0.000000 0.000000 0.000000 0.000000 0.000000 0.000000 0.000000 0.000000 0.000000 0.000000 0.000000 0.000000 0.000000 0.000000 0.000000 0.000000 0.000000 0.000000 0.000000 0.000000 0.000000 0.000000 0.000000 0.000000 0.000000 0.000000 0.000000 0.000000 0.000000 0.000000 0.000000 0.000000 0.000000 0.000000 0.000000 0.000000 0.000000 0.000000 0.000000 0.000000 0.000000 0.000000 0.000000 0.000000 0.000000 0.000000 0.000000 0.000000 0.000000 0.000000 0.000000 0.000000 0.000000 0.000000 0.000000 0.000000 0.000000 0.000000 0.000000 0.000000 0.000000 0.000000 0.000000 0.000000 0.000000 0.000000 0.000000 0.000000 0.000000 0.000000 0.000000 0.000000 0.000000 0.000000 0.000000 0.000000 0.000000 0.000000 0.000000 0.000000 0.000000 0.000000 0.000000 0.000000 0.000000 0.000000 0.000000 0.000000 0.000000 0.000000 0.000000 0.000000 0.000000 0.000000 0.000000 0.000000 0.000000 0.000000 0.000000 0.000000
0.000000 0.000000 0.000000 0.000000 0.000000 0.000000 0.000000 0.000000 0.000000 0.000000 0.000000 0.000000 0.000000 0.000000 0.000000 0.000000 0.000000 0.000000 0.000000 0.000000 0.000000 0.000000 0.000000 0.000000 0.000000 0.000000 0.000000 0.000000 0.000000 0.000000 0.000000 0.000000 0.000000 0.000000 0.000000 0.000000 0.000000 0.000000 0.000000 0.000000 0.000000 0.000000 0.000000 0.000000 0.000000 0.000000 0.000000 0.000000 0.000000 0.000000 0.000000 0.000000 0.000000 0.000000 0.000000 0.000000 0.000000 0.000000 0.000000 0.000000 0.000000 0.000000 0.000000 0.000000 0.000000 0.000000 0.000000 0.000000 0.000000 0.000000 0.000000 0.000000 0.000000 0.000000 0.000000 0.000000 0.000000 0.000000 0.000000 0.000000 0.000000 0.000000 0.000000 0.000000 0.000000 0.000000 0.000000 0.000000 0.000000 0.000000 0.000000 0.000000 0.000000 0.000000 0.000000 0.000000 0.000000 0.000000 0.000000 0.000000 0.000000 0.000000 0.000000
0.000000 0.000000 0.000000 0.000000 0.000000 0.000000 0.000000 0.000000 0.000000 0.000000 0.000000 0.000000 0.000000 0.000000 0.000000 0.000000 0.000000 0.000000 0.000000 0.000000 0.000000 0.000000 0.000000 0.000000 0.000000 0.000000 0.000000 0.000000 0.000000 0.000000 0.000000 0.000000 0.000000 0.000000 0.000000 0.000000 0.000000 0.000000 0.000000 0.000000 0.000000 0.000000 0.000000 0.000000 0.000000 0.000000 0.000000 0.000000 0.000000 0.000000 0.000000 0.000000 0.000000 0.000000 0.000000 0.000000 0.000000 0.000000 0.000000 0.000000 0.000000 0.000000 0.000000 0.000000 0.000000 0.000000 0.000000 0.000000 0.000000 0.000000 0.000000 0.000000 0.000000 0.000000 0.000000 0.000000 0.000000 0.000000 0.000000 0.000000 0.000000 0.000000 0.000000 0.000000 0.000000 0.000000 0.000000 0.000000 0.000000 0.000000 0.000000 0.000000 0.000000 0.000000 0.000000 0.000000 0.000000 0.000000 0.000000 0.000000 0.000000 0.000000 0.000000
0.000000 0.000000 0.000000 0.000000 0.000000 0.000000 0.000000 0.000000 0.000000 0.000000 0.000000 0.000000 0.000000 0.000000 0.000000 0.000000 0.000000 0.000000 0.000000 0.000000 0.000000 0.000000 0.000000 0.000000 0.000000 0.000000 0.000000 0.000000 0.000000 0.000000 0.000000 0.000000 0.000000 0.000000 0.000000 0.000000 0.000000 0.000000 0.000000 0.000000 0.000000 0.000000 0.000000 0.000000 0.000000 0.000000 0.000000 0.000000 0.000000 0.000000 0.000000 0.000000 0.000000 0.000000 0.000000 0.000000 0.000000 0.000000 0.000000 0.000000 0.000000 0.000000 0.000000 0.000000 0.000000 0.000000 0.000000 0.000000 0.000000 0.000000 0.000000 0.000000 0.000000 0.000000 0.000000 0.000000 0.000000 0.000000 0.000000 0.000000 0.000000 0.000000 0.000000 0.000000 0.000000 0.000000 0.000000 0.000000 0.000000 0.000000 0.000000 0.000000 0.000000 0.000000 0.000000 0.000000 0.000000 0.000000 0.000000 0.000000 0.000000 0.000000 0.000000
0.000000 0.000000 0.000000 0.000000 0.000000 0.000000 0.000000 0.000000 0.000000 0.000000 0.000000 0.000000 0.000000 0.000000 0.000000 0.000000 0.000000 0.000000 0.000000 0.000000 0.000000 0.000000 0.000000 0.000000 0.000000 0.000000 0.000000 0.000000 0.000000 0.000000 0.000000 0.000000 0.000000 0.000000 0.000000 0.000000 0.000000 0.000000 0.000000 0.000000 0.000000 0.000000 0.000000 0.000000 0.000000 0.000000 0.000000 0.000000 0.000000 0.000000 0.000000 0.000000 0.000000 0.000000 0.000000 0.000000 0.000000 0.000000 0.000000 0.000000 0.000000 0.000000 0.000000 0.000000 0.000000 0.000000 0.000000 0.000000 0.000000 0.000000 0.000000 0.000000 0.000000 0.000000 0.000000 0.000000 0.000000 0.000000 0.000000 0.000000 0.000000 0.000000 0.000000 0.000000 0.000000 0.000000 0.000000 0.000000 0.000000 0.000000 0.000000 0.000000 0.000000 0.000000 0.000000 0.000000 0.000000 0.000000 0.000000 0.000000 0.000000 0.000000 0.000000
0.000000 0.000000 0.000000 0.000000 0.000000 0.000000 0.000000 0.000000 0.000000 0.000000 0.000000 0.000000 0.000000 0.000000 0.000000 0.000000 0.000000 0.000000 0.000000 0.000000 0.000000 0.000000 0.000000 0.000000 0.000000 0.000000 0.000000 0.000000 0.000000 0.000000 0.000000 0.000000 0.000000 0.000000 0.000000 0.000000 0.000000 0.000000 0.000000 0.000000 0.000000 0.000000 0.000000 0.000000 0.000000 0.000000 0.000000 0.000000 0.000000 0.000000 10.108643 10.108643 10.108643 10.108643 10.108643 10.108643 15.383292 15.383292 15.383292 15.383292 15.383292 15.383292 15.383292 15.383292 15.383292 15.383292 15.383292 0.000000 0.000000 0.000000 0.000000 0.000000 16.203876 16.203876 16.203876 16.203876 16.203876 16.203876 16.203876 0.000000 0.000000 0.000000 0.000000 0.000000 0.000000 0.000000 0.000000 0.000000 26.644861 26.644861 26.644861 26.644861 26.644861 26.644861 26.644861 26.644861 26.644861 26.644861 26.644861 0.000000 0.000000 0.000000 0.000000
0.000000 0.000000 0.000000 0.000000 0.000000 0.000000 0.000000 0.000000 0.000000 0.000000 0.000000 0.000000 0.000000 0.000000 0.000000 0.000000 0.000000 0.000000 0.000000 0.000000 0.000000 0.000000 0.000000 0.000000 0.000000 0.000000 0.000000 0.000000 0.000000 0.000000 0.000000 0.000000 0.000000 0.000000 0.000000 0.000000 0.000000 0.000000 0.000000 0.000000 0.000000 0.000000 0.000000 0.000000 0.000000 0.000000 0.000000 0.000000 0.000000 0.000000 10.108643 10.108643 10.108643 10.108643 10.108643 10.108643 15.383292 15.383292 15.383292 15.383292 15.383292 15.383292 15.383292 15.383292 15.383292 15.383292 15.383292 0.000000 0.000000 0.000000 0.000000 0.000000 16.203876 16.203876 16.203876 16.203876 16.203876 16.203876 16.203876 0.000000 0.000000 0.000000 0.000000 0.000000 0.000000 0.000000 0.000000 0.000000 26.644861 26.644861 26.644861 26.644861 26.644861 26.644861 26.644861 26.644861 26.644861 26.644861 26.644861 0.000000 0.000000 0.000000 0.000000
0.000000 0.000000 0.000000 0.000000 0.000000 0.000000 5.713540 5.713540 5.713540 0.000000 0.000000 0.000000 0.000000 20.407287 20.407287 20.407287 20.407287 20.407287 20.407287 20.407287 20.407287 20.407287 0.000000 0.000000 0.000000 0.000000 5.871258 5.871258 0.000000 0.000000 0.000000 0.000000 0.000000 0.000000 0.000000 0.000000 0.000000 0.000000 0.000000 0.000000 0.000000 0.000000 0.000000 0.000000 0.000000 0.000000 0.000000 0.000000 0.000000 0.000000 10.108643 10.108643 10.108643 10.108643 10.108643 10.108643 15.383292 15.383292 15.383292 15.383292 15.383292 15.383292 15.383292 15.383292 15.383292 15.383292 15.383292 0.000000 0.000000 0.000000 0.000000 0.000000 16.203876 16.203876 16.203876 16.203876 16.203876 16.203876 16.203876 0.000000 7.938001 7.938001 7.938001 7.938001 7.938001 7.938001 0.000000 0.000000 26.644861 26.644861 26.644861 26.644861 26.644861 26.644861 26.644861 26.644861 26.644861 26.644861 26.644861 0.000000 0.000000 0.000000 0.000000
0.000000 0.000000 0.000000 0.000000 0.000000 0.000000 5.713540 5.713540 5.713540 0.000000 0.000000 0.000000 0.000000 20.407287 20.407287 20.407287 20.407287 20.407287 20.407287 20.407287 20.407287 20.407287 0.000000 0.000000 0.000000 0.000000 5.871258 5.871258 0.000000 0.000000 0.000000 0.000000 0.000000 0.000000 0.000000 0.000000 0.000000 0.000000 0.000000 0.000000 0.000000 0.000000 0.000000 0.000000 0.000000 0.000000 0.000000 0.000000 0.000000 0.000000 10.108643 10.108643 10.108643 10.108643 10.108643 10.108643 15.383292 15.383292 15.383292 15.383292 15.383292 15.383292 15.383292 15.383292 15.383292 15.383292 15.383292 0.000000 0.000000 0.000000 0.000000 0.000000 16.203876 16.203876 16.203876 16.203876 16.203876 16.203876 16.203876 0.000000 7.938001 7.938001 7.938001 7.938001 7.938001 7.938001 0.000000 0.000000 26.644861 26.644861 26.644861 26.644861 26.644861 26.644861 26.644861 26.644861 26.644861 26.644861 26.644861 0.000000 0.000000 0.000000 0.000000
0.000000 0.000000 0.000000 0.000000 0.000000 0.000000 5.713540 5.713540 5.713540 0.000000 0.000000 0.000000 0.000000 20.407287 20.407287 20.407287 20.407287 20.407287 20.407287 20.407287 20.407287 20.407287 0.000000 0.000000 0.000000 0.000000 5.871258 5.871258 0.000000 0.000000 0.000000 0.000000 0.000000 0.000000 0.000000 0.000000 0.000000 0.000000 0.000000 0.000000 0.000000 0.000000 0.000000 0.000000 0.000000 0.000000 0.000000 0.000000 0.000000 0.000000 10.108643 10.108643 10.108643 10.108643 10.108643 10.108643 15.383292 15.383292 15.383292 15.383292 15.383292 15.383292 15.383292 15.383292 15.383292 15.383292 15.383292 0.000000 0.000000 0.000000 0.000000 0.000000 16.203876 16.203876 16.203876 16.203876 16.203876 16.203876 16.203876 0.000000 7.938001 7.938001 7.938001 7.938001 7.938001 7.938001 0.000000 0.000000 26.644861 26.644861 26.644861 26.644861 26.644861 26.644861 26.644861 26.644861 26.644861 26.644861 26.644861 0.000000 0.000000 0.000000 0.000000
0.000000 0.000000 0.000000 0.000000 0.000000 0.000000 5.713540 5.713540 5.713540 0.000000 0.000000 0.000000 0.000000 20.407287 20.407287 20.407287 20.407287 20.407287 20.407287 20.407287 20.407287 20.407287 0.000000 0.000000 0.000000 0.000000 5.871258 5.871258 0.000000 0.000000 0.000000 0.000000 0.000000 0.000000 0.000000 0.000000 0.000000 0.000000 0.000000 0.000000 0.000000 0.000000 0.000000 0.000000 0.000000 0.000000 0.000000 0.000000 0.000000 0.000000 10.108643 10.108643 10.108643 10.108643 10.108643 10.108643 15.383292 15.383292 15.383292 15.383292 15.383292 15.383292 15.383292 15.383292 15.383292 15.383292 15.383292 0.000000 0.000000 0.000000 0.000000 0.000000 16.203876 16.203876 16.203876 16.203876 16.203876 16.203876 16.203876 0.000000 7.938001 7.938001 7.938001 7.938001 7.938001 7.938001 0.000000 0.000000 26.644861 26.644861 26.644861 26.644861 26.644861 26.644861 26.644861 26.644861 26.644861 26.644861 26.644861 0.000000 0.000000 0.000000 0.000000
0.000000 0.000000 0.000000 0.000000 0.000000 0.000000 5.713540 5.713540 5.713540 0.000000 0.000000 0.000000 0.000000 20.407287 20.407287 20.407287 20.407287 20.407287 20.407287 20.407287 20.407287 20.407287 0.000000 0.000000 0.000000 0.000000 5.871258 5.871258 0.000000 0.000000 0.000000 0.000000 0.000000 0.000000 0.000000 0.000000 0.000000 0.000000 0.000000 0.000000 0.000000 0.000000 0.000000 0.000000 0.000000 0.000000 0.000000 0.000000 0.000000 0.000000 0.000000 0.000000 0.000000 0.000000 0.000000 0.000000 26.639603 26.639603 26.639603 26.639603 26.639603 26.639603 26.639603 26.639603 26.639603 26.639603 26.639603 0.000000 0.000000 0.000000 0.000000 0.000000 16.203876 16.203876 16.203876 16.203876 16.203876 16.203876 16.203876 0.000000 7.938001 7.938001 7.938001 7.938001 7.938001 7.938001 0.000000 0.000000 26.644861 26.644861 26.644861 26.644861 26.644861 26.644861 26.644861 26.644861 26.644861 26.644861 26.644861 0.000000 0.000000 0.000000 0.000000
0.000000 0.000000 0.000000 0.000000 0.000000 0.000000 5.713540 5.713540 5.713540 0.000000 0.000000 0.000000 0.000000 20.407287 20.407287 20.407287 20.407287 20.407287 20.407287 20.407287 20.407287 20.407287 0.000000 0.000000 0.000000 0.000000 5.871258 5.871258 0.000000 0.000000 0.000000 0.000000 0.000000 0.000000 0.000000 0.000000 0.000000 0.000000 0.000000 0.000000 0.000000 0.000000 0.000000 0.000000 0.000000 0.000000 0.000000 0.000000 0.000000 0.000000 0.000000 0.000000 0.000000 0.000000 0.000000 0.000000 26.639603 26.639603 26.639603 26.639603 26.639603 26.639603 26.639603 26.639603 26.639603 26.639603 26.639603 0.000000 0.000000 0.000000 0.000000 0.000000 16.203876 16.203876 16.203876 16.203876 16.203876 16.203876 16.203876 0.000000 7.938001 7.938001 7.938001 7.938001 7.938001 7.938001 0.000000 0.000000 26.644861 26.644861 26.644861 26.644861 26.644861 26.644861 26.644861 26.644861 26.644861 26.644861 26.644861 0.000000 0.000000 0.000000 0.000000
0.000000 0.000000 0.000000 0.000000 0.000000 0.000000 5.713540 5.713540 5.713540 0.000000 0.000000 0.000000 0.000000 20.407287 20.407287 20.407287 20.407287 20.407287 20.407287 20.407287 20.407287 20.407287 0.000000 0.000000 0.000000 0.000000 5.871258 5.871258 0.000000 0.000000 0.000000 0.000000 0.000000 0.000000 0.000000 0.000000 0.000000 0.000000 0.000000 0.000000 0.000000 0.000000 0.000000 0.000000 0.000000 0.000000 0.000000 0.000000 0.000000 0.000000 0.000000 0.000000 0.000000 0.000000 0.000000 0.000000 26.639603 26.639603 26.639603 26.639603 26.639603 26.639603 26.639603 26.639603 26.639603 26.639603 26.639603 0.000000 0.000000 0.000000 0.000000 0.000000 16.203876 16.203876 16.203876 16.203876 16.203876 16.203876 16.203876 0.000000 0.000000 0.000000 0.000000 0.000000 0.000000 0.000000 0.000000 0.000000 26.644861 26.644861 26.644861 26.644861 26.644861 26.644861 26.644861 26.644861 26.644861 26.644861 26.644861 0.000000 0.000000 0.000000 0.000000
0.000000 0.000000 0.000000 0.000000 0.000000 0.000000 5.713540 5.713540 5.713540 0.000000 0.000000 0.000000 0.000000 20.407287 20.407287 20.407287 20.407287 20.407287 20.407287 20.407287 20.407287 20.407287 0.000000 0.000000 0.000000 0.000000 5.871258 5.871258 0.000000 0.000000 0.000000 0.000000 0.000000 0.000000 0.000000 0.000000 0.000000 0.000000 0.000000 0.000000 0.000000 0.000000 0.000000 0.000000 0.000000 0.000000 0.000000 0.000000 0.000000 0.000000 0.000000 0.000000 0.000000 0.000000 0.000000 0.000000 26.639603 26.639603 26.639603 26.639603 26.639603 26.639603 26.639603 26.639603 26.639603 26.639603 26.639603 0.000000 0.000000 0.000000 0.000000 0.000000 18.221581 18.221581 18.221581 18.221581 18.221581 18.221581 18.221581 24.368817 24.368817 24.368817 24.368817 24.368817 24.368817 24.368817 24.368817 24.368817 29.962676 29.962676 29.962676 29.962676 29.962676 29.962676 29.962676 29.962676 29.962676 29.962676 29.962676 0.000000 0.000000 0.000000 0.000000
0.000000 0.000000 0.000000 0.000000 0.000000 0.000000 5.713540 5.713540 5.713540 0.000000 0.000000 0.000000 0.000000 20.407287 20.407287 20.407287 20.407287 20.407287 20.407287 20.407287 20.407287 20.407287 0.000000 0.000000 0.000000 0.000000 5.871258 5.871258 0.000000 0.000000 0.000000 0.000000 0.000000 0.000000 0.000000 0.000000 0.000000 0.000000 0.000000 0.000000 0.000000 0.000000 0.000000 0.000000 0.000000 0.000000 0.000000 0.000000 0.000000 0.000000 0.000000 0.000000 0.000000 0.000000 0.000000 0.000000 26.639603 26.639603 26.639603 26.639603 26.639603 26.639603 26.639603 26.639603 26.639603 26.639603 26.639603 0.000000 0.000000 0.000000 0.000000 0.000000 18.221581 18.221581 18.221581 18.221581 18.221581 18.221581 18.221581 24.368817 24.368817 24.368817 24.368817 24.368817 24.368817 24.368817 24.368817 24.368817 29.962676 29.962676 29.962676 29.962676 29.962676 29.962676 29.962676 29.962676 29.962676 29.962676 29.962676 0.000000 0.000000 0.000000 0.000000
0.000000 0.000000 0.000000 0.000000 0.000000 0.000000 0.000000 0.000000 0.000000 0.000000 0.000000 0.000000 0.000000 0.000000 0.000000 0.000000 0.000000 0.000000 0.000000 0.000000 0.000000 0.000000 0.000000 0.000000 0.000000 0.000000 0.000000 0.000000 0.000000 0.000000 0.000000 0.000000 0.000000 0.000000 0.000000 0.000000 0.000000 0.000000 0.000000 0.000000 0.000000 0.000000 0.000000 0.000000 0.000000 0.000000 0.000000 0.000000 0.000000 0.000000 0.000000 0.000000 0.000000 0.000000 0.000000 0.000000 26.639603 26.639603 26.639603 26.639603 26.639603 26.639603 26.639603 26.639603 26.639603 26.639603 26.639603 0.000000 0.000000 0.000000 0.000000 0.000000 18.221581 18.221581 18.221581 18.221581 18.221581 18.221581 18.221581 24.368817 24.368817 24.368817 24.368817 24.368817 24.368817 24.368817 24.368817 24.368817 29.962676 29.962676 29.962676 29.962676 29.962676 29.962676 29.962676 29.962676 29.962676 29.962676 29.962676 0.000000 0.000000 0.000000 0.000000
0.000000 0.000000 0.000000 0.000000 14.917792 14.917792 14.917792 14.917792 14.917792 14.917792 14.917792 0.000000 0.000000 0.000000 0.000000 0.000000 0.000000 0.000000 0.000000 0.000000 0.000000 0.000000 0.000000 0.000000 0.000000 0.000000 0.000000 0.000000 0.000000 0.000000 0.000000 0.000000 0.000000 0.000000 0.000000 0.000000 0.000000 20.535605 20.535605 20.535605 20.535605 20.535605 20.535605 0.000000 0.000000 0.000000 0.000000 0.000000 0.000000 0.000000 0.000000 0.000000 0.000000 0.000000 0.000000 0.000000 26.639603 26.639603 26.639603 26.639603 26.639603 26.639603 26.639603 26.639603 26.639603 26.639603 26.639603 0.000000 0.000000 0.000000 0.000000 0.000000 18.221581 18.221581 18.221581 18.221581 18.221581 18.221581 18.221581 24.368817 24.368817 24.368817 24.368817 24.368817 24.368817 24.368817 24.368817 24.368817 29.962676 29.962676 29.962676 29.962676 29.962676 29.962676 29.962676 29.962676 29.962676 29.962676 29.962676 0.000000 0.000000 0.000000 0.000000
0.000000 0.000000 0.000000 0.000000 14.917792 14.917792 14.917792 14.917792 14.917792 14.917792 14.917792 0.000000 0.000000 0.000000 0.000000 0.000000 0.000000 0.000000 0.000000 0.000000 0.000000 0.000000 0.000000 0.000000 0.000000 0.000000 0.000000 0.000000 0.000000 0.000000 0.000000 0.000000 0.000000 0.000000 0.000000 0.000000 0.000000 20.535605 20.535605 20.535605 20.535605 20.535605 20.535605 0.000000 0.000000 0.000000 0.000000 0.000000 0.000000 0.000000 0.000000 0.000000 0.000000 0.000000 0.000000 0.000000 26.639603 26.639603 26.639603 26.639603 26.639603 26.639603 26.639603 26.639603 26.639603 26.639603 26.639603 0.000000 0.000000 0.000000 0.000000 0.000000 18.221581 18.221581 18.221581 18.221581 18.221581 18.221581 18.221581 24.368817 24.368817 24.368817 24.368817 24.368817 24.368817 24.368817 24.368817 24.368817 29.962676 29.962676 29.962676 29.962676 29.962676 29.962676 29.962676 29.962676 29.962676 29.962676 29.962676 0.000000 0.000000 0.000000 0.000000
0.000000 0.000000 0.000000 0.000000 14.917792 14.917792 14.917792 14.917792 14.917792 14.917792 14.917792 0.000000 0.000000 13.532000 13.532000 13.532000 13.532000 13.532000 13.532000 13.532000 13.532000 13.532000 0.000000 0.000000 0.000000 0.000000 0.000000 0.000000 0.000000 0.000000 0.000000 0.000000 0.000000 0.000000 0.000000 0.000000 0.000000 20.535605 20.535605 20.535605 20.535605 20.535605 20.535605 0.000000 0.000000 0.000000 0.000000 0.000000 0.000000 0.000000 0.000000 0.000000 0.000000 0.000000 0.000000 0.000000 26.639603 26.639603 26.639603 26.639603 26.639603 26.639603 26.639603 26.639603 26.639603 26.639603 26.639603 0.000000 0.000000 0.000000 0.000000 0.000000 18.221581 18.221581 18.221581 18.221581 18.221581 18.221581 18.221581 24.368817 24.368817 24.368817 24.368817 24.368817 24.368817 24.368817 24.368817 24.368817 29.962676 29.962676 29.962676 29.962676 29.962676 29.962676 29.962676 29.962676 29.962676 29.962676 29.962676 0.000000 0.000000 0.000000 0.000000
0.000000 0.000000 0.000000 0.000000 14.917792 14.917792 14.917792 14.917792 14.917792 14.917792 14.917792 0.000000 0.000000 13.532000 13.532000 13.532000 13.532000 13.532000 13.532000 13.532000 13.532000 13.532000 0.000000 0.000000 0.000000 0.000000 0.000000 0.000000 0.000000 0.000000 0.000000 0.000000 0.000000 0.000000 0.000000 0.000000 0.000000 20.535605 20.535605 20.535605 20.535605 20.535605 20.535605 0.000000 0.000000 0.000000 0.000000 0.000000 0.000000 0.000000 0.000000 0.000000 0.000000 0.000000 0.000000 0.000000 26.639603 26.639603 26.639603 26.639603 26.639603 26.639603 26.639603 26.639603 26.639603 26.639603 26.639603 0.000000 0.000000 0.000000 0.000000 0.000000 18.221581 18.221581 18.221581 18.221581 18.221581 18.221581 18.221581 24.368817 24.368817 24.368817 24.368817 24.368817 24.368817 24.368817 24.368817 24.368817 29.962676 29.962676 29.962676 29.962676 29.962676 29.962676 29.962676 29.962676 29.962676 29.962676 29.962676 0.000000 0.000000 0.000000 0.000000
0.000000 0.000000 0.000000 0.000000 14.917792 14.917792 14.917792 14.917792 14.917792 14.917792 14.917792 0.000000 0.000000 13.532000 13.532000 13.532000 13.532000 13.532000 13.532000 13.532000 13.532000 13.532000 0.000000 0.000000 0.000000 0.000000 0.000000 0.000000 0.000000 0.000000 0.000000 0.000000 0.000000 0.000000 0.000000 0.000000 0.000000 20.535605 20.535605 20.535605 20.535605 20.535605 20.535605 0.000000 0.000000 0.000000 0.000000 0.000000 0.000000 0.000000 0.000000 0.000000 0.000000 0.000000 0.000000 0.000000 26.639603 26.639603 26.639603 26.639603 26.639603 26.639603 26.639603 26.639603 26.639603 26.639603 26.639603 0.000000 0.000000 0.000000 0.000000 0.000000 18.221581 18.221581 18.221581 18.221581 18.221581 18.221581 18.221581 24.368817 24.368817 24.368817 24.368817 24.368817 24.368817 24.368817 24.368817 24.368817 29.962676 29.962676 29.962676 29.962676 29.962676 29.962676 29.962676 29.962676 29.962676 29.962676 29.962676 0.000000 0.000000 0.000000 0.000000
0.000000 0.000000 0.000000 0.000000 14.917792 14.917792 14.917792 14.917792 14.917792 14.917792 14.917792 0.000000 0.000000 13.532000 13.532000 13.532000 13.532000 13.532000 13.532000 13.532000 13.532000 13.532000 0.000000 0.000000 0.000000 0.000000 0.000000 0.000000 0.000000 0.000000 0.000000 0.000000 0.000000 0.000000 0.000000 0.000000 0.000000 20.535605 20.535605 20.535605 20.535605 20.535605 20.535605 0.000000 0.000000 0.000000 0.000000 0.000000 0.000000 0.000000 18.569105 18.569105 18.569105 18.569105 18.569105 18.569105 28.258388 28.258388 28.258388 28.258388 28.258388 28.258388 28.258388 28.258388 28.258388 28.258388 28.258388 0.000000 0.000000 0.000000 0.000000 0.000000 18.221581 18.221581 18.221581 18.221581 18.221581 18.221581 18.221581 24.368817 24.368817 24.368817 24.368817 24.368817 24.368817 24.368817 24.368817 24.368817 29.962676 29.962676 29.962676 29.962676 29.962676 29.962676 29.962676 29.962676 29.962676 29.962676 29.962676 0.000000 0.000000 0.000000 0.000000
0.000000 0.000000 0.000000 0.000000 14.917792 14.917792 14.917792 14.917792 14.917792 14.917792 14.917792 0.000000 0.000000 13.532000 13.532000 13.532000 13.532000 13.532000 13.532000 13.532000 13.532000 13.532000 0.000000 0.000000 0.000000 0.000000 0.000000 0.000000 0.000000 0.000000 0.000000 0.000000 0.000000 0.000000 0.000000 0.000000 0.000000 20.535605 20.535605 20.535605 20.535605 20.535605 20.535605 0.000000 0.000000 0.000000 0.000000 0.000000 0.000000 0.000000 18.569105 18.569105 18.569105 18.569105 18.569105 18.569105 28.258388 28.258388 28.258388 28.258388 28.258388 28.258388 28.258388 28.258388 28.258388 28.258388 28.258388 0.000000 0.000000 0.000000 0.000000 0.000000 18.221581 18.221581 18.221581 18.221581 18.221581 18.221581 18.221581 24.368817 24.368817 24.368817 24.368817 24.368817 24.368817 24.368817 24.368817 24.368817 29.962676 29.962676 29.962676 29.962676 29.962676 29.962676 29.962676 29.962676 29.962676 29.962676 29.962676 0.000000 0.000000 0.000000 0.000000
0.000000 0.000000 0.000000 0.000000 14.917792 14.917792 14.917792 14.917792 14.917792 14.917792 14.917792 0.000000 0.000000 13.532000 13.532000 13.532000 13.532000 13.532000 13.532000 13.532000 13.532000 13.532000 0.000000 0.000000 0.000000 0.000000 0.000000 0.000000 0.000000 0.000000 0.000000 0.000000 0.000000 0.000000 0.000000 0.000000 0.000000 20.535605 20.535605 20.535605 20.535605 20.535605 20.535605 0.000000 0.000000 0.000000 0.000000 0.000000 0.000000 0.000000 18.569105 18.569105 18.569105 18.569105 18.569105 18.569105 28.258388 28.258388 28.258388 28.258388 28.258388 28.258388 28.258388 28.258388 28.258388 28.258388 28.258388 0.000000 0.000000 0.000000 0.000000 0.000000 18.221581 18.221581 18.221581 18.221581 18.221581 18.221581 18.221581 24.368817 24.368817 24.368817 24.368817 24.368817 24.368817 24.368817 24.368817 24.368817 29.962676 29.962676 29.962676 29.962676 29.962676 29.962676 29.962676 29.962676 29.962676 29.962676 29.962676 0.000000 0.000000 0.000000 0.000000
0.000000 0.000000 0.000000 0.000000 14.917792 14.917792 14.917792 14.917792 14.917792 14.917792 14.917792 0.000000 0.000000 0.000000 0.000000 0.000000 0.000000 0.000000 0.000000 0.000000 0.000000 0.000000 0.000000 0.000000 0.000000 0.000000 0.000000 0.000000 0.000000 0.000000 0.000000 0.000000 0.000000 0.000000 0.000000 0.000000 0.000000 20.535605 20.535605 20.535605 20.535605 20.535605 20.535605 0.000000 0.000000 0.000000 0.000000 0.000000 0.000000 0.000000 18.569105 18.569105 18.569105 18.569105 18.569105 18.569105 28.258388 28.258388 28.258388 28.258388 28.258388 28.258388 28.258388 28.258388 28.258388 28.258388 28.258388 0.000000 0.000000 0.000000 0.000000 0.000000 0.000000 0.000000 0.000000 0.000000 0.000000 0.000000 0.000000 19.147879 19.147879 19.147879 19.147879 19.147879 19.147879 19.147879 19.147879 19.147879 23.543271 23.543271 23.543271 23.543271 23.543271 23.543271 23.543271 23.543271 23.543271 23.543271 23.543271 0.000000 0.000000 0.000000 0.000000
0.000000 0.000000 0.000000 0.000000 14.917792 14.917792 14.917792 14.917792 14.917792 14.917792 14.917792 0.000000 0.000000 0.000000 0.000000 0.000000 0.000000 0.000000 0.000000 0.000000 0.000000 0.000000 0.000000 0.000000 0.000000 0.000000 0.000000 0.000000 0.000000 0.000000 0.000000 0.000000 0.000000 0.000000 0.000000 0.000000 0.000000 20.535605 20.535605 20.535605 20.535605 20.535605 20.535605 0.000000 0.000000 0.000000 0.000000 0.000000 0.000000 0.000000 18.569105 18.569105 18.569105 18.569105 18.569105 18.569105 28.258388 28.258388 28.258388 28.258388 28.258388 28.258388 28.258388 28.258388 28.258388 28.258388 28.258388 0.000000 0.000000 0.000000 0.000000 0.000000 0.000000 0.000000 0.000000 0.000000 0.000000 0.000000 0.000000 19.147879 19.147879 19.147879 19.147879 19.147879 19.147879 19.147879 19.147879 19.147879 23.543271 23.543271 23.543271 23.543271 23.543271 23.543271 23.543271 23.543271 23.543271 23.543271 23.543271 0.000000 0.000000 0.000000 0.000000
0.000000 0.000000 0.000000 0.000000 0.000000 0.000000 0.000000 0.000000 0.000000 0.000000 0.000000 10.071064 10.071064 10.071064 10.071064 10.071064 10.071064 11.048250 11.048250 11.048250 11.048250 11.048250 11.048250 11.048250 0.000000 0.000000 0.000000 0.000000 0.000000 0.000000 0.000000 0.000000 0.000000 0.000000 0.000000 0.000000 0.000000 20.535605 20.535605 20.535605 20.535605 20.535605 20.535605 0.000000 0.000000 0.000000 0.000000 0.000000 0.000000 0.000000 18.569105 18.569105 18.569105 18.569105 18.569105 18.569105 28.258388 28.258388 28.258388 28.258388 28.258388 28.258388 28.258388 28.258388 28.258388 28.258388 28.258388 0.000000 0.000000 0.000000 0.000000 0.000000 0.000000 0.000000 0.000000 0.000000 0.000000 0.000000 0.000000 19.147879 19.147879 19.147879 19.147879 19.147879 19.147879 19.147879 19.147879 19.147879 23.543271 23.543271 23.543271 23.543271 23.543271 23.543271 23.543271 23.543271 23.543271 23.543271 23.543271 0.000000 0.000000 0.000000 0.000000
0.000000 0.000000 0.000000 0.000000 0.000000 0.000000 0.000000 0.000000 0.000000 0.000000 0.000000 10.071064 10.071064 10.071064 10.071064 10.071064 10.071064 11.048250 11.048250 11.048250 11.048250 11.048250 11.048250 11.048250 0.000000 0.000000 0.000000 0.000000 0.000000 0.000000 0.000000 0.000000 0.000000 0.000000 0.000000 0.000000 0.000000 20.535605 20.535605 20.535605 20.535605 20.535605 20.535605 0.000000 0.000000 0.000000 0.000000 0.000000 0.000000 0.000000 18.569105 18.569105 18.569105 18.569105 18.569105 18.569105 28.258388 28.258388 28.258388 28.258388 28.258388 28.258388 28.258388 28.258388 28.258388 28.258388 28.258388 0.000000 0.000000 0.000000 0.000000 0.000000 0.000000 0.000000 0.000000 0.000000 0.000000 0.000000 0.000000 19.147879 19.147879 19.147879 19.147879 19.147879 19.147879 19.147879 19.147879 19.147879 23.543271 23.543271 23.543271 23.543271 23.543271 23.543271 23.543271 23.543271 23.543271 23.543271 23.543271 0.000000 0.000000 0.000000 0.000000
0.000000 0.000000 0.000000 0.000000 0.000000 0.000000 0.000000 0.000000 0.000000 0.000000 0.000000 10.071064 10.071064 10.071064 10.071064 10.071064 10.071064 11.048250 11.048250 11.048250 11.048250 11.048250 11.048250 11.048250 0.000000 0.000000 1.904286 1.904286 0.000000 0.000000 0.000000 0.000000 0.000000 0.000000 0.000000 0.000000 0.000000 20.535605 20.535605 20.535605 20.535605 20.535605 20.535605 0.000000 0.000000 0.000000 0.000000 0.000000 0.000000 0.000000 18.569105 18.569105 18.569105 18.569105 18.569105 18.569105 28.258388 28.258388 28.258388 28.258388 28.258388 28.258388 28.258388 28.258388 28.258388 28.258388 28.258388 0.000000 0.000000 0.000000 0.000000 0.000000 0.000000 0.000000 0.000000 0.000000 0.000000 0.000000 0.000000 19.147879 19.147879 19.147879 19.147879 19.147879 19.147879 19.147879 19.147879 19.147879 23.543271 23.543271 23.543271 23.543271 23.543271 23.543271 23.543271 23.543271 23.543271 23.543271 23.543271 0.000000 0.000000 0.000000 0.000000
0.000000 0.000000 0.000000 0.000000 0.000000 0.000000 0.000000 0.000000 0.000000 0.000000 0.000000 10.071064 10.071064 10.071064 10.071064 10.071064 10.071064 11.048250 11.048250 11.048250 11.048250 11.048250 11.048250 11.048250 0.000000 0.000000 1.904286 1.904286 0.000000 0.000000 0.000000 0.000000 0.000000 0.000000 0.000000 0.000000 0.000000 20.535605 20.535605 20.535605 20.535605 20.535605 20.535605 0.000000 0.000000 0.000000 0.000000 0.000000 0.000000 0.000000 18.569105 18.569105 18.569105 18.569105 18.569105 18.569105 28.258388 28.258388 28.258388 28.258388 28.258388 28.258388 28.258388 28.258388 28.258388 28.258388 28.258388 0.000000 0.000000 0.000000 0.000000 0.000000 0.000000 0.000000 0.000000 0.000000 0.000000 0.000000 0.000000 19.147879 19.147879 19.147879 19.147879 19.147879 19.147879 19.147879 19.147879 19.147879 23.543271 23.543271 23.543271 23.543271 23.543271 23.543271 23.543271 23.543271 23.543271 23.543271 23.543271 0.000000 0.000000 0.000000 0.000000
0.000000 0.000000 0.000000 0.000000 0.000000 0.000000 0.000000 0.000000 0.000000 0.000000 0.000000 10.071064 10.071064 10.071064 10.071064 10.071064 10.071064 11.048250 11.048250 11.048250 11.048250 11.048250 11.048250 11.048250 0.000000 0.000000 1.904286 1.904286 0.000000 0.000000 0.000000 0.000000 0.000000 0.000000 0.000000 0.000000 0.000000 20.535605 20.535605 20.535605 20.535605 20.535605 20.535605 0.000000 0.000000 0.000000 0.000000 0.000000 0.000000 0.000000 18.569105 18.569105 18.569105 18.569105 18.569105 18.569105 28.258388 28.258388 28.258388 28.258388 28.258388 28.258388 28.258388 28.258388 28.258388 28.258388 28.258388 0.000000 0.000000 0.000000 0.000000 0.000000 0.000000 0.000000 0.000000 0.000000 0.000000 0.000000 0.000000 19.147879 19.147879 19.147879 19.147879 19.147879 19.147879 19.147879 19.147879 19.147879 23.543271 23.543271 23.543271 23.543271 23.543271 23.543271 23.543271 23.543271 23.543271 23.543271 23.543271 0.000000 0.000000 0.000000 0.000000
0.000000 0.000000 0.000000 0.000000 0.000000 0.000000 0.000000 0.000000 0.000000 0.000000 0.000000 10.071064 10.071064 10.071064 10.071064 10.071064 10.071064 11.048250 11.048250 11.048250 11.048250 11.048250 11.048250 11.048250 0.000000 0.000000 0.000000 0.000000 0.000000 0.000000 0.000000 0.000000 0.000000 0.000000 0.000000 0.000000 0.000000 0.000000 0.000000 0.000000 0.000000 0.000000 0.000000 0.000000 0.000000 0.000000 0.000000 0.000000 0.000000 0.000000 18.569105 18.569105 18.569105 18.569105 18.569105 18.569105 28.258388 28.258388 28.258388 28.258388 28.258388 28.258388 28.258388 28.258388 28.258388 28.258388 28.258388 0.000000 0.000000 0.000000 0.000000 0.000000 0.000000 0.000000 0.000000 0.000000 0.000000 0.000000 0.000000 19.147879 19.147879 19.147879 19.147879 19.147879 19.147879 19.147879 19.147879 19.147879 23.543271 23.543271 23.543271 23.543271 23.543271 23.543271 23.543271 23.543271 23.543271 23.543271 23.543271 0.000000 0.000000 0.000000 0.000000
0.000000 0.000000 0.000000 0.000000 0.000000 0.000000 0.000000 0.000000 0.000000 0.000000 0.000000 10.071064 10.071064 10.071064 10.071064 10.071064 10.071064 11.048250 11.048250 11.048250 11.048250 11.048250 11.048250 11.048250 0.000000 0.000000 0.000000 0.000000 0.000000 0.000000 0.000000 0.000000 0.000000 0.000000 0.000000 0.000000 0.000000 0.000000 0.000000 0.000000 0.000000 0.000000 0.000000 0.000000 0.000000 0.000000 0.000000 0.000000 0.000000 0.000000 18.569105 18.569105 18.569105 18.569105 18.569105 18.569105 28.258388 28.258388 28.258388 28.258388 28.258388 28.258388 28.258388 28.258388 28.258388 28.258388 28.258388 0.000000 0.000000 0.000000 0.000000 0.000000 0.000000 0.000000 0.000000 0.000000 0.000000 0.000000 0.000000 19.147879 19.147879 19.147879 19.147879 19.147879 19.147879 19.147879 19.147879 19.147879 23.543271 23.543271 23.543271 23.543271 23.543271 23.543271 23.543271 23.543271 23.543271 23.543271 23.543271 0.000000 0.000000 0.000000 0.000000
0.000000 0.000000 0.000000 0.000000 0.000000 0.000000 0.000000 0.000000 0.000000 0.000000 0.000000 0.000000 0.000000 0.000000 0.000000 0.000000 0.000000 0.000000 0.000000 0.000000 0.000000 0.000000 0.000000 0.000000 0.000000 0.000000 0.000000 0.000000 0.000000 0.000000 0.000000 0.000000 0.000000 0.000000 0.000000 0.000000 0.000000 0.000000 0.000000 0.000000 0.000000 0.000000 0.000000 0.000000 0.000000 0.000000 0.000000 0.000000 0.000000 0.000000 0.000000 0.000000 0.000000 0.000000 0.000000 0.000000 0.000000 0.000000 0.000000 0.000000 0.000000 0.000000 0.000000 0.000000 0.000000 0.000000 0.000000 0.000000 0.000000 0.000000 0.000000 0.000000 0.000000 0.000000 0.000000 0.000000 0.000000 0.000000 0.000000 0.000000 0.000000 0.000000 0.000000 0.000000 0.000000 0.000000 0.000000 0.000000 0.000000 0.000000 0.000000 0.000000 0.000000 0.000000 0.000000 0.000000 0.000000 0.000000 0.000000 0.000000 0.000000 0.000000 0.000000
0.000000 0.000000 0.000000 0.000000 0.000000 0.000000 0.000000 0.000000 0.000000 0.000000 0.000000 0.000000 0.000000 0.000000 0.000000 0.000000 0.000000 0.000000 0.000000 0.000000 0.000000 0.000000 0.000000 0.000000 0.000000 0.000000 0.000000 0.000000 0.000000 0.000000 0.000000 0.000000 0.000000 0.000000 0.000000 0.000000 0.000000 0.000000 0.000000 0.000000 0.000000 0.000000 0.000000 0.000000 0.000000 0.000000 0.000000 0.000000 0.000000 0.000000 0.000000 0.000000 0.000000 0.000000 0.000000 0.000000 0.000000 0.000000 0.000000 0.000000 0.000000 0.000000 0.000000 0.000000 0.000000 0.000000 0.000000 0.000000 0.000000 0.000000 0.000000 0.000000 0.000000 0.000000 0.000000 0.000000 0.000000 0.000000 0.000000 0.000000 0.000000 0.000000 0.000000 0.000000 0.000000 0.000000 0.000000 0.000000 0.000000 0.000000 0.000000 0.000000 0.000000 0.000000 0.000000 0.000000 0.000000 0.000000 0.000000 0.000000 0.000000 0.000000 0.000000
0.000000 0.000000 0.000000 0.000000 0.000000 0.000000 0.000000 0.000000 0.000000 0.000000 0.000000 0.000000 0.000000 0.000000 0.000000 0.000000 0.000000 0.000000 0.000000 0.000000 0.000000 0.000000 0.000000 0.000000 0.000000 0.000000 0.000000 0.000000 0.000000 0.000000 0.000000 0.000000 0.000000 0.000000 0.000000 0.000000 0.000000 0.000000 0.000000 0.000000 0.000000 0.000000 0.000000 0.000000 0.000000 0.000000 0.000000 0.000000 0.000000 0.000000 0.000000 0.000000 0.000000 0.000000 0.000000 0.000000 0.000000 0.000000 0.000000 0.000000 0.000000 0.000000 0.000000 0.000000 0.000000 0.000000 0.000000 0.000000 0.000000 0.000000 0.000000 0.000000 0.000000 0.000000 0.000000 0.000000 0.000000 0.000000 0.000000 0.000000 0.000000 0.000000 0.000000 0.000000 0.000000 0.000000 0.000000 0.000000 0.000000 0.000000 0.000000 0.000000 0.000000 0.000000 0.000000 0.000000 0.000000 0.000000 0.000000 0.000000 0.000000 0.000000 0.000000
0.000000 0.000000 0.000000 0.000000 0.000000 0.000000 0.000000 0.000000 0.000000 0.000000 0.000000 0.000000 0.000000 0.000000 0.000000 0.000000 0.000000 0.000000 0.000000 0.000000 0.000000 0.000000 0.000000 0.000000 0.000000 0.000000 0.000000 0.000000 0.000000 0.000000 0.000000 0.000000 0.000000 0.000000 0.000000 0.000000 0.000000 0.000000 0.000000 0.000000 0.000000 0.000000 0.000000 0.000000 0.000000 0.000000 0.000000 0.000000 0.000000 0.000000 0.000000 0.000000 0.000000 0.000000 0.000000 0.000000 0.000000 0.000000 0.000000 0.000000 0.000000 0.000000 0.000000 0.000000 0.000000 0.000000 0.000000 0.000000 0.000000 0.000000 0.000000 0.000000 0.000000 0.000000 0.000000 0.000000 0.000000 0.000000 0.000000 0.000000 0.000000 0.000000 0.000000 0.000000 0.000000 0.000000 0.000000 0.000000 0.000000 0.000000 0.000000 0.000000 0.000000 0.000000 0.000000 0.000000 0.000000 0.000000 0.000000 0.000000 0.000000 0.000000 0.000000
