0.000000 0.000000 0.000000 0.000000 0.000000 0.000000 0.000000 0.000000 0.000000 0.000000 0.000000 0.000000 0.000000 0.000000 0.000000 0.000000 0.000000 0.000000 0.000000 0.000000 0.000000 0.000000 0.000000 0.000000 0.000000 0.000000 0.000000 0.000000 0.000000 0.000000 0.000000 0.000000 0.000000 0.000000 0.000000 0.000000 0.000000 0.000000 0.000000 0.000000 0.000000 0.000000 0.000000 0.000000 0.000000 0.000000 0.000000 0.000000 0.000000 0.000000 0.000000 0.000000 0.000000 0.000000 0.000000 0.000000 0.000000 0.000000 0.000000 0.000000 0.000000 0.000000 0.000000 0.000000 0.000000 0.000000 0.000000 0.000000 0.000000 0.000000 0.000000 0.000000 0.000000 0.000000 0.000000 0.000000 0.000000 0.000000 0.000000 0.000000 0.000000 0.000000 0.000000 0.000000 0.000000 0.000000 0.000000 0.000000 0.000000 0.000000 0.000000 0.000000 0.000000 0.000000 0.000000 0.000000 0.000000 0.000000 0.000000 0.000000 0.000000 0.000000 0.000000
0.000000 0.000000 0.000000 0.000000 0.000000 0.000000 0.000000 0.000000 0.000000 0.000000 0.000000 0.000000 0.000000 0.000000 0.000000 0.000000 0.000000 0.000000 0.000000 0.000000 0.000000 0.000000 0.000000 0.000000 0.000000 0.000000 0.000000 0.000000 0.000000 0.000000 0.000000 0.000000 0.000000 0.000000 0.000000 0.000000 0.000000 0.000000 0.000000 0.000000 0.000000 0.000000 0.000000 0.000000 0.000000 0.000000 0.000000 0.000000 0.000000 0.000000 0.000000 0.000000 0.000000 0.000000 0.000000 0.000000 0.000000 0.000000 0.000000 0.000000 0.000000 0.000000 0.000000 0.000000 0.000000 0.000000 0.000000 0.000000 0.000000 0.000000 0.000000 0.000000 0.000000 0.000000 0.000000 0.000000 0.000000 0.000000 0.000000 0.000000 0.000000 0.000000 0.000000 0.000000 0.000000 0.000000 0.000000 0.000000 0.000000 0.000000 0.000000 0.000000 0.000000 0.000000 0.000000 0.000000 0.000000 0.000000 0.000000 0.000000 0.000000 0.000000 0.000000
0.000000 0.000000 0.000000 0.000000 0.000000 0.000000 0.000000 0.000000 0.000000 0.000000 0.000000 0.000000 0.000000 0.000000 0.000000 0.000000 0.000000 0.000000 0.000000 0.000000 0.000000 0.000000 0.000000 0.000000 0.000000 0.000000 0.000000 0.000000 0.000000 0.000000 0.000000 0.000000 0.000000 0.000000 0.000000 0.000000 0.000000 0.000000 0.000000 0.000000 0.000000 0.000000 0.000000 0.000000 0.000000 0.000000 0.000000 0.000000 0.000000 0.000000 0.000000 0.000000 0.000000 0.000000 0.000000 0.000000 0.000000 0.000000 0.000000 0.000000 0.000000 0.000000 0.000000 0.000000 0.000000 0.000000 0.000000 0.000000 0.000000 0.000000 0.000000 0.000000 0.000000 0.000000 0.000000 0.000000 0.000000 0.000000 0.000000 0.000000 0.000000 0.000000 0.000000 0.000000 0.000000 0.000000 0.000000 0.000000 0.000000 0.000000 0.000000 0.000000 0.000000 0.000000 0.000000 0.000000 0.000000 0.000000 0.000000 0.000000 0.000000 0.000000 0.000000
0.000000 0.000000 0.000000 0.000000 0.000000 0.000000 0.000000 0.000000 0.000000 0.000000 0.000000 0.000000 0.000000 0.000000 0.000000 0.000000 0.000000 0.000000 0.000000 0.000000 0.000000 0.000000 0.000000 0.000000 0.000000 0.000000 0.000000 0.000000 0.000000 0.000000 0.000000 0.000000 0.000000 0.000000 0.000000 0.000000 0.000000 0.000000 0.000000 0.000000 0.000000 0.000000 0.000000 0.000000 0.000000 0.000000 0.000000 0.000000 0.000000 0.000000 0.000000 0.000000 0.000000 0.000000 0.000000 0.000000 0.000000 0.000000 0.000000 0.000000 0.000000 0.000000 0.000000 0.000000 0.000000 0.000000 0.000000 0.000000 0.000000 0.000000 0.000000 0.000000 0.000000 0.000000 0.000000 0.000000 0.000000 0.000000 0.000000 0.000000 0.000000 0.000000 0.000000 0.000000 0.000000 0.000000 0.000000 0.000000 0.000000 0.000000 0.000000 0.000000 0.000000 0.000000 0.000000 0.000000 0.000000 0.000000 0.000000 0.000000 0.000000 0.000000 0.000000
0.000000 0.000000 0.000000 0.000000 21.706031 21.706031 21.706031 21.706031 21.706031 21.706031 21.706031 21.706031 21.706031 21.706031 15.784883 15.784883 15.784883 15.784883 15.784883 15.784883 15.784883 0.000000 0.000000 0.000000 0.000000 0.000000 15.419537 15.419537 15.419537 15.419537 15.419537 15.419537 15.419537 13.946595 13.946595 13.946595 13.946595 13.946595 13.946595 0.000000 0.000000 0.000000 0.000000 0.000000 20.731787 20.731787 20.731787 20.731787 20.731787 20.731787 20.731787 20.731787 20.731787 20.731787 21.544305 21.544305 21.544305 21.544305 21.544305 21.544305 21.544305 21.544305 21.544305 0.000000 0.000000 0.000000 0.000000 0.000000 0.000000 0.000000 0.000000 0.000000 0.000000 0.000000 0.000000 0.000000 0.000000 0.000000 0.000000 0.000000 0.000000 0.000000 0.000000 0.000000 0.000000 0.000000 0.000000 0.000000 0.000000 0.000000 0.000000 0.000000 0.000000 0.000000 0.000000 0.000000 0.000000 0.000000 0.000000 0.000000 0.000000 0.000000 0.000000
0.000000 0.000000 0.000000 0.000000 21.706031 21.706031 21.706031 21.706031 21.706031 21.706031 21.706031 21.706031 21.706031 21.706031 15.784883 15.784883 15.784883 15.784883 15.784883 15.784883 15.784883 0.000000 0.000000 0.000000 0.000000 0.000000 15.419537 15.419537 15.419537 15.419537 15.419537 15.419537 15.419537 13.946595 13.946595 13.946595 13.946595 13.946595 13.946595 0.000000 0.000000 0.000000 0.000000 0.000000 20.731787 20.731787 20.731787 20.731787 20.731787 20.731787 20.731787 20.731787 20.731787 20.731787 21.544305 21.544305 21.544305 21.544305 21.544305 21.544305 21.544305 21.544305 21.544305 0.000000 0.000000 0.000000 0.000000 0.000000 0.000000 0.000000 0.000000 0.000000 0.000000 0.000000 0.000000 0.000000 0.000000 0.000000 0.000000 0.000000 0.000000 0.000000 0.000000 0.000000 0.000000 0.000000 0.000000 0.000000 0.000000 0.000000 0.000000 0.000000 0.000000 0.000000 0.000000 0.000000 0.000000 0.000000 0.000000 0.000000 0.000000 0.000000 0.000000
0.000000 0.000000 0.000000 0.000000 21.706031 21.706031 21.706031 21.706031 21.706031 21.706031 21.706031 21.706031 21.706031 21.706031 15.784883 15.784883 15.784883 15.784883 15.784883 15.784883 15.784883 0.000000 0.000000 0.000000 0.000000 0.000000 15.419537 15.419537 15.419537 15.419537 15.419537 15.419537 15.419537 13.946595 13.946595 13.946595 13.946595 13.946595 13.946595 0.000000 0.000000 0.000000 0.000000 0.000000 20.731787 20.731787 20.731787 20.731787 20.731787 20.731787 20.731787 20.731787 20.731787 20.731787 21.544305 21.544305 21.544305 21.544305 21.544305 21.544305 21.544305 21.544305 21.544305 0.000000 0.000000 0.000000 0.000000 0.000000 0.000000 0.000000 18.221569 18.221569 18.221569 18.221569 18.221569 18.221569 18.221569 18.221569 18.221569 18.221569 18.221569 18.221569 18.221569 18.221569 0.000000 0.000000 0.000000 0.000000 0.000000 0.000000 0.000000 0.000000 0.000000 0.000000 0.000000 0.000000 0.000000 0.000000 0.000000 0.000000 0.000000 0.000000 0.000000
0.000000 0.000000 0.000000 0.000000 21.706031 21.706031 21.706031 21.706031 21.706031 21.706031 21.706031 21.706031 21.706031 21.706031 15.784883 15.784883 15.784883 15.784883 15.784883 15.784883 15.784883 0.000000 0.000000 0.000000 0.000000 0.000000 15.419537 15.419537 15.419537 15.419537 15.419537 15.419537 15.419537 13.946595 13.946595 13.946595 13.946595 13.946595 13.946595 0.000000 0.000000 0.000000 0.000000 0.000000 20.731787 20.731787 20.731787 20.731787 20.731787 20.731787 20.731787 20.731787 20.731787 20.731787 21.544305 21.544305 21.544305 21.544305 21.544305 21.544305 21.544305 21.544305 21.544305 0.000000 0.000000 0.000000 0.000000 0.000000 0.000000 0.000000 18.221569 18.221569 18.221569 18.221569 18.221569 18.221569 18.221569 18.221569 18.221569 18.221569 18.221569 18.221569 18.221569 18.221569 0.000000 0.000000 0.000000 0.000000 0.000000 0.000000 0.000000 0.000000 0.000000 0.000000 0.000000 0.000000 0.000000 0.000000 0.000000 0.000000 0.000000 0.000000 0.000000
0.000000 0.000000 0.000000 0.000000 21.706031 21.706031 21.706031 21.706031 21.706031 21.706031 21.706031 21.706031 21.706031 21.706031 15.784883 15.784883 15.784883 15.784883 15.784883 15.784883 15.784883 0.000000 0.000000 0.000000 0.000000 0.000000 15.419537 15.419537 15.419537 15.419537 15.419537 15.419537 15.419537 13.946595 13.946595 13.946595 13.946595 13.946595 13.946595 0.000000 0.000000 0.000000 0.000000 0.000000 20.731787 20.731787 20.731787 20.731787 20.731787 20.731787 20.731787 20.731787 20.731787 20.731787 21.544305 21.544305 21.544305 21.544305 21.544305 21.544305 21.544305 21.544305 21.544305 0.000000 0.000000 0.000000 0.000000 0.000000 0.000000 0.000000 18.221569 18.221569 18.221569 18.221569 18.221569 18.221569 18.221569 18.221569 18.221569 18.221569 18.221569 18.221569 18.221569 18.221569 0.000000 0.000000 0.000000 0.000000 0.000000 0.000000 0.000000 0.000000 0.000000 0.000000 0.000000 0.000000 0.000000 0.000000 0.000000 0.000000 0.000000 0.000000 0.000000
0.000000 0.000000 0.000000 0.000000 21.706031 21.706031 21.706031 21.706031 21.706031 21.706031 21.706031 21.706031 21.706031 21.706031 15.784883 15.784883 15.784883 15.784883 15.784883 15.784883 15.784883 0.000000 0.000000 0.000000 0.000000 0.000000 15.419537 15.419537 15.419537 15.419537 15.419537 15.419537 15.419537 13.946595 13.946595 13.946595 13.946595 13.946595 13.946595 0.000000 0.000000 0.000000 0.000000 0.000000 20.731787 20.731787 20.731787 20.731787 20.731787 20.731787 20.731787 20.731787 20.731787 20.731787 21.544305 21.544305 21.544305 21.544305 21.544305 21.544305 21.544305 21.544305 21.544305 0.000000 0.000000 0.000000 0.000000 0.000000 0.000000 0.000000 18.221569 18.221569 18.221569 18.221569 18.221569 18.221569 18.221569 18.221569 18.221569 18.221569 18.221569 18.221569 18.221569 18.221569 0.000000 0.000000 0.000000 0.000000 0.000000 0.000000 0.000000 0.000000 0.000000 0.000000 0.000000 0.000000 0.000000 0.000000 0.000000 0.000000 0.000000 0.000000 0.000000
0.000000 0.000000 0.000000 0.000000 21.706031 21.706031 21.706031 21.706031 21.706031 21.706031 21.706031 21.706031 21.706031 21.706031 15.784883 15.784883 15.784883 15.784883 15.784883 15.784883 15.784883 0.000000 0.000000 0.000000 0.000000 0.000000 15.419537 15.419537 15.419537 15.419537 15.419537 15.419537 15.419537 13.946595 13.946595 13.946595 13.946595 13.946595 13.946595 0.000000 0.000000 0.000000 0.000000 0.000000 20.731787 20.731787 20.731787 20.731787 20.731787 20.731787 20.731787 20.731787 20.731787 20.731787 21.544305 21.544305 21.544305 21.544305 21.544305 21.544305 21.544305 21.544305 21.544305 0.000000 0.000000 0.000000 0.000000 0.000000 0.000000 0.000000 18.221569 18.221569 18.221569 18.221569 18.221569 18.221569 18.221569 18.221569 18.221569 18.221569 18.221569 18.221569 18.221569 18.221569 0.000000 0.000000 0.000000 0.000000 0.000000 0.000000 0.000000 0.000000 0.000000 0.000000 0.000000 0.000000 0.000000 0.000000 0.000000 0.000000 0.000000 0.000000 0.000000
0.000000 0.000000 0.000000 0.000000 21.706031 21.706031 21.706031 21.706031 21.706031 21.706031 21.706031 21.706031 21.706031 21.706031 15.784883 15.784883 15.784883 15.784883 15.784883 15.784883 15.784883 0.000000 0.000000 0.000000 0.000000 0.000000 15.419537 15.419537 15.419537 15.419537 15.419537 15.419537 15.419537 13.946595 13.946595 13.946595 13.946595 13.946595 13.946595 0.000000 0.000000 0.000000 0.000000 0.000000 20.731787 20.731787 20.731787 20.731787 20.731787 20.731787 20.731787 20.731787 20.731787 20.731787 21.544305 21.544305 21.544305 21.544305 21.544305 21.544305 21.544305 21.544305 21.544305 0.000000 0.000000 0.000000 0.000000 0.000000 0.000000 0.000000 0.000000 0.000000 0.000000 0.000000 0.000000 0.000000 0.000000 0.000000 0.000000 0.000000 0.000000 0.000000 0.000000 0.000000 0.000000 0.000000 0.000000 0.000000 0.000000 0.000000 0.000000 0.000000 0.000000 0.000000 0.000000 0.000000 0.000000 0.000000 0.000000 0.000000 0.000000 0.000000 0.000000
0.000000 0.000000 0.000000 0.000000 21.706031 21.706031 21.706031 21.706031 21.706031 21.706031 21.706031 21.706031 21.706031 21.706031 15.784883 15.784883 15.784883 15.784883 15.784883 15.784883 15.784883 0.000000 0.000000 0.000000 0.000000 0.000000 15.419537 15.419537 15.419537 15.419537 15.419537 15.419537 15.419537 13.946595 13.946595 13.946595 13.946595 13.946595 13.946595 0.000000 0.000000 0.000000 0.000000 0.000000 20.731787 20.731787 20.731787 20.731787 20.731787 20.731787 20.731787 20.731787 20.731787 20.731787 21.544305 21.544305 21.544305 21.544305 21.544305 21.544305 21.544305 21.544305 21.544305 0.000000 0.000000 0.000000 0.000000 0.000000 0.000000 0.000000 0.000000 0.000000 0.000000 0.000000 0.000000 0.000000 0.000000 0.000000 0.000000 0.000000 0.000000 0.000000 0.000000 0.000000 0.000000 0.000000 0.000000 0.000000 0.000000 0.000000 0.000000 0.000000 0.000000 0.000000 0.000000 0.000000 0.000000 0.000000 0.000000 0.000000 0.000000 0.000000 0.000000
0.000000 0.000000 0.000000 0.000000 0.000000 0.000000 0.000000 0.000000 0.000000 0.000000 0.000000 0.000000 0.000000 0.000000 0.000000 0.000000 0.000000 0.000000 0.000000 0.000000 0.000000 0.000000 0.000000 0.000000 0.000000 0.000000 0.000000 0.000000 0.000000 0.000000 0.000000 0.000000 0.000000 0.000000 0.000000 0.000000 0.000000 0.000000 0.000000 0.000000 0.000000 0.000000 0.000000 0.000000 0.000000 0.000000 0.000000 0.000000 0.000000 0.000000 0.000000 0.000000 0.000000 0.000000 0.000000 0.000000 0.000000 0.000000 0.000000 0.000000 0.000000 0.000000 0.000000 0.000000 0.000000 0.000000 0.000000 0.000000 0.000000 0.000000 0.000000 0.000000 0.000000 0.000000 0.000000 0.000000 0.000000 0.000000 0.000000 0.000000 0.000000 0.000000 0.000000 0.000000 0.000000 0.000000 0.000000 0.000000 0.000000 0.000000 0.000000 0.000000 0.000000 0.000000 0.000000 0.000000 0.000000 0.000000 0.000000 0.000000 0.000000 0.000000 0.000000
0.000000 0.000000 0.000000 0.000000 0.000000 0.000000 0.000000 0.000000 0.000000 0.000000 0.000000 0.000000 0.000000 0.000000 0.000000 0.000000 0.000000 0.000000 0.000000 0.000000 0.000000 0.000000 0.000000 0.000000 0.000000 0.000000 0.000000 0.000000 0.000000 0.000000 0.000000 0.000000 0.000000 0.000000 0.000000 0.000000 0.000000 0.000000 0.000000 0.000000 0.000000 0.000000 0.000000 0.000000 0.000000 0.000000 0.000000 0.000000 0.000000 0.000000 0.000000 0.000000 0.000000 0.000000 0.000000 0.000000 0.000000 0.000000 0.000000 0.000000 0.000000 0.000000 0.000000 0.000000 0.000000 0.000000 0.000000 0.000000 0.000000 0.000000 0.000000 0.000000 0.000000 0.000000 0.000000 0.000000 0.000000 0.000000 0.000000 0.000000 0.000000 0.000000 0.000000 0.000000 0.000000 0.000000 0.000000 0.000000 0.000000 0.000000 0.000000 0.000000 0.000000 0.000000 0.000000 0.000000 0.000000 0.000000 0.000000 0.000000 0.000000 0.000000 0.000000
0.000000 0.000000 0.000000 0.000000 0.000000 0.000000 0.000000 0.000000 0.000000 0.000000 0.000000 0.000000 0.000000 0.000000 0.000000 0.000000 0.000000 0.000000 0.000000 0.000000 0.000000 0.000000 0.000000 0.000000 0.000000 0.000000 0.000000 0.000000 0.000000 0.000000 0.000000 0.000000 0.000000 0.000000 0.000000 0.000000 0.000000 0.000000 0.000000 0.000000 0.000000 0.000000 0.000000 0.000000 0.000000 0.000000 0.000000 0.000000 0.000000 0.000000 0.000000 0.000000 0.000000 0.000000 0.000000 0.000000 0.000000 0.000000 0.000000 0.000000 0.000000 0.000000 0.000000 0.000000 0.000000 0.000000 0.000000 0.000000 0.000000 0.000000 0.000000 0.000000 0.000000 0.000000 0.000000 0.000000 0.000000 0.000000 0.000000 0.000000 0.000000 0.000000 0.000000 0.000000 0.000000 0.000000 0.000000 0.000000 0.000000 0.000000 0.000000 0.000000 0.000000 0.000000 0.000000 0.000000 0.000000 0.000000 0.000000 0.000000 0.000000 0.000000 0.000000
0.000000 0.000000 0.000000 0.000000 0.000000 0.000000 0.000000 0.000000 0.000000 0.000000 0.000000 0.000000 0.000000 0.000000 0.000000 0.000000 0.000000 0.000000 0.000000 0.000000 0.000000 0.000000 0.000000 0.000000 0.000000 0.000000 0.000000 0.000000 0.000000 0.000000 0.000000 0.000000 0.000000 0.000000 0.000000 0.000000 0.000000 0.000000 0.000000 0.000000 0.000000 0.000000 0.000000 0.000000 0.000000 0.000000 0.000000 0.000000 0.000000 0.000000 0.000000 0.000000 0.000000 0.000000 0.000000 0.000000 0.000000 0.000000 0.000000 0.000000 0.000000 0.000000 0.000000 0.000000 0.000000 0.000000 0.000000 0.000000 0.000000 0.000000 0.000000 0.000000 0.000000 0.000000 0.000000 0.000000 0.000000 0.000000 0.000000 0.000000 0.000000 0.000000 0.000000 0.000000 0.000000 0.000000 0.000000 0.000000 0.000000 0.000000 0.000000 0.000000 0.000000 0.000000 0.000000 0.000000 0.000000 0.000000 0.000000 0.000000 0.000000 0.000000 0.000000
0.000000 0.000000 0.000000 0.000000 0.000000 0.000000 0.000000 0.000000 0.000000 0.000000 0.000000 0.000000 0.000000 0.000000 0.000000 0.000000 0.000000 0.000000 0.000000 0.000000 0.000000 0.000000 0.000000 0.000000 0.000000 0.000000 0.000000 0.000000 0.000000 0.000000 0.000000 0.000000 0.000000 0.000000 0.000000 0.000000 0.000000 0.000000 0.000000 0.000000 0.000000 0.000000 0.000000 0.000000 0.000000 0.000000 0.000000 0.000000 0.000000 0.000000 0.000000 0.000000 0.000000 0.000000 0.000000 0.000000 0.000000 0.000000 0.000000 0.000000 0.000000 0.000000 0.000000 0.000000 0.000000 0.000000 0.000000 0.000000 0.000000 0.000000 0.000000 0.000000 0.000000 0.000000 0.000000 0.000000 0.000000 0.000000 0.000000 0.000000 0.000000 0.000000 0.000000 0.000000 0.000000 0.000000 0.000000 0.000000 0.000000 0.000000 0.000000 0.000000 0.000000 0.000000 0.000000 0.000000 0.000000 0.000000 0.000000 0.000000 0.000000 0.000000 0.000000
0.000000 0.000000 0.000000 0.000000 0.000000 0.000000 0.000000 0.000000 0.000000 0.000000 0.000000 0.000000 0.000000 0.000000 0.000000 0.000000 0.000000 0.000000 0.000000 0.000000 0.000000 0.000000 0.000000 0.000000 0.000000 0.000000 0.000000 0.000000 0.000000 0.000000 0.000000 0.000000 0.000000 0.000000 0.000000 0.000000 0.000000 0.000000 0.000000 0.000000 0.000000 0.000000 0.000000 0.000000 0.000000 0.000000 0.000000 0.000000 0.000000 0.000000 0.000000 0.000000 0.000000 0.000000 0.000000 0.000000 0.000000 0.000000 0.000000 0.000000 0.000000 0.000000 0.000000 0.000000 0.000000 0.000000 0.000000 0.000000 0.000000 0.000000 0.000000 0.000000 0.000000 0.000000 0.000000 0.000000 0.000000 0.000000 0.000000 0.000000 0.000000 0.000000 0.000000 0.000000 0.000000 0.000000 0.000000 0.000000 0.000000 0.000000 0.000000 0.000000 0.000000 0.000000 0.000000 0.000000 0.000000 0.000000 0.000000 0.000000 0.000000 0.000000 0.000000
0.000000 0.000000 0.000000 0.000000 0.000000 0.000000 0.000000 0.000000 0.000000 0.000000 0.000000 0.000000 0.000000 0.000000 0.000000 0.000000 0.000000 0.000000 0.000000 0.000000 0.000000 0.000000 0.000000 0.000000 0.000000 0.000000 0.000000 0.000000 0.000000 0.000000 0.000000 0.000000 0.000000 0.000000 0.000000 0.000000 0.000000 0.000000 0.000000 0.000000 0.000000 0.000000 0.000000 0.000000 0.000000 0.000000 0.000000 0.000000 0.000000 0.000000 0.000000 0.000000 0.000000 0.000000 0.000000 0.000000 0.000000 0.000000 0.000000 0.000000 0.000000 0.000000 0.000000 0.000000 0.000000 0.000000 0.000000 0.000000 0.000000 0.000000 0.000000 0.000000 0.000000 0.000000 0.000000 0.000000 0.000000 0.000000 0.000000 0.000000 0.000000 0.000000 0.000000 0.000000 0.000000 0.000000 0.000000 0.000000 0.000000 0.000000 0.000000 0.000000 0.000000 0.000000 0.000000 0.000000 0.000000 0.000000 0.000000 0.000000 0.000000 0.000000 0.000000
0.000000 0.000000 0.000000 0.000000 0.000000 0.000000 21.178689 21.178689 21.178689 21.178689 21.178689 21.178689 21.178689 21.178689 21.178689 21.178689 21.178689 21.178689 21.178689 0.000000 0.000000 0.000000 0.000000 0.000000 0.000000 0.000000 0.000000 0.000000 36.281744 36.281744 36.281744 36.281744 36.281744 36.281744 36.281744 36.281744 36.281744 0.000000 0.000000 0.000000 0.000000 0.000000 0.000000 0.000000 0.000000 0.000000 4.159641 4.159641 4.159641 0.000000 0.000000 0.000000 4.448191 4.448191 4.448191 0.000000 0.000000 0.000000 0.000000 0.000000 0.000000 0.000000 0.000000 0.000000 0.000000 0.000000 0.000000 0.000000 0.000000 0.000000 0.000000 0.000000 0.000000 0.000000 0.000000 0.000000 0.000000 0.000000 0.000000 0.000000 0.000000 0.000000 0.000000 0.000000 0.000000 0.000000 0.000000 0.000000 0.000000 0.000000 0.000000 0.000000 10.266205 10.266205 10.266205 10.266205 10.266205 0.000000 0.000000 0.000000 0.000000 0.000000 0.000000
0.000000 0.000000 0.000000 0.000000 0.000000 0.000000 21.178689 21.178689 21.178689 21.178689 21.178689 21.178689 21.178689 21.178689 21.178689 21.178689 21.178689 21.178689 21.178689 0.000000 0.000000 0.000000 0.000000 0.000000 0.000000 0.000000 0.000000 0.000000 36.281744 36.281744 36.281744 36.281744 36.281744 36.281744 36.281744 36.281744 36.281744 0.000000 0.000000 0.000000 0.000000 0.000000 0.000000 0.000000 0.000000 0.000000 4.159641 4.159641 4.159641 0.000000 0.000000 0.000000 4.448191 4.448191 4.448191 0.000000 0.000000 0.000000 0.000000 0.000000 0.000000 0.000000 0.000000 0.000000 0.000000 0.000000 0.000000 0.000000 0.000000 0.000000 0.000000 0.000000 0.000000 0.000000 0.000000 0.000000 0.000000 0.000000 0.000000 0.000000 0.000000 0.000000 0.000000 0.000000 0.000000 0.000000 0.000000 0.000000 0.000000 0.000000 0.000000 0.000000 10.266205 10.266205 10.266205 10.266205 10.266205 0.000000 0.000000 0.000000 0.000000 0.000000 0.000000
0.000000 0.000000 0.000000 0.000000 0.000000 0.000000 21.178689 21.178689 21.178689 21.178689 21.178689 21.178689 21.178689 21.178689 21.178689 21.178689 21.178689 21.178689 21.178689 0.000000 0.000000 0.000000 0.000000 0.000000 0.000000 0.000000 0.000000 0.000000 36.281744 36.281744 36.281744 36.281744 36.281744 36.281744 36.281744 36.281744 36.281744 0.000000 0.000000 0.000000 0.000000 0.000000 0.000000 0.000000 0.000000 0.000000 4.159641 4.159641 4.159641 0.000000 0.000000 0.000000 4.448191 4.448191 4.448191 0.000000 0.000000 0.000000 0.000000 0.000000 0.000000 0.000000 0.000000 0.000000 0.000000 0.000000 0.000000 0.000000 0.000000 0.000000 0.000000 0.000000 0.000000 0.000000 0.000000 0.000000 0.000000 0.000000 0.000000 0.000000 0.000000 0.000000 0.000000 0.000000 0.000000 0.000000 0.000000 0.000000 0.000000 0.000000 0.000000 0.000000 10.266205 10.266205 10.266205 10.266205 10.266205 0.000000 0.000000 0.000000 0.000000 0.000000 0.000000
0.000000 0.000000 0.000000 0.000000 0.000000 0.000000 21.178689 21.178689 21.178689 21.178689 21.178689 21.178689 21.178689 21.178689 21.178689 21.178689 21.178689 21.178689 21.178689 0.000000 0.000000 0.000000 0.000000 0.000000 0.000000 0.000000 0.000000 0.000000 36.281744 36.281744 36.281744 36.281744 36.281744 36.281744 36.281744 36.281744 36.281744 0.000000 0.000000 0.000000 0.000000 0.000000 0.000000 0.000000 0.000000 0.000000 4.159641 4.159641 4.159641 0.000000 0.000000 0.000000 4.448191 4.448191 4.448191 0.000000 0.000000 0.000000 0.000000 0.000000 0.000000 0.000000 0.000000 0.000000 0.000000 0.000000 0.000000 0.000000 0.000000 0.000000 0.000000 0.000000 0.000000 0.000000 0.000000 0.000000 0.000000 0.000000 0.000000 0.000000 0.000000 0.000000 0.000000 0.000000 0.000000 0.000000 0.000000 0.000000 0.000000 0.000000 0.000000 0.000000 10.266205 10.266205 10.266205 10.266205 10.266205 0.000000 0.000000 0.000000 0.000000 0.000000 0.000000
0.000000 0.000000 0.000000 0.000000 0.000000 0.000000 21.178689 21.178689 21.178689 21.178689 21.178689 21.178689 21.178689 21.178689 21.178689 21.178689 21.178689 21.178689 21.178689 0.000000 0.000000 0.000000 0.000000 0.000000 0.000000 0.000000 0.000000 0.000000 36.281744 36.281744 36.281744 36.281744 36.281744 36.281744 36.281744 36.281744 36.281744 0.000000 0.000000 0.000000 0.000000 0.000000 0.000000 0.000000 0.000000 0.000000 4.159641 4.159641 4.159641 0.000000 0.000000 0.000000 4.448191 4.448191 4.448191 0.000000 0.000000 0.000000 0.000000 0.000000 0.000000 0.000000 0.000000 0.000000 0.000000 0.000000 0.000000 0.000000 0.000000 0.000000 0.000000 0.000000 0.000000 0.000000 0.000000 0.000000 0.000000 0.000000 0.000000 0.000000 0.000000 0.000000 0.000000 0.000000 0.000000 0.000000 0.000000 0.000000 0.000000 0.000000 0.000000 0.000000 10.266205 10.266205 10.266205 10.266205 10.266205 0.000000 0.000000 0.000000 0.000000 0.000000 0.000000
0.000000 0.000000 0.000000 0.000000 0.000000 0.000000 21.178689 21.178689 21.178689 21.178689 21.178689 21.178689 21.178689 21.178689 21.178689 21.178689 21.178689 21.178689 21.178689 0.000000 0.000000 0.000000 0.000000 0.000000 0.000000 0.000000 0.000000 0.000000 36.281744 36.281744 36.281744 36.281744 36.281744 36.281744 36.281744 36.281744 36.281744 0.000000 0.000000 0.000000 0.000000 0.000000 0.000000 0.000000 0.000000 0.000000 4.159641 4.159641 4.159641 0.000000 0.000000 0.000000 4.448191 4.448191 4.448191 0.000000 0.000000 0.000000 0.000000 0.000000 0.000000 0.000000 0.000000 0.000000 0.000000 0.000000 0.000000 0.000000 0.000000 0.000000 0.000000 0.000000 0.000000 0.000000 0.000000 0.000000 0.000000 0.000000 0.000000 0.000000 0.000000 0.000000 0.000000 0.000000 0.000000 0.000000 0.000000 0.000000 0.000000 0.000000 0.000000 0.000000 10.266205 10.266205 10.266205 10.266205 10.266205 0.000000 0.000000 0.000000 0.000000 0.000000 0.000000
0.000000 0.000000 0.000000 0.000000 0.000000 0.000000 21.178689 21.178689 21.178689 21.178689 21.178689 21.178689 21.178689 21.178689 21.178689 21.178689 21.178689 21.178689 21.178689 0.000000 0.000000 0.000000 0.000000 0.000000 0.000000 0.000000 0.000000 0.000000 36.281744 36.281744 36.281744 36.281744 36.281744 36.281744 36.281744 36.281744 36.281744 0.000000 0.000000 0.000000 0.000000 0.000000 0.000000 0.000000 0.000000 0.000000 4.159641 4.159641 4.159641 0.000000 0.000000 0.000000 4.448191 4.448191 4.448191 0.000000 0.000000 0.000000 0.000000 0.000000 0.000000 0.000000 0.000000 0.000000 0.000000 0.000000 0.000000 0.000000 0.000000 0.000000 0.000000 0.000000 0.000000 0.000000 0.000000 0.000000 0.000000 0.000000 0.000000 0.000000 0.000000 0.000000 0.000000 0.000000 0.000000 0.000000 0.000000 0.000000 0.000000 0.000000 0.000000 0.000000 10.266205 10.266205 10.266205 10.266205 10.266205 0.000000 0.000000 0.000000 0.000000 0.000000 0.000000
0.000000 0.000000 0.000000 0.000000 0.000000 0.000000 0.000000 0.000000 0.000000 0.000000 0.000000 0.000000 0.000000 0.000000 0.000000 0.000000 0.000000 0.000000 0.000000 0.000000 0.000000 0.000000 0.000000 0.000000 0.000000 0.000000 0.000000 0.000000 36.281744 36.281744 36.281744 36.281744 36.281744 36.281744 36.281744 36.281744 36.281744 0.000000 0.000000 0.000000 0.000000 0.000000 0.000000 0.000000 0.000000 0.000000 0.000000 0.000000 0.000000 0.000000 0.000000 0.000000 0.000000 0.000000 0.000000 0.000000 0.000000 0.000000 0.000000 0.000000 0.000000 0.000000 0.000000 0.000000 0.000000 0.000000 0.000000 0.000000 0.000000 0.000000 0.000000 0.000000 0.000000 0.000000 0.000000 0.000000 0.000000 0.000000 0.000000 0.000000 0.000000 0.000000 0.000000 0.000000 0.000000 0.000000 0.000000 0.000000 0.000000 0.000000 0.000000 0.000000 0.000000 0.000000 0.000000 0.000000 0.000000 0.000000 0.000000 0.000000 0.000000 0.000000 0.000000
0.000000 0.000000 0.000000 0.000000 0.000000 0.000000 0.000000 0.000000 0.000000 0.000000 0.000000 0.000000 0.000000 0.000000 0.000000 0.000000 0.000000 0.000000 0.000000 0.000000 0.000000 0.000000 0.000000 0.000000 0.000000 0.000000 0.000000 0.000000 36.281744 36.281744 36.281744 36.281744 36.281744 36.281744 36.281744 36.281744 36.281744 0.000000 0.000000 0.000000 0.000000 0.000000 0.000000 0.000000 0.000000 0.000000 0.000000 0.000000 0.000000 0.000000 0.000000 0.000000 0.000000 0.000000 0.000000 0.000000 0.000000 0.000000 0.000000 0.000000 0.000000 0.000000 0.000000 0.000000 0.000000 0.000000 0.000000 0.000000 0.000000 0.000000 0.000000 0.000000 0.000000 0.000000 0.000000 0.000000 0.000000 0.000000 0.000000 0.000000 0.000000 0.000000 0.000000 0.000000 0.000000 0.000000 0.000000 0.000000 0.000000 0.000000 0.000000 0.000000 0.000000 0.000000 0.000000 0.000000 0.000000 0.000000 0.000000 0.000000 0.000000 0.000000 0.000000
0.000000 0.000000 0.000000 0.000000 0.000000 0.000000 0.000000 0.000000 0.000000 0.000000 0.000000 0.000000 0.000000 0.000000 0.000000 0.000000 0.000000 0.000000 0.000000 0.000000 0.000000 0.000000 0.000000 0.000000 0.000000 0.000000 0.000000 0.000000 36.281744 36.281744 36.281744 36.281744 36.281744 36.281744 36.281744 36.281744 36.281744 0.000000 0.000000 0.000000 0.000000 0.000000 0.000000 0.000000 0.000000 0.000000 0.000000 0.000000 0.000000 0.000000 0.000000 0.000000 0.000000 0.000000 0.000000 0.000000 0.000000 0.000000 0.000000 0.000000 0.000000 0.000000 0.000000 0.000000 0.000000 0.000000 0.000000 0.000000 14.722814 14.722814 14.722814 14.722814 14.722814 14.722814 14.722814 14.722814 14.722814 20.322457 20.322457 20.322457 20.322457 20.322457 20.322457 20.322457 20.322457 20.322457 20.322457 20.322457 20.322457 20.322457 0.000000 0.000000 0.000000 0.000000 0.000000 0.000000 0.000000 0.000000 0.000000 0.000000 0.000000 0.000000 0.000000
0.000000 0.000000 0.000000 0.000000 0.000000 0.000000 0.000000 0.000000 0.000000 0.000000 0.000000 0.000000 0.000000 0.000000 0.000000 0.000000 0.000000 0.000000 0.000000 0.000000 0.000000 0.000000 0.000000 0.000000 0.000000 0.000000 0.000000 0.000000 36.281744 36.281744 36.281744 36.281744 36.281744 36.281744 36.281744 36.281744 36.281744 0.000000 0.000000 0.000000 0.000000 0.000000 0.000000 0.000000 0.000000 0.000000 0.000000 0.000000 0.000000 0.000000 0.000000 0.000000 0.000000 0.000000 0.000000 0.000000 0.000000 0.000000 0.000000 0.000000 0.000000 0.000000 0.000000 0.000000 0.000000 0.000000 0.000000 0.000000 14.722814 14.722814 14.722814 14.722814 14.722814 14.722814 14.722814 14.722814 14.722814 20.322457 20.322457 20.322457 20.322457 20.322457 20.322457 20.322457 20.322457 20.322457 20.322457 20.322457 20.322457 20.322457 0.000000 0.000000 0.000000 0.000000 0.000000 0.000000 0.000000 0.000000 0.000000 0.000000 0.000000 0.000000 0.000000
0.000000 0.000000 0.000000 0.000000 0.000000 0.000000 21.330609 21.330609 21.330609 21.330609 21.330609 21.330609 21.330609 21.330609 21.330609 21.330609 21.330609 21.330609 21.330609 0.000000 0.000000 0.000000 0.000000 0.000000 0.000000 0.000000 0.000000 0.000000 36.281744 36.281744 36.281744 36.281744 36.281744 36.281744 36.281744 36.281744 36.281744 0.000000 0.000000 0.000000 0.000000 0.000000 0.000000 0.000000 0.000000 0.000000 4.069091 4.069091 4.069091 0.000000 0.000000 0.000000 0.000000 0.000000 0.000000 0.000000 0.000000 0.000000 0.000000 3.930256 3.930256 0.000000 0.000000 0.000000 0.000000 0.000000 0.000000 0.000000 14.722814 14.722814 14.722814 14.722814 14.722814 14.722814 14.722814 14.722814 14.722814 20.322457 20.322457 20.322457 20.322457 20.322457 20.322457 20.322457 20.322457 20.322457 20.322457 20.322457 20.322457 20.322457 0.000000 0.000000 4.375798 4.375798 4.375798 4.375798 4.375798 0.000000 0.000000 0.000000 0.000000 0.000000 0.000000
0.000000 0.000000 0.000000 0.000000 0.000000 0.000000 21.330609 21.330609 21.330609 21.330609 21.330609 21.330609 21.330609 21.330609 21.330609 21.330609 21.330609 21.330609 21.330609 0.000000 0.000000 0.000000 0.000000 0.000000 0.000000 0.000000 0.000000 0.000000 36.281744 36.281744 36.281744 36.281744 36.281744 36.281744 36.281744 36.281744 36.281744 0.000000 0.000000 0.000000 0.000000 0.000000 0.000000 0.000000 0.000000 0.000000 4.069091 4.069091 4.069091 0.000000 0.000000 0.000000 0.000000 0.000000 0.000000 0.000000 0.000000 0.000000 0.000000 3.930256 3.930256 0.000000 0.000000 0.000000 0.000000 0.000000 0.000000 0.000000 14.722814 14.722814 14.722814 14.722814 14.722814 14.722814 14.722814 14.722814 14.722814 20.322457 20.322457 20.322457 20.322457 20.322457 20.322457 20.322457 20.322457 20.322457 20.322457 20.322457 20.322457 20.322457 0.000000 0.000000 4.375798 4.375798 4.375798 4.375798 4.375798 0.000000 0.000000 0.000000 0.000000 0.000000 0.000000
0.000000 0.000000 0.000000 0.000000 0.000000 0.000000 21.330609 21.330609 21.330609 21.330609 21.330609 21.330609 21.330609 21.330609 21.330609 21.330609 21.330609 21.330609 21.330609 0.000000 0.000000 0.000000 0.000000 0.000000 0.000000 0.000000 0.000000 0.000000 36.281744 36.281744 36.281744 36.281744 36.281744 36.281744 36.281744 36.281744 36.281744 0.000000 0.000000 0.000000 0.000000 0.000000 0.000000 0.000000 0.000000 0.000000 4.069091 4.069091 4.069091 0.000000 0.000000 0.000000 0.000000 0.000000 0.000000 0.000000 0.000000 0.000000 0.000000 3.930256 3.930256 0.000000 0.000000 0.000000 0.000000 0.000000 0.000000 0.000000 14.722814 14.722814 14.722814 14.722814 14.722814 14.722814 14.722814 14.722814 14.722814 20.322457 20.322457 20.322457 20.322457 20.322457 20.322457 20.322457 20.322457 20.322457 20.322457 20.322457 20.322457 20.322457 0.000000 0.000000 4.375798 4.375798 4.375798 4.375798 4.375798 0.000000 0.000000 0.000000 0.000000 0.000000 0.000000
0.000000 0.000000 0.000000 0.000000 0.000000 0.000000 21.330609 21.330609 21.330609 21.330609 21.330609 21.330609 21.330609 21.330609 21.330609 21.330609 21.330609 21.330609 21.330609 0.000000 0.000000 0.000000 0.000000 0.000000 0.000000 0.000000 0.000000 0.000000 36.281744 36.281744 36.281744 36.281744 36.281744 36.281744 36.281744 36.281744 36.281744 0.000000 0.000000 0.000000 0.000000 0.000000 0.000000 0.000000 0.000000 0.000000 4.069091 4.069091 4.069091 0.000000 0.000000 0.000000 0.000000 0.000000 0.000000 0.000000 0.000000 0.000000 0.000000 3.930256 3.930256 0.000000 0.000000 0.000000 0.000000 0.000000 0.000000 0.000000 14.722814 14.722814 14.722814 14.722814 14.722814 14.722814 14.722814 14.722814 14.722814 20.322457 20.322457 20.322457 20.322457 20.322457 20.322457 20.322457 20.322457 20.322457 20.322457 20.322457 20.322457 20.322457 0.000000 0.000000 0.000000 0.000000 0.000000 0.000000 0.000000 0.000000 0.000000 0.000000 0.000000 0.000000 0.000000
0.000000 0.000000 0.000000 0.000000 0.000000 0.000000 21.330609 21.330609 21.330609 21.330609 21.330609 21.330609 21.330609 21.330609 21.330609 21.330609 21.330609 21.330609 21.330609 0.000000 0.000000 0.000000 0.000000 0.000000 0.000000 0.000000 0.000000 0.000000 36.281744 36.281744 36.281744 36.281744 36.281744 36.281744 36.281744 36.281744 36.281744 0.000000 0.000000 0.000000 0.000000 0.000000 0.000000 0.000000 0.000000 0.000000 4.069091 4.069091 4.069091 0.000000 0.000000 0.000000 0.000000 0.000000 0.000000 0.000000 0.000000 0.000000 0.000000 3.930256 3.930256 0.000000 0.000000 0.000000 0.000000 0.000000 0.000000 0.000000 14.722814 14.722814 14.722814 14.722814 14.722814 14.722814 14.722814 14.722814 14.722814 20.322457 20.322457 20.322457 20.322457 20.322457 20.322457 20.322457 20.322457 20.322457 20.322457 20.322457 20.322457 20.322457 0.000000 0.000000 0.000000 0.000000 0.000000 0.000000 0.000000 0.000000 0.000000 0.000000 0.000000 0.000000 0.000000
0.000000 0.000000 0.000000 0.000000 0.000000 0.000000 21.330609 21.330609 21.330609 21.330609 21.330609 21.330609 21.330609 21.330609 21.330609 21.330609 21.330609 21.330609 21.330609 0.000000 0.000000 0.000000 0.000000 0.000000 0.000000 0.000000 0.000000 0.000000 0.000000 0.000000 0.000000 0.000000 0.000000 0.000000 0.000000 0.000000 0.000000 0.000000 0.000000 0.000000 0.000000 0.000000 0.000000 0.000000 0.000000 0.000000 4.069091 4.069091 4.069091 0.000000 0.000000 0.000000 0.000000 0.000000 0.000000 0.000000 0.000000 0.000000 0.000000 3.930256 3.930256 0.000000 0.000000 0.000000 0.000000 0.000000 0.000000 0.000000 18.790722 18.790722 18.790722 18.790722 18.790722 18.790722 18.790722 18.790722 18.790722 0.000000 0.000000 0.000000 0.000000 0.000000 0.000000 0.000000 0.000000 0.000000 0.000000 0.000000 0.000000 0.000000 0.000000 0.000000 0.000000 0.000000 0.000000 0.000000 0.000000 0.000000 0.000000 0.000000 0.000000 0.000000 0.000000
0.000000 0.000000 0.000000 0.000000 0.000000 0.000000 0.000000 0.000000 0.000000 0.000000 0.000000 0.000000 0.000000 0.000000 0.000000 0.000000 0.000000 0.000000 0.000000 0.000000 0.000000 0.000000 0.000000 0.000000 0.000000 0.000000 0.000000 0.000000 0.000000 0.000000 0.000000 0.000000 0.000000 0.000000 0.000000 0.000000 0.000000 0.000000 0.000000 0.000000 0.000000 0.000000 0.000000 0.000000 0.000000 0.000000 0.000000 0.000000 0.000000 0.000000 0.000000 0.000000 0.000000 0.000000 0.000000 0.000000 0.000000 0.000000 0.000000 0.000000 0.000000 0.000000 0.000000 0.000000 0.000000 0.000000 0.000000 0.000000 18.790722 18.790722 18.790722 18.790722 18.790722 18.790722 18.790722 18.790722 18.790722 0.000000 0.000000 0.000000 0.000000 0.000000 0.000000 0.000000 0.000000 0.000000 0.000000 0.000000 0.000000 0.000000 0.000000 0.000000 0.000000 0.000000 0.000000 0.000000 0.000000 0.000000 0.000000 0.000000 0.000000 0.000000 0.000000
0.000000 0.000000 0.000000 0.000000 0.000000 0.000000 0.000000 0.000000 0.000000 0.000000 0.000000 0.000000 0.000000 0.000000 0.000000 0.000000 0.000000 0.000000 0.000000 0.000000 0.000000 0.000000 0.000000 0.000000 0.000000 0.000000 0.000000 0.000000 0.000000 0.000000 0.000000 0.000000 0.000000 0.000000 0.000000 0.000000 0.000000 0.000000 0.000000 0.000000 0.000000 0.000000 0.000000 0.000000 0.000000 0.000000 0.000000 0.000000 0.000000 0.000000 0.000000 0.000000 0.000000 0.000000 0.000000 0.000000 0.000000 0.000000 0.000000 0.000000 0.000000 0.000000 0.000000 0.000000 0.000000 0.000000 0.000000 0.000000 18.790722 18.790722 18.790722 18.790722 18.790722 18.790722 18.790722 18.790722 18.790722 0.000000 0.000000 27.927425 27.927425 27.927425 27.927425 27.927425 27.927425 27.927425 27.927425 27.927425 0.000000 0.000000 0.000000 0.000000 0.000000 0.000000 0.000000 0.000000 0.000000 0.000000 0.000000 0.000000 0.000000 0.000000 0.000000
0.000000 0.000000 0.000000 0.000000 0.000000 0.000000 0.000000 0.000000 0.000000 0.000000 0.000000 0.000000 0.000000 0.000000 0.000000 0.000000 0.000000 0.000000 0.000000 0.000000 0.000000 0.000000 0.000000 0.000000 0.000000 0.000000 0.000000 0.000000 0.000000 0.000000 0.000000 0.000000 0.000000 0.000000 0.000000 0.000000 0.000000 0.000000 0.000000 0.000000 0.000000 0.000000 0.000000 0.000000 0.000000 0.000000 0.000000 0.000000 0.000000 0.000000 0.000000 0.000000 0.000000 0.000000 0.000000 0.000000 0.000000 0.000000 0.000000 0.000000 0.000000 0.000000 0.000000 0.000000 0.000000 0.000000 0.000000 0.000000 18.790722 18.790722 18.790722 18.790722 18.790722 18.790722 18.790722 18.790722 18.790722 0.000000 0.000000 27.927425 27.927425 27.927425 27.927425 27.927425 27.927425 27.927425 27.927425 27.927425 0.000000 0.000000 0.000000 0.000000 0.000000 0.000000 0.000000 0.000000 0.000000 0.000000 0.000000 0.000000 0.000000 0.000000 0.000000
0.000000 0.000000 0.000000 0.000000 0.000000 0.000000 0.000000 0.000000 0.000000 0.000000 0.000000 0.000000 0.000000 0.000000 0.000000 0.000000 0.000000 0.000000 0.000000 0.000000 0.000000 0.000000 0.000000 0.000000 0.000000 0.000000 0.000000 0.000000 0.000000 0.000000 0.000000 0.000000 0.000000 0.000000 0.000000 0.000000 0.000000 0.000000 0.000000 0.000000 0.000000 0.000000 0.000000 0.000000 0.000000 0.000000 0.000000 0.000000 0.000000 0.000000 0.000000 0.000000 0.000000 0.000000 0.000000 0.000000 0.000000 0.000000 0.000000 0.000000 0.000000 0.000000 0.000000 0.000000 0.000000 0.000000 0.000000 0.000000 18.790722 18.790722 18.790722 18.790722 18.790722 18.790722 18.790722 18.790722 18.790722 0.000000 0.000000 27.927425 27.927425 27.927425 27.927425 27.927425 27.927425 27.927425 27.927425 27.927425 0.000000 0.000000 0.000000 0.000000 0.000000 0.000000 0.000000 0.000000 0.000000 0.000000 0.000000 0.000000 0.000000 0.000000 0.000000
0.000000 0.000000 0.000000 0.000000 0.000000 0.000000 32.403706 32.403706 32.403706 32.403706 32.403706 32.403706 32.403706 32.403706 32.403706 32.403706 32.403706 32.403706 32.403706 0.000000 0.000000 0.000000 0.000000 0.000000 0.000000 0.000000 0.000000 0.000000 0.000000 0.000000 0.000000 0.000000 0.000000 0.000000 0.000000 0.000000 0.000000 0.000000 0.000000 0.000000 0.000000 0.000000 0.000000 0.000000 0.000000 0.000000 1.901336 1.901336 1.901336 0.000000 0.000000 0.000000 1.992781 1.992781 1.992781 0.000000 0.000000 0.000000 0.000000 0.000000 0.000000 0.000000 0.000000 0.000000 0.000000 0.000000 0.000000 0.000000 18.790722 18.790722 18.790722 18.790722 18.790722 18.790722 18.790722 18.790722 18.790722 0.000000 0.000000 27.927425 27.927425 27.927425 27.927425 27.927425 27.927425 27.927425 27.927425 27.927425 0.000000 0.000000 0.000000 0.000000 0.000000 0.000000 0.000000 0.000000 0.000000 0.000000 0.000000 0.000000 0.000000 0.000000 0.000000
0.000000 0.000000 0.000000 0.000000 0.000000 0.000000 32.403706 32.403706 32.403706 32.403706 32.403706 32.403706 32.403706 32.403706 32.403706 32.403706 32.403706 32.403706 32.403706 0.000000 0.000000 0.000000 0.000000 0.000000 0.000000 0.000000 0.000000 0.000000 0.000000 0.000000 0.000000 0.000000 0.000000 0.000000 0.000000 0.000000 0.000000 0.000000 0.000000 0.000000 0.000000 0.000000 0.000000 0.000000 0.000000 0.000000 1.901336 1.901336 1.901336 0.000000 0.000000 0.000000 1.992781 1.992781 1.992781 0.000000 0.000000 0.000000 0.000000 0.000000 0.000000 0.000000 0.000000 0.000000 0.000000 0.000000 0.000000 0.000000 18.790722 18.790722 18.790722 18.790722 18.790722 18.790722 18.790722 18.790722 18.790722 0.000000 0.000000 27.927425 27.927425 27.927425 27.927425 27.927425 27.927425 27.927425 27.927425 27.927425 0.000000 0.000000 0.000000 0.000000 0.000000 0.000000 0.000000 0.000000 0.000000 0.000000 0.000000 0.000000 0.000000 0.000000 0.000000
0.000000 0.000000 0.000000 0.000000 0.000000 0.000000 32.403706 32.403706 32.403706 32.403706 32.403706 32.403706 32.403706 32.403706 32.403706 32.403706 32.403706 32.403706 32.403706 0.000000 0.000000 0.000000 0.000000 0.000000 0.000000 0.000000 0.000000 0.000000 0.000000 0.000000 0.000000 0.000000 0.000000 0.000000 0.000000 0.000000 0.000000 0.000000 0.000000 0.000000 0.000000 0.000000 0.000000 0.000000 0.000000 0.000000 1.901336 1.901336 1.901336 0.000000 0.000000 0.000000 1.992781 1.992781 1.992781 0.000000 0.000000 0.000000 0.000000 0.000000 0.000000 0.000000 0.000000 0.000000 0.000000 0.000000 0.000000 0.000000 18.790722 18.790722 18.790722 18.790722 18.790722 18.790722 18.790722 18.790722 18.790722 0.000000 0.000000 27.927425 27.927425 27.927425 27.927425 27.927425 27.927425 27.927425 27.927425 27.927425 0.000000 0.000000 0.000000 0.000000 0.000000 0.000000 0.000000 0.000000 0.000000 0.000000 0.000000 0.000000 0.000000 0.000000 0.000000
0.000000 0.000000 0.000000 0.000000 0.000000 0.000000 32.403706 32.403706 32.403706 32.403706 32.403706 32.403706 32.403706 32.403706 32.403706 32.403706 32.403706 32.403706 32.403706 0.000000 0.000000 0.000000 0.000000 0.000000 0.000000 0.000000 0.000000 0.000000 0.000000 0.000000 0.000000 0.000000 0.000000 0.000000 0.000000 0.000000 0.000000 0.000000 0.000000 0.000000 0.000000 0.000000 0.000000 0.000000 0.000000 0.000000 0.000000 0.000000 0.000000 0.000000 0.000000 0.000000 0.000000 0.000000 0.000000 0.000000 0.000000 0.000000 0.000000 0.000000 0.000000 0.000000 0.000000 0.000000 0.000000 0.000000 0.000000 0.000000 18.790722 18.790722 18.790722 18.790722 18.790722 18.790722 18.790722 18.790722 18.790722 0.000000 0.000000 27.927425 27.927425 27.927425 27.927425 27.927425 27.927425 27.927425 27.927425 27.927425 0.000000 0.000000 0.000000 0.000000 0.000000 0.000000 0.000000 0.000000 0.000000 0.000000 0.000000 0.000000 0.000000 0.000000 0.000000
0.000000 0.000000 0.000000 0.000000 0.000000 0.000000 32.403706 32.403706 32.403706 32.403706 32.403706 32.403706 32.403706 32.403706 32.403706 32.403706 32.403706 32.403706 32.403706 0.000000 0.000000 0.000000 0.000000 0.000000 0.000000 0.000000 0.000000 0.000000 0.000000 0.000000 0.000000 0.000000 0.000000 0.000000 0.000000 0.000000 0.000000 0.000000 0.000000 0.000000 0.000000 0.000000 0.000000 0.000000 0.000000 0.000000 0.000000 0.000000 0.000000 0.000000 0.000000 0.000000 0.000000 0.000000 0.000000 0.000000 0.000000 0.000000 0.000000 0.000000 0.000000 0.000000 0.000000 0.000000 0.000000 0.000000 0.000000 0.000000 0.000000 0.000000 0.000000 0.000000 0.000000 0.000000 0.000000 0.000000 0.000000 0.000000 0.000000 27.927425 27.927425 27.927425 27.927425 27.927425 27.927425 27.927425 27.927425 27.927425 0.000000 0.000000 0.000000 0.000000 0.000000 0.000000 0.000000 0.000000 0.000000 0.000000 0.000000 0.000000 0.000000 0.000000 0.000000
0.000000 0.000000 0.000000 0.000000 0.000000 0.000000 32.403706 32.403706 32.403706 32.403706 32.403706 32.403706 32.403706 32.403706 32.403706 32.403706 32.403706 32.403706 32.403706 0.000000 0.000000 0.000000 0.000000 0.000000 0.000000 0.000000 0.000000 0.000000 0.000000 0.000000 0.000000 0.000000 0.000000 0.000000 0.000000 0.000000 0.000000 0.000000 0.000000 0.000000 0.000000 0.000000 0.000000 0.000000 0.000000 0.000000 0.000000 0.000000 0.000000 0.000000 0.000000 0.000000 0.000000 0.000000 0.000000 0.000000 0.000000 0.000000 0.000000 0.000000 0.000000 0.000000 0.000000 0.000000 0.000000 0.000000 0.000000 0.000000 0.000000 0.000000 0.000000 0.000000 0.000000 0.000000 0.000000 0.000000 0.000000 0.000000 0.000000 27.927425 27.927425 27.927425 27.927425 27.927425 27.927425 27.927425 27.927425 27.927425 0.000000 0.000000 0.000000 0.000000 0.000000 0.000000 0.000000 0.000000 0.000000 0.000000 0.000000 0.000000 0.000000 0.000000 0.000000
0.000000 0.000000 0.000000 0.000000 0.000000 0.000000 32.403706 32.403706 32.403706 32.403706 32.403706 32.403706 32.403706 32.403706 32.403706 32.403706 32.403706 32.403706 32.403706 0.000000 0.000000 0.000000 0.000000 0.000000 0.000000 0.000000 0.000000 0.000000 0.000000 0.000000 0.000000 0.000000 0.000000 0.000000 0.000000 0.000000 0.000000 0.000000 0.000000 0.000000 0.000000 0.000000 0.000000 0.000000 0.000000 0.000000 0.000000 0.000000 0.000000 0.000000 0.000000 0.000000 0.000000 0.000000 0.000000 0.000000 0.000000 0.000000 0.000000 0.000000 0.000000 0.000000 0.000000 0.000000 0.000000 0.000000 0.000000 0.000000 0.000000 0.000000 0.000000 0.000000 0.000000 0.000000 0.000000 0.000000 0.000000 0.000000 0.000000 27.927425 27.927425 27.927425 27.927425 27.927425 27.927425 27.927425 27.927425 27.927425 0.000000 0.000000 0.000000 0.000000 0.000000 0.000000 0.000000 0.000000 0.000000 0.000000 0.000000 0.000000 0.000000 0.000000 0.000000
0.000000 0.000000 0.000000 0.000000 0.000000 0.000000 32.403706 32.403706 32.403706 32.403706 32.403706 32.403706 32.403706 32.403706 32.403706 32.403706 32.403706 32.403706 32.403706 0.000000 0.000000 0.000000 0.000000 0.000000 0.000000 0.000000 0.000000 0.000000 0.000000 0.000000 0.000000 0.000000 0.000000 0.000000 0.000000 0.000000 0.000000 0.000000 0.000000 0.000000 0.000000 0.000000 0.000000 0.000000 0.000000 0.000000 0.000000 0.000000 0.000000 0.000000 0.000000 0.000000 2.215388 2.215388 2.215388 0.000000 0.000000 0.000000 0.000000 2.114714 2.114714 0.000000 0.000000 0.000000 0.000000 0.000000 0.000000 0.000000 0.000000 0.000000 0.000000 0.000000 0.000000 0.000000 0.000000 0.000000 0.000000 0.000000 0.000000 27.927425 27.927425 27.927425 27.927425 27.927425 27.927425 27.927425 27.927425 27.927425 0.000000 0.000000 0.000000 0.000000 0.000000 0.000000 0.000000 0.000000 0.000000 0.000000 0.000000 0.000000 0.000000 0.000000 0.000000
0.000000 0.000000 0.000000 0.000000 0.000000 0.000000 32.403706 32.403706 32.403706 32.403706 32.403706 32.403706 32.403706 32.403706 32.403706 32.403706 32.403706 32.403706 32.403706 0.000000 0.000000 0.000000 0.000000 0.000000 0.000000 0.000000 0.000000 0.000000 0.000000 0.000000 0.000000 0.000000 0.000000 0.000000 0.000000 0.000000 0.000000 0.000000 0.000000 0.000000 0.000000 0.000000 0.000000 0.000000 0.000000 0.000000 0.000000 0.000000 0.000000 0.000000 0.000000 0.000000 2.215388 2.215388 2.215388 0.000000 0.000000 0.000000 0.000000 2.114714 2.114714 0.000000 0.000000 0.000000 0.000000 0.000000 0.000000 0.000000 0.000000 0.000000 0.000000 0.000000 0.000000 0.000000 0.000000 0.000000 0.000000 0.000000 0.000000 27.927425 27.927425 27.927425 27.927425 27.927425 27.927425 27.927425 27.927425 27.927425 0.000000 0.000000 0.000000 0.000000 0.000000 0.000000 0.000000 0.000000 0.000000 0.000000 0.000000 0.000000 0.000000 0.000000 0.000000
0.000000 0.000000 0.000000 0.000000 0.000000 0.000000 32.403706 32.403706 32.403706 32.403706 32.403706 32.403706 32.403706 32.403706 32.403706 32.403706 32.403706 32.403706 32.403706 0.000000 0.000000 0.000000 0.000000 0.000000 0.000000 0.000000 0.000000 0.000000 0.000000 0.000000 0.000000 0.000000 0.000000 0.000000 0.000000 0.000000 0.000000 0.000000 0.000000 0.000000 0.000000 0.000000 0.000000 0.000000 0.000000 0.000000 0.000000 0.000000 0.000000 0.000000 0.000000 0.000000 2.215388 2.215388 2.215388 0.000000 0.000000 0.000000 0.000000 2.114714 2.114714 0.000000 0.000000 0.000000 0.000000 0.000000 0.000000 0.000000 0.000000 0.000000 0.000000 0.000000 0.000000 0.000000 0.000000 0.000000 0.000000 0.000000 0.000000 27.927425 27.927425 27.927425 27.927425 27.927425 27.927425 27.927425 27.927425 27.927425 0.000000 0.000000 0.000000 0.000000 0.000000 0.000000 0.000000 0.000000 0.000000 0.000000 0.000000 0.000000 0.000000 0.000000 0.000000
0.000000 0.000000 0.000000 0.000000 0.000000 0.000000 0.000000 0.000000 0.000000 0.000000 0.000000 0.000000 0.000000 0.000000 0.000000 0.000000 0.000000 0.000000 0.000000 0.000000 0.000000 0.000000 0.000000 0.000000 0.000000 0.000000 0.000000 0.000000 0.000000 0.000000 0.000000 0.000000 0.000000 0.000000 0.000000 0.000000 0.000000 0.000000 0.000000 0.000000 0.000000 0.000000 0.000000 0.000000 0.000000 0.000000 0.000000 0.000000 0.000000 0.000000 0.000000 0.000000 0.000000 0.000000 0.000000 0.000000 0.000000 0.000000 0.000000 0.000000 0.000000 0.000000 0.000000 0.000000 0.000000 0.000000 0.000000 0.000000 0.000000 0.000000 0.000000 0.000000 0.000000 0.000000 0.000000 0.000000 0.000000 0.000000 0.000000 0.000000 0.000000 0.000000 0.000000 0.000000 0.000000 0.000000 0.000000 0.000000 0.000000 0.000000 0.000000 0.000000 0.000000 0.000000 0.000000 0.000000 0.000000 0.000000 0.000000 0.000000 0.000000 0.000000 0.000000
0.000000 0.000000 0.000000 0.000000 0.000000 0.000000 0.000000 0.000000 0.000000 0.000000 0.000000 0.000000 0.000000 0.000000 0.000000 0.000000 0.000000 0.000000 0.000000 0.000000 0.000000 0.000000 0.000000 0.000000 0.000000 0.000000 0.000000 0.000000 0.000000 0.000000 0.000000 0.000000 0.000000 0.000000 0.000000 0.000000 0.000000 0.000000 0.000000 0.000000 0.000000 0.000000 0.000000 0.000000 0.000000 0.000000 0.000000 0.000000 0.000000 0.000000 0.000000 0.000000 0.000000 0.000000 0.000000 0.000000 0.000000 0.000000 0.000000 0.000000 0.000000 0.000000 0.000000 0.000000 0.000000 0.000000 0.000000 0.000000 0.000000 0.000000 0.000000 0.000000 0.000000 0.000000 0.000000 0.000000 0.000000 0.000000 0.000000 0.000000 0.000000 0.000000 0.000000 0.000000 0.000000 0.000000 0.000000 0.000000 0.000000 0.000000 0.000000 0.000000 0.000000 0.000000 0.000000 0.000000 0.000000 0.000000 0.000000 0.000000 0.000000 0.000000 0.000000
0.000000 0.000000 0.000000 0.000000 0.000000 0.000000 0.000000 0.000000 0.000000 0.000000 0.000000 0.000000 0.000000 0.000000 0.000000 0.000000 0.000000 0.000000 0.000000 0.000000 0.000000 0.000000 0.000000 0.000000 0.000000 0.000000 0.000000 0.000000 0.000000 0.000000 0.000000 0.000000 0.000000 0.000000 0.000000 0.000000 0.000000 0.000000 0.000000 0.000000 0.000000 0.000000 0.000000 0.000000 0.000000 0.000000 0.000000 0.000000 0.000000 0.000000 0.000000 0.000000 0.000000 0.000000 0.000000 0.000000 0.000000 0.000000 0.000000 0.000000 0.000000 0.000000 0.000000 0.000000 0.000000 0.000000 0.000000 0.000000 0.000000 0.000000 0.000000 0.000000 0.000000 0.000000 0.000000 0.000000 0.000000 0.000000 0.000000 0.000000 0.000000 0.000000 0.000000 0.000000 0.000000 0.000000 0.000000 0.000000 0.000000 0.000000 0.000000 0.000000 0.000000 0.000000 0.000000 0.000000 0.000000 0.000000 0.000000 0.000000 0.000000 0.000000 0.000000
0.000000 0.000000 0.000000 0.000000 0.000000 0.000000 0.000000 0.000000 0.000000 0.000000 0.000000 0.000000 0.000000 0.000000 0.000000 0.000000 0.000000 0.000000 0.000000 0.000000 0.000000 0.000000 0.000000 0.000000 0.000000 0.000000 0.000000 0.000000 0.000000 0.000000 0.000000 0.000000 0.000000 0.000000 0.000000 0.000000 0.000000 0.000000 0.000000 0.000000 0.000000 0.000000 0.000000 0.000000 0.000000 0.000000 0.000000 0.000000 0.000000 0.000000 0.000000 0.000000 0.000000 0.000000 0.000000 0.000000 0.000000 0.000000 0.000000 0.000000 0.000000 0.000000 0.000000 0.000000 0.000000 0.000000 0.000000 0.000000 0.000000 0.000000 0.000000 0.000000 0.000000 0.000000 0.000000 0.000000 0.000000 0.000000 0.000000 0.000000 0.000000 0.000000 0.000000 0.000000 0.000000 0.000000 0.000000 0.000000 0.000000 0.000000 0.000000 0.000000 0.000000 0.000000 0.000000 0.000000 0.000000 0.000000 0.000000 0.000000 0.000000 0.000000 0.000000
0.000000 0.000000 0.000000 0.000000 0.000000 0.000000 0.000000 0.000000 0.000000 0.000000 0.000000 0.000000 0.000000 0.000000 0.000000 0.000000 0.000000 0.000000 0.000000 0.000000 0.000000 0.000000 0.000000 0.000000 0.000000 0.000000 0.000000 0.000000 0.000000 0.000000 0.000000 0.000000 0.000000 0.000000 0.000000 0.000000 0.000000 0.000000 0.000000 0.000000 0.000000 0.000000 0.000000 0.000000 0.000000 0.000000 0.000000 0.000000 0.000000 0.000000 0.000000 0.000000 0.000000 0.000000 0.000000 0.000000 0.000000 0.000000 0.000000 0.000000 0.000000 0.000000 0.000000 0.000000 0.000000 0.000000 0.000000 0.000000 0.000000 0.000000 0.000000 0.000000 0.000000 0.000000 0.000000 0.000000 0.000000 0.000000 0.000000 0.000000 0.000000 0.000000 0.000000 0.000000 0.000000 0.000000 0.000000 0.000000 0.000000 0.000000 0.000000 0.000000 0.000000 0.000000 0.000000 0.000000 0.000000 0.000000 0.000000 0.000000 0.000000 0.000000 0.000000
0.000000 0.000000 0.000000 0.000000 0.000000 0.000000 0.000000 0.000000 0.000000 0.000000 0.000000 0.000000 0.000000 0.000000 0.000000 0.000000 0.000000 0.000000 0.000000 0.000000 0.000000 0.000000 0.000000 0.000000 0.000000 0.000000 0.000000 0.000000 0.000000 0.000000 0.000000 0.000000 0.000000 0.000000 0.000000 0.000000 0.000000 0.000000 0.000000 0.000000 0.000000 0.000000 0.000000 0.000000 0.000000 0.000000 0.000000 0.000000 0.000000 0.000000 0.000000 0.000000 0.000000 0.000000 0.000000 0.000000 0.000000 0.000000 0.000000 0.000000 0.000000 0.000000 0.000000 0.000000 0.000000 0.000000 0.000000 0.000000 0.000000 0.000000 0.000000 0.000000 0.000000 0.000000 0.000000 0.000000 0.000000 0.000000 0.000000 0.000000 0.000000 0.000000 0.000000 0.000000 0.000000 0.000000 0.000000 0.000000 0.000000 0.000000 0.000000 0.000000 0.000000 0.000000 0.000000 0.000000 0.000000 0.000000 0.000000 0.000000 0.000000 0.000000 0.000000
0.000000 0.000000 0.000000 0.000000 0.000000 0.000000 0.000000 0.000000 0.000000 0.000000 0.000000 0.000000 0.000000 0.000000 0.000000 0.000000 0.000000 0.000000 0.000000 0.000000 0.000000 0.000000 0.000000 0.000000 0.000000 0.000000 0.000000 0.000000 0.000000 0.000000 0.000000 0.000000 0.000000 0.000000 0.000000 0.000000 0.000000 0.000000 0.000000 0.000000 0.000000 0.000000 0.000000 0.000000 0.000000 0.000000 0.000000 0.000000 0.000000 0.000000 0.000000 0.000000 0.000000 0.000000 0.000000 0.000000 0.000000 0.000000 0.000000 0.000000 0.000000 0.000000 0.000000 0.000000 0.000000 0.000000 0.000000 0.000000 0.000000 0.000000 0.000000 0.000000 0.000000 0.000000 0.000000 0.000000 0.000000 0.000000 0.000000 0.000000 0.000000 0.000000 0.000000 0.000000 0.000000 0.000000 0.000000 0.000000 0.000000 0.000000 0.000000 0.000000 0.000000 0.000000 0.000000 0.000000 0.000000 0.000000 0.000000 0.000000 0.000000 0.000000 0.000000
0.000000 0.000000 0.000000 0.000000 13.674047 13.674047 13.674047 13.674047 13.674047 13.674047 13.674047 13.674047 18.201773 18.201773 18.201773 18.201773 18.201773 18.201773 18.201773 18.201773 18.201773 0.000000 0.000000 0.000000 0.000000 0.000000 0.000000 0.000000 0.000000 0.000000 0.000000 0.000000 0.000000 0.000000 0.000000 0.000000 0.000000 0.000000 0.000000 0.000000 0.000000 0.000000 0.000000 0.000000 0.000000 0.000000 0.000000 0.000000 0.000000 0.000000 0.000000 0.000000 0.000000 0.000000 13.992165 13.992165 13.992165 13.992165 13.992165 13.992165 13.992165 13.992165 13.992165 0.000000 0.000000 0.000000 0.000000 0.000000 0.000000 0.000000 0.000000 0.000000 0.000000 0.000000 0.000000 0.000000 0.000000 0.000000 0.000000 0.000000 0.000000 0.000000 14.993264 14.993264 14.993264 14.993264 14.993264 14.993264 14.993264 14.993264 16.527449 16.527449 16.527449 16.527449 16.527449 16.527449 16.527449 16.527449 16.527449 0.000000 0.000000 0.000000 0.000000
0.000000 0.000000 0.000000 0.000000 13.674047 13.674047 13.674047 13.674047 13.674047 13.674047 13.674047 13.674047 18.201773 18.201773 18.201773 18.201773 18.201773 18.201773 18.201773 18.201773 18.201773 0.000000 0.000000 0.000000 0.000000 0.000000 0.000000 0.000000 0.000000 0.000000 0.000000 0.000000 0.000000 0.000000 0.000000 0.000000 0.000000 0.000000 0.000000 0.000000 0.000000 0.000000 0.000000 0.000000 0.000000 0.000000 0.000000 0.000000 0.000000 0.000000 0.000000 0.000000 0.000000 0.000000 13.992165 13.992165 13.992165 13.992165 13.992165 13.992165 13.992165 13.992165 13.992165 0.000000 0.000000 0.000000 0.000000 0.000000 0.000000 0.000000 0.000000 0.000000 0.000000 0.000000 0.000000 0.000000 0.000000 0.000000 0.000000 0.000000 0.000000 0.000000 14.993264 14.993264 14.993264 14.993264 14.993264 14.993264 14.993264 14.993264 16.527449 16.527449 16.527449 16.527449 16.527449 16.527449 16.527449 16.527449 16.527449 0.000000 0.000000 0.000000 0.000000
0.000000 0.000000 0.000000 0.000000 13.674047 13.674047 13.674047 13.674047 13.674047 13.674047 13.674047 13.674047 18.201773 18.201773 18.201773 18.201773 18.201773 18.201773 18.201773 18.201773 18.201773 0.000000 0.000000 0.000000 0.000000 0.000000 0.000000 0.000000 24.035503 24.035503 24.035503 24.035503 24.035503 24.035503 24.035503 24.035503 24.035503 0.000000 0.000000 0.000000 0.000000 0.000000 0.000000 0.000000 0.000000 0.000000 0.000000 0.000000 0.000000 0.000000 0.000000 0.000000 0.000000 0.000000 13.992165 13.992165 13.992165 13.992165 13.992165 13.992165 13.992165 13.992165 13.992165 0.000000 0.000000 0.000000 0.000000 0.000000 0.000000 0.000000 0.000000 0.000000 0.000000 0.000000 0.000000 0.000000 0.000000 0.000000 0.000000 0.000000 0.000000 0.000000 14.993264 14.993264 14.993264 14.993264 14.993264 14.993264 14.993264 14.993264 16.527449 16.527449 16.527449 16.527449 16.527449 16.527449 16.527449 16.527449 16.527449 0.000000 0.000000 0.000000 0.000000
0.000000 0.000000 0.000000 0.000000 13.674047 13.674047 13.674047 13.674047 13.674047 13.674047 13.674047 13.674047 18.201773 18.201773 18.201773 18.201773 18.201773 18.201773 18.201773 18.201773 18.201773 0.000000 0.000000 0.000000 0.000000 0.000000 0.000000 0.000000 24.035503 24.035503 24.035503 24.035503 24.035503 24.035503 24.035503 24.035503 24.035503 0.000000 0.000000 0.000000 0.000000 0.000000 0.000000 0.000000 0.000000 0.000000 0.000000 0.000000 0.000000 0.000000 0.000000 0.000000 0.000000 0.000000 13.992165 13.992165 13.992165 13.992165 13.992165 13.992165 13.992165 13.992165 13.992165 0.000000 0.000000 0.000000 0.000000 0.000000 0.000000 0.000000 0.000000 0.000000 0.000000 0.000000 0.000000 0.000000 0.000000 0.000000 0.000000 0.000000 0.000000 0.000000 14.993264 14.993264 14.993264 14.993264 14.993264 14.993264 14.993264 14.993264 16.527449 16.527449 16.527449 16.527449 16.527449 16.527449 16.527449 16.527449 16.527449 0.000000 0.000000 0.000000 0.000000
0.000000 0.000000 0.000000 0.000000 13.674047 13.674047 13.674047 13.674047 13.674047 13.674047 13.674047 13.674047 18.201773 18.201773 18.201773 18.201773 18.201773 18.201773 18.201773 18.201773 18.201773 0.000000 0.000000 0.000000 0.000000 0.000000 0.000000 0.000000 24.035503 24.035503 24.035503 24.035503 24.035503 24.035503 24.035503 24.035503 24.035503 0.000000 0.000000 0.000000 0.000000 0.000000 0.000000 0.000000 0.000000 0.000000 0.000000 0.000000 0.000000 0.000000 0.000000 0.000000 0.000000 0.000000 13.992165 13.992165 13.992165 13.992165 13.992165 13.992165 13.992165 13.992165 13.992165 0.000000 0.000000 0.000000 0.000000 0.000000 0.000000 0.000000 0.000000 0.000000 0.000000 0.000000 0.000000 0.000000 0.000000 0.000000 0.000000 0.000000 0.000000 0.000000 14.993264 14.993264 14.993264 14.993264 14.993264 14.993264 14.993264 14.993264 16.527449 16.527449 16.527449 16.527449 16.527449 16.527449 16.527449 16.527449 16.527449 0.000000 0.000000 0.000000 0.000000
0.000000 0.000000 0.000000 0.000000 13.674047 13.674047 13.674047 13.674047 13.674047 13.674047 13.674047 13.674047 18.201773 18.201773 18.201773 18.201773 18.201773 18.201773 18.201773 18.201773 18.201773 0.000000 0.000000 0.000000 0.000000 0.000000 0.000000 0.000000 24.035503 24.035503 24.035503 24.035503 24.035503 24.035503 24.035503 24.035503 24.035503 0.000000 0.000000 0.000000 0.000000 0.000000 0.000000 0.000000 0.000000 0.000000 0.000000 0.000000 0.000000 0.000000 0.000000 0.000000 0.000000 0.000000 13.992165 13.992165 13.992165 13.992165 13.992165 13.992165 13.992165 13.992165 13.992165 0.000000 0.000000 0.000000 0.000000 0.000000 0.000000 0.000000 0.000000 0.000000 0.000000 0.000000 0.000000 0.000000 0.000000 0.000000 0.000000 0.000000 0.000000 0.000000 14.993264 14.993264 14.993264 14.993264 14.993264 14.993264 14.993264 14.993264 16.527449 16.527449 16.527449 16.527449 16.527449 16.527449 16.527449 16.527449 16.527449 0.000000 0.000000 0.000000 0.000000
0.000000 0.000000 0.000000 0.000000 13.674047 13.674047 13.674047 13.674047 13.674047 13.674047 13.674047 13.674047 18.201773 18.201773 18.201773 18.201773 18.201773 18.201773 18.201773 18.201773 18.201773 0.000000 0.000000 0.000000 0.000000 0.000000 0.000000 0.000000 24.035503 24.035503 24.035503 24.035503 24.035503 24.035503 24.035503 24.035503 24.035503 0.000000 0.000000 0.000000 0.000000 0.000000 0.000000 0.000000 0.000000 0.000000 0.000000 0.000000 0.000000 0.000000 0.000000 0.000000 0.000000 0.000000 13.992165 13.992165 13.992165 13.992165 13.992165 13.992165 13.992165 13.992165 13.992165 0.000000 0.000000 0.000000 0.000000 0.000000 0.000000 0.000000 0.000000 0.000000 0.000000 0.000000 0.000000 0.000000 0.000000 0.000000 0.000000 0.000000 0.000000 0.000000 14.993264 14.993264 14.993264 14.993264 14.993264 14.993264 14.993264 14.993264 16.527449 16.527449 16.527449 16.527449 16.527449 16.527449 16.527449 16.527449 16.527449 0.000000 0.000000 0.000000 0.000000
0.000000 0.000000 0.000000 0.000000 13.674047 13.674047 13.674047 13.674047 13.674047 13.674047 13.674047 13.674047 18.201773 18.201773 18.201773 18.201773 18.201773 18.201773 18.201773 18.201773 18.201773 0.000000 0.000000 0.000000 0.000000 0.000000 0.000000 0.000000 24.035503 24.035503 24.035503 24.035503 24.035503 24.035503 24.035503 24.035503 24.035503 0.000000 0.000000 0.000000 0.000000 0.000000 0.000000 0.000000 18.843784 18.843784 18.843784 18.843784 18.843784 18.843784 18.843784 18.843784 18.843784 18.843784 0.000000 0.000000 0.000000 0.000000 0.000000 0.000000 0.000000 0.000000 0.000000 0.000000 0.000000 0.000000 0.000000 0.000000 0.000000 0.000000 0.000000 0.000000 0.000000 0.000000 0.000000 0.000000 0.000000 0.000000 0.000000 0.000000 0.000000 0.000000 14.993264 14.993264 14.993264 14.993264 14.993264 14.993264 14.993264 14.993264 16.527449 16.527449 16.527449 16.527449 16.527449 16.527449 16.527449 16.527449 16.527449 0.000000 0.000000 0.000000 0.000000
0.000000 0.000000 0.000000 0.000000 11.219772 11.219772 11.219772 11.219772 11.219772 11.219772 11.219772 11.219772 14.934843 14.934843 14.934843 14.934843 14.934843 14.934843 14.934843 14.934843 14.934843 0.000000 0.000000 0.000000 0.000000 0.000000 0.000000 0.000000 24.035503 24.035503 24.035503 24.035503 24.035503 24.035503 24.035503 24.035503 24.035503 0.000000 0.000000 0.000000 0.000000 0.000000 0.000000 0.000000 18.843784 18.843784 18.843784 18.843784 18.843784 18.843784 18.843784 18.843784 18.843784 18.843784 0.000000 0.000000 0.000000 0.000000 0.000000 0.000000 0.000000 0.000000 0.000000 0.000000 0.000000 0.000000 0.000000 0.000000 22.158510 22.158510 22.158510 22.158510 22.158510 22.158510 22.158510 22.158510 22.158510 22.158510 22.158510 22.158510 22.158510 22.158510 0.000000 0.000000 0.000000 0.000000 0.000000 0.000000 0.000000 0.000000 15.195730 15.195730 15.195730 15.195730 15.195730 15.195730 15.195730 15.195730 15.195730 0.000000 0.000000 0.000000 0.000000
0.000000 0.000000 0.000000 0.000000 11.219772 11.219772 11.219772 11.219772 11.219772 11.219772 11.219772 11.219772 14.934843 14.934843 14.934843 14.934843 14.934843 14.934843 14.934843 14.934843 14.934843 0.000000 0.000000 0.000000 0.000000 0.000000 0.000000 0.000000 24.035503 24.035503 24.035503 24.035503 24.035503 24.035503 24.035503 24.035503 24.035503 0.000000 0.000000 0.000000 0.000000 0.000000 0.000000 0.000000 18.843784 18.843784 18.843784 18.843784 18.843784 18.843784 18.843784 18.843784 18.843784 18.843784 0.000000 0.000000 0.000000 0.000000 0.000000 0.000000 0.000000 0.000000 0.000000 0.000000 0.000000 0.000000 0.000000 0.000000 22.158510 22.158510 22.158510 22.158510 22.158510 22.158510 22.158510 22.158510 22.158510 22.158510 22.158510 22.158510 22.158510 22.158510 0.000000 0.000000 0.000000 0.000000 0.000000 0.000000 0.000000 0.000000 15.195730 15.195730 15.195730 15.195730 15.195730 15.195730 15.195730 15.195730 15.195730 0.000000 0.000000 0.000000 0.000000
0.000000 0.000000 0.000000 0.000000 11.219772 11.219772 11.219772 11.219772 11.219772 11.219772 11.219772 11.219772 14.934843 14.934843 14.934843 14.934843 14.934843 14.934843 14.934843 14.934843 14.934843 0.000000 0.000000 0.000000 0.000000 0.000000 0.000000 0.000000 24.035503 24.035503 24.035503 24.035503 24.035503 24.035503 24.035503 24.035503 24.035503 0.000000 0.000000 0.000000 0.000000 0.000000 0.000000 0.000000 18.843784 18.843784 18.843784 18.843784 18.843784 18.843784 18.843784 18.843784 18.843784 18.843784 0.000000 0.000000 0.000000 0.000000 0.000000 0.000000 0.000000 0.000000 0.000000 0.000000 0.000000 0.000000 0.000000 0.000000 22.158510 22.158510 22.158510 22.158510 22.158510 22.158510 22.158510 22.158510 22.158510 22.158510 22.158510 22.158510 22.158510 22.158510 0.000000 0.000000 0.000000 0.000000 0.000000 0.000000 0.000000 0.000000 15.195730 15.195730 15.195730 15.195730 15.195730 15.195730 15.195730 15.195730 15.195730 0.000000 0.000000 0.000000 0.000000
0.000000 0.000000 0.000000 0.000000 11.219772 11.219772 11.219772 11.219772 11.219772 11.219772 11.219772 11.219772 14.934843 14.934843 14.934843 14.934843 14.934843 14.934843 14.934843 14.934843 14.934843 0.000000 0.000000 0.000000 0.000000 0.000000 0.000000 0.000000 24.035503 24.035503 24.035503 24.035503 24.035503 24.035503 24.035503 24.035503 24.035503 0.000000 0.000000 0.000000 0.000000 0.000000 0.000000 0.000000 18.843784 18.843784 18.843784 18.843784 18.843784 18.843784 18.843784 18.843784 18.843784 18.843784 0.000000 0.000000 0.000000 0.000000 0.000000 0.000000 0.000000 0.000000 0.000000 0.000000 0.000000 0.000000 0.000000 0.000000 22.158510 22.158510 22.158510 22.158510 22.158510 22.158510 22.158510 22.158510 22.158510 22.158510 22.158510 22.158510 22.158510 22.158510 0.000000 0.000000 0.000000 0.000000 0.000000 0.000000 0.000000 0.000000 15.195730 15.195730 15.195730 15.195730 15.195730 15.195730 15.195730 15.195730 15.195730 0.000000 0.000000 0.000000 0.000000
0.000000 0.000000 0.000000 0.000000 11.219772 11.219772 11.219772 11.219772 11.219772 11.219772 11.219772 11.219772 14.934843 14.934843 14.934843 14.934843 14.934843 14.934843 14.934843 14.934843 14.934843 0.000000 0.000000 0.000000 0.000000 0.000000 0.000000 0.000000 24.035503 24.035503 24.035503 24.035503 24.035503 24.035503 24.035503 24.035503 24.035503 0.000000 0.000000 0.000000 0.000000 0.000000 0.000000 0.000000 18.843784 18.843784 18.843784 18.843784 18.843784 18.843784 18.843784 18.843784 18.843784 18.843784 0.000000 0.000000 0.000000 0.000000 0.000000 0.000000 0.000000 0.000000 0.000000 0.000000 0.000000 0.000000 0.000000 0.000000 22.158510 22.158510 22.158510 22.158510 22.158510 22.158510 22.158510 22.158510 22.158510 22.158510 22.158510 22.158510 22.158510 22.158510 0.000000 0.000000 0.000000 0.000000 0.000000 0.000000 0.000000 0.000000 15.195730 15.195730 15.195730 15.195730 15.195730 15.195730 15.195730 15.195730 15.195730 0.000000 0.000000 0.000000 0.000000
0.000000 0.000000 0.000000 0.000000 11.219772 11.219772 11.219772 11.219772 11.219772 11.219772 11.219772 11.219772 14.934843 14.934843 14.934843 14.934843 14.934843 14.934843 14.934843 14.934843 14.934843 0.000000 0.000000 0.000000 0.000000 0.000000 0.000000 0.000000 0.000000 0.000000 0.000000 0.000000 0.000000 0.000000 0.000000 0.000000 0.000000 0.000000 0.000000 0.000000 0.000000 0.000000 0.000000 0.000000 18.843784 18.843784 18.843784 18.843784 18.843784 18.843784 18.843784 18.843784 18.843784 18.843784 0.000000 0.000000 0.000000 0.000000 0.000000 0.000000 0.000000 0.000000 0.000000 0.000000 0.000000 0.000000 0.000000 0.000000 22.158510 22.158510 22.158510 22.158510 22.158510 22.158510 22.158510 22.158510 22.158510 22.158510 22.158510 22.158510 22.158510 22.158510 0.000000 0.000000 0.000000 0.000000 0.000000 0.000000 0.000000 0.000000 15.195730 15.195730 15.195730 15.195730 15.195730 15.195730 15.195730 15.195730 15.195730 0.000000 0.000000 0.000000 0.000000
0.000000 0.000000 0.000000 0.000000 11.219772 11.219772 11.219772 11.219772 11.219772 11.219772 11.219772 11.219772 14.934843 14.934843 14.934843 14.934843 14.934843 14.934843 14.934843 14.934843 14.934843 0.000000 0.000000 0.000000 0.000000 0.000000 0.000000 0.000000 0.000000 0.000000 0.000000 0.000000 0.000000 0.000000 0.000000 0.000000 0.000000 0.000000 0.000000 0.000000 0.000000 0.000000 0.000000 0.000000 18.843784 18.843784 18.843784 18.843784 18.843784 18.843784 18.843784 18.843784 18.843784 18.843784 0.000000 0.000000 0.000000 0.000000 0.000000 0.000000 0.000000 0.000000 0.000000 0.000000 0.000000 0.000000 0.000000 0.000000 22.158510 22.158510 22.158510 22.158510 22.158510 22.158510 22.158510 22.158510 22.158510 22.158510 22.158510 22.158510 22.158510 22.158510 0.000000 0.000000 0.000000 0.000000 0.000000 0.000000 0.000000 0.000000 15.195730 15.195730 15.195730 15.195730 15.195730 15.195730 15.195730 15.195730 15.195730 0.000000 0.000000 0.000000 0.000000
0.000000 0.000000 0.000000 0.000000 0.000000 0.000000 0.000000 0.000000 0.000000 0.000000 0.000000 0.000000 0.000000 0.000000 0.000000 0.000000 0.000000 0.000000 0.000000 0.000000 0.000000 0.000000 0.000000 0.000000 0.000000 0.000000 0.000000 0.000000 0.000000 0.000000 0.000000 0.000000 0.000000 0.000000 0.000000 0.000000 0.000000 0.000000 0.000000 0.000000 0.000000 0.000000 0.000000 0.000000 0.000000 0.000000 0.000000 0.000000 0.000000 0.000000 0.000000 0.000000 0.000000 0.000000 0.000000 0.000000 0.000000 0.000000 0.000000 0.000000 0.000000 0.000000 0.000000 0.000000 0.000000 0.000000 0.000000 0.000000 0.000000 0.000000 0.000000 0.000000 0.000000 0.000000 0.000000 0.000000 0.000000 0.000000 0.000000 0.000000 0.000000 0.000000 0.000000 0.000000 0.000000 0.000000 0.000000 0.000000 0.000000 0.000000 0.000000 0.000000 0.000000 0.000000 0.000000 0.000000 0.000000 0.000000 0.000000 0.000000 0.000000 0.000000 0.000000
0.000000 0.000000 0.000000 0.000000 0.000000 0.000000 0.000000 0.000000 0.000000 0.000000 0.000000 0.000000 0.000000 0.000000 0.000000 0.000000 0.000000 0.000000 0.000000 0.000000 0.000000 0.000000 0.000000 0.000000 0.000000 0.000000 0.000000 0.000000 0.000000 0.000000 0.000000 0.000000 0.000000 0.000000 0.000000 0.000000 0.000000 0.000000 0.000000 0.000000 0.000000 0.000000 0.000000 0.000000 0.000000 0.000000 0.000000 0.000000 0.000000 0.000000 0.000000 0.000000 0.000000 0.000000 0.000000 0.000000 0.000000 0.000000 0.000000 0.000000 0.000000 0.000000 0.000000 0.000000 0.000000 0.000000 0.000000 0.000000 0.000000 0.000000 0.000000 0.000000 0.000000 0.000000 0.000000 0.000000 0.000000 0.000000 0.000000 0.000000 0.000000 0.000000 0.000000 0.000000 0.000000 0.000000 0.000000 0.000000 0.000000 0.000000 0.000000 0.000000 0.000000 0.000000 0.000000 0.000000 0.000000 0.000000 0.000000 0.000000 0.000000 0.000000 0.000000
0.000000 0.000000 0.000000 0.000000 0.000000 0.000000 0.000000 0.000000 0.000000 0.000000 0.000000 0.000000 0.000000 0.000000 0.000000 0.000000 0.000000 0.000000 0.000000 0.000000 0.000000 0.000000 0.000000 0.000000 0.000000 0.000000 0.000000 0.000000 0.000000 0.000000 0.000000 0.000000 0.000000 0.000000 0.000000 0.000000 0.000000 0.000000 0.000000 0.000000 0.000000 0.000000 0.000000 0.000000 0.000000 0.000000 0.000000 0.000000 0.000000 0.000000 0.000000 0.000000 0.000000 0.000000 0.000000 0.000000 0.000000 0.000000 0.000000 0.000000 0.000000 0.000000 0.000000 0.000000 0.000000 0.000000 0.000000 0.000000 0.000000 0.000000 0.000000 0.000000 0.000000 0.000000 0.000000 0.000000 0.000000 0.000000 0.000000 0.000000 0.000000 0.000000 0.000000 0.000000 0.000000 0.000000 0.000000 0.000000 0.000000 0.000000 0.000000 0.000000 0.000000 0.000000 0.000000 0.000000 0.000000 0.000000 0.000000 0.000000 0.000000 0.000000 0.000000
0.000000 0.000000 0.000000 0.000000 0.000000 0.000000 0.000000 0.000000 0.000000 0.000000 0.000000 0.000000 0.000000 0.000000 0.000000 0.000000 0.000000 0.000000 0.000000 0.000000 0.000000 0.000000 0.000000 0.000000 0.000000 0.000000 0.000000 0.000000 0.000000 0.000000 0.000000 0.000000 0.000000 0.000000 0.000000 0.000000 0.000000 0.000000 0.000000 0.000000 0.000000 0.000000 0.000000 0.000000 0.000000 0.000000 0.000000 0.000000 0.000000 0.000000 0.000000 0.000000 0.000000 0.000000 0.000000 0.000000 0.000000 0.000000 0.000000 0.000000 0.000000 0.000000 0.000000 0.000000 0.000000 0.000000 0.000000 0.000000 0.000000 0.000000 0.000000 0.000000 0.000000 0.000000 0.000000 0.000000 0.000000 0.000000 0.000000 0.000000 0.000000 0.000000 0.000000 0.000000 0.000000 0.000000 0.000000 0.000000 0.000000 0.000000 0.000000 0.000000 0.000000 0.000000 0.000000 0.000000 0.000000 0.000000 0.000000 0.000000 0.000000 0.000000 0.000000
0.000000 0.000000 0.000000 0.000000 0.000000 0.000000 0.000000 0.000000 0.000000 0.000000 0.000000 0.000000 0.000000 0.000000 0.000000 0.000000 0.000000 0.000000 0.000000 0.000000 0.000000 0.000000 0.000000 0.000000 0.000000 0.000000 0.000000 0.000000 0.000000 0.000000 0.000000 0.000000 0.000000 0.000000 0.000000 0.000000 0.000000 0.000000 0.000000 0.000000 0.000000 0.000000 0.000000 0.000000 0.000000 0.000000 0.000000 0.000000 0.000000 0.000000 0.000000 0.000000 0.000000 0.000000 0.000000 0.000000 0.000000 0.000000 0.000000 0.000000 0.000000 0.000000 0.000000 0.000000 0.000000 0.000000 0.000000 0.000000 0.000000 0.000000 0.000000 0.000000 0.000000 0.000000 0.000000 0.000000 0.000000 0.000000 0.000000 0.000000 0.000000 0.000000 0.000000 0.000000 0.000000 0.000000 0.000000 0.000000 0.000000 0.000000 0.000000 0.000000 0.000000 0.000000 0.000000 0.000000 0.000000 0.000000 0.000000 0.000000 0.000000 0.000000 0.000000
0.000000 0.000000 0.000000 0.000000 0.000000 0.000000 0.000000 0.000000 0.000000 0.000000 0.000000 0.000000 0.000000 0.000000 0.000000 0.000000 0.000000 0.000000 0.000000 0.000000 0.000000 0.000000 0.000000 0.000000 0.000000 0.000000 18.369978 18.369978 18.369978 18.369978 18.369978 18.369978 18.369978 0.000000 0.000000 0.000000 0.000000 0.000000 0.000000 0.000000 0.000000 0.000000 0.000000 0.000000 0.000000 0.000000 0.000000 0.000000 0.000000 0.000000 0.000000 0.000000 0.000000 0.000000 0.000000 0.000000 0.000000 0.000000 0.000000 0.000000 0.000000 0.000000 0.000000 0.000000 0.000000 0.000000 0.000000 0.000000 0.000000 0.000000 0.000000 0.000000 0.000000 0.000000 0.000000 0.000000 0.000000 0.000000 0.000000 0.000000 0.000000 0.000000 0.000000 0.000000 0.000000 0.000000 0.000000 0.000000 32.242857 32.242857 32.242857 32.242857 32.242857 32.242857 32.242857 32.242857 32.242857 32.242857 32.242857 0.000000 0.000000 0.000000 0.000000
0.000000 0.000000 0.000000 0.000000 0.000000 0.000000 0.000000 0.000000 0.000000 0.000000 0.000000 0.000000 0.000000 0.000000 0.000000 0.000000 0.000000 0.000000 0.000000 0.000000 0.000000 0.000000 0.000000 0.000000 0.000000 0.000000 18.369978 18.369978 18.369978 18.369978 18.369978 18.369978 18.369978 0.000000 0.000000 0.000000 0.000000 0.000000 0.000000 0.000000 0.000000 0.000000 0.000000 0.000000 0.000000 0.000000 0.000000 0.000000 0.000000 0.000000 0.000000 0.000000 0.000000 5.076556 5.076556 5.076556 5.076556 5.076556 5.076556 5.076556 5.076556 0.000000 0.000000 0.000000 0.000000 0.000000 0.000000 0.000000 0.000000 0.000000 17.707346 17.707346 17.707346 17.707346 17.707346 17.707346 17.707346 17.707346 17.707346 0.000000 0.000000 0.000000 0.000000 7.613810 7.613810 7.613810 0.000000 0.000000 32.242857 32.242857 32.242857 32.242857 32.242857 32.242857 32.242857 32.242857 32.242857 32.242857 32.242857 0.000000 0.000000 0.000000 0.000000
0.000000 0.000000 0.000000 0.000000 0.000000 0.000000 0.000000 0.000000 0.000000 0.000000 0.000000 0.000000 0.000000 0.000000 0.000000 0.000000 0.000000 0.000000 0.000000 0.000000 0.000000 0.000000 0.000000 0.000000 0.000000 0.000000 18.369978 18.369978 18.369978 18.369978 18.369978 18.369978 18.369978 0.000000 0.000000 0.000000 0.000000 0.000000 0.000000 0.000000 0.000000 0.000000 0.000000 0.000000 0.000000 0.000000 0.000000 0.000000 0.000000 0.000000 0.000000 0.000000 0.000000 5.076556 5.076556 5.076556 5.076556 5.076556 5.076556 5.076556 5.076556 0.000000 0.000000 0.000000 0.000000 0.000000 0.000000 0.000000 0.000000 0.000000 17.707346 17.707346 17.707346 17.707346 17.707346 17.707346 17.707346 17.707346 17.707346 0.000000 0.000000 0.000000 0.000000 7.613810 7.613810 7.613810 0.000000 0.000000 32.242857 32.242857 32.242857 32.242857 32.242857 32.242857 32.242857 32.242857 32.242857 32.242857 32.242857 0.000000 0.000000 0.000000 0.000000
0.000000 0.000000 0.000000 0.000000 0.000000 0.000000 0.000000 0.000000 0.000000 0.000000 0.000000 0.000000 0.000000 0.000000 0.000000 0.000000 0.000000 0.000000 0.000000 0.000000 0.000000 0.000000 0.000000 0.000000 0.000000 0.000000 18.369978 18.369978 18.369978 18.369978 18.369978 18.369978 18.369978 0.000000 0.000000 0.000000 0.000000 0.000000 0.000000 0.000000 0.000000 0.000000 0.000000 0.000000 0.000000 0.000000 0.000000 0.000000 0.000000 0.000000 0.000000 0.000000 0.000000 5.076556 5.076556 5.076556 5.076556 5.076556 5.076556 5.076556 5.076556 0.000000 0.000000 0.000000 0.000000 0.000000 0.000000 0.000000 0.000000 0.000000 17.707346 17.707346 17.707346 17.707346 17.707346 17.707346 17.707346 17.707346 17.707346 0.000000 0.000000 0.000000 0.000000 7.613810 7.613810 7.613810 0.000000 0.000000 32.242857 32.242857 32.242857 32.242857 32.242857 32.242857 32.242857 32.242857 32.242857 32.242857 32.242857 0.000000 0.000000 0.000000 0.000000
0.000000 0.000000 0.000000 0.000000 0.000000 0.000000 0.000000 0.000000 0.000000 0.000000 0.000000 0.000000 0.000000 0.000000 0.000000 0.000000 0.000000 0.000000 0.000000 0.000000 0.000000 0.000000 0.000000 0.000000 0.000000 0.000000 18.369978 18.369978 18.369978 18.369978 18.369978 18.369978 18.369978 0.000000 0.000000 0.000000 0.000000 0.000000 0.000000 0.000000 0.000000 0.000000 0.000000 0.000000 0.000000 0.000000 0.000000 0.000000 0.000000 0.000000 0.000000 0.000000 0.000000 0.000000 0.000000 0.000000 0.000000 0.000000 0.000000 0.000000 0.000000 0.000000 0.000000 0.000000 0.000000 0.000000 0.000000 0.000000 0.000000 0.000000 17.707346 17.707346 17.707346 17.707346 17.707346 17.707346 17.707346 17.707346 17.707346 0.000000 0.000000 0.000000 0.000000 7.613810 7.613810 7.613810 0.000000 0.000000 32.242857 32.242857 32.242857 32.242857 32.242857 32.242857 32.242857 32.242857 32.242857 32.242857 32.242857 0.000000 0.000000 0.000000 0.000000
0.000000 0.000000 0.000000 0.000000 0.000000 0.000000 0.000000 0.000000 0.000000 0.000000 0.000000 0.000000 0.000000 0.000000 0.000000 0.000000 0.000000 0.000000 0.000000 0.000000 0.000000 0.000000 0.000000 0.000000 0.000000 0.000000 18.369978 18.369978 18.369978 18.369978 18.369978 18.369978 18.369978 0.000000 0.000000 0.000000 0.000000 0.000000 0.000000 0.000000 0.000000 0.000000 0.000000 0.000000 0.000000 0.000000 0.000000 0.000000 0.000000 0.000000 0.000000 0.000000 0.000000 0.000000 0.000000 0.000000 0.000000 0.000000 0.000000 0.000000 0.000000 0.000000 0.000000 0.000000 0.000000 0.000000 0.000000 0.000000 0.000000 0.000000 17.707346 17.707346 17.707346 17.707346 17.707346 17.707346 17.707346 17.707346 17.707346 0.000000 0.000000 0.000000 0.000000 7.613810 7.613810 7.613810 0.000000 0.000000 32.242857 32.242857 32.242857 32.242857 32.242857 32.242857 32.242857 32.242857 32.242857 32.242857 32.242857 0.000000 0.000000 0.000000 0.000000
0.000000 0.000000 0.000000 0.000000 0.000000 0.000000 0.000000 0.000000 0.000000 0.000000 0.000000 0.000000 0.000000 0.000000 0.000000 0.000000 0.000000 0.000000 0.000000 0.000000 0.000000 0.000000 0.000000 0.000000 0.000000 0.000000 18.369978 18.369978 18.369978 18.369978 18.369978 18.369978 18.369978 0.000000 0.000000 0.000000 0.000000 0.000000 0.000000 0.000000 0.000000 0.000000 0.000000 0.000000 0.000000 0.000000 0.000000 0.000000 0.000000 0.000000 0.000000 17.860813 17.860813 17.860813 17.860813 17.860813 17.860813 17.860813 17.860813 17.860813 17.860813 17.860813 17.860813 0.000000 0.000000 0.000000 0.000000 0.000000 0.000000 0.000000 17.707346 17.707346 17.707346 17.707346 17.707346 17.707346 17.707346 17.707346 17.707346 0.000000 0.000000 0.000000 0.000000 7.613810 7.613810 7.613810 0.000000 0.000000 32.242857 32.242857 32.242857 32.242857 32.242857 32.242857 32.242857 32.242857 32.242857 32.242857 32.242857 0.000000 0.000000 0.000000 0.000000
0.000000 0.000000 0.000000 0.000000 0.000000 0.000000 0.000000 0.000000 0.000000 0.000000 0.000000 0.000000 0.000000 0.000000 0.000000 0.000000 0.000000 0.000000 0.000000 0.000000 0.000000 0.000000 0.000000 0.000000 0.000000 0.000000 18.369978 18.369978 18.369978 18.369978 18.369978 18.369978 18.369978 0.000000 0.000000 0.000000 0.000000 0.000000 0.000000 0.000000 0.000000 0.000000 0.000000 0.000000 0.000000 0.000000 0.000000 0.000000 0.000000 0.000000 0.000000 17.860813 17.860813 17.860813 17.860813 17.860813 17.860813 17.860813 17.860813 17.860813 17.860813 17.860813 17.860813 0.000000 0.000000 0.000000 0.000000 0.000000 0.000000 0.000000 17.707346 17.707346 17.707346 17.707346 17.707346 17.707346 17.707346 17.707346 17.707346 0.000000 0.000000 0.000000 0.000000 7.613810 7.613810 7.613810 0.000000 0.000000 32.242857 32.242857 32.242857 32.242857 32.242857 32.242857 32.242857 32.242857 32.242857 32.242857 32.242857 0.000000 0.000000 0.000000 0.000000
0.000000 0.000000 0.000000 0.000000 0.000000 0.000000 0.000000 0.000000 0.000000 0.000000 0.000000 0.000000 0.000000 0.000000 0.000000 0.000000 0.000000 0.000000 0.000000 0.000000 0.000000 0.000000 0.000000 0.000000 0.000000 0.000000 18.369978 18.369978 18.369978 18.369978 18.369978 18.369978 18.369978 0.000000 0.000000 0.000000 0.000000 0.000000 0.000000 0.000000 0.000000 0.000000 0.000000 0.000000 0.000000 0.000000 0.000000 0.000000 0.000000 0.000000 0.000000 17.860813 17.860813 17.860813 17.860813 17.860813 17.860813 17.860813 17.860813 17.860813 17.860813 17.860813 17.860813 0.000000 0.000000 0.000000 0.000000 0.000000 0.000000 0.000000 17.707346 17.707346 17.707346 17.707346 17.707346 17.707346 17.707346 17.707346 17.707346 0.000000 0.000000 0.000000 0.000000 7.613810 7.613810 7.613810 0.000000 0.000000 32.242857 32.242857 32.242857 32.242857 32.242857 32.242857 32.242857 32.242857 32.242857 32.242857 32.242857 0.000000 0.000000 0.000000 0.000000
0.000000 0.000000 0.000000 0.000000 0.000000 0.000000 0.000000 0.000000 0.000000 0.000000 0.000000 0.000000 0.000000 0.000000 0.000000 0.000000 0.000000 0.000000 0.000000 0.000000 0.000000 0.000000 0.000000 0.000000 0.000000 0.000000 18.369978 18.369978 18.369978 18.369978 18.369978 18.369978 18.369978 0.000000 0.000000 0.000000 0.000000 0.000000 0.000000 0.000000 0.000000 0.000000 0.000000 0.000000 0.000000 0.000000 0.000000 0.000000 0.000000 0.000000 0.000000 17.860813 17.860813 17.860813 17.860813 17.860813 17.860813 17.860813 17.860813 17.860813 17.860813 17.860813 17.860813 0.000000 0.000000 0.000000 0.000000 0.000000 0.000000 0.000000 17.707346 17.707346 17.707346 17.707346 17.707346 17.707346 17.707346 17.707346 17.707346 0.000000 0.000000 0.000000 0.000000 7.613810 7.613810 7.613810 0.000000 0.000000 32.242857 32.242857 32.242857 32.242857 32.242857 32.242857 32.242857 32.242857 32.242857 32.242857 32.242857 0.000000 0.000000 0.000000 0.000000
0.000000 0.000000 0.000000 0.000000 0.000000 0.000000 0.000000 0.000000 0.000000 0.000000 0.000000 0.000000 0.000000 0.000000 0.000000 0.000000 0.000000 0.000000 0.000000 0.000000 0.000000 0.000000 0.000000 0.000000 0.000000 0.000000 18.369978 18.369978 18.369978 18.369978 18.369978 18.369978 18.369978 0.000000 0.000000 0.000000 0.000000 0.000000 0.000000 0.000000 0.000000 0.000000 0.000000 0.000000 0.000000 0.000000 0.000000 0.000000 0.000000 0.000000 0.000000 17.860813 17.860813 17.860813 17.860813 17.860813 17.860813 17.860813 17.860813 17.860813 17.860813 17.860813 17.860813 0.000000 0.000000 0.000000 0.000000 0.000000 0.000000 0.000000 0.000000 0.000000 0.000000 0.000000 0.000000 0.000000 0.000000 0.000000 0.000000 0.000000 0.000000 0.000000 0.000000 0.000000 0.000000 0.000000 0.000000 0.000000 32.242857 32.242857 32.242857 32.242857 32.242857 32.242857 32.242857 32.242857 32.242857 32.242857 32.242857 0.000000 0.000000 0.000000 0.000000
0.000000 0.000000 0.000000 0.000000 0.000000 0.000000 0.000000 0.000000 0.000000 0.000000 0.000000 0.000000 0.000000 0.000000 0.000000 0.000000 0.000000 0.000000 0.000000 0.000000 0.000000 0.000000 0.000000 0.000000 0.000000 0.000000 16.424856 16.424856 16.424856 16.424856 16.424856 16.424856 16.424856 0.000000 0.000000 0.000000 0.000000 0.000000 0.000000 0.000000 0.000000 0.000000 0.000000 0.000000 0.000000 0.000000 0.000000 0.000000 0.000000 0.000000 0.000000 17.860813 17.860813 17.860813 17.860813 17.860813 17.860813 17.860813 17.860813 17.860813 17.860813 17.860813 17.860813 0.000000 0.000000 0.000000 0.000000 0.000000 0.000000 0.000000 0.000000 0.000000 0.000000 0.000000 0.000000 0.000000 0.000000 0.000000 0.000000 0.000000 0.000000 0.000000 0.000000 0.000000 0.000000 0.000000 0.000000 0.000000 32.242857 32.242857 32.242857 32.242857 32.242857 32.242857 32.242857 32.242857 32.242857 32.242857 32.242857 0.000000 0.000000 0.000000 0.000000
0.000000 0.000000 0.000000 0.000000 0.000000 0.000000 0.000000 0.000000 0.000000 0.000000 0.000000 0.000000 0.000000 0.000000 0.000000 0.000000 0.000000 0.000000 0.000000 0.000000 0.000000 0.000000 0.000000 0.000000 0.000000 0.000000 16.424856 16.424856 16.424856 16.424856 16.424856 16.424856 16.424856 0.000000 0.000000 0.000000 0.000000 0.000000 0.000000 0.000000 0.000000 0.000000 0.000000 0.000000 14.751040 14.751040 14.751040 14.751040 14.751040 14.751040 14.751040 24.763151 24.763151 24.763151 24.763151 24.763151 24.763151 24.763151 24.763151 24.763151 24.763151 24.763151 24.763151 0.000000 0.000000 0.000000 0.000000 0.000000 0.000000 0.000000 0.000000 0.000000 0.000000 0.000000 0.000000 0.000000 0.000000 0.000000 0.000000 0.000000 0.000000 0.000000 0.000000 0.000000 0.000000 0.000000 0.000000 0.000000 0.000000 0.000000 0.000000 0.000000 0.000000 0.000000 0.000000 0.000000 0.000000 0.000000 0.000000 0.000000 0.000000 0.000000 0.000000
0.000000 0.000000 0.000000 0.000000 0.000000 0.000000 0.000000 0.000000 0.000000 0.000000 0.000000 0.000000 0.000000 0.000000 0.000000 0.000000 0.000000 0.000000 0.000000 0.000000 0.000000 0.000000 0.000000 0.000000 0.000000 0.000000 16.424856 16.424856 16.424856 16.424856 16.424856 16.424856 16.424856 0.000000 0.000000 0.000000 0.000000 0.000000 0.000000 0.000000 0.000000 0.000000 0.000000 0.000000 14.751040 14.751040 14.751040 14.751040 14.751040 14.751040 14.751040 24.763151 24.763151 24.763151 24.763151 24.763151 24.763151 24.763151 24.763151 24.763151 24.763151 24.763151 24.763151 0.000000 0.000000 0.000000 0.000000 0.000000 0.000000 0.000000 0.000000 0.000000 0.000000 0.000000 0.000000 0.000000 0.000000 0.000000 0.000000 0.000000 0.000000 0.000000 0.000000 0.000000 0.000000 0.000000 0.000000 0.000000 0.000000 0.000000 0.000000 0.000000 0.000000 0.000000 0.000000 0.000000 0.000000 0.000000 0.000000 0.000000 0.000000 0.000000 0.000000
0.000000 0.000000 0.000000 0.000000 0.000000 0.000000 0.000000 0.000000 0.000000 0.000000 0.000000 0.000000 0.000000 0.000000 0.000000 0.000000 0.000000 0.000000 0.000000 0.000000 0.000000 0.000000 0.000000 0.000000 0.000000 0.000000 16.424856 16.424856 16.424856 16.424856 16.424856 16.424856 16.424856 0.000000 0.000000 0.000000 0.000000 0.000000 0.000000 0.000000 0.000000 0.000000 0.000000 0.000000 14.751040 14.751040 14.751040 14.751040 14.751040 14.751040 14.751040 24.763151 24.763151 24.763151 24.763151 24.763151 24.763151 24.763151 24.763151 24.763151 24.763151 24.763151 24.763151 0.000000 0.000000 0.000000 0.000000 0.000000 0.000000 0.000000 0.000000 0.000000 0.000000 0.000000 0.000000 0.000000 0.000000 0.000000 0.000000 0.000000 0.000000 0.000000 0.000000 4.782409 4.782409 4.782409 0.000000 0.000000 0.000000 0.000000 9.250062 9.250062 9.250062 9.250062 9.250062 9.250062 9.250062 0.000000 0.000000 0.000000 0.000000 0.000000 0.000000
0.000000 0.000000 0.000000 0.000000 0.000000 0.000000 0.000000 0.000000 0.000000 0.000000 0.000000 0.000000 0.000000 0.000000 0.000000 0.000000 0.000000 0.000000 0.000000 0.000000 0.000000 0.000000 0.000000 0.000000 0.000000 0.000000 16.424856 16.424856 16.424856 16.424856 16.424856 16.424856 16.424856 0.000000 0.000000 0.000000 0.000000 0.000000 0.000000 0.000000 0.000000 0.000000 0.000000 0.000000 14.751040 14.751040 14.751040 14.751040 14.751040 14.751040 14.751040 24.763151 24.763151 24.763151 24.763151 24.763151 24.763151 24.763151 24.763151 24.763151 24.763151 24.763151 24.763151 0.000000 0.000000 0.000000 0.000000 0.000000 0.000000 0.000000 0.000000 0.000000 0.000000 0.000000 0.000000 0.000000 0.000000 0.000000 0.000000 0.000000 0.000000 0.000000 0.000000 4.782409 4.782409 4.782409 0.000000 0.000000 0.000000 0.000000 9.250062 9.250062 9.250062 9.250062 9.250062 9.250062 9.250062 0.000000 0.000000 0.000000 0.000000 0.000000 0.000000
0.000000 0.000000 0.000000 0.000000 0.000000 0.000000 0.000000 0.000000 0.000000 0.000000 0.000000 0.000000 0.000000 0.000000 0.000000 0.000000 0.000000 0.000000 0.000000 0.000000 0.000000 0.000000 0.000000 0.000000 0.000000 0.000000 16.424856 16.424856 16.424856 16.424856 16.424856 16.424856 16.424856 0.000000 0.000000 0.000000 0.000000 0.000000 0.000000 0.000000 0.000000 0.000000 0.000000 0.000000 14.751040 14.751040 14.751040 14.751040 14.751040 14.751040 14.751040 24.763151 24.763151 24.763151 24.763151 24.763151 24.763151 24.763151 24.763151 24.763151 24.763151 24.763151 24.763151 0.000000 0.000000 0.000000 0.000000 0.000000 0.000000 0.000000 0.000000 0.000000 0.000000 0.000000 0.000000 0.000000 0.000000 0.000000 0.000000 0.000000 0.000000 0.000000 0.000000 4.782409 4.782409 4.782409 0.000000 0.000000 0.000000 0.000000 9.250062 9.250062 9.250062 9.250062 9.250062 9.250062 9.250062 0.000000 0.000000 0.000000 0.000000 0.000000 0.000000
0.000000 0.000000 0.000000 0.000000 0.000000 0.000000 0.000000 0.000000 0.000000 0.000000 0.000000 0.000000 0.000000 0.000000 0.000000 0.000000 0.000000 0.000000 0.000000 0.000000 0.000000 0.000000 0.000000 0.000000 0.000000 0.000000 16.424856 16.424856 16.424856 16.424856 16.424856 16.424856 16.424856 0.000000 0.000000 0.000000 0.000000 0.000000 0.000000 0.000000 0.000000 0.000000 0.000000 0.000000 14.751040 14.751040 14.751040 14.751040 14.751040 14.751040 14.751040 24.763151 24.763151 24.763151 24.763151 24.763151 24.763151 24.763151 24.763151 24.763151 24.763151 24.763151 24.763151 0.000000 0.000000 0.000000 0.000000 0.000000 0.000000 0.000000 0.000000 0.000000 0.000000 0.000000 0.000000 0.000000 0.000000 0.000000 0.000000 0.000000 0.000000 0.000000 0.000000 4.782409 4.782409 4.782409 0.000000 0.000000 0.000000 0.000000 9.250062 9.250062 9.250062 9.250062 9.250062 9.250062 9.250062 0.000000 0.000000 0.000000 0.000000 0.000000 0.000000
0.000000 0.000000 0.000000 0.000000 0.000000 0.000000 0.000000 0.000000 0.000000 0.000000 0.000000 0.000000 0.000000 0.000000 0.000000 0.000000 0.000000 0.000000 0.000000 0.000000 0.000000 0.000000 0.000000 0.000000 0.000000 0.000000 16.424856 16.424856 16.424856 16.424856 16.424856 16.424856 16.424856 0.000000 0.000000 0.000000 0.000000 0.000000 0.000000 0.000000 0.000000 0.000000 0.000000 0.000000 14.751040 14.751040 14.751040 14.751040 14.751040 14.751040 14.751040 24.763151 24.763151 24.763151 24.763151 24.763151 24.763151 24.763151 24.763151 24.763151 24.763151 24.763151 24.763151 0.000000 0.000000 0.000000 0.000000 0.000000 0.000000 0.000000 0.000000 0.000000 0.000000 0.000000 0.000000 0.000000 0.000000 0.000000 0.000000 0.000000 0.000000 0.000000 0.000000 4.782409 4.782409 4.782409 0.000000 0.000000 0.000000 0.000000 9.250062 9.250062 9.250062 9.250062 9.250062 9.250062 9.250062 0.000000 0.000000 0.000000 0.000000 0.000000 0.000000
0.000000 0.000000 0.000000 0.000000 0.000000 0.000000 0.000000 0.000000 0.000000 0.000000 0.000000 0.000000 0.000000 0.000000 0.000000 0.000000 0.000000 0.000000 0.000000 0.000000 0.000000 0.000000 0.000000 0.000000 0.000000 0.000000 16.424856 16.424856 16.424856 16.424856 16.424856 16.424856 16.424856 0.000000 0.000000 0.000000 0.000000 0.000000 0.000000 0.000000 0.000000 0.000000 0.000000 0.000000 14.751040 14.751040 14.751040 14.751040 14.751040 14.751040 14.751040 24.763151 24.763151 24.763151 24.763151 24.763151 24.763151 24.763151 24.763151 24.763151 24.763151 24.763151 24.763151 0.000000 0.000000 0.000000 0.000000 0.000000 0.000000 0.000000 0.000000 0.000000 0.000000 0.000000 0.000000 0.000000 0.000000 0.000000 0.000000 0.000000 0.000000 0.000000 0.000000 0.000000 0.000000 0.000000 0.000000 0.000000 0.000000 0.000000 0.000000 0.000000 0.000000 0.000000 0.000000 0.000000 0.000000 0.000000 0.000000 0.000000 0.000000 0.000000 0.000000
0.000000 0.000000 0.000000 0.000000 0.000000 0.000000 0.000000 0.000000 0.000000 0.000000 0.000000 0.000000 0.000000 0.000000 0.000000 0.000000 0.000000 0.000000 0.000000 0.000000 0.000000 0.000000 0.000000 0.000000 0.000000 0.000000 16.424856 16.424856 16.424856 16.424856 16.424856 16.424856 16.424856 0.000000 0.000000 0.000000 0.000000 0.000000 0.000000 0.000000 0.000000 0.000000 0.000000 0.000000 14.751040 14.751040 14.751040 14.751040 14.751040 14.751040 14.751040 24.763151 24.763151 24.763151 24.763151 24.763151 24.763151 24.763151 24.763151 24.763151 24.763151 24.763151 24.763151 0.000000 0.000000 0.000000 0.000000 0.000000 0.000000 0.000000 0.000000 0.000000 0.000000 0.000000 0.000000 0.000000 0.000000 0.000000 0.000000 0.000000 0.000000 0.000000 0.000000 0.000000 0.000000 0.000000 0.000000 0.000000 0.000000 0.000000 0.000000 0.000000 0.000000 0.000000 0.000000 0.000000 0.000000 0.000000 0.000000 0.000000 0.000000 0.000000 0.000000
0.000000 0.000000 0.000000 0.000000 0.000000 0.000000 0.000000 0.000000 0.000000 0.000000 0.000000 0.000000 0.000000 0.000000 0.000000 0.000000 0.000000 0.000000 0.000000 0.000000 0.000000 0.000000 0.000000 0.000000 0.000000 0.000000 0.000000 0.000000 0.000000 0.000000 0.000000 0.000000 0.000000 0.000000 0.000000 0.000000 0.000000 0.000000 0.000000 0.000000 0.000000 0.000000 0.000000 0.000000 0.000000 0.000000 0.000000 0.000000 0.000000 0.000000 0.000000 0.000000 0.000000 0.000000 0.000000 0.000000 0.000000 0.000000 0.000000 0.000000 0.000000 0.000000 0.000000 0.000000 0.000000 0.000000 0.000000 0.000000 0.000000 0.000000 0.000000 0.000000 0.000000 0.000000 0.000000 0.000000 0.000000 0.000000 0.000000 0.000000 0.000000 0.000000 0.000000 0.000000 0.000000 0.000000 0.000000 0.000000 0.000000 0.000000 0.000000 0.000000 0.000000 0.000000 0.000000 0.000000 0.000000 0.000000 0.000000 0.000000 0.000000 0.000000 0.000000
0.000000 0.000000 0.000000 0.000000 0.000000 0.000000 0.000000 0.000000 0.000000 0.000000 0.000000 0.000000 0.000000 0.000000 0.000000 0.000000 0.000000 0.000000 0.000000 0.000000 0.000000 0.000000 0.000000 0.000000 0.000000 0.000000 0.000000 0.000000 0.000000 0.000000 0.000000 0.000000 0.000000 0.000000 0.000000 0.000000 0.000000 0.000000 0.000000 0.000000 0.000000 0.000000 0.000000 0.000000 0.000000 0.000000 0.000000 0.000000 0.000000 0.000000 0.000000 0.000000 0.000000 0.000000 0.000000 0.000000 0.000000 0.000000 0.000000 0.000000 0.000000 0.000000 0.000000 0.000000 0.000000 0.000000 0.000000 0.000000 0.000000 0.000000 0.000000 0.000000 0.000000 0.000000 0.000000 0.000000 0.000000 0.000000 0.000000 0.000000 0.000000 0.000000 0.000000 0.000000 0.000000 0.000000 0.000000 0.000000 0.000000 0.000000 0.000000 0.000000 0.000000 0.000000 0.000000 0.000000 0.000000 0.000000 0.000000 0.000000 0.000000 0.000000 0.000000
0.000000 0.000000 0.000000 0.000000 0.000000 0.000000 0.000000 0.000000 0.000000 0.000000 0.000000 0.000000 0.000000 0.000000 0.000000 0.000000 0.000000 0.000000 0.000000 0.000000 0.000000 0.000000 0.000000 0.000000 0.000000 0.000000 0.000000 0.000000 0.000000 0.000000 0.000000 0.000000 0.000000 0.000000 0.000000 0.000000 0.000000 0.000000 0.000000 0.000000 0.000000 0.000000 0.000000 0.000000 0.000000 0.000000 0.000000 0.000000 0.000000 0.000000 0.000000 0.000000 0.000000 0.000000 0.000000 0.000000 0.000000 0.000000 0.000000 0.000000 0.000000 0.000000 0.000000 0.000000 0.000000 0.000000 0.000000 0.000000 0.000000 0.000000 0.000000 0.000000 0.000000 0.000000 0.000000 0.000000 0.000000 0.000000 0.000000 0.000000 0.000000 0.000000 0.000000 0.000000 0.000000 0.000000 0.000000 0.000000 0.000000 0.000000 0.000000 0.000000 0.000000 0.000000 0.000000 0.000000 0.000000 0.000000 0.000000 0.000000 0.000000 0.000000 0.000000
0.000000 0.000000 0.000000 0.000000 0.000000 0.000000 0.000000 0.000000 0.000000 0.000000 0.000000 0.000000 0.000000 0.000000 0.000000 0.000000 0.000000 0.000000 0.000000 0.000000 0.000000 0.000000 0.000000 0.000000 0.000000 0.000000 0.000000 0.000000 0.000000 0.000000 0.000000 0.000000 0.000000 0.000000 0.000000 0.000000 0.000000 0.000000 0.000000 0.000000 0.000000 0.000000 0.000000 0.000000 0.000000 0.000000 0.000000 0.000000 0.000000 0.000000 0.000000 0.000000 0.000000 0.000000 0.000000 0.000000 0.000000 0.000000 0.000000 0.000000 0.000000 0.000000 0.000000 0.000000 0.000000 0.000000 0.000000 0.000000 0.000000 0.000000 0.000000 0.000000 0.000000 0.000000 0.000000 0.000000 0.000000 0.000000 0.000000 0.000000 0.000000 0.000000 0.000000 0.000000 0.000000 0.000000 0.000000 0.000000 0.000000 0.000000 0.000000 0.000000 0.000000 0.000000 0.000000 0.000000 0.000000 0.000000 0.000000 0.000000 0.000000 0.000000 0.000000
