0.000000 0.000000 0.000000 0.000000 0.000000 0.000000 0.000000 0.000000 0.000000 0.000000 0.000000 0.000000 0.000000 0.000000 0.000000 0.000000 0.000000 0.000000 0.000000 0.000000 0.000000 0.000000 0.000000 0.000000 0.000000 0.000000 0.000000 0.000000 0.000000 0.000000 0.000000 0.000000 0.000000 0.000000 0.000000 0.000000 0.000000 0.000000 0.000000 0.000000 0.000000 0.000000 0.000000 0.000000 0.000000 0.000000 0.000000 0.000000 0.000000 0.000000 0.000000 0.000000 0.000000 0.000000 0.000000 0.000000 0.000000 0.000000 0.000000 0.000000 0.000000 0.000000 0.000000 0.000000 0.000000 0.000000 0.000000 0.000000 0.000000 0.000000 0.000000 0.000000 0.000000 0.000000 0.000000 0.000000 0.000000 0.000000 0.000000 0.000000 0.000000 0.000000 0.000000 0.000000 0.000000 0.000000 0.000000 0.000000 0.000000 0.000000 0.000000 0.000000 0.000000 0.000000 0.000000 0.000000 0.000000 0.000000 0.000000 0.000000 0.000000 0.000000 0.000000
0.000000 0.000000 0.000000 0.000000 0.000000 0.000000 0.000000 0.000000 0.000000 0.000000 0.000000 0.000000 0.000000 0.000000 0.000000 0.000000 0.000000 0.000000 0.000000 0.000000 0.000000 0.000000 0.000000 0.000000 0.000000 0.000000 0.000000 0.000000 0.000000 0.000000 0.000000 0.000000 0.000000 0.000000 0.000000 0.000000 0.000000 0.000000 0.000000 0.000000 0.000000 0.000000 0.000000 0.000000 0.000000 0.000000 0.000000 0.000000 0.000000 0.000000 0.000000 0.000000 0.000000 0.000000 0.000000 0.000000 0.000000 0.000000 0.000000 0.000000 0.000000 0.000000 0.000000 0.000000 0.000000 0.000000 0.000000 0.000000 0.000000 0.000000 0.000000 0.000000 0.000000 0.000000 0.000000 0.000000 0.000000 0.000000 0.000000 0.000000 0.000000 0.000000 0.000000 0.000000 0.000000 0.000000 0.000000 0.000000 0.000000 0.000000 0.000000 0.000000 0.000000 0.000000 0.000000 0.000000 0.000000 0.000000 0.000000 0.000000 0.000000 0.000000 0.000000
0.000000 0.000000 0.000000 0.000000 0.000000 0.000000 0.000000 0.000000 0.000000 0.000000 0.000000 0.000000 0.000000 0.000000 0.000000 0.000000 0.000000 0.000000 0.000000 0.000000 0.000000 0.000000 0.000000 0.000000 0.000000 0.000000 0.000000 0.000000 0.000000 0.000000 0.000000 0.000000 0.000000 0.000000 0.000000 0.000000 0.000000 0.000000 0.000000 0.000000 0.000000 0.000000 0.000000 0.000000 0.000000 0.000000 0.000000 0.000000 0.000000 0.000000 0.000000 0.000000 0.000000 0.000000 0.000000 0.000000 0.000000 0.000000 0.000000 0.000000 0.000000 0.000000 0.000000 0.000000 0.000000 0.000000 0.000000 0.000000 0.000000 0.000000 0.000000 0.000000 0.000000 0.000000 0.000000 0.000000 0.000000 0.000000 0.000000 0.000000 0.000000 0.000000 0.000000 0.000000 0.000000 0.000000 0.000000 0.000000 0.000000 0.000000 0.000000 0.000000 0.000000 0.000000 0.000000 0.000000 0.000000 0.000000 0.000000 0.000000 0.000000 0.000000 0.000000
0.000000 0.000000 0.000000 0.000000 0.000000 0.000000 0.000000 0.000000 0.000000 0.000000 0.000000 0.000000 0.000000 0.000000 0.000000 0.000000 0.000000 0.000000 0.000000 0.000000 0.000000 0.000000 0.000000 0.000000 0.000000 0.000000 0.000000 0.000000 0.000000 0.000000 0.000000 0.000000 0.000000 0.000000 0.000000 0.000000 0.000000 0.000000 0.000000 0.000000 0.000000 0.000000 0.000000 0.000000 0.000000 0.000000 0.000000 0.000000 0.000000 0.000000 0.000000 0.000000 0.000000 0.000000 0.000000 0.000000 0.000000 0.000000 0.000000 0.000000 0.000000 0.000000 0.000000 0.000000 0.000000 0.000000 0.000000 0.000000 0.000000 0.000000 0.000000 0.000000 0.000000 0.000000 0.000000 0.000000 0.000000 0.000000 0.000000 0.000000 0.000000 0.000000 0.000000 0.000000 0.000000 0.000000 0.000000 0.000000 0.000000 0.000000 0.000000 0.000000 0.000000 0.000000 0.000000 0.000000 0.000000 0.000000 0.000000 0.000000 0.000000 0.000000 0.000000
0.000000 0.000000 0.000000 0.000000 0.000000 0.000000 0.000000 0.000000 0.000000 0.000000 0.000000 0.000000 0.000000 0.000000 0.000000 0.000000 0.000000 0.000000 0.000000 0.000000 0.000000 0.000000 0.000000 0.000000 0.000000 0.000000 0.000000 0.000000 0.000000 0.000000 0.000000 0.000000 0.000000 0.000000 0.000000 0.000000 0.000000 0.000000 0.000000 0.000000 0.000000 0.000000 0.000000 0.000000 0.000000 0.000000 0.000000 0.000000 0.000000 0.000000 0.000000 0.000000 0.000000 0.000000 0.000000 0.000000 0.000000 0.000000 0.000000 0.000000 0.000000 0.000000 0.000000 0.000000 0.000000 0.000000 0.000000 0.000000 0.000000 0.000000 0.000000 0.000000 0.000000 0.000000 0.000000 0.000000 0.000000 0.000000 0.000000 0.000000 0.000000 0.000000 0.000000 0.000000 0.000000 0.000000 15.314281 15.314281 15.314281 15.314281 15.314281 15.314281 15.314281 14.113839 14.113839 14.113839 14.113839 14.113839 14.113839 0.000000 0.000000 0.000000 0.000000
0.000000 0.000000 0.000000 0.000000 0.000000 0.000000 0.000000 0.000000 0.000000 0.000000 0.000000 0.000000 0.000000 0.000000 0.000000 0.000000 0.000000 0.000000 0.000000 0.000000 0.000000 0.000000 0.000000 0.000000 0.000000 0.000000 0.000000 0.000000 0.000000 0.000000 0.000000 0.000000 0.000000 0.000000 0.000000 0.000000 0.000000 0.000000 0.000000 0.000000 0.000000 0.000000 0.000000 0.000000 0.000000 0.000000 0.000000 0.000000 0.000000 0.000000 0.000000 0.000000 0.000000 0.000000 0.000000 0.000000 0.000000 0.000000 0.000000 0.000000 0.000000 0.000000 0.000000 0.000000 0.000000 0.000000 0.000000 0.000000 0.000000 0.000000 0.000000 0.000000 0.000000 0.000000 0.000000 0.000000 0.000000 0.000000 0.000000 0.000000 0.000000 0.000000 0.000000 0.000000 0.000000 0.000000 15.314281 15.314281 15.314281 15.314281 15.314281 15.314281 15.314281 14.113839 14.113839 14.113839 14.113839 14.113839 14.113839 0.000000 0.000000 0.000000 0.000000
0.000000 0.000000 0.000000 0.000000 0.000000 0.000000 15.751218 15.751218 15.751218 15.751218 15.751218 15.751218 15.751218 15.751218 15.751218 15.751218 0.000000 0.000000 0.000000 0.000000 0.000000 0.000000 0.000000 0.000000 0.000000 11.511577 11.511577 11.511577 11.511577 11.511577 11.511577 11.511577 0.000000 0.000000 0.000000 0.000000 0.000000 0.000000 0.000000 0.000000 0.000000 0.000000 0.000000 0.000000 0.000000 0.000000 0.000000 0.000000 0.000000 0.000000 0.000000 0.000000 0.000000 0.000000 0.000000 0.000000 0.000000 0.000000 0.000000 0.000000 0.000000 0.000000 8.998288 8.998288 8.998288 8.998288 8.998288 8.998288 0.000000 0.000000 0.000000 0.000000 0.000000 0.000000 0.000000 0.000000 0.000000 0.000000 0.000000 0.000000 0.000000 0.000000 0.000000 0.000000 0.000000 0.000000 15.314281 15.314281 15.314281 15.314281 15.314281 15.314281 15.314281 14.113839 14.113839 14.113839 14.113839 14.113839 14.113839 0.000000 0.000000 0.000000 0.000000
0.000000 0.000000 0.000000 0.000000 0.000000 0.000000 15.751218 15.751218 15.751218 15.751218 15.751218 15.751218 15.751218 15.751218 15.751218 15.751218 0.000000 0.000000 0.000000 0.000000 0.000000 0.000000 0.000000 0.000000 0.000000 11.511577 11.511577 11.511577 11.511577 11.511577 11.511577 11.511577 0.000000 0.000000 0.000000 0.000000 0.000000 0.000000 0.000000 0.000000 0.000000 0.000000 0.000000 0.000000 0.000000 0.000000 0.000000 0.000000 0.000000 0.000000 0.000000 0.000000 0.000000 0.000000 0.000000 0.000000 0.000000 0.000000 0.000000 0.000000 0.000000 0.000000 8.998288 8.998288 8.998288 8.998288 8.998288 8.998288 0.000000 0.000000 0.000000 0.000000 0.000000 0.000000 0.000000 0.000000 0.000000 0.000000 0.000000 0.000000 0.000000 0.000000 0.000000 0.000000 0.000000 0.000000 15.314281 15.314281 15.314281 15.314281 15.314281 15.314281 15.314281 14.113839 14.113839 14.113839 14.113839 14.113839 14.113839 0.000000 0.000000 0.000000 0.000000
0.000000 0.000000 0.000000 0.000000 0.000000 0.000000 15.751218 15.751218 15.751218 15.751218 15.751218 15.751218 15.751218 15.751218 15.751218 15.751218 0.000000 0.000000 0.000000 0.000000 0.000000 0.000000 0.000000 0.000000 0.000000 11.511577 11.511577 11.511577 11.511577 11.511577 11.511577 11.511577 0.000000 0.000000 0.000000 0.000000 0.000000 0.000000 0.000000 0.000000 0.000000 0.000000 0.000000 0.000000 0.000000 0.000000 0.000000 0.000000 0.000000 0.000000 0.000000 0.000000 0.000000 0.000000 0.000000 0.000000 0.000000 0.000000 0.000000 0.000000 0.000000 0.000000 8.998288 8.998288 8.998288 8.998288 8.998288 8.998288 0.000000 0.000000 0.000000 0.000000 0.000000 0.000000 0.000000 0.000000 0.000000 0.000000 0.000000 0.000000 0.000000 0.000000 0.000000 0.000000 0.000000 0.000000 15.314281 15.314281 15.314281 15.314281 15.314281 15.314281 15.314281 14.113839 14.113839 14.113839 14.113839 14.113839 14.113839 0.000000 0.000000 0.000000 0.000000
0.000000 0.000000 0.000000 0.000000 0.000000 0.000000 15.751218 15.751218 15.751218 15.751218 15.751218 15.751218 15.751218 15.751218 15.751218 15.751218 0.000000 0.000000 0.000000 0.000000 0.000000 0.000000 0.000000 0.000000 0.000000 11.511577 11.511577 11.511577 11.511577 11.511577 11.511577 11.511577 0.000000 0.000000 0.000000 0.000000 0.000000 0.000000 0.000000 0.000000 0.000000 0.000000 0.000000 0.000000 0.000000 0.000000 0.000000 0.000000 0.000000 0.000000 0.000000 0.000000 0.000000 0.000000 0.000000 0.000000 0.000000 0.000000 0.000000 0.000000 0.000000 0.000000 8.998288 8.998288 8.998288 8.998288 8.998288 8.998288 0.000000 0.000000 0.000000 0.000000 0.000000 0.000000 0.000000 0.000000 0.000000 0.000000 0.000000 0.000000 0.000000 0.000000 0.000000 0.000000 0.000000 0.000000 15.314281 15.314281 15.314281 15.314281 15.314281 15.314281 15.314281 14.113839 14.113839 14.113839 14.113839 14.113839 14.113839 0.000000 0.000000 0.000000 0.000000
0.000000 0.000000 0.000000 0.000000 0.000000 0.000000 15.751218 15.751218 15.751218 15.751218 15.751218 15.751218 15.751218 15.751218 15.751218 15.751218 0.000000 0.000000 0.000000 0.000000 0.000000 0.000000 0.000000 0.000000 0.000000 11.511577 11.511577 11.511577 11.511577 11.511577 11.511577 11.511577 0.000000 0.000000 0.000000 0.000000 0.000000 0.000000 0.000000 0.000000 0.000000 0.000000 0.000000 0.000000 0.000000 0.000000 0.000000 0.000000 0.000000 0.000000 0.000000 0.000000 0.000000 0.000000 0.000000 0.000000 0.000000 0.000000 0.000000 0.000000 0.000000 0.000000 8.998288 8.998288 8.998288 8.998288 8.998288 8.998288 0.000000 0.000000 0.000000 0.000000 0.000000 0.000000 0.000000 0.000000 0.000000 0.000000 0.000000 0.000000 0.000000 0.000000 0.000000 0.000000 0.000000 0.000000 15.314281 15.314281 15.314281 15.314281 15.314281 15.314281 15.314281 14.113839 14.113839 14.113839 14.113839 14.113839 14.113839 0.000000 0.000000 0.000000 0.000000
0.000000 0.000000 0.000000 0.000000 0.000000 0.000000 15.751218 15.751218 15.751218 15.751218 15.751218 15.751218 15.751218 15.751218 15.751218 15.751218 0.000000 0.000000 0.000000 0.000000 0.000000 0.000000 0.000000 0.000000 0.000000 11.511577 11.511577 11.511577 11.511577 11.511577 11.511577 11.511577 0.000000 0.000000 0.000000 0.000000 0.000000 0.000000 0.000000 0.000000 0.000000 0.000000 0.000000 0.000000 0.000000 0.000000 0.000000 0.000000 0.000000 0.000000 0.000000 0.000000 0.000000 0.000000 0.000000 0.000000 0.000000 0.000000 0.000000 0.000000 0.000000 0.000000 0.000000 0.000000 0.000000 0.000000 0.000000 0.000000 0.000000 0.000000 0.000000 0.000000 0.000000 0.000000 0.000000 0.000000 0.000000 0.000000 0.000000 0.000000 0.000000 0.000000 0.000000 0.000000 0.000000 0.000000 15.314281 15.314281 15.314281 15.314281 15.314281 15.314281 15.314281 14.113839 14.113839 14.113839 14.113839 14.113839 14.113839 0.000000 0.000000 0.000000 0.000000
0.000000 0.000000 0.000000 0.000000 0.000000 0.000000 15.751218 15.751218 15.751218 15.751218 15.751218 15.751218 15.751218 15.751218 15.751218 15.751218 0.000000 0.000000 0.000000 0.000000 0.000000 0.000000 0.000000 0.000000 0.000000 0.000000 0.000000 0.000000 0.000000 0.000000 0.000000 0.000000 0.000000 0.000000 0.000000 0.000000 0.000000 0.000000 0.000000 0.000000 0.000000 0.000000 0.000000 0.000000 0.000000 0.000000 0.000000 0.000000 0.000000 0.000000 0.000000 0.000000 0.000000 0.000000 0.000000 0.000000 0.000000 0.000000 0.000000 0.000000 0.000000 0.000000 0.000000 0.000000 0.000000 0.000000 0.000000 0.000000 0.000000 0.000000 0.000000 0.000000 0.000000 0.000000 0.000000 0.000000 0.000000 0.000000 0.000000 0.000000 0.000000 0.000000 0.000000 0.000000 0.000000 0.000000 15.314281 15.314281 15.314281 15.314281 15.314281 15.314281 15.314281 14.113839 14.113839 14.113839 14.113839 14.113839 14.113839 0.000000 0.000000 0.000000 0.000000
0.000000 0.000000 0.000000 0.000000 0.000000 0.000000 0.000000 0.000000 0.000000 0.000000 0.000000 0.000000 0.000000 0.000000 0.000000 0.000000 0.000000 0.000000 0.000000 0.000000 0.000000 0.000000 0.000000 0.000000 0.000000 0.000000 0.000000 0.000000 0.000000 0.000000 0.000000 0.000000 0.000000 0.000000 0.000000 0.000000 0.000000 0.000000 0.000000 0.000000 0.000000 0.000000 0.000000 0.000000 0.000000 0.000000 0.000000 0.000000 0.000000 0.000000 0.000000 0.000000 0.000000 0.000000 0.000000 0.000000 0.000000 0.000000 0.000000 0.000000 29.991549 29.991549 29.991549 29.991549 29.991549 29.991549 29.991549 29.991549 29.991549 29.991549 30.947197 30.947197 30.947197 30.947197 30.947197 30.947197 30.947197 30.947197 30.947197 30.947197 30.947197 0.000000 0.000000 0.000000 0.000000 0.000000 0.000000 0.000000 0.000000 0.000000 0.000000 0.000000 0.000000 18.179062 18.179062 18.179062 18.179062 18.179062 18.179062 0.000000 0.000000 0.000000 0.000000
0.000000 0.000000 0.000000 0.000000 0.000000 0.000000 0.000000 0.000000 0.000000 0.000000 0.000000 0.000000 0.000000 0.000000 0.000000 0.000000 0.000000 0.000000 0.000000 0.000000 0.000000 0.000000 0.000000 0.000000 0.000000 0.000000 0.000000 0.000000 0.000000 0.000000 0.000000 0.000000 0.000000 0.000000 0.000000 0.000000 0.000000 0.000000 0.000000 0.000000 0.000000 0.000000 0.000000 0.000000 0.000000 0.000000 0.000000 0.000000 0.000000 0.000000 0.000000 0.000000 0.000000 0.000000 0.000000 0.000000 0.000000 0.000000 0.000000 0.000000 29.991549 29.991549 29.991549 29.991549 29.991549 29.991549 29.991549 29.991549 29.991549 29.991549 30.947197 30.947197 30.947197 30.947197 30.947197 30.947197 30.947197 30.947197 30.947197 30.947197 30.947197 0.000000 0.000000 0.000000 0.000000 0.000000 0.000000 0.000000 0.000000 0.000000 0.000000 0.000000 0.000000 18.179062 18.179062 18.179062 18.179062 18.179062 18.179062 0.000000 0.000000 0.000000 0.000000
0.000000 0.000000 0.000000 0.000000 0.000000 0.000000 0.000000 0.000000 0.000000 0.000000 0.000000 0.000000 0.000000 0.000000 0.000000 0.000000 0.000000 0.000000 0.000000 0.000000 0.000000 0.000000 0.000000 0.000000 0.000000 0.000000 0.000000 0.000000 0.000000 0.000000 0.000000 0.000000 0.000000 0.000000 0.000000 0.000000 0.000000 0.000000 0.000000 0.000000 0.000000 0.000000 0.000000 0.000000 0.000000 0.000000 0.000000 0.000000 0.000000 0.000000 0.000000 0.000000 10.932780 10.932780 10.932780 10.932780 10.932780 10.932780 0.000000 0.000000 29.991549 29.991549 29.991549 29.991549 29.991549 29.991549 29.991549 29.991549 29.991549 29.991549 30.947197 30.947197 30.947197 30.947197 30.947197 30.947197 30.947197 30.947197 30.947197 30.947197 30.947197 0.000000 0.000000 0.000000 0.000000 0.000000 0.000000 0.000000 0.000000 0.000000 0.000000 0.000000 0.000000 18.179062 18.179062 18.179062 18.179062 18.179062 18.179062 0.000000 0.000000 0.000000 0.000000
0.000000 0.000000 0.000000 0.000000 0.000000 0.000000 0.000000 0.000000 0.000000 0.000000 0.000000 0.000000 0.000000 0.000000 0.000000 0.000000 0.000000 0.000000 0.000000 0.000000 0.000000 0.000000 0.000000 0.000000 0.000000 13.287087 13.287087 13.287087 13.287087 13.287087 13.287087 13.287087 0.000000 0.000000 0.000000 0.000000 0.000000 0.000000 0.000000 0.000000 0.000000 0.000000 0.000000 0.000000 0.000000 0.000000 0.000000 0.000000 0.000000 0.000000 0.000000 0.000000 10.932780 10.932780 10.932780 10.932780 10.932780 10.932780 0.000000 0.000000 29.991549 29.991549 29.991549 29.991549 29.991549 29.991549 29.991549 29.991549 29.991549 29.991549 30.947197 30.947197 30.947197 30.947197 30.947197 30.947197 30.947197 30.947197 30.947197 30.947197 30.947197 0.000000 0.000000 0.000000 0.000000 0.000000 0.000000 0.000000 0.000000 0.000000 0.000000 0.000000 0.000000 18.179062 18.179062 18.179062 18.179062 18.179062 18.179062 0.000000 0.000000 0.000000 0.000000
0.000000 0.000000 0.000000 0.000000 0.000000 0.000000 0.000000 0.000000 0.000000 0.000000 0.000000 0.000000 0.000000 0.000000 0.000000 0.000000 0.000000 0.000000 0.000000 0.000000 0.000000 0.000000 0.000000 0.000000 0.000000 13.287087 13.287087 13.287087 13.287087 13.287087 13.287087 13.287087 0.000000 0.000000 0.000000 0.000000 0.000000 0.000000 0.000000 0.000000 0.000000 0.000000 0.000000 0.000000 0.000000 0.000000 0.000000 0.000000 0.000000 0.000000 0.000000 0.000000 10.932780 10.932780 10.932780 10.932780 10.932780 10.932780 0.000000 0.000000 29.991549 29.991549 29.991549 29.991549 29.991549 29.991549 29.991549 29.991549 29.991549 29.991549 30.947197 30.947197 30.947197 30.947197 30.947197 30.947197 30.947197 30.947197 30.947197 30.947197 30.947197 0.000000 0.000000 0.000000 0.000000 0.000000 0.000000 0.000000 0.000000 0.000000 0.000000 0.000000 0.000000 18.179062 18.179062 18.179062 18.179062 18.179062 18.179062 0.000000 0.000000 0.000000 0.000000
0.000000 0.000000 0.000000 0.000000 0.000000 0.000000 0.000000 0.000000 0.000000 0.000000 0.000000 0.000000 0.000000 0.000000 0.000000 0.000000 0.000000 0.000000 0.000000 0.000000 0.000000 0.000000 0.000000 0.000000 0.000000 13.287087 13.287087 13.287087 13.287087 13.287087 13.287087 13.287087 0.000000 0.000000 0.000000 0.000000 0.000000 0.000000 0.000000 0.000000 0.000000 0.000000 0.000000 0.000000 0.000000 0.000000 0.000000 0.000000 0.000000 0.000000 0.000000 0.000000 10.932780 10.932780 10.932780 10.932780 10.932780 10.932780 0.000000 0.000000 29.991549 29.991549 29.991549 29.991549 29.991549 29.991549 29.991549 29.991549 29.991549 29.991549 30.947197 30.947197 30.947197 30.947197 30.947197 30.947197 30.947197 30.947197 30.947197 30.947197 30.947197 0.000000 0.000000 0.000000 0.000000 0.000000 0.000000 0.000000 0.000000 0.000000 0.000000 0.000000 0.000000 18.179062 18.179062 18.179062 18.179062 18.179062 18.179062 0.000000 0.000000 0.000000 0.000000
0.000000 0.000000 0.000000 0.000000 0.000000 0.000000 0.000000 0.000000 0.000000 0.000000 0.000000 0.000000 0.000000 0.000000 0.000000 0.000000 0.000000 0.000000 0.000000 0.000000 0.000000 0.000000 0.000000 0.000000 0.000000 13.287087 13.287087 13.287087 13.287087 13.287087 13.287087 13.287087 0.000000 0.000000 0.000000 0.000000 0.000000 0.000000 0.000000 0.000000 0.000000 0.000000 0.000000 0.000000 0.000000 0.000000 0.000000 0.000000 0.000000 0.000000 0.000000 0.000000 10.932780 10.932780 10.932780 10.932780 10.932780 10.932780 0.000000 0.000000 29.991549 29.991549 29.991549 29.991549 29.991549 29.991549 29.991549 29.991549 29.991549 29.991549 30.947197 30.947197 30.947197 30.947197 30.947197 30.947197 30.947197 30.947197 30.947197 30.947197 30.947197 0.000000 0.000000 0.000000 0.000000 0.000000 0.000000 0.000000 0.000000 0.000000 0.000000 0.000000 0.000000 18.179062 18.179062 18.179062 18.179062 18.179062 18.179062 0.000000 0.000000 0.000000 0.000000
0.000000 0.000000 0.000000 0.000000 0.000000 0.000000 0.000000 0.000000 0.000000 0.000000 0.000000 0.000000 0.000000 0.000000 0.000000 0.000000 0.000000 0.000000 0.000000 0.000000 0.000000 0.000000 0.000000 0.000000 0.000000 13.287087 13.287087 13.287087 13.287087 13.287087 13.287087 13.287087 0.000000 0.000000 0.000000 0.000000 0.000000 0.000000 0.000000 0.000000 0.000000 0.000000 0.000000 0.000000 0.000000 0.000000 0.000000 0.000000 0.000000 0.000000 0.000000 0.000000 10.932780 10.932780 10.932780 10.932780 10.932780 10.932780 0.000000 0.000000 29.991549 29.991549 29.991549 29.991549 29.991549 29.991549 29.991549 29.991549 29.991549 29.991549 30.947197 30.947197 30.947197 30.947197 30.947197 30.947197 30.947197 30.947197 30.947197 30.947197 30.947197 0.000000 0.000000 0.000000 0.000000 0.000000 0.000000 0.000000 0.000000 0.000000 0.000000 0.000000 0.000000 18.179062 18.179062 18.179062 18.179062 18.179062 18.179062 0.000000 0.000000 0.000000 0.000000
0.000000 0.000000 0.000000 0.000000 0.000000 0.000000 0.000000 0.000000 0.000000 0.000000 0.000000 0.000000 0.000000 0.000000 0.000000 0.000000 0.000000 0.000000 0.000000 0.000000 0.000000 0.000000 0.000000 0.000000 0.000000 13.287087 13.287087 13.287087 13.287087 13.287087 13.287087 13.287087 0.000000 0.000000 0.000000 0.000000 0.000000 0.000000 0.000000 0.000000 0.000000 0.000000 0.000000 0.000000 0.000000 0.000000 0.000000 0.000000 0.000000 0.000000 0.000000 0.000000 10.932780 10.932780 10.932780 10.932780 10.932780 10.932780 0.000000 0.000000 29.991549 29.991549 29.991549 29.991549 29.991549 29.991549 29.991549 29.991549 29.991549 29.991549 30.947197 30.947197 30.947197 30.947197 30.947197 30.947197 30.947197 30.947197 30.947197 30.947197 30.947197 0.000000 0.000000 0.000000 0.000000 0.000000 0.000000 0.000000 0.000000 0.000000 0.000000 0.000000 0.000000 18.179062 18.179062 18.179062 18.179062 18.179062 18.179062 0.000000 0.000000 0.000000 0.000000
0.000000 0.000000 0.000000 0.000000 0.000000 0.000000 0.000000 0.000000 0.000000 0.000000 0.000000 0.000000 0.000000 0.000000 0.000000 0.000000 0.000000 0.000000 0.000000 0.000000 0.000000 0.000000 0.000000 0.000000 0.000000 13.287087 13.287087 13.287087 13.287087 13.287087 13.287087 13.287087 0.000000 0.000000 0.000000 0.000000 0.000000 0.000000 0.000000 0.000000 0.000000 0.000000 0.000000 0.000000 0.000000 0.000000 0.000000 0.000000 0.000000 0.000000 0.000000 0.000000 10.932780 10.932780 10.932780 10.932780 10.932780 10.932780 0.000000 0.000000 29.991549 29.991549 29.991549 29.991549 29.991549 29.991549 29.991549 29.991549 29.991549 29.991549 30.947197 30.947197 30.947197 30.947197 30.947197 30.947197 30.947197 30.947197 30.947197 30.947197 30.947197 0.000000 0.000000 0.000000 0.000000 0.000000 0.000000 0.000000 0.000000 0.000000 0.000000 0.000000 0.000000 18.179062 18.179062 18.179062 18.179062 18.179062 18.179062 0.000000 0.000000 0.000000 0.000000
0.000000 0.000000 0.000000 0.000000 0.000000 0.000000 0.000000 0.000000 0.000000 0.000000 0.000000 0.000000 0.000000 0.000000 0.000000 0.000000 0.000000 0.000000 0.000000 0.000000 0.000000 0.000000 0.000000 0.000000 0.000000 0.000000 0.000000 0.000000 0.000000 0.000000 0.000000 0.000000 0.000000 0.000000 0.000000 0.000000 0.000000 0.000000 0.000000 0.000000 0.000000 0.000000 0.000000 0.000000 0.000000 0.000000 0.000000 0.000000 0.000000 0.000000 0.000000 0.000000 0.000000 0.000000 0.000000 0.000000 0.000000 0.000000 0.000000 0.000000 29.991549 29.991549 29.991549 29.991549 29.991549 29.991549 29.991549 29.991549 29.991549 29.991549 30.947197 30.947197 30.947197 30.947197 30.947197 30.947197 30.947197 30.947197 30.947197 30.947197 30.947197 0.000000 0.000000 0.000000 0.000000 0.000000 0.000000 0.000000 0.000000 0.000000 0.000000 0.000000 0.000000 18.179062 18.179062 18.179062 18.179062 18.179062 18.179062 0.000000 0.000000 0.000000 0.000000
0.000000 0.000000 0.000000 0.000000 0.000000 0.000000 0.000000 0.000000 0.000000 0.000000 0.000000 0.000000 0.000000 0.000000 0.000000 0.000000 0.000000 0.000000 0.000000 0.000000 0.000000 0.000000 0.000000 0.000000 0.000000 0.000000 0.000000 0.000000 0.000000 0.000000 0.000000 0.000000 0.000000 0.000000 0.000000 0.000000 0.000000 0.000000 0.000000 0.000000 0.000000 0.000000 0.000000 0.000000 0.000000 0.000000 0.000000 0.000000 0.000000 0.000000 0.000000 0.000000 0.000000 0.000000 0.000000 0.000000 0.000000 0.000000 0.000000 0.000000 29.991549 29.991549 29.991549 29.991549 29.991549 29.991549 29.991549 29.991549 29.991549 29.991549 30.947197 30.947197 30.947197 30.947197 30.947197 30.947197 30.947197 30.947197 30.947197 30.947197 30.947197 0.000000 0.000000 0.000000 0.000000 0.000000 0.000000 0.000000 0.000000 0.000000 0.000000 0.000000 0.000000 18.179062 18.179062 18.179062 18.179062 18.179062 18.179062 0.000000 0.000000 0.000000 0.000000
0.000000 0.000000 0.000000 0.000000 0.000000 0.000000 0.000000 0.000000 0.000000 0.000000 0.000000 0.000000 0.000000 0.000000 0.000000 0.000000 0.000000 0.000000 0.000000 0.000000 0.000000 0.000000 0.000000 0.000000 0.000000 0.000000 0.000000 0.000000 0.000000 0.000000 0.000000 0.000000 0.000000 0.000000 0.000000 0.000000 0.000000 0.000000 0.000000 0.000000 0.000000 0.000000 0.000000 0.000000 0.000000 0.000000 0.000000 0.000000 0.000000 0.000000 0.000000 0.000000 0.000000 0.000000 0.000000 0.000000 0.000000 0.000000 0.000000 0.000000 0.000000 0.000000 0.000000 0.000000 0.000000 0.000000 0.000000 0.000000 0.000000 0.000000 0.000000 0.000000 0.000000 0.000000 0.000000 0.000000 0.000000 0.000000 0.000000 0.000000 0.000000 0.000000 0.000000 0.000000 0.000000 0.000000 0.000000 0.000000 0.000000 0.000000 0.000000 0.000000 0.000000 0.000000 0.000000 0.000000 0.000000 0.000000 0.000000 0.000000 0.000000 0.000000 0.000000
0.000000 0.000000 0.000000 0.000000 0.000000 0.000000 0.000000 0.000000 0.000000 0.000000 0.000000 0.000000 0.000000 0.000000 0.000000 0.000000 0.000000 0.000000 0.000000 0.000000 0.000000 0.000000 0.000000 0.000000 0.000000 0.000000 0.000000 0.000000 0.000000 0.000000 0.000000 0.000000 0.000000 0.000000 0.000000 0.000000 0.000000 0.000000 0.000000 0.000000 0.000000 0.000000 0.000000 0.000000 0.000000 0.000000 0.000000 0.000000 0.000000 0.000000 0.000000 0.000000 0.000000 0.000000 0.000000 0.000000 0.000000 0.000000 0.000000 0.000000 0.000000 0.000000 0.000000 0.000000 0.000000 0.000000 0.000000 0.000000 0.000000 0.000000 0.000000 0.000000 0.000000 0.000000 0.000000 0.000000 0.000000 0.000000 0.000000 0.000000 0.000000 0.000000 0.000000 0.000000 0.000000 0.000000 0.000000 0.000000 0.000000 0.000000 0.000000 0.000000 0.000000 0.000000 0.000000 0.000000 0.000000 0.000000 0.000000 0.000000 0.000000 0.000000 0.000000
0.000000 0.000000 0.000000 0.000000 0.000000 0.000000 0.000000 0.000000 0.000000 0.000000 0.000000 0.000000 0.000000 0.000000 0.000000 0.000000 0.000000 0.000000 0.000000 0.000000 0.000000 0.000000 0.000000 0.000000 0.000000 0.000000 0.000000 0.000000 0.000000 0.000000 0.000000 0.000000 0.000000 0.000000 0.000000 0.000000 0.000000 0.000000 0.000000 0.000000 0.000000 0.000000 0.000000 0.000000 0.000000 0.000000 0.000000 0.000000 0.000000 0.000000 0.000000 0.000000 0.000000 0.000000 0.000000 0.000000 0.000000 0.000000 0.000000 0.000000 0.000000 0.000000 0.000000 0.000000 0.000000 0.000000 0.000000 0.000000 0.000000 0.000000 0.000000 0.000000 0.000000 0.000000 0.000000 0.000000 0.000000 0.000000 0.000000 0.000000 0.000000 0.000000 0.000000 0.000000 0.000000 0.000000 0.000000 0.000000 0.000000 0.000000 0.000000 0.000000 0.000000 0.000000 0.000000 0.000000 0.000000 0.000000 0.000000 0.000000 0.000000 0.000000 0.000000
0.000000 0.000000 0.000000 0.000000 0.000000 0.000000 0.000000 0.000000 0.000000 0.000000 0.000000 0.000000 0.000000 0.000000 0.000000 0.000000 0.000000 0.000000 0.000000 0.000000 0.000000 0.000000 0.000000 0.000000 0.000000 0.000000 0.000000 0.000000 0.000000 0.000000 0.000000 0.000000 0.000000 0.000000 0.000000 0.000000 0.000000 0.000000 0.000000 0.000000 0.000000 0.000000 0.000000 0.000000 0.000000 0.000000 0.000000 0.000000 0.000000 0.000000 0.000000 0.000000 0.000000 0.000000 0.000000 0.000000 0.000000 0.000000 0.000000 0.000000 0.000000 0.000000 0.000000 0.000000 0.000000 0.000000 0.000000 0.000000 0.000000 0.000000 0.000000 0.000000 0.000000 0.000000 0.000000 0.000000 0.000000 0.000000 0.000000 0.000000 0.000000 0.000000 0.000000 0.000000 0.000000 0.000000 0.000000 0.000000 0.000000 0.000000 0.000000 0.000000 0.000000 0.000000 0.000000 0.000000 0.000000 0.000000 0.000000 0.000000 0.000000 0.000000 0.000000
0.000000 0.000000 0.000000 0.000000 0.000000 0.000000 0.000000 0.000000 0.000000 0.000000 0.000000 0.000000 0.000000 0.000000 0.000000 0.000000 0.000000 0.000000 0.000000 0.000000 0.000000 0.000000 0.000000 0.000000 0.000000 0.000000 0.000000 0.000000 0.000000 0.000000 0.000000 0.000000 0.000000 0.000000 0.000000 0.000000 0.000000 0.000000 0.000000 0.000000 0.000000 0.000000 0.000000 0.000000 0.000000 0.000000 0.000000 0.000000 0.000000 0.000000 0.000000 0.000000 0.000000 0.000000 0.000000 0.000000 0.000000 0.000000 0.000000 0.000000 0.000000 0.000000 0.000000 0.000000 0.000000 0.000000 0.000000 0.000000 0.000000 0.000000 0.000000 0.000000 0.000000 0.000000 0.000000 0.000000 0.000000 0.000000 0.000000 0.000000 0.000000 0.000000 0.000000 0.000000 0.000000 0.000000 0.000000 0.000000 0.000000 0.000000 0.000000 0.000000 0.000000 0.000000 0.000000 0.000000 0.000000 0.000000 0.000000 0.000000 0.000000 0.000000 0.000000
0.000000 0.000000 0.000000 0.000000 19.587173 19.587173 19.587173 19.587173 19.587173 19.587173 19.587173 17.472520 17.472520 17.472520 17.472520 17.472520 17.472520 17.472520 0.000000 0.000000 0.000000 0.000000 0.000000 0.000000 0.000000 0.000000 0.000000 0.000000 0.000000 0.000000 0.000000 0.000000 0.000000 0.000000 0.000000 0.000000 0.000000 0.000000 0.000000 0.000000 0.000000 0.000000 0.000000 0.000000 0.000000 0.000000 0.000000 0.000000 0.000000 0.000000 0.000000 0.000000 0.000000 0.000000 0.000000 0.000000 0.000000 0.000000 0.000000 0.000000 0.000000 0.000000 0.000000 0.000000 0.000000 0.000000 0.000000 0.000000 0.000000 0.000000 0.000000 0.000000 0.000000 0.000000 0.000000 0.000000 0.000000 0.000000 0.000000 0.000000 0.000000 0.000000 0.000000 0.000000 0.000000 0.000000 0.000000 0.000000 0.000000 0.000000 0.000000 0.000000 0.000000 0.000000 0.000000 0.000000 0.000000 0.000000 0.000000 0.000000 0.000000 0.000000 0.000000
0.000000 0.000000 0.000000 0.000000 19.587173 19.587173 19.587173 19.587173 19.587173 19.587173 19.587173 17.472520 17.472520 17.472520 17.472520 17.472520 17.472520 17.472520 0.000000 0.000000 0.000000 0.000000 0.000000 0.000000 0.000000 0.000000 0.000000 0.000000 0.000000 0.000000 0.000000 0.000000 0.000000 0.000000 0.000000 0.000000 0.000000 0.000000 0.000000 0.000000 0.000000 0.000000 0.000000 0.000000 0.000000 0.000000 0.000000 0.000000 0.000000 0.000000 0.000000 0.000000 0.000000 0.000000 0.000000 0.000000 0.000000 0.000000 0.000000 0.000000 0.000000 0.000000 0.000000 0.000000 0.000000 0.000000 0.000000 0.000000 0.000000 0.000000 0.000000 0.000000 0.000000 0.000000 0.000000 0.000000 0.000000 0.000000 0.000000 0.000000 0.000000 0.000000 0.000000 0.000000 0.000000 0.000000 0.000000 0.000000 0.000000 0.000000 0.000000 0.000000 0.000000 0.000000 0.000000 0.000000 0.000000 0.000000 0.000000 0.000000 0.000000 0.000000 0.000000
0.000000 0.000000 0.000000 0.000000 19.587173 19.587173 19.587173 19.587173 19.587173 19.587173 19.587173 17.472520 17.472520 17.472520 17.472520 17.472520 17.472520 17.472520 0.000000 0.000000 0.000000 0.000000 0.000000 0.000000 0.000000 0.000000 0.000000 0.000000 0.000000 0.000000 0.000000 0.000000 0.000000 0.000000 0.000000 0.000000 0.000000 11.663322 11.663322 11.663322 11.663322 11.663322 11.663322 11.663322 0.000000 0.000000 0.000000 0.000000 0.000000 0.000000 0.000000 0.000000 0.000000 0.000000 0.000000 0.000000 0.000000 0.000000 0.000000 0.000000 0.000000 0.000000 0.000000 0.000000 0.000000 0.000000 0.000000 0.000000 0.000000 0.000000 16.707417 16.707417 16.707417 16.707417 16.707417 16.707417 16.707417 16.707417 16.707417 0.000000 0.000000 0.000000 0.000000 0.000000 0.000000 0.000000 0.000000 0.000000 0.000000 0.000000 0.000000 0.000000 0.000000 0.000000 0.000000 0.000000 0.000000 0.000000 0.000000 0.000000 0.000000 0.000000 0.000000
0.000000 0.000000 0.000000 0.000000 19.587173 19.587173 19.587173 19.587173 19.587173 19.587173 19.587173 17.472520 17.472520 17.472520 17.472520 17.472520 17.472520 17.472520 0.000000 0.000000 0.000000 0.000000 0.000000 0.000000 0.000000 0.000000 0.000000 0.000000 0.000000 0.000000 0.000000 0.000000 0.000000 0.000000 0.000000 0.000000 0.000000 11.663322 11.663322 11.663322 11.663322 11.663322 11.663322 11.663322 0.000000 0.000000 0.000000 0.000000 0.000000 0.000000 0.000000 0.000000 0.000000 0.000000 0.000000 0.000000 0.000000 0.000000 0.000000 0.000000 0.000000 0.000000 0.000000 0.000000 0.000000 0.000000 0.000000 0.000000 0.000000 0.000000 16.707417 16.707417 16.707417 16.707417 16.707417 16.707417 16.707417 16.707417 16.707417 0.000000 0.000000 0.000000 0.000000 0.000000 0.000000 0.000000 0.000000 0.000000 0.000000 0.000000 0.000000 0.000000 0.000000 0.000000 0.000000 0.000000 0.000000 0.000000 0.000000 0.000000 0.000000 0.000000 0.000000
0.000000 0.000000 0.000000 0.000000 19.587173 19.587173 19.587173 19.587173 19.587173 19.587173 19.587173 17.472520 17.472520 17.472520 17.472520 17.472520 17.472520 17.472520 0.000000 0.000000 0.000000 0.000000 0.000000 0.000000 0.000000 0.000000 0.000000 0.000000 0.000000 0.000000 0.000000 0.000000 0.000000 0.000000 0.000000 0.000000 0.000000 11.663322 11.663322 11.663322 11.663322 11.663322 11.663322 11.663322 0.000000 0.000000 0.000000 0.000000 0.000000 0.000000 0.000000 0.000000 0.000000 0.000000 0.000000 0.000000 0.000000 0.000000 0.000000 0.000000 0.000000 0.000000 0.000000 0.000000 0.000000 0.000000 0.000000 0.000000 0.000000 0.000000 16.707417 16.707417 16.707417 16.707417 16.707417 16.707417 16.707417 16.707417 16.707417 0.000000 0.000000 0.000000 0.000000 0.000000 0.000000 0.000000 0.000000 0.000000 0.000000 0.000000 0.000000 0.000000 0.000000 0.000000 0.000000 0.000000 0.000000 0.000000 0.000000 0.000000 0.000000 0.000000 0.000000
0.000000 0.000000 0.000000 0.000000 19.587173 19.587173 19.587173 19.587173 19.587173 19.587173 19.587173 17.472520 17.472520 17.472520 17.472520 17.472520 17.472520 17.472520 0.000000 0.000000 0.000000 0.000000 0.000000 0.000000 0.000000 0.000000 0.000000 0.000000 0.000000 0.000000 0.000000 0.000000 0.000000 0.000000 0.000000 0.000000 0.000000 11.663322 11.663322 11.663322 11.663322 11.663322 11.663322 11.663322 0.000000 0.000000 0.000000 0.000000 0.000000 0.000000 0.000000 0.000000 0.000000 0.000000 0.000000 0.000000 0.000000 0.000000 0.000000 0.000000 0.000000 0.000000 0.000000 0.000000 0.000000 0.000000 0.000000 0.000000 0.000000 0.000000 16.707417 16.707417 16.707417 16.707417 16.707417 16.707417 16.707417 16.707417 16.707417 0.000000 0.000000 0.000000 0.000000 0.000000 0.000000 0.000000 0.000000 0.000000 0.000000 0.000000 0.000000 0.000000 0.000000 0.000000 0.000000 0.000000 0.000000 0.000000 0.000000 0.000000 0.000000 0.000000 0.000000
0.000000 0.000000 0.000000 0.000000 19.587173 19.587173 19.587173 19.587173 19.587173 19.587173 19.587173 17.472520 17.472520 17.472520 17.472520 17.472520 17.472520 17.472520 0.000000 0.000000 0.000000 0.000000 0.000000 0.000000 0.000000 0.000000 0.000000 0.000000 0.000000 0.000000 0.000000 0.000000 0.000000 0.000000 0.000000 0.000000 0.000000 11.663322 11.663322 11.663322 11.663322 11.663322 11.663322 11.663322 0.000000 0.000000 0.000000 0.000000 0.000000 0.000000 0.000000 0.000000 0.000000 0.000000 0.000000 0.000000 0.000000 0.000000 0.000000 0.000000 0.000000 0.000000 0.000000 0.000000 0.000000 0.000000 0.000000 0.000000 0.000000 0.000000 16.707417 16.707417 16.707417 16.707417 16.707417 16.707417 16.707417 16.707417 16.707417 0.000000 0.000000 0.000000 0.000000 0.000000 0.000000 0.000000 0.000000 0.000000 0.000000 0.000000 0.000000 0.000000 0.000000 0.000000 0.000000 0.000000 0.000000 0.000000 0.000000 0.000000 0.000000 0.000000 0.000000
0.000000 0.000000 0.000000 0.000000 19.587173 19.587173 19.587173 19.587173 19.587173 19.587173 19.587173 17.472520 17.472520 17.472520 17.472520 17.472520 17.472520 17.472520 0.000000 0.000000 0.000000 0.000000 0.000000 0.000000 0.000000 0.000000 0.000000 0.000000 0.000000 0.000000 0.000000 0.000000 0.000000 0.000000 0.000000 0.000000 0.000000 11.663322 11.663322 11.663322 11.663322 11.663322 11.663322 11.663322 0.000000 0.000000 0.000000 0.000000 0.000000 0.000000 0.000000 0.000000 0.000000 0.000000 0.000000 0.000000 0.000000 0.000000 0.000000 0.000000 0.000000 0.000000 0.000000 0.000000 0.000000 0.000000 0.000000 0.000000 0.000000 0.000000 16.707417 16.707417 16.707417 16.707417 16.707417 16.707417 16.707417 16.707417 16.707417 0.000000 0.000000 0.000000 0.000000 0.000000 0.000000 0.000000 0.000000 0.000000 0.000000 0.000000 0.000000 0.000000 0.000000 0.000000 0.000000 0.000000 0.000000 0.000000 0.000000 0.000000 0.000000 0.000000 0.000000
0.000000 0.000000 0.000000 0.000000 19.587173 19.587173 19.587173 19.587173 19.587173 19.587173 19.587173 17.472520 17.472520 17.472520 17.472520 17.472520 17.472520 17.472520 0.000000 0.000000 0.000000 0.000000 0.000000 0.000000 0.000000 0.000000 0.000000 0.000000 0.000000 0.000000 0.000000 0.000000 0.000000 0.000000 0.000000 0.000000 0.000000 11.663322 11.663322 11.663322 11.663322 11.663322 11.663322 11.663322 0.000000 0.000000 0.000000 0.000000 0.000000 0.000000 0.000000 0.000000 0.000000 0.000000 0.000000 0.000000 0.000000 0.000000 0.000000 0.000000 0.000000 0.000000 0.000000 0.000000 0.000000 0.000000 0.000000 0.000000 0.000000 0.000000 16.707417 16.707417 16.707417 16.707417 16.707417 16.707417 16.707417 16.707417 16.707417 0.000000 0.000000 0.000000 0.000000 0.000000 0.000000 0.000000 0.000000 0.000000 0.000000 0.000000 0.000000 0.000000 0.000000 0.000000 0.000000 0.000000 0.000000 0.000000 0.000000 0.000000 0.000000 0.000000 0.000000
0.000000 0.000000 0.000000 0.000000 19.587173 19.587173 19.587173 19.587173 19.587173 19.587173 19.587173 17.472520 17.472520 17.472520 17.472520 17.472520 17.472520 17.472520 0.000000 0.000000 0.000000 0.000000 0.000000 0.000000 0.000000 0.000000 0.000000 0.000000 0.000000 0.000000 0.000000 0.000000 0.000000 0.000000 0.000000 0.000000 0.000000 11.663322 11.663322 11.663322 11.663322 11.663322 11.663322 11.663322 0.000000 0.000000 0.000000 0.000000 0.000000 0.000000 0.000000 0.000000 0.000000 0.000000 0.000000 0.000000 0.000000 0.000000 0.000000 0.000000 0.000000 0.000000 0.000000 0.000000 0.000000 0.000000 0.000000 0.000000 0.000000 0.000000 16.707417 16.707417 16.707417 16.707417 16.707417 16.707417 16.707417 16.707417 16.707417 0.000000 0.000000 0.000000 0.000000 0.000000 0.000000 0.000000 0.000000 0.000000 0.000000 0.000000 0.000000 0.000000 0.000000 0.000000 0.000000 0.000000 0.000000 0.000000 0.000000 0.000000 0.000000 0.000000 0.000000
0.000000 0.000000 0.000000 0.000000 19.587173 19.587173 19.587173 19.587173 19.587173 19.587173 19.587173 17.472520 17.472520 17.472520 17.472520 17.472520 17.472520 17.472520 0.000000 0.000000 0.000000 0.000000 0.000000 0.000000 0.000000 0.000000 0.000000 0.000000 0.000000 0.000000 0.000000 0.000000 0.000000 0.000000 0.000000 0.000000 0.000000 0.000000 0.000000 0.000000 0.000000 0.000000 0.000000 0.000000 0.000000 0.000000 0.000000 0.000000 0.000000 0.000000 0.000000 0.000000 0.000000 0.000000 0.000000 0.000000 0.000000 0.000000 0.000000 0.000000 0.000000 0.000000 0.000000 0.000000 0.000000 0.000000 0.000000 0.000000 0.000000 0.000000 0.000000 0.000000 0.000000 0.000000 0.000000 0.000000 0.000000 0.000000 0.000000 0.000000 0.000000 0.000000 0.000000 0.000000 0.000000 0.000000 0.000000 0.000000 0.000000 0.000000 0.000000 0.000000 0.000000 0.000000 0.000000 0.000000 0.000000 0.000000 0.000000 0.000000 0.000000 0.000000 0.000000
0.000000 0.000000 0.000000 0.000000 19.587173 19.587173 19.587173 19.587173 19.587173 19.587173 19.587173 17.472520 17.472520 17.472520 17.472520 17.472520 17.472520 17.472520 0.000000 0.000000 0.000000 0.000000 0.000000 0.000000 0.000000 0.000000 0.000000 0.000000 0.000000 0.000000 0.000000 0.000000 0.000000 0.000000 0.000000 0.000000 0.000000 0.000000 0.000000 0.000000 0.000000 0.000000 0.000000 0.000000 0.000000 0.000000 0.000000 0.000000 0.000000 0.000000 0.000000 0.000000 0.000000 0.000000 0.000000 0.000000 0.000000 0.000000 0.000000 0.000000 0.000000 0.000000 0.000000 0.000000 0.000000 0.000000 0.000000 0.000000 0.000000 0.000000 0.000000 0.000000 0.000000 0.000000 0.000000 0.000000 0.000000 0.000000 0.000000 0.000000 0.000000 0.000000 0.000000 0.000000 0.000000 0.000000 0.000000 0.000000 0.000000 0.000000 0.000000 0.000000 0.000000 0.000000 0.000000 0.000000 0.000000 0.000000 0.000000 0.000000 0.000000 0.000000 0.000000
0.000000 0.000000 0.000000 0.000000 0.000000 0.000000 0.000000 0.000000 0.000000 0.000000 0.000000 0.000000 0.000000 0.000000 0.000000 0.000000 0.000000 0.000000 0.000000 0.000000 0.000000 0.000000 0.000000 0.000000 0.000000 0.000000 0.000000 0.000000 0.000000 0.000000 0.000000 0.000000 0.000000 0.000000 0.000000 0.000000 0.000000 0.000000 0.000000 0.000000 0.000000 0.000000 0.000000 0.000000 0.000000 0.000000 0.000000 0.000000 0.000000 0.000000 0.000000 0.000000 0.000000 0.000000 0.000000 0.000000 0.000000 0.000000 0.000000 0.000000 0.000000 0.000000 0.000000 0.000000 0.000000 0.000000 0.000000 0.000000 0.000000 0.000000 0.000000 0.000000 0.000000 0.000000 0.000000 0.000000 0.000000 0.000000 0.000000 0.000000 0.000000 0.000000 0.000000 0.000000 0.000000 0.000000 0.000000 0.000000 0.000000 0.000000 0.000000 0.000000 0.000000 0.000000 0.000000 0.000000 0.000000 0.000000 0.000000 0.000000 0.000000 0.000000 0.000000
0.000000 0.000000 0.000000 0.000000 0.000000 0.000000 0.000000 0.000000 0.000000 0.000000 0.000000 0.000000 0.000000 0.000000 0.000000 0.000000 0.000000 0.000000 0.000000 0.000000 0.000000 0.000000 0.000000 0.000000 0.000000 0.000000 0.000000 0.000000 0.000000 0.000000 0.000000 0.000000 0.000000 0.000000 0.000000 0.000000 0.000000 0.000000 0.000000 0.000000 0.000000 0.000000 0.000000 0.000000 0.000000 0.000000 0.000000 0.000000 0.000000 0.000000 0.000000 0.000000 0.000000 0.000000 0.000000 0.000000 0.000000 0.000000 0.000000 0.000000 0.000000 0.000000 0.000000 0.000000 0.000000 0.000000 0.000000 0.000000 0.000000 0.000000 0.000000 0.000000 0.000000 0.000000 0.000000 0.000000 0.000000 0.000000 0.000000 0.000000 0.000000 0.000000 0.000000 0.000000 0.000000 0.000000 0.000000 0.000000 0.000000 0.000000 0.000000 0.000000 0.000000 0.000000 0.000000 0.000000 0.000000 0.000000 0.000000 0.000000 0.000000 0.000000 0.000000
0.000000 0.000000 0.000000 0.000000 0.000000 0.000000 0.000000 0.000000 0.000000 0.000000 0.000000 0.000000 0.000000 0.000000 0.000000 0.000000 0.000000 0.000000 0.000000 0.000000 0.000000 0.000000 0.000000 0.000000 0.000000 0.000000 0.000000 0.000000 0.000000 0.000000 0.000000 0.000000 0.000000 0.000000 0.000000 0.000000 0.000000 0.000000 0.000000 0.000000 0.000000 0.000000 0.000000 0.000000 0.000000 0.000000 0.000000 0.000000 0.000000 0.000000 0.000000 0.000000 0.000000 0.000000 0.000000 0.000000 0.000000 0.000000 0.000000 0.000000 0.000000 0.000000 0.000000 0.000000 0.000000 0.000000 0.000000 0.000000 0.000000 0.000000 0.000000 0.000000 0.000000 0.000000 0.000000 0.000000 0.000000 0.000000 0.000000 0.000000 0.000000 0.000000 0.000000 0.000000 0.000000 0.000000 0.000000 0.000000 0.000000 0.000000 0.000000 0.000000 0.000000 0.000000 0.000000 0.000000 0.000000 0.000000 0.000000 0.000000 0.000000 0.000000 0.000000
0.000000 0.000000 0.000000 0.000000 0.000000 0.000000 0.000000 0.000000 0.000000 0.000000 0.000000 0.000000 0.000000 0.000000 0.000000 0.000000 0.000000 0.000000 0.000000 0.000000 0.000000 0.000000 0.000000 0.000000 0.000000 0.000000 0.000000 0.000000 0.000000 0.000000 0.000000 0.000000 0.000000 0.000000 0.000000 0.000000 0.000000 0.000000 0.000000 0.000000 0.000000 0.000000 0.000000 0.000000 0.000000 0.000000 0.000000 0.000000 0.000000 0.000000 0.000000 0.000000 0.000000 0.000000 0.000000 0.000000 0.000000 0.000000 0.000000 0.000000 0.000000 0.000000 0.000000 0.000000 0.000000 0.000000 0.000000 0.000000 0.000000 0.000000 0.000000 0.000000 0.000000 0.000000 0.000000 0.000000 0.000000 0.000000 0.000000 0.000000 0.000000 0.000000 0.000000 0.000000 0.000000 0.000000 0.000000 0.000000 0.000000 0.000000 0.000000 0.000000 0.000000 0.000000 0.000000 0.000000 0.000000 0.000000 0.000000 0.000000 0.000000 0.000000 0.000000
0.000000 0.000000 0.000000 0.000000 0.000000 0.000000 0.000000 0.000000 0.000000 0.000000 0.000000 0.000000 0.000000 0.000000 0.000000 0.000000 0.000000 0.000000 0.000000 0.000000 0.000000 0.000000 0.000000 0.000000 0.000000 0.000000 0.000000 0.000000 0.000000 0.000000 0.000000 0.000000 0.000000 0.000000 0.000000 0.000000 0.000000 0.000000 0.000000 0.000000 0.000000 0.000000 0.000000 0.000000 0.000000 0.000000 0.000000 0.000000 0.000000 0.000000 0.000000 0.000000 0.000000 0.000000 0.000000 0.000000 0.000000 0.000000 0.000000 0.000000 0.000000 0.000000 0.000000 0.000000 0.000000 0.000000 0.000000 0.000000 0.000000 0.000000 0.000000 0.000000 0.000000 0.000000 0.000000 0.000000 0.000000 0.000000 0.000000 0.000000 0.000000 0.000000 0.000000 0.000000 0.000000 0.000000 0.000000 0.000000 0.000000 0.000000 0.000000 0.000000 0.000000 0.000000 0.000000 0.000000 0.000000 0.000000 0.000000 0.000000 0.000000 0.000000 0.000000
0.000000 0.000000 0.000000 0.000000 0.000000 0.000000 0.000000 0.000000 0.000000 0.000000 0.000000 0.000000 0.000000 0.000000 0.000000 0.000000 0.000000 0.000000 0.000000 0.000000 0.000000 0.000000 0.000000 0.000000 0.000000 0.000000 0.000000 0.000000 0.000000 0.000000 0.000000 0.000000 0.000000 0.000000 0.000000 0.000000 0.000000 0.000000 0.000000 0.000000 0.000000 0.000000 0.000000 0.000000 0.000000 0.000000 0.000000 0.000000 0.000000 0.000000 0.000000 0.000000 0.000000 0.000000 0.000000 0.000000 0.000000 0.000000 0.000000 0.000000 0.000000 0.000000 0.000000 0.000000 0.000000 0.000000 0.000000 0.000000 0.000000 0.000000 0.000000 0.000000 0.000000 0.000000 0.000000 0.000000 0.000000 0.000000 0.000000 0.000000 0.000000 0.000000 0.000000 0.000000 0.000000 0.000000 0.000000 0.000000 0.000000 0.000000 0.000000 0.000000 0.000000 0.000000 0.000000 0.000000 0.000000 0.000000 0.000000 0.000000 0.000000 0.000000 0.000000
0.000000 0.000000 0.000000 0.000000 0.000000 0.000000 0.000000 0.000000 0.000000 0.000000 0.000000 0.000000 0.000000 0.000000 0.000000 0.000000 0.000000 0.000000 0.000000 0.000000 0.000000 0.000000 0.000000 0.000000 0.000000 0.000000 0.000000 0.000000 0.000000 0.000000 0.000000 0.000000 0.000000 0.000000 0.000000 0.000000 0.000000 0.000000 0.000000 0.000000 0.000000 0.000000 0.000000 0.000000 0.000000 0.000000 0.000000 0.000000 0.000000 0.000000 0.000000 0.000000 0.000000 0.000000 0.000000 0.000000 0.000000 0.000000 0.000000 0.000000 0.000000 0.000000 0.000000 0.000000 0.000000 0.000000 0.000000 0.000000 0.000000 0.000000 0.000000 0.000000 0.000000 0.000000 0.000000 0.000000 0.000000 0.000000 0.000000 0.000000 0.000000 0.000000 0.000000 0.000000 0.000000 0.000000 0.000000 0.000000 0.000000 0.000000 0.000000 0.000000 0.000000 0.000000 0.000000 0.000000 0.000000 0.000000 0.000000 0.000000 0.000000 0.000000 0.000000
0.000000 0.000000 0.000000 0.000000 0.000000 0.000000 0.000000 0.000000 0.000000 0.000000 0.000000 0.000000 0.000000 0.000000 0.000000 0.000000 0.000000 0.000000 0.000000 0.000000 0.000000 0.000000 0.000000 0.000000 0.000000 14.759357 14.759357 14.759357 14.759357 14.759357 14.759357 14.759357 0.000000 0.000000 0.000000 0.000000 14.759645 14.759645 14.759645 14.759645 14.759645 14.759645 14.759645 14.759645 0.000000 0.000000 0.000000 0.000000 0.000000 0.000000 0.000000 0.000000 0.000000 0.000000 0.000000 0.000000 0.000000 0.000000 0.000000 0.000000 0.000000 0.000000 0.000000 0.000000 0.000000 0.000000 0.000000 0.000000 0.000000 0.000000 0.000000 0.000000 0.000000 0.000000 0.000000 0.000000 0.000000 0.000000 0.000000 0.000000 0.000000 0.000000 0.000000 0.000000 0.000000 0.000000 0.000000 0.000000 34.160712 34.160712 34.160712 34.160712 34.160712 34.160712 34.160712 34.160712 34.160712 0.000000 0.000000 0.000000 0.000000 0.000000 0.000000
0.000000 0.000000 0.000000 0.000000 0.000000 0.000000 0.000000 0.000000 0.000000 0.000000 0.000000 0.000000 0.000000 0.000000 0.000000 0.000000 0.000000 0.000000 0.000000 0.000000 0.000000 0.000000 0.000000 0.000000 0.000000 14.759357 14.759357 14.759357 14.759357 14.759357 14.759357 14.759357 0.000000 0.000000 0.000000 0.000000 14.759645 14.759645 14.759645 14.759645 14.759645 14.759645 14.759645 14.759645 0.000000 0.000000 0.000000 0.000000 0.000000 0.000000 0.000000 0.000000 0.000000 0.000000 0.000000 0.000000 0.000000 0.000000 0.000000 0.000000 0.000000 0.000000 0.000000 0.000000 0.000000 0.000000 0.000000 0.000000 0.000000 0.000000 0.000000 0.000000 0.000000 0.000000 0.000000 0.000000 0.000000 0.000000 0.000000 0.000000 0.000000 0.000000 0.000000 0.000000 0.000000 0.000000 0.000000 0.000000 34.160712 34.160712 34.160712 34.160712 34.160712 34.160712 34.160712 34.160712 34.160712 0.000000 0.000000 0.000000 0.000000 0.000000 0.000000
0.000000 0.000000 0.000000 0.000000 0.000000 0.000000 0.000000 0.000000 0.000000 0.000000 0.000000 0.000000 0.000000 0.000000 0.000000 0.000000 0.000000 0.000000 0.000000 0.000000 0.000000 0.000000 0.000000 0.000000 0.000000 14.759357 14.759357 14.759357 14.759357 14.759357 14.759357 14.759357 0.000000 0.000000 0.000000 0.000000 14.759645 14.759645 14.759645 14.759645 14.759645 14.759645 14.759645 14.759645 0.000000 0.000000 0.000000 0.000000 0.000000 0.000000 0.000000 0.000000 0.000000 0.000000 0.000000 0.000000 0.000000 0.000000 0.000000 0.000000 0.000000 0.000000 0.000000 0.000000 0.000000 0.000000 0.000000 0.000000 0.000000 0.000000 0.000000 0.000000 0.000000 0.000000 0.000000 0.000000 0.000000 0.000000 0.000000 0.000000 0.000000 0.000000 0.000000 0.000000 0.000000 0.000000 0.000000 0.000000 34.160712 34.160712 34.160712 34.160712 34.160712 34.160712 34.160712 34.160712 34.160712 0.000000 0.000000 0.000000 0.000000 0.000000 0.000000
0.000000 0.000000 0.000000 0.000000 0.000000 0.000000 0.000000 0.000000 0.000000 0.000000 0.000000 0.000000 0.000000 0.000000 0.000000 0.000000 0.000000 0.000000 0.000000 0.000000 0.000000 0.000000 0.000000 0.000000 0.000000 14.759357 14.759357 14.759357 14.759357 14.759357 14.759357 14.759357 0.000000 0.000000 0.000000 0.000000 14.759645 14.759645 14.759645 14.759645 14.759645 14.759645 14.759645 14.759645 0.000000 0.000000 0.000000 0.000000 0.000000 0.000000 0.000000 0.000000 0.000000 0.000000 0.000000 0.000000 0.000000 0.000000 0.000000 0.000000 0.000000 0.000000 0.000000 0.000000 0.000000 0.000000 0.000000 0.000000 0.000000 0.000000 0.000000 0.000000 0.000000 0.000000 0.000000 0.000000 0.000000 0.000000 0.000000 0.000000 0.000000 0.000000 0.000000 0.000000 0.000000 0.000000 0.000000 0.000000 34.160712 34.160712 34.160712 34.160712 34.160712 34.160712 34.160712 34.160712 34.160712 0.000000 0.000000 0.000000 0.000000 0.000000 0.000000
0.000000 0.000000 0.000000 0.000000 0.000000 0.000000 0.000000 0.000000 0.000000 0.000000 0.000000 0.000000 0.000000 0.000000 0.000000 0.000000 0.000000 0.000000 0.000000 0.000000 0.000000 0.000000 0.000000 0.000000 0.000000 14.759357 14.759357 14.759357 14.759357 14.759357 14.759357 14.759357 0.000000 0.000000 0.000000 0.000000 14.759645 14.759645 14.759645 14.759645 14.759645 14.759645 14.759645 14.759645 0.000000 0.000000 0.000000 0.000000 0.000000 0.000000 0.000000 0.000000 0.000000 0.000000 0.000000 0.000000 0.000000 0.000000 0.000000 0.000000 0.000000 0.000000 0.000000 0.000000 0.000000 0.000000 0.000000 0.000000 0.000000 0.000000 0.000000 0.000000 0.000000 0.000000 0.000000 0.000000 0.000000 0.000000 0.000000 0.000000 0.000000 0.000000 0.000000 0.000000 0.000000 0.000000 0.000000 0.000000 34.160712 34.160712 34.160712 34.160712 34.160712 34.160712 34.160712 34.160712 34.160712 0.000000 0.000000 0.000000 0.000000 0.000000 0.000000
0.000000 0.000000 0.000000 0.000000 0.000000 0.000000 0.000000 0.000000 0.000000 0.000000 0.000000 0.000000 0.000000 0.000000 0.000000 0.000000 0.000000 0.000000 0.000000 0.000000 0.000000 0.000000 0.000000 0.000000 0.000000 14.759357 14.759357 14.759357 14.759357 14.759357 14.759357 14.759357 0.000000 0.000000 0.000000 0.000000 14.759645 14.759645 14.759645 14.759645 14.759645 14.759645 14.759645 14.759645 0.000000 0.000000 0.000000 0.000000 0.000000 0.000000 0.000000 0.000000 0.000000 0.000000 0.000000 0.000000 0.000000 0.000000 0.000000 0.000000 0.000000 0.000000 0.000000 0.000000 0.000000 0.000000 0.000000 0.000000 0.000000 0.000000 0.000000 0.000000 0.000000 0.000000 0.000000 0.000000 0.000000 0.000000 0.000000 0.000000 0.000000 0.000000 0.000000 0.000000 0.000000 0.000000 0.000000 0.000000 34.160712 34.160712 34.160712 34.160712 34.160712 34.160712 34.160712 34.160712 34.160712 0.000000 0.000000 0.000000 0.000000 0.000000 0.000000
0.000000 0.000000 0.000000 0.000000 0.000000 0.000000 0.000000 0.000000 0.000000 0.000000 0.000000 0.000000 0.000000 0.000000 0.000000 0.000000 0.000000 0.000000 0.000000 0.000000 0.000000 0.000000 0.000000 0.000000 0.000000 14.759357 14.759357 14.759357 14.759357 14.759357 14.759357 14.759357 0.000000 0.000000 0.000000 0.000000 14.759645 14.759645 14.759645 14.759645 14.759645 14.759645 14.759645 14.759645 0.000000 0.000000 0.000000 0.000000 0.000000 0.000000 0.000000 0.000000 0.000000 0.000000 0.000000 0.000000 0.000000 0.000000 0.000000 0.000000 0.000000 0.000000 0.000000 0.000000 0.000000 0.000000 0.000000 0.000000 0.000000 0.000000 0.000000 0.000000 0.000000 0.000000 0.000000 0.000000 0.000000 0.000000 0.000000 0.000000 0.000000 0.000000 0.000000 0.000000 0.000000 0.000000 0.000000 0.000000 34.160712 34.160712 34.160712 34.160712 34.160712 34.160712 34.160712 34.160712 34.160712 0.000000 0.000000 0.000000 0.000000 0.000000 0.000000
0.000000 0.000000 0.000000 0.000000 0.000000 0.000000 0.000000 0.000000 0.000000 0.000000 0.000000 0.000000 0.000000 0.000000 0.000000 0.000000 0.000000 0.000000 0.000000 0.000000 0.000000 0.000000 0.000000 0.000000 0.000000 14.759357 14.759357 14.759357 14.759357 14.759357 14.759357 14.759357 0.000000 0.000000 0.000000 0.000000 14.759645 14.759645 14.759645 14.759645 14.759645 14.759645 14.759645 14.759645 0.000000 0.000000 0.000000 0.000000 0.000000 0.000000 0.000000 0.000000 0.000000 0.000000 0.000000 0.000000 0.000000 0.000000 0.000000 0.000000 0.000000 0.000000 0.000000 0.000000 0.000000 0.000000 0.000000 0.000000 0.000000 0.000000 0.000000 0.000000 0.000000 0.000000 0.000000 0.000000 0.000000 0.000000 0.000000 0.000000 0.000000 0.000000 0.000000 0.000000 0.000000 0.000000 0.000000 0.000000 34.160712 34.160712 34.160712 34.160712 34.160712 34.160712 34.160712 34.160712 34.160712 0.000000 0.000000 0.000000 0.000000 0.000000 0.000000
0.000000 0.000000 0.000000 0.000000 0.000000 0.000000 0.000000 0.000000 0.000000 0.000000 0.000000 0.000000 0.000000 0.000000 0.000000 0.000000 0.000000 0.000000 0.000000 0.000000 0.000000 0.000000 0.000000 0.000000 0.000000 0.000000 0.000000 0.000000 0.000000 0.000000 0.000000 0.000000 0.000000 0.000000 0.000000 0.000000 0.000000 0.000000 0.000000 0.000000 0.000000 0.000000 0.000000 0.000000 0.000000 0.000000 0.000000 0.000000 0.000000 0.000000 0.000000 0.000000 0.000000 0.000000 0.000000 0.000000 0.000000 0.000000 0.000000 0.000000 0.000000 0.000000 0.000000 0.000000 0.000000 0.000000 0.000000 0.000000 0.000000 0.000000 0.000000 0.000000 0.000000 0.000000 0.000000 0.000000 0.000000 0.000000 0.000000 0.000000 0.000000 0.000000 0.000000 0.000000 0.000000 0.000000 0.000000 0.000000 34.160712 34.160712 34.160712 34.160712 34.160712 34.160712 34.160712 34.160712 34.160712 0.000000 0.000000 0.000000 0.000000 0.000000 0.000000
0.000000 0.000000 0.000000 0.000000 0.000000 0.000000 0.000000 0.000000 0.000000 0.000000 0.000000 0.000000 0.000000 0.000000 0.000000 0.000000 0.000000 0.000000 0.000000 0.000000 0.000000 0.000000 0.000000 0.000000 0.000000 0.000000 0.000000 0.000000 0.000000 0.000000 0.000000 0.000000 0.000000 0.000000 0.000000 0.000000 0.000000 0.000000 0.000000 0.000000 0.000000 0.000000 0.000000 0.000000 0.000000 0.000000 0.000000 0.000000 0.000000 0.000000 0.000000 0.000000 0.000000 0.000000 0.000000 0.000000 0.000000 0.000000 0.000000 0.000000 0.000000 0.000000 0.000000 0.000000 0.000000 0.000000 0.000000 0.000000 0.000000 0.000000 0.000000 0.000000 0.000000 0.000000 0.000000 0.000000 0.000000 0.000000 0.000000 0.000000 0.000000 0.000000 0.000000 0.000000 0.000000 0.000000 0.000000 0.000000 34.160712 34.160712 34.160712 34.160712 34.160712 34.160712 34.160712 34.160712 34.160712 0.000000 0.000000 0.000000 0.000000 0.000000 0.000000
0.000000 0.000000 0.000000 0.000000 0.000000 0.000000 0.000000 0.000000 0.000000 0.000000 0.000000 0.000000 0.000000 0.000000 0.000000 0.000000 0.000000 0.000000 0.000000 0.000000 0.000000 0.000000 0.000000 0.000000 0.000000 0.000000 0.000000 0.000000 0.000000 0.000000 0.000000 0.000000 0.000000 0.000000 0.000000 0.000000 0.000000 0.000000 0.000000 0.000000 0.000000 0.000000 0.000000 0.000000 0.000000 0.000000 0.000000 0.000000 0.000000 0.000000 0.000000 0.000000 0.000000 0.000000 0.000000 0.000000 0.000000 0.000000 0.000000 0.000000 0.000000 0.000000 0.000000 0.000000 0.000000 0.000000 0.000000 0.000000 0.000000 0.000000 0.000000 0.000000 0.000000 0.000000 0.000000 0.000000 0.000000 0.000000 0.000000 0.000000 0.000000 0.000000 0.000000 0.000000 0.000000 0.000000 0.000000 0.000000 34.160712 34.160712 34.160712 34.160712 34.160712 34.160712 34.160712 34.160712 34.160712 0.000000 0.000000 0.000000 0.000000 0.000000 0.000000
0.000000 0.000000 0.000000 0.000000 0.000000 0.000000 0.000000 0.000000 0.000000 0.000000 0.000000 0.000000 0.000000 0.000000 0.000000 0.000000 0.000000 0.000000 0.000000 0.000000 0.000000 0.000000 0.000000 0.000000 0.000000 26.385495 26.385495 26.385495 26.385495 26.385495 26.385495 26.385495 0.000000 0.000000 0.000000 0.000000 26.386009 26.386009 26.386009 26.386009 26.386009 26.386009 26.386009 26.386009 0.000000 0.000000 0.000000 0.000000 0.000000 0.000000 0.000000 0.000000 0.000000 0.000000 0.000000 0.000000 0.000000 0.000000 0.000000 0.000000 0.000000 0.000000 0.000000 0.000000 0.000000 0.000000 0.000000 0.000000 0.000000 0.000000 0.000000 0.000000 0.000000 0.000000 0.000000 0.000000 0.000000 0.000000 0.000000 0.000000 0.000000 0.000000 0.000000 0.000000 0.000000 0.000000 0.000000 0.000000 34.160712 34.160712 34.160712 34.160712 34.160712 34.160712 34.160712 34.160712 34.160712 0.000000 0.000000 0.000000 0.000000 0.000000 0.000000
0.000000 0.000000 0.000000 0.000000 0.000000 0.000000 0.000000 0.000000 0.000000 0.000000 0.000000 0.000000 0.000000 0.000000 0.000000 0.000000 0.000000 0.000000 0.000000 0.000000 0.000000 0.000000 0.000000 0.000000 0.000000 26.385495 26.385495 26.385495 26.385495 26.385495 26.385495 26.385495 0.000000 0.000000 0.000000 0.000000 26.386009 26.386009 26.386009 26.386009 26.386009 26.386009 26.386009 26.386009 0.000000 0.000000 0.000000 0.000000 0.000000 0.000000 0.000000 0.000000 0.000000 0.000000 0.000000 0.000000 0.000000 0.000000 0.000000 0.000000 0.000000 0.000000 0.000000 0.000000 0.000000 0.000000 0.000000 0.000000 0.000000 0.000000 0.000000 0.000000 0.000000 0.000000 0.000000 0.000000 0.000000 0.000000 0.000000 0.000000 0.000000 0.000000 0.000000 0.000000 0.000000 0.000000 0.000000 0.000000 34.160712 34.160712 34.160712 34.160712 34.160712 34.160712 34.160712 34.160712 34.160712 0.000000 0.000000 0.000000 0.000000 0.000000 0.000000
0.000000 0.000000 0.000000 0.000000 0.000000 0.000000 0.000000 0.000000 0.000000 0.000000 0.000000 0.000000 0.000000 0.000000 0.000000 0.000000 0.000000 0.000000 0.000000 0.000000 0.000000 0.000000 0.000000 0.000000 0.000000 26.385495 26.385495 26.385495 26.385495 26.385495 26.385495 26.385495 0.000000 0.000000 0.000000 0.000000 26.386009 26.386009 26.386009 26.386009 26.386009 26.386009 26.386009 26.386009 0.000000 0.000000 0.000000 0.000000 0.000000 0.000000 0.000000 0.000000 0.000000 0.000000 0.000000 0.000000 0.000000 0.000000 0.000000 0.000000 0.000000 0.000000 0.000000 0.000000 0.000000 0.000000 0.000000 0.000000 0.000000 0.000000 0.000000 0.000000 0.000000 0.000000 0.000000 0.000000 0.000000 0.000000 0.000000 0.000000 0.000000 0.000000 0.000000 0.000000 0.000000 0.000000 0.000000 0.000000 34.160712 34.160712 34.160712 34.160712 34.160712 34.160712 34.160712 34.160712 34.160712 0.000000 0.000000 0.000000 0.000000 0.000000 0.000000
0.000000 0.000000 0.000000 0.000000 0.000000 0.000000 0.000000 0.000000 0.000000 0.000000 0.000000 0.000000 0.000000 0.000000 0.000000 0.000000 0.000000 0.000000 0.000000 0.000000 0.000000 0.000000 0.000000 0.000000 0.000000 26.385495 26.385495 26.385495 26.385495 26.385495 26.385495 26.385495 0.000000 0.000000 0.000000 0.000000 26.386009 26.386009 26.386009 26.386009 26.386009 26.386009 26.386009 26.386009 0.000000 0.000000 0.000000 0.000000 0.000000 0.000000 0.000000 0.000000 0.000000 0.000000 0.000000 0.000000 0.000000 0.000000 0.000000 0.000000 0.000000 0.000000 0.000000 0.000000 0.000000 0.000000 0.000000 0.000000 0.000000 0.000000 0.000000 0.000000 0.000000 0.000000 0.000000 0.000000 0.000000 0.000000 0.000000 0.000000 0.000000 0.000000 0.000000 0.000000 0.000000 0.000000 0.000000 0.000000 34.160712 34.160712 34.160712 34.160712 34.160712 34.160712 34.160712 34.160712 34.160712 0.000000 0.000000 0.000000 0.000000 0.000000 0.000000
0.000000 0.000000 0.000000 0.000000 0.000000 0.000000 0.000000 0.000000 0.000000 0.000000 0.000000 0.000000 0.000000 0.000000 0.000000 0.000000 0.000000 0.000000 0.000000 0.000000 0.000000 0.000000 0.000000 0.000000 0.000000 26.385495 26.385495 26.385495 26.385495 26.385495 26.385495 26.385495 0.000000 0.000000 0.000000 0.000000 26.386009 26.386009 26.386009 26.386009 26.386009 26.386009 26.386009 26.386009 0.000000 0.000000 0.000000 0.000000 0.000000 0.000000 0.000000 0.000000 0.000000 0.000000 0.000000 0.000000 0.000000 0.000000 0.000000 0.000000 0.000000 0.000000 0.000000 0.000000 0.000000 0.000000 0.000000 0.000000 0.000000 0.000000 0.000000 0.000000 0.000000 0.000000 0.000000 0.000000 0.000000 0.000000 0.000000 0.000000 0.000000 0.000000 0.000000 0.000000 0.000000 0.000000 0.000000 0.000000 0.000000 0.000000 0.000000 0.000000 0.000000 0.000000 0.000000 0.000000 0.000000 0.000000 0.000000 0.000000 0.000000 0.000000 0.000000
0.000000 0.000000 0.000000 0.000000 0.000000 0.000000 21.643476 21.643476 21.643476 21.643476 21.643476 21.643476 21.643476 21.643476 21.643476 21.643476 0.000000 0.000000 0.000000 0.000000 0.000000 0.000000 0.000000 0.000000 0.000000 26.385495 26.385495 26.385495 26.385495 26.385495 26.385495 26.385495 0.000000 0.000000 0.000000 0.000000 26.386009 26.386009 26.386009 26.386009 26.386009 26.386009 26.386009 26.386009 0.000000 0.000000 0.000000 0.000000 0.000000 0.000000 0.000000 0.000000 0.000000 0.000000 0.000000 0.000000 0.000000 0.000000 0.000000 0.000000 0.000000 0.000000 0.000000 0.000000 0.000000 0.000000 0.000000 0.000000 0.000000 0.000000 0.000000 0.000000 0.000000 0.000000 0.000000 0.000000 0.000000 0.000000 0.000000 0.000000 0.000000 0.000000 0.000000 0.000000 0.000000 0.000000 0.000000 0.000000 0.000000 0.000000 0.000000 0.000000 0.000000 0.000000 0.000000 0.000000 0.000000 0.000000 0.000000 0.000000 0.000000 0.000000 0.000000
0.000000 0.000000 0.000000 0.000000 0.000000 0.000000 21.643476 21.643476 21.643476 21.643476 21.643476 21.643476 21.643476 21.643476 21.643476 21.643476 0.000000 0.000000 0.000000 0.000000 0.000000 0.000000 0.000000 0.000000 0.000000 26.385495 26.385495 26.385495 26.385495 26.385495 26.385495 26.385495 0.000000 0.000000 0.000000 0.000000 26.386009 26.386009 26.386009 26.386009 26.386009 26.386009 26.386009 26.386009 0.000000 0.000000 0.000000 0.000000 0.000000 0.000000 0.000000 0.000000 20.227021 20.227021 20.227021 20.227021 20.227021 20.227021 20.227021 20.227021 20.227021 20.227021 0.000000 0.000000 0.000000 0.000000 13.393638 13.393638 13.393638 13.393638 13.393638 13.393638 14.211859 14.211859 14.211859 14.211859 14.211859 14.211859 14.211859 0.000000 0.000000 0.000000 0.000000 0.000000 0.000000 0.000000 0.000000 0.000000 0.000000 0.000000 0.000000 0.000000 0.000000 0.000000 0.000000 0.000000 0.000000 0.000000 0.000000 0.000000 0.000000 0.000000 0.000000
0.000000 0.000000 0.000000 0.000000 0.000000 0.000000 21.643476 21.643476 21.643476 21.643476 21.643476 21.643476 21.643476 21.643476 21.643476 21.643476 0.000000 0.000000 0.000000 0.000000 0.000000 0.000000 0.000000 0.000000 0.000000 26.385495 26.385495 26.385495 26.385495 26.385495 26.385495 26.385495 0.000000 0.000000 0.000000 0.000000 26.386009 26.386009 26.386009 26.386009 26.386009 26.386009 26.386009 26.386009 0.000000 0.000000 0.000000 0.000000 0.000000 0.000000 0.000000 0.000000 20.227021 20.227021 20.227021 20.227021 20.227021 20.227021 20.227021 20.227021 20.227021 20.227021 0.000000 0.000000 0.000000 0.000000 13.393638 13.393638 13.393638 13.393638 13.393638 13.393638 14.211859 14.211859 14.211859 14.211859 14.211859 14.211859 14.211859 0.000000 0.000000 0.000000 0.000000 0.000000 0.000000 0.000000 0.000000 0.000000 16.203806 16.203806 16.203806 16.203806 16.203806 16.203806 16.203806 16.203806 16.203806 0.000000 0.000000 0.000000 0.000000 0.000000 0.000000
0.000000 0.000000 0.000000 0.000000 0.000000 0.000000 21.643476 21.643476 21.643476 21.643476 21.643476 21.643476 21.643476 21.643476 21.643476 21.643476 0.000000 0.000000 0.000000 0.000000 0.000000 0.000000 0.000000 0.000000 0.000000 26.385495 26.385495 26.385495 26.385495 26.385495 26.385495 26.385495 0.000000 0.000000 0.000000 0.000000 26.386009 26.386009 26.386009 26.386009 26.386009 26.386009 26.386009 26.386009 0.000000 0.000000 0.000000 0.000000 0.000000 0.000000 0.000000 0.000000 20.227021 20.227021 20.227021 20.227021 20.227021 20.227021 20.227021 20.227021 20.227021 20.227021 0.000000 0.000000 0.000000 0.000000 13.393638 13.393638 13.393638 13.393638 13.393638 13.393638 14.211859 14.211859 14.211859 14.211859 14.211859 14.211859 14.211859 0.000000 0.000000 0.000000 0.000000 0.000000 0.000000 0.000000 0.000000 0.000000 16.203806 16.203806 16.203806 16.203806 16.203806 16.203806 16.203806 16.203806 16.203806 0.000000 0.000000 0.000000 0.000000 0.000000 0.000000
0.000000 0.000000 0.000000 0.000000 0.000000 0.000000 21.643476 21.643476 21.643476 21.643476 21.643476 21.643476 21.643476 21.643476 21.643476 21.643476 0.000000 0.000000 0.000000 0.000000 0.000000 0.000000 0.000000 0.000000 0.000000 26.385495 26.385495 26.385495 26.385495 26.385495 26.385495 26.385495 0.000000 0.000000 0.000000 0.000000 26.386009 26.386009 26.386009 26.386009 26.386009 26.386009 26.386009 26.386009 0.000000 0.000000 0.000000 0.000000 0.000000 0.000000 0.000000 0.000000 20.227021 20.227021 20.227021 20.227021 20.227021 20.227021 20.227021 20.227021 20.227021 20.227021 0.000000 0.000000 0.000000 0.000000 13.393638 13.393638 13.393638 13.393638 13.393638 13.393638 14.211859 14.211859 14.211859 14.211859 14.211859 14.211859 14.211859 0.000000 0.000000 0.000000 0.000000 0.000000 0.000000 0.000000 0.000000 0.000000 16.203806 16.203806 16.203806 16.203806 16.203806 16.203806 16.203806 16.203806 16.203806 0.000000 0.000000 0.000000 0.000000 0.000000 0.000000
0.000000 0.000000 0.000000 0.000000 0.000000 0.000000 21.643476 21.643476 21.643476 21.643476 21.643476 21.643476 21.643476 21.643476 21.643476 21.643476 0.000000 0.000000 0.000000 0.000000 0.000000 0.000000 0.000000 0.000000 0.000000 26.385495 26.385495 26.385495 26.385495 26.385495 26.385495 26.385495 0.000000 0.000000 0.000000 0.000000 26.386009 26.386009 26.386009 26.386009 26.386009 26.386009 26.386009 26.386009 0.000000 0.000000 0.000000 0.000000 0.000000 0.000000 0.000000 0.000000 20.227021 20.227021 20.227021 20.227021 20.227021 20.227021 20.227021 20.227021 20.227021 20.227021 0.000000 0.000000 0.000000 0.000000 13.393638 13.393638 13.393638 13.393638 13.393638 13.393638 14.211859 14.211859 14.211859 14.211859 14.211859 14.211859 14.211859 0.000000 0.000000 0.000000 0.000000 0.000000 0.000000 0.000000 0.000000 0.000000 16.203806 16.203806 16.203806 16.203806 16.203806 16.203806 16.203806 16.203806 16.203806 0.000000 0.000000 0.000000 0.000000 0.000000 0.000000
0.000000 0.000000 0.000000 0.000000 0.000000 0.000000 21.643476 21.643476 21.643476 21.643476 21.643476 21.643476 21.643476 21.643476 21.643476 21.643476 0.000000 0.000000 0.000000 0.000000 0.000000 0.000000 0.000000 0.000000 0.000000 26.385495 26.385495 26.385495 26.385495 26.385495 26.385495 26.385495 0.000000 0.000000 0.000000 0.000000 26.386009 26.386009 26.386009 26.386009 26.386009 26.386009 26.386009 26.386009 0.000000 0.000000 0.000000 0.000000 0.000000 0.000000 0.000000 0.000000 20.227021 20.227021 20.227021 20.227021 20.227021 20.227021 20.227021 20.227021 20.227021 20.227021 0.000000 0.000000 0.000000 0.000000 13.393638 13.393638 13.393638 13.393638 13.393638 13.393638 14.211859 14.211859 14.211859 14.211859 14.211859 14.211859 14.211859 0.000000 0.000000 0.000000 0.000000 0.000000 0.000000 0.000000 0.000000 0.000000 16.203806 16.203806 16.203806 16.203806 16.203806 16.203806 16.203806 16.203806 16.203806 0.000000 0.000000 0.000000 0.000000 0.000000 0.000000
0.000000 0.000000 0.000000 0.000000 0.000000 0.000000 21.643476 21.643476 21.643476 21.643476 21.643476 21.643476 21.643476 21.643476 21.643476 21.643476 0.000000 0.000000 0.000000 0.000000 0.000000 0.000000 0.000000 0.000000 0.000000 26.385495 26.385495 26.385495 26.385495 26.385495 26.385495 26.385495 0.000000 0.000000 0.000000 0.000000 26.386009 26.386009 26.386009 26.386009 26.386009 26.386009 26.386009 26.386009 0.000000 0.000000 0.000000 0.000000 0.000000 0.000000 0.000000 0.000000 20.227021 20.227021 20.227021 20.227021 20.227021 20.227021 20.227021 20.227021 20.227021 20.227021 0.000000 0.000000 0.000000 0.000000 13.393638 13.393638 13.393638 13.393638 13.393638 13.393638 14.211859 14.211859 14.211859 14.211859 14.211859 14.211859 14.211859 0.000000 0.000000 0.000000 0.000000 0.000000 0.000000 0.000000 0.000000 0.000000 16.203806 16.203806 16.203806 16.203806 16.203806 16.203806 16.203806 16.203806 16.203806 0.000000 0.000000 0.000000 0.000000 0.000000 0.000000
0.000000 0.000000 0.000000 0.000000 0.000000 0.000000 21.643476 21.643476 21.643476 21.643476 21.643476 21.643476 21.643476 21.643476 21.643476 21.643476 0.000000 0.000000 0.000000 0.000000 0.000000 0.000000 0.000000 0.000000 0.000000 26.385495 26.385495 26.385495 26.385495 26.385495 26.385495 26.385495 0.000000 0.000000 0.000000 0.000000 26.386009 26.386009 26.386009 26.386009 26.386009 26.386009 26.386009 26.386009 0.000000 0.000000 0.000000 0.000000 0.000000 0.000000 0.000000 0.000000 20.227021 20.227021 20.227021 20.227021 20.227021 20.227021 20.227021 20.227021 20.227021 20.227021 0.000000 0.000000 0.000000 0.000000 13.393638 13.393638 13.393638 13.393638 13.393638 13.393638 14.211859 14.211859 14.211859 14.211859 14.211859 14.211859 14.211859 0.000000 0.000000 0.000000 0.000000 0.000000 0.000000 0.000000 0.000000 0.000000 16.203806 16.203806 16.203806 16.203806 16.203806 16.203806 16.203806 16.203806 16.203806 0.000000 0.000000 0.000000 0.000000 0.000000 0.000000
0.000000 0.000000 0.000000 0.000000 0.000000 0.000000 21.643476 21.643476 21.643476 21.643476 21.643476 21.643476 21.643476 21.643476 21.643476 21.643476 0.000000 0.000000 0.000000 0.000000 0.000000 0.000000 0.000000 0.000000 0.000000 26.385495 26.385495 26.385495 26.385495 26.385495 26.385495 26.385495 0.000000 0.000000 0.000000 0.000000 26.386009 26.386009 26.386009 26.386009 26.386009 26.386009 26.386009 26.386009 0.000000 0.000000 0.000000 0.000000 0.000000 0.000000 0.000000 0.000000 20.227021 20.227021 20.227021 20.227021 20.227021 20.227021 20.227021 20.227021 20.227021 20.227021 0.000000 0.000000 0.000000 0.000000 13.393638 13.393638 13.393638 13.393638 13.393638 13.393638 14.211859 14.211859 14.211859 14.211859 14.211859 14.211859 14.211859 0.000000 0.000000 0.000000 0.000000 0.000000 0.000000 0.000000 0.000000 0.000000 16.203806 16.203806 16.203806 16.203806 16.203806 16.203806 16.203806 16.203806 16.203806 0.000000 0.000000 0.000000 0.000000 0.000000 0.000000
0.000000 0.000000 0.000000 0.000000 0.000000 0.000000 0.000000 0.000000 0.000000 0.000000 0.000000 0.000000 0.000000 0.000000 0.000000 0.000000 0.000000 0.000000 0.000000 0.000000 0.000000 0.000000 0.000000 0.000000 0.000000 0.000000 0.000000 0.000000 0.000000 0.000000 0.000000 0.000000 0.000000 0.000000 0.000000 0.000000 0.000000 0.000000 0.000000 0.000000 0.000000 0.000000 0.000000 0.000000 0.000000 0.000000 0.000000 0.000000 0.000000 0.000000 0.000000 0.000000 0.000000 0.000000 0.000000 0.000000 0.000000 0.000000 0.000000 0.000000 0.000000 0.000000 0.000000 0.000000 0.000000 0.000000 0.000000 0.000000 0.000000 0.000000 0.000000 0.000000 0.000000 0.000000 0.000000 0.000000 0.000000 0.000000 0.000000 0.000000 0.000000 0.000000 0.000000 0.000000 0.000000 0.000000 0.000000 0.000000 0.000000 0.000000 0.000000 0.000000 0.000000 0.000000 0.000000 0.000000 0.000000 0.000000 0.000000 0.000000 0.000000 0.000000 0.000000
0.000000 0.000000 0.000000 0.000000 0.000000 0.000000 0.000000 0.000000 0.000000 0.000000 0.000000 0.000000 0.000000 0.000000 0.000000 0.000000 0.000000 0.000000 0.000000 0.000000 0.000000 0.000000 0.000000 0.000000 0.000000 0.000000 0.000000 0.000000 0.000000 0.000000 0.000000 0.000000 0.000000 0.000000 0.000000 0.000000 0.000000 0.000000 0.000000 0.000000 0.000000 0.000000 0.000000 0.000000 0.000000 0.000000 0.000000 0.000000 0.000000 0.000000 0.000000 0.000000 0.000000 0.000000 0.000000 0.000000 0.000000 0.000000 0.000000 0.000000 0.000000 0.000000 0.000000 0.000000 0.000000 0.000000 0.000000 0.000000 0.000000 0.000000 0.000000 0.000000 0.000000 0.000000 0.000000 0.000000 0.000000 0.000000 0.000000 0.000000 0.000000 0.000000 0.000000 0.000000 0.000000 0.000000 0.000000 0.000000 0.000000 0.000000 0.000000 0.000000 0.000000 0.000000 0.000000 0.000000 0.000000 0.000000 0.000000 0.000000 0.000000 0.000000 0.000000
0.000000 0.000000 0.000000 0.000000 0.000000 0.000000 0.000000 0.000000 0.000000 0.000000 0.000000 0.000000 0.000000 0.000000 0.000000 0.000000 0.000000 0.000000 0.000000 0.000000 0.000000 0.000000 0.000000 0.000000 0.000000 0.000000 0.000000 0.000000 0.000000 0.000000 0.000000 0.000000 0.000000 0.000000 0.000000 0.000000 0.000000 0.000000 0.000000 0.000000 0.000000 0.000000 0.000000 0.000000 0.000000 0.000000 0.000000 0.000000 0.000000 0.000000 0.000000 0.000000 0.000000 0.000000 0.000000 0.000000 0.000000 0.000000 0.000000 0.000000 0.000000 0.000000 0.000000 0.000000 0.000000 0.000000 0.000000 0.000000 0.000000 0.000000 0.000000 0.000000 0.000000 0.000000 0.000000 0.000000 0.000000 0.000000 0.000000 0.000000 0.000000 0.000000 0.000000 0.000000 0.000000 0.000000 0.000000 0.000000 0.000000 0.000000 0.000000 0.000000 0.000000 0.000000 0.000000 0.000000 0.000000 0.000000 0.000000 0.000000 0.000000 0.000000 0.000000
0.000000 0.000000 0.000000 0.000000 0.000000 0.000000 0.000000 0.000000 0.000000 0.000000 0.000000 0.000000 0.000000 0.000000 0.000000 0.000000 0.000000 0.000000 0.000000 0.000000 0.000000 0.000000 0.000000 0.000000 0.000000 0.000000 0.000000 0.000000 0.000000 0.000000 0.000000 0.000000 0.000000 0.000000 0.000000 0.000000 0.000000 0.000000 0.000000 0.000000 0.000000 0.000000 0.000000 0.000000 0.000000 0.000000 0.000000 0.000000 0.000000 0.000000 0.000000 0.000000 0.000000 0.000000 0.000000 0.000000 0.000000 0.000000 0.000000 0.000000 0.000000 0.000000 0.000000 0.000000 0.000000 0.000000 0.000000 0.000000 0.000000 0.000000 0.000000 0.000000 0.000000 0.000000 0.000000 0.000000 0.000000 0.000000 0.000000 0.000000 0.000000 0.000000 0.000000 0.000000 0.000000 0.000000 0.000000 0.000000 0.000000 0.000000 0.000000 0.000000 0.000000 0.000000 0.000000 0.000000 0.000000 0.000000 0.000000 0.000000 0.000000 0.000000 0.000000
0.000000 0.000000 0.000000 0.000000 0.000000 0.000000 0.000000 0.000000 0.000000 0.000000 0.000000 0.000000 0.000000 0.000000 0.000000 0.000000 0.000000 0.000000 0.000000 0.000000 0.000000 0.000000 0.000000 0.000000 0.000000 0.000000 0.000000 0.000000 0.000000 0.000000 0.000000 0.000000 0.000000 0.000000 0.000000 0.000000 0.000000 0.000000 0.000000 0.000000 0.000000 0.000000 0.000000 0.000000 0.000000 0.000000 0.000000 0.000000 0.000000 0.000000 0.000000 0.000000 0.000000 0.000000 0.000000 0.000000 0.000000 0.000000 0.000000 0.000000 0.000000 0.000000 0.000000 0.000000 0.000000 0.000000 0.000000 0.000000 0.000000 0.000000 0.000000 0.000000 0.000000 0.000000 0.000000 0.000000 0.000000 0.000000 0.000000 0.000000 0.000000 0.000000 0.000000 0.000000 0.000000 0.000000 0.000000 0.000000 0.000000 0.000000 0.000000 0.000000 0.000000 0.000000 0.000000 0.000000 0.000000 0.000000 0.000000 0.000000 0.000000 0.000000 0.000000
0.000000 0.000000 0.000000 0.000000 0.000000 0.000000 0.000000 0.000000 0.000000 0.000000 0.000000 0.000000 0.000000 0.000000 0.000000 0.000000 0.000000 0.000000 0.000000 0.000000 0.000000 0.000000 0.000000 0.000000 0.000000 0.000000 0.000000 0.000000 0.000000 0.000000 0.000000 0.000000 0.000000 0.000000 0.000000 0.000000 0.000000 0.000000 0.000000 0.000000 0.000000 0.000000 0.000000 0.000000 0.000000 0.000000 0.000000 0.000000 0.000000 0.000000 0.000000 0.000000 0.000000 0.000000 0.000000 0.000000 0.000000 0.000000 0.000000 0.000000 0.000000 0.000000 0.000000 0.000000 0.000000 0.000000 0.000000 0.000000 0.000000 0.000000 0.000000 0.000000 0.000000 0.000000 0.000000 0.000000 0.000000 0.000000 0.000000 0.000000 0.000000 0.000000 0.000000 0.000000 0.000000 0.000000 0.000000 0.000000 0.000000 0.000000 0.000000 0.000000 0.000000 0.000000 0.000000 0.000000 0.000000 0.000000 0.000000 0.000000 0.000000 0.000000 0.000000
0.000000 0.000000 0.000000 0.000000 0.000000 0.000000 0.000000 0.000000 0.000000 0.000000 0.000000 11.378819 11.378819 11.378819 11.378819 11.378819 11.378819 11.378819 0.000000 0.000000 0.000000 0.000000 0.000000 0.000000 0.000000 0.000000 0.000000 0.000000 0.000000 0.000000 0.000000 0.000000 0.000000 0.000000 0.000000 0.000000 0.000000 0.000000 0.000000 0.000000 0.000000 0.000000 0.000000 0.000000 0.000000 0.000000 0.000000 0.000000 0.000000 0.000000 0.000000 24.871538 24.871538 24.871538 24.871538 24.871538 24.871538 24.871538 24.871538 24.871538 24.871538 31.422512 31.422512 31.422512 31.422512 31.422512 31.422512 31.422512 31.422512 31.422512 31.422512 31.422512 31.422512 31.422512 16.792525 16.792525 16.792525 16.792525 16.792525 16.792525 16.792525 0.000000 0.000000 0.000000 0.000000 0.000000 12.718213 12.718213 12.718213 12.718213 12.718213 12.718213 12.718213 13.022328 13.022328 13.022328 13.022328 13.022328 13.022328 0.000000 0.000000 0.000000 0.000000
0.000000 0.000000 0.000000 0.000000 0.000000 0.000000 0.000000 0.000000 0.000000 0.000000 0.000000 11.378819 11.378819 11.378819 11.378819 11.378819 11.378819 11.378819 0.000000 0.000000 0.000000 0.000000 0.000000 0.000000 0.000000 0.000000 0.000000 0.000000 0.000000 0.000000 0.000000 0.000000 0.000000 0.000000 0.000000 0.000000 0.000000 0.000000 0.000000 0.000000 0.000000 0.000000 0.000000 0.000000 0.000000 0.000000 0.000000 0.000000 0.000000 0.000000 0.000000 24.871538 24.871538 24.871538 24.871538 24.871538 24.871538 24.871538 24.871538 24.871538 24.871538 31.422512 31.422512 31.422512 31.422512 31.422512 31.422512 31.422512 31.422512 31.422512 31.422512 31.422512 31.422512 31.422512 16.792525 16.792525 16.792525 16.792525 16.792525 16.792525 16.792525 0.000000 0.000000 0.000000 0.000000 0.000000 12.718213 12.718213 12.718213 12.718213 12.718213 12.718213 12.718213 13.022328 13.022328 13.022328 13.022328 13.022328 13.022328 0.000000 0.000000 0.000000 0.000000
0.000000 0.000000 0.000000 0.000000 0.000000 0.000000 0.000000 0.000000 0.000000 0.000000 0.000000 11.378819 11.378819 11.378819 11.378819 11.378819 11.378819 11.378819 0.000000 0.000000 0.000000 0.000000 0.000000 0.000000 0.000000 0.000000 0.000000 0.000000 0.000000 0.000000 0.000000 0.000000 0.000000 0.000000 0.000000 0.000000 0.000000 0.000000 0.000000 0.000000 0.000000 0.000000 0.000000 0.000000 0.000000 0.000000 0.000000 0.000000 0.000000 0.000000 0.000000 24.871538 24.871538 24.871538 24.871538 24.871538 24.871538 24.871538 24.871538 24.871538 24.871538 31.422512 31.422512 31.422512 31.422512 31.422512 31.422512 31.422512 31.422512 31.422512 31.422512 31.422512 31.422512 31.422512 16.792525 16.792525 16.792525 16.792525 16.792525 16.792525 16.792525 0.000000 0.000000 0.000000 0.000000 0.000000 12.718213 12.718213 12.718213 12.718213 12.718213 12.718213 12.718213 13.022328 13.022328 13.022328 13.022328 13.022328 13.022328 0.000000 0.000000 0.000000 0.000000
0.000000 0.000000 0.000000 0.000000 0.000000 0.000000 0.000000 0.000000 0.000000 0.000000 0.000000 11.378819 11.378819 11.378819 11.378819 11.378819 11.378819 11.378819 0.000000 0.000000 0.000000 0.000000 0.000000 0.000000 0.000000 0.000000 0.000000 0.000000 0.000000 0.000000 0.000000 0.000000 0.000000 0.000000 0.000000 0.000000 0.000000 0.000000 0.000000 0.000000 0.000000 0.000000 0.000000 0.000000 0.000000 0.000000 0.000000 0.000000 0.000000 0.000000 0.000000 24.871538 24.871538 24.871538 24.871538 24.871538 24.871538 24.871538 24.871538 24.871538 24.871538 31.422512 31.422512 31.422512 31.422512 31.422512 31.422512 31.422512 31.422512 31.422512 31.422512 31.422512 31.422512 31.422512 16.792525 16.792525 16.792525 16.792525 16.792525 16.792525 16.792525 0.000000 0.000000 0.000000 0.000000 0.000000 12.718213 12.718213 12.718213 12.718213 12.718213 12.718213 12.718213 13.022328 13.022328 13.022328 13.022328 13.022328 13.022328 0.000000 0.000000 0.000000 0.000000
0.000000 0.000000 0.000000 0.000000 0.000000 0.000000 0.000000 0.000000 0.000000 0.000000 0.000000 11.378819 11.378819 11.378819 11.378819 11.378819 11.378819 11.378819 0.000000 0.000000 0.000000 0.000000 0.000000 0.000000 0.000000 0.000000 0.000000 0.000000 0.000000 0.000000 0.000000 0.000000 0.000000 0.000000 0.000000 0.000000 0.000000 0.000000 0.000000 0.000000 0.000000 0.000000 0.000000 0.000000 0.000000 0.000000 0.000000 0.000000 0.000000 0.000000 0.000000 24.871538 24.871538 24.871538 24.871538 24.871538 24.871538 24.871538 24.871538 24.871538 24.871538 31.422512 31.422512 31.422512 31.422512 31.422512 31.422512 31.422512 31.422512 31.422512 31.422512 31.422512 31.422512 31.422512 16.792525 16.792525 16.792525 16.792525 16.792525 16.792525 16.792525 0.000000 0.000000 0.000000 0.000000 0.000000 12.718213 12.718213 12.718213 12.718213 12.718213 12.718213 12.718213 13.022328 13.022328 13.022328 13.022328 13.022328 13.022328 0.000000 0.000000 0.000000 0.000000
0.000000 0.000000 0.000000 0.000000 0.000000 0.000000 0.000000 0.000000 0.000000 0.000000 0.000000 11.378819 11.378819 11.378819 11.378819 11.378819 11.378819 11.378819 0.000000 0.000000 0.000000 0.000000 0.000000 0.000000 0.000000 0.000000 0.000000 0.000000 0.000000 0.000000 0.000000 0.000000 0.000000 0.000000 0.000000 0.000000 0.000000 0.000000 0.000000 0.000000 0.000000 0.000000 0.000000 0.000000 0.000000 0.000000 0.000000 0.000000 0.000000 0.000000 0.000000 24.871538 24.871538 24.871538 24.871538 24.871538 24.871538 24.871538 24.871538 24.871538 24.871538 31.422512 31.422512 31.422512 31.422512 31.422512 31.422512 31.422512 31.422512 31.422512 31.422512 31.422512 31.422512 31.422512 16.792525 16.792525 16.792525 16.792525 16.792525 16.792525 16.792525 0.000000 0.000000 0.000000 0.000000 0.000000 12.718213 12.718213 12.718213 12.718213 12.718213 12.718213 12.718213 13.022328 13.022328 13.022328 13.022328 13.022328 13.022328 0.000000 0.000000 0.000000 0.000000
0.000000 0.000000 0.000000 0.000000 0.000000 0.000000 0.000000 0.000000 0.000000 0.000000 0.000000 11.378819 11.378819 11.378819 11.378819 11.378819 11.378819 11.378819 0.000000 0.000000 0.000000 0.000000 0.000000 0.000000 0.000000 0.000000 0.000000 0.000000 0.000000 0.000000 0.000000 0.000000 0.000000 0.000000 0.000000 0.000000 0.000000 0.000000 0.000000 0.000000 0.000000 0.000000 0.000000 0.000000 0.000000 0.000000 0.000000 0.000000 0.000000 0.000000 0.000000 24.871538 24.871538 24.871538 24.871538 24.871538 24.871538 24.871538 24.871538 24.871538 24.871538 31.422512 31.422512 31.422512 31.422512 31.422512 31.422512 31.422512 31.422512 31.422512 31.422512 31.422512 31.422512 31.422512 16.792525 16.792525 16.792525 16.792525 16.792525 16.792525 16.792525 0.000000 0.000000 0.000000 0.000000 0.000000 12.718213 12.718213 12.718213 12.718213 12.718213 12.718213 12.718213 13.022328 13.022328 13.022328 13.022328 13.022328 13.022328 0.000000 0.000000 0.000000 0.000000
0.000000 0.000000 0.000000 0.000000 0.000000 0.000000 0.000000 0.000000 0.000000 0.000000 0.000000 11.378819 11.378819 11.378819 11.378819 11.378819 11.378819 11.378819 0.000000 0.000000 0.000000 0.000000 0.000000 0.000000 0.000000 0.000000 0.000000 0.000000 0.000000 0.000000 0.000000 0.000000 0.000000 0.000000 0.000000 0.000000 0.000000 0.000000 0.000000 0.000000 0.000000 0.000000 0.000000 0.000000 0.000000 0.000000 0.000000 0.000000 0.000000 0.000000 0.000000 24.871538 24.871538 24.871538 24.871538 24.871538 24.871538 24.871538 24.871538 24.871538 24.871538 31.422512 31.422512 31.422512 31.422512 31.422512 31.422512 31.422512 31.422512 31.422512 31.422512 31.422512 31.422512 31.422512 16.792525 16.792525 16.792525 16.792525 16.792525 16.792525 16.792525 0.000000 0.000000 0.000000 0.000000 0.000000 12.718213 12.718213 12.718213 12.718213 12.718213 12.718213 12.718213 13.022328 13.022328 13.022328 13.022328 13.022328 13.022328 0.000000 0.000000 0.000000 0.000000
0.000000 0.000000 0.000000 0.000000 16.759461 16.759461 16.759461 16.759461 16.759461 16.759461 16.759461 16.349834 16.349834 16.349834 16.349834 16.349834 16.349834 16.349834 0.000000 0.000000 0.000000 0.000000 0.000000 0.000000 0.000000 0.000000 0.000000 0.000000 0.000000 0.000000 0.000000 0.000000 0.000000 15.328175 15.328175 15.328175 15.328175 15.328175 15.328175 16.590959 16.590959 16.590959 16.590959 16.590959 16.590959 16.590959 0.000000 0.000000 0.000000 0.000000 0.000000 24.871538 24.871538 24.871538 24.871538 24.871538 24.871538 24.871538 24.871538 24.871538 24.871538 31.422512 31.422512 31.422512 31.422512 31.422512 31.422512 31.422512 31.422512 31.422512 31.422512 31.422512 31.422512 31.422512 16.792525 16.792525 16.792525 16.792525 16.792525 16.792525 16.792525 0.000000 0.000000 0.000000 0.000000 0.000000 12.718213 12.718213 12.718213 12.718213 12.718213 12.718213 12.718213 13.022328 13.022328 13.022328 13.022328 13.022328 13.022328 0.000000 0.000000 0.000000 0.000000
0.000000 0.000000 0.000000 0.000000 16.759461 16.759461 16.759461 16.759461 16.759461 16.759461 16.759461 16.349834 16.349834 16.349834 16.349834 16.349834 16.349834 16.349834 0.000000 0.000000 0.000000 0.000000 0.000000 0.000000 0.000000 0.000000 0.000000 0.000000 0.000000 0.000000 0.000000 0.000000 0.000000 15.328175 15.328175 15.328175 15.328175 15.328175 15.328175 16.590959 16.590959 16.590959 16.590959 16.590959 16.590959 16.590959 0.000000 0.000000 0.000000 0.000000 0.000000 24.871538 24.871538 24.871538 24.871538 24.871538 24.871538 24.871538 24.871538 24.871538 24.871538 31.422512 31.422512 31.422512 31.422512 31.422512 31.422512 31.422512 31.422512 31.422512 31.422512 31.422512 31.422512 31.422512 16.792525 16.792525 16.792525 16.792525 16.792525 16.792525 16.792525 0.000000 0.000000 0.000000 0.000000 0.000000 14.440945 14.440945 14.440945 14.440945 14.440945 14.440945 14.440945 14.786253 14.786253 14.786253 14.786253 14.786253 14.786253 0.000000 0.000000 0.000000 0.000000
0.000000 0.000000 0.000000 0.000000 16.759461 16.759461 16.759461 16.759461 16.759461 16.759461 16.759461 16.349834 16.349834 16.349834 16.349834 16.349834 16.349834 16.349834 0.000000 0.000000 0.000000 0.000000 0.000000 0.000000 0.000000 0.000000 0.000000 0.000000 0.000000 0.000000 0.000000 0.000000 0.000000 15.328175 15.328175 15.328175 15.328175 15.328175 15.328175 16.590959 16.590959 16.590959 16.590959 16.590959 16.590959 16.590959 0.000000 0.000000 0.000000 0.000000 0.000000 18.498873 18.498873 18.498873 18.498873 18.498873 18.498873 18.498873 18.498873 18.498873 18.498873 23.371336 23.371336 23.371336 23.371336 23.371336 23.371336 23.371336 23.371336 23.371336 23.371336 23.371336 23.371336 23.371336 12.489891 12.489891 12.489891 12.489891 12.489891 12.489891 12.489891 0.000000 0.000000 0.000000 0.000000 0.000000 14.440945 14.440945 14.440945 14.440945 14.440945 14.440945 14.440945 14.786253 14.786253 14.786253 14.786253 14.786253 14.786253 0.000000 0.000000 0.000000 0.000000
0.000000 0.000000 0.000000 0.000000 16.759461 16.759461 16.759461 16.759461 16.759461 16.759461 16.759461 16.349834 16.349834 16.349834 16.349834 16.349834 16.349834 16.349834 0.000000 0.000000 0.000000 0.000000 0.000000 0.000000 0.000000 0.000000 0.000000 0.000000 0.000000 0.000000 0.000000 0.000000 0.000000 15.328175 15.328175 15.328175 15.328175 15.328175 15.328175 16.590959 16.590959 16.590959 16.590959 16.590959 16.590959 16.590959 0.000000 0.000000 0.000000 0.000000 0.000000 18.498873 18.498873 18.498873 18.498873 18.498873 18.498873 18.498873 18.498873 18.498873 18.498873 23.371336 23.371336 23.371336 23.371336 23.371336 23.371336 23.371336 23.371336 23.371336 23.371336 23.371336 23.371336 23.371336 12.489891 12.489891 12.489891 12.489891 12.489891 12.489891 12.489891 0.000000 0.000000 0.000000 0.000000 0.000000 14.440945 14.440945 14.440945 14.440945 14.440945 14.440945 14.440945 14.786253 14.786253 14.786253 14.786253 14.786253 14.786253 0.000000 0.000000 0.000000 0.000000
0.000000 0.000000 0.000000 0.000000 16.759461 16.759461 16.759461 16.759461 16.759461 16.759461 16.759461 16.349834 16.349834 16.349834 16.349834 16.349834 16.349834 16.349834 0.000000 0.000000 0.000000 0.000000 0.000000 0.000000 0.000000 0.000000 0.000000 0.000000 0.000000 0.000000 0.000000 0.000000 0.000000 15.328175 15.328175 15.328175 15.328175 15.328175 15.328175 16.590959 16.590959 16.590959 16.590959 16.590959 16.590959 16.590959 0.000000 0.000000 0.000000 0.000000 0.000000 18.498873 18.498873 18.498873 18.498873 18.498873 18.498873 18.498873 18.498873 18.498873 18.498873 23.371336 23.371336 23.371336 23.371336 23.371336 23.371336 23.371336 23.371336 23.371336 23.371336 23.371336 23.371336 23.371336 12.489891 12.489891 12.489891 12.489891 12.489891 12.489891 12.489891 0.000000 0.000000 0.000000 0.000000 0.000000 14.440945 14.440945 14.440945 14.440945 14.440945 14.440945 14.440945 14.786253 14.786253 14.786253 14.786253 14.786253 14.786253 0.000000 0.000000 0.000000 0.000000
0.000000 0.000000 0.000000 0.000000 16.759461 16.759461 16.759461 16.759461 16.759461 16.759461 16.759461 16.349834 16.349834 16.349834 16.349834 16.349834 16.349834 16.349834 0.000000 0.000000 0.000000 0.000000 0.000000 0.000000 0.000000 0.000000 0.000000 0.000000 0.000000 0.000000 0.000000 0.000000 0.000000 15.328175 15.328175 15.328175 15.328175 15.328175 15.328175 16.590959 16.590959 16.590959 16.590959 16.590959 16.590959 16.590959 0.000000 0.000000 0.000000 0.000000 0.000000 18.498873 18.498873 18.498873 18.498873 18.498873 18.498873 18.498873 18.498873 18.498873 18.498873 23.371336 23.371336 23.371336 23.371336 23.371336 23.371336 23.371336 23.371336 23.371336 23.371336 23.371336 23.371336 23.371336 12.489891 12.489891 12.489891 12.489891 12.489891 12.489891 12.489891 0.000000 0.000000 0.000000 0.000000 0.000000 14.440945 14.440945 14.440945 14.440945 14.440945 14.440945 14.440945 14.786253 14.786253 14.786253 14.786253 14.786253 14.786253 0.000000 0.000000 0.000000 0.000000
0.000000 0.000000 0.000000 0.000000 16.759461 16.759461 16.759461 16.759461 16.759461 16.759461 16.759461 16.349834 16.349834 16.349834 16.349834 16.349834 16.349834 16.349834 0.000000 0.000000 0.000000 0.000000 0.000000 0.000000 0.000000 0.000000 0.000000 0.000000 0.000000 0.000000 0.000000 0.000000 0.000000 15.328175 15.328175 15.328175 15.328175 15.328175 15.328175 16.590959 16.590959 16.590959 16.590959 16.590959 16.590959 16.590959 0.000000 0.000000 0.000000 0.000000 0.000000 18.498873 18.498873 18.498873 18.498873 18.498873 18.498873 18.498873 18.498873 18.498873 18.498873 23.371336 23.371336 23.371336 23.371336 23.371336 23.371336 23.371336 23.371336 23.371336 23.371336 23.371336 23.371336 23.371336 12.489891 12.489891 12.489891 12.489891 12.489891 12.489891 12.489891 0.000000 0.000000 0.000000 0.000000 0.000000 14.440945 14.440945 14.440945 14.440945 14.440945 14.440945 14.440945 14.786253 14.786253 14.786253 14.786253 14.786253 14.786253 0.000000 0.000000 0.000000 0.000000
0.000000 0.000000 0.000000 0.000000 16.759461 16.759461 16.759461 16.759461 16.759461 16.759461 16.759461 16.349834 16.349834 16.349834 16.349834 16.349834 16.349834 16.349834 0.000000 0.000000 0.000000 0.000000 0.000000 0.000000 0.000000 0.000000 0.000000 0.000000 0.000000 0.000000 0.000000 0.000000 0.000000 15.328175 15.328175 15.328175 15.328175 15.328175 15.328175 16.590959 16.590959 16.590959 16.590959 16.590959 16.590959 16.590959 0.000000 0.000000 0.000000 0.000000 0.000000 18.498873 18.498873 18.498873 18.498873 18.498873 18.498873 18.498873 18.498873 18.498873 18.498873 23.371336 23.371336 23.371336 23.371336 23.371336 23.371336 23.371336 23.371336 23.371336 23.371336 23.371336 23.371336 23.371336 12.489891 12.489891 12.489891 12.489891 12.489891 12.489891 12.489891 0.000000 0.000000 0.000000 0.000000 0.000000 14.440945 14.440945 14.440945 14.440945 14.440945 14.440945 14.440945 14.786253 14.786253 14.786253 14.786253 14.786253 14.786253 0.000000 0.000000 0.000000 0.000000
0.000000 0.000000 0.000000 0.000000 16.759461 16.759461 16.759461 16.759461 16.759461 16.759461 16.759461 16.349834 16.349834 16.349834 16.349834 16.349834 16.349834 16.349834 0.000000 0.000000 0.000000 0.000000 0.000000 0.000000 0.000000 0.000000 0.000000 0.000000 0.000000 0.000000 0.000000 0.000000 0.000000 15.328175 15.328175 15.328175 15.328175 15.328175 15.328175 16.590959 16.590959 16.590959 16.590959 16.590959 16.590959 16.590959 0.000000 0.000000 0.000000 0.000000 0.000000 18.498873 18.498873 18.498873 18.498873 18.498873 18.498873 18.498873 18.498873 18.498873 18.498873 23.371336 23.371336 23.371336 23.371336 23.371336 23.371336 23.371336 23.371336 23.371336 23.371336 23.371336 23.371336 23.371336 12.489891 12.489891 12.489891 12.489891 12.489891 12.489891 12.489891 0.000000 0.000000 0.000000 0.000000 0.000000 14.440945 14.440945 14.440945 14.440945 14.440945 14.440945 14.440945 14.786253 14.786253 14.786253 14.786253 14.786253 14.786253 0.000000 0.000000 0.000000 0.000000
0.000000 0.000000 0.000000 0.000000 16.759461 16.759461 16.759461 16.759461 16.759461 16.759461 16.759461 16.349834 16.349834 16.349834 16.349834 16.349834 16.349834 16.349834 0.000000 0.000000 0.000000 0.000000 0.000000 0.000000 0.000000 0.000000 0.000000 0.000000 0.000000 0.000000 0.000000 0.000000 0.000000 15.328175 15.328175 15.328175 15.328175 15.328175 15.328175 16.590959 16.590959 16.590959 16.590959 16.590959 16.590959 16.590959 0.000000 0.000000 0.000000 0.000000 0.000000 18.498873 18.498873 18.498873 18.498873 18.498873 18.498873 18.498873 18.498873 18.498873 18.498873 23.371336 23.371336 23.371336 23.371336 23.371336 23.371336 23.371336 23.371336 23.371336 23.371336 23.371336 23.371336 23.371336 12.489891 12.489891 12.489891 12.489891 12.489891 12.489891 12.489891 0.000000 0.000000 0.000000 0.000000 0.000000 14.440945 14.440945 14.440945 14.440945 14.440945 14.440945 14.440945 14.786253 14.786253 14.786253 14.786253 14.786253 14.786253 0.000000 0.000000 0.000000 0.000000
0.000000 0.000000 0.000000 0.000000 0.000000 0.000000 0.000000 0.000000 0.000000 0.000000 0.000000 0.000000 0.000000 0.000000 0.000000 0.000000 0.000000 0.000000 0.000000 0.000000 0.000000 0.000000 0.000000 0.000000 0.000000 0.000000 0.000000 0.000000 0.000000 0.000000 0.000000 0.000000 0.000000 0.000000 0.000000 0.000000 0.000000 0.000000 0.000000 0.000000 0.000000 0.000000 0.000000 0.000000 0.000000 0.000000 0.000000 0.000000 0.000000 0.000000 0.000000 0.000000 0.000000 0.000000 0.000000 0.000000 0.000000 0.000000 0.000000 0.000000 0.000000 0.000000 0.000000 0.000000 0.000000 0.000000 0.000000 0.000000 0.000000 0.000000 0.000000 0.000000 0.000000 0.000000 0.000000 0.000000 0.000000 0.000000 0.000000 0.000000 0.000000 0.000000 0.000000 0.000000 0.000000 0.000000 0.000000 0.000000 0.000000 0.000000 0.000000 0.000000 0.000000 0.000000 0.000000 0.000000 0.000000 0.000000 0.000000 0.000000 0.000000 0.000000 0.000000
0.000000 0.000000 0.000000 0.000000 0.000000 0.000000 0.000000 0.000000 0.000000 0.000000 0.000000 0.000000 0.000000 0.000000 0.000000 0.000000 0.000000 0.000000 0.000000 0.000000 0.000000 0.000000 0.000000 0.000000 0.000000 0.000000 0.000000 0.000000 0.000000 0.000000 0.000000 0.000000 0.000000 0.000000 0.000000 0.000000 0.000000 0.000000 0.000000 0.000000 0.000000 0.000000 0.000000 0.000000 0.000000 0.000000 0.000000 0.000000 0.000000 0.000000 0.000000 0.000000 0.000000 0.000000 0.000000 0.000000 0.000000 0.000000 0.000000 0.000000 0.000000 0.000000 0.000000 0.000000 0.000000 0.000000 0.000000 0.000000 0.000000 0.000000 0.000000 0.000000 0.000000 0.000000 0.000000 0.000000 0.000000 0.000000 0.000000 0.000000 0.000000 0.000000 0.000000 0.000000 0.000000 0.000000 0.000000 0.000000 0.000000 0.000000 0.000000 0.000000 0.000000 0.000000 0.000000 0.000000 0.000000 0.000000 0.000000 0.000000 0.000000 0.000000 0.000000
0.000000 0.000000 0.000000 0.000000 0.000000 0.000000 0.000000 0.000000 0.000000 0.000000 0.000000 0.000000 0.000000 0.000000 0.000000 0.000000 0.000000 0.000000 0.000000 0.000000 0.000000 0.000000 0.000000 0.000000 0.000000 0.000000 0.000000 0.000000 0.000000 0.000000 0.000000 0.000000 0.000000 0.000000 0.000000 0.000000 0.000000 0.000000 0.000000 0.000000 0.000000 0.000000 0.000000 0.000000 0.000000 0.000000 0.000000 0.000000 0.000000 0.000000 0.000000 0.000000 0.000000 0.000000 0.000000 0.000000 0.000000 0.000000 0.000000 0.000000 0.000000 0.000000 0.000000 0.000000 0.000000 0.000000 0.000000 0.000000 0.000000 0.000000 0.000000 0.000000 0.000000 0.000000 0.000000 0.000000 0.000000 0.000000 0.000000 0.000000 0.000000 0.000000 0.000000 0.000000 0.000000 0.000000 0.000000 0.000000 0.000000 0.000000 0.000000 0.000000 0.000000 0.000000 0.000000 0.000000 0.000000 0.000000 0.000000 0.000000 0.000000 0.000000 0.000000
0.000000 0.000000 0.000000 0.000000 0.000000 0.000000 0.000000 0.000000 0.000000 0.000000 0.000000 0.000000 0.000000 0.000000 0.000000 0.000000 0.000000 0.000000 0.000000 0.000000 0.000000 0.000000 0.000000 0.000000 0.000000 0.000000 0.000000 0.000000 0.000000 0.000000 0.000000 0.000000 0.000000 0.000000 0.000000 0.000000 0.000000 0.000000 0.000000 0.000000 0.000000 0.000000 0.000000 0.000000 0.000000 0.000000 0.000000 0.000000 0.000000 0.000000 0.000000 0.000000 0.000000 0.000000 0.000000 0.000000 0.000000 0.000000 0.000000 0.000000 0.000000 0.000000 0.000000 0.000000 0.000000 0.000000 0.000000 0.000000 0.000000 0.000000 0.000000 0.000000 0.000000 0.000000 0.000000 0.000000 0.000000 0.000000 0.000000 0.000000 0.000000 0.000000 0.000000 0.000000 0.000000 0.000000 0.000000 0.000000 0.000000 0.000000 0.000000 0.000000 0.000000 0.000000 0.000000 0.000000 0.000000 0.000000 0.000000 0.000000 0.000000 0.000000 0.000000
