0.000000 0.000000 0.000000 0.000000 0.000000 0.000000 0.000000 0.000000 0.000000 0.000000 0.000000 0.000000 0.000000 0.000000 0.000000 0.000000 0.000000 0.000000 0.000000 0.000000 0.000000 0.000000 0.000000 0.000000 0.000000 0.000000 0.000000 0.000000 0.000000 0.000000 0.000000 0.000000 0.000000 0.000000 0.000000 0.000000 0.000000 0.000000 0.000000 0.000000 0.000000 0.000000 0.000000 0.000000 0.000000 0.000000 0.000000 0.000000 0.000000 0.000000 0.000000 0.000000 0.000000 0.000000 0.000000 0.000000 0.000000 0.000000 0.000000 0.000000 0.000000 0.000000 0.000000 0.000000 0.000000 0.000000 0.000000 0.000000 0.000000 0.000000 0.000000 0.000000 0.000000 0.000000 0.000000 0.000000 0.000000 0.000000 0.000000 0.000000 0.000000 0.000000 0.000000 0.000000 0.000000 0.000000 0.000000 0.000000 0.000000 0.000000 0.000000 0.000000 0.000000 0.000000 0.000000 0.000000 0.000000 0.000000 0.000000 0.000000 0.000000 0.000000 0.000000
0.000000 0.000000 0.000000 0.000000 0.000000 0.000000 0.000000 0.000000 0.000000 0.000000 0.000000 0.000000 0.000000 0.000000 0.000000 0.000000 0.000000 0.000000 0.000000 0.000000 0.000000 0.000000 0.000000 0.000000 0.000000 0.000000 0.000000 0.000000 0.000000 0.000000 0.000000 0.000000 0.000000 0.000000 0.000000 0.000000 0.000000 0.000000 0.000000 0.000000 0.000000 0.000000 0.000000 0.000000 0.000000 0.000000 0.000000 0.000000 0.000000 0.000000 0.000000 0.000000 0.000000 0.000000 0.000000 0.000000 0.000000 0.000000 0.000000 0.000000 0.000000 0.000000 0.000000 0.000000 0.000000 0.000000 0.000000 0.000000 0.000000 0.000000 0.000000 0.000000 0.000000 0.000000 0.000000 0.000000 0.000000 0.000000 0.000000 0.000000 0.000000 0.000000 0.000000 0.000000 0.000000 0.000000 0.000000 0.000000 0.000000 0.000000 0.000000 0.000000 0.000000 0.000000 0.000000 0.000000 0.000000 0.000000 0.000000 0.000000 0.000000 0.000000 0.000000
0.000000 0.000000 0.000000 0.000000 0.000000 0.000000 0.000000 0.000000 0.000000 0.000000 0.000000 0.000000 0.000000 0.000000 0.000000 0.000000 0.000000 0.000000 0.000000 0.000000 0.000000 0.000000 0.000000 0.000000 0.000000 0.000000 0.000000 0.000000 0.000000 0.000000 0.000000 0.000000 0.000000 0.000000 0.000000 0.000000 0.000000 0.000000 0.000000 0.000000 0.000000 0.000000 0.000000 0.000000 0.000000 0.000000 0.000000 0.000000 0.000000 0.000000 0.000000 0.000000 0.000000 0.000000 0.000000 0.000000 0.000000 0.000000 0.000000 0.000000 0.000000 0.000000 0.000000 0.000000 0.000000 0.000000 0.000000 0.000000 0.000000 0.000000 0.000000 0.000000 0.000000 0.000000 0.000000 0.000000 0.000000 0.000000 0.000000 0.000000 0.000000 0.000000 0.000000 0.000000 0.000000 0.000000 0.000000 0.000000 0.000000 0.000000 0.000000 0.000000 0.000000 0.000000 0.000000 0.000000 0.000000 0.000000 0.000000 0.000000 0.000000 0.000000 0.000000
0.000000 0.000000 0.000000 0.000000 0.000000 0.000000 0.000000 0.000000 0.000000 0.000000 0.000000 0.000000 0.000000 0.000000 0.000000 0.000000 0.000000 0.000000 0.000000 0.000000 0.000000 0.000000 0.000000 0.000000 0.000000 0.000000 0.000000 0.000000 0.000000 0.000000 0.000000 0.000000 0.000000 0.000000 0.000000 0.000000 0.000000 0.000000 0.000000 0.000000 0.000000 0.000000 0.000000 0.000000 0.000000 0.000000 0.000000 0.000000 0.000000 0.000000 0.000000 0.000000 0.000000 0.000000 0.000000 0.000000 0.000000 0.000000 0.000000 0.000000 0.000000 0.000000 0.000000 0.000000 0.000000 0.000000 0.000000 0.000000 0.000000 0.000000 0.000000 0.000000 0.000000 0.000000 0.000000 0.000000 0.000000 0.000000 0.000000 0.000000 0.000000 0.000000 0.000000 0.000000 0.000000 0.000000 0.000000 0.000000 0.000000 0.000000 0.000000 0.000000 0.000000 0.000000 0.000000 0.000000 0.000000 0.000000 0.000000 0.000000 0.000000 0.000000 0.000000
0.000000 0.000000 0.000000 0.000000 0.000000 0.000000 0.000000 0.000000 0.000000 0.000000 0.000000 0.000000 0.000000 0.000000 0.000000 0.000000 0.000000 0.000000 0.000000 0.000000 17.203630 17.203630 17.203630 17.203630 17.203630 17.203630 17.203630 17.203630 0.000000 0.000000 0.000000 0.000000 0.000000 0.000000 0.000000 0.000000 0.000000 0.000000 0.000000 0.000000 0.000000 0.000000 0.000000 0.000000 0.000000 0.000000 0.000000 0.000000 0.000000 0.000000 0.000000 0.000000 0.000000 0.000000 0.000000 0.000000 0.000000 0.000000 0.000000 0.000000 0.000000 0.000000 0.000000 0.000000 0.000000 0.000000 0.000000 0.000000 0.000000 0.000000 0.000000 0.000000 0.000000 0.000000 0.000000 0.000000 0.000000 0.000000 0.000000 0.000000 0.000000 0.000000 0.000000 0.000000 0.000000 0.000000 0.000000 0.000000 0.000000 0.000000 0.000000 0.000000 0.000000 0.000000 0.000000 0.000000 0.000000 0.000000 0.000000 0.000000 0.000000 0.000000 0.000000
0.000000 0.000000 0.000000 0.000000 0.000000 0.000000 0.000000 0.000000 0.000000 0.000000 0.000000 0.000000 0.000000 0.000000 0.000000 0.000000 0.000000 0.000000 0.000000 0.000000 17.203630 17.203630 17.203630 17.203630 17.203630 17.203630 17.203630 17.203630 0.000000 0.000000 0.000000 0.000000 0.000000 0.000000 0.000000 0.000000 0.000000 0.000000 0.000000 0.000000 0.000000 0.000000 0.000000 0.000000 0.000000 0.000000 0.000000 0.000000 0.000000 0.000000 0.000000 0.000000 0.000000 0.000000 0.000000 0.000000 0.000000 0.000000 0.000000 0.000000 0.000000 0.000000 0.000000 0.000000 0.000000 0.000000 0.000000 0.000000 0.000000 0.000000 0.000000 0.000000 0.000000 0.000000 0.000000 0.000000 0.000000 0.000000 0.000000 0.000000 0.000000 0.000000 0.000000 0.000000 0.000000 0.000000 0.000000 0.000000 0.000000 0.000000 0.000000 0.000000 0.000000 0.000000 0.000000 0.000000 0.000000 0.000000 0.000000 0.000000 0.000000 0.000000 0.000000
0.000000 0.000000 0.000000 0.000000 0.000000 0.000000 0.000000 0.000000 0.000000 0.000000 0.000000 0.000000 0.000000 0.000000 0.000000 4.605561 4.605561 4.605561 0.000000 0.000000 17.203630 17.203630 17.203630 17.203630 17.203630 17.203630 17.203630 17.203630 0.000000 0.000000 0.000000 0.000000 0.000000 0.000000 0.000000 0.000000 0.000000 0.000000 0.000000 0.000000 0.000000 0.000000 0.000000 0.000000 0.000000 0.000000 0.000000 0.000000 0.000000 0.000000 0.000000 0.000000 0.000000 0.000000 0.000000 0.000000 0.000000 0.000000 0.000000 0.000000 0.000000 0.000000 0.000000 0.000000 15.434929 15.434929 15.434929 15.434929 15.434929 15.434929 15.434929 0.000000 0.000000 0.000000 0.000000 0.000000 0.000000 0.000000 0.000000 0.000000 20.922723 20.922723 20.922723 20.922723 20.922723 20.922723 20.922723 0.000000 0.000000 0.000000 0.000000 0.000000 0.000000 0.000000 0.000000 0.000000 0.000000 0.000000 0.000000 0.000000 0.000000 0.000000 0.000000
0.000000 0.000000 0.000000 0.000000 0.000000 0.000000 0.000000 0.000000 0.000000 0.000000 0.000000 0.000000 0.000000 0.000000 0.000000 4.605561 4.605561 4.605561 0.000000 0.000000 17.203630 17.203630 17.203630 17.203630 17.203630 17.203630 17.203630 17.203630 0.000000 0.000000 0.000000 0.000000 0.000000 0.000000 0.000000 0.000000 0.000000 0.000000 0.000000 0.000000 0.000000 0.000000 0.000000 0.000000 0.000000 0.000000 0.000000 0.000000 0.000000 0.000000 0.000000 0.000000 0.000000 0.000000 0.000000 0.000000 0.000000 0.000000 0.000000 0.000000 0.000000 0.000000 0.000000 0.000000 15.434929 15.434929 15.434929 15.434929 15.434929 15.434929 15.434929 0.000000 0.000000 0.000000 0.000000 0.000000 0.000000 0.000000 0.000000 0.000000 20.922723 20.922723 20.922723 20.922723 20.922723 20.922723 20.922723 0.000000 0.000000 0.000000 0.000000 0.000000 0.000000 0.000000 0.000000 0.000000 0.000000 0.000000 0.000000 0.000000 0.000000 0.000000 0.000000
0.000000 0.000000 0.000000 0.000000 0.000000 0.000000 0.000000 0.000000 0.000000 0.000000 0.000000 0.000000 0.000000 0.000000 0.000000 4.605561 4.605561 4.605561 0.000000 0.000000 17.203630 17.203630 17.203630 17.203630 17.203630 17.203630 17.203630 17.203630 0.000000 0.000000 0.000000 0.000000 0.000000 0.000000 0.000000 0.000000 0.000000 0.000000 0.000000 0.000000 0.000000 0.000000 0.000000 0.000000 0.000000 0.000000 0.000000 0.000000 0.000000 0.000000 0.000000 0.000000 0.000000 0.000000 0.000000 0.000000 0.000000 0.000000 0.000000 0.000000 0.000000 0.000000 0.000000 0.000000 15.434929 15.434929 15.434929 15.434929 15.434929 15.434929 15.434929 0.000000 0.000000 0.000000 0.000000 0.000000 0.000000 0.000000 0.000000 0.000000 20.922723 20.922723 20.922723 20.922723 20.922723 20.922723 20.922723 0.000000 0.000000 0.000000 0.000000 0.000000 0.000000 0.000000 0.000000 0.000000 0.000000 0.000000 0.000000 0.000000 0.000000 0.000000 0.000000
0.000000 0.000000 0.000000 0.000000 0.000000 0.000000 0.000000 0.000000 0.000000 0.000000 0.000000 0.000000 0.000000 0.000000 0.000000 4.605561 4.605561 4.605561 0.000000 0.000000 17.203630 17.203630 17.203630 17.203630 17.203630 17.203630 17.203630 17.203630 0.000000 0.000000 0.000000 0.000000 0.000000 0.000000 0.000000 0.000000 0.000000 0.000000 0.000000 0.000000 0.000000 0.000000 0.000000 0.000000 0.000000 0.000000 0.000000 0.000000 0.000000 0.000000 0.000000 0.000000 0.000000 0.000000 0.000000 0.000000 0.000000 0.000000 0.000000 0.000000 0.000000 0.000000 0.000000 0.000000 15.434929 15.434929 15.434929 15.434929 15.434929 15.434929 15.434929 0.000000 0.000000 0.000000 0.000000 0.000000 0.000000 0.000000 0.000000 0.000000 20.922723 20.922723 20.922723 20.922723 20.922723 20.922723 20.922723 0.000000 0.000000 0.000000 0.000000 0.000000 0.000000 0.000000 0.000000 0.000000 0.000000 0.000000 0.000000 0.000000 0.000000 0.000000 0.000000
0.000000 0.000000 0.000000 0.000000 0.000000 0.000000 0.000000 0.000000 0.000000 0.000000 0.000000 0.000000 0.000000 0.000000 0.000000 4.605561 4.605561 4.605561 0.000000 0.000000 17.203630 17.203630 17.203630 17.203630 17.203630 17.203630 17.203630 17.203630 0.000000 0.000000 0.000000 0.000000 0.000000 0.000000 0.000000 0.000000 0.000000 0.000000 0.000000 0.000000 0.000000 0.000000 0.000000 0.000000 0.000000 0.000000 0.000000 0.000000 0.000000 0.000000 0.000000 0.000000 0.000000 0.000000 0.000000 0.000000 0.000000 0.000000 0.000000 0.000000 0.000000 0.000000 0.000000 0.000000 15.434929 15.434929 15.434929 15.434929 15.434929 15.434929 15.434929 0.000000 0.000000 0.000000 0.000000 0.000000 0.000000 0.000000 0.000000 0.000000 20.922723 20.922723 20.922723 20.922723 20.922723 20.922723 20.922723 0.000000 0.000000 0.000000 0.000000 0.000000 0.000000 0.000000 0.000000 0.000000 0.000000 0.000000 0.000000 0.000000 0.000000 0.000000 0.000000
0.000000 0.000000 0.000000 0.000000 0.000000 0.000000 0.000000 0.000000 0.000000 0.000000 0.000000 0.000000 0.000000 0.000000 0.000000 0.000000 0.000000 0.000000 0.000000 0.000000 17.203630 17.203630 17.203630 17.203630 17.203630 17.203630 17.203630 17.203630 0.000000 0.000000 0.000000 0.000000 0.000000 0.000000 0.000000 0.000000 0.000000 0.000000 0.000000 0.000000 0.000000 0.000000 0.000000 0.000000 0.000000 0.000000 0.000000 0.000000 0.000000 0.000000 0.000000 0.000000 0.000000 0.000000 0.000000 0.000000 0.000000 0.000000 0.000000 0.000000 0.000000 0.000000 0.000000 0.000000 15.434929 15.434929 15.434929 15.434929 15.434929 15.434929 15.434929 0.000000 0.000000 0.000000 0.000000 0.000000 0.000000 0.000000 0.000000 0.000000 20.922723 20.922723 20.922723 20.922723 20.922723 20.922723 20.922723 0.000000 0.000000 0.000000 0.000000 0.000000 0.000000 0.000000 0.000000 0.000000 0.000000 0.000000 0.000000 0.000000 0.000000 0.000000 0.000000
0.000000 0.000000 0.000000 0.000000 0.000000 0.000000 0.000000 0.000000 0.000000 0.000000 0.000000 0.000000 0.000000 0.000000 0.000000 0.000000 0.000000 0.000000 0.000000 0.000000 17.203630 17.203630 17.203630 17.203630 17.203630 17.203630 17.203630 17.203630 0.000000 0.000000 0.000000 0.000000 0.000000 0.000000 0.000000 0.000000 0.000000 0.000000 0.000000 0.000000 0.000000 0.000000 0.000000 0.000000 0.000000 0.000000 0.000000 0.000000 0.000000 0.000000 0.000000 0.000000 0.000000 0.000000 0.000000 0.000000 0.000000 0.000000 0.000000 0.000000 0.000000 0.000000 0.000000 0.000000 15.434929 15.434929 15.434929 15.434929 15.434929 15.434929 15.434929 0.000000 0.000000 0.000000 0.000000 0.000000 0.000000 0.000000 0.000000 0.000000 20.922723 20.922723 20.922723 20.922723 20.922723 20.922723 20.922723 0.000000 0.000000 0.000000 0.000000 0.000000 0.000000 0.000000 0.000000 0.000000 0.000000 0.000000 0.000000 0.000000 0.000000 0.000000 0.000000
0.000000 0.000000 0.000000 0.000000 0.000000 0.000000 0.000000 0.000000 0.000000 0.000000 0.000000 0.000000 0.000000 0.000000 0.000000 0.000000 0.000000 0.000000 0.000000 0.000000 0.000000 0.000000 0.000000 0.000000 0.000000 0.000000 0.000000 0.000000 0.000000 0.000000 0.000000 0.000000 0.000000 0.000000 0.000000 0.000000 0.000000 0.000000 0.000000 0.000000 0.000000 0.000000 0.000000 0.000000 0.000000 0.000000 0.000000 0.000000 0.000000 0.000000 0.000000 0.000000 0.000000 0.000000 0.000000 0.000000 0.000000 0.000000 0.000000 0.000000 0.000000 0.000000 0.000000 0.000000 15.434929 15.434929 15.434929 15.434929 15.434929 15.434929 15.434929 0.000000 0.000000 0.000000 0.000000 0.000000 0.000000 0.000000 0.000000 0.000000 20.922723 20.922723 20.922723 20.922723 20.922723 20.922723 20.922723 0.000000 0.000000 0.000000 0.000000 0.000000 0.000000 0.000000 0.000000 0.000000 0.000000 0.000000 0.000000 0.000000 0.000000 0.000000 0.000000
0.000000 0.000000 0.000000 0.000000 0.000000 0.000000 0.000000 0.000000 0.000000 0.000000 0.000000 0.000000 0.000000 0.000000 0.000000 0.000000 0.000000 0.000000 0.000000 0.000000 0.000000 0.000000 0.000000 0.000000 0.000000 0.000000 0.000000 0.000000 0.000000 0.000000 0.000000 0.000000 0.000000 0.000000 0.000000 0.000000 0.000000 0.000000 0.000000 0.000000 0.000000 0.000000 0.000000 0.000000 0.000000 0.000000 0.000000 0.000000 0.000000 0.000000 0.000000 0.000000 0.000000 0.000000 0.000000 0.000000 0.000000 0.000000 0.000000 0.000000 0.000000 0.000000 0.000000 0.000000 15.434929 15.434929 15.434929 15.434929 15.434929 15.434929 15.434929 0.000000 0.000000 0.000000 0.000000 0.000000 0.000000 0.000000 0.000000 0.000000 20.922723 20.922723 20.922723 20.922723 20.922723 20.922723 20.922723 0.000000 0.000000 0.000000 0.000000 0.000000 0.000000 0.000000 0.000000 0.000000 0.000000 0.000000 0.000000 0.000000 0.000000 0.000000 0.000000
0.000000 0.000000 0.000000 0.000000 0.000000 0.000000 0.000000 0.000000 0.000000 0.000000 0.000000 0.000000 0.000000 0.000000 0.000000 2.198672 2.198672 2.198672 0.000000 0.000000 0.000000 0.000000 2.519674 2.519674 2.519674 2.519674 0.000000 0.000000 0.000000 0.000000 0.000000 0.000000 0.000000 18.779126 18.779126 18.779126 18.779126 18.779126 18.779126 18.779126 18.779126 18.779126 18.779126 0.000000 0.000000 0.000000 0.000000 0.000000 0.000000 0.000000 0.000000 0.000000 0.000000 0.000000 0.000000 0.000000 0.000000 0.000000 0.000000 0.000000 0.000000 0.000000 0.000000 0.000000 0.000000 0.000000 0.000000 0.000000 0.000000 0.000000 0.000000 0.000000 0.000000 0.000000 0.000000 0.000000 0.000000 0.000000 0.000000 0.000000 20.922723 20.922723 20.922723 20.922723 20.922723 20.922723 20.922723 0.000000 0.000000 0.000000 0.000000 0.000000 0.000000 0.000000 0.000000 0.000000 0.000000 0.000000 0.000000 0.000000 0.000000 0.000000 0.000000
0.000000 0.000000 0.000000 0.000000 0.000000 0.000000 0.000000 0.000000 0.000000 0.000000 0.000000 0.000000 0.000000 0.000000 0.000000 2.198672 2.198672 2.198672 0.000000 0.000000 0.000000 0.000000 2.519674 2.519674 2.519674 2.519674 0.000000 0.000000 0.000000 0.000000 0.000000 0.000000 0.000000 18.779126 18.779126 18.779126 18.779126 18.779126 18.779126 18.779126 18.779126 18.779126 18.779126 0.000000 0.000000 0.000000 0.000000 0.000000 0.000000 0.000000 0.000000 0.000000 0.000000 0.000000 0.000000 0.000000 0.000000 0.000000 0.000000 0.000000 0.000000 0.000000 0.000000 0.000000 0.000000 0.000000 0.000000 0.000000 0.000000 0.000000 0.000000 0.000000 0.000000 0.000000 0.000000 0.000000 0.000000 0.000000 0.000000 0.000000 20.922723 20.922723 20.922723 20.922723 20.922723 20.922723 20.922723 0.000000 0.000000 0.000000 0.000000 0.000000 0.000000 0.000000 0.000000 0.000000 0.000000 0.000000 0.000000 0.000000 0.000000 0.000000 0.000000
0.000000 0.000000 0.000000 0.000000 0.000000 0.000000 0.000000 0.000000 0.000000 0.000000 0.000000 0.000000 0.000000 0.000000 0.000000 2.198672 2.198672 2.198672 0.000000 0.000000 0.000000 0.000000 2.519674 2.519674 2.519674 2.519674 0.000000 0.000000 0.000000 0.000000 0.000000 0.000000 0.000000 18.779126 18.779126 18.779126 18.779126 18.779126 18.779126 18.779126 18.779126 18.779126 18.779126 0.000000 0.000000 0.000000 0.000000 0.000000 0.000000 0.000000 0.000000 0.000000 0.000000 0.000000 0.000000 0.000000 0.000000 0.000000 0.000000 0.000000 0.000000 0.000000 0.000000 0.000000 0.000000 0.000000 0.000000 0.000000 0.000000 0.000000 0.000000 0.000000 0.000000 0.000000 0.000000 0.000000 0.000000 0.000000 0.000000 0.000000 20.922723 20.922723 20.922723 20.922723 20.922723 20.922723 20.922723 0.000000 0.000000 0.000000 0.000000 0.000000 0.000000 0.000000 0.000000 0.000000 0.000000 0.000000 0.000000 0.000000 0.000000 0.000000 0.000000
0.000000 0.000000 0.000000 0.000000 0.000000 0.000000 0.000000 0.000000 0.000000 0.000000 0.000000 0.000000 0.000000 0.000000 0.000000 0.000000 0.000000 0.000000 0.000000 0.000000 0.000000 0.000000 0.000000 0.000000 0.000000 0.000000 0.000000 0.000000 0.000000 0.000000 0.000000 0.000000 0.000000 18.779126 18.779126 18.779126 18.779126 18.779126 18.779126 18.779126 18.779126 18.779126 18.779126 0.000000 0.000000 0.000000 0.000000 0.000000 0.000000 0.000000 25.311453 25.311453 25.311453 25.311453 25.311453 25.311453 25.311453 25.311453 25.311453 25.311453 0.000000 0.000000 0.000000 0.000000 17.747716 17.747716 17.747716 17.747716 17.747716 17.747716 17.747716 0.000000 0.000000 0.000000 0.000000 0.000000 0.000000 0.000000 0.000000 0.000000 0.000000 0.000000 0.000000 0.000000 0.000000 0.000000 0.000000 0.000000 0.000000 0.000000 0.000000 0.000000 0.000000 0.000000 0.000000 0.000000 0.000000 0.000000 0.000000 0.000000 0.000000 0.000000 0.000000
0.000000 0.000000 0.000000 0.000000 22.811180 22.811180 22.811180 22.811180 22.811180 22.811180 22.811180 22.811180 22.811180 0.000000 0.000000 0.000000 0.000000 0.000000 0.000000 0.000000 0.000000 0.000000 0.000000 0.000000 0.000000 0.000000 0.000000 0.000000 0.000000 0.000000 0.000000 0.000000 0.000000 18.779126 18.779126 18.779126 18.779126 18.779126 18.779126 18.779126 18.779126 18.779126 18.779126 0.000000 0.000000 0.000000 0.000000 0.000000 0.000000 0.000000 25.311453 25.311453 25.311453 25.311453 25.311453 25.311453 25.311453 25.311453 25.311453 25.311453 0.000000 0.000000 0.000000 0.000000 17.747716 17.747716 17.747716 17.747716 17.747716 17.747716 17.747716 0.000000 0.000000 0.000000 0.000000 0.000000 0.000000 0.000000 0.000000 0.000000 0.000000 0.000000 0.000000 0.000000 0.000000 0.000000 0.000000 0.000000 0.000000 0.000000 0.000000 0.000000 0.000000 0.000000 0.000000 0.000000 0.000000 0.000000 0.000000 0.000000 0.000000 0.000000 0.000000
0.000000 0.000000 0.000000 0.000000 22.811180 22.811180 22.811180 22.811180 22.811180 22.811180 22.811180 22.811180 22.811180 0.000000 0.000000 0.000000 0.000000 0.000000 0.000000 0.000000 0.000000 0.000000 0.000000 0.000000 0.000000 0.000000 0.000000 0.000000 0.000000 0.000000 0.000000 0.000000 0.000000 18.779126 18.779126 18.779126 18.779126 18.779126 18.779126 18.779126 18.779126 18.779126 18.779126 0.000000 0.000000 0.000000 0.000000 0.000000 0.000000 0.000000 25.311453 25.311453 25.311453 25.311453 25.311453 25.311453 25.311453 25.311453 25.311453 25.311453 0.000000 0.000000 0.000000 0.000000 17.747716 17.747716 17.747716 17.747716 17.747716 17.747716 17.747716 0.000000 0.000000 0.000000 0.000000 0.000000 0.000000 0.000000 0.000000 0.000000 0.000000 0.000000 0.000000 0.000000 0.000000 0.000000 0.000000 0.000000 0.000000 0.000000 0.000000 0.000000 0.000000 0.000000 0.000000 0.000000 0.000000 0.000000 0.000000 0.000000 0.000000 0.000000 0.000000
0.000000 0.000000 0.000000 0.000000 22.811180 22.811180 22.811180 22.811180 22.811180 22.811180 22.811180 22.811180 22.811180 0.000000 0.000000 0.000000 0.000000 0.000000 0.000000 0.000000 0.000000 0.000000 0.000000 0.000000 0.000000 0.000000 0.000000 0.000000 0.000000 0.000000 0.000000 0.000000 0.000000 18.779126 18.779126 18.779126 18.779126 18.779126 18.779126 18.779126 18.779126 18.779126 18.779126 0.000000 0.000000 0.000000 0.000000 0.000000 0.000000 0.000000 25.311453 25.311453 25.311453 25.311453 25.311453 25.311453 25.311453 25.311453 25.311453 25.311453 0.000000 0.000000 0.000000 0.000000 17.747716 17.747716 17.747716 17.747716 17.747716 17.747716 17.747716 0.000000 0.000000 0.000000 0.000000 0.000000 0.000000 0.000000 0.000000 0.000000 0.000000 0.000000 0.000000 0.000000 0.000000 0.000000 0.000000 0.000000 0.000000 0.000000 0.000000 0.000000 0.000000 0.000000 0.000000 0.000000 0.000000 0.000000 0.000000 0.000000 0.000000 0.000000 0.000000
0.000000 0.000000 0.000000 0.000000 22.811180 22.811180 22.811180 22.811180 22.811180 22.811180 22.811180 22.811180 22.811180 0.000000 0.000000 0.000000 0.000000 0.000000 0.000000 0.000000 0.000000 0.000000 0.000000 0.000000 0.000000 0.000000 0.000000 0.000000 0.000000 0.000000 0.000000 0.000000 0.000000 18.779126 18.779126 18.779126 18.779126 18.779126 18.779126 18.779126 18.779126 18.779126 18.779126 0.000000 0.000000 0.000000 0.000000 0.000000 0.000000 0.000000 25.311453 25.311453 25.311453 25.311453 25.311453 25.311453 25.311453 25.311453 25.311453 25.311453 0.000000 0.000000 0.000000 0.000000 17.747716 17.747716 17.747716 17.747716 17.747716 17.747716 17.747716 0.000000 0.000000 0.000000 0.000000 0.000000 0.000000 0.000000 0.000000 0.000000 0.000000 0.000000 0.000000 0.000000 0.000000 0.000000 0.000000 0.000000 0.000000 0.000000 0.000000 0.000000 0.000000 0.000000 0.000000 0.000000 0.000000 0.000000 0.000000 0.000000 0.000000 0.000000 0.000000
0.000000 0.000000 0.000000 0.000000 22.811180 22.811180 22.811180 22.811180 22.811180 22.811180 22.811180 22.811180 22.811180 0.000000 0.000000 0.000000 0.000000 0.000000 0.000000 0.000000 0.000000 0.000000 0.000000 0.000000 0.000000 0.000000 0.000000 0.000000 0.000000 0.000000 0.000000 0.000000 0.000000 18.994586 18.994586 18.994586 18.994586 18.994586 18.994586 18.994586 18.994586 18.994586 18.994586 0.000000 0.000000 0.000000 0.000000 0.000000 0.000000 0.000000 25.311453 25.311453 25.311453 25.311453 25.311453 25.311453 25.311453 25.311453 25.311453 25.311453 0.000000 0.000000 0.000000 0.000000 17.747716 17.747716 17.747716 17.747716 17.747716 17.747716 17.747716 0.000000 0.000000 0.000000 0.000000 0.000000 0.000000 0.000000 0.000000 0.000000 0.000000 0.000000 0.000000 0.000000 0.000000 0.000000 0.000000 0.000000 0.000000 0.000000 0.000000 0.000000 0.000000 0.000000 0.000000 0.000000 0.000000 0.000000 0.000000 0.000000 0.000000 0.000000 0.000000
0.000000 0.000000 0.000000 0.000000 22.811180 22.811180 22.811180 22.811180 22.811180 22.811180 22.811180 22.811180 22.811180 0.000000 0.000000 0.000000 0.000000 0.000000 0.000000 0.000000 0.000000 0.000000 0.000000 0.000000 0.000000 0.000000 0.000000 0.000000 0.000000 0.000000 0.000000 0.000000 0.000000 18.994586 18.994586 18.994586 18.994586 18.994586 18.994586 18.994586 18.994586 18.994586 18.994586 0.000000 0.000000 0.000000 0.000000 0.000000 0.000000 0.000000 25.311453 25.311453 25.311453 25.311453 25.311453 25.311453 25.311453 25.311453 25.311453 25.311453 0.000000 0.000000 0.000000 0.000000 17.747716 17.747716 17.747716 17.747716 17.747716 17.747716 17.747716 0.000000 0.000000 0.000000 0.000000 0.000000 0.000000 0.000000 0.000000 0.000000 0.000000 0.000000 0.000000 0.000000 0.000000 0.000000 0.000000 0.000000 0.000000 0.000000 0.000000 0.000000 0.000000 0.000000 0.000000 0.000000 0.000000 0.000000 0.000000 0.000000 0.000000 0.000000 0.000000
0.000000 0.000000 0.000000 0.000000 22.811180 22.811180 22.811180 22.811180 22.811180 22.811180 22.811180 22.811180 22.811180 0.000000 0.000000 0.000000 0.000000 0.000000 0.000000 0.000000 0.000000 0.000000 0.000000 0.000000 0.000000 0.000000 0.000000 0.000000 0.000000 0.000000 0.000000 0.000000 0.000000 18.994586 18.994586 18.994586 18.994586 18.994586 18.994586 18.994586 18.994586 18.994586 18.994586 0.000000 0.000000 0.000000 0.000000 0.000000 0.000000 0.000000 25.311453 25.311453 25.311453 25.311453 25.311453 25.311453 25.311453 25.311453 25.311453 25.311453 0.000000 0.000000 0.000000 0.000000 17.747716 17.747716 17.747716 17.747716 17.747716 17.747716 17.747716 0.000000 0.000000 0.000000 0.000000 0.000000 0.000000 0.000000 0.000000 0.000000 0.000000 0.000000 0.000000 0.000000 0.000000 0.000000 0.000000 0.000000 0.000000 0.000000 0.000000 0.000000 0.000000 0.000000 0.000000 0.000000 0.000000 0.000000 0.000000 0.000000 0.000000 0.000000 0.000000
0.000000 0.000000 0.000000 0.000000 22.811180 22.811180 22.811180 22.811180 22.811180 22.811180 22.811180 22.811180 22.811180 0.000000 0.000000 0.000000 0.000000 0.000000 0.000000 0.000000 0.000000 0.000000 0.000000 0.000000 0.000000 0.000000 0.000000 0.000000 0.000000 0.000000 0.000000 0.000000 0.000000 18.994586 18.994586 18.994586 18.994586 18.994586 18.994586 18.994586 18.994586 18.994586 18.994586 0.000000 0.000000 0.000000 0.000000 0.000000 0.000000 0.000000 25.311453 25.311453 25.311453 25.311453 25.311453 25.311453 25.311453 25.311453 25.311453 25.311453 0.000000 0.000000 0.000000 0.000000 17.747716 17.747716 17.747716 17.747716 17.747716 17.747716 17.747716 0.000000 0.000000 0.000000 0.000000 0.000000 0.000000 0.000000 0.000000 0.000000 0.000000 0.000000 0.000000 0.000000 0.000000 0.000000 0.000000 0.000000 0.000000 0.000000 0.000000 0.000000 0.000000 0.000000 0.000000 0.000000 0.000000 0.000000 0.000000 0.000000 0.000000 0.000000 0.000000
0.000000 0.000000 0.000000 0.000000 22.811180 22.811180 22.811180 22.811180 22.811180 22.811180 22.811180 22.811180 22.811180 0.000000 0.000000 0.000000 0.000000 0.000000 0.000000 0.000000 0.000000 0.000000 0.000000 0.000000 0.000000 0.000000 0.000000 0.000000 0.000000 0.000000 0.000000 0.000000 0.000000 18.994586 18.994586 18.994586 18.994586 18.994586 18.994586 18.994586 18.994586 18.994586 18.994586 0.000000 0.000000 0.000000 0.000000 0.000000 0.000000 0.000000 25.311453 25.311453 25.311453 25.311453 25.311453 25.311453 25.311453 25.311453 25.311453 25.311453 0.000000 0.000000 0.000000 0.000000 17.747716 17.747716 17.747716 17.747716 17.747716 17.747716 17.747716 0.000000 0.000000 0.000000 0.000000 0.000000 0.000000 0.000000 0.000000 0.000000 0.000000 0.000000 0.000000 0.000000 0.000000 0.000000 0.000000 0.000000 0.000000 0.000000 0.000000 0.000000 0.000000 0.000000 0.000000 0.000000 0.000000 0.000000 0.000000 0.000000 0.000000 0.000000 0.000000
0.000000 0.000000 0.000000 0.000000 22.811180 22.811180 22.811180 22.811180 22.811180 22.811180 22.811180 22.811180 22.811180 0.000000 0.000000 0.000000 0.000000 0.000000 0.000000 0.000000 0.000000 0.000000 0.000000 0.000000 0.000000 0.000000 0.000000 0.000000 0.000000 0.000000 0.000000 0.000000 0.000000 18.994586 18.994586 18.994586 18.994586 18.994586 18.994586 18.994586 18.994586 18.994586 18.994586 0.000000 0.000000 0.000000 0.000000 0.000000 0.000000 0.000000 25.311453 25.311453 25.311453 25.311453 25.311453 25.311453 25.311453 25.311453 25.311453 25.311453 0.000000 0.000000 0.000000 0.000000 17.747716 17.747716 17.747716 17.747716 17.747716 17.747716 17.747716 0.000000 0.000000 0.000000 0.000000 0.000000 0.000000 0.000000 0.000000 0.000000 0.000000 0.000000 0.000000 0.000000 0.000000 0.000000 0.000000 0.000000 0.000000 0.000000 0.000000 0.000000 0.000000 0.000000 0.000000 0.000000 0.000000 0.000000 0.000000 0.000000 0.000000 0.000000 0.000000
0.000000 0.000000 0.000000 0.000000 22.811180 22.811180 22.811180 22.811180 22.811180 22.811180 22.811180 22.811180 22.811180 0.000000 0.000000 0.000000 0.000000 0.000000 0.000000 0.000000 0.000000 0.000000 0.000000 0.000000 0.000000 0.000000 0.000000 0.000000 0.000000 0.000000 0.000000 0.000000 0.000000 18.994586 18.994586 18.994586 18.994586 18.994586 18.994586 18.994586 18.994586 18.994586 18.994586 0.000000 0.000000 0.000000 0.000000 0.000000 0.000000 0.000000 0.000000 0.000000 0.000000 0.000000 0.000000 0.000000 0.000000 0.000000 0.000000 0.000000 0.000000 0.000000 0.000000 0.000000 0.000000 0.000000 0.000000 0.000000 0.000000 0.000000 0.000000 0.000000 0.000000 0.000000 0.000000 0.000000 0.000000 0.000000 0.000000 0.000000 0.000000 0.000000 0.000000 0.000000 0.000000 0.000000 0.000000 0.000000 0.000000 0.000000 0.000000 0.000000 0.000000 0.000000 0.000000 0.000000 0.000000 0.000000 0.000000 0.000000 0.000000 0.000000 0.000000
0.000000 0.000000 0.000000 0.000000 22.811180 22.811180 22.811180 22.811180 22.811180 22.811180 22.811180 22.811180 22.811180 0.000000 0.000000 0.000000 0.000000 0.000000 0.000000 0.000000 0.000000 0.000000 0.000000 0.000000 0.000000 0.000000 0.000000 0.000000 0.000000 0.000000 0.000000 0.000000 0.000000 18.994586 18.994586 18.994586 18.994586 18.994586 18.994586 18.994586 18.994586 18.994586 18.994586 0.000000 0.000000 0.000000 0.000000 0.000000 0.000000 0.000000 0.000000 0.000000 0.000000 0.000000 0.000000 0.000000 0.000000 0.000000 0.000000 0.000000 0.000000 0.000000 0.000000 0.000000 0.000000 0.000000 0.000000 0.000000 0.000000 0.000000 0.000000 0.000000 0.000000 0.000000 0.000000 0.000000 0.000000 0.000000 0.000000 0.000000 0.000000 0.000000 0.000000 0.000000 0.000000 0.000000 0.000000 0.000000 0.000000 0.000000 0.000000 0.000000 0.000000 0.000000 0.000000 0.000000 0.000000 0.000000 0.000000 0.000000 0.000000 0.000000 0.000000
0.000000 0.000000 0.000000 0.000000 0.000000 0.000000 0.000000 0.000000 0.000000 0.000000 0.000000 0.000000 0.000000 0.000000 0.000000 0.000000 0.000000 0.000000 0.000000 0.000000 0.000000 0.000000 0.000000 0.000000 0.000000 0.000000 0.000000 0.000000 0.000000 0.000000 0.000000 0.000000 0.000000 0.000000 0.000000 0.000000 0.000000 0.000000 0.000000 0.000000 0.000000 0.000000 0.000000 0.000000 0.000000 0.000000 0.000000 0.000000 0.000000 0.000000 0.000000 0.000000 0.000000 0.000000 0.000000 0.000000 0.000000 0.000000 0.000000 0.000000 0.000000 0.000000 0.000000 0.000000 0.000000 0.000000 0.000000 0.000000 0.000000 0.000000 0.000000 0.000000 0.000000 0.000000 0.000000 0.000000 0.000000 0.000000 0.000000 0.000000 0.000000 0.000000 0.000000 0.000000 0.000000 0.000000 0.000000 0.000000 0.000000 0.000000 0.000000 0.000000 0.000000 0.000000 0.000000 0.000000 0.000000 0.000000 0.000000 0.000000 0.000000 0.000000 0.000000
0.000000 0.000000 0.000000 0.000000 0.000000 0.000000 0.000000 0.000000 0.000000 0.000000 0.000000 0.000000 0.000000 0.000000 0.000000 0.000000 0.000000 0.000000 0.000000 0.000000 0.000000 0.000000 0.000000 0.000000 0.000000 0.000000 0.000000 0.000000 0.000000 0.000000 0.000000 0.000000 0.000000 0.000000 0.000000 0.000000 0.000000 0.000000 0.000000 0.000000 0.000000 0.000000 0.000000 0.000000 0.000000 0.000000 0.000000 0.000000 0.000000 0.000000 0.000000 0.000000 0.000000 0.000000 0.000000 0.000000 0.000000 0.000000 0.000000 0.000000 0.000000 0.000000 0.000000 0.000000 0.000000 0.000000 0.000000 0.000000 0.000000 0.000000 0.000000 0.000000 0.000000 0.000000 0.000000 0.000000 0.000000 0.000000 0.000000 0.000000 0.000000 0.000000 0.000000 0.000000 0.000000 0.000000 0.000000 0.000000 0.000000 0.000000 0.000000 0.000000 0.000000 0.000000 0.000000 0.000000 0.000000 0.000000 0.000000 0.000000 0.000000 0.000000 0.000000
0.000000 0.000000 0.000000 0.000000 0.000000 0.000000 0.000000 0.000000 0.000000 0.000000 0.000000 0.000000 0.000000 0.000000 0.000000 0.000000 0.000000 0.000000 0.000000 0.000000 0.000000 0.000000 0.000000 0.000000 0.000000 0.000000 0.000000 0.000000 0.000000 0.000000 0.000000 0.000000 0.000000 0.000000 0.000000 0.000000 0.000000 0.000000 0.000000 0.000000 0.000000 0.000000 0.000000 0.000000 0.000000 0.000000 0.000000 0.000000 0.000000 0.000000 0.000000 0.000000 0.000000 0.000000 0.000000 0.000000 0.000000 0.000000 0.000000 0.000000 0.000000 0.000000 0.000000 0.000000 0.000000 0.000000 0.000000 0.000000 0.000000 0.000000 0.000000 0.000000 0.000000 0.000000 0.000000 0.000000 0.000000 0.000000 0.000000 0.000000 0.000000 0.000000 0.000000 0.000000 0.000000 0.000000 0.000000 0.000000 0.000000 0.000000 0.000000 0.000000 0.000000 0.000000 0.000000 0.000000 0.000000 0.000000 0.000000 0.000000 0.000000 0.000000 0.000000
0.000000 0.000000 0.000000 0.000000 0.000000 0.000000 0.000000 0.000000 0.000000 0.000000 0.000000 0.000000 0.000000 0.000000 0.000000 0.000000 0.000000 0.000000 0.000000 0.000000 0.000000 0.000000 0.000000 0.000000 0.000000 0.000000 0.000000 0.000000 0.000000 0.000000 0.000000 0.000000 0.000000 0.000000 0.000000 0.000000 0.000000 0.000000 0.000000 0.000000 0.000000 0.000000 0.000000 0.000000 0.000000 0.000000 0.000000 0.000000 0.000000 0.000000 0.000000 0.000000 0.000000 0.000000 0.000000 0.000000 0.000000 0.000000 0.000000 0.000000 0.000000 0.000000 0.000000 0.000000 0.000000 0.000000 0.000000 0.000000 0.000000 0.000000 0.000000 0.000000 0.000000 0.000000 0.000000 0.000000 0.000000 0.000000 0.000000 0.000000 0.000000 0.000000 0.000000 0.000000 0.000000 0.000000 0.000000 0.000000 0.000000 0.000000 0.000000 0.000000 0.000000 0.000000 0.000000 0.000000 0.000000 0.000000 0.000000 0.000000 0.000000 0.000000 0.000000
0.000000 0.000000 0.000000 0.000000 0.000000 0.000000 0.000000 0.000000 0.000000 0.000000 0.000000 0.000000 0.000000 0.000000 0.000000 0.000000 0.000000 0.000000 0.000000 0.000000 0.000000 0.000000 0.000000 0.000000 0.000000 0.000000 0.000000 0.000000 0.000000 0.000000 0.000000 0.000000 0.000000 0.000000 0.000000 0.000000 0.000000 0.000000 0.000000 0.000000 0.000000 0.000000 0.000000 0.000000 0.000000 0.000000 0.000000 0.000000 0.000000 0.000000 0.000000 0.000000 0.000000 0.000000 0.000000 0.000000 0.000000 0.000000 0.000000 0.000000 0.000000 0.000000 0.000000 0.000000 0.000000 0.000000 0.000000 0.000000 0.000000 0.000000 0.000000 0.000000 0.000000 0.000000 0.000000 0.000000 0.000000 0.000000 0.000000 0.000000 0.000000 0.000000 0.000000 0.000000 0.000000 0.000000 0.000000 0.000000 0.000000 0.000000 0.000000 0.000000 0.000000 0.000000 0.000000 0.000000 0.000000 0.000000 0.000000 0.000000 0.000000 0.000000 0.000000
0.000000 0.000000 0.000000 0.000000 0.000000 0.000000 0.000000 0.000000 0.000000 0.000000 0.000000 0.000000 0.000000 0.000000 0.000000 0.000000 0.000000 0.000000 0.000000 0.000000 0.000000 0.000000 0.000000 0.000000 0.000000 0.000000 0.000000 0.000000 0.000000 0.000000 0.000000 0.000000 0.000000 0.000000 0.000000 0.000000 0.000000 0.000000 0.000000 0.000000 0.000000 0.000000 0.000000 0.000000 0.000000 0.000000 0.000000 0.000000 0.000000 0.000000 0.000000 0.000000 0.000000 0.000000 0.000000 0.000000 0.000000 0.000000 0.000000 0.000000 0.000000 0.000000 0.000000 0.000000 0.000000 0.000000 0.000000 0.000000 0.000000 0.000000 0.000000 0.000000 0.000000 0.000000 0.000000 0.000000 0.000000 0.000000 0.000000 0.000000 0.000000 0.000000 0.000000 0.000000 0.000000 0.000000 0.000000 0.000000 0.000000 0.000000 0.000000 0.000000 0.000000 17.187728 17.187728 17.187728 17.187728 17.187728 17.187728 0.000000 0.000000 0.000000 0.000000
0.000000 0.000000 0.000000 0.000000 0.000000 0.000000 30.445503 30.445503 30.445503 30.445503 30.445503 30.445503 30.445503 30.445503 30.445503 30.445503 0.000000 0.000000 0.000000 0.000000 19.681832 19.681832 19.681832 19.681832 19.681832 19.681832 0.000000 0.000000 0.000000 0.000000 0.000000 0.000000 0.000000 0.000000 0.000000 9.985742 9.985742 9.985742 9.985742 9.985742 9.985742 0.000000 0.000000 0.000000 0.000000 0.000000 0.000000 0.000000 0.000000 0.000000 0.000000 0.000000 0.000000 0.000000 0.000000 0.000000 0.000000 0.000000 0.000000 0.000000 0.000000 0.000000 0.000000 0.000000 0.000000 15.067249 15.067249 15.067249 15.067249 15.067249 15.067249 0.000000 0.000000 0.000000 0.000000 0.000000 0.000000 0.000000 0.000000 0.000000 0.000000 0.000000 0.000000 0.000000 0.000000 0.000000 0.000000 0.000000 0.000000 0.000000 0.000000 0.000000 0.000000 17.187728 17.187728 17.187728 17.187728 17.187728 17.187728 0.000000 0.000000 0.000000 0.000000
0.000000 0.000000 0.000000 0.000000 0.000000 0.000000 30.445503 30.445503 30.445503 30.445503 30.445503 30.445503 30.445503 30.445503 30.445503 30.445503 0.000000 0.000000 0.000000 0.000000 19.681832 19.681832 19.681832 19.681832 19.681832 19.681832 0.000000 0.000000 0.000000 0.000000 0.000000 0.000000 0.000000 0.000000 0.000000 9.985742 9.985742 9.985742 9.985742 9.985742 9.985742 0.000000 0.000000 0.000000 0.000000 0.000000 0.000000 0.000000 0.000000 0.000000 0.000000 0.000000 0.000000 0.000000 0.000000 0.000000 0.000000 0.000000 0.000000 0.000000 0.000000 0.000000 0.000000 0.000000 0.000000 15.067249 15.067249 15.067249 15.067249 15.067249 15.067249 0.000000 0.000000 0.000000 0.000000 0.000000 0.000000 0.000000 0.000000 0.000000 0.000000 0.000000 0.000000 0.000000 0.000000 0.000000 0.000000 0.000000 0.000000 0.000000 0.000000 0.000000 0.000000 17.187728 17.187728 17.187728 17.187728 17.187728 17.187728 0.000000 0.000000 0.000000 0.000000
0.000000 0.000000 0.000000 0.000000 0.000000 0.000000 30.445503 30.445503 30.445503 30.445503 30.445503 30.445503 30.445503 30.445503 30.445503 30.445503 0.000000 0.000000 0.000000 0.000000 19.681832 19.681832 19.681832 19.681832 19.681832 19.681832 0.000000 0.000000 0.000000 0.000000 0.000000 0.000000 0.000000 0.000000 0.000000 9.985742 9.985742 9.985742 9.985742 9.985742 9.985742 0.000000 0.000000 0.000000 0.000000 0.000000 0.000000 0.000000 0.000000 0.000000 0.000000 0.000000 0.000000 0.000000 0.000000 0.000000 0.000000 0.000000 0.000000 0.000000 0.000000 0.000000 0.000000 0.000000 0.000000 15.067249 15.067249 15.067249 15.067249 15.067249 15.067249 0.000000 0.000000 0.000000 0.000000 0.000000 0.000000 0.000000 0.000000 0.000000 0.000000 0.000000 0.000000 0.000000 0.000000 0.000000 0.000000 0.000000 0.000000 0.000000 0.000000 0.000000 0.000000 17.187728 17.187728 17.187728 17.187728 17.187728 17.187728 0.000000 0.000000 0.000000 0.000000
0.000000 0.000000 0.000000 0.000000 0.000000 0.000000 30.445503 30.445503 30.445503 30.445503 30.445503 30.445503 30.445503 30.445503 30.445503 30.445503 0.000000 0.000000 0.000000 0.000000 19.681832 19.681832 19.681832 19.681832 19.681832 19.681832 0.000000 0.000000 0.000000 0.000000 0.000000 0.000000 0.000000 0.000000 0.000000 9.985742 9.985742 9.985742 9.985742 9.985742 9.985742 0.000000 0.000000 0.000000 0.000000 0.000000 0.000000 0.000000 0.000000 0.000000 0.000000 0.000000 0.000000 0.000000 0.000000 0.000000 0.000000 0.000000 0.000000 0.000000 0.000000 0.000000 0.000000 0.000000 0.000000 15.067249 15.067249 15.067249 15.067249 15.067249 15.067249 0.000000 0.000000 0.000000 0.000000 0.000000 0.000000 0.000000 0.000000 0.000000 0.000000 0.000000 0.000000 0.000000 0.000000 0.000000 0.000000 0.000000 0.000000 0.000000 0.000000 0.000000 0.000000 17.187728 17.187728 17.187728 17.187728 17.187728 17.187728 0.000000 0.000000 0.000000 0.000000
0.000000 0.000000 0.000000 0.000000 0.000000 0.000000 30.445503 30.445503 30.445503 30.445503 30.445503 30.445503 30.445503 30.445503 30.445503 30.445503 0.000000 0.000000 0.000000 0.000000 19.681832 19.681832 19.681832 19.681832 19.681832 19.681832 0.000000 0.000000 0.000000 0.000000 0.000000 0.000000 0.000000 0.000000 0.000000 9.985742 9.985742 9.985742 9.985742 9.985742 9.985742 0.000000 0.000000 0.000000 0.000000 0.000000 0.000000 0.000000 0.000000 0.000000 0.000000 0.000000 0.000000 0.000000 0.000000 0.000000 0.000000 0.000000 0.000000 0.000000 0.000000 0.000000 0.000000 0.000000 0.000000 15.067249 15.067249 15.067249 15.067249 15.067249 15.067249 0.000000 0.000000 0.000000 0.000000 0.000000 0.000000 0.000000 0.000000 0.000000 0.000000 0.000000 0.000000 0.000000 0.000000 0.000000 0.000000 0.000000 0.000000 0.000000 0.000000 0.000000 0.000000 17.187728 17.187728 17.187728 17.187728 17.187728 17.187728 0.000000 0.000000 0.000000 0.000000
0.000000 0.000000 0.000000 0.000000 0.000000 0.000000 30.445503 30.445503 30.445503 30.445503 30.445503 30.445503 30.445503 30.445503 30.445503 30.445503 0.000000 0.000000 0.000000 0.000000 19.681832 19.681832 19.681832 19.681832 19.681832 19.681832 0.000000 0.000000 0.000000 0.000000 0.000000 0.000000 0.000000 0.000000 0.000000 9.985742 9.985742 9.985742 9.985742 9.985742 9.985742 0.000000 0.000000 0.000000 0.000000 0.000000 0.000000 0.000000 0.000000 0.000000 0.000000 0.000000 0.000000 0.000000 0.000000 0.000000 0.000000 0.000000 0.000000 0.000000 0.000000 0.000000 0.000000 0.000000 0.000000 15.067249 15.067249 15.067249 15.067249 15.067249 15.067249 0.000000 0.000000 0.000000 0.000000 0.000000 0.000000 0.000000 0.000000 0.000000 0.000000 0.000000 0.000000 0.000000 0.000000 0.000000 0.000000 0.000000 0.000000 0.000000 0.000000 0.000000 0.000000 17.187728 17.187728 17.187728 17.187728 17.187728 17.187728 0.000000 0.000000 0.000000 0.000000
0.000000 0.000000 0.000000 0.000000 0.000000 0.000000 30.445503 30.445503 30.445503 30.445503 30.445503 30.445503 30.445503 30.445503 30.445503 30.445503 0.000000 0.000000 0.000000 0.000000 19.681832 19.681832 19.681832 19.681832 19.681832 19.681832 0.000000 0.000000 0.000000 0.000000 0.000000 0.000000 0.000000 0.000000 0.000000 9.985742 9.985742 9.985742 9.985742 9.985742 9.985742 0.000000 0.000000 0.000000 0.000000 0.000000 0.000000 0.000000 0.000000 0.000000 0.000000 0.000000 0.000000 0.000000 0.000000 0.000000 0.000000 0.000000 0.000000 0.000000 0.000000 0.000000 0.000000 0.000000 0.000000 15.067249 15.067249 15.067249 15.067249 15.067249 15.067249 0.000000 0.000000 0.000000 0.000000 0.000000 0.000000 0.000000 0.000000 0.000000 0.000000 0.000000 0.000000 0.000000 0.000000 0.000000 0.000000 0.000000 0.000000 0.000000 0.000000 0.000000 0.000000 17.187728 17.187728 17.187728 17.187728 17.187728 17.187728 0.000000 0.000000 0.000000 0.000000
0.000000 0.000000 0.000000 0.000000 0.000000 0.000000 30.445503 30.445503 30.445503 30.445503 30.445503 30.445503 30.445503 30.445503 30.445503 30.445503 0.000000 0.000000 0.000000 0.000000 19.681832 19.681832 19.681832 19.681832 19.681832 19.681832 0.000000 0.000000 0.000000 0.000000 0.000000 0.000000 0.000000 0.000000 0.000000 0.000000 0.000000 0.000000 0.000000 0.000000 0.000000 0.000000 0.000000 0.000000 0.000000 0.000000 0.000000 0.000000 0.000000 0.000000 0.000000 0.000000 0.000000 0.000000 0.000000 0.000000 0.000000 0.000000 0.000000 0.000000 0.000000 0.000000 0.000000 0.000000 0.000000 15.067249 15.067249 15.067249 15.067249 15.067249 15.067249 0.000000 0.000000 0.000000 0.000000 0.000000 0.000000 0.000000 0.000000 0.000000 0.000000 0.000000 0.000000 0.000000 0.000000 0.000000 0.000000 0.000000 0.000000 0.000000 0.000000 0.000000 0.000000 17.187728 17.187728 17.187728 17.187728 17.187728 17.187728 0.000000 0.000000 0.000000 0.000000
0.000000 0.000000 0.000000 0.000000 0.000000 0.000000 30.445503 30.445503 30.445503 30.445503 30.445503 30.445503 30.445503 30.445503 30.445503 30.445503 0.000000 0.000000 0.000000 0.000000 19.681832 19.681832 19.681832 19.681832 19.681832 19.681832 0.000000 0.000000 0.000000 0.000000 0.000000 0.000000 0.000000 0.000000 0.000000 0.000000 0.000000 0.000000 0.000000 0.000000 0.000000 0.000000 0.000000 0.000000 0.000000 0.000000 0.000000 0.000000 0.000000 0.000000 0.000000 0.000000 0.000000 0.000000 0.000000 0.000000 0.000000 0.000000 0.000000 0.000000 0.000000 0.000000 0.000000 0.000000 0.000000 15.067249 15.067249 15.067249 15.067249 15.067249 15.067249 0.000000 0.000000 0.000000 0.000000 0.000000 0.000000 0.000000 0.000000 0.000000 0.000000 0.000000 0.000000 0.000000 0.000000 0.000000 0.000000 0.000000 0.000000 0.000000 0.000000 0.000000 0.000000 17.187728 17.187728 17.187728 17.187728 17.187728 17.187728 0.000000 0.000000 0.000000 0.000000
0.000000 0.000000 0.000000 0.000000 0.000000 0.000000 30.445503 30.445503 30.445503 30.445503 30.445503 30.445503 30.445503 30.445503 30.445503 30.445503 0.000000 0.000000 0.000000 0.000000 19.681832 19.681832 19.681832 19.681832 19.681832 19.681832 0.000000 0.000000 0.000000 0.000000 0.000000 0.000000 0.000000 0.000000 0.000000 0.000000 0.000000 0.000000 0.000000 0.000000 0.000000 0.000000 0.000000 0.000000 0.000000 0.000000 0.000000 0.000000 0.000000 0.000000 0.000000 0.000000 0.000000 0.000000 0.000000 0.000000 0.000000 0.000000 0.000000 0.000000 0.000000 0.000000 0.000000 0.000000 0.000000 15.067249 15.067249 15.067249 15.067249 15.067249 15.067249 0.000000 0.000000 0.000000 0.000000 0.000000 0.000000 0.000000 0.000000 0.000000 0.000000 0.000000 0.000000 0.000000 0.000000 0.000000 0.000000 0.000000 0.000000 0.000000 0.000000 0.000000 0.000000 17.187728 17.187728 17.187728 17.187728 17.187728 17.187728 0.000000 0.000000 0.000000 0.000000
0.000000 0.000000 0.000000 0.000000 0.000000 0.000000 30.445503 30.445503 30.445503 30.445503 30.445503 30.445503 30.445503 30.445503 30.445503 30.445503 0.000000 0.000000 0.000000 0.000000 19.681832 19.681832 19.681832 19.681832 19.681832 19.681832 0.000000 0.000000 0.000000 0.000000 0.000000 0.000000 0.000000 0.000000 0.000000 0.000000 0.000000 0.000000 0.000000 0.000000 0.000000 0.000000 0.000000 0.000000 0.000000 0.000000 0.000000 0.000000 0.000000 0.000000 0.000000 0.000000 0.000000 0.000000 0.000000 0.000000 0.000000 0.000000 0.000000 0.000000 0.000000 0.000000 0.000000 0.000000 0.000000 0.000000 0.000000 0.000000 0.000000 0.000000 0.000000 0.000000 0.000000 0.000000 0.000000 0.000000 0.000000 0.000000 0.000000 0.000000 0.000000 0.000000 0.000000 0.000000 0.000000 0.000000 0.000000 0.000000 0.000000 0.000000 0.000000 0.000000 0.000000 0.000000 0.000000 0.000000 0.000000 0.000000 0.000000 0.000000 0.000000 0.000000 0.000000
0.000000 0.000000 0.000000 0.000000 0.000000 0.000000 30.445503 30.445503 30.445503 30.445503 30.445503 30.445503 30.445503 30.445503 30.445503 30.445503 0.000000 0.000000 0.000000 0.000000 19.681832 19.681832 19.681832 19.681832 19.681832 19.681832 0.000000 0.000000 0.000000 0.000000 0.000000 0.000000 0.000000 0.000000 0.000000 0.000000 0.000000 0.000000 0.000000 0.000000 0.000000 0.000000 0.000000 0.000000 0.000000 0.000000 0.000000 0.000000 0.000000 0.000000 0.000000 0.000000 0.000000 0.000000 0.000000 0.000000 0.000000 0.000000 0.000000 0.000000 0.000000 0.000000 0.000000 0.000000 0.000000 0.000000 0.000000 0.000000 0.000000 0.000000 0.000000 0.000000 0.000000 0.000000 0.000000 0.000000 0.000000 0.000000 0.000000 0.000000 5.592050 5.592050 5.592050 5.592050 5.592050 0.000000 0.000000 0.000000 3.008600 3.008600 3.008600 0.000000 0.000000 0.000000 0.000000 3.189582 3.189582 0.000000 0.000000 0.000000 0.000000 0.000000 0.000000
0.000000 0.000000 0.000000 0.000000 0.000000 0.000000 30.445503 30.445503 30.445503 30.445503 30.445503 30.445503 30.445503 30.445503 30.445503 30.445503 0.000000 0.000000 0.000000 0.000000 19.681832 19.681832 19.681832 19.681832 19.681832 19.681832 0.000000 0.000000 0.000000 0.000000 0.000000 0.000000 0.000000 0.000000 0.000000 0.000000 0.000000 0.000000 0.000000 0.000000 0.000000 0.000000 0.000000 0.000000 0.000000 0.000000 0.000000 0.000000 0.000000 0.000000 0.000000 0.000000 0.000000 0.000000 0.000000 0.000000 0.000000 0.000000 0.000000 0.000000 0.000000 0.000000 0.000000 0.000000 0.000000 0.000000 0.000000 0.000000 0.000000 0.000000 0.000000 0.000000 0.000000 0.000000 0.000000 0.000000 0.000000 0.000000 0.000000 0.000000 5.592050 5.592050 5.592050 5.592050 5.592050 0.000000 0.000000 0.000000 3.008600 3.008600 3.008600 0.000000 0.000000 0.000000 0.000000 3.189582 3.189582 0.000000 0.000000 0.000000 0.000000 0.000000 0.000000
0.000000 0.000000 0.000000 0.000000 0.000000 0.000000 0.000000 0.000000 0.000000 0.000000 0.000000 0.000000 0.000000 0.000000 0.000000 0.000000 0.000000 0.000000 0.000000 0.000000 0.000000 0.000000 0.000000 0.000000 0.000000 0.000000 0.000000 0.000000 0.000000 0.000000 0.000000 0.000000 0.000000 0.000000 0.000000 0.000000 0.000000 0.000000 0.000000 0.000000 0.000000 0.000000 0.000000 0.000000 0.000000 0.000000 0.000000 0.000000 0.000000 0.000000 0.000000 0.000000 0.000000 0.000000 0.000000 0.000000 0.000000 0.000000 0.000000 0.000000 0.000000 0.000000 0.000000 0.000000 0.000000 0.000000 0.000000 0.000000 0.000000 0.000000 0.000000 0.000000 0.000000 0.000000 0.000000 0.000000 0.000000 0.000000 0.000000 0.000000 5.592050 5.592050 5.592050 5.592050 5.592050 0.000000 0.000000 0.000000 3.008600 3.008600 3.008600 0.000000 0.000000 0.000000 0.000000 3.189582 3.189582 0.000000 0.000000 0.000000 0.000000 0.000000 0.000000
0.000000 0.000000 0.000000 0.000000 0.000000 0.000000 0.000000 0.000000 0.000000 0.000000 0.000000 0.000000 0.000000 0.000000 0.000000 0.000000 0.000000 0.000000 0.000000 0.000000 0.000000 0.000000 0.000000 0.000000 0.000000 0.000000 0.000000 0.000000 0.000000 0.000000 0.000000 0.000000 0.000000 0.000000 0.000000 0.000000 0.000000 0.000000 0.000000 0.000000 0.000000 0.000000 0.000000 0.000000 0.000000 0.000000 0.000000 0.000000 0.000000 0.000000 29.574926 29.574926 29.574926 29.574926 29.574926 29.574926 29.574926 29.574926 29.574926 29.574926 29.574926 0.000000 0.000000 0.000000 0.000000 17.115022 17.115022 17.115022 17.115022 17.115022 17.115022 0.000000 0.000000 0.000000 0.000000 0.000000 0.000000 0.000000 0.000000 0.000000 5.592050 5.592050 5.592050 5.592050 5.592050 0.000000 0.000000 0.000000 3.008600 3.008600 3.008600 0.000000 0.000000 0.000000 0.000000 3.189582 3.189582 0.000000 0.000000 0.000000 0.000000 0.000000 0.000000
0.000000 0.000000 0.000000 0.000000 0.000000 0.000000 0.000000 0.000000 0.000000 0.000000 0.000000 0.000000 0.000000 0.000000 0.000000 0.000000 0.000000 0.000000 0.000000 0.000000 0.000000 0.000000 0.000000 0.000000 0.000000 0.000000 0.000000 0.000000 0.000000 0.000000 0.000000 0.000000 0.000000 0.000000 0.000000 0.000000 0.000000 0.000000 0.000000 0.000000 0.000000 0.000000 0.000000 0.000000 0.000000 0.000000 0.000000 0.000000 0.000000 0.000000 29.574926 29.574926 29.574926 29.574926 29.574926 29.574926 29.574926 29.574926 29.574926 29.574926 29.574926 0.000000 0.000000 0.000000 0.000000 17.115022 17.115022 17.115022 17.115022 17.115022 17.115022 0.000000 0.000000 0.000000 0.000000 0.000000 0.000000 0.000000 0.000000 0.000000 5.592050 5.592050 5.592050 5.592050 5.592050 0.000000 0.000000 0.000000 3.008600 3.008600 3.008600 0.000000 0.000000 0.000000 0.000000 3.189582 3.189582 0.000000 0.000000 0.000000 0.000000 0.000000 0.000000
0.000000 0.000000 0.000000 0.000000 0.000000 0.000000 0.000000 0.000000 0.000000 0.000000 0.000000 0.000000 0.000000 0.000000 0.000000 0.000000 0.000000 0.000000 0.000000 0.000000 0.000000 0.000000 0.000000 0.000000 0.000000 0.000000 0.000000 0.000000 0.000000 0.000000 0.000000 0.000000 0.000000 0.000000 0.000000 0.000000 0.000000 0.000000 0.000000 0.000000 0.000000 0.000000 0.000000 0.000000 0.000000 0.000000 0.000000 0.000000 0.000000 0.000000 29.574926 29.574926 29.574926 29.574926 29.574926 29.574926 29.574926 29.574926 29.574926 29.574926 29.574926 0.000000 0.000000 0.000000 0.000000 17.115022 17.115022 17.115022 17.115022 17.115022 17.115022 0.000000 0.000000 0.000000 0.000000 0.000000 0.000000 0.000000 0.000000 0.000000 0.000000 0.000000 0.000000 0.000000 0.000000 0.000000 0.000000 0.000000 0.000000 0.000000 0.000000 0.000000 0.000000 0.000000 0.000000 0.000000 0.000000 0.000000 0.000000 0.000000 0.000000 0.000000 0.000000
0.000000 0.000000 0.000000 0.000000 0.000000 0.000000 18.594385 18.594385 18.594385 18.594385 18.594385 18.594385 18.594385 18.594385 18.594385 18.594385 0.000000 0.000000 0.000000 0.000000 12.020546 12.020546 12.020546 12.020546 12.020546 12.020546 0.000000 0.000000 0.000000 0.000000 0.000000 0.000000 0.000000 0.000000 0.000000 0.000000 0.000000 0.000000 0.000000 0.000000 0.000000 0.000000 0.000000 0.000000 0.000000 0.000000 0.000000 0.000000 0.000000 0.000000 29.574926 29.574926 29.574926 29.574926 29.574926 29.574926 29.574926 29.574926 29.574926 29.574926 29.574926 0.000000 0.000000 0.000000 0.000000 17.115022 17.115022 17.115022 17.115022 17.115022 17.115022 0.000000 0.000000 0.000000 0.000000 0.000000 0.000000 0.000000 0.000000 0.000000 0.000000 0.000000 0.000000 0.000000 0.000000 0.000000 0.000000 0.000000 0.000000 0.000000 0.000000 0.000000 0.000000 0.000000 0.000000 0.000000 0.000000 0.000000 0.000000 0.000000 0.000000 0.000000 0.000000
0.000000 0.000000 0.000000 0.000000 0.000000 0.000000 18.594385 18.594385 18.594385 18.594385 18.594385 18.594385 18.594385 18.594385 18.594385 18.594385 0.000000 0.000000 0.000000 0.000000 12.020546 12.020546 12.020546 12.020546 12.020546 12.020546 0.000000 0.000000 0.000000 0.000000 0.000000 0.000000 0.000000 0.000000 0.000000 0.000000 0.000000 0.000000 0.000000 0.000000 0.000000 0.000000 0.000000 0.000000 0.000000 0.000000 0.000000 0.000000 0.000000 0.000000 29.574926 29.574926 29.574926 29.574926 29.574926 29.574926 29.574926 29.574926 29.574926 29.574926 29.574926 0.000000 0.000000 0.000000 0.000000 17.115022 17.115022 17.115022 17.115022 17.115022 17.115022 0.000000 0.000000 0.000000 0.000000 0.000000 0.000000 0.000000 0.000000 0.000000 0.000000 0.000000 0.000000 0.000000 0.000000 0.000000 13.398594 13.398594 13.398594 13.398594 13.398594 13.398594 13.398594 13.727713 13.727713 13.727713 13.727713 13.727713 13.727713 0.000000 0.000000 0.000000 0.000000
0.000000 0.000000 0.000000 0.000000 0.000000 0.000000 18.594385 18.594385 18.594385 18.594385 18.594385 18.594385 18.594385 18.594385 18.594385 18.594385 0.000000 0.000000 0.000000 0.000000 12.020546 12.020546 12.020546 12.020546 12.020546 12.020546 0.000000 0.000000 0.000000 0.000000 0.000000 0.000000 0.000000 0.000000 0.000000 0.000000 0.000000 0.000000 0.000000 0.000000 0.000000 0.000000 0.000000 0.000000 0.000000 0.000000 0.000000 0.000000 0.000000 0.000000 29.574926 29.574926 29.574926 29.574926 29.574926 29.574926 29.574926 29.574926 29.574926 29.574926 29.574926 0.000000 0.000000 0.000000 0.000000 17.115022 17.115022 17.115022 17.115022 17.115022 17.115022 0.000000 0.000000 0.000000 0.000000 0.000000 0.000000 0.000000 0.000000 0.000000 0.000000 0.000000 0.000000 0.000000 0.000000 0.000000 13.398594 13.398594 13.398594 13.398594 13.398594 13.398594 13.398594 13.727713 13.727713 13.727713 13.727713 13.727713 13.727713 0.000000 0.000000 0.000000 0.000000
0.000000 0.000000 0.000000 0.000000 0.000000 0.000000 18.594385 18.594385 18.594385 18.594385 18.594385 18.594385 18.594385 18.594385 18.594385 18.594385 0.000000 0.000000 0.000000 0.000000 12.020546 12.020546 12.020546 12.020546 12.020546 12.020546 0.000000 0.000000 0.000000 0.000000 0.000000 0.000000 0.000000 0.000000 0.000000 0.000000 0.000000 0.000000 0.000000 0.000000 0.000000 0.000000 0.000000 0.000000 0.000000 0.000000 0.000000 0.000000 0.000000 0.000000 29.574926 29.574926 29.574926 29.574926 29.574926 29.574926 29.574926 29.574926 29.574926 29.574926 29.574926 0.000000 0.000000 0.000000 0.000000 17.115022 17.115022 17.115022 17.115022 17.115022 17.115022 0.000000 0.000000 0.000000 0.000000 0.000000 0.000000 0.000000 0.000000 0.000000 5.839810 5.839810 5.839810 5.839810 5.839810 0.000000 13.398594 13.398594 13.398594 13.398594 13.398594 13.398594 13.398594 13.727713 13.727713 13.727713 13.727713 13.727713 13.727713 0.000000 0.000000 0.000000 0.000000
0.000000 0.000000 0.000000 0.000000 0.000000 0.000000 18.594385 18.594385 18.594385 18.594385 18.594385 18.594385 18.594385 18.594385 18.594385 18.594385 0.000000 0.000000 0.000000 0.000000 12.020546 12.020546 12.020546 12.020546 12.020546 12.020546 0.000000 0.000000 0.000000 0.000000 0.000000 0.000000 0.000000 0.000000 0.000000 0.000000 0.000000 0.000000 0.000000 0.000000 0.000000 0.000000 0.000000 0.000000 0.000000 0.000000 0.000000 0.000000 0.000000 0.000000 29.574926 29.574926 29.574926 29.574926 29.574926 29.574926 29.574926 29.574926 29.574926 29.574926 29.574926 0.000000 0.000000 0.000000 0.000000 17.115022 17.115022 17.115022 17.115022 17.115022 17.115022 0.000000 0.000000 0.000000 0.000000 0.000000 0.000000 0.000000 0.000000 0.000000 5.839810 5.839810 5.839810 5.839810 5.839810 0.000000 13.398594 13.398594 13.398594 13.398594 13.398594 13.398594 13.398594 13.727713 13.727713 13.727713 13.727713 13.727713 13.727713 0.000000 0.000000 0.000000 0.000000
0.000000 0.000000 0.000000 0.000000 0.000000 0.000000 18.594385 18.594385 18.594385 18.594385 18.594385 18.594385 18.594385 18.594385 18.594385 18.594385 0.000000 0.000000 0.000000 0.000000 12.020546 12.020546 12.020546 12.020546 12.020546 12.020546 0.000000 0.000000 0.000000 0.000000 0.000000 0.000000 0.000000 0.000000 0.000000 0.000000 0.000000 0.000000 0.000000 0.000000 0.000000 0.000000 0.000000 0.000000 0.000000 0.000000 0.000000 0.000000 0.000000 0.000000 29.574926 29.574926 29.574926 29.574926 29.574926 29.574926 29.574926 29.574926 29.574926 29.574926 29.574926 0.000000 0.000000 0.000000 0.000000 17.115022 17.115022 17.115022 17.115022 17.115022 17.115022 0.000000 0.000000 0.000000 0.000000 0.000000 0.000000 0.000000 0.000000 0.000000 5.839810 5.839810 5.839810 5.839810 5.839810 0.000000 13.398594 13.398594 13.398594 13.398594 13.398594 13.398594 13.398594 13.727713 13.727713 13.727713 13.727713 13.727713 13.727713 0.000000 0.000000 0.000000 0.000000
0.000000 0.000000 0.000000 0.000000 0.000000 0.000000 18.594385 18.594385 18.594385 18.594385 18.594385 18.594385 18.594385 18.594385 18.594385 18.594385 0.000000 0.000000 0.000000 0.000000 12.020546 12.020546 12.020546 12.020546 12.020546 12.020546 0.000000 0.000000 0.000000 0.000000 0.000000 0.000000 0.000000 0.000000 0.000000 0.000000 0.000000 0.000000 0.000000 0.000000 0.000000 0.000000 0.000000 0.000000 0.000000 0.000000 0.000000 0.000000 0.000000 0.000000 29.574926 29.574926 29.574926 29.574926 29.574926 29.574926 29.574926 29.574926 29.574926 29.574926 29.574926 0.000000 0.000000 0.000000 0.000000 17.115022 17.115022 17.115022 17.115022 17.115022 17.115022 0.000000 0.000000 0.000000 0.000000 0.000000 0.000000 0.000000 0.000000 0.000000 5.839810 5.839810 5.839810 5.839810 5.839810 0.000000 13.398594 13.398594 13.398594 13.398594 13.398594 13.398594 13.398594 13.727713 13.727713 13.727713 13.727713 13.727713 13.727713 0.000000 0.000000 0.000000 0.000000
0.000000 0.000000 0.000000 0.000000 0.000000 0.000000 18.594385 18.594385 18.594385 18.594385 18.594385 18.594385 18.594385 18.594385 18.594385 18.594385 0.000000 0.000000 0.000000 0.000000 12.020546 12.020546 12.020546 12.020546 12.020546 12.020546 0.000000 0.000000 0.000000 0.000000 0.000000 0.000000 0.000000 0.000000 0.000000 0.000000 0.000000 0.000000 0.000000 0.000000 0.000000 0.000000 0.000000 0.000000 0.000000 0.000000 0.000000 0.000000 0.000000 0.000000 29.574926 29.574926 29.574926 29.574926 29.574926 29.574926 29.574926 29.574926 29.574926 29.574926 29.574926 0.000000 0.000000 0.000000 0.000000 17.115022 17.115022 17.115022 17.115022 17.115022 17.115022 0.000000 0.000000 0.000000 0.000000 0.000000 0.000000 0.000000 0.000000 0.000000 5.839810 5.839810 5.839810 5.839810 5.839810 0.000000 13.398594 13.398594 13.398594 13.398594 13.398594 13.398594 13.398594 13.727713 13.727713 13.727713 13.727713 13.727713 13.727713 0.000000 0.000000 0.000000 0.000000
0.000000 0.000000 0.000000 0.000000 0.000000 0.000000 0.000000 0.000000 0.000000 0.000000 0.000000 0.000000 0.000000 0.000000 0.000000 0.000000 0.000000 0.000000 0.000000 0.000000 0.000000 0.000000 0.000000 0.000000 0.000000 0.000000 0.000000 0.000000 0.000000 0.000000 0.000000 0.000000 0.000000 0.000000 0.000000 0.000000 0.000000 0.000000 0.000000 0.000000 0.000000 0.000000 0.000000 0.000000 0.000000 0.000000 0.000000 0.000000 0.000000 0.000000 0.000000 0.000000 0.000000 0.000000 0.000000 0.000000 0.000000 0.000000 0.000000 0.000000 0.000000 0.000000 0.000000 0.000000 0.000000 0.000000 0.000000 0.000000 0.000000 0.000000 0.000000 0.000000 0.000000 0.000000 0.000000 0.000000 0.000000 0.000000 0.000000 0.000000 0.000000 0.000000 0.000000 0.000000 0.000000 0.000000 13.398594 13.398594 13.398594 13.398594 13.398594 13.398594 13.398594 13.727713 13.727713 13.727713 13.727713 13.727713 13.727713 0.000000 0.000000 0.000000 0.000000
0.000000 0.000000 0.000000 0.000000 0.000000 0.000000 0.000000 0.000000 0.000000 0.000000 0.000000 0.000000 0.000000 0.000000 0.000000 0.000000 0.000000 0.000000 0.000000 0.000000 0.000000 0.000000 0.000000 0.000000 0.000000 0.000000 0.000000 0.000000 0.000000 0.000000 0.000000 0.000000 0.000000 0.000000 0.000000 0.000000 0.000000 0.000000 0.000000 0.000000 0.000000 0.000000 0.000000 0.000000 0.000000 0.000000 0.000000 0.000000 0.000000 0.000000 0.000000 0.000000 0.000000 0.000000 0.000000 0.000000 0.000000 0.000000 0.000000 0.000000 0.000000 0.000000 0.000000 0.000000 0.000000 0.000000 0.000000 0.000000 0.000000 0.000000 0.000000 0.000000 0.000000 0.000000 0.000000 0.000000 0.000000 0.000000 0.000000 0.000000 0.000000 0.000000 0.000000 0.000000 0.000000 0.000000 13.398594 13.398594 13.398594 13.398594 13.398594 13.398594 13.398594 13.727713 13.727713 13.727713 13.727713 13.727713 13.727713 0.000000 0.000000 0.000000 0.000000
0.000000 0.000000 0.000000 0.000000 0.000000 0.000000 0.000000 0.000000 0.000000 0.000000 0.000000 0.000000 0.000000 0.000000 0.000000 0.000000 0.000000 0.000000 0.000000 0.000000 0.000000 0.000000 0.000000 0.000000 0.000000 0.000000 0.000000 0.000000 0.000000 0.000000 0.000000 0.000000 0.000000 0.000000 0.000000 0.000000 0.000000 0.000000 0.000000 0.000000 0.000000 0.000000 0.000000 0.000000 0.000000 0.000000 0.000000 0.000000 0.000000 0.000000 0.000000 0.000000 0.000000 0.000000 0.000000 0.000000 0.000000 0.000000 0.000000 0.000000 0.000000 0.000000 0.000000 0.000000 0.000000 0.000000 0.000000 0.000000 0.000000 0.000000 0.000000 0.000000 0.000000 0.000000 0.000000 0.000000 0.000000 0.000000 0.000000 0.000000 0.000000 0.000000 0.000000 0.000000 0.000000 0.000000 0.000000 0.000000 0.000000 0.000000 0.000000 0.000000 0.000000 0.000000 0.000000 0.000000 0.000000 0.000000 0.000000 0.000000 0.000000 0.000000 0.000000
0.000000 0.000000 0.000000 0.000000 0.000000 0.000000 0.000000 0.000000 0.000000 0.000000 0.000000 0.000000 0.000000 0.000000 0.000000 0.000000 0.000000 0.000000 0.000000 0.000000 0.000000 0.000000 0.000000 0.000000 0.000000 0.000000 0.000000 0.000000 0.000000 0.000000 0.000000 0.000000 0.000000 0.000000 0.000000 0.000000 0.000000 0.000000 0.000000 0.000000 0.000000 0.000000 0.000000 0.000000 0.000000 0.000000 0.000000 0.000000 0.000000 0.000000 0.000000 0.000000 0.000000 0.000000 0.000000 0.000000 0.000000 0.000000 0.000000 0.000000 0.000000 0.000000 0.000000 0.000000 0.000000 0.000000 0.000000 0.000000 0.000000 0.000000 0.000000 0.000000 0.000000 0.000000 0.000000 0.000000 0.000000 0.000000 0.000000 0.000000 0.000000 0.000000 0.000000 0.000000 0.000000 0.000000 0.000000 0.000000 0.000000 0.000000 0.000000 0.000000 0.000000 0.000000 0.000000 0.000000 0.000000 0.000000 0.000000 0.000000 0.000000 0.000000 0.000000
0.000000 0.000000 0.000000 0.000000 0.000000 0.000000 0.000000 0.000000 0.000000 0.000000 0.000000 0.000000 0.000000 0.000000 0.000000 0.000000 0.000000 0.000000 0.000000 0.000000 0.000000 0.000000 0.000000 0.000000 0.000000 0.000000 0.000000 0.000000 0.000000 0.000000 0.000000 0.000000 0.000000 0.000000 0.000000 0.000000 0.000000 0.000000 0.000000 0.000000 0.000000 0.000000 0.000000 0.000000 0.000000 0.000000 0.000000 0.000000 0.000000 0.000000 0.000000 0.000000 0.000000 0.000000 0.000000 0.000000 0.000000 0.000000 0.000000 0.000000 0.000000 0.000000 0.000000 0.000000 0.000000 0.000000 0.000000 0.000000 0.000000 0.000000 0.000000 0.000000 0.000000 0.000000 0.000000 0.000000 0.000000 0.000000 0.000000 0.000000 0.000000 0.000000 0.000000 0.000000 0.000000 0.000000 0.000000 0.000000 0.000000 0.000000 0.000000 0.000000 0.000000 0.000000 0.000000 0.000000 0.000000 0.000000 0.000000 0.000000 0.000000 0.000000 0.000000
0.000000 0.000000 0.000000 0.000000 0.000000 0.000000 0.000000 0.000000 0.000000 0.000000 0.000000 0.000000 0.000000 0.000000 0.000000 0.000000 0.000000 0.000000 0.000000 0.000000 0.000000 0.000000 0.000000 0.000000 0.000000 0.000000 0.000000 0.000000 0.000000 0.000000 0.000000 0.000000 0.000000 0.000000 0.000000 0.000000 0.000000 0.000000 0.000000 0.000000 0.000000 0.000000 0.000000 0.000000 0.000000 0.000000 0.000000 0.000000 0.000000 0.000000 0.000000 0.000000 0.000000 0.000000 0.000000 0.000000 0.000000 0.000000 0.000000 0.000000 0.000000 0.000000 0.000000 0.000000 0.000000 0.000000 0.000000 0.000000 0.000000 0.000000 0.000000 0.000000 0.000000 0.000000 0.000000 0.000000 0.000000 0.000000 0.000000 0.000000 0.000000 0.000000 0.000000 0.000000 0.000000 0.000000 0.000000 0.000000 0.000000 0.000000 0.000000 0.000000 0.000000 0.000000 0.000000 0.000000 0.000000 0.000000 0.000000 0.000000 0.000000 0.000000 0.000000
0.000000 0.000000 0.000000 0.000000 0.000000 0.000000 0.000000 0.000000 0.000000 0.000000 0.000000 0.000000 0.000000 0.000000 0.000000 0.000000 0.000000 0.000000 0.000000 0.000000 0.000000 0.000000 0.000000 0.000000 0.000000 0.000000 0.000000 0.000000 0.000000 0.000000 0.000000 0.000000 0.000000 0.000000 0.000000 0.000000 0.000000 0.000000 0.000000 0.000000 0.000000 0.000000 0.000000 0.000000 0.000000 0.000000 0.000000 0.000000 0.000000 0.000000 0.000000 0.000000 0.000000 0.000000 0.000000 0.000000 0.000000 0.000000 0.000000 0.000000 0.000000 0.000000 0.000000 0.000000 0.000000 0.000000 0.000000 0.000000 0.000000 0.000000 0.000000 0.000000 0.000000 0.000000 0.000000 0.000000 0.000000 0.000000 0.000000 0.000000 0.000000 0.000000 0.000000 0.000000 0.000000 0.000000 0.000000 0.000000 0.000000 0.000000 0.000000 0.000000 0.000000 0.000000 0.000000 0.000000 0.000000 0.000000 0.000000 0.000000 0.000000 0.000000 0.000000
0.000000 0.000000 0.000000 0.000000 0.000000 0.000000 0.000000 0.000000 0.000000 0.000000 0.000000 0.000000 0.000000 0.000000 0.000000 0.000000 0.000000 0.000000 0.000000 0.000000 0.000000 0.000000 0.000000 0.000000 0.000000 0.000000 0.000000 0.000000 0.000000 0.000000 0.000000 0.000000 0.000000 0.000000 0.000000 0.000000 0.000000 0.000000 0.000000 0.000000 0.000000 0.000000 0.000000 0.000000 0.000000 0.000000 0.000000 0.000000 0.000000 0.000000 0.000000 0.000000 0.000000 0.000000 0.000000 10.925897 10.925897 10.925897 10.925897 10.925897 10.925897 10.925897 0.000000 0.000000 0.000000 0.000000 0.000000 0.000000 0.000000 0.000000 0.000000 0.000000 0.000000 0.000000 0.000000 0.000000 0.000000 0.000000 0.000000 0.000000 0.000000 0.000000 0.000000 0.000000 0.000000 0.000000 0.000000 0.000000 0.000000 0.000000 0.000000 0.000000 0.000000 0.000000 0.000000 0.000000 0.000000 0.000000 0.000000 0.000000 0.000000 0.000000 0.000000
0.000000 0.000000 0.000000 0.000000 0.000000 0.000000 0.000000 0.000000 0.000000 0.000000 0.000000 0.000000 0.000000 0.000000 0.000000 0.000000 0.000000 0.000000 0.000000 0.000000 0.000000 0.000000 0.000000 0.000000 0.000000 0.000000 0.000000 0.000000 0.000000 0.000000 0.000000 0.000000 0.000000 0.000000 0.000000 0.000000 0.000000 0.000000 0.000000 0.000000 0.000000 0.000000 0.000000 0.000000 0.000000 0.000000 0.000000 0.000000 0.000000 0.000000 0.000000 0.000000 0.000000 0.000000 0.000000 10.925897 10.925897 10.925897 10.925897 10.925897 10.925897 10.925897 0.000000 0.000000 0.000000 0.000000 0.000000 0.000000 0.000000 0.000000 0.000000 0.000000 0.000000 0.000000 0.000000 0.000000 0.000000 0.000000 0.000000 0.000000 0.000000 0.000000 0.000000 0.000000 0.000000 0.000000 0.000000 0.000000 0.000000 0.000000 0.000000 0.000000 0.000000 0.000000 0.000000 0.000000 0.000000 0.000000 0.000000 0.000000 0.000000 0.000000 0.000000
0.000000 0.000000 0.000000 0.000000 0.000000 0.000000 15.148619 15.148619 15.148619 15.148619 15.148619 15.148619 0.000000 0.000000 0.000000 0.000000 23.597586 23.597586 23.597586 23.597586 23.597586 23.597586 23.597586 23.597586 23.597586 23.597586 0.000000 0.000000 0.000000 0.000000 0.000000 0.000000 0.000000 0.000000 0.000000 0.000000 0.000000 0.000000 0.000000 0.000000 0.000000 0.000000 0.000000 0.000000 0.000000 0.000000 0.000000 0.000000 0.000000 0.000000 0.000000 0.000000 0.000000 0.000000 0.000000 10.925897 10.925897 10.925897 10.925897 10.925897 10.925897 10.925897 0.000000 0.000000 0.000000 0.000000 0.000000 0.000000 0.000000 0.000000 0.000000 0.000000 0.000000 0.000000 0.000000 0.000000 0.000000 0.000000 0.000000 0.000000 17.477680 17.477680 17.477680 17.477680 17.477680 17.477680 17.477680 0.000000 0.000000 0.000000 0.000000 16.010306 16.010306 16.010306 16.010306 16.010306 16.010306 0.000000 0.000000 0.000000 0.000000 0.000000 0.000000
0.000000 0.000000 0.000000 0.000000 0.000000 0.000000 15.148619 15.148619 15.148619 15.148619 15.148619 15.148619 0.000000 0.000000 0.000000 0.000000 23.597586 23.597586 23.597586 23.597586 23.597586 23.597586 23.597586 23.597586 23.597586 23.597586 0.000000 0.000000 0.000000 0.000000 0.000000 0.000000 0.000000 0.000000 0.000000 0.000000 0.000000 0.000000 0.000000 0.000000 0.000000 0.000000 0.000000 0.000000 0.000000 0.000000 0.000000 0.000000 0.000000 0.000000 0.000000 0.000000 0.000000 0.000000 0.000000 10.925897 10.925897 10.925897 10.925897 10.925897 10.925897 10.925897 0.000000 0.000000 0.000000 0.000000 0.000000 0.000000 0.000000 0.000000 0.000000 0.000000 0.000000 0.000000 0.000000 0.000000 0.000000 0.000000 0.000000 0.000000 17.477680 17.477680 17.477680 17.477680 17.477680 17.477680 17.477680 0.000000 0.000000 0.000000 0.000000 16.010306 16.010306 16.010306 16.010306 16.010306 16.010306 0.000000 0.000000 0.000000 0.000000 0.000000 0.000000
0.000000 0.000000 0.000000 0.000000 0.000000 0.000000 15.148619 15.148619 15.148619 15.148619 15.148619 15.148619 0.000000 0.000000 0.000000 0.000000 23.597586 23.597586 23.597586 23.597586 23.597586 23.597586 23.597586 23.597586 23.597586 23.597586 0.000000 0.000000 0.000000 0.000000 0.000000 0.000000 0.000000 0.000000 0.000000 0.000000 0.000000 0.000000 0.000000 0.000000 0.000000 0.000000 0.000000 0.000000 0.000000 0.000000 0.000000 0.000000 0.000000 0.000000 0.000000 0.000000 0.000000 0.000000 0.000000 10.925897 10.925897 10.925897 10.925897 10.925897 10.925897 10.925897 0.000000 0.000000 0.000000 0.000000 0.000000 0.000000 0.000000 0.000000 0.000000 0.000000 0.000000 0.000000 0.000000 0.000000 0.000000 0.000000 0.000000 0.000000 17.477680 17.477680 17.477680 17.477680 17.477680 17.477680 17.477680 0.000000 0.000000 0.000000 0.000000 16.010306 16.010306 16.010306 16.010306 16.010306 16.010306 0.000000 0.000000 0.000000 0.000000 0.000000 0.000000
0.000000 0.000000 0.000000 0.000000 0.000000 0.000000 15.148619 15.148619 15.148619 15.148619 15.148619 15.148619 0.000000 0.000000 0.000000 0.000000 23.597586 23.597586 23.597586 23.597586 23.597586 23.597586 23.597586 23.597586 23.597586 23.597586 0.000000 0.000000 0.000000 0.000000 0.000000 0.000000 0.000000 0.000000 0.000000 0.000000 0.000000 0.000000 0.000000 0.000000 0.000000 0.000000 0.000000 0.000000 0.000000 0.000000 0.000000 0.000000 0.000000 0.000000 0.000000 0.000000 0.000000 0.000000 0.000000 10.925897 10.925897 10.925897 10.925897 10.925897 10.925897 10.925897 0.000000 0.000000 0.000000 0.000000 0.000000 0.000000 0.000000 0.000000 0.000000 0.000000 0.000000 0.000000 0.000000 0.000000 0.000000 0.000000 0.000000 0.000000 17.477680 17.477680 17.477680 17.477680 17.477680 17.477680 17.477680 0.000000 0.000000 0.000000 0.000000 16.010306 16.010306 16.010306 16.010306 16.010306 16.010306 0.000000 0.000000 0.000000 0.000000 0.000000 0.000000
0.000000 0.000000 0.000000 0.000000 0.000000 0.000000 15.148619 15.148619 15.148619 15.148619 15.148619 15.148619 0.000000 0.000000 0.000000 0.000000 23.597586 23.597586 23.597586 23.597586 23.597586 23.597586 23.597586 23.597586 23.597586 23.597586 0.000000 0.000000 0.000000 0.000000 0.000000 0.000000 0.000000 0.000000 0.000000 0.000000 0.000000 0.000000 0.000000 0.000000 0.000000 0.000000 0.000000 0.000000 0.000000 0.000000 0.000000 0.000000 0.000000 0.000000 0.000000 0.000000 0.000000 0.000000 0.000000 10.925897 10.925897 10.925897 10.925897 10.925897 10.925897 10.925897 0.000000 0.000000 0.000000 0.000000 0.000000 0.000000 0.000000 0.000000 0.000000 0.000000 0.000000 0.000000 0.000000 0.000000 0.000000 0.000000 0.000000 0.000000 17.477680 17.477680 17.477680 17.477680 17.477680 17.477680 17.477680 0.000000 0.000000 0.000000 0.000000 16.010306 16.010306 16.010306 16.010306 16.010306 16.010306 0.000000 0.000000 0.000000 0.000000 0.000000 0.000000
0.000000 0.000000 0.000000 0.000000 0.000000 0.000000 15.148619 15.148619 15.148619 15.148619 15.148619 15.148619 0.000000 0.000000 0.000000 0.000000 23.597586 23.597586 23.597586 23.597586 23.597586 23.597586 23.597586 23.597586 23.597586 23.597586 0.000000 0.000000 0.000000 0.000000 0.000000 0.000000 0.000000 0.000000 0.000000 0.000000 0.000000 0.000000 0.000000 0.000000 0.000000 0.000000 0.000000 0.000000 0.000000 0.000000 0.000000 0.000000 12.761330 12.761330 12.761330 12.761330 12.761330 12.761330 12.761330 0.000000 0.000000 0.000000 0.000000 0.000000 0.000000 0.000000 0.000000 0.000000 0.000000 0.000000 0.000000 0.000000 0.000000 0.000000 0.000000 0.000000 0.000000 0.000000 0.000000 0.000000 0.000000 0.000000 0.000000 0.000000 17.477680 17.477680 17.477680 17.477680 17.477680 17.477680 17.477680 0.000000 0.000000 0.000000 0.000000 16.010306 16.010306 16.010306 16.010306 16.010306 16.010306 0.000000 0.000000 0.000000 0.000000 0.000000 0.000000
0.000000 0.000000 0.000000 0.000000 0.000000 0.000000 15.148619 15.148619 15.148619 15.148619 15.148619 15.148619 0.000000 0.000000 0.000000 0.000000 23.597586 23.597586 23.597586 23.597586 23.597586 23.597586 23.597586 23.597586 23.597586 23.597586 0.000000 0.000000 0.000000 0.000000 0.000000 0.000000 0.000000 0.000000 0.000000 0.000000 0.000000 0.000000 0.000000 0.000000 0.000000 0.000000 0.000000 0.000000 0.000000 0.000000 0.000000 0.000000 12.761330 12.761330 12.761330 12.761330 12.761330 12.761330 12.761330 0.000000 0.000000 0.000000 0.000000 0.000000 0.000000 0.000000 0.000000 0.000000 0.000000 0.000000 0.000000 0.000000 0.000000 0.000000 0.000000 0.000000 0.000000 0.000000 0.000000 0.000000 0.000000 0.000000 0.000000 0.000000 17.477680 17.477680 17.477680 17.477680 17.477680 17.477680 17.477680 0.000000 0.000000 0.000000 0.000000 16.010306 16.010306 16.010306 16.010306 16.010306 16.010306 0.000000 0.000000 0.000000 0.000000 0.000000 0.000000
0.000000 0.000000 0.000000 0.000000 0.000000 0.000000 15.148619 15.148619 15.148619 15.148619 15.148619 15.148619 0.000000 0.000000 0.000000 0.000000 23.597586 23.597586 23.597586 23.597586 23.597586 23.597586 23.597586 23.597586 23.597586 23.597586 0.000000 0.000000 0.000000 0.000000 0.000000 0.000000 0.000000 0.000000 0.000000 0.000000 0.000000 0.000000 0.000000 0.000000 0.000000 0.000000 0.000000 0.000000 0.000000 0.000000 0.000000 0.000000 12.761330 12.761330 12.761330 12.761330 12.761330 12.761330 12.761330 0.000000 0.000000 0.000000 0.000000 0.000000 0.000000 0.000000 0.000000 0.000000 0.000000 0.000000 0.000000 0.000000 0.000000 0.000000 0.000000 0.000000 0.000000 0.000000 0.000000 0.000000 0.000000 0.000000 0.000000 0.000000 17.477680 17.477680 17.477680 17.477680 17.477680 17.477680 17.477680 0.000000 0.000000 0.000000 0.000000 16.010306 16.010306 16.010306 16.010306 16.010306 16.010306 0.000000 0.000000 0.000000 0.000000 0.000000 0.000000
0.000000 0.000000 0.000000 0.000000 0.000000 0.000000 15.148619 15.148619 15.148619 15.148619 15.148619 15.148619 0.000000 0.000000 0.000000 0.000000 23.597586 23.597586 23.597586 23.597586 23.597586 23.597586 23.597586 23.597586 23.597586 23.597586 0.000000 0.000000 0.000000 0.000000 0.000000 0.000000 0.000000 0.000000 0.000000 0.000000 0.000000 0.000000 0.000000 0.000000 0.000000 0.000000 0.000000 0.000000 0.000000 0.000000 0.000000 0.000000 12.761330 12.761330 12.761330 12.761330 12.761330 12.761330 12.761330 0.000000 0.000000 0.000000 0.000000 0.000000 0.000000 0.000000 0.000000 0.000000 0.000000 0.000000 0.000000 0.000000 0.000000 0.000000 0.000000 0.000000 0.000000 0.000000 0.000000 0.000000 0.000000 0.000000 0.000000 0.000000 17.477680 17.477680 17.477680 17.477680 17.477680 17.477680 17.477680 0.000000 0.000000 0.000000 0.000000 16.010306 16.010306 16.010306 16.010306 16.010306 16.010306 0.000000 0.000000 0.000000 0.000000 0.000000 0.000000
0.000000 0.000000 0.000000 0.000000 0.000000 0.000000 15.148619 15.148619 15.148619 15.148619 15.148619 15.148619 0.000000 0.000000 0.000000 0.000000 23.597586 23.597586 23.597586 23.597586 23.597586 23.597586 23.597586 23.597586 23.597586 23.597586 0.000000 0.000000 0.000000 0.000000 0.000000 0.000000 0.000000 0.000000 0.000000 0.000000 0.000000 0.000000 0.000000 0.000000 0.000000 0.000000 0.000000 0.000000 0.000000 0.000000 0.000000 0.000000 12.761330 12.761330 12.761330 12.761330 12.761330 12.761330 12.761330 0.000000 0.000000 0.000000 0.000000 0.000000 0.000000 0.000000 0.000000 0.000000 0.000000 0.000000 0.000000 0.000000 0.000000 0.000000 0.000000 0.000000 0.000000 0.000000 0.000000 0.000000 0.000000 0.000000 0.000000 0.000000 17.477680 17.477680 17.477680 17.477680 17.477680 17.477680 17.477680 0.000000 0.000000 0.000000 0.000000 16.010306 16.010306 16.010306 16.010306 16.010306 16.010306 0.000000 0.000000 0.000000 0.000000 0.000000 0.000000
0.000000 0.000000 0.000000 0.000000 0.000000 0.000000 0.000000 0.000000 0.000000 0.000000 0.000000 0.000000 0.000000 0.000000 0.000000 0.000000 0.000000 0.000000 0.000000 0.000000 0.000000 0.000000 0.000000 0.000000 0.000000 0.000000 0.000000 0.000000 0.000000 0.000000 0.000000 0.000000 0.000000 0.000000 0.000000 0.000000 0.000000 0.000000 0.000000 0.000000 0.000000 0.000000 0.000000 0.000000 0.000000 0.000000 0.000000 0.000000 12.761330 12.761330 12.761330 12.761330 12.761330 12.761330 12.761330 0.000000 0.000000 0.000000 0.000000 0.000000 0.000000 0.000000 0.000000 0.000000 0.000000 0.000000 0.000000 0.000000 0.000000 0.000000 0.000000 0.000000 0.000000 0.000000 0.000000 0.000000 0.000000 0.000000 0.000000 0.000000 0.000000 0.000000 0.000000 0.000000 0.000000 0.000000 0.000000 0.000000 0.000000 0.000000 0.000000 0.000000 0.000000 0.000000 0.000000 0.000000 0.000000 0.000000 0.000000 0.000000 0.000000 0.000000 0.000000
0.000000 0.000000 0.000000 0.000000 0.000000 0.000000 0.000000 0.000000 0.000000 0.000000 0.000000 0.000000 0.000000 0.000000 0.000000 0.000000 0.000000 0.000000 0.000000 0.000000 0.000000 0.000000 0.000000 0.000000 0.000000 0.000000 0.000000 0.000000 0.000000 0.000000 0.000000 0.000000 0.000000 0.000000 0.000000 0.000000 0.000000 0.000000 0.000000 0.000000 0.000000 0.000000 0.000000 0.000000 0.000000 0.000000 0.000000 0.000000 12.761330 12.761330 12.761330 12.761330 12.761330 12.761330 12.761330 0.000000 0.000000 0.000000 0.000000 0.000000 0.000000 0.000000 0.000000 0.000000 0.000000 0.000000 0.000000 0.000000 0.000000 0.000000 0.000000 0.000000 0.000000 0.000000 0.000000 0.000000 0.000000 0.000000 0.000000 0.000000 0.000000 0.000000 0.000000 0.000000 0.000000 0.000000 0.000000 0.000000 0.000000 0.000000 0.000000 0.000000 0.000000 0.000000 0.000000 0.000000 0.000000 0.000000 0.000000 0.000000 0.000000 0.000000 0.000000
0.000000 0.000000 0.000000 0.000000 0.000000 0.000000 0.000000 0.000000 0.000000 0.000000 0.000000 0.000000 0.000000 0.000000 0.000000 0.000000 0.000000 0.000000 0.000000 0.000000 0.000000 0.000000 0.000000 0.000000 0.000000 0.000000 0.000000 0.000000 0.000000 0.000000 0.000000 0.000000 0.000000 0.000000 0.000000 0.000000 0.000000 0.000000 0.000000 0.000000 0.000000 0.000000 0.000000 0.000000 0.000000 0.000000 0.000000 0.000000 0.000000 0.000000 0.000000 0.000000 0.000000 0.000000 0.000000 0.000000 0.000000 0.000000 0.000000 0.000000 0.000000 0.000000 0.000000 0.000000 0.000000 0.000000 0.000000 0.000000 0.000000 0.000000 0.000000 0.000000 0.000000 0.000000 0.000000 0.000000 0.000000 0.000000 0.000000 0.000000 0.000000 0.000000 0.000000 0.000000 0.000000 0.000000 0.000000 0.000000 0.000000 0.000000 0.000000 0.000000 0.000000 0.000000 0.000000 0.000000 0.000000 0.000000 0.000000 0.000000 0.000000 0.000000 0.000000
0.000000 0.000000 0.000000 0.000000 0.000000 0.000000 0.000000 0.000000 0.000000 0.000000 0.000000 0.000000 0.000000 0.000000 0.000000 0.000000 0.000000 0.000000 0.000000 0.000000 0.000000 0.000000 0.000000 0.000000 0.000000 0.000000 0.000000 0.000000 0.000000 0.000000 0.000000 0.000000 0.000000 0.000000 0.000000 0.000000 0.000000 0.000000 0.000000 0.000000 0.000000 0.000000 0.000000 0.000000 0.000000 0.000000 0.000000 0.000000 0.000000 0.000000 0.000000 0.000000 0.000000 0.000000 0.000000 0.000000 0.000000 0.000000 0.000000 0.000000 0.000000 0.000000 0.000000 0.000000 0.000000 0.000000 0.000000 0.000000 0.000000 0.000000 0.000000 0.000000 0.000000 0.000000 0.000000 0.000000 0.000000 0.000000 0.000000 0.000000 0.000000 0.000000 0.000000 0.000000 0.000000 0.000000 0.000000 0.000000 0.000000 0.000000 0.000000 0.000000 0.000000 0.000000 0.000000 0.000000 0.000000 0.000000 0.000000 0.000000 0.000000 0.000000 0.000000
0.000000 0.000000 0.000000 0.000000 0.000000 0.000000 0.000000 0.000000 0.000000 0.000000 0.000000 0.000000 0.000000 0.000000 0.000000 0.000000 0.000000 0.000000 0.000000 0.000000 0.000000 0.000000 0.000000 0.000000 0.000000 0.000000 0.000000 0.000000 0.000000 0.000000 0.000000 0.000000 0.000000 0.000000 0.000000 0.000000 0.000000 0.000000 0.000000 0.000000 0.000000 0.000000 0.000000 0.000000 0.000000 0.000000 0.000000 0.000000 0.000000 0.000000 0.000000 0.000000 0.000000 0.000000 0.000000 0.000000 0.000000 0.000000 0.000000 0.000000 0.000000 0.000000 0.000000 0.000000 0.000000 0.000000 0.000000 0.000000 0.000000 0.000000 0.000000 0.000000 0.000000 0.000000 0.000000 0.000000 0.000000 0.000000 0.000000 0.000000 0.000000 0.000000 0.000000 0.000000 0.000000 0.000000 0.000000 0.000000 0.000000 0.000000 0.000000 0.000000 0.000000 0.000000 0.000000 0.000000 0.000000 0.000000 0.000000 0.000000 0.000000 0.000000 0.000000
0.000000 0.000000 0.000000 0.000000 0.000000 0.000000 0.000000 0.000000 0.000000 0.000000 0.000000 0.000000 0.000000 0.000000 0.000000 0.000000 0.000000 0.000000 0.000000 0.000000 0.000000 0.000000 0.000000 0.000000 0.000000 0.000000 0.000000 0.000000 0.000000 0.000000 0.000000 0.000000 0.000000 0.000000 0.000000 0.000000 0.000000 0.000000 0.000000 0.000000 0.000000 0.000000 0.000000 0.000000 0.000000 0.000000 0.000000 0.000000 0.000000 0.000000 0.000000 0.000000 0.000000 0.000000 0.000000 0.000000 0.000000 0.000000 0.000000 0.000000 0.000000 0.000000 0.000000 0.000000 0.000000 0.000000 0.000000 0.000000 0.000000 0.000000 0.000000 0.000000 0.000000 0.000000 0.000000 0.000000 0.000000 0.000000 0.000000 0.000000 0.000000 0.000000 0.000000 0.000000 0.000000 0.000000 0.000000 0.000000 0.000000 0.000000 0.000000 0.000000 0.000000 0.000000 0.000000 0.000000 0.000000 0.000000 0.000000 0.000000 0.000000 0.000000 0.000000
0.000000 0.000000 0.000000 0.000000 0.000000 0.000000 0.000000 0.000000 0.000000 0.000000 0.000000 0.000000 0.000000 0.000000 0.000000 0.000000 0.000000 0.000000 0.000000 0.000000 0.000000 0.000000 0.000000 0.000000 0.000000 0.000000 0.000000 0.000000 0.000000 0.000000 0.000000 0.000000 0.000000 0.000000 0.000000 0.000000 0.000000 0.000000 0.000000 0.000000 0.000000 0.000000 0.000000 0.000000 0.000000 0.000000 0.000000 0.000000 0.000000 0.000000 0.000000 0.000000 0.000000 0.000000 0.000000 0.000000 0.000000 0.000000 0.000000 0.000000 0.000000 0.000000 0.000000 0.000000 0.000000 0.000000 0.000000 0.000000 0.000000 0.000000 0.000000 0.000000 0.000000 0.000000 0.000000 0.000000 0.000000 0.000000 0.000000 0.000000 0.000000 0.000000 0.000000 0.000000 0.000000 0.000000 0.000000 0.000000 0.000000 0.000000 0.000000 0.000000 0.000000 0.000000 0.000000 0.000000 0.000000 0.000000 0.000000 0.000000 0.000000 0.000000 0.000000
0.000000 0.000000 0.000000 0.000000 20.073488 20.073488 20.073488 20.073488 20.073488 20.073488 20.073488 20.073488 20.640940 20.640940 20.640940 20.640940 20.640940 20.640940 20.640940 20.640940 21.990320 21.990320 21.990320 21.990320 21.990320 21.990320 21.990320 21.990320 0.000000 0.000000 0.000000 0.000000 0.000000 26.748966 26.748966 26.748966 26.748966 26.748966 26.748966 26.748966 26.748966 26.748966 26.748966 0.000000 0.000000 0.000000 0.000000 0.000000 26.999040 26.999040 26.999040 26.999040 26.999040 26.999040 26.999040 26.999040 26.999040 26.999040 22.290919 22.290919 22.290919 22.290919 22.290919 22.290919 22.290919 22.290919 17.148637 17.148637 17.148637 17.148637 17.148637 17.148637 17.148637 0.000000 0.000000 0.000000 0.000000 0.000000 17.432577 17.432577 17.432577 17.432577 17.432577 17.432577 17.789757 17.789757 17.789757 17.789757 17.789757 17.789757 17.789757 21.680131 21.680131 21.680131 21.680131 21.680131 21.680131 21.680131 21.680131 0.000000 0.000000 0.000000 0.000000
0.000000 0.000000 0.000000 0.000000 20.073488 20.073488 20.073488 20.073488 20.073488 20.073488 20.073488 20.073488 20.640940 20.640940 20.640940 20.640940 20.640940 20.640940 20.640940 20.640940 21.990320 21.990320 21.990320 21.990320 21.990320 21.990320 21.990320 21.990320 0.000000 0.000000 0.000000 0.000000 0.000000 26.748966 26.748966 26.748966 26.748966 26.748966 26.748966 26.748966 26.748966 26.748966 26.748966 0.000000 0.000000 0.000000 0.000000 0.000000 26.999040 26.999040 26.999040 26.999040 26.999040 26.999040 26.999040 26.999040 26.999040 26.999040 22.290919 22.290919 22.290919 22.290919 22.290919 22.290919 22.290919 22.290919 17.148637 17.148637 17.148637 17.148637 17.148637 17.148637 17.148637 0.000000 0.000000 0.000000 0.000000 0.000000 17.432577 17.432577 17.432577 17.432577 17.432577 17.432577 17.789757 17.789757 17.789757 17.789757 17.789757 17.789757 17.789757 21.680131 21.680131 21.680131 21.680131 21.680131 21.680131 21.680131 21.680131 0.000000 0.000000 0.000000 0.000000
0.000000 0.000000 0.000000 0.000000 20.073488 20.073488 20.073488 20.073488 20.073488 20.073488 20.073488 20.073488 20.640940 20.640940 20.640940 20.640940 20.640940 20.640940 20.640940 20.640940 21.990320 21.990320 21.990320 21.990320 21.990320 21.990320 21.990320 21.990320 0.000000 0.000000 0.000000 0.000000 0.000000 26.748966 26.748966 26.748966 26.748966 26.748966 26.748966 26.748966 26.748966 26.748966 26.748966 0.000000 0.000000 0.000000 0.000000 0.000000 26.999040 26.999040 26.999040 26.999040 26.999040 26.999040 26.999040 26.999040 26.999040 26.999040 22.290919 22.290919 22.290919 22.290919 22.290919 22.290919 22.290919 22.290919 17.148637 17.148637 17.148637 17.148637 17.148637 17.148637 17.148637 0.000000 0.000000 0.000000 0.000000 0.000000 17.432577 17.432577 17.432577 17.432577 17.432577 17.432577 17.789757 17.789757 17.789757 17.789757 17.789757 17.789757 17.789757 21.680131 21.680131 21.680131 21.680131 21.680131 21.680131 21.680131 21.680131 0.000000 0.000000 0.000000 0.000000
0.000000 0.000000 0.000000 0.000000 20.073488 20.073488 20.073488 20.073488 20.073488 20.073488 20.073488 20.073488 20.640940 20.640940 20.640940 20.640940 20.640940 20.640940 20.640940 20.640940 21.990320 21.990320 21.990320 21.990320 21.990320 21.990320 21.990320 21.990320 0.000000 0.000000 0.000000 0.000000 0.000000 26.748966 26.748966 26.748966 26.748966 26.748966 26.748966 26.748966 26.748966 26.748966 26.748966 0.000000 0.000000 0.000000 0.000000 0.000000 26.999040 26.999040 26.999040 26.999040 26.999040 26.999040 26.999040 26.999040 26.999040 26.999040 22.290919 22.290919 22.290919 22.290919 22.290919 22.290919 22.290919 22.290919 17.148637 17.148637 17.148637 17.148637 17.148637 17.148637 17.148637 0.000000 0.000000 0.000000 0.000000 0.000000 17.432577 17.432577 17.432577 17.432577 17.432577 17.432577 17.789757 17.789757 17.789757 17.789757 17.789757 17.789757 17.789757 21.680131 21.680131 21.680131 21.680131 21.680131 21.680131 21.680131 21.680131 0.000000 0.000000 0.000000 0.000000
0.000000 0.000000 0.000000 0.000000 20.073488 20.073488 20.073488 20.073488 20.073488 20.073488 20.073488 20.073488 20.640940 20.640940 20.640940 20.640940 20.640940 20.640940 20.640940 20.640940 21.990320 21.990320 21.990320 21.990320 21.990320 21.990320 21.990320 21.990320 0.000000 0.000000 0.000000 0.000000 0.000000 26.748966 26.748966 26.748966 26.748966 26.748966 26.748966 26.748966 26.748966 26.748966 26.748966 0.000000 0.000000 0.000000 0.000000 0.000000 26.999040 26.999040 26.999040 26.999040 26.999040 26.999040 26.999040 26.999040 26.999040 26.999040 22.290919 22.290919 22.290919 22.290919 22.290919 22.290919 22.290919 22.290919 17.148637 17.148637 17.148637 17.148637 17.148637 17.148637 17.148637 0.000000 0.000000 0.000000 0.000000 0.000000 17.432577 17.432577 17.432577 17.432577 17.432577 17.432577 17.789757 17.789757 17.789757 17.789757 17.789757 17.789757 17.789757 21.680131 21.680131 21.680131 21.680131 21.680131 21.680131 21.680131 21.680131 0.000000 0.000000 0.000000 0.000000
0.000000 0.000000 0.000000 0.000000 20.073488 20.073488 20.073488 20.073488 20.073488 20.073488 20.073488 20.073488 20.640940 20.640940 20.640940 20.640940 20.640940 20.640940 20.640940 20.640940 21.990320 21.990320 21.990320 21.990320 21.990320 21.990320 21.990320 21.990320 0.000000 0.000000 0.000000 0.000000 0.000000 26.748966 26.748966 26.748966 26.748966 26.748966 26.748966 26.748966 26.748966 26.748966 26.748966 0.000000 0.000000 0.000000 0.000000 0.000000 26.999040 26.999040 26.999040 26.999040 26.999040 26.999040 26.999040 26.999040 26.999040 26.999040 22.290919 22.290919 22.290919 22.290919 22.290919 22.290919 22.290919 22.290919 17.148637 17.148637 17.148637 17.148637 17.148637 17.148637 17.148637 0.000000 0.000000 0.000000 0.000000 0.000000 17.432577 17.432577 17.432577 17.432577 17.432577 17.432577 17.789757 17.789757 17.789757 17.789757 17.789757 17.789757 17.789757 21.680131 21.680131 21.680131 21.680131 21.680131 21.680131 21.680131 21.680131 0.000000 0.000000 0.000000 0.000000
0.000000 0.000000 0.000000 0.000000 20.073488 20.073488 20.073488 20.073488 20.073488 20.073488 20.073488 20.073488 20.640940 20.640940 20.640940 20.640940 20.640940 20.640940 20.640940 20.640940 21.990320 21.990320 21.990320 21.990320 21.990320 21.990320 21.990320 21.990320 0.000000 0.000000 0.000000 0.000000 0.000000 26.748966 26.748966 26.748966 26.748966 26.748966 26.748966 26.748966 26.748966 26.748966 26.748966 0.000000 0.000000 0.000000 0.000000 0.000000 26.999040 26.999040 26.999040 26.999040 26.999040 26.999040 26.999040 26.999040 26.999040 26.999040 22.290919 22.290919 22.290919 22.290919 22.290919 22.290919 22.290919 22.290919 17.148637 17.148637 17.148637 17.148637 17.148637 17.148637 17.148637 0.000000 0.000000 0.000000 0.000000 0.000000 17.432577 17.432577 17.432577 17.432577 17.432577 17.432577 17.789757 17.789757 17.789757 17.789757 17.789757 17.789757 17.789757 21.680131 21.680131 21.680131 21.680131 21.680131 21.680131 21.680131 21.680131 0.000000 0.000000 0.000000 0.000000
0.000000 0.000000 0.000000 0.000000 20.073488 20.073488 20.073488 20.073488 20.073488 20.073488 20.073488 20.073488 20.640940 20.640940 20.640940 20.640940 20.640940 20.640940 20.640940 20.640940 21.990320 21.990320 21.990320 21.990320 21.990320 21.990320 21.990320 21.990320 0.000000 0.000000 0.000000 0.000000 0.000000 26.748966 26.748966 26.748966 26.748966 26.748966 26.748966 26.748966 26.748966 26.748966 26.748966 0.000000 0.000000 0.000000 0.000000 0.000000 26.999040 26.999040 26.999040 26.999040 26.999040 26.999040 26.999040 26.999040 26.999040 26.999040 22.290919 22.290919 22.290919 22.290919 22.290919 22.290919 22.290919 22.290919 17.148637 17.148637 17.148637 17.148637 17.148637 17.148637 17.148637 0.000000 0.000000 0.000000 0.000000 0.000000 17.432577 17.432577 17.432577 17.432577 17.432577 17.432577 17.789757 17.789757 17.789757 17.789757 17.789757 17.789757 17.789757 21.680131 21.680131 21.680131 21.680131 21.680131 21.680131 21.680131 21.680131 0.000000 0.000000 0.000000 0.000000
0.000000 0.000000 0.000000 0.000000 20.073488 20.073488 20.073488 20.073488 20.073488 20.073488 20.073488 20.073488 20.640940 20.640940 20.640940 20.640940 20.640940 20.640940 20.640940 20.640940 21.990320 21.990320 21.990320 21.990320 21.990320 21.990320 21.990320 21.990320 0.000000 0.000000 0.000000 0.000000 0.000000 26.748966 26.748966 26.748966 26.748966 26.748966 26.748966 26.748966 26.748966 26.748966 26.748966 0.000000 0.000000 0.000000 0.000000 0.000000 26.999040 26.999040 26.999040 26.999040 26.999040 26.999040 26.999040 26.999040 26.999040 26.999040 22.290919 22.290919 22.290919 22.290919 22.290919 22.290919 22.290919 22.290919 17.148637 17.148637 17.148637 17.148637 17.148637 17.148637 17.148637 0.000000 0.000000 0.000000 0.000000 0.000000 17.432577 17.432577 17.432577 17.432577 17.432577 17.432577 17.789757 17.789757 17.789757 17.789757 17.789757 17.789757 17.789757 21.680131 21.680131 21.680131 21.680131 21.680131 21.680131 21.680131 21.680131 0.000000 0.000000 0.000000 0.000000
0.000000 0.000000 0.000000 0.000000 20.073488 20.073488 20.073488 20.073488 20.073488 20.073488 20.073488 20.073488 20.640940 20.640940 20.640940 20.640940 20.640940 20.640940 20.640940 20.640940 21.990320 21.990320 21.990320 21.990320 21.990320 21.990320 21.990320 21.990320 0.000000 0.000000 0.000000 0.000000 0.000000 26.748966 26.748966 26.748966 26.748966 26.748966 26.748966 26.748966 26.748966 26.748966 26.748966 0.000000 0.000000 0.000000 0.000000 0.000000 26.999040 26.999040 26.999040 26.999040 26.999040 26.999040 26.999040 26.999040 26.999040 26.999040 22.290919 22.290919 22.290919 22.290919 22.290919 22.290919 22.290919 22.290919 17.148637 17.148637 17.148637 17.148637 17.148637 17.148637 17.148637 0.000000 0.000000 0.000000 0.000000 0.000000 17.432577 17.432577 17.432577 17.432577 17.432577 17.432577 17.789757 17.789757 17.789757 17.789757 17.789757 17.789757 17.789757 21.680131 21.680131 21.680131 21.680131 21.680131 21.680131 21.680131 21.680131 0.000000 0.000000 0.000000 0.000000
0.000000 0.000000 0.000000 0.000000 20.073488 20.073488 20.073488 20.073488 20.073488 20.073488 20.073488 20.073488 20.640940 20.640940 20.640940 20.640940 20.640940 20.640940 20.640940 20.640940 21.990320 21.990320 21.990320 21.990320 21.990320 21.990320 21.990320 21.990320 0.000000 0.000000 0.000000 0.000000 0.000000 26.748966 26.748966 26.748966 26.748966 26.748966 26.748966 26.748966 26.748966 26.748966 26.748966 0.000000 0.000000 0.000000 0.000000 0.000000 26.999040 26.999040 26.999040 26.999040 26.999040 26.999040 26.999040 26.999040 26.999040 26.999040 22.290919 22.290919 22.290919 22.290919 22.290919 22.290919 22.290919 22.290919 17.148637 17.148637 17.148637 17.148637 17.148637 17.148637 17.148637 0.000000 0.000000 0.000000 0.000000 0.000000 17.432577 17.432577 17.432577 17.432577 17.432577 17.432577 17.789757 17.789757 17.789757 17.789757 17.789757 17.789757 17.789757 21.680131 21.680131 21.680131 21.680131 21.680131 21.680131 21.680131 21.680131 0.000000 0.000000 0.000000 0.000000
0.000000 0.000000 0.000000 0.000000 0.000000 0.000000 0.000000 0.000000 0.000000 0.000000 0.000000 0.000000 0.000000 0.000000 0.000000 0.000000 0.000000 0.000000 0.000000 0.000000 0.000000 0.000000 0.000000 0.000000 0.000000 0.000000 0.000000 0.000000 0.000000 0.000000 0.000000 0.000000 0.000000 0.000000 0.000000 0.000000 0.000000 0.000000 0.000000 0.000000 0.000000 0.000000 0.000000 0.000000 0.000000 0.000000 0.000000 0.000000 0.000000 0.000000 0.000000 0.000000 0.000000 0.000000 0.000000 0.000000 0.000000 0.000000 0.000000 0.000000 0.000000 0.000000 0.000000 0.000000 0.000000 0.000000 0.000000 0.000000 0.000000 0.000000 0.000000 0.000000 0.000000 0.000000 0.000000 0.000000 0.000000 0.000000 0.000000 0.000000 0.000000 0.000000 0.000000 0.000000 0.000000 0.000000 0.000000 0.000000 0.000000 0.000000 0.000000 0.000000 0.000000 0.000000 0.000000 0.000000 0.000000 0.000000 0.000000 0.000000 0.000000 0.000000 0.000000
0.000000 0.000000 0.000000 0.000000 0.000000 0.000000 0.000000 0.000000 0.000000 0.000000 0.000000 0.000000 0.000000 0.000000 0.000000 0.000000 0.000000 0.000000 0.000000 0.000000 0.000000 0.000000 0.000000 0.000000 0.000000 0.000000 0.000000 0.000000 0.000000 0.000000 0.000000 0.000000 0.000000 0.000000 0.000000 0.000000 0.000000 0.000000 0.000000 0.000000 0.000000 0.000000 0.000000 0.000000 0.000000 0.000000 0.000000 0.000000 0.000000 0.000000 0.000000 0.000000 0.000000 0.000000 0.000000 0.000000 0.000000 0.000000 0.000000 0.000000 0.000000 0.000000 0.000000 0.000000 0.000000 0.000000 0.000000 0.000000 0.000000 0.000000 0.000000 0.000000 0.000000 0.000000 0.000000 0.000000 0.000000 0.000000 0.000000 0.000000 0.000000 0.000000 0.000000 0.000000 0.000000 0.000000 0.000000 0.000000 0.000000 0.000000 0.000000 0.000000 0.000000 0.000000 0.000000 0.000000 0.000000 0.000000 0.000000 0.000000 0.000000 0.000000 0.000000
0.000000 0.000000 0.000000 0.000000 0.000000 0.000000 0.000000 0.000000 0.000000 0.000000 0.000000 0.000000 0.000000 0.000000 0.000000 0.000000 0.000000 0.000000 0.000000 0.000000 0.000000 0.000000 0.000000 0.000000 0.000000 0.000000 0.000000 0.000000 0.000000 0.000000 0.000000 0.000000 0.000000 0.000000 0.000000 0.000000 0.000000 0.000000 0.000000 0.000000 0.000000 0.000000 0.000000 0.000000 0.000000 0.000000 0.000000 0.000000 0.000000 0.000000 0.000000 0.000000 0.000000 0.000000 0.000000 0.000000 0.000000 0.000000 0.000000 0.000000 0.000000 0.000000 0.000000 0.000000 0.000000 0.000000 0.000000 0.000000 0.000000 0.000000 0.000000 0.000000 0.000000 0.000000 0.000000 0.000000 0.000000 0.000000 0.000000 0.000000 0.000000 0.000000 0.000000 0.000000 0.000000 0.000000 0.000000 0.000000 0.000000 0.000000 0.000000 0.000000 0.000000 0.000000 0.000000 0.000000 0.000000 0.000000 0.000000 0.000000 0.000000 0.000000 0.000000
0.000000 0.000000 0.000000 0.000000 0.000000 0.000000 0.000000 0.000000 0.000000 0.000000 0.000000 0.000000 0.000000 0.000000 0.000000 0.000000 0.000000 0.000000 0.000000 0.000000 0.000000 0.000000 0.000000 0.000000 0.000000 0.000000 0.000000 0.000000 0.000000 0.000000 0.000000 0.000000 0.000000 0.000000 0.000000 0.000000 0.000000 0.000000 0.000000 0.000000 0.000000 0.000000 0.000000 0.000000 0.000000 0.000000 0.000000 0.000000 0.000000 0.000000 0.000000 0.000000 0.000000 0.000000 0.000000 0.000000 0.000000 0.000000 0.000000 0.000000 0.000000 0.000000 0.000000 0.000000 0.000000 0.000000 0.000000 0.000000 0.000000 0.000000 0.000000 0.000000 0.000000 0.000000 0.000000 0.000000 0.000000 0.000000 0.000000 0.000000 0.000000 0.000000 0.000000 0.000000 0.000000 0.000000 0.000000 0.000000 0.000000 0.000000 0.000000 0.000000 0.000000 0.000000 0.000000 0.000000 0.000000 0.000000 0.000000 0.000000 0.000000 0.000000 0.000000
