0.000000 0.000000 0.000000 0.000000 0.000000 0.000000 0.000000 0.000000 0.000000 0.000000 0.000000 0.000000 0.000000 0.000000 0.000000 0.000000 0.000000 0.000000 0.000000 0.000000 0.000000 0.000000 0.000000 0.000000 0.000000 0.000000 0.000000 0.000000 0.000000 0.000000 0.000000 0.000000 0.000000 0.000000 0.000000 0.000000 0.000000 0.000000 0.000000 0.000000 0.000000 0.000000 0.000000 0.000000 0.000000 0.000000 0.000000 0.000000 0.000000 0.000000 0.000000 0.000000 0.000000 0.000000 0.000000 0.000000 0.000000 0.000000 0.000000 0.000000 0.000000 0.000000 0.000000 0.000000 0.000000 0.000000 0.000000 0.000000 0.000000 0.000000 0.000000 0.000000 0.000000 0.000000 0.000000 0.000000 0.000000 0.000000 0.000000 0.000000 0.000000 0.000000 0.000000 0.000000 0.000000 0.000000 0.000000 0.000000 0.000000 0.000000 0.000000 0.000000 0.000000 0.000000 0.000000 0.000000 0.000000 0.000000 0.000000 0.000000 0.000000 0.000000 0.000000
0.000000 0.000000 0.000000 0.000000 0.000000 0.000000 0.000000 0.000000 0.000000 0.000000 0.000000 0.000000 0.000000 0.000000 0.000000 0.000000 0.000000 0.000000 0.000000 0.000000 0.000000 0.000000 0.000000 0.000000 0.000000 0.000000 0.000000 0.000000 0.000000 0.000000 0.000000 0.000000 0.000000 0.000000 0.000000 0.000000 0.000000 0.000000 0.000000 0.000000 0.000000 0.000000 0.000000 0.000000 0.000000 0.000000 0.000000 0.000000 0.000000 0.000000 0.000000 0.000000 0.000000 0.000000 0.000000 0.000000 0.000000 0.000000 0.000000 0.000000 0.000000 0.000000 0.000000 0.000000 0.000000 0.000000 0.000000 0.000000 0.000000 0.000000 0.000000 0.000000 0.000000 0.000000 0.000000 0.000000 0.000000 0.000000 0.000000 0.000000 0.000000 0.000000 0.000000 0.000000 0.000000 0.000000 0.000000 0.000000 0.000000 0.000000 0.000000 0.000000 0.000000 0.000000 0.000000 0.000000 0.000000 0.000000 0.000000 0.000000 0.000000 0.000000 0.000000
0.000000 0.000000 0.000000 0.000000 0.000000 0.000000 0.000000 0.000000 0.000000 0.000000 0.000000 0.000000 0.000000 0.000000 0.000000 0.000000 0.000000 0.000000 0.000000 0.000000 0.000000 0.000000 0.000000 0.000000 0.000000 0.000000 0.000000 0.000000 0.000000 0.000000 0.000000 0.000000 0.000000 0.000000 0.000000 0.000000 0.000000 0.000000 0.000000 0.000000 0.000000 0.000000 0.000000 0.000000 0.000000 0.000000 0.000000 0.000000 0.000000 0.000000 0.000000 0.000000 0.000000 0.000000 0.000000 0.000000 0.000000 0.000000 0.000000 0.000000 0.000000 0.000000 0.000000 0.000000 0.000000 0.000000 0.000000 0.000000 0.000000 0.000000 0.000000 0.000000 0.000000 0.000000 0.000000 0.000000 0.000000 0.000000 0.000000 0.000000 0.000000 0.000000 0.000000 0.000000 0.000000 0.000000 0.000000 0.000000 0.000000 0.000000 0.000000 0.000000 0.000000 0.000000 0.000000 0.000000 0.000000 0.000000 0.000000 0.000000 0.000000 0.000000 0.000000
0.000000 0.000000 0.000000 0.000000 0.000000 0.000000 0.000000 0.000000 0.000000 0.000000 0.000000 0.000000 0.000000 0.000000 0.000000 0.000000 0.000000 0.000000 0.000000 0.000000 0.000000 0.000000 0.000000 0.000000 0.000000 0.000000 0.000000 0.000000 0.000000 0.000000 0.000000 0.000000 0.000000 0.000000 0.000000 0.000000 0.000000 0.000000 0.000000 0.000000 0.000000 0.000000 0.000000 0.000000 0.000000 0.000000 0.000000 0.000000 0.000000 0.000000 0.000000 0.000000 0.000000 0.000000 0.000000 0.000000 0.000000 0.000000 0.000000 0.000000 0.000000 0.000000 0.000000 0.000000 0.000000 0.000000 0.000000 0.000000 0.000000 0.000000 0.000000 0.000000 0.000000 0.000000 0.000000 0.000000 0.000000 0.000000 0.000000 0.000000 0.000000 0.000000 0.000000 0.000000 0.000000 0.000000 0.000000 0.000000 0.000000 0.000000 0.000000 0.000000 0.000000 0.000000 0.000000 0.000000 0.000000 0.000000 0.000000 0.000000 0.000000 0.000000 0.000000
0.000000 0.000000 0.000000 0.000000 0.000000 0.000000 0.000000 0.000000 0.000000 0.000000 0.000000 0.000000 0.000000 0.000000 0.000000 0.000000 0.000000 0.000000 0.000000 0.000000 0.000000 0.000000 0.000000 0.000000 0.000000 0.000000 0.000000 0.000000 0.000000 0.000000 0.000000 0.000000 0.000000 0.000000 0.000000 0.000000 0.000000 0.000000 0.000000 0.000000 0.000000 0.000000 0.000000 0.000000 0.000000 0.000000 0.000000 0.000000 0.000000 0.000000 0.000000 0.000000 0.000000 0.000000 0.000000 0.000000 0.000000 0.000000 0.000000 0.000000 0.000000 0.000000 0.000000 0.000000 0.000000 17.994102 17.994102 17.994102 17.994102 17.994102 17.994102 17.994102 17.994102 17.994102 13.892301 13.892301 13.892301 13.892301 13.892301 13.892301 13.892301 0.000000 0.000000 0.000000 0.000000 0.000000 0.000000 0.000000 0.000000 0.000000 0.000000 0.000000 0.000000 15.236264 15.236264 15.236264 15.236264 15.236264 15.236264 0.000000 0.000000 0.000000 0.000000
0.000000 0.000000 0.000000 0.000000 0.000000 0.000000 0.000000 0.000000 0.000000 0.000000 0.000000 0.000000 0.000000 0.000000 0.000000 0.000000 0.000000 0.000000 0.000000 0.000000 0.000000 0.000000 0.000000 0.000000 0.000000 0.000000 0.000000 0.000000 0.000000 0.000000 0.000000 0.000000 0.000000 0.000000 0.000000 0.000000 0.000000 0.000000 0.000000 0.000000 0.000000 0.000000 0.000000 0.000000 0.000000 0.000000 0.000000 0.000000 0.000000 0.000000 0.000000 0.000000 0.000000 0.000000 0.000000 0.000000 0.000000 0.000000 0.000000 0.000000 0.000000 0.000000 0.000000 0.000000 0.000000 17.994102 17.994102 17.994102 17.994102 17.994102 17.994102 17.994102 17.994102 17.994102 13.892301 13.892301 13.892301 13.892301 13.892301 13.892301 13.892301 0.000000 0.000000 0.000000 0.000000 0.000000 0.000000 0.000000 0.000000 0.000000 0.000000 0.000000 0.000000 15.236264 15.236264 15.236264 15.236264 15.236264 15.236264 0.000000 0.000000 0.000000 0.000000
0.000000 0.000000 0.000000 0.000000 0.000000 0.000000 27.037814 27.037814 27.037814 27.037814 27.037814 27.037814 27.037814 27.037814 27.037814 27.037814 27.037814 27.037814 27.037814 27.037814 0.000000 0.000000 0.000000 0.000000 0.000000 0.000000 0.000000 0.000000 0.000000 0.000000 0.000000 0.000000 0.000000 12.750018 12.750018 12.750018 12.750018 12.750018 12.750018 0.000000 0.000000 0.000000 0.000000 0.000000 0.000000 0.000000 0.000000 0.000000 0.000000 0.000000 0.000000 0.000000 0.000000 0.000000 0.000000 0.000000 0.000000 0.000000 0.000000 0.000000 0.000000 0.000000 0.000000 0.000000 0.000000 17.994102 17.994102 17.994102 17.994102 17.994102 17.994102 17.994102 17.994102 17.994102 13.892301 13.892301 13.892301 13.892301 13.892301 13.892301 13.892301 0.000000 0.000000 0.000000 0.000000 0.000000 0.000000 0.000000 0.000000 0.000000 0.000000 0.000000 0.000000 15.236264 15.236264 15.236264 15.236264 15.236264 15.236264 0.000000 0.000000 0.000000 0.000000
0.000000 0.000000 0.000000 0.000000 0.000000 0.000000 27.037814 27.037814 27.037814 27.037814 27.037814 27.037814 27.037814 27.037814 27.037814 27.037814 27.037814 27.037814 27.037814 27.037814 0.000000 0.000000 0.000000 0.000000 0.000000 0.000000 0.000000 0.000000 0.000000 0.000000 0.000000 0.000000 0.000000 12.750018 12.750018 12.750018 12.750018 12.750018 12.750018 0.000000 0.000000 0.000000 0.000000 0.000000 0.000000 0.000000 0.000000 0.000000 0.000000 0.000000 0.000000 0.000000 0.000000 0.000000 0.000000 0.000000 0.000000 0.000000 0.000000 0.000000 0.000000 0.000000 0.000000 0.000000 0.000000 17.994102 17.994102 17.994102 17.994102 17.994102 17.994102 17.994102 17.994102 17.994102 13.892301 13.892301 13.892301 13.892301 13.892301 13.892301 13.892301 0.000000 0.000000 0.000000 0.000000 0.000000 0.000000 0.000000 0.000000 0.000000 0.000000 0.000000 0.000000 15.236264 15.236264 15.236264 15.236264 15.236264 15.236264 0.000000 0.000000 0.000000 0.000000
0.000000 0.000000 0.000000 0.000000 0.000000 0.000000 27.037814 27.037814 27.037814 27.037814 27.037814 27.037814 27.037814 27.037814 27.037814 27.037814 27.037814 27.037814 27.037814 27.037814 0.000000 0.000000 0.000000 0.000000 0.000000 0.000000 0.000000 0.000000 0.000000 0.000000 0.000000 0.000000 0.000000 12.750018 12.750018 12.750018 12.750018 12.750018 12.750018 0.000000 0.000000 0.000000 0.000000 0.000000 0.000000 0.000000 0.000000 0.000000 0.000000 0.000000 0.000000 0.000000 0.000000 0.000000 0.000000 0.000000 0.000000 0.000000 0.000000 0.000000 0.000000 0.000000 0.000000 0.000000 0.000000 17.994102 17.994102 17.994102 17.994102 17.994102 17.994102 17.994102 17.994102 17.994102 13.892301 13.892301 13.892301 13.892301 13.892301 13.892301 13.892301 0.000000 0.000000 0.000000 0.000000 0.000000 0.000000 0.000000 0.000000 0.000000 0.000000 0.000000 0.000000 15.236264 15.236264 15.236264 15.236264 15.236264 15.236264 0.000000 0.000000 0.000000 0.000000
0.000000 0.000000 0.000000 0.000000 0.000000 0.000000 27.037814 27.037814 27.037814 27.037814 27.037814 27.037814 27.037814 27.037814 27.037814 27.037814 27.037814 27.037814 27.037814 27.037814 0.000000 0.000000 0.000000 0.000000 0.000000 0.000000 0.000000 0.000000 0.000000 0.000000 0.000000 0.000000 0.000000 12.750018 12.750018 12.750018 12.750018 12.750018 12.750018 0.000000 0.000000 0.000000 0.000000 0.000000 0.000000 0.000000 0.000000 0.000000 0.000000 0.000000 0.000000 0.000000 0.000000 0.000000 0.000000 0.000000 0.000000 0.000000 0.000000 0.000000 0.000000 0.000000 0.000000 0.000000 0.000000 17.994102 17.994102 17.994102 17.994102 17.994102 17.994102 17.994102 17.994102 17.994102 13.892301 13.892301 13.892301 13.892301 13.892301 13.892301 13.892301 0.000000 0.000000 0.000000 0.000000 0.000000 0.000000 0.000000 0.000000 0.000000 0.000000 0.000000 0.000000 15.236264 15.236264 15.236264 15.236264 15.236264 15.236264 0.000000 0.000000 0.000000 0.000000
0.000000 0.000000 0.000000 0.000000 0.000000 0.000000 27.037814 27.037814 27.037814 27.037814 27.037814 27.037814 27.037814 27.037814 27.037814 27.037814 27.037814 27.037814 27.037814 27.037814 0.000000 0.000000 0.000000 0.000000 0.000000 0.000000 0.000000 0.000000 0.000000 0.000000 0.000000 0.000000 0.000000 12.750018 12.750018 12.750018 12.750018 12.750018 12.750018 0.000000 0.000000 0.000000 0.000000 0.000000 0.000000 0.000000 0.000000 0.000000 0.000000 0.000000 0.000000 0.000000 0.000000 0.000000 0.000000 0.000000 0.000000 0.000000 0.000000 0.000000 0.000000 0.000000 0.000000 0.000000 0.000000 17.994102 17.994102 17.994102 17.994102 17.994102 17.994102 17.994102 17.994102 17.994102 13.892301 13.892301 13.892301 13.892301 13.892301 13.892301 13.892301 0.000000 0.000000 0.000000 0.000000 0.000000 0.000000 0.000000 0.000000 0.000000 0.000000 0.000000 0.000000 15.236264 15.236264 15.236264 15.236264 15.236264 15.236264 0.000000 0.000000 0.000000 0.000000
0.000000 0.000000 0.000000 0.000000 0.000000 0.000000 27.037814 27.037814 27.037814 27.037814 27.037814 27.037814 27.037814 27.037814 27.037814 27.037814 27.037814 27.037814 27.037814 27.037814 0.000000 0.000000 0.000000 0.000000 0.000000 0.000000 0.000000 0.000000 0.000000 0.000000 0.000000 0.000000 0.000000 12.750018 12.750018 12.750018 12.750018 12.750018 12.750018 0.000000 0.000000 0.000000 0.000000 0.000000 0.000000 0.000000 0.000000 0.000000 0.000000 0.000000 0.000000 0.000000 0.000000 0.000000 0.000000 0.000000 0.000000 0.000000 0.000000 0.000000 0.000000 0.000000 0.000000 0.000000 0.000000 17.994102 17.994102 17.994102 17.994102 17.994102 17.994102 17.994102 17.994102 17.994102 13.892301 13.892301 13.892301 13.892301 13.892301 13.892301 13.892301 0.000000 0.000000 0.000000 0.000000 0.000000 0.000000 0.000000 0.000000 0.000000 0.000000 0.000000 0.000000 15.236264 15.236264 15.236264 15.236264 15.236264 15.236264 0.000000 0.000000 0.000000 0.000000
0.000000 0.000000 0.000000 0.000000 0.000000 0.000000 27.037814 27.037814 27.037814 27.037814 27.037814 27.037814 27.037814 27.037814 27.037814 27.037814 27.037814 27.037814 27.037814 27.037814 0.000000 0.000000 0.000000 0.000000 0.000000 0.000000 0.000000 0.000000 0.000000 0.000000 0.000000 0.000000 0.000000 12.750018 12.750018 12.750018 12.750018 12.750018 12.750018 0.000000 0.000000 0.000000 0.000000 0.000000 0.000000 0.000000 0.000000 0.000000 0.000000 0.000000 0.000000 0.000000 0.000000 0.000000 0.000000 0.000000 0.000000 0.000000 0.000000 0.000000 0.000000 0.000000 0.000000 0.000000 0.000000 0.000000 0.000000 0.000000 0.000000 0.000000 0.000000 0.000000 0.000000 0.000000 0.000000 0.000000 0.000000 0.000000 0.000000 0.000000 0.000000 0.000000 0.000000 0.000000 0.000000 0.000000 0.000000 0.000000 0.000000 0.000000 0.000000 0.000000 0.000000 15.236264 15.236264 15.236264 15.236264 15.236264 15.236264 0.000000 0.000000 0.000000 0.000000
0.000000 0.000000 0.000000 0.000000 0.000000 0.000000 27.037814 27.037814 27.037814 27.037814 27.037814 27.037814 27.037814 27.037814 27.037814 27.037814 27.037814 27.037814 27.037814 27.037814 0.000000 0.000000 0.000000 0.000000 0.000000 0.000000 0.000000 0.000000 0.000000 0.000000 0.000000 0.000000 0.000000 12.750018 12.750018 12.750018 12.750018 12.750018 12.750018 0.000000 0.000000 0.000000 0.000000 0.000000 0.000000 0.000000 0.000000 0.000000 0.000000 0.000000 0.000000 0.000000 0.000000 0.000000 0.000000 0.000000 0.000000 0.000000 0.000000 0.000000 0.000000 0.000000 0.000000 0.000000 0.000000 0.000000 0.000000 0.000000 0.000000 0.000000 0.000000 0.000000 0.000000 0.000000 0.000000 0.000000 0.000000 0.000000 0.000000 0.000000 0.000000 0.000000 0.000000 0.000000 0.000000 0.000000 0.000000 0.000000 0.000000 0.000000 0.000000 0.000000 0.000000 15.236264 15.236264 15.236264 15.236264 15.236264 15.236264 0.000000 0.000000 0.000000 0.000000
0.000000 0.000000 0.000000 0.000000 0.000000 0.000000 0.000000 0.000000 0.000000 0.000000 0.000000 0.000000 0.000000 0.000000 0.000000 0.000000 0.000000 0.000000 0.000000 0.000000 0.000000 0.000000 0.000000 0.000000 0.000000 0.000000 0.000000 0.000000 0.000000 0.000000 0.000000 0.000000 0.000000 0.000000 0.000000 0.000000 0.000000 0.000000 0.000000 0.000000 0.000000 0.000000 0.000000 0.000000 0.000000 0.000000 0.000000 0.000000 0.000000 0.000000 0.000000 0.000000 0.000000 0.000000 0.000000 0.000000 0.000000 0.000000 0.000000 0.000000 0.000000 0.000000 0.000000 0.000000 0.000000 0.000000 0.000000 0.000000 0.000000 0.000000 0.000000 0.000000 0.000000 0.000000 0.000000 0.000000 0.000000 0.000000 0.000000 0.000000 0.000000 0.000000 0.000000 0.000000 0.000000 0.000000 10.542874 10.542874 10.542874 10.542874 10.542874 10.542874 10.542874 0.000000 0.000000 0.000000 0.000000 0.000000 0.000000 0.000000 0.000000 0.000000 0.000000
0.000000 0.000000 0.000000 0.000000 0.000000 0.000000 0.000000 0.000000 0.000000 0.000000 0.000000 0.000000 0.000000 0.000000 0.000000 0.000000 0.000000 0.000000 0.000000 0.000000 0.000000 0.000000 0.000000 0.000000 0.000000 0.000000 0.000000 0.000000 0.000000 0.000000 0.000000 0.000000 0.000000 0.000000 0.000000 0.000000 0.000000 0.000000 0.000000 0.000000 0.000000 0.000000 0.000000 0.000000 0.000000 0.000000 0.000000 0.000000 0.000000 0.000000 0.000000 0.000000 0.000000 0.000000 0.000000 0.000000 0.000000 0.000000 0.000000 0.000000 0.000000 0.000000 0.000000 0.000000 0.000000 0.000000 0.000000 0.000000 0.000000 0.000000 0.000000 0.000000 0.000000 0.000000 0.000000 0.000000 0.000000 0.000000 0.000000 0.000000 0.000000 0.000000 0.000000 0.000000 0.000000 0.000000 10.542874 10.542874 10.542874 10.542874 10.542874 10.542874 10.542874 0.000000 0.000000 0.000000 0.000000 0.000000 0.000000 0.000000 0.000000 0.000000 0.000000
0.000000 0.000000 0.000000 0.000000 23.866552 23.866552 23.866552 23.866552 23.866552 23.866552 23.866552 23.866552 23.866552 23.107312 23.107312 23.107312 23.107312 23.107312 23.107312 23.107312 23.107312 23.107312 0.000000 0.000000 0.000000 0.000000 0.000000 0.000000 0.000000 0.000000 0.000000 0.000000 0.000000 0.000000 0.000000 0.000000 0.000000 0.000000 0.000000 0.000000 0.000000 0.000000 0.000000 0.000000 0.000000 0.000000 0.000000 0.000000 0.000000 0.000000 0.000000 0.000000 0.000000 0.000000 0.000000 0.000000 0.000000 0.000000 0.000000 0.000000 0.000000 0.000000 0.000000 0.000000 0.000000 0.000000 0.000000 0.000000 0.000000 0.000000 0.000000 0.000000 0.000000 0.000000 0.000000 0.000000 0.000000 0.000000 0.000000 0.000000 0.000000 0.000000 0.000000 0.000000 0.000000 0.000000 10.542874 10.542874 10.542874 10.542874 10.542874 10.542874 10.542874 0.000000 0.000000 0.000000 0.000000 0.000000 0.000000 0.000000 0.000000 0.000000 0.000000
0.000000 0.000000 0.000000 0.000000 23.866552 23.866552 23.866552 23.866552 23.866552 23.866552 23.866552 23.866552 23.866552 23.107312 23.107312 23.107312 23.107312 23.107312 23.107312 23.107312 23.107312 23.107312 0.000000 0.000000 0.000000 0.000000 0.000000 0.000000 0.000000 0.000000 0.000000 0.000000 0.000000 0.000000 0.000000 0.000000 0.000000 0.000000 0.000000 0.000000 0.000000 0.000000 0.000000 0.000000 0.000000 0.000000 0.000000 0.000000 0.000000 0.000000 0.000000 0.000000 0.000000 0.000000 0.000000 0.000000 0.000000 0.000000 0.000000 0.000000 0.000000 0.000000 0.000000 0.000000 0.000000 0.000000 0.000000 0.000000 0.000000 0.000000 0.000000 0.000000 0.000000 0.000000 0.000000 0.000000 0.000000 0.000000 0.000000 0.000000 0.000000 0.000000 0.000000 0.000000 0.000000 0.000000 10.542874 10.542874 10.542874 10.542874 10.542874 10.542874 10.542874 0.000000 0.000000 0.000000 0.000000 0.000000 0.000000 0.000000 0.000000 0.000000 0.000000
0.000000 0.000000 0.000000 0.000000 23.866552 23.866552 23.866552 23.866552 23.866552 23.866552 23.866552 23.866552 23.866552 23.107312 23.107312 23.107312 23.107312 23.107312 23.107312 23.107312 23.107312 23.107312 0.000000 0.000000 0.000000 0.000000 0.000000 0.000000 0.000000 0.000000 0.000000 0.000000 0.000000 11.537710 11.537710 11.537710 11.537710 11.537710 11.537710 0.000000 0.000000 0.000000 0.000000 0.000000 0.000000 0.000000 0.000000 0.000000 16.324850 16.324850 16.324850 16.324850 16.324850 16.324850 16.324850 16.324850 16.324850 16.324850 0.000000 0.000000 0.000000 0.000000 0.000000 0.000000 0.000000 0.000000 0.000000 0.000000 0.000000 0.000000 0.000000 0.000000 0.000000 0.000000 0.000000 0.000000 0.000000 0.000000 0.000000 0.000000 0.000000 0.000000 0.000000 0.000000 0.000000 0.000000 10.542874 10.542874 10.542874 10.542874 10.542874 10.542874 10.542874 0.000000 0.000000 0.000000 0.000000 0.000000 0.000000 0.000000 0.000000 0.000000 0.000000
0.000000 0.000000 0.000000 0.000000 23.866552 23.866552 23.866552 23.866552 23.866552 23.866552 23.866552 23.866552 23.866552 23.107312 23.107312 23.107312 23.107312 23.107312 23.107312 23.107312 23.107312 23.107312 0.000000 0.000000 0.000000 0.000000 0.000000 0.000000 0.000000 0.000000 0.000000 0.000000 0.000000 11.537710 11.537710 11.537710 11.537710 11.537710 11.537710 0.000000 0.000000 0.000000 0.000000 0.000000 0.000000 0.000000 0.000000 0.000000 16.324850 16.324850 16.324850 16.324850 16.324850 16.324850 16.324850 16.324850 16.324850 16.324850 0.000000 0.000000 0.000000 0.000000 0.000000 0.000000 0.000000 0.000000 0.000000 0.000000 0.000000 0.000000 0.000000 0.000000 0.000000 0.000000 12.190385 12.190385 12.190385 12.190385 12.190385 12.190385 12.190385 0.000000 0.000000 0.000000 0.000000 0.000000 10.542874 10.542874 10.542874 10.542874 10.542874 10.542874 10.542874 0.000000 0.000000 0.000000 0.000000 0.000000 0.000000 0.000000 0.000000 0.000000 0.000000
0.000000 0.000000 0.000000 0.000000 23.866552 23.866552 23.866552 23.866552 23.866552 23.866552 23.866552 23.866552 23.866552 23.107312 23.107312 23.107312 23.107312 23.107312 23.107312 23.107312 23.107312 23.107312 0.000000 0.000000 0.000000 0.000000 0.000000 0.000000 0.000000 0.000000 0.000000 0.000000 0.000000 11.537710 11.537710 11.537710 11.537710 11.537710 11.537710 0.000000 0.000000 0.000000 0.000000 0.000000 0.000000 0.000000 0.000000 0.000000 16.324850 16.324850 16.324850 16.324850 16.324850 16.324850 16.324850 16.324850 16.324850 16.324850 0.000000 0.000000 0.000000 0.000000 0.000000 0.000000 0.000000 0.000000 0.000000 0.000000 0.000000 0.000000 0.000000 0.000000 0.000000 0.000000 12.190385 12.190385 12.190385 12.190385 12.190385 12.190385 12.190385 0.000000 0.000000 0.000000 0.000000 0.000000 0.000000 0.000000 0.000000 0.000000 0.000000 0.000000 0.000000 10.554659 10.554659 10.554659 10.554659 10.554659 10.554659 0.000000 0.000000 0.000000 0.000000
0.000000 0.000000 0.000000 0.000000 23.866552 23.866552 23.866552 23.866552 23.866552 23.866552 23.866552 23.866552 23.866552 23.107312 23.107312 23.107312 23.107312 23.107312 23.107312 23.107312 23.107312 23.107312 0.000000 0.000000 0.000000 0.000000 0.000000 0.000000 0.000000 0.000000 0.000000 0.000000 0.000000 11.537710 11.537710 11.537710 11.537710 11.537710 11.537710 0.000000 0.000000 0.000000 0.000000 0.000000 0.000000 0.000000 0.000000 0.000000 16.324850 16.324850 16.324850 16.324850 16.324850 16.324850 16.324850 16.324850 16.324850 16.324850 0.000000 0.000000 0.000000 0.000000 0.000000 0.000000 0.000000 0.000000 0.000000 0.000000 0.000000 0.000000 0.000000 0.000000 0.000000 0.000000 12.190385 12.190385 12.190385 12.190385 12.190385 12.190385 12.190385 0.000000 0.000000 0.000000 0.000000 0.000000 0.000000 0.000000 0.000000 0.000000 0.000000 0.000000 0.000000 10.554659 10.554659 10.554659 10.554659 10.554659 10.554659 0.000000 0.000000 0.000000 0.000000
0.000000 0.000000 0.000000 0.000000 23.866552 23.866552 23.866552 23.866552 23.866552 23.866552 23.866552 23.866552 23.866552 23.107312 23.107312 23.107312 23.107312 23.107312 23.107312 23.107312 23.107312 23.107312 0.000000 0.000000 0.000000 0.000000 0.000000 0.000000 0.000000 0.000000 0.000000 0.000000 0.000000 11.537710 11.537710 11.537710 11.537710 11.537710 11.537710 0.000000 0.000000 0.000000 0.000000 0.000000 0.000000 0.000000 0.000000 0.000000 16.324850 16.324850 16.324850 16.324850 16.324850 16.324850 16.324850 16.324850 16.324850 16.324850 0.000000 0.000000 0.000000 0.000000 0.000000 0.000000 0.000000 0.000000 0.000000 0.000000 0.000000 0.000000 0.000000 0.000000 0.000000 0.000000 12.190385 12.190385 12.190385 12.190385 12.190385 12.190385 12.190385 0.000000 0.000000 0.000000 0.000000 0.000000 0.000000 0.000000 0.000000 0.000000 0.000000 0.000000 0.000000 10.554659 10.554659 10.554659 10.554659 10.554659 10.554659 0.000000 0.000000 0.000000 0.000000
0.000000 0.000000 0.000000 0.000000 23.866552 23.866552 23.866552 23.866552 23.866552 23.866552 23.866552 23.866552 23.866552 23.107312 23.107312 23.107312 23.107312 23.107312 23.107312 23.107312 23.107312 23.107312 0.000000 0.000000 0.000000 0.000000 0.000000 0.000000 0.000000 0.000000 0.000000 0.000000 0.000000 11.537710 11.537710 11.537710 11.537710 11.537710 11.537710 0.000000 0.000000 0.000000 0.000000 0.000000 0.000000 0.000000 0.000000 0.000000 16.324850 16.324850 16.324850 16.324850 16.324850 16.324850 16.324850 16.324850 16.324850 16.324850 0.000000 0.000000 0.000000 0.000000 0.000000 0.000000 0.000000 0.000000 0.000000 0.000000 0.000000 0.000000 0.000000 0.000000 0.000000 0.000000 12.190385 12.190385 12.190385 12.190385 12.190385 12.190385 12.190385 0.000000 0.000000 0.000000 0.000000 0.000000 0.000000 0.000000 0.000000 0.000000 0.000000 0.000000 0.000000 10.554659 10.554659 10.554659 10.554659 10.554659 10.554659 0.000000 0.000000 0.000000 0.000000
0.000000 0.000000 0.000000 0.000000 23.866552 23.866552 23.866552 23.866552 23.866552 23.866552 23.866552 23.866552 23.866552 23.107312 23.107312 23.107312 23.107312 23.107312 23.107312 23.107312 23.107312 23.107312 0.000000 0.000000 0.000000 0.000000 0.000000 0.000000 0.000000 0.000000 0.000000 0.000000 0.000000 11.537710 11.537710 11.537710 11.537710 11.537710 11.537710 0.000000 0.000000 0.000000 0.000000 0.000000 0.000000 0.000000 0.000000 0.000000 16.324850 16.324850 16.324850 16.324850 16.324850 16.324850 16.324850 16.324850 16.324850 16.324850 0.000000 0.000000 0.000000 0.000000 0.000000 0.000000 0.000000 0.000000 0.000000 0.000000 0.000000 0.000000 0.000000 0.000000 0.000000 0.000000 12.190385 12.190385 12.190385 12.190385 12.190385 12.190385 12.190385 0.000000 0.000000 0.000000 0.000000 0.000000 0.000000 0.000000 0.000000 0.000000 0.000000 0.000000 0.000000 10.554659 10.554659 10.554659 10.554659 10.554659 10.554659 0.000000 0.000000 0.000000 0.000000
0.000000 0.000000 0.000000 0.000000 23.866552 23.866552 23.866552 23.866552 23.866552 23.866552 23.866552 23.866552 23.866552 23.107312 23.107312 23.107312 23.107312 23.107312 23.107312 23.107312 23.107312 23.107312 0.000000 0.000000 0.000000 0.000000 0.000000 0.000000 0.000000 0.000000 0.000000 0.000000 0.000000 0.000000 0.000000 0.000000 0.000000 0.000000 0.000000 0.000000 0.000000 0.000000 0.000000 0.000000 0.000000 0.000000 0.000000 0.000000 0.000000 0.000000 0.000000 0.000000 0.000000 0.000000 0.000000 0.000000 0.000000 0.000000 0.000000 0.000000 0.000000 0.000000 0.000000 0.000000 0.000000 0.000000 0.000000 0.000000 0.000000 0.000000 0.000000 0.000000 0.000000 0.000000 12.190385 12.190385 12.190385 12.190385 12.190385 12.190385 12.190385 0.000000 0.000000 0.000000 0.000000 0.000000 0.000000 0.000000 0.000000 0.000000 0.000000 0.000000 0.000000 10.554659 10.554659 10.554659 10.554659 10.554659 10.554659 0.000000 0.000000 0.000000 0.000000
0.000000 0.000000 0.000000 0.000000 23.866552 23.866552 23.866552 23.866552 23.866552 23.866552 23.866552 23.866552 23.866552 23.107312 23.107312 23.107312 23.107312 23.107312 23.107312 23.107312 23.107312 23.107312 0.000000 0.000000 0.000000 0.000000 0.000000 0.000000 0.000000 0.000000 0.000000 0.000000 0.000000 0.000000 0.000000 0.000000 0.000000 0.000000 0.000000 0.000000 0.000000 0.000000 0.000000 0.000000 0.000000 0.000000 0.000000 0.000000 0.000000 0.000000 0.000000 0.000000 0.000000 0.000000 0.000000 0.000000 0.000000 0.000000 0.000000 0.000000 0.000000 0.000000 0.000000 0.000000 0.000000 0.000000 0.000000 0.000000 0.000000 0.000000 0.000000 0.000000 0.000000 0.000000 12.190385 12.190385 12.190385 12.190385 12.190385 12.190385 12.190385 0.000000 0.000000 0.000000 0.000000 0.000000 0.000000 0.000000 0.000000 0.000000 0.000000 0.000000 0.000000 10.554659 10.554659 10.554659 10.554659 10.554659 10.554659 0.000000 0.000000 0.000000 0.000000
0.000000 0.000000 0.000000 0.000000 0.000000 0.000000 0.000000 0.000000 0.000000 0.000000 0.000000 0.000000 0.000000 0.000000 0.000000 0.000000 0.000000 0.000000 0.000000 0.000000 0.000000 0.000000 0.000000 0.000000 0.000000 0.000000 0.000000 0.000000 0.000000 0.000000 0.000000 0.000000 0.000000 0.000000 0.000000 0.000000 0.000000 0.000000 0.000000 0.000000 0.000000 0.000000 0.000000 0.000000 0.000000 0.000000 0.000000 0.000000 0.000000 0.000000 0.000000 0.000000 0.000000 0.000000 0.000000 0.000000 0.000000 0.000000 0.000000 0.000000 0.000000 0.000000 0.000000 0.000000 0.000000 0.000000 0.000000 0.000000 0.000000 0.000000 0.000000 0.000000 0.000000 0.000000 0.000000 0.000000 0.000000 0.000000 0.000000 0.000000 0.000000 0.000000 0.000000 0.000000 0.000000 0.000000 0.000000 0.000000 0.000000 0.000000 0.000000 0.000000 0.000000 0.000000 0.000000 0.000000 0.000000 0.000000 0.000000 0.000000 0.000000 0.000000 0.000000
0.000000 0.000000 0.000000 0.000000 0.000000 0.000000 0.000000 0.000000 0.000000 0.000000 0.000000 0.000000 0.000000 0.000000 0.000000 0.000000 0.000000 0.000000 0.000000 0.000000 0.000000 0.000000 0.000000 0.000000 0.000000 0.000000 0.000000 0.000000 0.000000 0.000000 0.000000 0.000000 0.000000 0.000000 0.000000 0.000000 0.000000 0.000000 0.000000 0.000000 0.000000 0.000000 0.000000 0.000000 0.000000 0.000000 0.000000 0.000000 0.000000 0.000000 0.000000 0.000000 0.000000 0.000000 0.000000 0.000000 0.000000 0.000000 0.000000 0.000000 0.000000 0.000000 0.000000 0.000000 0.000000 0.000000 0.000000 0.000000 0.000000 0.000000 0.000000 0.000000 0.000000 0.000000 0.000000 0.000000 0.000000 0.000000 0.000000 0.000000 0.000000 0.000000 0.000000 0.000000 0.000000 0.000000 0.000000 0.000000 0.000000 0.000000 0.000000 0.000000 0.000000 0.000000 0.000000 0.000000 0.000000 0.000000 0.000000 0.000000 0.000000 0.000000 0.000000
0.000000 0.000000 0.000000 0.000000 0.000000 0.000000 0.000000 0.000000 0.000000 0.000000 0.000000 0.000000 0.000000 0.000000 0.000000 0.000000 0.000000 0.000000 0.000000 0.000000 0.000000 0.000000 0.000000 0.000000 0.000000 0.000000 0.000000 0.000000 0.000000 0.000000 0.000000 0.000000 0.000000 0.000000 0.000000 0.000000 0.000000 0.000000 0.000000 0.000000 0.000000 0.000000 0.000000 0.000000 0.000000 0.000000 0.000000 0.000000 0.000000 0.000000 0.000000 0.000000 0.000000 0.000000 0.000000 0.000000 0.000000 0.000000 0.000000 0.000000 0.000000 0.000000 0.000000 0.000000 0.000000 0.000000 0.000000 0.000000 0.000000 0.000000 0.000000 0.000000 0.000000 0.000000 0.000000 0.000000 0.000000 0.000000 0.000000 0.000000 0.000000 0.000000 0.000000 0.000000 0.000000 0.000000 0.000000 0.000000 0.000000 0.000000 0.000000 0.000000 0.000000 0.000000 0.000000 0.000000 0.000000 0.000000 0.000000 0.000000 0.000000 0.000000 0.000000
0.000000 0.000000 0.000000 0.000000 0.000000 0.000000 0.000000 0.000000 0.000000 0.000000 0.000000 0.000000 0.000000 0.000000 0.000000 0.000000 0.000000 0.000000 0.000000 0.000000 0.000000 0.000000 0.000000 0.000000 0.000000 0.000000 0.000000 0.000000 0.000000 0.000000 0.000000 0.000000 0.000000 0.000000 0.000000 0.000000 0.000000 0.000000 0.000000 0.000000 0.000000 0.000000 0.000000 0.000000 0.000000 0.000000 0.000000 0.000000 0.000000 0.000000 0.000000 0.000000 0.000000 0.000000 0.000000 0.000000 0.000000 0.000000 0.000000 0.000000 0.000000 0.000000 0.000000 0.000000 0.000000 0.000000 0.000000 0.000000 0.000000 0.000000 0.000000 0.000000 0.000000 0.000000 0.000000 0.000000 0.000000 0.000000 0.000000 0.000000 0.000000 0.000000 0.000000 0.000000 0.000000 0.000000 0.000000 0.000000 0.000000 0.000000 0.000000 0.000000 0.000000 0.000000 0.000000 0.000000 0.000000 0.000000 0.000000 0.000000 0.000000 0.000000 0.000000
0.000000 0.000000 0.000000 0.000000 0.000000 0.000000 0.000000 0.000000 0.000000 0.000000 0.000000 0.000000 0.000000 0.000000 0.000000 0.000000 0.000000 0.000000 0.000000 0.000000 0.000000 0.000000 0.000000 0.000000 0.000000 0.000000 0.000000 0.000000 0.000000 0.000000 0.000000 0.000000 0.000000 0.000000 0.000000 0.000000 0.000000 0.000000 0.000000 0.000000 0.000000 0.000000 0.000000 0.000000 0.000000 0.000000 0.000000 0.000000 0.000000 0.000000 0.000000 0.000000 0.000000 0.000000 0.000000 0.000000 0.000000 0.000000 0.000000 0.000000 0.000000 0.000000 0.000000 0.000000 0.000000 0.000000 0.000000 0.000000 0.000000 0.000000 0.000000 0.000000 0.000000 0.000000 0.000000 0.000000 0.000000 0.000000 0.000000 0.000000 0.000000 0.000000 0.000000 0.000000 0.000000 0.000000 0.000000 0.000000 0.000000 0.000000 0.000000 0.000000 0.000000 0.000000 0.000000 0.000000 0.000000 0.000000 0.000000 0.000000 0.000000 0.000000 0.000000
0.000000 0.000000 0.000000 0.000000 0.000000 0.000000 0.000000 0.000000 0.000000 0.000000 0.000000 0.000000 0.000000 0.000000 0.000000 0.000000 0.000000 0.000000 0.000000 0.000000 0.000000 0.000000 0.000000 0.000000 0.000000 0.000000 0.000000 0.000000 0.000000 0.000000 0.000000 0.000000 0.000000 0.000000 0.000000 0.000000 0.000000 0.000000 0.000000 0.000000 0.000000 0.000000 0.000000 0.000000 0.000000 0.000000 0.000000 0.000000 0.000000 0.000000 0.000000 0.000000 0.000000 0.000000 0.000000 0.000000 0.000000 0.000000 0.000000 0.000000 0.000000 0.000000 0.000000 0.000000 0.000000 0.000000 0.000000 0.000000 0.000000 0.000000 0.000000 0.000000 0.000000 0.000000 0.000000 0.000000 0.000000 0.000000 0.000000 0.000000 0.000000 0.000000 0.000000 0.000000 0.000000 0.000000 0.000000 0.000000 0.000000 0.000000 0.000000 0.000000 0.000000 0.000000 0.000000 0.000000 0.000000 0.000000 0.000000 0.000000 0.000000 0.000000 0.000000
0.000000 0.000000 0.000000 0.000000 0.000000 0.000000 0.000000 0.000000 0.000000 0.000000 0.000000 0.000000 0.000000 0.000000 0.000000 0.000000 0.000000 0.000000 0.000000 0.000000 0.000000 0.000000 0.000000 0.000000 0.000000 0.000000 0.000000 0.000000 0.000000 0.000000 0.000000 0.000000 0.000000 0.000000 0.000000 0.000000 0.000000 0.000000 0.000000 0.000000 0.000000 0.000000 0.000000 0.000000 0.000000 0.000000 0.000000 0.000000 0.000000 0.000000 0.000000 0.000000 0.000000 0.000000 0.000000 0.000000 0.000000 0.000000 0.000000 0.000000 0.000000 0.000000 0.000000 0.000000 0.000000 0.000000 0.000000 0.000000 0.000000 0.000000 0.000000 0.000000 0.000000 0.000000 0.000000 0.000000 0.000000 0.000000 0.000000 0.000000 0.000000 0.000000 0.000000 0.000000 0.000000 0.000000 0.000000 0.000000 0.000000 0.000000 0.000000 0.000000 0.000000 0.000000 0.000000 0.000000 0.000000 0.000000 0.000000 0.000000 0.000000 0.000000 0.000000
0.000000 0.000000 0.000000 0.000000 0.000000 0.000000 24.636727 24.636727 24.636727 24.636727 24.636727 24.636727 24.636727 24.636727 24.636727 24.636727 24.636727 24.636727 0.000000 0.000000 0.000000 15.844596 15.844596 15.844596 15.844596 15.844596 15.844596 15.844596 15.844596 0.000000 0.000000 0.000000 0.000000 14.228652 14.228652 14.228652 14.228652 14.228652 14.228652 0.000000 0.000000 0.000000 0.000000 0.000000 0.000000 0.000000 0.000000 0.000000 22.600020 22.600020 22.600020 22.600020 22.600020 22.600020 22.600020 22.600020 22.600020 22.600020 0.000000 0.000000 0.000000 0.000000 0.000000 0.000000 0.000000 0.000000 0.000000 19.805236 19.805236 19.805236 19.805236 19.805236 19.805236 19.805236 19.805236 19.805236 19.805236 19.805236 19.805236 0.000000 0.000000 0.000000 0.000000 0.000000 0.000000 0.000000 0.000000 0.000000 15.887999 15.887999 15.887999 15.887999 15.887999 15.887999 15.887999 15.887999 15.887999 0.000000 0.000000 0.000000 0.000000 0.000000 0.000000
0.000000 0.000000 0.000000 0.000000 0.000000 0.000000 24.636727 24.636727 24.636727 24.636727 24.636727 24.636727 24.636727 24.636727 24.636727 24.636727 24.636727 24.636727 0.000000 0.000000 0.000000 15.844596 15.844596 15.844596 15.844596 15.844596 15.844596 15.844596 15.844596 0.000000 0.000000 0.000000 0.000000 14.228652 14.228652 14.228652 14.228652 14.228652 14.228652 0.000000 0.000000 0.000000 0.000000 0.000000 0.000000 0.000000 0.000000 0.000000 22.600020 22.600020 22.600020 22.600020 22.600020 22.600020 22.600020 22.600020 22.600020 22.600020 0.000000 0.000000 0.000000 0.000000 0.000000 0.000000 0.000000 0.000000 0.000000 19.805236 19.805236 19.805236 19.805236 19.805236 19.805236 19.805236 19.805236 19.805236 19.805236 19.805236 19.805236 0.000000 0.000000 0.000000 0.000000 0.000000 0.000000 0.000000 0.000000 0.000000 15.887999 15.887999 15.887999 15.887999 15.887999 15.887999 15.887999 15.887999 15.887999 0.000000 0.000000 0.000000 0.000000 0.000000 0.000000
0.000000 0.000000 0.000000 0.000000 0.000000 0.000000 24.636727 24.636727 24.636727 24.636727 24.636727 24.636727 24.636727 24.636727 24.636727 24.636727 24.636727 24.636727 0.000000 0.000000 0.000000 15.844596 15.844596 15.844596 15.844596 15.844596 15.844596 15.844596 15.844596 0.000000 0.000000 0.000000 0.000000 14.228652 14.228652 14.228652 14.228652 14.228652 14.228652 0.000000 0.000000 0.000000 0.000000 0.000000 0.000000 0.000000 0.000000 0.000000 22.600020 22.600020 22.600020 22.600020 22.600020 22.600020 22.600020 22.600020 22.600020 22.600020 0.000000 0.000000 0.000000 0.000000 0.000000 0.000000 0.000000 0.000000 0.000000 19.805236 19.805236 19.805236 19.805236 19.805236 19.805236 19.805236 19.805236 19.805236 19.805236 19.805236 19.805236 0.000000 0.000000 0.000000 0.000000 0.000000 0.000000 0.000000 0.000000 0.000000 15.887999 15.887999 15.887999 15.887999 15.887999 15.887999 15.887999 15.887999 15.887999 0.000000 0.000000 0.000000 0.000000 0.000000 0.000000
0.000000 0.000000 0.000000 0.000000 0.000000 0.000000 24.636727 24.636727 24.636727 24.636727 24.636727 24.636727 24.636727 24.636727 24.636727 24.636727 24.636727 24.636727 0.000000 0.000000 0.000000 15.844596 15.844596 15.844596 15.844596 15.844596 15.844596 15.844596 15.844596 0.000000 0.000000 0.000000 0.000000 14.228652 14.228652 14.228652 14.228652 14.228652 14.228652 0.000000 0.000000 0.000000 0.000000 0.000000 0.000000 0.000000 0.000000 0.000000 22.600020 22.600020 22.600020 22.600020 22.600020 22.600020 22.600020 22.600020 22.600020 22.600020 0.000000 0.000000 0.000000 0.000000 0.000000 0.000000 0.000000 0.000000 0.000000 19.805236 19.805236 19.805236 19.805236 19.805236 19.805236 19.805236 19.805236 19.805236 19.805236 19.805236 19.805236 0.000000 0.000000 0.000000 0.000000 0.000000 0.000000 0.000000 0.000000 0.000000 15.887999 15.887999 15.887999 15.887999 15.887999 15.887999 15.887999 15.887999 15.887999 0.000000 0.000000 0.000000 0.000000 0.000000 0.000000
0.000000 0.000000 0.000000 0.000000 0.000000 0.000000 24.636727 24.636727 24.636727 24.636727 24.636727 24.636727 24.636727 24.636727 24.636727 24.636727 24.636727 24.636727 0.000000 0.000000 0.000000 15.844596 15.844596 15.844596 15.844596 15.844596 15.844596 15.844596 15.844596 0.000000 0.000000 0.000000 0.000000 14.228652 14.228652 14.228652 14.228652 14.228652 14.228652 0.000000 0.000000 0.000000 0.000000 0.000000 0.000000 0.000000 0.000000 0.000000 22.600020 22.600020 22.600020 22.600020 22.600020 22.600020 22.600020 22.600020 22.600020 22.600020 0.000000 0.000000 0.000000 0.000000 0.000000 0.000000 0.000000 0.000000 0.000000 19.805236 19.805236 19.805236 19.805236 19.805236 19.805236 19.805236 19.805236 19.805236 19.805236 19.805236 19.805236 0.000000 0.000000 0.000000 0.000000 0.000000 0.000000 0.000000 0.000000 0.000000 15.887999 15.887999 15.887999 15.887999 15.887999 15.887999 15.887999 15.887999 15.887999 0.000000 0.000000 0.000000 0.000000 0.000000 0.000000
0.000000 0.000000 0.000000 0.000000 0.000000 0.000000 24.636727 24.636727 24.636727 24.636727 24.636727 24.636727 24.636727 24.636727 24.636727 24.636727 24.636727 24.636727 0.000000 0.000000 0.000000 15.844596 15.844596 15.844596 15.844596 15.844596 15.844596 15.844596 15.844596 0.000000 0.000000 0.000000 0.000000 14.228652 14.228652 14.228652 14.228652 14.228652 14.228652 0.000000 0.000000 0.000000 0.000000 0.000000 0.000000 0.000000 0.000000 0.000000 22.600020 22.600020 22.600020 22.600020 22.600020 22.600020 22.600020 22.600020 22.600020 22.600020 0.000000 0.000000 0.000000 0.000000 0.000000 0.000000 0.000000 0.000000 0.000000 19.805236 19.805236 19.805236 19.805236 19.805236 19.805236 19.805236 19.805236 19.805236 19.805236 19.805236 19.805236 0.000000 0.000000 0.000000 0.000000 0.000000 0.000000 0.000000 0.000000 0.000000 15.887999 15.887999 15.887999 15.887999 15.887999 15.887999 15.887999 15.887999 15.887999 0.000000 0.000000 0.000000 0.000000 0.000000 0.000000
0.000000 0.000000 0.000000 0.000000 0.000000 0.000000 24.636727 24.636727 24.636727 24.636727 24.636727 24.636727 24.636727 24.636727 24.636727 24.636727 24.636727 24.636727 0.000000 0.000000 0.000000 15.844596 15.844596 15.844596 15.844596 15.844596 15.844596 15.844596 15.844596 0.000000 0.000000 0.000000 0.000000 14.228652 14.228652 14.228652 14.228652 14.228652 14.228652 0.000000 0.000000 0.000000 0.000000 0.000000 0.000000 0.000000 0.000000 0.000000 22.600020 22.600020 22.600020 22.600020 22.600020 22.600020 22.600020 22.600020 22.600020 22.600020 0.000000 0.000000 0.000000 0.000000 0.000000 0.000000 0.000000 0.000000 0.000000 19.805236 19.805236 19.805236 19.805236 19.805236 19.805236 19.805236 19.805236 19.805236 19.805236 19.805236 19.805236 0.000000 0.000000 0.000000 0.000000 0.000000 0.000000 0.000000 0.000000 0.000000 15.887999 15.887999 15.887999 15.887999 15.887999 15.887999 15.887999 15.887999 15.887999 0.000000 0.000000 0.000000 0.000000 0.000000 0.000000
0.000000 0.000000 0.000000 0.000000 0.000000 0.000000 24.636727 24.636727 24.636727 24.636727 24.636727 24.636727 24.636727 24.636727 24.636727 24.636727 24.636727 24.636727 0.000000 0.000000 0.000000 15.844596 15.844596 15.844596 15.844596 15.844596 15.844596 15.844596 15.844596 0.000000 0.000000 0.000000 0.000000 14.228652 14.228652 14.228652 14.228652 14.228652 14.228652 0.000000 0.000000 0.000000 0.000000 0.000000 0.000000 0.000000 0.000000 0.000000 22.600020 22.600020 22.600020 22.600020 22.600020 22.600020 22.600020 22.600020 22.600020 22.600020 0.000000 0.000000 0.000000 0.000000 0.000000 0.000000 0.000000 0.000000 0.000000 0.000000 0.000000 0.000000 0.000000 0.000000 0.000000 0.000000 0.000000 0.000000 0.000000 0.000000 0.000000 0.000000 0.000000 0.000000 0.000000 0.000000 0.000000 0.000000 0.000000 0.000000 0.000000 0.000000 0.000000 0.000000 0.000000 0.000000 0.000000 0.000000 0.000000 0.000000 0.000000 0.000000 0.000000 0.000000 0.000000
0.000000 0.000000 0.000000 0.000000 0.000000 0.000000 24.636727 24.636727 24.636727 24.636727 24.636727 24.636727 24.636727 24.636727 24.636727 24.636727 24.636727 24.636727 0.000000 0.000000 0.000000 15.844596 15.844596 15.844596 15.844596 15.844596 15.844596 15.844596 15.844596 0.000000 0.000000 0.000000 0.000000 14.228652 14.228652 14.228652 14.228652 14.228652 14.228652 0.000000 0.000000 0.000000 0.000000 0.000000 0.000000 0.000000 0.000000 0.000000 22.600020 22.600020 22.600020 22.600020 22.600020 22.600020 22.600020 22.600020 22.600020 22.600020 0.000000 0.000000 0.000000 0.000000 0.000000 0.000000 0.000000 0.000000 0.000000 0.000000 0.000000 0.000000 0.000000 0.000000 0.000000 0.000000 0.000000 0.000000 0.000000 0.000000 0.000000 0.000000 0.000000 0.000000 0.000000 0.000000 0.000000 0.000000 0.000000 0.000000 0.000000 0.000000 0.000000 0.000000 0.000000 0.000000 0.000000 0.000000 0.000000 0.000000 0.000000 0.000000 0.000000 0.000000 0.000000
0.000000 0.000000 0.000000 0.000000 0.000000 0.000000 0.000000 0.000000 0.000000 0.000000 0.000000 0.000000 0.000000 0.000000 0.000000 0.000000 0.000000 0.000000 0.000000 0.000000 0.000000 0.000000 0.000000 0.000000 0.000000 0.000000 0.000000 0.000000 0.000000 0.000000 0.000000 0.000000 0.000000 0.000000 0.000000 0.000000 0.000000 0.000000 0.000000 0.000000 0.000000 0.000000 0.000000 0.000000 0.000000 0.000000 0.000000 0.000000 0.000000 0.000000 0.000000 0.000000 0.000000 0.000000 0.000000 0.000000 0.000000 0.000000 0.000000 0.000000 0.000000 0.000000 0.000000 0.000000 0.000000 0.000000 0.000000 0.000000 0.000000 0.000000 0.000000 0.000000 0.000000 0.000000 0.000000 0.000000 0.000000 0.000000 0.000000 0.000000 0.000000 0.000000 0.000000 0.000000 0.000000 0.000000 0.000000 0.000000 0.000000 0.000000 0.000000 0.000000 0.000000 0.000000 0.000000 0.000000 0.000000 0.000000 0.000000 0.000000 0.000000 0.000000 0.000000
0.000000 0.000000 0.000000 0.000000 0.000000 0.000000 0.000000 0.000000 0.000000 0.000000 0.000000 0.000000 0.000000 0.000000 0.000000 0.000000 0.000000 0.000000 0.000000 0.000000 0.000000 0.000000 0.000000 0.000000 0.000000 0.000000 0.000000 0.000000 0.000000 0.000000 0.000000 0.000000 0.000000 0.000000 0.000000 0.000000 0.000000 0.000000 0.000000 0.000000 0.000000 0.000000 0.000000 0.000000 0.000000 0.000000 0.000000 0.000000 0.000000 0.000000 0.000000 0.000000 0.000000 0.000000 0.000000 0.000000 0.000000 0.000000 0.000000 0.000000 0.000000 0.000000 0.000000 0.000000 0.000000 0.000000 0.000000 26.478936 26.478936 26.478936 26.478936 26.478936 26.478936 26.478936 26.478936 26.478936 26.478936 26.478936 26.478936 0.000000 0.000000 0.000000 0.000000 0.000000 0.000000 0.000000 0.000000 0.000000 0.000000 0.000000 0.000000 0.000000 0.000000 0.000000 0.000000 0.000000 0.000000 0.000000 0.000000 0.000000 0.000000 0.000000 0.000000
0.000000 0.000000 0.000000 0.000000 0.000000 0.000000 0.000000 0.000000 0.000000 0.000000 0.000000 0.000000 0.000000 0.000000 0.000000 0.000000 0.000000 0.000000 0.000000 0.000000 0.000000 0.000000 0.000000 0.000000 0.000000 0.000000 0.000000 0.000000 0.000000 0.000000 0.000000 0.000000 0.000000 0.000000 0.000000 0.000000 0.000000 0.000000 0.000000 0.000000 0.000000 0.000000 0.000000 0.000000 0.000000 0.000000 0.000000 0.000000 0.000000 0.000000 0.000000 0.000000 0.000000 0.000000 0.000000 0.000000 0.000000 0.000000 0.000000 0.000000 0.000000 0.000000 0.000000 0.000000 0.000000 0.000000 0.000000 26.478936 26.478936 26.478936 26.478936 26.478936 26.478936 26.478936 26.478936 26.478936 26.478936 26.478936 26.478936 0.000000 0.000000 0.000000 0.000000 0.000000 0.000000 0.000000 0.000000 0.000000 0.000000 0.000000 0.000000 0.000000 0.000000 0.000000 0.000000 0.000000 0.000000 0.000000 0.000000 0.000000 0.000000 0.000000 0.000000
0.000000 0.000000 0.000000 0.000000 0.000000 0.000000 20.184245 20.184245 20.184245 20.184245 20.184245 20.184245 20.184245 20.184245 20.184245 20.184245 20.184245 20.184245 0.000000 0.000000 0.000000 0.000000 0.000000 0.000000 0.000000 0.000000 0.000000 0.000000 0.000000 0.000000 0.000000 0.000000 0.000000 11.657173 11.657173 11.657173 11.657173 11.657173 11.657173 0.000000 0.000000 0.000000 0.000000 0.000000 0.000000 0.000000 0.000000 0.000000 0.000000 0.000000 0.000000 0.000000 0.000000 0.000000 0.000000 0.000000 0.000000 0.000000 0.000000 0.000000 0.000000 0.000000 0.000000 0.000000 0.000000 0.000000 0.000000 26.478936 26.478936 26.478936 26.478936 26.478936 26.478936 26.478936 26.478936 26.478936 26.478936 26.478936 26.478936 0.000000 0.000000 0.000000 0.000000 0.000000 0.000000 0.000000 0.000000 0.000000 0.000000 0.000000 0.000000 0.000000 0.000000 0.000000 0.000000 0.000000 0.000000 0.000000 0.000000 0.000000 0.000000 0.000000 0.000000
0.000000 0.000000 0.000000 0.000000 0.000000 0.000000 20.184245 20.184245 20.184245 20.184245 20.184245 20.184245 20.184245 20.184245 20.184245 20.184245 20.184245 20.184245 0.000000 0.000000 0.000000 0.000000 0.000000 0.000000 0.000000 0.000000 0.000000 0.000000 0.000000 0.000000 0.000000 0.000000 0.000000 11.657173 11.657173 11.657173 11.657173 11.657173 11.657173 0.000000 0.000000 0.000000 0.000000 0.000000 0.000000 0.000000 0.000000 0.000000 0.000000 0.000000 0.000000 0.000000 0.000000 0.000000 0.000000 0.000000 0.000000 0.000000 0.000000 0.000000 0.000000 0.000000 0.000000 0.000000 0.000000 0.000000 0.000000 26.478936 26.478936 26.478936 26.478936 26.478936 26.478936 26.478936 26.478936 26.478936 26.478936 26.478936 26.478936 0.000000 0.000000 0.000000 0.000000 0.000000 0.000000 0.000000 0.000000 0.000000 0.000000 0.000000 0.000000 0.000000 0.000000 0.000000 0.000000 0.000000 0.000000 0.000000 0.000000 0.000000 0.000000 0.000000 0.000000
0.000000 0.000000 0.000000 0.000000 0.000000 0.000000 20.184245 20.184245 20.184245 20.184245 20.184245 20.184245 20.184245 20.184245 20.184245 20.184245 20.184245 20.184245 0.000000 0.000000 0.000000 0.000000 0.000000 0.000000 0.000000 0.000000 0.000000 0.000000 0.000000 0.000000 0.000000 0.000000 0.000000 11.657173 11.657173 11.657173 11.657173 11.657173 11.657173 0.000000 0.000000 0.000000 0.000000 0.000000 0.000000 0.000000 0.000000 0.000000 0.000000 0.000000 0.000000 0.000000 0.000000 0.000000 0.000000 0.000000 0.000000 0.000000 0.000000 0.000000 0.000000 0.000000 0.000000 0.000000 0.000000 0.000000 0.000000 26.478936 26.478936 26.478936 26.478936 26.478936 26.478936 26.478936 26.478936 26.478936 26.478936 26.478936 26.478936 0.000000 0.000000 0.000000 0.000000 0.000000 0.000000 0.000000 0.000000 0.000000 0.000000 0.000000 0.000000 0.000000 0.000000 0.000000 0.000000 0.000000 0.000000 0.000000 0.000000 0.000000 0.000000 0.000000 0.000000
0.000000 0.000000 0.000000 0.000000 0.000000 0.000000 20.184245 20.184245 20.184245 20.184245 20.184245 20.184245 20.184245 20.184245 20.184245 20.184245 20.184245 20.184245 0.000000 0.000000 0.000000 0.000000 0.000000 0.000000 0.000000 0.000000 0.000000 0.000000 0.000000 0.000000 0.000000 0.000000 0.000000 11.657173 11.657173 11.657173 11.657173 11.657173 11.657173 0.000000 0.000000 0.000000 0.000000 0.000000 0.000000 0.000000 0.000000 0.000000 0.000000 0.000000 0.000000 0.000000 0.000000 0.000000 0.000000 0.000000 0.000000 0.000000 0.000000 0.000000 0.000000 0.000000 0.000000 0.000000 0.000000 0.000000 0.000000 26.478936 26.478936 26.478936 26.478936 26.478936 26.478936 26.478936 26.478936 26.478936 26.478936 26.478936 26.478936 0.000000 0.000000 0.000000 0.000000 0.000000 0.000000 0.000000 0.000000 0.000000 0.000000 0.000000 0.000000 0.000000 0.000000 0.000000 0.000000 0.000000 0.000000 0.000000 0.000000 0.000000 0.000000 0.000000 0.000000
0.000000 0.000000 0.000000 0.000000 0.000000 0.000000 20.184245 20.184245 20.184245 20.184245 20.184245 20.184245 20.184245 20.184245 20.184245 20.184245 20.184245 20.184245 0.000000 0.000000 0.000000 0.000000 0.000000 0.000000 0.000000 0.000000 0.000000 0.000000 0.000000 0.000000 0.000000 0.000000 0.000000 11.657173 11.657173 11.657173 11.657173 11.657173 11.657173 0.000000 0.000000 0.000000 0.000000 0.000000 0.000000 0.000000 0.000000 0.000000 0.000000 0.000000 0.000000 0.000000 0.000000 0.000000 0.000000 0.000000 0.000000 0.000000 0.000000 0.000000 0.000000 0.000000 0.000000 0.000000 0.000000 0.000000 0.000000 26.478936 26.478936 26.478936 26.478936 26.478936 26.478936 26.478936 26.478936 26.478936 26.478936 26.478936 26.478936 0.000000 0.000000 0.000000 0.000000 0.000000 0.000000 0.000000 0.000000 0.000000 0.000000 0.000000 0.000000 0.000000 0.000000 0.000000 0.000000 0.000000 0.000000 0.000000 0.000000 0.000000 0.000000 0.000000 0.000000
0.000000 0.000000 0.000000 0.000000 0.000000 0.000000 20.184245 20.184245 20.184245 20.184245 20.184245 20.184245 20.184245 20.184245 20.184245 20.184245 20.184245 20.184245 0.000000 0.000000 0.000000 0.000000 0.000000 0.000000 0.000000 0.000000 0.000000 0.000000 0.000000 0.000000 0.000000 0.000000 0.000000 11.657173 11.657173 11.657173 11.657173 11.657173 11.657173 0.000000 0.000000 0.000000 0.000000 0.000000 0.000000 0.000000 0.000000 0.000000 0.000000 0.000000 0.000000 0.000000 0.000000 0.000000 0.000000 0.000000 0.000000 0.000000 0.000000 0.000000 0.000000 0.000000 0.000000 0.000000 0.000000 0.000000 0.000000 26.478936 26.478936 26.478936 26.478936 26.478936 26.478936 26.478936 26.478936 26.478936 26.478936 26.478936 26.478936 0.000000 0.000000 0.000000 0.000000 0.000000 0.000000 0.000000 0.000000 0.000000 0.000000 0.000000 0.000000 0.000000 0.000000 0.000000 0.000000 0.000000 0.000000 0.000000 0.000000 0.000000 0.000000 0.000000 0.000000
0.000000 0.000000 0.000000 0.000000 0.000000 0.000000 20.184245 20.184245 20.184245 20.184245 20.184245 20.184245 20.184245 20.184245 20.184245 20.184245 20.184245 20.184245 0.000000 0.000000 0.000000 0.000000 0.000000 0.000000 0.000000 0.000000 0.000000 0.000000 0.000000 0.000000 0.000000 0.000000 0.000000 11.657173 11.657173 11.657173 11.657173 11.657173 11.657173 0.000000 0.000000 0.000000 0.000000 0.000000 0.000000 0.000000 0.000000 0.000000 0.000000 0.000000 0.000000 0.000000 0.000000 0.000000 0.000000 0.000000 0.000000 0.000000 0.000000 0.000000 0.000000 0.000000 0.000000 0.000000 0.000000 0.000000 0.000000 26.478936 26.478936 26.478936 26.478936 26.478936 26.478936 26.478936 26.478936 26.478936 26.478936 26.478936 26.478936 0.000000 0.000000 0.000000 0.000000 0.000000 0.000000 0.000000 0.000000 0.000000 0.000000 0.000000 0.000000 0.000000 0.000000 0.000000 0.000000 0.000000 0.000000 0.000000 0.000000 0.000000 0.000000 0.000000 0.000000
0.000000 0.000000 0.000000 0.000000 0.000000 0.000000 20.184245 20.184245 20.184245 20.184245 20.184245 20.184245 20.184245 20.184245 20.184245 20.184245 20.184245 20.184245 0.000000 0.000000 0.000000 0.000000 0.000000 0.000000 0.000000 0.000000 0.000000 0.000000 0.000000 0.000000 0.000000 0.000000 0.000000 11.657173 11.657173 11.657173 11.657173 11.657173 11.657173 0.000000 0.000000 0.000000 0.000000 0.000000 0.000000 0.000000 0.000000 0.000000 0.000000 0.000000 0.000000 0.000000 0.000000 0.000000 0.000000 0.000000 0.000000 0.000000 0.000000 0.000000 0.000000 0.000000 0.000000 0.000000 0.000000 0.000000 0.000000 26.478936 26.478936 26.478936 26.478936 26.478936 26.478936 26.478936 26.478936 26.478936 26.478936 26.478936 26.478936 0.000000 0.000000 0.000000 0.000000 0.000000 0.000000 0.000000 0.000000 0.000000 0.000000 0.000000 0.000000 0.000000 0.000000 0.000000 0.000000 0.000000 0.000000 0.000000 0.000000 0.000000 0.000000 0.000000 0.000000
0.000000 0.000000 0.000000 0.000000 0.000000 0.000000 0.000000 0.000000 0.000000 0.000000 0.000000 0.000000 0.000000 0.000000 0.000000 0.000000 0.000000 0.000000 0.000000 0.000000 0.000000 0.000000 0.000000 0.000000 0.000000 0.000000 0.000000 0.000000 0.000000 0.000000 0.000000 0.000000 0.000000 0.000000 0.000000 0.000000 0.000000 0.000000 0.000000 0.000000 0.000000 0.000000 0.000000 0.000000 0.000000 0.000000 0.000000 0.000000 0.000000 0.000000 0.000000 0.000000 0.000000 0.000000 0.000000 0.000000 0.000000 0.000000 0.000000 0.000000 0.000000 0.000000 0.000000 0.000000 0.000000 0.000000 0.000000 0.000000 0.000000 0.000000 0.000000 0.000000 0.000000 0.000000 0.000000 0.000000 0.000000 0.000000 0.000000 0.000000 0.000000 0.000000 0.000000 0.000000 0.000000 0.000000 0.000000 0.000000 0.000000 0.000000 0.000000 0.000000 0.000000 0.000000 0.000000 0.000000 0.000000 0.000000 0.000000 0.000000 0.000000 0.000000 0.000000
0.000000 0.000000 0.000000 0.000000 0.000000 0.000000 0.000000 0.000000 0.000000 0.000000 0.000000 0.000000 0.000000 0.000000 0.000000 0.000000 0.000000 0.000000 0.000000 0.000000 0.000000 0.000000 0.000000 0.000000 0.000000 0.000000 0.000000 0.000000 0.000000 0.000000 0.000000 0.000000 0.000000 0.000000 0.000000 0.000000 0.000000 0.000000 0.000000 0.000000 0.000000 0.000000 0.000000 0.000000 0.000000 0.000000 0.000000 0.000000 0.000000 0.000000 0.000000 0.000000 0.000000 0.000000 0.000000 0.000000 0.000000 0.000000 0.000000 0.000000 0.000000 0.000000 0.000000 0.000000 0.000000 0.000000 0.000000 0.000000 0.000000 0.000000 0.000000 0.000000 0.000000 0.000000 0.000000 0.000000 0.000000 0.000000 0.000000 0.000000 0.000000 0.000000 0.000000 0.000000 0.000000 0.000000 0.000000 0.000000 0.000000 0.000000 0.000000 0.000000 0.000000 0.000000 0.000000 0.000000 0.000000 0.000000 0.000000 0.000000 0.000000 0.000000 0.000000
0.000000 0.000000 0.000000 0.000000 0.000000 0.000000 0.000000 0.000000 0.000000 0.000000 0.000000 0.000000 0.000000 0.000000 0.000000 0.000000 0.000000 0.000000 0.000000 0.000000 0.000000 0.000000 0.000000 0.000000 0.000000 0.000000 0.000000 0.000000 0.000000 0.000000 0.000000 0.000000 0.000000 0.000000 0.000000 0.000000 0.000000 0.000000 0.000000 0.000000 0.000000 0.000000 0.000000 0.000000 0.000000 0.000000 0.000000 0.000000 0.000000 0.000000 0.000000 0.000000 0.000000 0.000000 0.000000 0.000000 0.000000 0.000000 0.000000 0.000000 0.000000 0.000000 0.000000 0.000000 0.000000 0.000000 0.000000 0.000000 0.000000 0.000000 0.000000 0.000000 0.000000 0.000000 0.000000 0.000000 0.000000 0.000000 0.000000 0.000000 0.000000 0.000000 0.000000 0.000000 0.000000 0.000000 0.000000 0.000000 0.000000 0.000000 0.000000 0.000000 0.000000 0.000000 0.000000 0.000000 0.000000 0.000000 0.000000 0.000000 0.000000 0.000000 0.000000
0.000000 0.000000 0.000000 0.000000 0.000000 0.000000 0.000000 0.000000 0.000000 0.000000 0.000000 0.000000 0.000000 0.000000 0.000000 0.000000 0.000000 0.000000 0.000000 0.000000 0.000000 0.000000 0.000000 0.000000 0.000000 0.000000 0.000000 0.000000 0.000000 0.000000 0.000000 0.000000 0.000000 0.000000 0.000000 0.000000 0.000000 0.000000 0.000000 0.000000 0.000000 0.000000 0.000000 0.000000 0.000000 0.000000 0.000000 0.000000 0.000000 0.000000 0.000000 0.000000 0.000000 0.000000 0.000000 0.000000 0.000000 0.000000 0.000000 0.000000 0.000000 0.000000 0.000000 0.000000 0.000000 0.000000 0.000000 0.000000 0.000000 0.000000 0.000000 0.000000 0.000000 0.000000 0.000000 0.000000 0.000000 0.000000 0.000000 0.000000 0.000000 0.000000 0.000000 0.000000 0.000000 0.000000 0.000000 0.000000 0.000000 0.000000 0.000000 0.000000 0.000000 0.000000 0.000000 0.000000 0.000000 0.000000 0.000000 0.000000 0.000000 0.000000 0.000000
0.000000 0.000000 0.000000 0.000000 0.000000 0.000000 0.000000 0.000000 0.000000 0.000000 0.000000 0.000000 0.000000 0.000000 0.000000 0.000000 0.000000 0.000000 0.000000 0.000000 0.000000 0.000000 0.000000 0.000000 0.000000 0.000000 0.000000 0.000000 0.000000 0.000000 0.000000 0.000000 0.000000 0.000000 0.000000 0.000000 0.000000 0.000000 0.000000 0.000000 0.000000 0.000000 0.000000 0.000000 0.000000 0.000000 0.000000 0.000000 0.000000 0.000000 0.000000 0.000000 0.000000 0.000000 0.000000 0.000000 0.000000 0.000000 0.000000 0.000000 0.000000 0.000000 0.000000 0.000000 0.000000 0.000000 0.000000 0.000000 0.000000 0.000000 0.000000 0.000000 0.000000 0.000000 0.000000 0.000000 0.000000 0.000000 0.000000 0.000000 0.000000 0.000000 0.000000 0.000000 0.000000 0.000000 0.000000 0.000000 0.000000 0.000000 0.000000 0.000000 0.000000 0.000000 0.000000 0.000000 0.000000 0.000000 0.000000 0.000000 0.000000 0.000000 0.000000
0.000000 0.000000 0.000000 0.000000 0.000000 0.000000 0.000000 0.000000 0.000000 0.000000 0.000000 0.000000 0.000000 0.000000 0.000000 0.000000 0.000000 0.000000 0.000000 0.000000 0.000000 0.000000 0.000000 0.000000 0.000000 0.000000 0.000000 0.000000 0.000000 0.000000 0.000000 0.000000 0.000000 0.000000 0.000000 0.000000 0.000000 0.000000 0.000000 0.000000 0.000000 0.000000 0.000000 0.000000 0.000000 0.000000 0.000000 0.000000 0.000000 0.000000 0.000000 0.000000 0.000000 0.000000 0.000000 0.000000 0.000000 0.000000 0.000000 0.000000 0.000000 0.000000 0.000000 0.000000 0.000000 0.000000 0.000000 0.000000 0.000000 0.000000 0.000000 0.000000 0.000000 0.000000 0.000000 0.000000 0.000000 0.000000 0.000000 0.000000 0.000000 0.000000 0.000000 0.000000 0.000000 0.000000 0.000000 0.000000 0.000000 0.000000 0.000000 0.000000 0.000000 0.000000 0.000000 0.000000 0.000000 0.000000 0.000000 0.000000 0.000000 0.000000 0.000000
0.000000 0.000000 0.000000 0.000000 35.404996 35.404996 35.404996 35.404996 35.404996 35.404996 35.404996 35.404996 35.404996 35.404996 35.404996 35.404996 35.404996 35.404996 0.000000 0.000000 0.000000 0.000000 0.000000 0.000000 0.000000 0.000000 0.000000 0.000000 0.000000 0.000000 0.000000 0.000000 0.000000 0.000000 0.000000 0.000000 0.000000 0.000000 0.000000 0.000000 0.000000 0.000000 0.000000 0.000000 0.000000 0.000000 20.949560 20.949560 20.949560 20.949560 20.949560 20.949560 20.949560 20.949560 17.612374 17.612374 17.612374 17.612374 17.612374 17.612374 0.000000 0.000000 0.000000 0.000000 0.000000 11.737834 11.737834 11.737834 11.737834 11.737834 11.737834 11.737834 15.554887 15.554887 15.554887 15.554887 15.554887 15.554887 15.554887 15.554887 15.554887 0.000000 0.000000 0.000000 0.000000 0.000000 14.388653 14.388653 14.388653 14.388653 14.388653 14.388653 14.388653 14.298732 14.298732 14.298732 14.298732 14.298732 14.298732 0.000000 0.000000 0.000000 0.000000
0.000000 0.000000 0.000000 0.000000 35.404996 35.404996 35.404996 35.404996 35.404996 35.404996 35.404996 35.404996 35.404996 35.404996 35.404996 35.404996 35.404996 35.404996 0.000000 0.000000 0.000000 0.000000 0.000000 0.000000 0.000000 0.000000 0.000000 0.000000 0.000000 0.000000 0.000000 0.000000 0.000000 0.000000 0.000000 0.000000 0.000000 0.000000 0.000000 0.000000 0.000000 0.000000 0.000000 0.000000 0.000000 0.000000 20.949560 20.949560 20.949560 20.949560 20.949560 20.949560 20.949560 20.949560 17.612374 17.612374 17.612374 17.612374 17.612374 17.612374 0.000000 0.000000 0.000000 0.000000 0.000000 11.737834 11.737834 11.737834 11.737834 11.737834 11.737834 11.737834 15.554887 15.554887 15.554887 15.554887 15.554887 15.554887 15.554887 15.554887 15.554887 0.000000 0.000000 0.000000 0.000000 0.000000 14.388653 14.388653 14.388653 14.388653 14.388653 14.388653 14.388653 14.298732 14.298732 14.298732 14.298732 14.298732 14.298732 0.000000 0.000000 0.000000 0.000000
0.000000 0.000000 0.000000 0.000000 35.404996 35.404996 35.404996 35.404996 35.404996 35.404996 35.404996 35.404996 35.404996 35.404996 35.404996 35.404996 35.404996 35.404996 0.000000 0.000000 0.000000 0.000000 0.000000 0.000000 0.000000 0.000000 0.000000 0.000000 0.000000 0.000000 0.000000 0.000000 0.000000 0.000000 0.000000 0.000000 0.000000 0.000000 0.000000 0.000000 0.000000 0.000000 0.000000 0.000000 0.000000 0.000000 20.949560 20.949560 20.949560 20.949560 20.949560 20.949560 20.949560 20.949560 17.612374 17.612374 17.612374 17.612374 17.612374 17.612374 0.000000 0.000000 0.000000 0.000000 0.000000 11.737834 11.737834 11.737834 11.737834 11.737834 11.737834 11.737834 15.554887 15.554887 15.554887 15.554887 15.554887 15.554887 15.554887 15.554887 15.554887 0.000000 0.000000 0.000000 0.000000 0.000000 14.388653 14.388653 14.388653 14.388653 14.388653 14.388653 14.388653 14.298732 14.298732 14.298732 14.298732 14.298732 14.298732 0.000000 0.000000 0.000000 0.000000
0.000000 0.000000 0.000000 0.000000 35.404996 35.404996 35.404996 35.404996 35.404996 35.404996 35.404996 35.404996 35.404996 35.404996 35.404996 35.404996 35.404996 35.404996 0.000000 0.000000 0.000000 0.000000 0.000000 0.000000 0.000000 0.000000 0.000000 0.000000 0.000000 0.000000 0.000000 0.000000 0.000000 0.000000 0.000000 0.000000 0.000000 0.000000 0.000000 0.000000 0.000000 0.000000 0.000000 0.000000 0.000000 0.000000 20.949560 20.949560 20.949560 20.949560 20.949560 20.949560 20.949560 20.949560 17.612374 17.612374 17.612374 17.612374 17.612374 17.612374 0.000000 0.000000 0.000000 0.000000 0.000000 11.737834 11.737834 11.737834 11.737834 11.737834 11.737834 11.737834 15.554887 15.554887 15.554887 15.554887 15.554887 15.554887 15.554887 15.554887 15.554887 0.000000 0.000000 0.000000 0.000000 0.000000 14.388653 14.388653 14.388653 14.388653 14.388653 14.388653 14.388653 14.298732 14.298732 14.298732 14.298732 14.298732 14.298732 0.000000 0.000000 0.000000 0.000000
0.000000 0.000000 0.000000 0.000000 35.404996 35.404996 35.404996 35.404996 35.404996 35.404996 35.404996 35.404996 35.404996 35.404996 35.404996 35.404996 35.404996 35.404996 0.000000 0.000000 0.000000 0.000000 0.000000 0.000000 0.000000 0.000000 0.000000 0.000000 0.000000 0.000000 0.000000 0.000000 0.000000 0.000000 0.000000 0.000000 0.000000 0.000000 0.000000 0.000000 0.000000 0.000000 0.000000 0.000000 0.000000 0.000000 20.949560 20.949560 20.949560 20.949560 20.949560 20.949560 20.949560 20.949560 17.612374 17.612374 17.612374 17.612374 17.612374 17.612374 0.000000 0.000000 0.000000 0.000000 0.000000 11.737834 11.737834 11.737834 11.737834 11.737834 11.737834 11.737834 15.554887 15.554887 15.554887 15.554887 15.554887 15.554887 15.554887 15.554887 15.554887 0.000000 0.000000 0.000000 0.000000 0.000000 14.388653 14.388653 14.388653 14.388653 14.388653 14.388653 14.388653 14.298732 14.298732 14.298732 14.298732 14.298732 14.298732 0.000000 0.000000 0.000000 0.000000
0.000000 0.000000 0.000000 0.000000 35.404996 35.404996 35.404996 35.404996 35.404996 35.404996 35.404996 35.404996 35.404996 35.404996 35.404996 35.404996 35.404996 35.404996 0.000000 0.000000 0.000000 0.000000 0.000000 0.000000 0.000000 0.000000 0.000000 0.000000 0.000000 0.000000 0.000000 0.000000 0.000000 0.000000 0.000000 0.000000 0.000000 0.000000 0.000000 0.000000 0.000000 0.000000 0.000000 0.000000 0.000000 0.000000 20.949560 20.949560 20.949560 20.949560 20.949560 20.949560 20.949560 20.949560 17.612374 17.612374 17.612374 17.612374 17.612374 17.612374 0.000000 0.000000 0.000000 0.000000 0.000000 11.737834 11.737834 11.737834 11.737834 11.737834 11.737834 11.737834 15.554887 15.554887 15.554887 15.554887 15.554887 15.554887 15.554887 15.554887 15.554887 0.000000 0.000000 0.000000 0.000000 0.000000 14.388653 14.388653 14.388653 14.388653 14.388653 14.388653 14.388653 14.298732 14.298732 14.298732 14.298732 14.298732 14.298732 0.000000 0.000000 0.000000 0.000000
0.000000 0.000000 0.000000 0.000000 35.404996 35.404996 35.404996 35.404996 35.404996 35.404996 35.404996 35.404996 35.404996 35.404996 35.404996 35.404996 35.404996 35.404996 0.000000 0.000000 0.000000 0.000000 0.000000 0.000000 0.000000 0.000000 0.000000 0.000000 0.000000 0.000000 0.000000 0.000000 0.000000 0.000000 0.000000 0.000000 0.000000 0.000000 0.000000 0.000000 0.000000 0.000000 0.000000 0.000000 0.000000 0.000000 20.949560 20.949560 20.949560 20.949560 20.949560 20.949560 20.949560 20.949560 17.612374 17.612374 17.612374 17.612374 17.612374 17.612374 0.000000 0.000000 0.000000 0.000000 0.000000 11.737834 11.737834 11.737834 11.737834 11.737834 11.737834 11.737834 15.554887 15.554887 15.554887 15.554887 15.554887 15.554887 15.554887 15.554887 15.554887 0.000000 0.000000 0.000000 0.000000 0.000000 14.388653 14.388653 14.388653 14.388653 14.388653 14.388653 14.388653 14.298732 14.298732 14.298732 14.298732 14.298732 14.298732 0.000000 0.000000 0.000000 0.000000
0.000000 0.000000 0.000000 0.000000 35.404996 35.404996 35.404996 35.404996 35.404996 35.404996 35.404996 35.404996 35.404996 35.404996 35.404996 35.404996 35.404996 35.404996 0.000000 0.000000 0.000000 0.000000 0.000000 0.000000 0.000000 0.000000 0.000000 0.000000 0.000000 0.000000 0.000000 0.000000 0.000000 0.000000 0.000000 0.000000 0.000000 0.000000 0.000000 0.000000 0.000000 0.000000 0.000000 0.000000 0.000000 0.000000 20.949560 20.949560 20.949560 20.949560 20.949560 20.949560 20.949560 20.949560 17.612374 17.612374 17.612374 17.612374 17.612374 17.612374 0.000000 0.000000 0.000000 0.000000 0.000000 11.737834 11.737834 11.737834 11.737834 11.737834 11.737834 11.737834 15.554887 15.554887 15.554887 15.554887 15.554887 15.554887 15.554887 15.554887 15.554887 0.000000 0.000000 0.000000 0.000000 0.000000 14.388653 14.388653 14.388653 14.388653 14.388653 14.388653 14.388653 14.298732 14.298732 14.298732 14.298732 14.298732 14.298732 0.000000 0.000000 0.000000 0.000000
0.000000 0.000000 0.000000 0.000000 35.404996 35.404996 35.404996 35.404996 35.404996 35.404996 35.404996 35.404996 35.404996 35.404996 35.404996 35.404996 35.404996 35.404996 0.000000 0.000000 0.000000 0.000000 0.000000 0.000000 0.000000 0.000000 0.000000 0.000000 0.000000 0.000000 0.000000 0.000000 0.000000 0.000000 0.000000 0.000000 0.000000 0.000000 0.000000 0.000000 0.000000 0.000000 0.000000 0.000000 0.000000 0.000000 20.949560 20.949560 20.949560 20.949560 20.949560 20.949560 20.949560 20.949560 17.612374 17.612374 17.612374 17.612374 17.612374 17.612374 0.000000 0.000000 0.000000 0.000000 0.000000 17.488823 17.488823 17.488823 17.488823 17.488823 17.488823 17.488823 23.176052 23.176052 23.176052 23.176052 23.176052 23.176052 23.176052 23.176052 23.176052 0.000000 0.000000 0.000000 0.000000 0.000000 14.388653 14.388653 14.388653 14.388653 14.388653 14.388653 14.388653 14.298732 14.298732 14.298732 14.298732 14.298732 14.298732 0.000000 0.000000 0.000000 0.000000
0.000000 0.000000 0.000000 0.000000 35.404996 35.404996 35.404996 35.404996 35.404996 35.404996 35.404996 35.404996 35.404996 35.404996 35.404996 35.404996 35.404996 35.404996 0.000000 0.000000 0.000000 0.000000 0.000000 0.000000 0.000000 0.000000 0.000000 0.000000 0.000000 0.000000 0.000000 0.000000 0.000000 0.000000 0.000000 0.000000 0.000000 0.000000 0.000000 0.000000 0.000000 0.000000 0.000000 0.000000 0.000000 0.000000 20.949560 20.949560 20.949560 20.949560 20.949560 20.949560 20.949560 20.949560 17.612374 17.612374 17.612374 17.612374 17.612374 17.612374 0.000000 0.000000 0.000000 0.000000 0.000000 17.488823 17.488823 17.488823 17.488823 17.488823 17.488823 17.488823 23.176052 23.176052 23.176052 23.176052 23.176052 23.176052 23.176052 23.176052 23.176052 0.000000 0.000000 0.000000 0.000000 0.000000 14.696036 14.696036 14.696036 14.696036 14.696036 14.696036 14.696036 14.604195 14.604195 14.604195 14.604195 14.604195 14.604195 0.000000 0.000000 0.000000 0.000000
0.000000 0.000000 0.000000 0.000000 35.404996 35.404996 35.404996 35.404996 35.404996 35.404996 35.404996 35.404996 35.404996 35.404996 35.404996 35.404996 35.404996 35.404996 0.000000 0.000000 0.000000 0.000000 0.000000 0.000000 0.000000 0.000000 0.000000 0.000000 0.000000 0.000000 0.000000 0.000000 0.000000 0.000000 0.000000 0.000000 0.000000 0.000000 0.000000 0.000000 0.000000 0.000000 0.000000 0.000000 0.000000 0.000000 20.949560 20.949560 20.949560 20.949560 20.949560 20.949560 20.949560 20.949560 17.612374 17.612374 17.612374 17.612374 17.612374 17.612374 0.000000 0.000000 0.000000 0.000000 0.000000 17.488823 17.488823 17.488823 17.488823 17.488823 17.488823 17.488823 23.176052 23.176052 23.176052 23.176052 23.176052 23.176052 23.176052 23.176052 23.176052 0.000000 0.000000 0.000000 0.000000 0.000000 14.696036 14.696036 14.696036 14.696036 14.696036 14.696036 14.696036 14.604195 14.604195 14.604195 14.604195 14.604195 14.604195 0.000000 0.000000 0.000000 0.000000
0.000000 0.000000 0.000000 0.000000 25.420473 25.420473 25.420473 25.420473 25.420473 25.420473 25.420473 25.420473 25.420473 25.420473 25.420473 25.420473 25.420473 25.420473 26.226472 26.226472 26.226472 26.226472 26.226472 26.226472 26.226472 26.226472 26.226472 26.226472 26.226472 26.226472 26.226472 26.226472 26.226472 15.213651 15.213651 15.213651 15.213651 15.213651 15.213651 15.213651 15.213651 0.000000 0.000000 0.000000 0.000000 0.000000 20.949560 20.949560 20.949560 20.949560 20.949560 20.949560 20.949560 20.949560 17.612374 17.612374 17.612374 17.612374 17.612374 17.612374 0.000000 0.000000 0.000000 0.000000 0.000000 17.488823 17.488823 17.488823 17.488823 17.488823 17.488823 17.488823 23.176052 23.176052 23.176052 23.176052 23.176052 23.176052 23.176052 23.176052 23.176052 0.000000 0.000000 0.000000 0.000000 0.000000 14.696036 14.696036 14.696036 14.696036 14.696036 14.696036 14.696036 14.604195 14.604195 14.604195 14.604195 14.604195 14.604195 0.000000 0.000000 0.000000 0.000000
0.000000 0.000000 0.000000 0.000000 25.420473 25.420473 25.420473 25.420473 25.420473 25.420473 25.420473 25.420473 25.420473 25.420473 25.420473 25.420473 25.420473 25.420473 26.226472 26.226472 26.226472 26.226472 26.226472 26.226472 26.226472 26.226472 26.226472 26.226472 26.226472 26.226472 26.226472 26.226472 26.226472 15.213651 15.213651 15.213651 15.213651 15.213651 15.213651 15.213651 15.213651 0.000000 0.000000 0.000000 0.000000 0.000000 12.553020 12.553020 12.553020 12.553020 12.553020 12.553020 12.553020 12.553020 10.553371 10.553371 10.553371 10.553371 10.553371 10.553371 0.000000 0.000000 0.000000 0.000000 0.000000 17.488823 17.488823 17.488823 17.488823 17.488823 17.488823 17.488823 23.176052 23.176052 23.176052 23.176052 23.176052 23.176052 23.176052 23.176052 23.176052 0.000000 0.000000 0.000000 0.000000 0.000000 14.696036 14.696036 14.696036 14.696036 14.696036 14.696036 14.696036 14.604195 14.604195 14.604195 14.604195 14.604195 14.604195 0.000000 0.000000 0.000000 0.000000
0.000000 0.000000 0.000000 0.000000 25.420473 25.420473 25.420473 25.420473 25.420473 25.420473 25.420473 25.420473 25.420473 25.420473 25.420473 25.420473 25.420473 25.420473 26.226472 26.226472 26.226472 26.226472 26.226472 26.226472 26.226472 26.226472 26.226472 26.226472 26.226472 26.226472 26.226472 26.226472 26.226472 15.213651 15.213651 15.213651 15.213651 15.213651 15.213651 15.213651 15.213651 0.000000 0.000000 0.000000 0.000000 0.000000 12.553020 12.553020 12.553020 12.553020 12.553020 12.553020 12.553020 12.553020 10.553371 10.553371 10.553371 10.553371 10.553371 10.553371 0.000000 0.000000 0.000000 0.000000 0.000000 17.488823 17.488823 17.488823 17.488823 17.488823 17.488823 17.488823 23.176052 23.176052 23.176052 23.176052 23.176052 23.176052 23.176052 23.176052 23.176052 0.000000 0.000000 0.000000 0.000000 0.000000 14.696036 14.696036 14.696036 14.696036 14.696036 14.696036 14.696036 14.604195 14.604195 14.604195 14.604195 14.604195 14.604195 0.000000 0.000000 0.000000 0.000000
0.000000 0.000000 0.000000 0.000000 25.420473 25.420473 25.420473 25.420473 25.420473 25.420473 25.420473 25.420473 25.420473 25.420473 25.420473 25.420473 25.420473 25.420473 26.226472 26.226472 26.226472 26.226472 26.226472 26.226472 26.226472 26.226472 26.226472 26.226472 26.226472 26.226472 26.226472 26.226472 26.226472 15.213651 15.213651 15.213651 15.213651 15.213651 15.213651 15.213651 15.213651 0.000000 0.000000 0.000000 0.000000 0.000000 12.553020 12.553020 12.553020 12.553020 12.553020 12.553020 12.553020 12.553020 10.553371 10.553371 10.553371 10.553371 10.553371 10.553371 0.000000 0.000000 0.000000 0.000000 0.000000 17.488823 17.488823 17.488823 17.488823 17.488823 17.488823 17.488823 23.176052 23.176052 23.176052 23.176052 23.176052 23.176052 23.176052 23.176052 23.176052 0.000000 0.000000 0.000000 0.000000 0.000000 14.696036 14.696036 14.696036 14.696036 14.696036 14.696036 14.696036 14.604195 14.604195 14.604195 14.604195 14.604195 14.604195 0.000000 0.000000 0.000000 0.000000
0.000000 0.000000 0.000000 0.000000 25.420473 25.420473 25.420473 25.420473 25.420473 25.420473 25.420473 25.420473 25.420473 25.420473 25.420473 25.420473 25.420473 25.420473 26.226472 26.226472 26.226472 26.226472 26.226472 26.226472 26.226472 26.226472 26.226472 26.226472 26.226472 26.226472 26.226472 26.226472 26.226472 15.213651 15.213651 15.213651 15.213651 15.213651 15.213651 15.213651 15.213651 0.000000 0.000000 0.000000 0.000000 0.000000 12.553020 12.553020 12.553020 12.553020 12.553020 12.553020 12.553020 12.553020 10.553371 10.553371 10.553371 10.553371 10.553371 10.553371 0.000000 0.000000 0.000000 0.000000 0.000000 17.488823 17.488823 17.488823 17.488823 17.488823 17.488823 17.488823 23.176052 23.176052 23.176052 23.176052 23.176052 23.176052 23.176052 23.176052 23.176052 0.000000 0.000000 0.000000 0.000000 0.000000 14.696036 14.696036 14.696036 14.696036 14.696036 14.696036 14.696036 14.604195 14.604195 14.604195 14.604195 14.604195 14.604195 0.000000 0.000000 0.000000 0.000000
0.000000 0.000000 0.000000 0.000000 25.420473 25.420473 25.420473 25.420473 25.420473 25.420473 25.420473 25.420473 25.420473 25.420473 25.420473 25.420473 25.420473 25.420473 26.226472 26.226472 26.226472 26.226472 26.226472 26.226472 26.226472 26.226472 26.226472 26.226472 26.226472 26.226472 26.226472 26.226472 26.226472 15.213651 15.213651 15.213651 15.213651 15.213651 15.213651 15.213651 15.213651 0.000000 0.000000 0.000000 0.000000 0.000000 12.553020 12.553020 12.553020 12.553020 12.553020 12.553020 12.553020 12.553020 10.553371 10.553371 10.553371 10.553371 10.553371 10.553371 0.000000 0.000000 0.000000 0.000000 0.000000 17.488823 17.488823 17.488823 17.488823 17.488823 17.488823 17.488823 23.176052 23.176052 23.176052 23.176052 23.176052 23.176052 23.176052 23.176052 23.176052 0.000000 0.000000 0.000000 0.000000 0.000000 14.696036 14.696036 14.696036 14.696036 14.696036 14.696036 14.696036 14.604195 14.604195 14.604195 14.604195 14.604195 14.604195 0.000000 0.000000 0.000000 0.000000
0.000000 0.000000 0.000000 0.000000 25.420473 25.420473 25.420473 25.420473 25.420473 25.420473 25.420473 25.420473 25.420473 25.420473 25.420473 25.420473 25.420473 25.420473 26.226472 26.226472 26.226472 26.226472 26.226472 26.226472 26.226472 26.226472 26.226472 26.226472 26.226472 26.226472 26.226472 26.226472 26.226472 15.213651 15.213651 15.213651 15.213651 15.213651 15.213651 15.213651 15.213651 0.000000 0.000000 0.000000 0.000000 0.000000 12.553020 12.553020 12.553020 12.553020 12.553020 12.553020 12.553020 12.553020 10.553371 10.553371 10.553371 10.553371 10.553371 10.553371 0.000000 0.000000 0.000000 0.000000 0.000000 17.488823 17.488823 17.488823 17.488823 17.488823 17.488823 17.488823 23.176052 23.176052 23.176052 23.176052 23.176052 23.176052 23.176052 23.176052 23.176052 0.000000 0.000000 0.000000 0.000000 0.000000 14.696036 14.696036 14.696036 14.696036 14.696036 14.696036 14.696036 14.604195 14.604195 14.604195 14.604195 14.604195 14.604195 0.000000 0.000000 0.000000 0.000000
0.000000 0.000000 0.000000 0.000000 25.420473 25.420473 25.420473 25.420473 25.420473 25.420473 25.420473 25.420473 25.420473 25.420473 25.420473 25.420473 25.420473 25.420473 26.226472 26.226472 26.226472 26.226472 26.226472 26.226472 26.226472 26.226472 26.226472 26.226472 26.226472 26.226472 26.226472 26.226472 26.226472 15.213651 15.213651 15.213651 15.213651 15.213651 15.213651 15.213651 15.213651 0.000000 0.000000 0.000000 0.000000 0.000000 12.553020 12.553020 12.553020 12.553020 12.553020 12.553020 12.553020 12.553020 10.553371 10.553371 10.553371 10.553371 10.553371 10.553371 0.000000 0.000000 0.000000 0.000000 0.000000 17.488823 17.488823 17.488823 17.488823 17.488823 17.488823 17.488823 23.176052 23.176052 23.176052 23.176052 23.176052 23.176052 23.176052 23.176052 23.176052 0.000000 0.000000 0.000000 0.000000 0.000000 14.696036 14.696036 14.696036 14.696036 14.696036 14.696036 14.696036 14.604195 14.604195 14.604195 14.604195 14.604195 14.604195 0.000000 0.000000 0.000000 0.000000
0.000000 0.000000 0.000000 0.000000 0.000000 0.000000 0.000000 0.000000 0.000000 0.000000 0.000000 0.000000 0.000000 0.000000 0.000000 0.000000 0.000000 0.000000 0.000000 0.000000 0.000000 0.000000 0.000000 0.000000 0.000000 0.000000 0.000000 0.000000 0.000000 0.000000 0.000000 0.000000 0.000000 0.000000 0.000000 0.000000 0.000000 0.000000 0.000000 0.000000 0.000000 0.000000 0.000000 0.000000 0.000000 0.000000 0.000000 0.000000 0.000000 0.000000 0.000000 0.000000 0.000000 0.000000 0.000000 0.000000 0.000000 0.000000 0.000000 0.000000 0.000000 0.000000 0.000000 0.000000 0.000000 0.000000 0.000000 0.000000 0.000000 0.000000 0.000000 0.000000 0.000000 0.000000 0.000000 0.000000 0.000000 0.000000 0.000000 0.000000 0.000000 0.000000 0.000000 0.000000 0.000000 0.000000 0.000000 0.000000 0.000000 0.000000 0.000000 0.000000 0.000000 0.000000 0.000000 0.000000 0.000000 0.000000 0.000000 0.000000 0.000000 0.000000 0.000000
0.000000 0.000000 0.000000 0.000000 0.000000 0.000000 0.000000 0.000000 0.000000 0.000000 0.000000 0.000000 0.000000 0.000000 0.000000 0.000000 0.000000 0.000000 0.000000 0.000000 0.000000 0.000000 0.000000 0.000000 0.000000 0.000000 0.000000 0.000000 0.000000 0.000000 0.000000 0.000000 0.000000 0.000000 0.000000 0.000000 0.000000 0.000000 0.000000 0.000000 0.000000 0.000000 0.000000 0.000000 0.000000 0.000000 0.000000 0.000000 0.000000 0.000000 0.000000 0.000000 0.000000 0.000000 0.000000 0.000000 0.000000 0.000000 0.000000 0.000000 0.000000 0.000000 0.000000 0.000000 0.000000 0.000000 0.000000 0.000000 0.000000 0.000000 0.000000 0.000000 0.000000 0.000000 0.000000 0.000000 0.000000 0.000000 0.000000 0.000000 0.000000 0.000000 0.000000 0.000000 0.000000 0.000000 0.000000 0.000000 0.000000 0.000000 0.000000 0.000000 0.000000 0.000000 0.000000 0.000000 0.000000 0.000000 0.000000 0.000000 0.000000 0.000000 0.000000
0.000000 0.000000 0.000000 0.000000 0.000000 0.000000 0.000000 0.000000 0.000000 0.000000 0.000000 0.000000 0.000000 0.000000 0.000000 0.000000 0.000000 0.000000 0.000000 0.000000 0.000000 0.000000 0.000000 0.000000 0.000000 0.000000 0.000000 0.000000 0.000000 0.000000 0.000000 0.000000 0.000000 0.000000 0.000000 0.000000 0.000000 0.000000 0.000000 0.000000 0.000000 0.000000 0.000000 0.000000 0.000000 0.000000 0.000000 0.000000 0.000000 0.000000 0.000000 0.000000 0.000000 0.000000 0.000000 0.000000 0.000000 0.000000 0.000000 0.000000 0.000000 0.000000 0.000000 0.000000 0.000000 0.000000 0.000000 0.000000 0.000000 0.000000 0.000000 0.000000 0.000000 0.000000 0.000000 0.000000 0.000000 0.000000 0.000000 0.000000 0.000000 0.000000 0.000000 0.000000 0.000000 0.000000 0.000000 0.000000 0.000000 0.000000 0.000000 0.000000 0.000000 0.000000 0.000000 0.000000 0.000000 0.000000 0.000000 0.000000 0.000000 0.000000 0.000000
0.000000 0.000000 0.000000 0.000000 0.000000 0.000000 0.000000 0.000000 0.000000 0.000000 0.000000 0.000000 0.000000 0.000000 0.000000 0.000000 0.000000 0.000000 0.000000 0.000000 0.000000 0.000000 0.000000 0.000000 0.000000 0.000000 0.000000 0.000000 0.000000 0.000000 0.000000 0.000000 0.000000 0.000000 0.000000 0.000000 0.000000 0.000000 0.000000 0.000000 0.000000 0.000000 0.000000 0.000000 0.000000 0.000000 0.000000 0.000000 0.000000 0.000000 0.000000 0.000000 0.000000 0.000000 0.000000 0.000000 0.000000 0.000000 0.000000 0.000000 0.000000 0.000000 0.000000 0.000000 0.000000 0.000000 0.000000 0.000000 0.000000 0.000000 0.000000 0.000000 0.000000 0.000000 0.000000 0.000000 0.000000 0.000000 0.000000 0.000000 0.000000 0.000000 0.000000 0.000000 0.000000 0.000000 0.000000 0.000000 0.000000 0.000000 0.000000 0.000000 0.000000 0.000000 0.000000 0.000000 0.000000 0.000000 0.000000 0.000000 0.000000 0.000000 0.000000
0.000000 0.000000 0.000000 0.000000 0.000000 0.000000 0.000000 0.000000 0.000000 0.000000 0.000000 0.000000 0.000000 0.000000 0.000000 0.000000 0.000000 0.000000 0.000000 0.000000 0.000000 0.000000 0.000000 0.000000 0.000000 0.000000 0.000000 0.000000 0.000000 0.000000 0.000000 0.000000 0.000000 0.000000 0.000000 0.000000 0.000000 0.000000 0.000000 0.000000 0.000000 0.000000 0.000000 0.000000 0.000000 0.000000 0.000000 0.000000 0.000000 0.000000 0.000000 0.000000 0.000000 0.000000 0.000000 0.000000 0.000000 0.000000 0.000000 0.000000 0.000000 0.000000 0.000000 0.000000 0.000000 0.000000 0.000000 0.000000 0.000000 0.000000 0.000000 0.000000 0.000000 0.000000 0.000000 0.000000 0.000000 0.000000 0.000000 0.000000 0.000000 0.000000 0.000000 0.000000 0.000000 0.000000 0.000000 0.000000 0.000000 0.000000 0.000000 0.000000 0.000000 0.000000 0.000000 0.000000 0.000000 0.000000 0.000000 0.000000 0.000000 0.000000 0.000000
0.000000 0.000000 0.000000 0.000000 30.329550 30.329550 30.329550 30.329550 30.329550 30.329550 30.329550 30.329550 30.329550 30.329550 30.329550 30.329550 30.329550 30.329550 30.329550 30.329550 24.611915 24.611915 24.611915 24.611915 24.611915 24.611915 24.611915 24.611915 24.611915 24.611915 24.611915 24.611915 17.693743 17.693743 17.693743 17.693743 17.693743 17.693743 17.693743 17.693743 17.693743 0.000000 0.000000 0.000000 0.000000 0.000000 11.939270 11.939270 11.939270 11.939270 11.939270 11.939270 11.939270 0.000000 0.000000 0.000000 0.000000 0.000000 0.000000 0.000000 0.000000 0.000000 0.000000 0.000000 0.000000 0.000000 0.000000 0.000000 0.000000 0.000000 0.000000 0.000000 0.000000 0.000000 0.000000 0.000000 0.000000 0.000000 0.000000 0.000000 0.000000 0.000000 0.000000 0.000000 0.000000 0.000000 0.000000 0.000000 0.000000 0.000000 0.000000 0.000000 0.000000 0.000000 0.000000 0.000000 0.000000 0.000000 0.000000 0.000000 0.000000 0.000000 0.000000
0.000000 0.000000 0.000000 0.000000 30.329550 30.329550 30.329550 30.329550 30.329550 30.329550 30.329550 30.329550 30.329550 30.329550 30.329550 30.329550 30.329550 30.329550 30.329550 30.329550 24.611915 24.611915 24.611915 24.611915 24.611915 24.611915 24.611915 24.611915 24.611915 24.611915 24.611915 24.611915 17.693743 17.693743 17.693743 17.693743 17.693743 17.693743 17.693743 17.693743 17.693743 0.000000 0.000000 0.000000 0.000000 0.000000 11.939270 11.939270 11.939270 11.939270 11.939270 11.939270 11.939270 0.000000 0.000000 0.000000 0.000000 0.000000 0.000000 0.000000 0.000000 0.000000 0.000000 0.000000 0.000000 0.000000 0.000000 32.940367 32.940367 32.940367 32.940367 32.940367 32.940367 32.940367 32.940367 32.940367 32.940367 32.940367 32.940367 0.000000 0.000000 0.000000 0.000000 0.000000 0.000000 0.000000 0.000000 0.000000 0.000000 0.000000 0.000000 0.000000 0.000000 0.000000 0.000000 0.000000 0.000000 0.000000 0.000000 0.000000 0.000000 0.000000 0.000000
0.000000 0.000000 0.000000 0.000000 30.329550 30.329550 30.329550 30.329550 30.329550 30.329550 30.329550 30.329550 30.329550 30.329550 30.329550 30.329550 30.329550 30.329550 30.329550 30.329550 24.611915 24.611915 24.611915 24.611915 24.611915 24.611915 24.611915 24.611915 24.611915 24.611915 24.611915 24.611915 17.693743 17.693743 17.693743 17.693743 17.693743 17.693743 17.693743 17.693743 17.693743 0.000000 0.000000 0.000000 0.000000 0.000000 11.939270 11.939270 11.939270 11.939270 11.939270 11.939270 11.939270 0.000000 0.000000 0.000000 0.000000 0.000000 0.000000 0.000000 0.000000 0.000000 0.000000 0.000000 0.000000 0.000000 0.000000 32.940367 32.940367 32.940367 32.940367 32.940367 32.940367 32.940367 32.940367 32.940367 32.940367 32.940367 32.940367 0.000000 0.000000 0.000000 0.000000 0.000000 0.000000 0.000000 0.000000 0.000000 0.000000 0.000000 0.000000 0.000000 0.000000 0.000000 0.000000 0.000000 0.000000 0.000000 0.000000 0.000000 0.000000 0.000000 0.000000
0.000000 0.000000 0.000000 0.000000 30.329550 30.329550 30.329550 30.329550 30.329550 30.329550 30.329550 30.329550 30.329550 30.329550 30.329550 30.329550 30.329550 30.329550 30.329550 30.329550 24.611915 24.611915 24.611915 24.611915 24.611915 24.611915 24.611915 24.611915 24.611915 24.611915 24.611915 24.611915 17.693743 17.693743 17.693743 17.693743 17.693743 17.693743 17.693743 17.693743 17.693743 0.000000 0.000000 0.000000 0.000000 0.000000 11.939270 11.939270 11.939270 11.939270 11.939270 11.939270 11.939270 0.000000 0.000000 0.000000 0.000000 0.000000 0.000000 0.000000 0.000000 0.000000 0.000000 0.000000 0.000000 0.000000 0.000000 32.940367 32.940367 32.940367 32.940367 32.940367 32.940367 32.940367 32.940367 32.940367 32.940367 32.940367 32.940367 0.000000 0.000000 0.000000 0.000000 0.000000 0.000000 0.000000 0.000000 0.000000 0.000000 0.000000 0.000000 0.000000 0.000000 0.000000 0.000000 0.000000 0.000000 0.000000 0.000000 0.000000 0.000000 0.000000 0.000000
0.000000 0.000000 0.000000 0.000000 30.329550 30.329550 30.329550 30.329550 30.329550 30.329550 30.329550 30.329550 30.329550 30.329550 30.329550 30.329550 30.329550 30.329550 30.329550 30.329550 24.611915 24.611915 24.611915 24.611915 24.611915 24.611915 24.611915 24.611915 24.611915 24.611915 24.611915 24.611915 17.693743 17.693743 17.693743 17.693743 17.693743 17.693743 17.693743 17.693743 17.693743 0.000000 0.000000 0.000000 0.000000 0.000000 11.939270 11.939270 11.939270 11.939270 11.939270 11.939270 11.939270 0.000000 0.000000 0.000000 0.000000 0.000000 0.000000 0.000000 0.000000 0.000000 0.000000 0.000000 0.000000 0.000000 0.000000 32.940367 32.940367 32.940367 32.940367 32.940367 32.940367 32.940367 32.940367 32.940367 32.940367 32.940367 32.940367 0.000000 0.000000 0.000000 0.000000 0.000000 0.000000 0.000000 0.000000 0.000000 0.000000 0.000000 0.000000 0.000000 0.000000 0.000000 0.000000 0.000000 0.000000 0.000000 0.000000 0.000000 0.000000 0.000000 0.000000
0.000000 0.000000 0.000000 0.000000 30.329550 30.329550 30.329550 30.329550 30.329550 30.329550 30.329550 30.329550 30.329550 30.329550 30.329550 30.329550 30.329550 30.329550 30.329550 30.329550 24.611915 24.611915 24.611915 24.611915 24.611915 24.611915 24.611915 24.611915 24.611915 24.611915 24.611915 24.611915 17.693743 17.693743 17.693743 17.693743 17.693743 17.693743 17.693743 17.693743 17.693743 0.000000 0.000000 0.000000 0.000000 0.000000 11.939270 11.939270 11.939270 11.939270 11.939270 11.939270 11.939270 0.000000 0.000000 0.000000 0.000000 0.000000 0.000000 0.000000 0.000000 0.000000 0.000000 0.000000 0.000000 0.000000 0.000000 32.940367 32.940367 32.940367 32.940367 32.940367 32.940367 32.940367 32.940367 32.940367 32.940367 32.940367 32.940367 0.000000 0.000000 0.000000 0.000000 0.000000 0.000000 0.000000 0.000000 0.000000 0.000000 0.000000 0.000000 0.000000 0.000000 0.000000 0.000000 0.000000 0.000000 0.000000 0.000000 0.000000 0.000000 0.000000 0.000000
0.000000 0.000000 0.000000 0.000000 30.329550 30.329550 30.329550 30.329550 30.329550 30.329550 30.329550 30.329550 30.329550 30.329550 30.329550 30.329550 30.329550 30.329550 30.329550 30.329550 24.611915 24.611915 24.611915 24.611915 24.611915 24.611915 24.611915 24.611915 24.611915 24.611915 24.611915 24.611915 17.693743 17.693743 17.693743 17.693743 17.693743 17.693743 17.693743 17.693743 17.693743 0.000000 0.000000 0.000000 0.000000 0.000000 11.939270 11.939270 11.939270 11.939270 11.939270 11.939270 11.939270 0.000000 0.000000 0.000000 0.000000 0.000000 0.000000 0.000000 0.000000 0.000000 0.000000 0.000000 0.000000 0.000000 0.000000 32.940367 32.940367 32.940367 32.940367 32.940367 32.940367 32.940367 32.940367 32.940367 32.940367 32.940367 32.940367 0.000000 0.000000 0.000000 0.000000 0.000000 0.000000 0.000000 0.000000 0.000000 0.000000 0.000000 0.000000 0.000000 0.000000 0.000000 0.000000 0.000000 0.000000 0.000000 0.000000 0.000000 0.000000 0.000000 0.000000
0.000000 0.000000 0.000000 0.000000 30.329550 30.329550 30.329550 30.329550 30.329550 30.329550 30.329550 30.329550 30.329550 30.329550 30.329550 30.329550 30.329550 30.329550 30.329550 30.329550 24.611915 24.611915 24.611915 24.611915 24.611915 24.611915 24.611915 24.611915 24.611915 24.611915 24.611915 24.611915 17.693743 17.693743 17.693743 17.693743 17.693743 17.693743 17.693743 17.693743 17.693743 0.000000 0.000000 0.000000 0.000000 0.000000 0.000000 0.000000 0.000000 0.000000 0.000000 0.000000 0.000000 0.000000 0.000000 0.000000 0.000000 0.000000 0.000000 0.000000 0.000000 0.000000 0.000000 0.000000 0.000000 0.000000 0.000000 32.940367 32.940367 32.940367 32.940367 32.940367 32.940367 32.940367 32.940367 32.940367 32.940367 32.940367 32.940367 0.000000 0.000000 0.000000 0.000000 0.000000 0.000000 0.000000 0.000000 0.000000 0.000000 0.000000 0.000000 0.000000 0.000000 0.000000 0.000000 0.000000 0.000000 0.000000 0.000000 0.000000 0.000000 0.000000 0.000000
0.000000 0.000000 0.000000 0.000000 26.099951 26.099951 26.099951 26.099951 26.099951 26.099951 26.099951 26.099951 26.099951 26.099951 26.099951 26.099951 26.099951 26.099951 26.099951 26.099951 21.179668 21.179668 21.179668 21.179668 21.179668 21.179668 21.179668 21.179668 21.179668 21.179668 21.179668 21.179668 0.000000 0.000000 0.000000 0.000000 0.000000 0.000000 0.000000 0.000000 0.000000 0.000000 0.000000 0.000000 0.000000 0.000000 0.000000 0.000000 0.000000 0.000000 0.000000 0.000000 0.000000 0.000000 0.000000 0.000000 0.000000 0.000000 0.000000 0.000000 0.000000 0.000000 0.000000 0.000000 0.000000 0.000000 0.000000 32.940367 32.940367 32.940367 32.940367 32.940367 32.940367 32.940367 32.940367 32.940367 32.940367 32.940367 32.940367 0.000000 0.000000 0.000000 0.000000 0.000000 0.000000 0.000000 0.000000 0.000000 0.000000 0.000000 0.000000 0.000000 0.000000 0.000000 0.000000 0.000000 0.000000 0.000000 0.000000 0.000000 0.000000 0.000000 0.000000
0.000000 0.000000 0.000000 0.000000 26.099951 26.099951 26.099951 26.099951 26.099951 26.099951 26.099951 26.099951 26.099951 26.099951 26.099951 26.099951 26.099951 26.099951 26.099951 26.099951 21.179668 21.179668 21.179668 21.179668 21.179668 21.179668 21.179668 21.179668 21.179668 21.179668 21.179668 21.179668 0.000000 0.000000 0.000000 0.000000 0.000000 0.000000 0.000000 0.000000 0.000000 0.000000 0.000000 0.000000 0.000000 0.000000 0.000000 0.000000 0.000000 0.000000 0.000000 0.000000 0.000000 0.000000 0.000000 0.000000 0.000000 0.000000 0.000000 0.000000 0.000000 0.000000 0.000000 0.000000 0.000000 0.000000 0.000000 32.940367 32.940367 32.940367 32.940367 32.940367 32.940367 32.940367 32.940367 32.940367 32.940367 32.940367 32.940367 0.000000 0.000000 0.000000 0.000000 0.000000 0.000000 0.000000 0.000000 0.000000 0.000000 0.000000 0.000000 0.000000 0.000000 0.000000 0.000000 0.000000 0.000000 0.000000 0.000000 0.000000 0.000000 0.000000 0.000000
0.000000 0.000000 0.000000 0.000000 26.099951 26.099951 26.099951 26.099951 26.099951 26.099951 26.099951 26.099951 26.099951 26.099951 26.099951 26.099951 26.099951 26.099951 26.099951 26.099951 21.179668 21.179668 21.179668 21.179668 21.179668 21.179668 21.179668 21.179668 21.179668 21.179668 21.179668 21.179668 0.000000 0.000000 0.000000 0.000000 0.000000 0.000000 0.000000 0.000000 0.000000 0.000000 0.000000 0.000000 0.000000 0.000000 0.000000 0.000000 0.000000 0.000000 0.000000 0.000000 0.000000 0.000000 0.000000 0.000000 0.000000 0.000000 0.000000 0.000000 0.000000 0.000000 0.000000 0.000000 0.000000 0.000000 0.000000 32.940367 32.940367 32.940367 32.940367 32.940367 32.940367 32.940367 32.940367 32.940367 32.940367 32.940367 32.940367 0.000000 0.000000 0.000000 0.000000 0.000000 0.000000 0.000000 0.000000 0.000000 0.000000 0.000000 0.000000 0.000000 0.000000 0.000000 0.000000 0.000000 0.000000 0.000000 0.000000 0.000000 0.000000 0.000000 0.000000
0.000000 0.000000 0.000000 0.000000 26.099951 26.099951 26.099951 26.099951 26.099951 26.099951 26.099951 26.099951 26.099951 26.099951 26.099951 26.099951 26.099951 26.099951 26.099951 26.099951 21.179668 21.179668 21.179668 21.179668 21.179668 21.179668 21.179668 21.179668 21.179668 21.179668 21.179668 21.179668 0.000000 0.000000 0.000000 0.000000 0.000000 0.000000 0.000000 0.000000 0.000000 0.000000 0.000000 0.000000 0.000000 0.000000 0.000000 0.000000 0.000000 0.000000 0.000000 0.000000 0.000000 0.000000 0.000000 0.000000 0.000000 0.000000 0.000000 0.000000 0.000000 0.000000 0.000000 0.000000 0.000000 0.000000 0.000000 32.940367 32.940367 32.940367 32.940367 32.940367 32.940367 32.940367 32.940367 32.940367 32.940367 32.940367 32.940367 0.000000 0.000000 0.000000 0.000000 0.000000 0.000000 0.000000 0.000000 0.000000 0.000000 0.000000 0.000000 0.000000 0.000000 0.000000 0.000000 0.000000 0.000000 0.000000 0.000000 0.000000 0.000000 0.000000 0.000000
0.000000 0.000000 0.000000 0.000000 26.099951 26.099951 26.099951 26.099951 26.099951 26.099951 26.099951 26.099951 26.099951 26.099951 26.099951 26.099951 26.099951 26.099951 26.099951 26.099951 21.179668 21.179668 21.179668 21.179668 21.179668 21.179668 21.179668 21.179668 21.179668 21.179668 21.179668 21.179668 0.000000 0.000000 0.000000 0.000000 0.000000 0.000000 0.000000 0.000000 0.000000 0.000000 0.000000 0.000000 0.000000 0.000000 0.000000 0.000000 0.000000 0.000000 0.000000 0.000000 0.000000 0.000000 0.000000 0.000000 0.000000 0.000000 0.000000 0.000000 0.000000 0.000000 0.000000 0.000000 0.000000 0.000000 0.000000 32.940367 32.940367 32.940367 32.940367 32.940367 32.940367 32.940367 32.940367 32.940367 32.940367 32.940367 32.940367 0.000000 0.000000 0.000000 0.000000 0.000000 0.000000 0.000000 0.000000 0.000000 0.000000 0.000000 0.000000 0.000000 0.000000 0.000000 0.000000 0.000000 0.000000 0.000000 0.000000 0.000000 0.000000 0.000000 0.000000
0.000000 0.000000 0.000000 0.000000 26.099951 26.099951 26.099951 26.099951 26.099951 26.099951 26.099951 26.099951 26.099951 26.099951 26.099951 26.099951 26.099951 26.099951 26.099951 26.099951 21.179668 21.179668 21.179668 21.179668 21.179668 21.179668 21.179668 21.179668 21.179668 21.179668 21.179668 21.179668 0.000000 0.000000 0.000000 0.000000 0.000000 0.000000 0.000000 0.000000 0.000000 0.000000 0.000000 0.000000 0.000000 0.000000 0.000000 0.000000 0.000000 0.000000 0.000000 0.000000 0.000000 0.000000 0.000000 0.000000 0.000000 0.000000 0.000000 0.000000 0.000000 0.000000 0.000000 0.000000 0.000000 0.000000 0.000000 0.000000 0.000000 0.000000 0.000000 0.000000 0.000000 0.000000 0.000000 0.000000 0.000000 0.000000 0.000000 0.000000 0.000000 0.000000 0.000000 0.000000 0.000000 0.000000 0.000000 0.000000 0.000000 0.000000 0.000000 0.000000 0.000000 0.000000 0.000000 0.000000 0.000000 0.000000 0.000000 0.000000 0.000000 0.000000 0.000000
0.000000 0.000000 0.000000 0.000000 26.099951 26.099951 26.099951 26.099951 26.099951 26.099951 26.099951 26.099951 26.099951 26.099951 26.099951 26.099951 26.099951 26.099951 26.099951 26.099951 21.179668 21.179668 21.179668 21.179668 21.179668 21.179668 21.179668 21.179668 21.179668 21.179668 21.179668 21.179668 0.000000 0.000000 0.000000 0.000000 0.000000 0.000000 0.000000 0.000000 0.000000 0.000000 0.000000 0.000000 0.000000 0.000000 0.000000 0.000000 0.000000 0.000000 0.000000 0.000000 0.000000 0.000000 0.000000 0.000000 0.000000 0.000000 0.000000 0.000000 0.000000 0.000000 0.000000 0.000000 0.000000 0.000000 0.000000 0.000000 0.000000 0.000000 0.000000 0.000000 0.000000 0.000000 0.000000 0.000000 0.000000 0.000000 0.000000 0.000000 0.000000 0.000000 0.000000 0.000000 0.000000 0.000000 0.000000 0.000000 0.000000 0.000000 0.000000 0.000000 0.000000 0.000000 0.000000 0.000000 0.000000 0.000000 0.000000 0.000000 0.000000 0.000000 0.000000
0.000000 0.000000 0.000000 0.000000 0.000000 0.000000 0.000000 0.000000 0.000000 0.000000 0.000000 0.000000 0.000000 0.000000 0.000000 0.000000 0.000000 0.000000 0.000000 0.000000 0.000000 0.000000 0.000000 0.000000 0.000000 0.000000 0.000000 0.000000 0.000000 0.000000 0.000000 0.000000 0.000000 0.000000 0.000000 0.000000 0.000000 0.000000 0.000000 0.000000 0.000000 0.000000 0.000000 0.000000 0.000000 0.000000 0.000000 0.000000 0.000000 0.000000 0.000000 0.000000 0.000000 0.000000 0.000000 0.000000 0.000000 0.000000 0.000000 0.000000 0.000000 0.000000 0.000000 0.000000 0.000000 0.000000 0.000000 0.000000 0.000000 0.000000 0.000000 0.000000 0.000000 0.000000 0.000000 0.000000 0.000000 0.000000 0.000000 0.000000 0.000000 0.000000 0.000000 0.000000 0.000000 0.000000 0.000000 0.000000 0.000000 0.000000 0.000000 0.000000 0.000000 0.000000 0.000000 0.000000 0.000000 0.000000 0.000000 0.000000 0.000000 0.000000 0.000000
0.000000 0.000000 0.000000 0.000000 0.000000 0.000000 0.000000 0.000000 0.000000 0.000000 0.000000 0.000000 0.000000 0.000000 0.000000 0.000000 0.000000 0.000000 0.000000 0.000000 0.000000 0.000000 0.000000 0.000000 0.000000 0.000000 0.000000 0.000000 0.000000 0.000000 0.000000 0.000000 0.000000 0.000000 0.000000 0.000000 0.000000 0.000000 0.000000 0.000000 0.000000 0.000000 0.000000 0.000000 0.000000 0.000000 0.000000 0.000000 0.000000 0.000000 0.000000 0.000000 0.000000 0.000000 0.000000 0.000000 0.000000 0.000000 0.000000 0.000000 0.000000 0.000000 0.000000 0.000000 0.000000 0.000000 0.000000 0.000000 0.000000 0.000000 0.000000 0.000000 0.000000 0.000000 0.000000 0.000000 0.000000 0.000000 0.000000 0.000000 0.000000 0.000000 0.000000 0.000000 0.000000 0.000000 0.000000 0.000000 0.000000 0.000000 0.000000 0.000000 0.000000 0.000000 0.000000 0.000000 0.000000 0.000000 0.000000 0.000000 0.000000 0.000000 0.000000
0.000000 0.000000 0.000000 0.000000 0.000000 0.000000 0.000000 0.000000 0.000000 0.000000 0.000000 0.000000 0.000000 0.000000 0.000000 0.000000 0.000000 0.000000 0.000000 0.000000 0.000000 0.000000 0.000000 0.000000 0.000000 0.000000 0.000000 0.000000 0.000000 0.000000 0.000000 0.000000 0.000000 0.000000 0.000000 0.000000 0.000000 0.000000 0.000000 0.000000 0.000000 0.000000 0.000000 0.000000 0.000000 0.000000 0.000000 0.000000 0.000000 0.000000 0.000000 0.000000 0.000000 0.000000 0.000000 0.000000 0.000000 0.000000 0.000000 0.000000 0.000000 0.000000 0.000000 0.000000 0.000000 0.000000 0.000000 0.000000 0.000000 0.000000 0.000000 0.000000 0.000000 0.000000 0.000000 0.000000 0.000000 0.000000 0.000000 0.000000 0.000000 0.000000 0.000000 0.000000 0.000000 0.000000 0.000000 0.000000 0.000000 0.000000 0.000000 0.000000 0.000000 0.000000 0.000000 0.000000 0.000000 0.000000 0.000000 0.000000 0.000000 0.000000 0.000000
0.000000 0.000000 0.000000 0.000000 0.000000 0.000000 0.000000 0.000000 0.000000 0.000000 0.000000 0.000000 0.000000 0.000000 0.000000 0.000000 0.000000 0.000000 0.000000 0.000000 0.000000 0.000000 0.000000 0.000000 0.000000 0.000000 0.000000 0.000000 0.000000 0.000000 0.000000 0.000000 0.000000 0.000000 0.000000 0.000000 0.000000 0.000000 0.000000 0.000000 0.000000 0.000000 0.000000 0.000000 0.000000 0.000000 0.000000 0.000000 0.000000 0.000000 0.000000 0.000000 0.000000 0.000000 0.000000 0.000000 0.000000 0.000000 0.000000 0.000000 0.000000 0.000000 0.000000 0.000000 0.000000 0.000000 0.000000 0.000000 0.000000 0.000000 0.000000 0.000000 0.000000 0.000000 0.000000 0.000000 0.000000 0.000000 0.000000 0.000000 0.000000 0.000000 0.000000 0.000000 0.000000 0.000000 0.000000 0.000000 0.000000 0.000000 0.000000 0.000000 0.000000 0.000000 0.000000 0.000000 0.000000 0.000000 0.000000 0.000000 0.000000 0.000000 0.000000
