0.000000 0.000000 0.000000 0.000000 0.000000 0.000000 0.000000 0.000000 0.000000 0.000000 0.000000 0.000000 0.000000 0.000000 0.000000 0.000000 0.000000 0.000000 0.000000 0.000000 0.000000 0.000000 0.000000 0.000000 0.000000 0.000000 0.000000 0.000000 0.000000 0.000000 0.000000 0.000000 0.000000 0.000000 0.000000 0.000000 0.000000 0.000000 0.000000 0.000000 0.000000 0.000000 0.000000 0.000000 0.000000 0.000000 0.000000 0.000000 0.000000 0.000000 0.000000 0.000000 0.000000 0.000000 0.000000 0.000000 0.000000 0.000000 0.000000 0.000000 0.000000 0.000000 0.000000 0.000000 0.000000 0.000000 0.000000 0.000000 0.000000 0.000000 0.000000 0.000000 0.000000 0.000000 0.000000 0.000000 0.000000 0.000000 0.000000 0.000000 0.000000 0.000000 0.000000 0.000000 0.000000 0.000000 0.000000 0.000000 0.000000 0.000000 0.000000 0.000000 0.000000 0.000000 0.000000 0.000000 0.000000 0.000000 0.000000 0.000000 0.000000 0.000000 0.000000
0.000000 0.000000 0.000000 0.000000 0.000000 0.000000 0.000000 0.000000 0.000000 0.000000 0.000000 0.000000 0.000000 0.000000 0.000000 0.000000 0.000000 0.000000 0.000000 0.000000 0.000000 0.000000 0.000000 0.000000 0.000000 0.000000 0.000000 0.000000 0.000000 0.000000 0.000000 0.000000 0.000000 0.000000 0.000000 0.000000 0.000000 0.000000 0.000000 0.000000 0.000000 0.000000 0.000000 0.000000 0.000000 0.000000 0.000000 0.000000 0.000000 0.000000 0.000000 0.000000 0.000000 0.000000 0.000000 0.000000 0.000000 0.000000 0.000000 0.000000 0.000000 0.000000 0.000000 0.000000 0.000000 0.000000 0.000000 0.000000 0.000000 0.000000 0.000000 0.000000 0.000000 0.000000 0.000000 0.000000 0.000000 0.000000 0.000000 0.000000 0.000000 0.000000 0.000000 0.000000 0.000000 0.000000 0.000000 0.000000 0.000000 0.000000 0.000000 0.000000 0.000000 0.000000 0.000000 0.000000 0.000000 0.000000 0.000000 0.000000 0.000000 0.000000 0.000000
0.000000 0.000000 0.000000 0.000000 0.000000 0.000000 0.000000 0.000000 0.000000 0.000000 0.000000 0.000000 0.000000 0.000000 0.000000 0.000000 0.000000 0.000000 0.000000 0.000000 0.000000 0.000000 0.000000 0.000000 0.000000 0.000000 0.000000 0.000000 0.000000 0.000000 0.000000 0.000000 0.000000 0.000000 0.000000 0.000000 0.000000 0.000000 0.000000 0.000000 0.000000 0.000000 0.000000 0.000000 0.000000 0.000000 0.000000 0.000000 0.000000 0.000000 0.000000 0.000000 0.000000 0.000000 0.000000 0.000000 0.000000 0.000000 0.000000 0.000000 0.000000 0.000000 0.000000 0.000000 0.000000 0.000000 0.000000 0.000000 0.000000 0.000000 0.000000 0.000000 0.000000 0.000000 0.000000 0.000000 0.000000 0.000000 0.000000 0.000000 0.000000 0.000000 0.000000 0.000000 0.000000 0.000000 0.000000 0.000000 0.000000 0.000000 0.000000 0.000000 0.000000 0.000000 0.000000 0.000000 0.000000 0.000000 0.000000 0.000000 0.000000 0.000000 0.000000
0.000000 0.000000 0.000000 0.000000 0.000000 0.000000 0.000000 0.000000 0.000000 0.000000 0.000000 0.000000 0.000000 0.000000 0.000000 0.000000 0.000000 0.000000 0.000000 0.000000 0.000000 0.000000 0.000000 0.000000 0.000000 0.000000 0.000000 0.000000 0.000000 0.000000 0.000000 0.000000 0.000000 0.000000 0.000000 0.000000 0.000000 0.000000 0.000000 0.000000 0.000000 0.000000 0.000000 0.000000 0.000000 0.000000 0.000000 0.000000 0.000000 0.000000 0.000000 0.000000 0.000000 0.000000 0.000000 0.000000 0.000000 0.000000 0.000000 0.000000 0.000000 0.000000 0.000000 0.000000 0.000000 0.000000 0.000000 0.000000 0.000000 0.000000 0.000000 0.000000 0.000000 0.000000 0.000000 0.000000 0.000000 0.000000 0.000000 0.000000 0.000000 0.000000 0.000000 0.000000 0.000000 0.000000 0.000000 0.000000 0.000000 0.000000 0.000000 0.000000 0.000000 0.000000 0.000000 0.000000 0.000000 0.000000 0.000000 0.000000 0.000000 0.000000 0.000000
0.000000 0.000000 0.000000 0.000000 0.000000 0.000000 0.000000 0.000000 0.000000 0.000000 0.000000 17.846421 17.846421 17.846421 17.846421 17.846421 17.846421 19.156375 19.156375 19.156375 19.156375 19.156375 19.156375 19.156375 0.000000 0.000000 0.000000 0.000000 0.000000 20.112444 20.112444 20.112444 20.112444 20.112444 20.112444 20.112444 0.000000 0.000000 0.000000 0.000000 0.000000 0.000000 0.000000 0.000000 0.000000 0.000000 0.000000 30.424209 30.424209 30.424209 30.424209 30.424209 30.424209 30.424209 30.424209 30.424209 30.424209 30.424209 19.700033 19.700033 19.700033 19.700033 19.700033 19.700033 19.700033 0.000000 0.000000 0.000000 0.000000 0.000000 29.177691 29.177691 29.177691 29.177691 29.177691 29.177691 29.177691 29.177691 29.177691 29.177691 29.177691 0.000000 0.000000 0.000000 0.000000 0.000000 0.000000 0.000000 0.000000 0.000000 0.000000 0.000000 0.000000 0.000000 0.000000 0.000000 0.000000 0.000000 0.000000 0.000000 0.000000 0.000000 0.000000
0.000000 0.000000 0.000000 0.000000 0.000000 0.000000 0.000000 0.000000 0.000000 0.000000 0.000000 17.846421 17.846421 17.846421 17.846421 17.846421 17.846421 19.156375 19.156375 19.156375 19.156375 19.156375 19.156375 19.156375 0.000000 0.000000 0.000000 0.000000 0.000000 20.112444 20.112444 20.112444 20.112444 20.112444 20.112444 20.112444 0.000000 0.000000 0.000000 0.000000 0.000000 0.000000 0.000000 0.000000 0.000000 0.000000 0.000000 30.424209 30.424209 30.424209 30.424209 30.424209 30.424209 30.424209 30.424209 30.424209 30.424209 30.424209 19.700033 19.700033 19.700033 19.700033 19.700033 19.700033 19.700033 0.000000 0.000000 0.000000 0.000000 0.000000 29.177691 29.177691 29.177691 29.177691 29.177691 29.177691 29.177691 29.177691 29.177691 29.177691 29.177691 0.000000 0.000000 0.000000 0.000000 0.000000 0.000000 0.000000 0.000000 0.000000 0.000000 0.000000 0.000000 0.000000 0.000000 0.000000 0.000000 0.000000 0.000000 0.000000 0.000000 0.000000 0.000000
0.000000 0.000000 0.000000 0.000000 0.000000 0.000000 0.000000 0.000000 0.000000 0.000000 0.000000 17.846421 17.846421 17.846421 17.846421 17.846421 17.846421 19.156375 19.156375 19.156375 19.156375 19.156375 19.156375 19.156375 0.000000 0.000000 0.000000 0.000000 0.000000 20.112444 20.112444 20.112444 20.112444 20.112444 20.112444 20.112444 0.000000 0.000000 0.000000 0.000000 0.000000 0.000000 0.000000 0.000000 0.000000 0.000000 0.000000 30.424209 30.424209 30.424209 30.424209 30.424209 30.424209 30.424209 30.424209 30.424209 30.424209 30.424209 19.700033 19.700033 19.700033 19.700033 19.700033 19.700033 19.700033 0.000000 0.000000 0.000000 0.000000 0.000000 29.177691 29.177691 29.177691 29.177691 29.177691 29.177691 29.177691 29.177691 29.177691 29.177691 29.177691 0.000000 0.000000 0.000000 0.000000 0.000000 0.000000 0.000000 0.000000 0.000000 0.000000 0.000000 0.000000 0.000000 0.000000 0.000000 0.000000 0.000000 0.000000 0.000000 0.000000 0.000000 0.000000
0.000000 0.000000 0.000000 0.000000 0.000000 0.000000 0.000000 0.000000 0.000000 0.000000 0.000000 17.846421 17.846421 17.846421 17.846421 17.846421 17.846421 19.156375 19.156375 19.156375 19.156375 19.156375 19.156375 19.156375 0.000000 0.000000 0.000000 0.000000 0.000000 20.112444 20.112444 20.112444 20.112444 20.112444 20.112444 20.112444 0.000000 0.000000 0.000000 0.000000 0.000000 0.000000 0.000000 0.000000 0.000000 0.000000 0.000000 30.424209 30.424209 30.424209 30.424209 30.424209 30.424209 30.424209 30.424209 30.424209 30.424209 30.424209 19.700033 19.700033 19.700033 19.700033 19.700033 19.700033 19.700033 0.000000 0.000000 0.000000 0.000000 0.000000 29.177691 29.177691 29.177691 29.177691 29.177691 29.177691 29.177691 29.177691 29.177691 29.177691 29.177691 0.000000 0.000000 0.000000 0.000000 0.000000 0.000000 0.000000 0.000000 0.000000 0.000000 0.000000 0.000000 0.000000 0.000000 0.000000 0.000000 0.000000 0.000000 0.000000 0.000000 0.000000 0.000000
0.000000 0.000000 0.000000 0.000000 0.000000 0.000000 0.000000 0.000000 0.000000 0.000000 0.000000 17.846421 17.846421 17.846421 17.846421 17.846421 17.846421 19.156375 19.156375 19.156375 19.156375 19.156375 19.156375 19.156375 0.000000 0.000000 0.000000 0.000000 0.000000 20.112444 20.112444 20.112444 20.112444 20.112444 20.112444 20.112444 0.000000 0.000000 0.000000 0.000000 0.000000 0.000000 0.000000 0.000000 0.000000 0.000000 0.000000 30.424209 30.424209 30.424209 30.424209 30.424209 30.424209 30.424209 30.424209 30.424209 30.424209 30.424209 19.700033 19.700033 19.700033 19.700033 19.700033 19.700033 19.700033 0.000000 0.000000 0.000000 0.000000 0.000000 29.177691 29.177691 29.177691 29.177691 29.177691 29.177691 29.177691 29.177691 29.177691 29.177691 29.177691 0.000000 0.000000 0.000000 0.000000 0.000000 0.000000 0.000000 0.000000 0.000000 0.000000 0.000000 0.000000 0.000000 0.000000 0.000000 0.000000 0.000000 0.000000 0.000000 0.000000 0.000000 0.000000
0.000000 0.000000 0.000000 0.000000 0.000000 0.000000 0.000000 0.000000 0.000000 0.000000 0.000000 17.846421 17.846421 17.846421 17.846421 17.846421 17.846421 19.156375 19.156375 19.156375 19.156375 19.156375 19.156375 19.156375 0.000000 0.000000 0.000000 0.000000 0.000000 20.112444 20.112444 20.112444 20.112444 20.112444 20.112444 20.112444 0.000000 0.000000 0.000000 0.000000 0.000000 0.000000 0.000000 0.000000 0.000000 0.000000 0.000000 30.424209 30.424209 30.424209 30.424209 30.424209 30.424209 30.424209 30.424209 30.424209 30.424209 30.424209 19.700033 19.700033 19.700033 19.700033 19.700033 19.700033 19.700033 0.000000 0.000000 0.000000 0.000000 0.000000 29.177691 29.177691 29.177691 29.177691 29.177691 29.177691 29.177691 29.177691 29.177691 29.177691 29.177691 0.000000 0.000000 0.000000 0.000000 0.000000 0.000000 0.000000 0.000000 0.000000 0.000000 0.000000 0.000000 0.000000 0.000000 0.000000 0.000000 0.000000 0.000000 0.000000 0.000000 0.000000 0.000000
0.000000 0.000000 0.000000 0.000000 0.000000 0.000000 0.000000 0.000000 0.000000 0.000000 0.000000 17.846421 17.846421 17.846421 17.846421 17.846421 17.846421 19.156375 19.156375 19.156375 19.156375 19.156375 19.156375 19.156375 0.000000 0.000000 0.000000 0.000000 0.000000 20.112444 20.112444 20.112444 20.112444 20.112444 20.112444 20.112444 0.000000 0.000000 0.000000 0.000000 0.000000 0.000000 0.000000 0.000000 0.000000 0.000000 0.000000 30.424209 30.424209 30.424209 30.424209 30.424209 30.424209 30.424209 30.424209 30.424209 30.424209 30.424209 19.700033 19.700033 19.700033 19.700033 19.700033 19.700033 19.700033 0.000000 0.000000 0.000000 0.000000 0.000000 29.177691 29.177691 29.177691 29.177691 29.177691 29.177691 29.177691 29.177691 29.177691 29.177691 29.177691 0.000000 0.000000 0.000000 0.000000 0.000000 0.000000 0.000000 0.000000 0.000000 0.000000 0.000000 0.000000 0.000000 0.000000 0.000000 0.000000 0.000000 0.000000 0.000000 0.000000 0.000000 0.000000
0.000000 0.000000 0.000000 0.000000 0.000000 0.000000 0.000000 0.000000 0.000000 0.000000 0.000000 17.846421 17.846421 17.846421 17.846421 17.846421 17.846421 19.156375 19.156375 19.156375 19.156375 19.156375 19.156375 19.156375 0.000000 0.000000 0.000000 0.000000 0.000000 20.112444 20.112444 20.112444 20.112444 20.112444 20.112444 20.112444 0.000000 0.000000 0.000000 0.000000 0.000000 0.000000 0.000000 0.000000 0.000000 0.000000 0.000000 30.424209 30.424209 30.424209 30.424209 30.424209 30.424209 30.424209 30.424209 30.424209 30.424209 30.424209 19.700033 19.700033 19.700033 19.700033 19.700033 19.700033 19.700033 0.000000 0.000000 0.000000 0.000000 0.000000 29.177691 29.177691 29.177691 29.177691 29.177691 29.177691 29.177691 29.177691 29.177691 29.177691 29.177691 0.000000 0.000000 0.000000 0.000000 0.000000 0.000000 0.000000 0.000000 0.000000 0.000000 0.000000 0.000000 0.000000 0.000000 0.000000 0.000000 0.000000 0.000000 0.000000 0.000000 0.000000 0.000000
0.000000 0.000000 0.000000 0.000000 0.000000 0.000000 0.000000 0.000000 0.000000 0.000000 0.000000 17.846421 17.846421 17.846421 17.846421 17.846421 17.846421 19.156375 19.156375 19.156375 19.156375 19.156375 19.156375 19.156375 0.000000 0.000000 0.000000 0.000000 0.000000 20.112444 20.112444 20.112444 20.112444 20.112444 20.112444 20.112444 0.000000 0.000000 0.000000 0.000000 0.000000 0.000000 0.000000 0.000000 0.000000 0.000000 0.000000 30.424209 30.424209 30.424209 30.424209 30.424209 30.424209 30.424209 30.424209 30.424209 30.424209 30.424209 19.700033 19.700033 19.700033 19.700033 19.700033 19.700033 19.700033 0.000000 0.000000 0.000000 0.000000 0.000000 29.177691 29.177691 29.177691 29.177691 29.177691 29.177691 29.177691 29.177691 29.177691 29.177691 29.177691 0.000000 0.000000 0.000000 0.000000 0.000000 0.000000 0.000000 0.000000 0.000000 0.000000 0.000000 0.000000 0.000000 0.000000 0.000000 0.000000 0.000000 0.000000 0.000000 0.000000 0.000000 0.000000
0.000000 0.000000 0.000000 0.000000 0.000000 0.000000 0.000000 0.000000 0.000000 0.000000 0.000000 17.846421 17.846421 17.846421 17.846421 17.846421 17.846421 19.156375 19.156375 19.156375 19.156375 19.156375 19.156375 19.156375 0.000000 0.000000 0.000000 0.000000 0.000000 20.112444 20.112444 20.112444 20.112444 20.112444 20.112444 20.112444 0.000000 0.000000 0.000000 0.000000 0.000000 0.000000 0.000000 0.000000 0.000000 0.000000 0.000000 30.424209 30.424209 30.424209 30.424209 30.424209 30.424209 30.424209 30.424209 30.424209 30.424209 30.424209 19.700033 19.700033 19.700033 19.700033 19.700033 19.700033 19.700033 0.000000 0.000000 0.000000 0.000000 0.000000 29.177691 29.177691 29.177691 29.177691 29.177691 29.177691 29.177691 29.177691 29.177691 29.177691 29.177691 0.000000 0.000000 0.000000 0.000000 0.000000 0.000000 0.000000 0.000000 0.000000 0.000000 0.000000 0.000000 0.000000 0.000000 0.000000 0.000000 0.000000 0.000000 0.000000 0.000000 0.000000 0.000000
0.000000 0.000000 0.000000 0.000000 0.000000 0.000000 0.000000 0.000000 0.000000 0.000000 0.000000 17.846421 17.846421 17.846421 17.846421 17.846421 17.846421 19.156375 19.156375 19.156375 19.156375 19.156375 19.156375 19.156375 0.000000 0.000000 0.000000 0.000000 0.000000 20.112444 20.112444 20.112444 20.112444 20.112444 20.112444 20.112444 0.000000 0.000000 0.000000 0.000000 0.000000 0.000000 0.000000 0.000000 0.000000 0.000000 0.000000 30.424209 30.424209 30.424209 30.424209 30.424209 30.424209 30.424209 30.424209 30.424209 30.424209 30.424209 19.700033 19.700033 19.700033 19.700033 19.700033 19.700033 19.700033 0.000000 0.000000 0.000000 0.000000 0.000000 29.177691 29.177691 29.177691 29.177691 29.177691 29.177691 29.177691 29.177691 29.177691 29.177691 29.177691 0.000000 0.000000 0.000000 0.000000 0.000000 0.000000 0.000000 0.000000 0.000000 0.000000 0.000000 0.000000 0.000000 0.000000 0.000000 0.000000 0.000000 0.000000 0.000000 0.000000 0.000000 0.000000
0.000000 0.000000 0.000000 0.000000 0.000000 0.000000 0.000000 0.000000 0.000000 0.000000 0.000000 17.846421 17.846421 17.846421 17.846421 17.846421 17.846421 19.156375 19.156375 19.156375 19.156375 19.156375 19.156375 19.156375 0.000000 0.000000 0.000000 0.000000 0.000000 20.112444 20.112444 20.112444 20.112444 20.112444 20.112444 20.112444 0.000000 0.000000 0.000000 0.000000 0.000000 0.000000 0.000000 0.000000 0.000000 0.000000 0.000000 30.424209 30.424209 30.424209 30.424209 30.424209 30.424209 30.424209 30.424209 30.424209 30.424209 30.424209 19.700033 19.700033 19.700033 19.700033 19.700033 19.700033 19.700033 0.000000 0.000000 0.000000 0.000000 0.000000 29.177691 29.177691 29.177691 29.177691 29.177691 29.177691 29.177691 29.177691 29.177691 29.177691 29.177691 0.000000 0.000000 0.000000 0.000000 0.000000 0.000000 0.000000 0.000000 0.000000 0.000000 0.000000 0.000000 0.000000 0.000000 0.000000 0.000000 0.000000 0.000000 0.000000 0.000000 0.000000 0.000000
0.000000 0.000000 0.000000 0.000000 0.000000 0.000000 0.000000 0.000000 0.000000 0.000000 0.000000 0.000000 0.000000 0.000000 0.000000 0.000000 0.000000 0.000000 0.000000 0.000000 0.000000 0.000000 0.000000 0.000000 0.000000 0.000000 0.000000 0.000000 0.000000 0.000000 0.000000 0.000000 0.000000 0.000000 0.000000 0.000000 0.000000 0.000000 0.000000 0.000000 0.000000 0.000000 0.000000 0.000000 0.000000 0.000000 0.000000 0.000000 0.000000 0.000000 0.000000 0.000000 0.000000 0.000000 0.000000 0.000000 0.000000 0.000000 0.000000 0.000000 0.000000 0.000000 0.000000 0.000000 0.000000 0.000000 0.000000 0.000000 0.000000 0.000000 0.000000 0.000000 0.000000 0.000000 0.000000 0.000000 0.000000 0.000000 0.000000 0.000000 0.000000 0.000000 0.000000 0.000000 0.000000 0.000000 0.000000 0.000000 0.000000 0.000000 0.000000 0.000000 0.000000 0.000000 0.000000 0.000000 0.000000 0.000000 0.000000 0.000000 0.000000 0.000000 0.000000
0.000000 0.000000 0.000000 0.000000 0.000000 0.000000 0.000000 0.000000 0.000000 0.000000 0.000000 0.000000 0.000000 0.000000 0.000000 0.000000 0.000000 0.000000 0.000000 0.000000 0.000000 0.000000 0.000000 0.000000 0.000000 0.000000 0.000000 0.000000 0.000000 0.000000 0.000000 0.000000 0.000000 0.000000 0.000000 0.000000 0.000000 0.000000 0.000000 0.000000 0.000000 0.000000 0.000000 0.000000 0.000000 0.000000 0.000000 0.000000 0.000000 0.000000 0.000000 0.000000 0.000000 0.000000 0.000000 0.000000 0.000000 0.000000 0.000000 0.000000 0.000000 0.000000 0.000000 0.000000 0.000000 0.000000 0.000000 0.000000 0.000000 0.000000 0.000000 0.000000 0.000000 0.000000 0.000000 0.000000 0.000000 0.000000 0.000000 0.000000 0.000000 0.000000 0.000000 0.000000 0.000000 0.000000 0.000000 0.000000 0.000000 0.000000 0.000000 0.000000 0.000000 0.000000 0.000000 0.000000 0.000000 0.000000 0.000000 0.000000 0.000000 0.000000 0.000000
0.000000 0.000000 0.000000 0.000000 0.000000 0.000000 0.000000 0.000000 0.000000 0.000000 0.000000 0.000000 0.000000 0.000000 0.000000 0.000000 0.000000 0.000000 0.000000 0.000000 0.000000 0.000000 0.000000 0.000000 0.000000 0.000000 0.000000 0.000000 0.000000 0.000000 0.000000 0.000000 0.000000 0.000000 0.000000 0.000000 0.000000 0.000000 0.000000 0.000000 0.000000 0.000000 0.000000 0.000000 0.000000 0.000000 0.000000 0.000000 0.000000 0.000000 0.000000 0.000000 0.000000 0.000000 0.000000 0.000000 0.000000 0.000000 0.000000 0.000000 0.000000 0.000000 0.000000 0.000000 0.000000 0.000000 0.000000 0.000000 0.000000 0.000000 0.000000 0.000000 0.000000 0.000000 0.000000 0.000000 0.000000 0.000000 0.000000 0.000000 0.000000 0.000000 0.000000 0.000000 0.000000 0.000000 0.000000 0.000000 0.000000 0.000000 0.000000 0.000000 0.000000 0.000000 0.000000 0.000000 0.000000 0.000000 0.000000 0.000000 0.000000 0.000000 0.000000
0.000000 0.000000 0.000000 0.000000 0.000000 0.000000 0.000000 0.000000 0.000000 0.000000 0.000000 0.000000 0.000000 0.000000 0.000000 0.000000 0.000000 0.000000 0.000000 0.000000 0.000000 0.000000 0.000000 0.000000 0.000000 0.000000 0.000000 0.000000 0.000000 0.000000 0.000000 0.000000 0.000000 0.000000 0.000000 0.000000 0.000000 0.000000 0.000000 0.000000 0.000000 0.000000 0.000000 0.000000 0.000000 0.000000 0.000000 0.000000 0.000000 0.000000 0.000000 0.000000 0.000000 0.000000 0.000000 0.000000 0.000000 0.000000 0.000000 0.000000 0.000000 0.000000 0.000000 0.000000 0.000000 0.000000 0.000000 0.000000 0.000000 0.000000 0.000000 0.000000 0.000000 0.000000 0.000000 0.000000 0.000000 0.000000 0.000000 0.000000 0.000000 0.000000 0.000000 0.000000 0.000000 0.000000 0.000000 0.000000 0.000000 0.000000 0.000000 0.000000 0.000000 0.000000 0.000000 0.000000 0.000000 0.000000 0.000000 0.000000 0.000000 0.000000 0.000000
0.000000 0.000000 0.000000 0.000000 0.000000 0.000000 0.000000 0.000000 0.000000 0.000000 0.000000 0.000000 0.000000 0.000000 0.000000 0.000000 0.000000 0.000000 0.000000 0.000000 0.000000 0.000000 0.000000 0.000000 0.000000 0.000000 0.000000 0.000000 0.000000 0.000000 0.000000 0.000000 0.000000 0.000000 0.000000 0.000000 0.000000 0.000000 0.000000 0.000000 0.000000 0.000000 0.000000 0.000000 0.000000 0.000000 0.000000 0.000000 0.000000 0.000000 0.000000 0.000000 0.000000 0.000000 0.000000 0.000000 0.000000 0.000000 0.000000 0.000000 0.000000 0.000000 0.000000 0.000000 0.000000 0.000000 0.000000 0.000000 0.000000 0.000000 0.000000 0.000000 0.000000 0.000000 0.000000 0.000000 0.000000 0.000000 0.000000 0.000000 0.000000 0.000000 0.000000 0.000000 0.000000 0.000000 0.000000 0.000000 0.000000 0.000000 0.000000 0.000000 0.000000 0.000000 0.000000 0.000000 0.000000 0.000000 0.000000 0.000000 0.000000 0.000000 0.000000
0.000000 0.000000 0.000000 0.000000 0.000000 0.000000 0.000000 0.000000 0.000000 0.000000 0.000000 0.000000 0.000000 0.000000 0.000000 0.000000 0.000000 0.000000 0.000000 0.000000 0.000000 0.000000 0.000000 0.000000 0.000000 0.000000 0.000000 0.000000 0.000000 0.000000 0.000000 0.000000 0.000000 0.000000 0.000000 0.000000 22.398599 22.398599 22.398599 22.398599 22.398599 22.398599 0.000000 0.000000 0.000000 0.000000 0.000000 0.000000 0.000000 0.000000 0.000000 0.000000 0.000000 0.000000 0.000000 0.000000 0.000000 0.000000 0.000000 0.000000 0.000000 0.000000 0.000000 0.000000 0.000000 0.000000 0.000000 0.000000 0.000000 0.000000 0.000000 0.000000 0.000000 0.000000 0.000000 0.000000 0.000000 0.000000 0.000000 0.000000 0.000000 0.000000 0.000000 0.000000 0.000000 0.000000 0.000000 0.000000 0.000000 0.000000 0.000000 0.000000 0.000000 0.000000 0.000000 0.000000 0.000000 0.000000 0.000000 0.000000 0.000000 0.000000 0.000000
0.000000 0.000000 0.000000 0.000000 0.000000 0.000000 60.877150 60.877150 60.877150 60.877150 60.877150 60.877150 60.877150 60.877150 60.877150 60.877150 60.877150 60.877150 60.877150 60.877150 60.877150 60.877150 0.000000 0.000000 0.000000 0.000000 0.000000 0.000000 0.000000 0.000000 0.000000 0.000000 0.000000 0.000000 0.000000 0.000000 22.398599 22.398599 22.398599 22.398599 22.398599 22.398599 0.000000 0.000000 0.000000 0.000000 0.000000 0.000000 0.000000 27.975001 27.975001 27.975001 27.975001 27.975001 27.975001 27.975001 27.975001 27.975001 27.975001 27.975001 27.975001 27.975001 27.975001 0.000000 0.000000 0.000000 0.000000 0.000000 0.000000 0.000000 0.000000 0.000000 23.495486 23.495486 23.495486 23.495486 23.495486 23.495486 23.495486 23.495486 23.495486 23.495486 23.495486 23.495486 23.495486 23.495486 23.495486 0.000000 0.000000 0.000000 0.000000 10.738731 10.738731 10.738731 10.738731 10.738731 10.738731 0.000000 0.000000 0.000000 0.000000 0.000000 0.000000
0.000000 0.000000 0.000000 0.000000 0.000000 0.000000 60.877150 60.877150 60.877150 60.877150 60.877150 60.877150 60.877150 60.877150 60.877150 60.877150 60.877150 60.877150 60.877150 60.877150 60.877150 60.877150 0.000000 0.000000 0.000000 0.000000 0.000000 0.000000 0.000000 0.000000 0.000000 0.000000 0.000000 0.000000 0.000000 0.000000 22.398599 22.398599 22.398599 22.398599 22.398599 22.398599 0.000000 0.000000 0.000000 0.000000 0.000000 0.000000 0.000000 27.975001 27.975001 27.975001 27.975001 27.975001 27.975001 27.975001 27.975001 27.975001 27.975001 27.975001 27.975001 27.975001 27.975001 0.000000 0.000000 0.000000 0.000000 0.000000 0.000000 0.000000 0.000000 0.000000 23.495486 23.495486 23.495486 23.495486 23.495486 23.495486 23.495486 23.495486 23.495486 23.495486 23.495486 23.495486 23.495486 23.495486 23.495486 0.000000 0.000000 0.000000 0.000000 10.738731 10.738731 10.738731 10.738731 10.738731 10.738731 0.000000 0.000000 0.000000 0.000000 0.000000 0.000000
0.000000 0.000000 0.000000 0.000000 0.000000 0.000000 60.877150 60.877150 60.877150 60.877150 60.877150 60.877150 60.877150 60.877150 60.877150 60.877150 60.877150 60.877150 60.877150 60.877150 60.877150 60.877150 0.000000 0.000000 0.000000 0.000000 0.000000 0.000000 0.000000 0.000000 0.000000 0.000000 0.000000 0.000000 0.000000 0.000000 22.398599 22.398599 22.398599 22.398599 22.398599 22.398599 0.000000 0.000000 0.000000 0.000000 0.000000 0.000000 0.000000 27.975001 27.975001 27.975001 27.975001 27.975001 27.975001 27.975001 27.975001 27.975001 27.975001 27.975001 27.975001 27.975001 27.975001 0.000000 0.000000 0.000000 0.000000 0.000000 0.000000 0.000000 0.000000 0.000000 23.495486 23.495486 23.495486 23.495486 23.495486 23.495486 23.495486 23.495486 23.495486 23.495486 23.495486 23.495486 23.495486 23.495486 23.495486 0.000000 0.000000 0.000000 0.000000 10.738731 10.738731 10.738731 10.738731 10.738731 10.738731 0.000000 0.000000 0.000000 0.000000 0.000000 0.000000
0.000000 0.000000 0.000000 0.000000 0.000000 0.000000 60.877150 60.877150 60.877150 60.877150 60.877150 60.877150 60.877150 60.877150 60.877150 60.877150 60.877150 60.877150 60.877150 60.877150 60.877150 60.877150 0.000000 0.000000 0.000000 0.000000 0.000000 0.000000 0.000000 0.000000 0.000000 0.000000 0.000000 0.000000 0.000000 0.000000 22.398599 22.398599 22.398599 22.398599 22.398599 22.398599 0.000000 0.000000 0.000000 0.000000 0.000000 0.000000 0.000000 27.975001 27.975001 27.975001 27.975001 27.975001 27.975001 27.975001 27.975001 27.975001 27.975001 27.975001 27.975001 27.975001 27.975001 0.000000 0.000000 0.000000 0.000000 0.000000 0.000000 0.000000 0.000000 0.000000 23.495486 23.495486 23.495486 23.495486 23.495486 23.495486 23.495486 23.495486 23.495486 23.495486 23.495486 23.495486 23.495486 23.495486 23.495486 0.000000 0.000000 0.000000 0.000000 10.738731 10.738731 10.738731 10.738731 10.738731 10.738731 0.000000 0.000000 0.000000 0.000000 0.000000 0.000000
0.000000 0.000000 0.000000 0.000000 0.000000 0.000000 60.877150 60.877150 60.877150 60.877150 60.877150 60.877150 60.877150 60.877150 60.877150 60.877150 60.877150 60.877150 60.877150 60.877150 60.877150 60.877150 0.000000 0.000000 0.000000 0.000000 0.000000 0.000000 0.000000 0.000000 0.000000 0.000000 0.000000 0.000000 0.000000 0.000000 22.398599 22.398599 22.398599 22.398599 22.398599 22.398599 0.000000 0.000000 0.000000 0.000000 0.000000 0.000000 0.000000 27.975001 27.975001 27.975001 27.975001 27.975001 27.975001 27.975001 27.975001 27.975001 27.975001 27.975001 27.975001 27.975001 27.975001 0.000000 0.000000 0.000000 0.000000 0.000000 0.000000 0.000000 0.000000 0.000000 23.495486 23.495486 23.495486 23.495486 23.495486 23.495486 23.495486 23.495486 23.495486 23.495486 23.495486 23.495486 23.495486 23.495486 23.495486 0.000000 0.000000 0.000000 0.000000 10.738731 10.738731 10.738731 10.738731 10.738731 10.738731 0.000000 0.000000 0.000000 0.000000 0.000000 0.000000
0.000000 0.000000 0.000000 0.000000 0.000000 0.000000 60.877150 60.877150 60.877150 60.877150 60.877150 60.877150 60.877150 60.877150 60.877150 60.877150 60.877150 60.877150 60.877150 60.877150 60.877150 60.877150 0.000000 0.000000 0.000000 0.000000 0.000000 0.000000 0.000000 0.000000 0.000000 0.000000 0.000000 0.000000 0.000000 0.000000 22.398599 22.398599 22.398599 22.398599 22.398599 22.398599 0.000000 0.000000 0.000000 0.000000 0.000000 0.000000 0.000000 27.975001 27.975001 27.975001 27.975001 27.975001 27.975001 27.975001 27.975001 27.975001 27.975001 27.975001 27.975001 27.975001 27.975001 0.000000 0.000000 0.000000 0.000000 0.000000 0.000000 0.000000 0.000000 0.000000 23.495486 23.495486 23.495486 23.495486 23.495486 23.495486 23.495486 23.495486 23.495486 23.495486 23.495486 23.495486 23.495486 23.495486 23.495486 0.000000 0.000000 0.000000 0.000000 10.738731 10.738731 10.738731 10.738731 10.738731 10.738731 0.000000 0.000000 0.000000 0.000000 0.000000 0.000000
0.000000 0.000000 0.000000 0.000000 0.000000 0.000000 60.877150 60.877150 60.877150 60.877150 60.877150 60.877150 60.877150 60.877150 60.877150 60.877150 60.877150 60.877150 60.877150 60.877150 60.877150 60.877150 0.000000 0.000000 0.000000 0.000000 0.000000 0.000000 0.000000 0.000000 0.000000 0.000000 0.000000 0.000000 0.000000 0.000000 22.398599 22.398599 22.398599 22.398599 22.398599 22.398599 0.000000 0.000000 0.000000 0.000000 0.000000 0.000000 0.000000 27.975001 27.975001 27.975001 27.975001 27.975001 27.975001 27.975001 27.975001 27.975001 27.975001 27.975001 27.975001 27.975001 27.975001 0.000000 0.000000 0.000000 0.000000 0.000000 0.000000 0.000000 0.000000 0.000000 23.495486 23.495486 23.495486 23.495486 23.495486 23.495486 23.495486 23.495486 23.495486 23.495486 23.495486 23.495486 23.495486 23.495486 23.495486 0.000000 0.000000 0.000000 0.000000 10.738731 10.738731 10.738731 10.738731 10.738731 10.738731 0.000000 0.000000 0.000000 0.000000 0.000000 0.000000
0.000000 0.000000 0.000000 0.000000 0.000000 0.000000 60.877150 60.877150 60.877150 60.877150 60.877150 60.877150 60.877150 60.877150 60.877150 60.877150 60.877150 60.877150 60.877150 60.877150 60.877150 60.877150 0.000000 0.000000 0.000000 0.000000 0.000000 0.000000 0.000000 0.000000 0.000000 0.000000 0.000000 0.000000 0.000000 0.000000 22.398599 22.398599 22.398599 22.398599 22.398599 22.398599 0.000000 0.000000 0.000000 0.000000 0.000000 0.000000 0.000000 27.975001 27.975001 27.975001 27.975001 27.975001 27.975001 27.975001 27.975001 27.975001 27.975001 27.975001 27.975001 27.975001 27.975001 0.000000 0.000000 0.000000 0.000000 0.000000 0.000000 0.000000 0.000000 0.000000 0.000000 0.000000 0.000000 0.000000 0.000000 0.000000 0.000000 0.000000 0.000000 0.000000 0.000000 0.000000 0.000000 0.000000 0.000000 0.000000 0.000000 0.000000 0.000000 0.000000 0.000000 0.000000 0.000000 0.000000 0.000000 0.000000 0.000000 0.000000 0.000000 0.000000 0.000000
0.000000 0.000000 0.000000 0.000000 0.000000 0.000000 60.877150 60.877150 60.877150 60.877150 60.877150 60.877150 60.877150 60.877150 60.877150 60.877150 60.877150 60.877150 60.877150 60.877150 60.877150 60.877150 0.000000 0.000000 0.000000 0.000000 0.000000 0.000000 0.000000 0.000000 0.000000 0.000000 0.000000 0.000000 0.000000 0.000000 22.398599 22.398599 22.398599 22.398599 22.398599 22.398599 0.000000 0.000000 0.000000 0.000000 0.000000 0.000000 0.000000 27.975001 27.975001 27.975001 27.975001 27.975001 27.975001 27.975001 27.975001 27.975001 27.975001 27.975001 27.975001 27.975001 27.975001 0.000000 0.000000 0.000000 0.000000 0.000000 0.000000 0.000000 0.000000 0.000000 0.000000 0.000000 0.000000 0.000000 0.000000 0.000000 0.000000 0.000000 0.000000 0.000000 0.000000 0.000000 0.000000 0.000000 0.000000 0.000000 0.000000 0.000000 0.000000 0.000000 0.000000 0.000000 0.000000 0.000000 0.000000 0.000000 0.000000 0.000000 0.000000 0.000000 0.000000
0.000000 0.000000 0.000000 0.000000 0.000000 0.000000 60.877150 60.877150 60.877150 60.877150 60.877150 60.877150 60.877150 60.877150 60.877150 60.877150 60.877150 60.877150 60.877150 60.877150 60.877150 60.877150 0.000000 0.000000 0.000000 0.000000 0.000000 0.000000 0.000000 0.000000 0.000000 0.000000 0.000000 0.000000 0.000000 0.000000 22.398599 22.398599 22.398599 22.398599 22.398599 22.398599 0.000000 0.000000 0.000000 0.000000 0.000000 0.000000 0.000000 0.000000 0.000000 0.000000 0.000000 0.000000 0.000000 0.000000 0.000000 0.000000 0.000000 0.000000 0.000000 0.000000 0.000000 0.000000 0.000000 0.000000 0.000000 0.000000 0.000000 0.000000 0.000000 0.000000 0.000000 0.000000 0.000000 0.000000 0.000000 0.000000 0.000000 0.000000 0.000000 0.000000 0.000000 0.000000 0.000000 0.000000 0.000000 0.000000 0.000000 0.000000 0.000000 0.000000 0.000000 0.000000 0.000000 0.000000 0.000000 0.000000 0.000000 0.000000 0.000000 0.000000 0.000000
0.000000 0.000000 0.000000 0.000000 0.000000 0.000000 60.877150 60.877150 60.877150 60.877150 60.877150 60.877150 60.877150 60.877150 60.877150 60.877150 60.877150 60.877150 60.877150 60.877150 60.877150 60.877150 0.000000 0.000000 0.000000 0.000000 0.000000 0.000000 0.000000 0.000000 0.000000 0.000000 0.000000 0.000000 0.000000 0.000000 22.398599 22.398599 22.398599 22.398599 22.398599 22.398599 0.000000 0.000000 0.000000 0.000000 0.000000 0.000000 0.000000 0.000000 0.000000 0.000000 0.000000 0.000000 0.000000 0.000000 0.000000 0.000000 0.000000 0.000000 0.000000 0.000000 0.000000 0.000000 0.000000 0.000000 0.000000 0.000000 0.000000 0.000000 0.000000 0.000000 0.000000 0.000000 0.000000 0.000000 0.000000 0.000000 0.000000 0.000000 0.000000 0.000000 0.000000 0.000000 0.000000 0.000000 0.000000 0.000000 0.000000 0.000000 0.000000 0.000000 0.000000 0.000000 0.000000 0.000000 0.000000 0.000000 0.000000 0.000000 0.000000 0.000000 0.000000
0.000000 0.000000 0.000000 0.000000 0.000000 0.000000 60.877150 60.877150 60.877150 60.877150 60.877150 60.877150 60.877150 60.877150 60.877150 60.877150 60.877150 60.877150 60.877150 60.877150 60.877150 60.877150 0.000000 0.000000 0.000000 0.000000 0.000000 0.000000 0.000000 0.000000 0.000000 0.000000 0.000000 0.000000 0.000000 0.000000 22.398599 22.398599 22.398599 22.398599 22.398599 22.398599 0.000000 0.000000 0.000000 0.000000 0.000000 0.000000 0.000000 0.000000 0.000000 0.000000 0.000000 0.000000 0.000000 0.000000 0.000000 0.000000 0.000000 0.000000 0.000000 0.000000 0.000000 0.000000 0.000000 0.000000 0.000000 0.000000 0.000000 0.000000 0.000000 0.000000 27.201324 27.201324 27.201324 27.201324 27.201324 27.201324 27.201324 27.201324 27.201324 27.201324 27.201324 27.201324 27.201324 27.201324 27.201324 0.000000 0.000000 0.000000 0.000000 0.000000 0.000000 0.000000 0.000000 0.000000 0.000000 0.000000 0.000000 0.000000 0.000000 0.000000 0.000000
0.000000 0.000000 0.000000 0.000000 0.000000 0.000000 60.877150 60.877150 60.877150 60.877150 60.877150 60.877150 60.877150 60.877150 60.877150 60.877150 60.877150 60.877150 60.877150 60.877150 60.877150 60.877150 0.000000 0.000000 0.000000 0.000000 0.000000 0.000000 0.000000 0.000000 0.000000 0.000000 0.000000 0.000000 0.000000 0.000000 22.398599 22.398599 22.398599 22.398599 22.398599 22.398599 0.000000 0.000000 0.000000 0.000000 0.000000 0.000000 0.000000 0.000000 0.000000 0.000000 0.000000 0.000000 0.000000 0.000000 0.000000 0.000000 0.000000 0.000000 0.000000 0.000000 0.000000 0.000000 0.000000 0.000000 0.000000 0.000000 0.000000 0.000000 0.000000 0.000000 27.201324 27.201324 27.201324 27.201324 27.201324 27.201324 27.201324 27.201324 27.201324 27.201324 27.201324 27.201324 27.201324 27.201324 27.201324 0.000000 0.000000 0.000000 0.000000 0.000000 0.000000 0.000000 0.000000 0.000000 0.000000 0.000000 0.000000 0.000000 0.000000 0.000000 0.000000
0.000000 0.000000 0.000000 0.000000 0.000000 0.000000 60.877150 60.877150 60.877150 60.877150 60.877150 60.877150 60.877150 60.877150 60.877150 60.877150 60.877150 60.877150 60.877150 60.877150 60.877150 60.877150 0.000000 0.000000 0.000000 0.000000 0.000000 0.000000 0.000000 16.172615 16.172615 16.172615 16.172615 16.172615 16.172615 16.172615 14.945059 14.945059 14.945059 14.945059 14.945059 14.945059 0.000000 0.000000 0.000000 0.000000 0.000000 0.000000 0.000000 0.000000 0.000000 0.000000 0.000000 0.000000 0.000000 0.000000 0.000000 0.000000 0.000000 0.000000 0.000000 0.000000 0.000000 0.000000 0.000000 0.000000 0.000000 0.000000 0.000000 0.000000 0.000000 0.000000 27.201324 27.201324 27.201324 27.201324 27.201324 27.201324 27.201324 27.201324 27.201324 27.201324 27.201324 27.201324 27.201324 27.201324 27.201324 0.000000 0.000000 0.000000 0.000000 0.000000 0.000000 0.000000 0.000000 0.000000 0.000000 0.000000 0.000000 0.000000 0.000000 0.000000 0.000000
0.000000 0.000000 0.000000 0.000000 0.000000 0.000000 60.877150 60.877150 60.877150 60.877150 60.877150 60.877150 60.877150 60.877150 60.877150 60.877150 60.877150 60.877150 60.877150 60.877150 60.877150 60.877150 0.000000 0.000000 0.000000 0.000000 0.000000 0.000000 0.000000 16.172615 16.172615 16.172615 16.172615 16.172615 16.172615 16.172615 14.945059 14.945059 14.945059 14.945059 14.945059 14.945059 0.000000 0.000000 0.000000 0.000000 0.000000 0.000000 0.000000 0.000000 0.000000 0.000000 0.000000 0.000000 0.000000 0.000000 0.000000 0.000000 0.000000 0.000000 0.000000 0.000000 0.000000 0.000000 0.000000 0.000000 0.000000 0.000000 0.000000 0.000000 0.000000 0.000000 27.201324 27.201324 27.201324 27.201324 27.201324 27.201324 27.201324 27.201324 27.201324 27.201324 27.201324 27.201324 27.201324 27.201324 27.201324 0.000000 0.000000 0.000000 0.000000 0.000000 0.000000 0.000000 0.000000 0.000000 0.000000 0.000000 0.000000 0.000000 0.000000 0.000000 0.000000
0.000000 0.000000 0.000000 0.000000 0.000000 0.000000 60.877150 60.877150 60.877150 60.877150 60.877150 60.877150 60.877150 60.877150 60.877150 60.877150 60.877150 60.877150 60.877150 60.877150 60.877150 60.877150 0.000000 0.000000 0.000000 0.000000 0.000000 0.000000 0.000000 16.172615 16.172615 16.172615 16.172615 16.172615 16.172615 16.172615 14.945059 14.945059 14.945059 14.945059 14.945059 14.945059 0.000000 0.000000 0.000000 0.000000 0.000000 0.000000 0.000000 0.000000 0.000000 0.000000 0.000000 0.000000 0.000000 0.000000 0.000000 0.000000 0.000000 0.000000 0.000000 0.000000 0.000000 0.000000 0.000000 0.000000 0.000000 0.000000 0.000000 0.000000 0.000000 0.000000 27.201324 27.201324 27.201324 27.201324 27.201324 27.201324 27.201324 27.201324 27.201324 27.201324 27.201324 27.201324 27.201324 27.201324 27.201324 0.000000 0.000000 0.000000 0.000000 0.000000 0.000000 0.000000 0.000000 0.000000 0.000000 0.000000 0.000000 0.000000 0.000000 0.000000 0.000000
0.000000 0.000000 0.000000 0.000000 0.000000 0.000000 0.000000 0.000000 0.000000 0.000000 0.000000 0.000000 0.000000 0.000000 0.000000 0.000000 0.000000 0.000000 0.000000 0.000000 0.000000 0.000000 0.000000 0.000000 0.000000 0.000000 0.000000 0.000000 0.000000 16.172615 16.172615 16.172615 16.172615 16.172615 16.172615 16.172615 14.945059 14.945059 14.945059 14.945059 14.945059 14.945059 0.000000 0.000000 0.000000 0.000000 0.000000 0.000000 0.000000 0.000000 0.000000 0.000000 0.000000 0.000000 0.000000 0.000000 0.000000 0.000000 0.000000 0.000000 0.000000 0.000000 0.000000 0.000000 0.000000 0.000000 0.000000 0.000000 0.000000 0.000000 0.000000 0.000000 27.201324 27.201324 27.201324 27.201324 27.201324 27.201324 27.201324 27.201324 27.201324 27.201324 27.201324 27.201324 27.201324 27.201324 27.201324 0.000000 0.000000 0.000000 0.000000 0.000000 0.000000 0.000000 0.000000 0.000000 0.000000 0.000000 0.000000 0.000000 0.000000 0.000000 0.000000
0.000000 0.000000 0.000000 0.000000 0.000000 0.000000 0.000000 0.000000 0.000000 0.000000 0.000000 0.000000 0.000000 0.000000 0.000000 0.000000 0.000000 0.000000 0.000000 0.000000 0.000000 0.000000 0.000000 0.000000 0.000000 0.000000 0.000000 0.000000 0.000000 16.172615 16.172615 16.172615 16.172615 16.172615 16.172615 16.172615 14.945059 14.945059 14.945059 14.945059 14.945059 14.945059 0.000000 0.000000 0.000000 0.000000 0.000000 0.000000 0.000000 0.000000 0.000000 0.000000 0.000000 0.000000 0.000000 0.000000 0.000000 0.000000 0.000000 0.000000 0.000000 0.000000 0.000000 0.000000 0.000000 0.000000 0.000000 0.000000 0.000000 0.000000 0.000000 0.000000 27.201324 27.201324 27.201324 27.201324 27.201324 27.201324 27.201324 27.201324 27.201324 27.201324 27.201324 27.201324 27.201324 27.201324 27.201324 0.000000 0.000000 0.000000 0.000000 0.000000 0.000000 0.000000 0.000000 0.000000 0.000000 0.000000 0.000000 0.000000 0.000000 0.000000 0.000000
0.000000 0.000000 0.000000 0.000000 0.000000 0.000000 0.000000 0.000000 0.000000 0.000000 0.000000 0.000000 0.000000 0.000000 0.000000 0.000000 0.000000 0.000000 0.000000 0.000000 0.000000 0.000000 0.000000 0.000000 0.000000 0.000000 0.000000 0.000000 0.000000 16.172615 16.172615 16.172615 16.172615 16.172615 16.172615 16.172615 14.945059 14.945059 14.945059 14.945059 14.945059 14.945059 0.000000 0.000000 0.000000 0.000000 0.000000 0.000000 0.000000 0.000000 0.000000 0.000000 0.000000 0.000000 0.000000 0.000000 0.000000 0.000000 0.000000 0.000000 0.000000 0.000000 0.000000 0.000000 0.000000 0.000000 0.000000 0.000000 0.000000 0.000000 0.000000 0.000000 0.000000 0.000000 0.000000 0.000000 0.000000 0.000000 0.000000 0.000000 0.000000 0.000000 0.000000 0.000000 0.000000 0.000000 0.000000 0.000000 0.000000 0.000000 0.000000 0.000000 0.000000 0.000000 0.000000 0.000000 0.000000 0.000000 0.000000 0.000000 0.000000 0.000000 0.000000
0.000000 0.000000 0.000000 0.000000 0.000000 0.000000 0.000000 0.000000 0.000000 0.000000 0.000000 0.000000 0.000000 0.000000 0.000000 0.000000 0.000000 0.000000 0.000000 0.000000 0.000000 0.000000 0.000000 0.000000 0.000000 0.000000 0.000000 0.000000 0.000000 16.172615 16.172615 16.172615 16.172615 16.172615 16.172615 16.172615 14.945059 14.945059 14.945059 14.945059 14.945059 14.945059 0.000000 0.000000 0.000000 0.000000 0.000000 0.000000 0.000000 0.000000 0.000000 0.000000 0.000000 0.000000 0.000000 0.000000 0.000000 0.000000 0.000000 0.000000 0.000000 0.000000 0.000000 0.000000 0.000000 0.000000 0.000000 0.000000 0.000000 0.000000 0.000000 0.000000 0.000000 0.000000 0.000000 0.000000 0.000000 0.000000 0.000000 0.000000 0.000000 0.000000 0.000000 0.000000 0.000000 0.000000 0.000000 0.000000 0.000000 0.000000 0.000000 0.000000 0.000000 0.000000 0.000000 0.000000 0.000000 0.000000 0.000000 0.000000 0.000000 0.000000 0.000000
0.000000 0.000000 0.000000 0.000000 0.000000 0.000000 0.000000 0.000000 0.000000 0.000000 0.000000 0.000000 0.000000 0.000000 0.000000 0.000000 0.000000 0.000000 0.000000 0.000000 0.000000 0.000000 0.000000 0.000000 0.000000 0.000000 0.000000 0.000000 0.000000 16.172615 16.172615 16.172615 16.172615 16.172615 16.172615 16.172615 14.945059 14.945059 14.945059 14.945059 14.945059 14.945059 0.000000 0.000000 0.000000 0.000000 0.000000 0.000000 0.000000 0.000000 0.000000 0.000000 0.000000 0.000000 0.000000 0.000000 0.000000 0.000000 0.000000 0.000000 0.000000 0.000000 0.000000 0.000000 0.000000 0.000000 0.000000 0.000000 0.000000 0.000000 0.000000 0.000000 0.000000 0.000000 0.000000 0.000000 0.000000 0.000000 0.000000 0.000000 0.000000 0.000000 0.000000 0.000000 0.000000 0.000000 0.000000 0.000000 0.000000 0.000000 0.000000 0.000000 0.000000 0.000000 0.000000 0.000000 0.000000 0.000000 0.000000 0.000000 0.000000 0.000000 0.000000
0.000000 0.000000 0.000000 0.000000 0.000000 0.000000 0.000000 0.000000 0.000000 0.000000 0.000000 0.000000 0.000000 0.000000 0.000000 0.000000 0.000000 0.000000 0.000000 0.000000 0.000000 0.000000 0.000000 0.000000 0.000000 0.000000 0.000000 0.000000 0.000000 16.172615 16.172615 16.172615 16.172615 16.172615 16.172615 16.172615 14.945059 14.945059 14.945059 14.945059 14.945059 14.945059 0.000000 0.000000 0.000000 0.000000 0.000000 0.000000 0.000000 0.000000 0.000000 0.000000 0.000000 0.000000 0.000000 0.000000 0.000000 0.000000 0.000000 0.000000 0.000000 0.000000 0.000000 0.000000 0.000000 0.000000 0.000000 0.000000 0.000000 0.000000 0.000000 0.000000 0.000000 0.000000 0.000000 0.000000 0.000000 0.000000 0.000000 0.000000 0.000000 0.000000 0.000000 0.000000 0.000000 0.000000 0.000000 0.000000 0.000000 0.000000 0.000000 0.000000 0.000000 0.000000 0.000000 0.000000 0.000000 0.000000 0.000000 0.000000 0.000000 0.000000 0.000000
0.000000 0.000000 0.000000 0.000000 0.000000 0.000000 0.000000 0.000000 0.000000 0.000000 0.000000 0.000000 0.000000 0.000000 0.000000 0.000000 0.000000 0.000000 0.000000 0.000000 0.000000 0.000000 0.000000 0.000000 0.000000 0.000000 0.000000 0.000000 0.000000 16.172615 16.172615 16.172615 16.172615 16.172615 16.172615 16.172615 14.945059 14.945059 14.945059 14.945059 14.945059 14.945059 0.000000 0.000000 0.000000 0.000000 0.000000 0.000000 0.000000 0.000000 0.000000 0.000000 0.000000 0.000000 0.000000 0.000000 0.000000 0.000000 0.000000 0.000000 0.000000 0.000000 0.000000 0.000000 0.000000 0.000000 0.000000 0.000000 0.000000 0.000000 0.000000 0.000000 0.000000 0.000000 0.000000 0.000000 0.000000 0.000000 0.000000 0.000000 0.000000 0.000000 0.000000 0.000000 0.000000 0.000000 0.000000 0.000000 0.000000 0.000000 0.000000 18.234418 18.234418 18.234418 18.234418 18.234418 18.234418 0.000000 0.000000 0.000000 0.000000 0.000000 0.000000
0.000000 0.000000 0.000000 0.000000 0.000000 0.000000 0.000000 0.000000 0.000000 0.000000 0.000000 0.000000 0.000000 0.000000 0.000000 0.000000 0.000000 0.000000 0.000000 0.000000 0.000000 0.000000 0.000000 0.000000 0.000000 0.000000 0.000000 0.000000 0.000000 21.158890 21.158890 21.158890 21.158890 21.158890 21.158890 21.158890 0.000000 0.000000 0.000000 0.000000 0.000000 0.000000 0.000000 0.000000 0.000000 0.000000 0.000000 0.000000 0.000000 0.000000 0.000000 0.000000 0.000000 0.000000 0.000000 0.000000 0.000000 0.000000 0.000000 0.000000 0.000000 0.000000 0.000000 0.000000 0.000000 0.000000 0.000000 0.000000 0.000000 0.000000 0.000000 0.000000 0.000000 0.000000 0.000000 0.000000 0.000000 0.000000 0.000000 0.000000 0.000000 0.000000 0.000000 0.000000 0.000000 0.000000 0.000000 0.000000 0.000000 0.000000 0.000000 18.234418 18.234418 18.234418 18.234418 18.234418 18.234418 0.000000 0.000000 0.000000 0.000000 0.000000 0.000000
0.000000 0.000000 0.000000 0.000000 0.000000 0.000000 0.000000 0.000000 0.000000 0.000000 0.000000 0.000000 0.000000 0.000000 0.000000 0.000000 0.000000 0.000000 0.000000 0.000000 0.000000 0.000000 0.000000 0.000000 0.000000 0.000000 0.000000 0.000000 0.000000 21.158890 21.158890 21.158890 21.158890 21.158890 21.158890 21.158890 0.000000 0.000000 0.000000 0.000000 0.000000 0.000000 0.000000 0.000000 0.000000 0.000000 0.000000 0.000000 0.000000 0.000000 0.000000 0.000000 0.000000 0.000000 0.000000 0.000000 0.000000 0.000000 0.000000 0.000000 0.000000 0.000000 0.000000 0.000000 0.000000 0.000000 0.000000 0.000000 0.000000 0.000000 0.000000 0.000000 0.000000 0.000000 0.000000 0.000000 0.000000 0.000000 0.000000 0.000000 0.000000 0.000000 0.000000 0.000000 0.000000 0.000000 0.000000 0.000000 0.000000 0.000000 0.000000 18.234418 18.234418 18.234418 18.234418 18.234418 18.234418 0.000000 0.000000 0.000000 0.000000 0.000000 0.000000
0.000000 0.000000 0.000000 0.000000 0.000000 0.000000 0.000000 0.000000 0.000000 0.000000 0.000000 0.000000 0.000000 0.000000 0.000000 0.000000 0.000000 0.000000 0.000000 0.000000 0.000000 0.000000 0.000000 0.000000 0.000000 0.000000 0.000000 0.000000 0.000000 21.158890 21.158890 21.158890 21.158890 21.158890 21.158890 21.158890 0.000000 0.000000 0.000000 0.000000 0.000000 0.000000 0.000000 0.000000 0.000000 0.000000 0.000000 0.000000 0.000000 29.554804 29.554804 29.554804 29.554804 29.554804 29.554804 29.554804 29.554804 29.554804 29.554804 29.554804 29.554804 29.554804 29.554804 0.000000 0.000000 0.000000 0.000000 0.000000 0.000000 0.000000 0.000000 0.000000 0.000000 0.000000 0.000000 0.000000 0.000000 0.000000 0.000000 0.000000 0.000000 0.000000 0.000000 0.000000 0.000000 0.000000 0.000000 0.000000 0.000000 0.000000 0.000000 18.234418 18.234418 18.234418 18.234418 18.234418 18.234418 0.000000 0.000000 0.000000 0.000000 0.000000 0.000000
0.000000 0.000000 0.000000 0.000000 0.000000 0.000000 0.000000 0.000000 0.000000 0.000000 0.000000 0.000000 0.000000 0.000000 0.000000 0.000000 0.000000 0.000000 0.000000 0.000000 0.000000 0.000000 0.000000 0.000000 0.000000 0.000000 0.000000 0.000000 0.000000 21.158890 21.158890 21.158890 21.158890 21.158890 21.158890 21.158890 0.000000 0.000000 0.000000 0.000000 0.000000 0.000000 0.000000 0.000000 0.000000 0.000000 0.000000 0.000000 0.000000 29.554804 29.554804 29.554804 29.554804 29.554804 29.554804 29.554804 29.554804 29.554804 29.554804 29.554804 29.554804 29.554804 29.554804 0.000000 0.000000 0.000000 0.000000 0.000000 0.000000 0.000000 0.000000 0.000000 0.000000 0.000000 0.000000 0.000000 0.000000 0.000000 0.000000 0.000000 0.000000 0.000000 0.000000 0.000000 0.000000 0.000000 0.000000 0.000000 0.000000 0.000000 0.000000 18.234418 18.234418 18.234418 18.234418 18.234418 18.234418 0.000000 0.000000 0.000000 0.000000 0.000000 0.000000
0.000000 0.000000 0.000000 0.000000 0.000000 0.000000 0.000000 0.000000 0.000000 0.000000 0.000000 0.000000 0.000000 0.000000 0.000000 0.000000 0.000000 0.000000 0.000000 0.000000 0.000000 0.000000 0.000000 0.000000 0.000000 0.000000 0.000000 0.000000 0.000000 21.158890 21.158890 21.158890 21.158890 21.158890 21.158890 21.158890 0.000000 0.000000 0.000000 0.000000 0.000000 0.000000 0.000000 0.000000 0.000000 0.000000 0.000000 0.000000 0.000000 29.554804 29.554804 29.554804 29.554804 29.554804 29.554804 29.554804 29.554804 29.554804 29.554804 29.554804 29.554804 29.554804 29.554804 0.000000 0.000000 0.000000 0.000000 0.000000 0.000000 0.000000 0.000000 0.000000 0.000000 0.000000 0.000000 0.000000 0.000000 0.000000 0.000000 0.000000 0.000000 0.000000 0.000000 0.000000 0.000000 0.000000 0.000000 0.000000 0.000000 0.000000 0.000000 18.234418 18.234418 18.234418 18.234418 18.234418 18.234418 0.000000 0.000000 0.000000 0.000000 0.000000 0.000000
0.000000 0.000000 0.000000 0.000000 0.000000 0.000000 0.000000 0.000000 0.000000 0.000000 0.000000 0.000000 0.000000 0.000000 0.000000 0.000000 0.000000 0.000000 0.000000 0.000000 0.000000 0.000000 0.000000 0.000000 0.000000 0.000000 0.000000 0.000000 0.000000 21.158890 21.158890 21.158890 21.158890 21.158890 21.158890 21.158890 0.000000 0.000000 0.000000 0.000000 0.000000 0.000000 0.000000 0.000000 0.000000 0.000000 0.000000 0.000000 0.000000 29.554804 29.554804 29.554804 29.554804 29.554804 29.554804 29.554804 29.554804 29.554804 29.554804 29.554804 29.554804 29.554804 29.554804 0.000000 0.000000 0.000000 0.000000 0.000000 0.000000 0.000000 0.000000 0.000000 0.000000 0.000000 0.000000 0.000000 0.000000 0.000000 0.000000 0.000000 0.000000 0.000000 0.000000 0.000000 0.000000 0.000000 0.000000 0.000000 0.000000 0.000000 0.000000 18.234418 18.234418 18.234418 18.234418 18.234418 18.234418 0.000000 0.000000 0.000000 0.000000 0.000000 0.000000
0.000000 0.000000 0.000000 0.000000 0.000000 0.000000 0.000000 0.000000 0.000000 0.000000 0.000000 0.000000 0.000000 0.000000 0.000000 0.000000 0.000000 0.000000 0.000000 0.000000 0.000000 0.000000 0.000000 0.000000 0.000000 0.000000 0.000000 0.000000 0.000000 21.158890 21.158890 21.158890 21.158890 21.158890 21.158890 21.158890 0.000000 0.000000 0.000000 0.000000 0.000000 0.000000 0.000000 0.000000 0.000000 0.000000 0.000000 0.000000 0.000000 29.554804 29.554804 29.554804 29.554804 29.554804 29.554804 29.554804 29.554804 29.554804 29.554804 29.554804 29.554804 29.554804 29.554804 0.000000 0.000000 0.000000 0.000000 0.000000 0.000000 0.000000 0.000000 0.000000 0.000000 0.000000 0.000000 0.000000 0.000000 0.000000 0.000000 0.000000 0.000000 0.000000 0.000000 0.000000 0.000000 0.000000 0.000000 0.000000 0.000000 0.000000 0.000000 18.234418 18.234418 18.234418 18.234418 18.234418 18.234418 0.000000 0.000000 0.000000 0.000000 0.000000 0.000000
0.000000 0.000000 0.000000 0.000000 0.000000 0.000000 0.000000 0.000000 0.000000 0.000000 0.000000 0.000000 0.000000 0.000000 0.000000 0.000000 0.000000 0.000000 0.000000 0.000000 0.000000 0.000000 0.000000 0.000000 0.000000 0.000000 0.000000 0.000000 0.000000 21.158890 21.158890 21.158890 21.158890 21.158890 21.158890 21.158890 0.000000 0.000000 0.000000 0.000000 0.000000 0.000000 0.000000 0.000000 0.000000 0.000000 0.000000 0.000000 0.000000 29.554804 29.554804 29.554804 29.554804 29.554804 29.554804 29.554804 29.554804 29.554804 29.554804 29.554804 29.554804 29.554804 29.554804 0.000000 0.000000 0.000000 0.000000 0.000000 0.000000 0.000000 0.000000 0.000000 0.000000 0.000000 0.000000 0.000000 0.000000 0.000000 0.000000 0.000000 0.000000 0.000000 0.000000 0.000000 0.000000 0.000000 0.000000 0.000000 0.000000 0.000000 0.000000 18.234418 18.234418 18.234418 18.234418 18.234418 18.234418 0.000000 0.000000 0.000000 0.000000 0.000000 0.000000
0.000000 0.000000 0.000000 0.000000 0.000000 0.000000 0.000000 0.000000 0.000000 0.000000 0.000000 0.000000 0.000000 0.000000 0.000000 0.000000 0.000000 0.000000 0.000000 0.000000 0.000000 0.000000 0.000000 0.000000 0.000000 0.000000 0.000000 0.000000 0.000000 21.158890 21.158890 21.158890 21.158890 21.158890 21.158890 21.158890 0.000000 0.000000 0.000000 0.000000 0.000000 0.000000 0.000000 0.000000 0.000000 0.000000 0.000000 0.000000 0.000000 29.554804 29.554804 29.554804 29.554804 29.554804 29.554804 29.554804 29.554804 29.554804 29.554804 29.554804 29.554804 29.554804 29.554804 0.000000 0.000000 0.000000 0.000000 0.000000 0.000000 0.000000 0.000000 0.000000 0.000000 0.000000 0.000000 0.000000 0.000000 0.000000 0.000000 0.000000 0.000000 0.000000 0.000000 0.000000 0.000000 0.000000 0.000000 0.000000 0.000000 0.000000 0.000000 18.234418 18.234418 18.234418 18.234418 18.234418 18.234418 0.000000 0.000000 0.000000 0.000000 0.000000 0.000000
0.000000 0.000000 0.000000 0.000000 0.000000 0.000000 0.000000 0.000000 0.000000 0.000000 0.000000 0.000000 0.000000 0.000000 0.000000 0.000000 0.000000 0.000000 0.000000 0.000000 0.000000 0.000000 0.000000 0.000000 0.000000 0.000000 0.000000 0.000000 0.000000 21.158890 21.158890 21.158890 21.158890 21.158890 21.158890 21.158890 0.000000 0.000000 0.000000 0.000000 0.000000 0.000000 0.000000 0.000000 0.000000 0.000000 0.000000 0.000000 0.000000 29.554804 29.554804 29.554804 29.554804 29.554804 29.554804 29.554804 29.554804 29.554804 29.554804 29.554804 29.554804 29.554804 29.554804 0.000000 0.000000 0.000000 0.000000 0.000000 0.000000 0.000000 0.000000 0.000000 0.000000 0.000000 0.000000 0.000000 0.000000 0.000000 0.000000 0.000000 0.000000 0.000000 0.000000 0.000000 0.000000 0.000000 0.000000 0.000000 0.000000 0.000000 0.000000 18.234418 18.234418 18.234418 18.234418 18.234418 18.234418 0.000000 0.000000 0.000000 0.000000 0.000000 0.000000
0.000000 0.000000 0.000000 0.000000 0.000000 0.000000 0.000000 0.000000 0.000000 0.000000 0.000000 0.000000 0.000000 0.000000 0.000000 0.000000 0.000000 0.000000 0.000000 0.000000 0.000000 0.000000 0.000000 0.000000 0.000000 0.000000 0.000000 0.000000 0.000000 21.158890 21.158890 21.158890 21.158890 21.158890 21.158890 21.158890 0.000000 0.000000 0.000000 0.000000 0.000000 0.000000 0.000000 0.000000 0.000000 0.000000 0.000000 0.000000 0.000000 0.000000 0.000000 0.000000 0.000000 0.000000 0.000000 0.000000 0.000000 0.000000 0.000000 0.000000 0.000000 0.000000 0.000000 0.000000 0.000000 0.000000 0.000000 0.000000 0.000000 0.000000 0.000000 0.000000 0.000000 0.000000 0.000000 0.000000 0.000000 0.000000 0.000000 0.000000 0.000000 0.000000 0.000000 0.000000 0.000000 0.000000 0.000000 0.000000 0.000000 0.000000 0.000000 0.000000 0.000000 0.000000 0.000000 0.000000 0.000000 0.000000 0.000000 0.000000 0.000000 0.000000 0.000000
0.000000 0.000000 0.000000 0.000000 0.000000 0.000000 0.000000 0.000000 0.000000 0.000000 0.000000 0.000000 0.000000 0.000000 0.000000 0.000000 0.000000 0.000000 0.000000 0.000000 0.000000 0.000000 0.000000 0.000000 0.000000 0.000000 0.000000 0.000000 0.000000 21.158890 21.158890 21.158890 21.158890 21.158890 21.158890 21.158890 0.000000 0.000000 0.000000 0.000000 0.000000 0.000000 0.000000 0.000000 0.000000 0.000000 0.000000 0.000000 0.000000 0.000000 0.000000 0.000000 0.000000 0.000000 0.000000 0.000000 0.000000 0.000000 0.000000 0.000000 0.000000 0.000000 0.000000 0.000000 0.000000 0.000000 0.000000 0.000000 0.000000 0.000000 0.000000 0.000000 0.000000 0.000000 0.000000 0.000000 0.000000 0.000000 0.000000 0.000000 0.000000 0.000000 0.000000 0.000000 0.000000 0.000000 0.000000 0.000000 0.000000 0.000000 0.000000 0.000000 0.000000 0.000000 0.000000 0.000000 0.000000 0.000000 0.000000 0.000000 0.000000 0.000000 0.000000
0.000000 0.000000 0.000000 0.000000 0.000000 0.000000 0.000000 0.000000 0.000000 0.000000 0.000000 0.000000 0.000000 0.000000 0.000000 0.000000 0.000000 0.000000 0.000000 0.000000 0.000000 0.000000 0.000000 0.000000 0.000000 0.000000 0.000000 0.000000 0.000000 0.000000 0.000000 0.000000 0.000000 0.000000 0.000000 0.000000 0.000000 0.000000 0.000000 0.000000 0.000000 0.000000 0.000000 0.000000 0.000000 0.000000 0.000000 0.000000 0.000000 0.000000 0.000000 0.000000 0.000000 0.000000 0.000000 0.000000 0.000000 0.000000 0.000000 0.000000 0.000000 0.000000 0.000000 0.000000 0.000000 0.000000 0.000000 0.000000 0.000000 0.000000 0.000000 0.000000 0.000000 0.000000 0.000000 0.000000 0.000000 0.000000 0.000000 0.000000 0.000000 0.000000 0.000000 0.000000 0.000000 0.000000 0.000000 0.000000 0.000000 0.000000 0.000000 0.000000 0.000000 0.000000 0.000000 0.000000 0.000000 0.000000 0.000000 0.000000 0.000000 0.000000 0.000000
0.000000 0.000000 0.000000 0.000000 0.000000 0.000000 0.000000 0.000000 0.000000 0.000000 0.000000 0.000000 0.000000 0.000000 0.000000 0.000000 0.000000 0.000000 0.000000 0.000000 0.000000 0.000000 0.000000 0.000000 0.000000 0.000000 0.000000 0.000000 0.000000 0.000000 0.000000 0.000000 0.000000 0.000000 0.000000 0.000000 0.000000 0.000000 0.000000 0.000000 0.000000 0.000000 0.000000 0.000000 0.000000 0.000000 0.000000 0.000000 0.000000 0.000000 0.000000 0.000000 0.000000 0.000000 0.000000 0.000000 0.000000 0.000000 0.000000 0.000000 0.000000 0.000000 0.000000 0.000000 0.000000 0.000000 0.000000 0.000000 0.000000 0.000000 0.000000 0.000000 0.000000 0.000000 0.000000 0.000000 0.000000 0.000000 0.000000 0.000000 0.000000 0.000000 0.000000 0.000000 0.000000 0.000000 0.000000 0.000000 0.000000 0.000000 0.000000 0.000000 0.000000 0.000000 0.000000 0.000000 0.000000 0.000000 0.000000 0.000000 0.000000 0.000000 0.000000
0.000000 0.000000 0.000000 0.000000 0.000000 0.000000 0.000000 0.000000 0.000000 0.000000 0.000000 0.000000 0.000000 0.000000 0.000000 0.000000 0.000000 0.000000 0.000000 0.000000 0.000000 0.000000 0.000000 0.000000 0.000000 0.000000 0.000000 0.000000 0.000000 0.000000 0.000000 0.000000 0.000000 0.000000 0.000000 0.000000 0.000000 0.000000 0.000000 0.000000 0.000000 0.000000 0.000000 0.000000 0.000000 0.000000 0.000000 0.000000 0.000000 0.000000 0.000000 0.000000 0.000000 0.000000 0.000000 0.000000 0.000000 0.000000 0.000000 0.000000 0.000000 0.000000 0.000000 0.000000 0.000000 0.000000 0.000000 0.000000 0.000000 0.000000 0.000000 0.000000 0.000000 0.000000 0.000000 0.000000 0.000000 0.000000 0.000000 0.000000 0.000000 0.000000 0.000000 0.000000 0.000000 0.000000 0.000000 0.000000 0.000000 0.000000 0.000000 0.000000 0.000000 0.000000 0.000000 0.000000 0.000000 0.000000 0.000000 0.000000 0.000000 0.000000 0.000000
0.000000 0.000000 0.000000 0.000000 0.000000 0.000000 0.000000 0.000000 0.000000 0.000000 0.000000 0.000000 0.000000 0.000000 0.000000 0.000000 0.000000 0.000000 0.000000 0.000000 0.000000 0.000000 0.000000 0.000000 0.000000 0.000000 0.000000 0.000000 0.000000 0.000000 0.000000 0.000000 0.000000 0.000000 0.000000 0.000000 0.000000 0.000000 0.000000 0.000000 0.000000 0.000000 0.000000 0.000000 0.000000 0.000000 0.000000 0.000000 0.000000 0.000000 0.000000 0.000000 0.000000 0.000000 0.000000 0.000000 0.000000 0.000000 0.000000 0.000000 0.000000 0.000000 0.000000 0.000000 0.000000 0.000000 0.000000 0.000000 0.000000 0.000000 0.000000 0.000000 0.000000 0.000000 0.000000 0.000000 0.000000 0.000000 0.000000 0.000000 0.000000 0.000000 0.000000 0.000000 0.000000 0.000000 0.000000 0.000000 0.000000 0.000000 0.000000 0.000000 0.000000 0.000000 0.000000 0.000000 0.000000 0.000000 0.000000 0.000000 0.000000 0.000000 0.000000
0.000000 0.000000 0.000000 0.000000 0.000000 0.000000 0.000000 0.000000 0.000000 0.000000 0.000000 0.000000 0.000000 0.000000 0.000000 0.000000 0.000000 0.000000 0.000000 0.000000 0.000000 0.000000 0.000000 0.000000 0.000000 0.000000 0.000000 0.000000 0.000000 0.000000 0.000000 0.000000 0.000000 0.000000 0.000000 0.000000 0.000000 0.000000 0.000000 0.000000 0.000000 0.000000 0.000000 0.000000 0.000000 0.000000 0.000000 0.000000 0.000000 0.000000 0.000000 0.000000 0.000000 0.000000 0.000000 0.000000 0.000000 0.000000 0.000000 0.000000 0.000000 0.000000 0.000000 0.000000 0.000000 0.000000 0.000000 0.000000 0.000000 0.000000 0.000000 0.000000 0.000000 0.000000 0.000000 0.000000 0.000000 0.000000 0.000000 0.000000 0.000000 0.000000 0.000000 0.000000 0.000000 0.000000 0.000000 0.000000 0.000000 0.000000 0.000000 0.000000 0.000000 0.000000 0.000000 0.000000 0.000000 0.000000 0.000000 0.000000 0.000000 0.000000 0.000000
0.000000 0.000000 0.000000 0.000000 0.000000 0.000000 0.000000 0.000000 0.000000 0.000000 0.000000 0.000000 0.000000 0.000000 0.000000 0.000000 0.000000 0.000000 0.000000 0.000000 0.000000 0.000000 0.000000 0.000000 0.000000 0.000000 0.000000 0.000000 0.000000 0.000000 0.000000 0.000000 0.000000 0.000000 0.000000 0.000000 0.000000 0.000000 0.000000 0.000000 0.000000 0.000000 0.000000 0.000000 0.000000 0.000000 0.000000 0.000000 0.000000 0.000000 0.000000 0.000000 0.000000 0.000000 0.000000 0.000000 0.000000 0.000000 21.234049 21.234049 21.234049 21.234049 21.234049 21.234049 21.234049 0.000000 0.000000 0.000000 0.000000 0.000000 0.000000 0.000000 0.000000 0.000000 0.000000 0.000000 0.000000 0.000000 0.000000 0.000000 0.000000 0.000000 0.000000 0.000000 0.000000 0.000000 0.000000 0.000000 0.000000 0.000000 0.000000 0.000000 0.000000 0.000000 0.000000 0.000000 0.000000 0.000000 0.000000 0.000000 0.000000 0.000000 0.000000
0.000000 0.000000 0.000000 0.000000 0.000000 0.000000 0.000000 0.000000 0.000000 0.000000 0.000000 0.000000 0.000000 0.000000 0.000000 0.000000 0.000000 0.000000 0.000000 0.000000 0.000000 0.000000 0.000000 0.000000 0.000000 0.000000 0.000000 0.000000 0.000000 0.000000 0.000000 0.000000 0.000000 0.000000 0.000000 0.000000 0.000000 0.000000 0.000000 0.000000 0.000000 0.000000 0.000000 0.000000 0.000000 0.000000 0.000000 0.000000 0.000000 0.000000 0.000000 0.000000 0.000000 0.000000 0.000000 0.000000 0.000000 0.000000 21.234049 21.234049 21.234049 21.234049 21.234049 21.234049 21.234049 0.000000 0.000000 0.000000 0.000000 0.000000 0.000000 0.000000 0.000000 0.000000 0.000000 0.000000 0.000000 0.000000 0.000000 0.000000 0.000000 0.000000 0.000000 0.000000 0.000000 0.000000 0.000000 0.000000 0.000000 0.000000 0.000000 0.000000 0.000000 0.000000 0.000000 0.000000 0.000000 0.000000 0.000000 0.000000 0.000000 0.000000 0.000000
0.000000 0.000000 0.000000 0.000000 0.000000 0.000000 0.000000 0.000000 0.000000 0.000000 0.000000 0.000000 0.000000 0.000000 0.000000 0.000000 0.000000 0.000000 0.000000 0.000000 0.000000 0.000000 0.000000 0.000000 0.000000 0.000000 0.000000 0.000000 0.000000 0.000000 0.000000 16.666479 16.666479 16.666479 16.666479 16.666479 16.666479 16.666479 16.666479 16.666479 0.000000 0.000000 0.000000 0.000000 0.000000 0.000000 0.000000 0.000000 0.000000 0.000000 0.000000 0.000000 0.000000 0.000000 0.000000 0.000000 0.000000 0.000000 21.234049 21.234049 21.234049 21.234049 21.234049 21.234049 21.234049 0.000000 0.000000 0.000000 0.000000 0.000000 0.000000 0.000000 16.131192 16.131192 16.131192 16.131192 16.131192 16.131192 16.131192 16.131192 16.131192 16.131192 16.131192 0.000000 0.000000 0.000000 0.000000 0.000000 0.000000 0.000000 0.000000 0.000000 0.000000 0.000000 0.000000 0.000000 0.000000 0.000000 0.000000 0.000000 0.000000 0.000000 0.000000
0.000000 0.000000 0.000000 0.000000 0.000000 0.000000 0.000000 0.000000 0.000000 0.000000 0.000000 0.000000 0.000000 0.000000 0.000000 0.000000 0.000000 0.000000 0.000000 0.000000 0.000000 0.000000 0.000000 0.000000 0.000000 0.000000 0.000000 0.000000 0.000000 0.000000 0.000000 16.666479 16.666479 16.666479 16.666479 16.666479 16.666479 16.666479 16.666479 16.666479 0.000000 0.000000 0.000000 0.000000 0.000000 0.000000 0.000000 0.000000 0.000000 0.000000 0.000000 0.000000 0.000000 0.000000 0.000000 0.000000 0.000000 0.000000 21.234049 21.234049 21.234049 21.234049 21.234049 21.234049 21.234049 0.000000 0.000000 0.000000 0.000000 0.000000 0.000000 0.000000 16.131192 16.131192 16.131192 16.131192 16.131192 16.131192 16.131192 16.131192 16.131192 16.131192 16.131192 0.000000 0.000000 0.000000 0.000000 0.000000 0.000000 0.000000 0.000000 0.000000 0.000000 0.000000 0.000000 0.000000 0.000000 0.000000 0.000000 0.000000 0.000000 0.000000 0.000000
0.000000 0.000000 0.000000 0.000000 0.000000 0.000000 0.000000 0.000000 0.000000 0.000000 0.000000 0.000000 0.000000 0.000000 0.000000 0.000000 0.000000 0.000000 0.000000 0.000000 0.000000 0.000000 0.000000 0.000000 0.000000 0.000000 0.000000 0.000000 0.000000 0.000000 0.000000 16.666479 16.666479 16.666479 16.666479 16.666479 16.666479 16.666479 16.666479 16.666479 0.000000 0.000000 0.000000 0.000000 0.000000 0.000000 0.000000 0.000000 0.000000 0.000000 0.000000 0.000000 0.000000 0.000000 0.000000 0.000000 0.000000 0.000000 21.234049 21.234049 21.234049 21.234049 21.234049 21.234049 21.234049 0.000000 0.000000 0.000000 0.000000 0.000000 0.000000 0.000000 16.131192 16.131192 16.131192 16.131192 16.131192 16.131192 16.131192 16.131192 16.131192 16.131192 16.131192 0.000000 0.000000 0.000000 0.000000 0.000000 0.000000 0.000000 0.000000 0.000000 0.000000 0.000000 0.000000 0.000000 0.000000 0.000000 0.000000 0.000000 0.000000 0.000000 0.000000
0.000000 0.000000 0.000000 0.000000 0.000000 0.000000 0.000000 0.000000 0.000000 0.000000 0.000000 0.000000 0.000000 0.000000 0.000000 0.000000 0.000000 0.000000 0.000000 0.000000 0.000000 0.000000 0.000000 0.000000 0.000000 0.000000 0.000000 0.000000 0.000000 0.000000 0.000000 16.666479 16.666479 16.666479 16.666479 16.666479 16.666479 16.666479 16.666479 16.666479 0.000000 0.000000 0.000000 0.000000 0.000000 0.000000 0.000000 0.000000 0.000000 0.000000 0.000000 0.000000 0.000000 0.000000 0.000000 0.000000 0.000000 0.000000 21.234049 21.234049 21.234049 21.234049 21.234049 21.234049 21.234049 0.000000 0.000000 0.000000 0.000000 0.000000 0.000000 0.000000 16.131192 16.131192 16.131192 16.131192 16.131192 16.131192 16.131192 16.131192 16.131192 16.131192 16.131192 0.000000 0.000000 0.000000 0.000000 0.000000 0.000000 0.000000 0.000000 0.000000 0.000000 0.000000 0.000000 0.000000 0.000000 0.000000 0.000000 0.000000 0.000000 0.000000 0.000000
0.000000 0.000000 0.000000 0.000000 0.000000 0.000000 0.000000 0.000000 0.000000 0.000000 0.000000 0.000000 0.000000 0.000000 0.000000 0.000000 0.000000 0.000000 0.000000 0.000000 0.000000 0.000000 0.000000 0.000000 0.000000 0.000000 0.000000 0.000000 0.000000 0.000000 0.000000 16.666479 16.666479 16.666479 16.666479 16.666479 16.666479 16.666479 16.666479 16.666479 0.000000 0.000000 0.000000 0.000000 0.000000 0.000000 0.000000 0.000000 0.000000 0.000000 0.000000 0.000000 0.000000 0.000000 0.000000 0.000000 0.000000 0.000000 21.234049 21.234049 21.234049 21.234049 21.234049 21.234049 21.234049 0.000000 0.000000 0.000000 0.000000 0.000000 0.000000 0.000000 16.131192 16.131192 16.131192 16.131192 16.131192 16.131192 16.131192 16.131192 16.131192 16.131192 16.131192 0.000000 0.000000 0.000000 0.000000 0.000000 0.000000 0.000000 0.000000 0.000000 0.000000 0.000000 0.000000 0.000000 0.000000 0.000000 0.000000 0.000000 0.000000 0.000000 0.000000
0.000000 0.000000 0.000000 0.000000 0.000000 0.000000 0.000000 0.000000 0.000000 0.000000 0.000000 0.000000 0.000000 0.000000 0.000000 0.000000 0.000000 0.000000 0.000000 0.000000 0.000000 0.000000 0.000000 0.000000 0.000000 0.000000 0.000000 0.000000 0.000000 0.000000 0.000000 16.666479 16.666479 16.666479 16.666479 16.666479 16.666479 16.666479 16.666479 16.666479 0.000000 0.000000 0.000000 0.000000 0.000000 0.000000 0.000000 0.000000 0.000000 0.000000 0.000000 0.000000 0.000000 0.000000 0.000000 0.000000 0.000000 0.000000 21.234049 21.234049 21.234049 21.234049 21.234049 21.234049 21.234049 0.000000 0.000000 0.000000 0.000000 0.000000 0.000000 0.000000 16.131192 16.131192 16.131192 16.131192 16.131192 16.131192 16.131192 16.131192 16.131192 16.131192 16.131192 0.000000 0.000000 0.000000 0.000000 0.000000 0.000000 0.000000 0.000000 0.000000 0.000000 0.000000 0.000000 0.000000 0.000000 0.000000 0.000000 0.000000 0.000000 0.000000 0.000000
0.000000 0.000000 0.000000 0.000000 0.000000 0.000000 0.000000 0.000000 0.000000 0.000000 0.000000 0.000000 0.000000 0.000000 0.000000 0.000000 0.000000 0.000000 0.000000 0.000000 0.000000 0.000000 0.000000 0.000000 0.000000 0.000000 0.000000 0.000000 0.000000 0.000000 0.000000 16.666479 16.666479 16.666479 16.666479 16.666479 16.666479 16.666479 16.666479 16.666479 0.000000 0.000000 0.000000 0.000000 0.000000 0.000000 0.000000 0.000000 0.000000 0.000000 0.000000 0.000000 0.000000 0.000000 0.000000 0.000000 0.000000 0.000000 21.234049 21.234049 21.234049 21.234049 21.234049 21.234049 21.234049 0.000000 0.000000 0.000000 0.000000 0.000000 0.000000 0.000000 0.000000 0.000000 0.000000 0.000000 0.000000 0.000000 0.000000 0.000000 0.000000 0.000000 0.000000 0.000000 0.000000 0.000000 0.000000 0.000000 0.000000 0.000000 0.000000 0.000000 0.000000 0.000000 0.000000 0.000000 0.000000 0.000000 0.000000 0.000000 0.000000 0.000000 0.000000
0.000000 0.000000 0.000000 0.000000 0.000000 0.000000 0.000000 0.000000 0.000000 0.000000 0.000000 0.000000 0.000000 0.000000 0.000000 0.000000 0.000000 0.000000 0.000000 0.000000 0.000000 0.000000 0.000000 0.000000 0.000000 0.000000 0.000000 0.000000 0.000000 0.000000 0.000000 0.000000 0.000000 0.000000 0.000000 0.000000 0.000000 0.000000 0.000000 0.000000 0.000000 0.000000 0.000000 0.000000 0.000000 0.000000 0.000000 0.000000 0.000000 0.000000 0.000000 0.000000 0.000000 0.000000 0.000000 0.000000 0.000000 0.000000 21.234049 21.234049 21.234049 21.234049 21.234049 21.234049 21.234049 0.000000 0.000000 0.000000 0.000000 0.000000 0.000000 0.000000 0.000000 0.000000 0.000000 0.000000 0.000000 0.000000 0.000000 0.000000 0.000000 0.000000 0.000000 0.000000 0.000000 0.000000 0.000000 0.000000 0.000000 0.000000 0.000000 0.000000 0.000000 0.000000 0.000000 0.000000 0.000000 0.000000 0.000000 0.000000 0.000000 0.000000 0.000000
0.000000 0.000000 0.000000 0.000000 0.000000 0.000000 0.000000 0.000000 0.000000 0.000000 0.000000 0.000000 0.000000 0.000000 0.000000 0.000000 0.000000 0.000000 0.000000 0.000000 0.000000 0.000000 0.000000 0.000000 0.000000 0.000000 0.000000 0.000000 0.000000 0.000000 0.000000 0.000000 0.000000 0.000000 0.000000 0.000000 0.000000 0.000000 0.000000 0.000000 0.000000 0.000000 0.000000 0.000000 0.000000 0.000000 0.000000 0.000000 0.000000 0.000000 0.000000 0.000000 0.000000 0.000000 0.000000 0.000000 0.000000 0.000000 21.234049 21.234049 21.234049 21.234049 21.234049 21.234049 21.234049 0.000000 0.000000 0.000000 0.000000 0.000000 0.000000 0.000000 0.000000 0.000000 0.000000 0.000000 0.000000 0.000000 0.000000 0.000000 0.000000 0.000000 0.000000 0.000000 0.000000 0.000000 0.000000 0.000000 0.000000 0.000000 0.000000 0.000000 0.000000 0.000000 0.000000 0.000000 0.000000 0.000000 0.000000 0.000000 0.000000 0.000000 0.000000
0.000000 0.000000 0.000000 0.000000 0.000000 0.000000 0.000000 0.000000 0.000000 0.000000 0.000000 0.000000 0.000000 0.000000 0.000000 0.000000 0.000000 0.000000 0.000000 0.000000 0.000000 0.000000 0.000000 0.000000 0.000000 0.000000 0.000000 0.000000 0.000000 0.000000 0.000000 0.000000 0.000000 0.000000 0.000000 0.000000 0.000000 0.000000 0.000000 0.000000 0.000000 0.000000 0.000000 0.000000 0.000000 0.000000 0.000000 0.000000 0.000000 0.000000 0.000000 0.000000 0.000000 0.000000 0.000000 0.000000 0.000000 0.000000 21.234049 21.234049 21.234049 21.234049 21.234049 21.234049 21.234049 0.000000 0.000000 0.000000 0.000000 0.000000 0.000000 0.000000 0.000000 0.000000 0.000000 0.000000 0.000000 0.000000 0.000000 0.000000 0.000000 0.000000 0.000000 0.000000 0.000000 0.000000 0.000000 0.000000 0.000000 0.000000 0.000000 0.000000 0.000000 0.000000 0.000000 0.000000 0.000000 0.000000 0.000000 0.000000 0.000000 0.000000 0.000000
0.000000 0.000000 0.000000 0.000000 0.000000 0.000000 29.562836 29.562836 29.562836 29.562836 29.562836 29.562836 29.562836 29.562836 29.562836 29.562836 29.562836 29.562836 29.562836 29.562836 29.562836 29.562836 0.000000 0.000000 0.000000 0.000000 0.000000 0.000000 0.000000 0.000000 0.000000 0.000000 0.000000 0.000000 0.000000 0.000000 0.000000 0.000000 0.000000 0.000000 0.000000 0.000000 0.000000 0.000000 0.000000 0.000000 0.000000 24.702095 24.702095 24.702095 24.702095 24.702095 24.702095 24.702095 24.702095 24.702095 24.702095 24.702095 18.380398 18.380398 18.380398 18.380398 18.380398 18.380398 18.380398 0.000000 0.000000 0.000000 0.000000 0.000000 0.000000 0.000000 0.000000 0.000000 0.000000 0.000000 0.000000 0.000000 0.000000 0.000000 0.000000 0.000000 0.000000 0.000000 0.000000 0.000000 20.530052 20.530052 20.530052 20.530052 20.530052 20.530052 20.530052 20.530052 20.530052 20.530052 20.530052 0.000000 0.000000 0.000000 0.000000 0.000000 0.000000
0.000000 0.000000 0.000000 0.000000 0.000000 0.000000 29.562836 29.562836 29.562836 29.562836 29.562836 29.562836 29.562836 29.562836 29.562836 29.562836 29.562836 29.562836 29.562836 29.562836 29.562836 29.562836 0.000000 0.000000 0.000000 0.000000 0.000000 0.000000 0.000000 0.000000 0.000000 0.000000 0.000000 0.000000 0.000000 0.000000 0.000000 0.000000 0.000000 0.000000 0.000000 0.000000 0.000000 0.000000 0.000000 0.000000 0.000000 24.702095 24.702095 24.702095 24.702095 24.702095 24.702095 24.702095 24.702095 24.702095 24.702095 24.702095 18.380398 18.380398 18.380398 18.380398 18.380398 18.380398 18.380398 0.000000 0.000000 0.000000 0.000000 0.000000 0.000000 0.000000 0.000000 0.000000 0.000000 0.000000 0.000000 0.000000 0.000000 0.000000 0.000000 0.000000 0.000000 0.000000 0.000000 0.000000 20.530052 20.530052 20.530052 20.530052 20.530052 20.530052 20.530052 20.530052 20.530052 20.530052 20.530052 0.000000 0.000000 0.000000 0.000000 0.000000 0.000000
0.000000 0.000000 0.000000 0.000000 0.000000 0.000000 29.562836 29.562836 29.562836 29.562836 29.562836 29.562836 29.562836 29.562836 29.562836 29.562836 29.562836 29.562836 29.562836 29.562836 29.562836 29.562836 0.000000 0.000000 0.000000 0.000000 0.000000 0.000000 0.000000 0.000000 0.000000 0.000000 0.000000 0.000000 0.000000 0.000000 0.000000 0.000000 0.000000 0.000000 0.000000 0.000000 0.000000 0.000000 0.000000 0.000000 0.000000 24.702095 24.702095 24.702095 24.702095 24.702095 24.702095 24.702095 24.702095 24.702095 24.702095 24.702095 18.380398 18.380398 18.380398 18.380398 18.380398 18.380398 18.380398 0.000000 0.000000 0.000000 0.000000 0.000000 0.000000 0.000000 0.000000 0.000000 0.000000 0.000000 0.000000 0.000000 0.000000 0.000000 0.000000 0.000000 0.000000 0.000000 0.000000 0.000000 20.530052 20.530052 20.530052 20.530052 20.530052 20.530052 20.530052 20.530052 20.530052 20.530052 20.530052 0.000000 0.000000 0.000000 0.000000 0.000000 0.000000
0.000000 0.000000 0.000000 0.000000 0.000000 0.000000 29.562836 29.562836 29.562836 29.562836 29.562836 29.562836 29.562836 29.562836 29.562836 29.562836 29.562836 29.562836 29.562836 29.562836 29.562836 29.562836 0.000000 0.000000 0.000000 0.000000 0.000000 0.000000 0.000000 0.000000 0.000000 0.000000 0.000000 0.000000 0.000000 0.000000 0.000000 0.000000 0.000000 0.000000 0.000000 0.000000 0.000000 0.000000 0.000000 0.000000 0.000000 24.702095 24.702095 24.702095 24.702095 24.702095 24.702095 24.702095 24.702095 24.702095 24.702095 24.702095 18.380398 18.380398 18.380398 18.380398 18.380398 18.380398 18.380398 0.000000 0.000000 0.000000 0.000000 0.000000 0.000000 0.000000 0.000000 0.000000 0.000000 0.000000 0.000000 0.000000 0.000000 0.000000 0.000000 0.000000 0.000000 0.000000 0.000000 0.000000 20.530052 20.530052 20.530052 20.530052 20.530052 20.530052 20.530052 20.530052 20.530052 20.530052 20.530052 0.000000 0.000000 0.000000 0.000000 0.000000 0.000000
0.000000 0.000000 0.000000 0.000000 0.000000 0.000000 29.562836 29.562836 29.562836 29.562836 29.562836 29.562836 29.562836 29.562836 29.562836 29.562836 29.562836 29.562836 29.562836 29.562836 29.562836 29.562836 0.000000 0.000000 0.000000 0.000000 0.000000 0.000000 0.000000 0.000000 0.000000 0.000000 0.000000 0.000000 0.000000 0.000000 0.000000 0.000000 0.000000 0.000000 0.000000 0.000000 0.000000 0.000000 0.000000 0.000000 0.000000 24.702095 24.702095 24.702095 24.702095 24.702095 24.702095 24.702095 24.702095 24.702095 24.702095 24.702095 18.380398 18.380398 18.380398 18.380398 18.380398 18.380398 18.380398 0.000000 0.000000 0.000000 0.000000 0.000000 0.000000 0.000000 0.000000 0.000000 0.000000 0.000000 0.000000 0.000000 0.000000 0.000000 0.000000 0.000000 0.000000 0.000000 0.000000 0.000000 20.530052 20.530052 20.530052 20.530052 20.530052 20.530052 20.530052 20.530052 20.530052 20.530052 20.530052 0.000000 0.000000 0.000000 0.000000 0.000000 0.000000
0.000000 0.000000 0.000000 0.000000 0.000000 0.000000 29.562836 29.562836 29.562836 29.562836 29.562836 29.562836 29.562836 29.562836 29.562836 29.562836 29.562836 29.562836 29.562836 29.562836 29.562836 29.562836 0.000000 0.000000 0.000000 0.000000 0.000000 0.000000 0.000000 0.000000 0.000000 0.000000 0.000000 0.000000 0.000000 0.000000 0.000000 0.000000 0.000000 0.000000 0.000000 0.000000 0.000000 0.000000 0.000000 0.000000 0.000000 24.702095 24.702095 24.702095 24.702095 24.702095 24.702095 24.702095 24.702095 24.702095 24.702095 24.702095 18.380398 18.380398 18.380398 18.380398 18.380398 18.380398 18.380398 0.000000 0.000000 0.000000 0.000000 0.000000 0.000000 0.000000 0.000000 0.000000 0.000000 0.000000 0.000000 0.000000 0.000000 0.000000 0.000000 0.000000 0.000000 0.000000 0.000000 0.000000 20.530052 20.530052 20.530052 20.530052 20.530052 20.530052 20.530052 20.530052 20.530052 20.530052 20.530052 0.000000 0.000000 0.000000 0.000000 0.000000 0.000000
0.000000 0.000000 0.000000 0.000000 0.000000 0.000000 29.562836 29.562836 29.562836 29.562836 29.562836 29.562836 29.562836 29.562836 29.562836 29.562836 29.562836 29.562836 29.562836 29.562836 29.562836 29.562836 0.000000 0.000000 0.000000 0.000000 0.000000 0.000000 0.000000 0.000000 0.000000 0.000000 0.000000 0.000000 0.000000 0.000000 0.000000 0.000000 0.000000 0.000000 0.000000 0.000000 0.000000 0.000000 0.000000 0.000000 0.000000 24.702095 24.702095 24.702095 24.702095 24.702095 24.702095 24.702095 24.702095 24.702095 24.702095 24.702095 18.380398 18.380398 18.380398 18.380398 18.380398 18.380398 18.380398 0.000000 0.000000 0.000000 0.000000 0.000000 0.000000 0.000000 0.000000 0.000000 0.000000 0.000000 0.000000 0.000000 0.000000 0.000000 0.000000 0.000000 0.000000 0.000000 0.000000 0.000000 20.530052 20.530052 20.530052 20.530052 20.530052 20.530052 20.530052 20.530052 20.530052 20.530052 20.530052 0.000000 0.000000 0.000000 0.000000 0.000000 0.000000
0.000000 0.000000 0.000000 0.000000 0.000000 0.000000 29.562836 29.562836 29.562836 29.562836 29.562836 29.562836 29.562836 29.562836 29.562836 29.562836 29.562836 29.562836 29.562836 29.562836 29.562836 29.562836 0.000000 0.000000 0.000000 0.000000 0.000000 0.000000 0.000000 0.000000 0.000000 0.000000 0.000000 0.000000 0.000000 0.000000 0.000000 0.000000 0.000000 0.000000 0.000000 0.000000 0.000000 0.000000 0.000000 0.000000 0.000000 24.702095 24.702095 24.702095 24.702095 24.702095 24.702095 24.702095 24.702095 24.702095 24.702095 24.702095 18.380398 18.380398 18.380398 18.380398 18.380398 18.380398 18.380398 0.000000 0.000000 0.000000 0.000000 0.000000 0.000000 0.000000 0.000000 0.000000 0.000000 0.000000 0.000000 0.000000 0.000000 0.000000 0.000000 0.000000 0.000000 0.000000 0.000000 0.000000 20.530052 20.530052 20.530052 20.530052 20.530052 20.530052 20.530052 20.530052 20.530052 20.530052 20.530052 0.000000 0.000000 0.000000 0.000000 0.000000 0.000000
0.000000 0.000000 0.000000 0.000000 0.000000 0.000000 0.000000 0.000000 0.000000 0.000000 0.000000 0.000000 0.000000 0.000000 0.000000 0.000000 0.000000 0.000000 0.000000 0.000000 0.000000 0.000000 0.000000 0.000000 0.000000 0.000000 0.000000 0.000000 0.000000 0.000000 0.000000 0.000000 0.000000 0.000000 0.000000 0.000000 0.000000 0.000000 0.000000 0.000000 0.000000 0.000000 0.000000 0.000000 0.000000 0.000000 0.000000 24.702095 24.702095 24.702095 24.702095 24.702095 24.702095 24.702095 24.702095 24.702095 24.702095 24.702095 18.380398 18.380398 18.380398 18.380398 18.380398 18.380398 18.380398 0.000000 0.000000 0.000000 0.000000 0.000000 0.000000 0.000000 0.000000 0.000000 0.000000 0.000000 0.000000 0.000000 0.000000 0.000000 0.000000 0.000000 0.000000 0.000000 0.000000 0.000000 0.000000 0.000000 0.000000 0.000000 0.000000 0.000000 0.000000 0.000000 0.000000 0.000000 0.000000 0.000000 0.000000 0.000000 0.000000 0.000000 0.000000
0.000000 0.000000 0.000000 0.000000 0.000000 0.000000 0.000000 0.000000 0.000000 0.000000 0.000000 0.000000 0.000000 0.000000 0.000000 0.000000 0.000000 0.000000 0.000000 0.000000 0.000000 0.000000 0.000000 0.000000 0.000000 0.000000 0.000000 0.000000 0.000000 0.000000 0.000000 0.000000 0.000000 0.000000 0.000000 0.000000 0.000000 0.000000 0.000000 0.000000 0.000000 0.000000 0.000000 0.000000 0.000000 0.000000 0.000000 24.702095 24.702095 24.702095 24.702095 24.702095 24.702095 24.702095 24.702095 24.702095 24.702095 24.702095 18.380398 18.380398 18.380398 18.380398 18.380398 18.380398 18.380398 0.000000 0.000000 0.000000 0.000000 0.000000 0.000000 0.000000 0.000000 0.000000 0.000000 0.000000 0.000000 0.000000 0.000000 0.000000 0.000000 0.000000 0.000000 0.000000 0.000000 0.000000 0.000000 0.000000 0.000000 0.000000 0.000000 0.000000 0.000000 0.000000 0.000000 0.000000 0.000000 0.000000 0.000000 0.000000 0.000000 0.000000 0.000000
0.000000 0.000000 0.000000 0.000000 0.000000 0.000000 0.000000 0.000000 0.000000 0.000000 0.000000 0.000000 0.000000 0.000000 0.000000 0.000000 0.000000 0.000000 0.000000 0.000000 0.000000 0.000000 0.000000 0.000000 0.000000 0.000000 0.000000 0.000000 0.000000 0.000000 0.000000 0.000000 0.000000 0.000000 0.000000 0.000000 0.000000 0.000000 0.000000 0.000000 0.000000 0.000000 0.000000 0.000000 0.000000 0.000000 0.000000 0.000000 0.000000 0.000000 0.000000 0.000000 0.000000 0.000000 0.000000 0.000000 0.000000 0.000000 0.000000 0.000000 0.000000 0.000000 0.000000 0.000000 0.000000 0.000000 0.000000 0.000000 0.000000 0.000000 0.000000 0.000000 0.000000 0.000000 0.000000 0.000000 0.000000 0.000000 0.000000 0.000000 0.000000 0.000000 0.000000 0.000000 0.000000 0.000000 0.000000 0.000000 0.000000 0.000000 0.000000 0.000000 0.000000 0.000000 0.000000 0.000000 0.000000 0.000000 0.000000 0.000000 0.000000 0.000000 0.000000
0.000000 0.000000 0.000000 0.000000 0.000000 0.000000 0.000000 0.000000 0.000000 0.000000 0.000000 0.000000 0.000000 0.000000 0.000000 0.000000 0.000000 0.000000 0.000000 0.000000 0.000000 0.000000 0.000000 0.000000 0.000000 0.000000 0.000000 0.000000 0.000000 0.000000 0.000000 0.000000 0.000000 0.000000 0.000000 0.000000 0.000000 0.000000 0.000000 0.000000 0.000000 0.000000 0.000000 0.000000 0.000000 0.000000 0.000000 0.000000 0.000000 0.000000 0.000000 0.000000 0.000000 0.000000 0.000000 0.000000 0.000000 0.000000 0.000000 0.000000 0.000000 0.000000 0.000000 0.000000 0.000000 0.000000 0.000000 0.000000 0.000000 0.000000 0.000000 0.000000 0.000000 0.000000 0.000000 0.000000 0.000000 0.000000 0.000000 0.000000 0.000000 0.000000 0.000000 0.000000 0.000000 0.000000 0.000000 0.000000 0.000000 0.000000 0.000000 0.000000 0.000000 0.000000 0.000000 0.000000 0.000000 0.000000 0.000000 0.000000 0.000000 0.000000 0.000000
0.000000 0.000000 0.000000 0.000000 0.000000 0.000000 0.000000 0.000000 0.000000 0.000000 0.000000 0.000000 0.000000 0.000000 0.000000 0.000000 0.000000 0.000000 0.000000 0.000000 0.000000 0.000000 0.000000 0.000000 0.000000 0.000000 0.000000 0.000000 0.000000 0.000000 0.000000 0.000000 0.000000 0.000000 0.000000 0.000000 0.000000 0.000000 0.000000 0.000000 0.000000 0.000000 0.000000 0.000000 0.000000 0.000000 0.000000 0.000000 0.000000 0.000000 0.000000 0.000000 0.000000 0.000000 0.000000 0.000000 0.000000 0.000000 0.000000 0.000000 0.000000 0.000000 0.000000 0.000000 0.000000 0.000000 0.000000 0.000000 0.000000 0.000000 0.000000 0.000000 0.000000 0.000000 0.000000 0.000000 0.000000 0.000000 0.000000 0.000000 0.000000 0.000000 0.000000 0.000000 0.000000 0.000000 0.000000 0.000000 0.000000 0.000000 0.000000 0.000000 0.000000 0.000000 0.000000 0.000000 0.000000 0.000000 0.000000 0.000000 0.000000 0.000000 0.000000
0.000000 0.000000 0.000000 0.000000 0.000000 0.000000 0.000000 0.000000 0.000000 0.000000 0.000000 0.000000 0.000000 0.000000 0.000000 0.000000 0.000000 0.000000 0.000000 0.000000 0.000000 0.000000 0.000000 0.000000 0.000000 0.000000 0.000000 0.000000 0.000000 0.000000 0.000000 0.000000 0.000000 0.000000 0.000000 0.000000 0.000000 0.000000 0.000000 0.000000 0.000000 0.000000 0.000000 0.000000 0.000000 0.000000 0.000000 0.000000 0.000000 0.000000 0.000000 0.000000 0.000000 0.000000 0.000000 0.000000 0.000000 0.000000 0.000000 0.000000 0.000000 0.000000 0.000000 0.000000 0.000000 0.000000 0.000000 0.000000 0.000000 0.000000 0.000000 0.000000 0.000000 0.000000 0.000000 0.000000 0.000000 0.000000 0.000000 0.000000 0.000000 0.000000 0.000000 0.000000 0.000000 0.000000 0.000000 0.000000 0.000000 0.000000 0.000000 0.000000 0.000000 0.000000 0.000000 0.000000 0.000000 0.000000 0.000000 0.000000 0.000000 0.000000 0.000000
0.000000 0.000000 0.000000 0.000000 0.000000 0.000000 0.000000 0.000000 0.000000 0.000000 0.000000 0.000000 0.000000 0.000000 0.000000 0.000000 0.000000 0.000000 0.000000 0.000000 0.000000 0.000000 0.000000 0.000000 0.000000 0.000000 0.000000 0.000000 0.000000 0.000000 0.000000 0.000000 0.000000 0.000000 0.000000 0.000000 0.000000 0.000000 0.000000 0.000000 0.000000 0.000000 0.000000 0.000000 0.000000 0.000000 0.000000 0.000000 0.000000 0.000000 0.000000 0.000000 0.000000 0.000000 0.000000 0.000000 0.000000 0.000000 0.000000 0.000000 0.000000 0.000000 0.000000 0.000000 0.000000 0.000000 0.000000 0.000000 0.000000 0.000000 0.000000 0.000000 0.000000 0.000000 0.000000 0.000000 0.000000 0.000000 0.000000 0.000000 0.000000 0.000000 0.000000 0.000000 0.000000 0.000000 0.000000 0.000000 0.000000 0.000000 0.000000 0.000000 0.000000 0.000000 0.000000 0.000000 0.000000 0.000000 0.000000 0.000000 0.000000 0.000000 0.000000
0.000000 0.000000 0.000000 0.000000 20.492709 20.492709 20.492709 20.492709 20.492709 20.492709 20.492709 20.492709 20.492709 26.507563 26.507563 26.507563 26.507563 26.507563 26.507563 26.507563 26.507563 26.507563 26.507563 26.507563 0.000000 0.000000 0.000000 0.000000 0.000000 0.000000 0.000000 0.000000 0.000000 0.000000 0.000000 0.000000 0.000000 0.000000 0.000000 0.000000 0.000000 0.000000 0.000000 0.000000 0.000000 0.000000 0.000000 24.076600 24.076600 24.076600 24.076600 24.076600 24.076600 24.076600 24.076600 24.076600 24.076600 18.992337 18.992337 18.992337 18.992337 18.992337 18.992337 18.992337 18.992337 0.000000 0.000000 0.000000 0.000000 0.000000 18.357592 18.357592 18.357592 18.357592 18.357592 18.357592 18.357592 18.357592 16.362821 16.362821 16.362821 16.362821 16.362821 16.362821 16.362821 35.305751 35.305751 35.305751 35.305751 35.305751 35.305751 35.305751 35.305751 35.305751 35.305751 35.305751 35.305751 35.305751 35.305751 0.000000 0.000000 0.000000 0.000000
0.000000 0.000000 0.000000 0.000000 20.492709 20.492709 20.492709 20.492709 20.492709 20.492709 20.492709 20.492709 20.492709 26.507563 26.507563 26.507563 26.507563 26.507563 26.507563 26.507563 26.507563 26.507563 26.507563 26.507563 0.000000 0.000000 0.000000 0.000000 0.000000 0.000000 0.000000 0.000000 0.000000 0.000000 0.000000 0.000000 0.000000 0.000000 0.000000 0.000000 0.000000 0.000000 0.000000 0.000000 0.000000 0.000000 0.000000 24.076600 24.076600 24.076600 24.076600 24.076600 24.076600 24.076600 24.076600 24.076600 24.076600 18.992337 18.992337 18.992337 18.992337 18.992337 18.992337 18.992337 18.992337 0.000000 0.000000 0.000000 0.000000 0.000000 18.357592 18.357592 18.357592 18.357592 18.357592 18.357592 18.357592 18.357592 16.362821 16.362821 16.362821 16.362821 16.362821 16.362821 16.362821 35.305751 35.305751 35.305751 35.305751 35.305751 35.305751 35.305751 35.305751 35.305751 35.305751 35.305751 35.305751 35.305751 35.305751 0.000000 0.000000 0.000000 0.000000
0.000000 0.000000 0.000000 0.000000 20.492709 20.492709 20.492709 20.492709 20.492709 20.492709 20.492709 20.492709 20.492709 26.507563 26.507563 26.507563 26.507563 26.507563 26.507563 26.507563 26.507563 26.507563 26.507563 26.507563 0.000000 0.000000 0.000000 0.000000 0.000000 0.000000 0.000000 14.603485 14.603485 14.603485 14.603485 14.603485 14.603485 14.603485 14.603485 14.603485 0.000000 0.000000 0.000000 0.000000 0.000000 0.000000 0.000000 24.076600 24.076600 24.076600 24.076600 24.076600 24.076600 24.076600 24.076600 24.076600 24.076600 18.992337 18.992337 18.992337 18.992337 18.992337 18.992337 18.992337 18.992337 0.000000 0.000000 0.000000 0.000000 0.000000 18.357592 18.357592 18.357592 18.357592 18.357592 18.357592 18.357592 18.357592 16.362821 16.362821 16.362821 16.362821 16.362821 16.362821 16.362821 35.305751 35.305751 35.305751 35.305751 35.305751 35.305751 35.305751 35.305751 35.305751 35.305751 35.305751 35.305751 35.305751 35.305751 0.000000 0.000000 0.000000 0.000000
0.000000 0.000000 0.000000 0.000000 20.492709 20.492709 20.492709 20.492709 20.492709 20.492709 20.492709 20.492709 20.492709 26.507563 26.507563 26.507563 26.507563 26.507563 26.507563 26.507563 26.507563 26.507563 26.507563 26.507563 0.000000 0.000000 0.000000 0.000000 0.000000 0.000000 0.000000 14.603485 14.603485 14.603485 14.603485 14.603485 14.603485 14.603485 14.603485 14.603485 0.000000 0.000000 0.000000 0.000000 0.000000 0.000000 0.000000 24.076600 24.076600 24.076600 24.076600 24.076600 24.076600 24.076600 24.076600 24.076600 24.076600 18.992337 18.992337 18.992337 18.992337 18.992337 18.992337 18.992337 18.992337 0.000000 0.000000 0.000000 0.000000 0.000000 18.357592 18.357592 18.357592 18.357592 18.357592 18.357592 18.357592 18.357592 16.362821 16.362821 16.362821 16.362821 16.362821 16.362821 16.362821 35.305751 35.305751 35.305751 35.305751 35.305751 35.305751 35.305751 35.305751 35.305751 35.305751 35.305751 35.305751 35.305751 35.305751 0.000000 0.000000 0.000000 0.000000
0.000000 0.000000 0.000000 0.000000 20.492709 20.492709 20.492709 20.492709 20.492709 20.492709 20.492709 20.492709 20.492709 26.507563 26.507563 26.507563 26.507563 26.507563 26.507563 26.507563 26.507563 26.507563 26.507563 26.507563 0.000000 0.000000 0.000000 0.000000 0.000000 0.000000 0.000000 14.603485 14.603485 14.603485 14.603485 14.603485 14.603485 14.603485 14.603485 14.603485 0.000000 0.000000 0.000000 0.000000 0.000000 0.000000 0.000000 24.076600 24.076600 24.076600 24.076600 24.076600 24.076600 24.076600 24.076600 24.076600 24.076600 18.992337 18.992337 18.992337 18.992337 18.992337 18.992337 18.992337 18.992337 0.000000 0.000000 0.000000 0.000000 0.000000 18.357592 18.357592 18.357592 18.357592 18.357592 18.357592 18.357592 18.357592 16.362821 16.362821 16.362821 16.362821 16.362821 16.362821 16.362821 35.305751 35.305751 35.305751 35.305751 35.305751 35.305751 35.305751 35.305751 35.305751 35.305751 35.305751 35.305751 35.305751 35.305751 0.000000 0.000000 0.000000 0.000000
0.000000 0.000000 0.000000 0.000000 20.492709 20.492709 20.492709 20.492709 20.492709 20.492709 20.492709 20.492709 20.492709 26.507563 26.507563 26.507563 26.507563 26.507563 26.507563 26.507563 26.507563 26.507563 26.507563 26.507563 0.000000 0.000000 0.000000 0.000000 0.000000 0.000000 0.000000 14.603485 14.603485 14.603485 14.603485 14.603485 14.603485 14.603485 14.603485 14.603485 0.000000 0.000000 0.000000 0.000000 0.000000 0.000000 0.000000 24.076600 24.076600 24.076600 24.076600 24.076600 24.076600 24.076600 24.076600 24.076600 24.076600 18.992337 18.992337 18.992337 18.992337 18.992337 18.992337 18.992337 18.992337 0.000000 0.000000 0.000000 0.000000 0.000000 18.357592 18.357592 18.357592 18.357592 18.357592 18.357592 18.357592 18.357592 16.362821 16.362821 16.362821 16.362821 16.362821 16.362821 16.362821 35.305751 35.305751 35.305751 35.305751 35.305751 35.305751 35.305751 35.305751 35.305751 35.305751 35.305751 35.305751 35.305751 35.305751 0.000000 0.000000 0.000000 0.000000
0.000000 0.000000 0.000000 0.000000 20.492709 20.492709 20.492709 20.492709 20.492709 20.492709 20.492709 20.492709 20.492709 26.507563 26.507563 26.507563 26.507563 26.507563 26.507563 26.507563 26.507563 26.507563 26.507563 26.507563 0.000000 0.000000 0.000000 0.000000 0.000000 0.000000 0.000000 14.603485 14.603485 14.603485 14.603485 14.603485 14.603485 14.603485 14.603485 14.603485 0.000000 0.000000 0.000000 0.000000 0.000000 0.000000 0.000000 24.076600 24.076600 24.076600 24.076600 24.076600 24.076600 24.076600 24.076600 24.076600 24.076600 18.992337 18.992337 18.992337 18.992337 18.992337 18.992337 18.992337 18.992337 0.000000 0.000000 0.000000 0.000000 0.000000 18.357592 18.357592 18.357592 18.357592 18.357592 18.357592 18.357592 18.357592 16.362821 16.362821 16.362821 16.362821 16.362821 16.362821 16.362821 35.305751 35.305751 35.305751 35.305751 35.305751 35.305751 35.305751 35.305751 35.305751 35.305751 35.305751 35.305751 35.305751 35.305751 0.000000 0.000000 0.000000 0.000000
0.000000 0.000000 0.000000 0.000000 20.492709 20.492709 20.492709 20.492709 20.492709 20.492709 20.492709 20.492709 20.492709 26.507563 26.507563 26.507563 26.507563 26.507563 26.507563 26.507563 26.507563 26.507563 26.507563 26.507563 0.000000 0.000000 0.000000 0.000000 0.000000 0.000000 0.000000 14.603485 14.603485 14.603485 14.603485 14.603485 14.603485 14.603485 14.603485 14.603485 0.000000 0.000000 0.000000 0.000000 0.000000 0.000000 0.000000 24.076600 24.076600 24.076600 24.076600 24.076600 24.076600 24.076600 24.076600 24.076600 24.076600 18.992337 18.992337 18.992337 18.992337 18.992337 18.992337 18.992337 18.992337 0.000000 0.000000 0.000000 0.000000 0.000000 18.357592 18.357592 18.357592 18.357592 18.357592 18.357592 18.357592 18.357592 16.362821 16.362821 16.362821 16.362821 16.362821 16.362821 16.362821 35.305751 35.305751 35.305751 35.305751 35.305751 35.305751 35.305751 35.305751 35.305751 35.305751 35.305751 35.305751 35.305751 35.305751 0.000000 0.000000 0.000000 0.000000
0.000000 0.000000 0.000000 0.000000 20.492709 20.492709 20.492709 20.492709 20.492709 20.492709 20.492709 20.492709 20.492709 26.507563 26.507563 26.507563 26.507563 26.507563 26.507563 26.507563 26.507563 26.507563 26.507563 26.507563 0.000000 0.000000 0.000000 0.000000 0.000000 0.000000 0.000000 0.000000 0.000000 0.000000 0.000000 0.000000 0.000000 0.000000 0.000000 0.000000 0.000000 0.000000 0.000000 0.000000 0.000000 0.000000 0.000000 24.076600 24.076600 24.076600 24.076600 24.076600 24.076600 24.076600 24.076600 24.076600 24.076600 18.992337 18.992337 18.992337 18.992337 18.992337 18.992337 18.992337 18.992337 0.000000 0.000000 0.000000 0.000000 0.000000 18.357592 18.357592 18.357592 18.357592 18.357592 18.357592 18.357592 18.357592 16.362821 16.362821 16.362821 16.362821 16.362821 16.362821 16.362821 35.305751 35.305751 35.305751 35.305751 35.305751 35.305751 35.305751 35.305751 35.305751 35.305751 35.305751 35.305751 35.305751 35.305751 0.000000 0.000000 0.000000 0.000000
0.000000 0.000000 0.000000 0.000000 20.492709 20.492709 20.492709 20.492709 20.492709 20.492709 20.492709 20.492709 20.492709 26.507563 26.507563 26.507563 26.507563 26.507563 26.507563 26.507563 26.507563 26.507563 26.507563 26.507563 0.000000 0.000000 0.000000 0.000000 0.000000 0.000000 0.000000 0.000000 0.000000 0.000000 0.000000 0.000000 0.000000 0.000000 0.000000 0.000000 0.000000 0.000000 0.000000 0.000000 0.000000 0.000000 0.000000 24.076600 24.076600 24.076600 24.076600 24.076600 24.076600 24.076600 24.076600 24.076600 24.076600 18.992337 18.992337 18.992337 18.992337 18.992337 18.992337 18.992337 18.992337 0.000000 0.000000 0.000000 0.000000 0.000000 18.357592 18.357592 18.357592 18.357592 18.357592 18.357592 18.357592 18.357592 16.362821 16.362821 16.362821 16.362821 16.362821 16.362821 16.362821 35.305751 35.305751 35.305751 35.305751 35.305751 35.305751 35.305751 35.305751 35.305751 35.305751 35.305751 35.305751 35.305751 35.305751 0.000000 0.000000 0.000000 0.000000
0.000000 0.000000 0.000000 0.000000 0.000000 0.000000 0.000000 0.000000 0.000000 0.000000 0.000000 0.000000 0.000000 0.000000 0.000000 0.000000 0.000000 0.000000 0.000000 0.000000 0.000000 0.000000 0.000000 0.000000 0.000000 0.000000 0.000000 0.000000 0.000000 0.000000 0.000000 0.000000 0.000000 0.000000 0.000000 0.000000 0.000000 0.000000 0.000000 0.000000 0.000000 0.000000 0.000000 0.000000 0.000000 0.000000 0.000000 0.000000 0.000000 0.000000 0.000000 0.000000 0.000000 0.000000 0.000000 0.000000 0.000000 0.000000 0.000000 0.000000 0.000000 0.000000 0.000000 0.000000 0.000000 0.000000 0.000000 0.000000 0.000000 0.000000 0.000000 0.000000 0.000000 0.000000 0.000000 0.000000 0.000000 0.000000 0.000000 0.000000 0.000000 0.000000 0.000000 0.000000 0.000000 0.000000 0.000000 0.000000 0.000000 0.000000 0.000000 0.000000 0.000000 0.000000 0.000000 0.000000 0.000000 0.000000 0.000000 0.000000 0.000000 0.000000 0.000000
0.000000 0.000000 0.000000 0.000000 0.000000 0.000000 0.000000 0.000000 0.000000 0.000000 0.000000 0.000000 0.000000 0.000000 0.000000 0.000000 0.000000 0.000000 0.000000 0.000000 0.000000 0.000000 0.000000 0.000000 0.000000 0.000000 0.000000 0.000000 0.000000 0.000000 0.000000 0.000000 0.000000 0.000000 0.000000 0.000000 0.000000 0.000000 0.000000 0.000000 0.000000 0.000000 0.000000 0.000000 0.000000 0.000000 0.000000 0.000000 0.000000 0.000000 0.000000 0.000000 0.000000 0.000000 0.000000 0.000000 0.000000 0.000000 0.000000 0.000000 0.000000 0.000000 0.000000 0.000000 0.000000 0.000000 0.000000 0.000000 0.000000 0.000000 0.000000 0.000000 0.000000 0.000000 0.000000 0.000000 0.000000 0.000000 0.000000 0.000000 0.000000 0.000000 0.000000 0.000000 0.000000 0.000000 0.000000 0.000000 0.000000 0.000000 0.000000 0.000000 0.000000 0.000000 0.000000 0.000000 0.000000 0.000000 0.000000 0.000000 0.000000 0.000000 0.000000
0.000000 0.000000 0.000000 0.000000 0.000000 0.000000 0.000000 0.000000 0.000000 0.000000 0.000000 0.000000 0.000000 0.000000 0.000000 0.000000 0.000000 0.000000 0.000000 0.000000 0.000000 0.000000 0.000000 0.000000 0.000000 0.000000 0.000000 0.000000 0.000000 0.000000 0.000000 0.000000 0.000000 0.000000 0.000000 0.000000 0.000000 0.000000 0.000000 0.000000 0.000000 0.000000 0.000000 0.000000 0.000000 0.000000 0.000000 0.000000 0.000000 0.000000 0.000000 0.000000 0.000000 0.000000 0.000000 0.000000 0.000000 0.000000 0.000000 0.000000 0.000000 0.000000 0.000000 0.000000 0.000000 0.000000 0.000000 0.000000 0.000000 0.000000 0.000000 0.000000 0.000000 0.000000 0.000000 0.000000 0.000000 0.000000 0.000000 0.000000 0.000000 0.000000 0.000000 0.000000 0.000000 0.000000 0.000000 0.000000 0.000000 0.000000 0.000000 0.000000 0.000000 0.000000 0.000000 0.000000 0.000000 0.000000 0.000000 0.000000 0.000000 0.000000 0.000000
0.000000 0.000000 0.000000 0.000000 0.000000 0.000000 0.000000 0.000000 0.000000 0.000000 0.000000 0.000000 0.000000 0.000000 0.000000 0.000000 0.000000 0.000000 0.000000 0.000000 0.000000 0.000000 0.000000 0.000000 0.000000 0.000000 0.000000 0.000000 0.000000 0.000000 0.000000 0.000000 0.000000 0.000000 0.000000 0.000000 0.000000 0.000000 0.000000 0.000000 0.000000 0.000000 0.000000 0.000000 0.000000 0.000000 0.000000 0.000000 0.000000 0.000000 0.000000 0.000000 0.000000 0.000000 0.000000 0.000000 0.000000 0.000000 0.000000 0.000000 0.000000 0.000000 0.000000 0.000000 0.000000 0.000000 0.000000 0.000000 0.000000 0.000000 0.000000 0.000000 0.000000 0.000000 0.000000 0.000000 0.000000 0.000000 0.000000 0.000000 0.000000 0.000000 0.000000 0.000000 0.000000 0.000000 0.000000 0.000000 0.000000 0.000000 0.000000 0.000000 0.000000 0.000000 0.000000 0.000000 0.000000 0.000000 0.000000 0.000000 0.000000 0.000000 0.000000
