0.000000 0.000000 0.000000 0.000000 0.000000 0.000000 0.000000 0.000000 0.000000 0.000000 0.000000 0.000000 0.000000 0.000000 0.000000 0.000000 0.000000 0.000000 0.000000 0.000000 0.000000 0.000000 0.000000 0.000000 0.000000 0.000000 0.000000 0.000000 0.000000 0.000000 0.000000 0.000000 0.000000 0.000000 0.000000 0.000000 0.000000 0.000000 0.000000 0.000000 0.000000 0.000000 0.000000 0.000000 0.000000 0.000000 0.000000 0.000000 0.000000 0.000000 0.000000 0.000000 0.000000 0.000000 0.000000 0.000000 0.000000 0.000000 0.000000 0.000000 0.000000 0.000000 0.000000 0.000000 0.000000 0.000000 0.000000 0.000000 0.000000 0.000000 0.000000 0.000000 0.000000 0.000000 0.000000 0.000000 0.000000 0.000000 0.000000 0.000000 0.000000 0.000000 0.000000 0.000000 0.000000 0.000000 0.000000 0.000000 0.000000 0.000000 0.000000 0.000000 0.000000 0.000000 0.000000 0.000000 0.000000 0.000000 0.000000 0.000000 0.000000 0.000000 0.000000
0.000000 0.000000 0.000000 0.000000 0.000000 0.000000 0.000000 0.000000 0.000000 0.000000 0.000000 0.000000 0.000000 0.000000 0.000000 0.000000 0.000000 0.000000 0.000000 0.000000 0.000000 0.000000 0.000000 0.000000 0.000000 0.000000 0.000000 0.000000 0.000000 0.000000 0.000000 0.000000 0.000000 0.000000 0.000000 0.000000 0.000000 0.000000 0.000000 0.000000 0.000000 0.000000 0.000000 0.000000 0.000000 0.000000 0.000000 0.000000 0.000000 0.000000 0.000000 0.000000 0.000000 0.000000 0.000000 0.000000 0.000000 0.000000 0.000000 0.000000 0.000000 0.000000 0.000000 0.000000 0.000000 0.000000 0.000000 0.000000 0.000000 0.000000 0.000000 0.000000 0.000000 0.000000 0.000000 0.000000 0.000000 0.000000 0.000000 0.000000 0.000000 0.000000 0.000000 0.000000 0.000000 0.000000 0.000000 0.000000 0.000000 0.000000 0.000000 0.000000 0.000000 0.000000 0.000000 0.000000 0.000000 0.000000 0.000000 0.000000 0.000000 0.000000 0.000000
0.000000 0.000000 0.000000 0.000000 0.000000 0.000000 0.000000 0.000000 0.000000 0.000000 0.000000 0.000000 0.000000 0.000000 0.000000 0.000000 0.000000 0.000000 0.000000 0.000000 0.000000 0.000000 0.000000 0.000000 0.000000 0.000000 0.000000 0.000000 0.000000 0.000000 0.000000 0.000000 0.000000 0.000000 0.000000 0.000000 0.000000 0.000000 0.000000 0.000000 0.000000 0.000000 0.000000 0.000000 0.000000 0.000000 0.000000 0.000000 0.000000 0.000000 0.000000 0.000000 0.000000 0.000000 0.000000 0.000000 0.000000 0.000000 0.000000 0.000000 0.000000 0.000000 0.000000 0.000000 0.000000 0.000000 0.000000 0.000000 0.000000 0.000000 0.000000 0.000000 0.000000 0.000000 0.000000 0.000000 0.000000 0.000000 0.000000 0.000000 0.000000 0.000000 0.000000 0.000000 0.000000 0.000000 0.000000 0.000000 0.000000 0.000000 0.000000 0.000000 0.000000 0.000000 0.000000 0.000000 0.000000 0.000000 0.000000 0.000000 0.000000 0.000000 0.000000
0.000000 0.000000 0.000000 0.000000 0.000000 0.000000 0.000000 0.000000 0.000000 0.000000 0.000000 0.000000 0.000000 0.000000 0.000000 0.000000 0.000000 0.000000 0.000000 0.000000 0.000000 0.000000 0.000000 0.000000 0.000000 0.000000 0.000000 0.000000 0.000000 0.000000 0.000000 0.000000 0.000000 0.000000 0.000000 0.000000 0.000000 0.000000 0.000000 0.000000 0.000000 0.000000 0.000000 0.000000 0.000000 0.000000 0.000000 0.000000 0.000000 0.000000 0.000000 0.000000 0.000000 0.000000 0.000000 0.000000 0.000000 0.000000 0.000000 0.000000 0.000000 0.000000 0.000000 0.000000 0.000000 0.000000 0.000000 0.000000 0.000000 0.000000 0.000000 0.000000 0.000000 0.000000 0.000000 0.000000 0.000000 0.000000 0.000000 0.000000 0.000000 0.000000 0.000000 0.000000 0.000000 0.000000 0.000000 0.000000 0.000000 0.000000 0.000000 0.000000 0.000000 0.000000 0.000000 0.000000 0.000000 0.000000 0.000000 0.000000 0.000000 0.000000 0.000000
0.000000 0.000000 0.000000 0.000000 0.000000 0.000000 0.000000 0.000000 0.000000 0.000000 0.000000 0.000000 0.000000 0.000000 0.000000 0.000000 0.000000 0.000000 0.000000 0.000000 0.000000 0.000000 0.000000 0.000000 0.000000 0.000000 0.000000 0.000000 0.000000 0.000000 0.000000 0.000000 0.000000 0.000000 0.000000 0.000000 0.000000 0.000000 0.000000 0.000000 0.000000 0.000000 0.000000 0.000000 0.000000 0.000000 0.000000 0.000000 0.000000 0.000000 0.000000 0.000000 0.000000 0.000000 0.000000 0.000000 0.000000 0.000000 14.446905 14.446905 14.446905 14.446905 14.446905 14.446905 14.446905 14.446905 14.446905 14.446905 0.000000 0.000000 0.000000 0.000000 0.000000 0.000000 0.000000 0.000000 0.000000 0.000000 0.000000 0.000000 0.000000 0.000000 0.000000 0.000000 0.000000 0.000000 0.000000 0.000000 0.000000 0.000000 0.000000 0.000000 0.000000 0.000000 0.000000 0.000000 0.000000 0.000000 0.000000 0.000000 0.000000 0.000000 0.000000
0.000000 0.000000 0.000000 0.000000 0.000000 0.000000 0.000000 0.000000 0.000000 0.000000 0.000000 0.000000 0.000000 0.000000 0.000000 0.000000 0.000000 0.000000 0.000000 0.000000 0.000000 0.000000 0.000000 0.000000 0.000000 0.000000 0.000000 0.000000 0.000000 0.000000 0.000000 0.000000 0.000000 0.000000 0.000000 0.000000 0.000000 0.000000 0.000000 0.000000 0.000000 0.000000 0.000000 0.000000 0.000000 0.000000 0.000000 0.000000 0.000000 0.000000 0.000000 0.000000 0.000000 0.000000 0.000000 0.000000 0.000000 0.000000 14.446905 14.446905 14.446905 14.446905 14.446905 14.446905 14.446905 14.446905 14.446905 14.446905 0.000000 0.000000 0.000000 0.000000 0.000000 0.000000 0.000000 0.000000 0.000000 0.000000 0.000000 0.000000 0.000000 0.000000 0.000000 0.000000 0.000000 0.000000 0.000000 0.000000 0.000000 0.000000 0.000000 0.000000 0.000000 0.000000 0.000000 0.000000 0.000000 0.000000 0.000000 0.000000 0.000000 0.000000 0.000000
0.000000 0.000000 0.000000 0.000000 0.000000 0.000000 20.192896 20.192896 20.192896 20.192896 20.192896 20.192896 20.192896 20.192896 20.192896 0.000000 0.000000 0.000000 19.361617 19.361617 19.361617 19.361617 19.361617 19.361617 19.361617 19.361617 0.000000 0.000000 0.000000 0.000000 0.000000 0.000000 0.000000 0.000000 0.000000 23.988254 23.988254 23.988254 23.988254 23.988254 23.988254 0.000000 0.000000 0.000000 0.000000 24.363256 24.363256 24.363256 24.363256 24.363256 24.363256 24.363256 0.000000 0.000000 0.000000 0.000000 0.000000 0.000000 14.446905 14.446905 14.446905 14.446905 14.446905 14.446905 14.446905 14.446905 14.446905 14.446905 0.000000 0.000000 0.000000 0.000000 0.000000 0.000000 0.000000 0.000000 0.000000 0.000000 0.000000 0.000000 0.000000 0.000000 0.000000 0.000000 0.000000 0.000000 18.750262 18.750262 18.750262 18.750262 18.750262 18.750262 18.750262 18.750262 18.750262 18.750262 18.750262 0.000000 0.000000 0.000000 0.000000 0.000000 0.000000
0.000000 0.000000 0.000000 0.000000 0.000000 0.000000 20.192896 20.192896 20.192896 20.192896 20.192896 20.192896 20.192896 20.192896 20.192896 0.000000 0.000000 0.000000 19.361617 19.361617 19.361617 19.361617 19.361617 19.361617 19.361617 19.361617 0.000000 0.000000 0.000000 0.000000 0.000000 0.000000 0.000000 0.000000 0.000000 23.988254 23.988254 23.988254 23.988254 23.988254 23.988254 0.000000 0.000000 0.000000 0.000000 24.363256 24.363256 24.363256 24.363256 24.363256 24.363256 24.363256 0.000000 0.000000 0.000000 0.000000 0.000000 0.000000 14.446905 14.446905 14.446905 14.446905 14.446905 14.446905 14.446905 14.446905 14.446905 14.446905 0.000000 0.000000 0.000000 0.000000 0.000000 0.000000 0.000000 0.000000 0.000000 0.000000 0.000000 0.000000 0.000000 0.000000 0.000000 0.000000 0.000000 0.000000 18.750262 18.750262 18.750262 18.750262 18.750262 18.750262 18.750262 18.750262 18.750262 18.750262 18.750262 0.000000 0.000000 0.000000 0.000000 0.000000 0.000000
0.000000 0.000000 0.000000 0.000000 0.000000 0.000000 20.192896 20.192896 20.192896 20.192896 20.192896 20.192896 20.192896 20.192896 20.192896 0.000000 0.000000 0.000000 19.361617 19.361617 19.361617 19.361617 19.361617 19.361617 19.361617 19.361617 0.000000 0.000000 0.000000 0.000000 0.000000 0.000000 0.000000 0.000000 0.000000 23.988254 23.988254 23.988254 23.988254 23.988254 23.988254 0.000000 0.000000 0.000000 0.000000 24.363256 24.363256 24.363256 24.363256 24.363256 24.363256 24.363256 0.000000 0.000000 0.000000 0.000000 0.000000 0.000000 14.446905 14.446905 14.446905 14.446905 14.446905 14.446905 14.446905 14.446905 14.446905 14.446905 0.000000 0.000000 0.000000 0.000000 0.000000 0.000000 0.000000 0.000000 0.000000 0.000000 0.000000 0.000000 0.000000 0.000000 0.000000 0.000000 0.000000 0.000000 18.750262 18.750262 18.750262 18.750262 18.750262 18.750262 18.750262 18.750262 18.750262 18.750262 18.750262 0.000000 0.000000 0.000000 0.000000 0.000000 0.000000
0.000000 0.000000 0.000000 0.000000 0.000000 0.000000 20.192896 20.192896 20.192896 20.192896 20.192896 20.192896 20.192896 20.192896 20.192896 0.000000 0.000000 0.000000 19.361617 19.361617 19.361617 19.361617 19.361617 19.361617 19.361617 19.361617 0.000000 0.000000 0.000000 0.000000 0.000000 0.000000 0.000000 0.000000 0.000000 23.988254 23.988254 23.988254 23.988254 23.988254 23.988254 0.000000 0.000000 0.000000 0.000000 24.363256 24.363256 24.363256 24.363256 24.363256 24.363256 24.363256 0.000000 0.000000 0.000000 0.000000 0.000000 0.000000 14.446905 14.446905 14.446905 14.446905 14.446905 14.446905 14.446905 14.446905 14.446905 14.446905 0.000000 0.000000 0.000000 0.000000 0.000000 0.000000 0.000000 0.000000 0.000000 0.000000 0.000000 0.000000 0.000000 0.000000 0.000000 0.000000 0.000000 0.000000 18.750262 18.750262 18.750262 18.750262 18.750262 18.750262 18.750262 18.750262 18.750262 18.750262 18.750262 0.000000 0.000000 0.000000 0.000000 0.000000 0.000000
0.000000 0.000000 0.000000 0.000000 0.000000 0.000000 20.192896 20.192896 20.192896 20.192896 20.192896 20.192896 20.192896 20.192896 20.192896 0.000000 0.000000 0.000000 19.361617 19.361617 19.361617 19.361617 19.361617 19.361617 19.361617 19.361617 0.000000 0.000000 0.000000 0.000000 0.000000 0.000000 0.000000 0.000000 0.000000 23.988254 23.988254 23.988254 23.988254 23.988254 23.988254 0.000000 0.000000 0.000000 0.000000 24.363256 24.363256 24.363256 24.363256 24.363256 24.363256 24.363256 0.000000 0.000000 0.000000 0.000000 0.000000 0.000000 47.967228 47.967228 47.967228 47.967228 47.967228 47.967228 47.967228 47.967228 47.967228 47.967228 0.000000 0.000000 0.000000 0.000000 0.000000 0.000000 0.000000 0.000000 0.000000 0.000000 0.000000 0.000000 0.000000 0.000000 0.000000 0.000000 0.000000 0.000000 18.750262 18.750262 18.750262 18.750262 18.750262 18.750262 18.750262 18.750262 18.750262 18.750262 18.750262 0.000000 0.000000 0.000000 0.000000 0.000000 0.000000
0.000000 0.000000 0.000000 0.000000 0.000000 0.000000 20.192896 20.192896 20.192896 20.192896 20.192896 20.192896 20.192896 20.192896 20.192896 0.000000 0.000000 0.000000 19.361617 19.361617 19.361617 19.361617 19.361617 19.361617 19.361617 19.361617 0.000000 0.000000 0.000000 0.000000 0.000000 0.000000 0.000000 0.000000 0.000000 23.988254 23.988254 23.988254 23.988254 23.988254 23.988254 0.000000 0.000000 0.000000 0.000000 24.363256 24.363256 24.363256 24.363256 24.363256 24.363256 24.363256 0.000000 0.000000 0.000000 0.000000 0.000000 0.000000 47.967228 47.967228 47.967228 47.967228 47.967228 47.967228 47.967228 47.967228 47.967228 47.967228 0.000000 0.000000 0.000000 0.000000 0.000000 0.000000 0.000000 0.000000 0.000000 0.000000 0.000000 0.000000 0.000000 0.000000 0.000000 0.000000 0.000000 0.000000 18.750262 18.750262 18.750262 18.750262 18.750262 18.750262 18.750262 18.750262 18.750262 18.750262 18.750262 0.000000 0.000000 0.000000 0.000000 0.000000 0.000000
0.000000 0.000000 0.000000 0.000000 0.000000 0.000000 20.192896 20.192896 20.192896 20.192896 20.192896 20.192896 20.192896 20.192896 20.192896 0.000000 0.000000 0.000000 19.361617 19.361617 19.361617 19.361617 19.361617 19.361617 19.361617 19.361617 0.000000 0.000000 0.000000 0.000000 0.000000 0.000000 0.000000 0.000000 0.000000 23.988254 23.988254 23.988254 23.988254 23.988254 23.988254 0.000000 0.000000 0.000000 0.000000 24.363256 24.363256 24.363256 24.363256 24.363256 24.363256 24.363256 0.000000 0.000000 0.000000 0.000000 0.000000 0.000000 47.967228 47.967228 47.967228 47.967228 47.967228 47.967228 47.967228 47.967228 47.967228 47.967228 0.000000 0.000000 0.000000 0.000000 0.000000 0.000000 0.000000 0.000000 0.000000 0.000000 0.000000 0.000000 0.000000 0.000000 0.000000 0.000000 0.000000 0.000000 0.000000 0.000000 0.000000 0.000000 0.000000 0.000000 0.000000 0.000000 0.000000 0.000000 0.000000 0.000000 0.000000 0.000000 0.000000 0.000000 0.000000
0.000000 0.000000 0.000000 0.000000 0.000000 0.000000 20.192896 20.192896 20.192896 20.192896 20.192896 20.192896 20.192896 20.192896 20.192896 0.000000 0.000000 0.000000 19.361617 19.361617 19.361617 19.361617 19.361617 19.361617 19.361617 19.361617 0.000000 0.000000 0.000000 0.000000 0.000000 0.000000 0.000000 0.000000 0.000000 23.988254 23.988254 23.988254 23.988254 23.988254 23.988254 0.000000 0.000000 0.000000 0.000000 24.363256 24.363256 24.363256 24.363256 24.363256 24.363256 24.363256 0.000000 0.000000 0.000000 0.000000 0.000000 0.000000 47.967228 47.967228 47.967228 47.967228 47.967228 47.967228 47.967228 47.967228 47.967228 47.967228 0.000000 0.000000 0.000000 0.000000 0.000000 0.000000 0.000000 0.000000 0.000000 0.000000 0.000000 0.000000 0.000000 0.000000 0.000000 0.000000 0.000000 0.000000 0.000000 0.000000 0.000000 0.000000 0.000000 0.000000 0.000000 0.000000 0.000000 0.000000 0.000000 0.000000 0.000000 0.000000 0.000000 0.000000 0.000000
0.000000 0.000000 0.000000 0.000000 0.000000 0.000000 20.192896 20.192896 20.192896 20.192896 20.192896 20.192896 20.192896 20.192896 20.192896 0.000000 0.000000 0.000000 19.361617 19.361617 19.361617 19.361617 19.361617 19.361617 19.361617 19.361617 0.000000 0.000000 0.000000 0.000000 0.000000 0.000000 0.000000 0.000000 0.000000 23.988254 23.988254 23.988254 23.988254 23.988254 23.988254 0.000000 0.000000 0.000000 0.000000 24.363256 24.363256 24.363256 24.363256 24.363256 24.363256 24.363256 0.000000 0.000000 0.000000 0.000000 0.000000 0.000000 47.967228 47.967228 47.967228 47.967228 47.967228 47.967228 47.967228 47.967228 47.967228 47.967228 0.000000 0.000000 0.000000 0.000000 0.000000 0.000000 0.000000 0.000000 0.000000 0.000000 0.000000 0.000000 0.000000 0.000000 0.000000 0.000000 0.000000 0.000000 0.000000 0.000000 0.000000 0.000000 0.000000 0.000000 0.000000 0.000000 0.000000 0.000000 0.000000 0.000000 0.000000 0.000000 0.000000 0.000000 0.000000
0.000000 0.000000 0.000000 0.000000 0.000000 0.000000 20.192896 20.192896 20.192896 20.192896 20.192896 20.192896 20.192896 20.192896 20.192896 0.000000 0.000000 0.000000 19.361617 19.361617 19.361617 19.361617 19.361617 19.361617 19.361617 19.361617 0.000000 0.000000 0.000000 0.000000 0.000000 0.000000 0.000000 0.000000 0.000000 23.988254 23.988254 23.988254 23.988254 23.988254 23.988254 0.000000 0.000000 0.000000 0.000000 24.363256 24.363256 24.363256 24.363256 24.363256 24.363256 24.363256 0.000000 0.000000 0.000000 0.000000 0.000000 0.000000 47.967228 47.967228 47.967228 47.967228 47.967228 47.967228 47.967228 47.967228 47.967228 47.967228 0.000000 0.000000 0.000000 0.000000 0.000000 0.000000 0.000000 0.000000 0.000000 0.000000 0.000000 0.000000 0.000000 0.000000 0.000000 0.000000 0.000000 0.000000 0.000000 0.000000 0.000000 0.000000 0.000000 0.000000 0.000000 0.000000 0.000000 0.000000 0.000000 0.000000 0.000000 0.000000 0.000000 0.000000 0.000000
0.000000 0.000000 0.000000 0.000000 0.000000 0.000000 0.000000 0.000000 0.000000 0.000000 0.000000 0.000000 0.000000 0.000000 0.000000 0.000000 0.000000 0.000000 0.000000 0.000000 0.000000 0.000000 0.000000 0.000000 0.000000 0.000000 0.000000 0.000000 0.000000 0.000000 0.000000 0.000000 0.000000 0.000000 0.000000 23.988254 23.988254 23.988254 23.988254 23.988254 23.988254 0.000000 0.000000 0.000000 0.000000 24.363256 24.363256 24.363256 24.363256 24.363256 24.363256 24.363256 0.000000 0.000000 0.000000 0.000000 0.000000 0.000000 47.967228 47.967228 47.967228 47.967228 47.967228 47.967228 47.967228 47.967228 47.967228 47.967228 0.000000 0.000000 0.000000 0.000000 0.000000 0.000000 0.000000 19.498922 19.498922 19.498922 19.498922 19.498922 19.498922 19.498922 0.000000 0.000000 0.000000 0.000000 31.409996 31.409996 31.409996 31.409996 31.409996 31.409996 31.409996 31.409996 31.409996 31.409996 31.409996 0.000000 0.000000 0.000000 0.000000 0.000000 0.000000
0.000000 0.000000 0.000000 0.000000 0.000000 0.000000 0.000000 0.000000 0.000000 0.000000 0.000000 0.000000 0.000000 0.000000 0.000000 0.000000 0.000000 0.000000 0.000000 0.000000 0.000000 0.000000 0.000000 0.000000 0.000000 0.000000 0.000000 0.000000 0.000000 0.000000 0.000000 0.000000 0.000000 0.000000 0.000000 23.988254 23.988254 23.988254 23.988254 23.988254 23.988254 0.000000 0.000000 0.000000 0.000000 24.363256 24.363256 24.363256 24.363256 24.363256 24.363256 24.363256 0.000000 0.000000 0.000000 0.000000 0.000000 0.000000 47.967228 47.967228 47.967228 47.967228 47.967228 47.967228 47.967228 47.967228 47.967228 47.967228 0.000000 0.000000 0.000000 0.000000 0.000000 0.000000 0.000000 19.498922 19.498922 19.498922 19.498922 19.498922 19.498922 19.498922 0.000000 0.000000 0.000000 0.000000 31.409996 31.409996 31.409996 31.409996 31.409996 31.409996 31.409996 31.409996 31.409996 31.409996 31.409996 0.000000 0.000000 0.000000 0.000000 0.000000 0.000000
0.000000 0.000000 0.000000 0.000000 0.000000 0.000000 0.000000 0.000000 0.000000 0.000000 0.000000 0.000000 0.000000 0.000000 0.000000 0.000000 0.000000 0.000000 0.000000 0.000000 0.000000 0.000000 0.000000 0.000000 0.000000 0.000000 0.000000 0.000000 0.000000 0.000000 0.000000 0.000000 0.000000 0.000000 0.000000 23.988254 23.988254 23.988254 23.988254 23.988254 23.988254 0.000000 0.000000 0.000000 0.000000 24.363256 24.363256 24.363256 24.363256 24.363256 24.363256 24.363256 0.000000 0.000000 0.000000 0.000000 0.000000 0.000000 47.967228 47.967228 47.967228 47.967228 47.967228 47.967228 47.967228 47.967228 47.967228 47.967228 0.000000 0.000000 0.000000 0.000000 0.000000 0.000000 0.000000 19.498922 19.498922 19.498922 19.498922 19.498922 19.498922 19.498922 0.000000 0.000000 0.000000 0.000000 31.409996 31.409996 31.409996 31.409996 31.409996 31.409996 31.409996 31.409996 31.409996 31.409996 31.409996 0.000000 0.000000 0.000000 0.000000 0.000000 0.000000
0.000000 0.000000 0.000000 0.000000 0.000000 0.000000 0.000000 0.000000 0.000000 0.000000 0.000000 0.000000 0.000000 0.000000 0.000000 0.000000 0.000000 0.000000 13.511948 13.511948 13.511948 13.511948 13.511948 13.511948 13.511948 13.511948 0.000000 0.000000 0.000000 0.000000 0.000000 0.000000 0.000000 0.000000 0.000000 23.988254 23.988254 23.988254 23.988254 23.988254 23.988254 0.000000 0.000000 0.000000 0.000000 24.363256 24.363256 24.363256 24.363256 24.363256 24.363256 24.363256 0.000000 0.000000 0.000000 0.000000 0.000000 0.000000 47.967228 47.967228 47.967228 47.967228 47.967228 47.967228 47.967228 47.967228 47.967228 47.967228 0.000000 0.000000 0.000000 0.000000 0.000000 0.000000 0.000000 19.498922 19.498922 19.498922 19.498922 19.498922 19.498922 19.498922 0.000000 0.000000 0.000000 0.000000 31.409996 31.409996 31.409996 31.409996 31.409996 31.409996 31.409996 31.409996 31.409996 31.409996 31.409996 0.000000 0.000000 0.000000 0.000000 0.000000 0.000000
0.000000 0.000000 0.000000 0.000000 0.000000 0.000000 0.000000 0.000000 0.000000 0.000000 0.000000 0.000000 0.000000 0.000000 0.000000 0.000000 0.000000 0.000000 13.511948 13.511948 13.511948 13.511948 13.511948 13.511948 13.511948 13.511948 0.000000 0.000000 0.000000 0.000000 0.000000 0.000000 0.000000 0.000000 0.000000 23.988254 23.988254 23.988254 23.988254 23.988254 23.988254 0.000000 0.000000 0.000000 0.000000 24.363256 24.363256 24.363256 24.363256 24.363256 24.363256 24.363256 0.000000 0.000000 0.000000 0.000000 0.000000 0.000000 47.967228 47.967228 47.967228 47.967228 47.967228 47.967228 47.967228 47.967228 47.967228 47.967228 0.000000 0.000000 0.000000 0.000000 0.000000 0.000000 0.000000 19.498922 19.498922 19.498922 19.498922 19.498922 19.498922 19.498922 0.000000 0.000000 0.000000 0.000000 31.409996 31.409996 31.409996 31.409996 31.409996 31.409996 31.409996 31.409996 31.409996 31.409996 31.409996 0.000000 0.000000 0.000000 0.000000 0.000000 0.000000
0.000000 0.000000 0.000000 0.000000 0.000000 0.000000 0.000000 0.000000 0.000000 0.000000 0.000000 0.000000 0.000000 0.000000 0.000000 0.000000 0.000000 0.000000 13.511948 13.511948 13.511948 13.511948 13.511948 13.511948 13.511948 13.511948 0.000000 0.000000 0.000000 0.000000 0.000000 0.000000 0.000000 0.000000 0.000000 23.988254 23.988254 23.988254 23.988254 23.988254 23.988254 0.000000 0.000000 0.000000 0.000000 24.363256 24.363256 24.363256 24.363256 24.363256 24.363256 24.363256 0.000000 0.000000 0.000000 0.000000 0.000000 0.000000 47.967228 47.967228 47.967228 47.967228 47.967228 47.967228 47.967228 47.967228 47.967228 47.967228 0.000000 0.000000 0.000000 0.000000 0.000000 0.000000 0.000000 19.498922 19.498922 19.498922 19.498922 19.498922 19.498922 19.498922 0.000000 0.000000 0.000000 0.000000 31.409996 31.409996 31.409996 31.409996 31.409996 31.409996 31.409996 31.409996 31.409996 31.409996 31.409996 0.000000 0.000000 0.000000 0.000000 0.000000 0.000000
0.000000 0.000000 0.000000 0.000000 0.000000 0.000000 0.000000 0.000000 0.000000 0.000000 0.000000 0.000000 0.000000 0.000000 0.000000 0.000000 0.000000 0.000000 13.511948 13.511948 13.511948 13.511948 13.511948 13.511948 13.511948 13.511948 0.000000 0.000000 0.000000 0.000000 0.000000 0.000000 0.000000 0.000000 0.000000 0.000000 0.000000 0.000000 0.000000 0.000000 0.000000 0.000000 0.000000 0.000000 0.000000 0.000000 0.000000 0.000000 0.000000 0.000000 0.000000 0.000000 0.000000 0.000000 0.000000 0.000000 0.000000 0.000000 47.967228 47.967228 47.967228 47.967228 47.967228 47.967228 47.967228 47.967228 47.967228 47.967228 0.000000 0.000000 0.000000 0.000000 0.000000 0.000000 0.000000 19.498922 19.498922 19.498922 19.498922 19.498922 19.498922 19.498922 0.000000 0.000000 0.000000 0.000000 31.409996 31.409996 31.409996 31.409996 31.409996 31.409996 31.409996 31.409996 31.409996 31.409996 31.409996 0.000000 0.000000 0.000000 0.000000 0.000000 0.000000
0.000000 0.000000 0.000000 0.000000 0.000000 0.000000 0.000000 0.000000 0.000000 0.000000 0.000000 0.000000 0.000000 0.000000 0.000000 0.000000 0.000000 0.000000 13.511948 13.511948 13.511948 13.511948 13.511948 13.511948 13.511948 13.511948 0.000000 0.000000 0.000000 0.000000 0.000000 0.000000 0.000000 0.000000 0.000000 0.000000 0.000000 0.000000 0.000000 0.000000 0.000000 0.000000 0.000000 0.000000 0.000000 0.000000 0.000000 0.000000 0.000000 0.000000 0.000000 0.000000 0.000000 0.000000 0.000000 0.000000 0.000000 0.000000 47.967228 47.967228 47.967228 47.967228 47.967228 47.967228 47.967228 47.967228 47.967228 47.967228 0.000000 0.000000 0.000000 0.000000 0.000000 0.000000 0.000000 19.498922 19.498922 19.498922 19.498922 19.498922 19.498922 19.498922 0.000000 0.000000 0.000000 0.000000 31.409996 31.409996 31.409996 31.409996 31.409996 31.409996 31.409996 31.409996 31.409996 31.409996 31.409996 0.000000 0.000000 0.000000 0.000000 0.000000 0.000000
0.000000 0.000000 0.000000 0.000000 0.000000 0.000000 0.000000 0.000000 0.000000 0.000000 0.000000 0.000000 0.000000 0.000000 0.000000 0.000000 0.000000 0.000000 13.511948 13.511948 13.511948 13.511948 13.511948 13.511948 13.511948 13.511948 0.000000 0.000000 0.000000 0.000000 0.000000 0.000000 0.000000 0.000000 0.000000 0.000000 0.000000 0.000000 0.000000 0.000000 0.000000 0.000000 0.000000 0.000000 0.000000 0.000000 0.000000 0.000000 0.000000 0.000000 0.000000 0.000000 0.000000 0.000000 0.000000 0.000000 0.000000 0.000000 47.967228 47.967228 47.967228 47.967228 47.967228 47.967228 47.967228 47.967228 47.967228 47.967228 0.000000 0.000000 0.000000 0.000000 0.000000 0.000000 0.000000 19.498922 19.498922 19.498922 19.498922 19.498922 19.498922 19.498922 0.000000 0.000000 0.000000 0.000000 31.409996 31.409996 31.409996 31.409996 31.409996 31.409996 31.409996 31.409996 31.409996 31.409996 31.409996 0.000000 0.000000 0.000000 0.000000 0.000000 0.000000
0.000000 0.000000 0.000000 0.000000 0.000000 0.000000 0.000000 0.000000 0.000000 0.000000 0.000000 0.000000 0.000000 0.000000 0.000000 0.000000 0.000000 0.000000 13.511948 13.511948 13.511948 13.511948 13.511948 13.511948 13.511948 13.511948 0.000000 0.000000 0.000000 0.000000 0.000000 0.000000 0.000000 0.000000 0.000000 19.519943 19.519943 19.519943 19.519943 19.519943 19.519943 0.000000 0.000000 0.000000 0.000000 19.825093 19.825093 19.825093 19.825093 19.825093 19.825093 19.825093 0.000000 0.000000 0.000000 0.000000 0.000000 0.000000 47.967228 47.967228 47.967228 47.967228 47.967228 47.967228 47.967228 47.967228 47.967228 47.967228 0.000000 0.000000 0.000000 0.000000 0.000000 0.000000 0.000000 19.498922 19.498922 19.498922 19.498922 19.498922 19.498922 19.498922 0.000000 0.000000 0.000000 0.000000 31.409996 31.409996 31.409996 31.409996 31.409996 31.409996 31.409996 31.409996 31.409996 31.409996 31.409996 0.000000 0.000000 0.000000 0.000000 0.000000 0.000000
0.000000 0.000000 0.000000 0.000000 0.000000 0.000000 0.000000 0.000000 0.000000 0.000000 0.000000 0.000000 0.000000 0.000000 0.000000 0.000000 0.000000 0.000000 0.000000 0.000000 0.000000 0.000000 0.000000 0.000000 0.000000 0.000000 0.000000 0.000000 0.000000 0.000000 0.000000 0.000000 0.000000 0.000000 0.000000 19.519943 19.519943 19.519943 19.519943 19.519943 19.519943 0.000000 0.000000 0.000000 0.000000 19.825093 19.825093 19.825093 19.825093 19.825093 19.825093 19.825093 0.000000 0.000000 0.000000 0.000000 0.000000 0.000000 47.967228 47.967228 47.967228 47.967228 47.967228 47.967228 47.967228 47.967228 47.967228 47.967228 0.000000 0.000000 0.000000 0.000000 0.000000 0.000000 0.000000 19.498922 19.498922 19.498922 19.498922 19.498922 19.498922 19.498922 0.000000 0.000000 0.000000 0.000000 31.409996 31.409996 31.409996 31.409996 31.409996 31.409996 31.409996 31.409996 31.409996 31.409996 31.409996 0.000000 0.000000 0.000000 0.000000 0.000000 0.000000
0.000000 0.000000 0.000000 0.000000 0.000000 0.000000 0.000000 0.000000 0.000000 0.000000 0.000000 0.000000 0.000000 0.000000 0.000000 0.000000 0.000000 0.000000 0.000000 0.000000 0.000000 0.000000 0.000000 0.000000 0.000000 0.000000 0.000000 0.000000 0.000000 0.000000 0.000000 0.000000 0.000000 0.000000 0.000000 19.519943 19.519943 19.519943 19.519943 19.519943 19.519943 0.000000 0.000000 0.000000 0.000000 19.825093 19.825093 19.825093 19.825093 19.825093 19.825093 19.825093 0.000000 0.000000 0.000000 0.000000 0.000000 0.000000 47.967228 47.967228 47.967228 47.967228 47.967228 47.967228 47.967228 47.967228 47.967228 47.967228 0.000000 0.000000 0.000000 0.000000 0.000000 0.000000 0.000000 0.000000 0.000000 0.000000 0.000000 0.000000 0.000000 0.000000 0.000000 0.000000 0.000000 0.000000 0.000000 0.000000 0.000000 0.000000 0.000000 0.000000 0.000000 0.000000 0.000000 0.000000 0.000000 0.000000 0.000000 0.000000 0.000000 0.000000 0.000000
0.000000 0.000000 0.000000 0.000000 0.000000 0.000000 0.000000 0.000000 0.000000 0.000000 0.000000 0.000000 0.000000 0.000000 0.000000 0.000000 0.000000 0.000000 0.000000 0.000000 0.000000 0.000000 0.000000 0.000000 0.000000 0.000000 0.000000 0.000000 0.000000 0.000000 0.000000 0.000000 0.000000 0.000000 0.000000 19.519943 19.519943 19.519943 19.519943 19.519943 19.519943 0.000000 0.000000 0.000000 0.000000 19.825093 19.825093 19.825093 19.825093 19.825093 19.825093 19.825093 0.000000 0.000000 0.000000 0.000000 0.000000 0.000000 47.967228 47.967228 47.967228 47.967228 47.967228 47.967228 47.967228 47.967228 47.967228 47.967228 0.000000 0.000000 0.000000 0.000000 0.000000 0.000000 0.000000 0.000000 0.000000 0.000000 0.000000 0.000000 0.000000 0.000000 0.000000 0.000000 0.000000 0.000000 0.000000 0.000000 0.000000 0.000000 0.000000 0.000000 0.000000 0.000000 0.000000 0.000000 0.000000 0.000000 0.000000 0.000000 0.000000 0.000000 0.000000
0.000000 0.000000 0.000000 0.000000 0.000000 0.000000 0.000000 0.000000 0.000000 0.000000 0.000000 0.000000 0.000000 0.000000 0.000000 0.000000 0.000000 0.000000 0.000000 0.000000 0.000000 0.000000 0.000000 0.000000 0.000000 0.000000 0.000000 0.000000 0.000000 0.000000 0.000000 0.000000 0.000000 0.000000 0.000000 19.519943 19.519943 19.519943 19.519943 19.519943 19.519943 0.000000 0.000000 0.000000 0.000000 19.825093 19.825093 19.825093 19.825093 19.825093 19.825093 19.825093 0.000000 0.000000 0.000000 0.000000 0.000000 0.000000 47.967228 47.967228 47.967228 47.967228 47.967228 47.967228 47.967228 47.967228 47.967228 47.967228 0.000000 0.000000 0.000000 0.000000 0.000000 0.000000 0.000000 0.000000 0.000000 0.000000 0.000000 0.000000 0.000000 0.000000 0.000000 0.000000 0.000000 0.000000 0.000000 0.000000 0.000000 0.000000 0.000000 0.000000 0.000000 0.000000 0.000000 0.000000 0.000000 0.000000 0.000000 0.000000 0.000000 0.000000 0.000000
0.000000 0.000000 0.000000 0.000000 0.000000 0.000000 16.509819 16.509819 16.509819 16.509819 16.509819 16.509819 16.509819 16.509819 16.509819 0.000000 0.000000 0.000000 15.830161 15.830161 15.830161 15.830161 15.830161 15.830161 15.830161 15.830161 0.000000 0.000000 0.000000 0.000000 0.000000 0.000000 0.000000 0.000000 0.000000 19.519943 19.519943 19.519943 19.519943 19.519943 19.519943 0.000000 0.000000 0.000000 0.000000 19.825093 19.825093 19.825093 19.825093 19.825093 19.825093 19.825093 0.000000 0.000000 0.000000 0.000000 0.000000 0.000000 47.967228 47.967228 47.967228 47.967228 47.967228 47.967228 47.967228 47.967228 47.967228 47.967228 0.000000 0.000000 0.000000 0.000000 0.000000 0.000000 0.000000 0.000000 0.000000 0.000000 0.000000 0.000000 0.000000 0.000000 0.000000 0.000000 0.000000 0.000000 0.000000 0.000000 0.000000 0.000000 0.000000 0.000000 0.000000 0.000000 0.000000 0.000000 0.000000 0.000000 0.000000 0.000000 0.000000 0.000000 0.000000
0.000000 0.000000 0.000000 0.000000 0.000000 0.000000 16.509819 16.509819 16.509819 16.509819 16.509819 16.509819 16.509819 16.509819 16.509819 0.000000 0.000000 0.000000 15.830161 15.830161 15.830161 15.830161 15.830161 15.830161 15.830161 15.830161 0.000000 0.000000 0.000000 0.000000 0.000000 0.000000 0.000000 0.000000 0.000000 19.519943 19.519943 19.519943 19.519943 19.519943 19.519943 0.000000 0.000000 0.000000 0.000000 19.825093 19.825093 19.825093 19.825093 19.825093 19.825093 19.825093 0.000000 0.000000 0.000000 0.000000 0.000000 0.000000 47.967228 47.967228 47.967228 47.967228 47.967228 47.967228 47.967228 47.967228 47.967228 47.967228 0.000000 0.000000 0.000000 0.000000 0.000000 0.000000 0.000000 0.000000 0.000000 0.000000 0.000000 0.000000 0.000000 0.000000 0.000000 0.000000 0.000000 0.000000 20.192683 20.192683 20.192683 20.192683 20.192683 20.192683 20.192683 20.192683 20.192683 20.192683 20.192683 0.000000 0.000000 0.000000 0.000000 0.000000 0.000000
0.000000 0.000000 0.000000 0.000000 0.000000 0.000000 16.509819 16.509819 16.509819 16.509819 16.509819 16.509819 16.509819 16.509819 16.509819 0.000000 0.000000 0.000000 15.830161 15.830161 15.830161 15.830161 15.830161 15.830161 15.830161 15.830161 0.000000 0.000000 0.000000 0.000000 0.000000 0.000000 0.000000 0.000000 0.000000 19.519943 19.519943 19.519943 19.519943 19.519943 19.519943 0.000000 0.000000 0.000000 0.000000 19.825093 19.825093 19.825093 19.825093 19.825093 19.825093 19.825093 0.000000 0.000000 0.000000 0.000000 0.000000 0.000000 0.000000 0.000000 0.000000 0.000000 0.000000 0.000000 0.000000 0.000000 0.000000 0.000000 0.000000 0.000000 0.000000 0.000000 0.000000 0.000000 0.000000 0.000000 0.000000 0.000000 0.000000 0.000000 0.000000 0.000000 0.000000 0.000000 0.000000 0.000000 20.192683 20.192683 20.192683 20.192683 20.192683 20.192683 20.192683 20.192683 20.192683 20.192683 20.192683 0.000000 0.000000 0.000000 0.000000 0.000000 0.000000
0.000000 0.000000 0.000000 0.000000 0.000000 0.000000 16.509819 16.509819 16.509819 16.509819 16.509819 16.509819 16.509819 16.509819 16.509819 0.000000 0.000000 0.000000 15.830161 15.830161 15.830161 15.830161 15.830161 15.830161 15.830161 15.830161 0.000000 0.000000 0.000000 0.000000 0.000000 0.000000 0.000000 0.000000 0.000000 19.519943 19.519943 19.519943 19.519943 19.519943 19.519943 0.000000 0.000000 0.000000 0.000000 19.825093 19.825093 19.825093 19.825093 19.825093 19.825093 19.825093 0.000000 0.000000 0.000000 0.000000 0.000000 0.000000 0.000000 0.000000 0.000000 0.000000 0.000000 0.000000 0.000000 0.000000 0.000000 0.000000 0.000000 0.000000 0.000000 0.000000 0.000000 0.000000 0.000000 0.000000 0.000000 0.000000 0.000000 0.000000 0.000000 0.000000 0.000000 0.000000 0.000000 0.000000 20.192683 20.192683 20.192683 20.192683 20.192683 20.192683 20.192683 20.192683 20.192683 20.192683 20.192683 0.000000 0.000000 0.000000 0.000000 0.000000 0.000000
0.000000 0.000000 0.000000 0.000000 0.000000 0.000000 16.509819 16.509819 16.509819 16.509819 16.509819 16.509819 16.509819 16.509819 16.509819 0.000000 0.000000 0.000000 15.830161 15.830161 15.830161 15.830161 15.830161 15.830161 15.830161 15.830161 0.000000 0.000000 0.000000 0.000000 0.000000 0.000000 0.000000 0.000000 0.000000 19.519943 19.519943 19.519943 19.519943 19.519943 19.519943 0.000000 0.000000 0.000000 0.000000 19.825093 19.825093 19.825093 19.825093 19.825093 19.825093 19.825093 0.000000 0.000000 0.000000 0.000000 0.000000 0.000000 0.000000 0.000000 0.000000 0.000000 0.000000 0.000000 0.000000 0.000000 0.000000 0.000000 0.000000 0.000000 0.000000 0.000000 0.000000 0.000000 0.000000 0.000000 0.000000 0.000000 0.000000 0.000000 0.000000 0.000000 0.000000 0.000000 0.000000 0.000000 20.192683 20.192683 20.192683 20.192683 20.192683 20.192683 20.192683 20.192683 20.192683 20.192683 20.192683 0.000000 0.000000 0.000000 0.000000 0.000000 0.000000
0.000000 0.000000 0.000000 0.000000 0.000000 0.000000 16.509819 16.509819 16.509819 16.509819 16.509819 16.509819 16.509819 16.509819 16.509819 0.000000 0.000000 0.000000 15.830161 15.830161 15.830161 15.830161 15.830161 15.830161 15.830161 15.830161 0.000000 0.000000 0.000000 0.000000 0.000000 0.000000 0.000000 0.000000 0.000000 19.519943 19.519943 19.519943 19.519943 19.519943 19.519943 0.000000 0.000000 0.000000 0.000000 19.825093 19.825093 19.825093 19.825093 19.825093 19.825093 19.825093 0.000000 0.000000 0.000000 0.000000 0.000000 0.000000 0.000000 0.000000 0.000000 0.000000 0.000000 0.000000 0.000000 0.000000 0.000000 0.000000 0.000000 0.000000 0.000000 0.000000 0.000000 0.000000 0.000000 0.000000 0.000000 0.000000 0.000000 0.000000 0.000000 0.000000 0.000000 0.000000 0.000000 0.000000 20.192683 20.192683 20.192683 20.192683 20.192683 20.192683 20.192683 20.192683 20.192683 20.192683 20.192683 0.000000 0.000000 0.000000 0.000000 0.000000 0.000000
0.000000 0.000000 0.000000 0.000000 0.000000 0.000000 16.509819 16.509819 16.509819 16.509819 16.509819 16.509819 16.509819 16.509819 16.509819 0.000000 0.000000 0.000000 15.830161 15.830161 15.830161 15.830161 15.830161 15.830161 15.830161 15.830161 0.000000 0.000000 0.000000 0.000000 0.000000 0.000000 0.000000 0.000000 0.000000 19.519943 19.519943 19.519943 19.519943 19.519943 19.519943 0.000000 0.000000 0.000000 0.000000 19.825093 19.825093 19.825093 19.825093 19.825093 19.825093 19.825093 0.000000 0.000000 0.000000 0.000000 0.000000 0.000000 0.000000 0.000000 0.000000 0.000000 0.000000 0.000000 0.000000 0.000000 0.000000 0.000000 0.000000 0.000000 0.000000 0.000000 0.000000 0.000000 0.000000 0.000000 0.000000 0.000000 0.000000 0.000000 0.000000 0.000000 0.000000 0.000000 0.000000 0.000000 20.192683 20.192683 20.192683 20.192683 20.192683 20.192683 20.192683 20.192683 20.192683 20.192683 20.192683 0.000000 0.000000 0.000000 0.000000 0.000000 0.000000
0.000000 0.000000 0.000000 0.000000 0.000000 0.000000 16.509819 16.509819 16.509819 16.509819 16.509819 16.509819 16.509819 16.509819 16.509819 0.000000 0.000000 0.000000 15.830161 15.830161 15.830161 15.830161 15.830161 15.830161 15.830161 15.830161 0.000000 0.000000 0.000000 0.000000 0.000000 0.000000 0.000000 0.000000 0.000000 19.519943 19.519943 19.519943 19.519943 19.519943 19.519943 0.000000 0.000000 0.000000 0.000000 19.825093 19.825093 19.825093 19.825093 19.825093 19.825093 19.825093 0.000000 0.000000 0.000000 0.000000 0.000000 0.000000 0.000000 0.000000 0.000000 0.000000 0.000000 0.000000 0.000000 0.000000 0.000000 0.000000 0.000000 0.000000 0.000000 0.000000 0.000000 0.000000 0.000000 0.000000 0.000000 0.000000 0.000000 0.000000 0.000000 0.000000 0.000000 0.000000 0.000000 0.000000 20.192683 20.192683 20.192683 20.192683 20.192683 20.192683 20.192683 20.192683 20.192683 20.192683 20.192683 0.000000 0.000000 0.000000 0.000000 0.000000 0.000000
0.000000 0.000000 0.000000 0.000000 0.000000 0.000000 0.000000 0.000000 0.000000 0.000000 0.000000 0.000000 0.000000 0.000000 0.000000 0.000000 0.000000 0.000000 0.000000 0.000000 0.000000 0.000000 0.000000 0.000000 0.000000 0.000000 0.000000 0.000000 0.000000 0.000000 0.000000 0.000000 0.000000 0.000000 0.000000 0.000000 0.000000 0.000000 0.000000 0.000000 0.000000 0.000000 0.000000 0.000000 0.000000 0.000000 0.000000 0.000000 0.000000 0.000000 0.000000 0.000000 0.000000 0.000000 0.000000 0.000000 0.000000 0.000000 0.000000 0.000000 0.000000 0.000000 0.000000 0.000000 0.000000 0.000000 0.000000 0.000000 0.000000 0.000000 0.000000 0.000000 0.000000 0.000000 0.000000 0.000000 0.000000 0.000000 0.000000 0.000000 0.000000 0.000000 0.000000 0.000000 0.000000 0.000000 0.000000 0.000000 0.000000 0.000000 0.000000 0.000000 0.000000 0.000000 0.000000 0.000000 0.000000 0.000000 0.000000 0.000000 0.000000 0.000000 0.000000
0.000000 0.000000 0.000000 0.000000 0.000000 0.000000 0.000000 0.000000 0.000000 0.000000 0.000000 0.000000 0.000000 0.000000 0.000000 0.000000 0.000000 0.000000 0.000000 0.000000 0.000000 0.000000 0.000000 0.000000 0.000000 0.000000 0.000000 0.000000 0.000000 0.000000 0.000000 0.000000 0.000000 0.000000 0.000000 0.000000 0.000000 0.000000 0.000000 0.000000 0.000000 0.000000 0.000000 0.000000 0.000000 0.000000 0.000000 0.000000 0.000000 0.000000 0.000000 0.000000 0.000000 0.000000 0.000000 0.000000 0.000000 0.000000 0.000000 0.000000 0.000000 0.000000 0.000000 0.000000 0.000000 0.000000 0.000000 0.000000 0.000000 0.000000 0.000000 0.000000 0.000000 0.000000 0.000000 0.000000 0.000000 0.000000 0.000000 0.000000 0.000000 0.000000 0.000000 0.000000 0.000000 0.000000 0.000000 0.000000 0.000000 0.000000 0.000000 0.000000 0.000000 0.000000 0.000000 0.000000 0.000000 0.000000 0.000000 0.000000 0.000000 0.000000 0.000000
0.000000 0.000000 0.000000 0.000000 0.000000 0.000000 0.000000 0.000000 0.000000 0.000000 0.000000 0.000000 0.000000 0.000000 0.000000 0.000000 0.000000 0.000000 0.000000 0.000000 0.000000 0.000000 0.000000 0.000000 0.000000 0.000000 0.000000 0.000000 0.000000 0.000000 0.000000 0.000000 0.000000 0.000000 0.000000 0.000000 0.000000 0.000000 0.000000 0.000000 0.000000 0.000000 0.000000 0.000000 0.000000 0.000000 0.000000 0.000000 0.000000 0.000000 0.000000 0.000000 0.000000 0.000000 0.000000 0.000000 0.000000 0.000000 0.000000 0.000000 0.000000 0.000000 0.000000 0.000000 0.000000 0.000000 0.000000 0.000000 0.000000 0.000000 0.000000 0.000000 0.000000 0.000000 0.000000 0.000000 0.000000 0.000000 0.000000 0.000000 0.000000 0.000000 0.000000 0.000000 0.000000 0.000000 0.000000 0.000000 0.000000 0.000000 0.000000 0.000000 0.000000 0.000000 0.000000 0.000000 0.000000 0.000000 0.000000 0.000000 0.000000 0.000000 0.000000
0.000000 0.000000 0.000000 0.000000 0.000000 0.000000 0.000000 0.000000 0.000000 0.000000 0.000000 0.000000 0.000000 0.000000 0.000000 0.000000 0.000000 0.000000 0.000000 0.000000 0.000000 0.000000 0.000000 0.000000 0.000000 0.000000 0.000000 0.000000 0.000000 0.000000 0.000000 0.000000 0.000000 0.000000 0.000000 0.000000 0.000000 0.000000 0.000000 0.000000 0.000000 0.000000 0.000000 0.000000 0.000000 0.000000 0.000000 0.000000 0.000000 0.000000 0.000000 0.000000 0.000000 0.000000 0.000000 0.000000 0.000000 0.000000 0.000000 0.000000 0.000000 0.000000 0.000000 0.000000 0.000000 0.000000 0.000000 0.000000 0.000000 0.000000 0.000000 0.000000 0.000000 0.000000 0.000000 0.000000 0.000000 0.000000 0.000000 0.000000 0.000000 0.000000 0.000000 0.000000 0.000000 0.000000 0.000000 0.000000 0.000000 0.000000 0.000000 0.000000 0.000000 0.000000 0.000000 0.000000 0.000000 0.000000 0.000000 0.000000 0.000000 0.000000 0.000000
0.000000 0.000000 0.000000 0.000000 0.000000 0.000000 0.000000 0.000000 0.000000 0.000000 0.000000 0.000000 0.000000 0.000000 0.000000 0.000000 0.000000 0.000000 0.000000 0.000000 0.000000 0.000000 0.000000 0.000000 0.000000 0.000000 0.000000 0.000000 0.000000 0.000000 0.000000 0.000000 0.000000 0.000000 0.000000 0.000000 0.000000 0.000000 0.000000 0.000000 0.000000 0.000000 0.000000 0.000000 0.000000 0.000000 0.000000 0.000000 0.000000 0.000000 0.000000 0.000000 0.000000 0.000000 0.000000 0.000000 0.000000 0.000000 0.000000 0.000000 0.000000 0.000000 0.000000 0.000000 0.000000 0.000000 0.000000 0.000000 0.000000 0.000000 0.000000 0.000000 0.000000 0.000000 0.000000 0.000000 0.000000 0.000000 0.000000 0.000000 0.000000 0.000000 0.000000 0.000000 0.000000 0.000000 0.000000 0.000000 0.000000 0.000000 0.000000 0.000000 0.000000 0.000000 0.000000 0.000000 0.000000 0.000000 0.000000 0.000000 0.000000 0.000000 0.000000
0.000000 0.000000 0.000000 0.000000 0.000000 0.000000 0.000000 0.000000 0.000000 0.000000 0.000000 0.000000 0.000000 0.000000 0.000000 0.000000 0.000000 0.000000 0.000000 0.000000 0.000000 0.000000 0.000000 0.000000 0.000000 0.000000 0.000000 0.000000 0.000000 0.000000 0.000000 0.000000 0.000000 0.000000 0.000000 0.000000 0.000000 0.000000 0.000000 0.000000 0.000000 0.000000 0.000000 0.000000 0.000000 0.000000 0.000000 0.000000 0.000000 0.000000 0.000000 0.000000 0.000000 0.000000 0.000000 0.000000 0.000000 0.000000 0.000000 0.000000 0.000000 0.000000 0.000000 0.000000 0.000000 0.000000 0.000000 0.000000 0.000000 0.000000 0.000000 0.000000 0.000000 0.000000 0.000000 0.000000 0.000000 0.000000 0.000000 0.000000 0.000000 0.000000 0.000000 0.000000 0.000000 0.000000 0.000000 0.000000 0.000000 0.000000 0.000000 0.000000 0.000000 0.000000 0.000000 0.000000 0.000000 0.000000 0.000000 0.000000 0.000000 0.000000 0.000000
0.000000 0.000000 0.000000 0.000000 0.000000 0.000000 0.000000 0.000000 0.000000 0.000000 0.000000 0.000000 0.000000 0.000000 0.000000 0.000000 0.000000 0.000000 0.000000 0.000000 0.000000 0.000000 0.000000 0.000000 0.000000 0.000000 0.000000 0.000000 0.000000 0.000000 0.000000 0.000000 0.000000 0.000000 0.000000 0.000000 0.000000 0.000000 0.000000 0.000000 0.000000 0.000000 0.000000 0.000000 0.000000 0.000000 0.000000 0.000000 0.000000 0.000000 0.000000 0.000000 0.000000 0.000000 0.000000 0.000000 0.000000 0.000000 0.000000 0.000000 0.000000 0.000000 0.000000 0.000000 0.000000 0.000000 0.000000 0.000000 0.000000 0.000000 0.000000 0.000000 0.000000 0.000000 0.000000 0.000000 0.000000 0.000000 0.000000 0.000000 0.000000 0.000000 0.000000 0.000000 0.000000 0.000000 0.000000 0.000000 0.000000 0.000000 0.000000 0.000000 0.000000 0.000000 0.000000 0.000000 0.000000 0.000000 0.000000 0.000000 0.000000 0.000000 0.000000
0.000000 0.000000 0.000000 0.000000 29.718042 29.718042 29.718042 29.718042 29.718042 29.718042 29.718042 29.718042 29.718042 29.718042 29.718042 29.718042 0.000000 0.000000 0.000000 0.000000 0.000000 0.000000 0.000000 0.000000 0.000000 0.000000 0.000000 0.000000 0.000000 0.000000 0.000000 0.000000 0.000000 0.000000 0.000000 0.000000 0.000000 0.000000 0.000000 0.000000 13.718040 13.718040 13.718040 13.718040 13.718040 13.718040 16.488245 16.488245 16.488245 16.488245 16.488245 16.488245 16.488245 0.000000 0.000000 0.000000 0.000000 0.000000 0.000000 0.000000 0.000000 0.000000 0.000000 0.000000 0.000000 0.000000 0.000000 0.000000 0.000000 0.000000 0.000000 0.000000 0.000000 0.000000 0.000000 0.000000 0.000000 0.000000 0.000000 0.000000 0.000000 0.000000 0.000000 0.000000 0.000000 0.000000 0.000000 0.000000 0.000000 0.000000 0.000000 0.000000 0.000000 0.000000 0.000000 0.000000 0.000000 0.000000 0.000000 0.000000 0.000000 0.000000 0.000000
0.000000 0.000000 0.000000 0.000000 29.718042 29.718042 29.718042 29.718042 29.718042 29.718042 29.718042 29.718042 29.718042 29.718042 29.718042 29.718042 0.000000 0.000000 0.000000 0.000000 0.000000 0.000000 0.000000 0.000000 0.000000 0.000000 0.000000 0.000000 0.000000 0.000000 0.000000 0.000000 0.000000 0.000000 0.000000 0.000000 0.000000 0.000000 0.000000 0.000000 13.718040 13.718040 13.718040 13.718040 13.718040 13.718040 16.488245 16.488245 16.488245 16.488245 16.488245 16.488245 16.488245 0.000000 0.000000 0.000000 0.000000 0.000000 0.000000 0.000000 0.000000 0.000000 0.000000 0.000000 0.000000 0.000000 0.000000 0.000000 0.000000 0.000000 0.000000 0.000000 0.000000 0.000000 0.000000 0.000000 0.000000 0.000000 0.000000 0.000000 0.000000 0.000000 0.000000 0.000000 0.000000 0.000000 0.000000 0.000000 0.000000 0.000000 0.000000 0.000000 0.000000 0.000000 0.000000 0.000000 0.000000 0.000000 0.000000 0.000000 0.000000 0.000000 0.000000
0.000000 0.000000 0.000000 0.000000 29.718042 29.718042 29.718042 29.718042 29.718042 29.718042 29.718042 29.718042 29.718042 29.718042 29.718042 29.718042 0.000000 0.000000 0.000000 0.000000 0.000000 0.000000 0.000000 0.000000 0.000000 0.000000 0.000000 0.000000 0.000000 0.000000 0.000000 0.000000 0.000000 0.000000 0.000000 0.000000 0.000000 0.000000 0.000000 0.000000 13.718040 13.718040 13.718040 13.718040 13.718040 13.718040 16.488245 16.488245 16.488245 16.488245 16.488245 16.488245 16.488245 0.000000 0.000000 0.000000 0.000000 0.000000 0.000000 0.000000 19.710556 19.710556 19.710556 19.710556 19.710556 19.710556 0.000000 0.000000 0.000000 0.000000 0.000000 0.000000 0.000000 0.000000 0.000000 0.000000 0.000000 0.000000 0.000000 0.000000 0.000000 0.000000 0.000000 0.000000 0.000000 0.000000 0.000000 36.204887 36.204887 36.204887 36.204887 36.204887 36.204887 36.204887 36.204887 36.204887 36.204887 0.000000 0.000000 0.000000 0.000000 0.000000 0.000000
0.000000 0.000000 0.000000 0.000000 29.718042 29.718042 29.718042 29.718042 29.718042 29.718042 29.718042 29.718042 29.718042 29.718042 29.718042 29.718042 0.000000 0.000000 0.000000 0.000000 0.000000 0.000000 0.000000 0.000000 0.000000 0.000000 0.000000 0.000000 0.000000 0.000000 0.000000 0.000000 0.000000 0.000000 0.000000 0.000000 0.000000 0.000000 0.000000 0.000000 13.718040 13.718040 13.718040 13.718040 13.718040 13.718040 16.488245 16.488245 16.488245 16.488245 16.488245 16.488245 16.488245 0.000000 0.000000 0.000000 0.000000 0.000000 0.000000 0.000000 19.710556 19.710556 19.710556 19.710556 19.710556 19.710556 0.000000 0.000000 0.000000 0.000000 0.000000 0.000000 0.000000 0.000000 0.000000 0.000000 0.000000 0.000000 0.000000 0.000000 0.000000 0.000000 0.000000 0.000000 0.000000 0.000000 0.000000 36.204887 36.204887 36.204887 36.204887 36.204887 36.204887 36.204887 36.204887 36.204887 36.204887 0.000000 0.000000 0.000000 0.000000 0.000000 0.000000
0.000000 0.000000 0.000000 0.000000 29.718042 29.718042 29.718042 29.718042 29.718042 29.718042 29.718042 29.718042 29.718042 29.718042 29.718042 29.718042 0.000000 0.000000 0.000000 0.000000 0.000000 0.000000 0.000000 0.000000 0.000000 0.000000 0.000000 0.000000 0.000000 0.000000 0.000000 0.000000 0.000000 0.000000 0.000000 0.000000 0.000000 0.000000 0.000000 0.000000 13.718040 13.718040 13.718040 13.718040 13.718040 13.718040 16.488245 16.488245 16.488245 16.488245 16.488245 16.488245 16.488245 0.000000 0.000000 0.000000 0.000000 0.000000 0.000000 0.000000 19.710556 19.710556 19.710556 19.710556 19.710556 19.710556 0.000000 0.000000 0.000000 0.000000 0.000000 0.000000 0.000000 0.000000 0.000000 0.000000 0.000000 0.000000 0.000000 0.000000 0.000000 0.000000 0.000000 0.000000 0.000000 0.000000 0.000000 36.204887 36.204887 36.204887 36.204887 36.204887 36.204887 36.204887 36.204887 36.204887 36.204887 0.000000 0.000000 0.000000 0.000000 0.000000 0.000000
0.000000 0.000000 0.000000 0.000000 29.718042 29.718042 29.718042 29.718042 29.718042 29.718042 29.718042 29.718042 29.718042 29.718042 29.718042 29.718042 0.000000 0.000000 0.000000 0.000000 0.000000 0.000000 0.000000 0.000000 0.000000 0.000000 0.000000 0.000000 0.000000 0.000000 0.000000 0.000000 0.000000 0.000000 0.000000 0.000000 0.000000 0.000000 0.000000 0.000000 13.718040 13.718040 13.718040 13.718040 13.718040 13.718040 16.488245 16.488245 16.488245 16.488245 16.488245 16.488245 16.488245 0.000000 0.000000 0.000000 0.000000 0.000000 0.000000 0.000000 19.710556 19.710556 19.710556 19.710556 19.710556 19.710556 0.000000 0.000000 0.000000 0.000000 0.000000 0.000000 0.000000 0.000000 0.000000 0.000000 0.000000 0.000000 0.000000 0.000000 0.000000 0.000000 0.000000 0.000000 0.000000 0.000000 0.000000 36.204887 36.204887 36.204887 36.204887 36.204887 36.204887 36.204887 36.204887 36.204887 36.204887 0.000000 0.000000 0.000000 0.000000 0.000000 0.000000
0.000000 0.000000 0.000000 0.000000 29.718042 29.718042 29.718042 29.718042 29.718042 29.718042 29.718042 29.718042 29.718042 29.718042 29.718042 29.718042 0.000000 0.000000 0.000000 0.000000 0.000000 0.000000 0.000000 0.000000 0.000000 0.000000 0.000000 0.000000 0.000000 0.000000 0.000000 0.000000 0.000000 0.000000 0.000000 0.000000 0.000000 0.000000 0.000000 0.000000 13.718040 13.718040 13.718040 13.718040 13.718040 13.718040 16.488245 16.488245 16.488245 16.488245 16.488245 16.488245 16.488245 0.000000 0.000000 0.000000 0.000000 0.000000 0.000000 0.000000 19.710556 19.710556 19.710556 19.710556 19.710556 19.710556 0.000000 0.000000 0.000000 0.000000 0.000000 0.000000 0.000000 0.000000 0.000000 0.000000 0.000000 0.000000 0.000000 0.000000 0.000000 0.000000 0.000000 0.000000 0.000000 0.000000 0.000000 36.204887 36.204887 36.204887 36.204887 36.204887 36.204887 36.204887 36.204887 36.204887 36.204887 0.000000 0.000000 0.000000 0.000000 0.000000 0.000000
0.000000 0.000000 0.000000 0.000000 29.718042 29.718042 29.718042 29.718042 29.718042 29.718042 29.718042 29.718042 29.718042 29.718042 29.718042 29.718042 0.000000 0.000000 0.000000 0.000000 0.000000 0.000000 0.000000 0.000000 0.000000 0.000000 0.000000 0.000000 0.000000 0.000000 0.000000 0.000000 0.000000 0.000000 0.000000 0.000000 0.000000 0.000000 0.000000 0.000000 13.718040 13.718040 13.718040 13.718040 13.718040 13.718040 16.488245 16.488245 16.488245 16.488245 16.488245 16.488245 16.488245 0.000000 0.000000 0.000000 0.000000 0.000000 0.000000 0.000000 19.710556 19.710556 19.710556 19.710556 19.710556 19.710556 0.000000 0.000000 0.000000 0.000000 0.000000 0.000000 0.000000 0.000000 0.000000 0.000000 0.000000 0.000000 0.000000 0.000000 0.000000 0.000000 0.000000 0.000000 0.000000 0.000000 0.000000 36.204887 36.204887 36.204887 36.204887 36.204887 36.204887 36.204887 36.204887 36.204887 36.204887 0.000000 0.000000 0.000000 0.000000 0.000000 0.000000
0.000000 0.000000 0.000000 0.000000 29.718042 29.718042 29.718042 29.718042 29.718042 29.718042 29.718042 29.718042 29.718042 29.718042 29.718042 29.718042 0.000000 0.000000 0.000000 0.000000 0.000000 0.000000 0.000000 0.000000 0.000000 0.000000 0.000000 0.000000 0.000000 0.000000 0.000000 0.000000 0.000000 0.000000 0.000000 0.000000 0.000000 0.000000 0.000000 0.000000 13.718040 13.718040 13.718040 13.718040 13.718040 13.718040 16.488245 16.488245 16.488245 16.488245 16.488245 16.488245 16.488245 0.000000 0.000000 0.000000 0.000000 0.000000 0.000000 0.000000 19.710556 19.710556 19.710556 19.710556 19.710556 19.710556 0.000000 0.000000 0.000000 0.000000 0.000000 0.000000 0.000000 0.000000 0.000000 0.000000 0.000000 0.000000 0.000000 0.000000 0.000000 0.000000 0.000000 0.000000 0.000000 0.000000 0.000000 36.204887 36.204887 36.204887 36.204887 36.204887 36.204887 36.204887 36.204887 36.204887 36.204887 0.000000 0.000000 0.000000 0.000000 0.000000 0.000000
0.000000 0.000000 0.000000 0.000000 29.718042 29.718042 29.718042 29.718042 29.718042 29.718042 29.718042 29.718042 29.718042 29.718042 29.718042 29.718042 0.000000 0.000000 0.000000 0.000000 0.000000 0.000000 0.000000 0.000000 0.000000 0.000000 0.000000 0.000000 0.000000 0.000000 0.000000 0.000000 0.000000 14.285300 14.285300 14.285300 14.285300 14.285300 14.285300 14.285300 13.935106 13.935106 13.935106 13.935106 13.935106 13.935106 16.749144 16.749144 16.749144 16.749144 16.749144 16.749144 16.749144 0.000000 0.000000 0.000000 0.000000 0.000000 0.000000 0.000000 19.710556 19.710556 19.710556 19.710556 19.710556 19.710556 0.000000 0.000000 0.000000 0.000000 0.000000 0.000000 0.000000 0.000000 0.000000 0.000000 0.000000 0.000000 0.000000 0.000000 0.000000 0.000000 0.000000 0.000000 0.000000 0.000000 0.000000 36.204887 36.204887 36.204887 36.204887 36.204887 36.204887 36.204887 36.204887 36.204887 36.204887 0.000000 0.000000 0.000000 0.000000 0.000000 0.000000
0.000000 0.000000 0.000000 0.000000 29.718042 29.718042 29.718042 29.718042 29.718042 29.718042 29.718042 29.718042 29.718042 29.718042 29.718042 29.718042 0.000000 0.000000 0.000000 0.000000 0.000000 0.000000 0.000000 0.000000 0.000000 0.000000 0.000000 0.000000 0.000000 0.000000 0.000000 0.000000 0.000000 14.285300 14.285300 14.285300 14.285300 14.285300 14.285300 14.285300 13.935106 13.935106 13.935106 13.935106 13.935106 13.935106 16.749144 16.749144 16.749144 16.749144 16.749144 16.749144 16.749144 0.000000 0.000000 0.000000 0.000000 0.000000 0.000000 0.000000 19.710556 19.710556 19.710556 19.710556 19.710556 19.710556 0.000000 0.000000 0.000000 0.000000 0.000000 0.000000 0.000000 0.000000 0.000000 0.000000 0.000000 0.000000 0.000000 0.000000 0.000000 0.000000 0.000000 0.000000 0.000000 0.000000 0.000000 36.204887 36.204887 36.204887 36.204887 36.204887 36.204887 36.204887 36.204887 36.204887 36.204887 0.000000 0.000000 0.000000 0.000000 0.000000 0.000000
0.000000 0.000000 0.000000 0.000000 0.000000 0.000000 0.000000 0.000000 0.000000 0.000000 0.000000 0.000000 0.000000 0.000000 0.000000 0.000000 0.000000 0.000000 0.000000 0.000000 0.000000 0.000000 0.000000 0.000000 0.000000 0.000000 0.000000 0.000000 0.000000 0.000000 0.000000 0.000000 0.000000 14.285300 14.285300 14.285300 14.285300 14.285300 14.285300 14.285300 13.935106 13.935106 13.935106 13.935106 13.935106 13.935106 16.749144 16.749144 16.749144 16.749144 16.749144 16.749144 16.749144 0.000000 0.000000 0.000000 0.000000 0.000000 0.000000 0.000000 19.710556 19.710556 19.710556 19.710556 19.710556 19.710556 0.000000 0.000000 0.000000 0.000000 0.000000 0.000000 0.000000 0.000000 0.000000 0.000000 0.000000 0.000000 0.000000 0.000000 0.000000 0.000000 0.000000 0.000000 0.000000 0.000000 0.000000 36.204887 36.204887 36.204887 36.204887 36.204887 36.204887 36.204887 36.204887 36.204887 36.204887 0.000000 0.000000 0.000000 0.000000 0.000000 0.000000
0.000000 0.000000 0.000000 0.000000 0.000000 0.000000 0.000000 0.000000 0.000000 0.000000 0.000000 0.000000 0.000000 0.000000 0.000000 0.000000 0.000000 0.000000 0.000000 0.000000 0.000000 0.000000 0.000000 0.000000 0.000000 0.000000 0.000000 0.000000 0.000000 0.000000 0.000000 0.000000 0.000000 14.285300 14.285300 14.285300 14.285300 14.285300 14.285300 14.285300 13.935106 13.935106 13.935106 13.935106 13.935106 13.935106 16.749144 16.749144 16.749144 16.749144 16.749144 16.749144 16.749144 0.000000 0.000000 0.000000 0.000000 0.000000 0.000000 0.000000 19.710556 19.710556 19.710556 19.710556 19.710556 19.710556 0.000000 0.000000 0.000000 0.000000 0.000000 0.000000 0.000000 0.000000 0.000000 0.000000 0.000000 0.000000 0.000000 0.000000 0.000000 0.000000 0.000000 0.000000 0.000000 0.000000 0.000000 36.204887 36.204887 36.204887 36.204887 36.204887 36.204887 36.204887 36.204887 36.204887 36.204887 0.000000 0.000000 0.000000 0.000000 0.000000 0.000000
0.000000 0.000000 0.000000 0.000000 0.000000 0.000000 0.000000 0.000000 0.000000 0.000000 0.000000 0.000000 0.000000 0.000000 0.000000 0.000000 0.000000 0.000000 0.000000 0.000000 0.000000 0.000000 0.000000 0.000000 0.000000 0.000000 0.000000 0.000000 0.000000 0.000000 0.000000 0.000000 0.000000 14.285300 14.285300 14.285300 14.285300 14.285300 14.285300 14.285300 13.935106 13.935106 13.935106 13.935106 13.935106 13.935106 16.749144 16.749144 16.749144 16.749144 16.749144 16.749144 16.749144 0.000000 0.000000 0.000000 0.000000 0.000000 0.000000 0.000000 19.710556 19.710556 19.710556 19.710556 19.710556 19.710556 0.000000 0.000000 0.000000 0.000000 0.000000 0.000000 0.000000 0.000000 0.000000 0.000000 0.000000 0.000000 0.000000 0.000000 0.000000 0.000000 0.000000 0.000000 0.000000 0.000000 0.000000 36.204887 36.204887 36.204887 36.204887 36.204887 36.204887 36.204887 36.204887 36.204887 36.204887 0.000000 0.000000 0.000000 0.000000 0.000000 0.000000
0.000000 0.000000 0.000000 0.000000 0.000000 0.000000 0.000000 0.000000 0.000000 0.000000 0.000000 0.000000 0.000000 0.000000 0.000000 0.000000 0.000000 0.000000 0.000000 0.000000 0.000000 0.000000 0.000000 0.000000 0.000000 0.000000 0.000000 0.000000 0.000000 0.000000 0.000000 0.000000 0.000000 14.285300 14.285300 14.285300 14.285300 14.285300 14.285300 14.285300 13.935106 13.935106 13.935106 13.935106 13.935106 13.935106 16.749144 16.749144 16.749144 16.749144 16.749144 16.749144 16.749144 0.000000 0.000000 0.000000 0.000000 0.000000 0.000000 0.000000 19.710556 19.710556 19.710556 19.710556 19.710556 19.710556 0.000000 0.000000 0.000000 0.000000 0.000000 0.000000 0.000000 0.000000 0.000000 0.000000 0.000000 0.000000 0.000000 0.000000 0.000000 0.000000 0.000000 0.000000 0.000000 0.000000 0.000000 36.204887 36.204887 36.204887 36.204887 36.204887 36.204887 36.204887 36.204887 36.204887 36.204887 0.000000 0.000000 0.000000 0.000000 0.000000 0.000000
0.000000 0.000000 0.000000 0.000000 0.000000 0.000000 0.000000 0.000000 0.000000 0.000000 0.000000 0.000000 0.000000 0.000000 0.000000 0.000000 0.000000 0.000000 0.000000 0.000000 0.000000 0.000000 0.000000 0.000000 0.000000 0.000000 0.000000 0.000000 0.000000 0.000000 0.000000 0.000000 0.000000 14.285300 14.285300 14.285300 14.285300 14.285300 14.285300 14.285300 13.935106 13.935106 13.935106 13.935106 13.935106 13.935106 16.749144 16.749144 16.749144 16.749144 16.749144 16.749144 16.749144 0.000000 0.000000 0.000000 0.000000 0.000000 0.000000 0.000000 19.710556 19.710556 19.710556 19.710556 19.710556 19.710556 0.000000 0.000000 0.000000 0.000000 0.000000 0.000000 0.000000 0.000000 0.000000 0.000000 0.000000 0.000000 0.000000 0.000000 0.000000 0.000000 0.000000 0.000000 0.000000 0.000000 0.000000 36.204887 36.204887 36.204887 36.204887 36.204887 36.204887 36.204887 36.204887 36.204887 36.204887 0.000000 0.000000 0.000000 0.000000 0.000000 0.000000
0.000000 0.000000 0.000000 0.000000 0.000000 0.000000 0.000000 0.000000 0.000000 0.000000 0.000000 0.000000 0.000000 0.000000 0.000000 0.000000 0.000000 0.000000 0.000000 0.000000 0.000000 0.000000 0.000000 0.000000 0.000000 0.000000 0.000000 0.000000 0.000000 0.000000 0.000000 0.000000 0.000000 14.285300 14.285300 14.285300 14.285300 14.285300 14.285300 14.285300 13.935106 13.935106 13.935106 13.935106 13.935106 13.935106 16.749144 16.749144 16.749144 16.749144 16.749144 16.749144 16.749144 0.000000 0.000000 0.000000 0.000000 0.000000 0.000000 0.000000 19.710556 19.710556 19.710556 19.710556 19.710556 19.710556 0.000000 0.000000 0.000000 0.000000 0.000000 0.000000 0.000000 0.000000 0.000000 0.000000 0.000000 0.000000 0.000000 0.000000 0.000000 0.000000 0.000000 0.000000 0.000000 0.000000 0.000000 36.204887 36.204887 36.204887 36.204887 36.204887 36.204887 36.204887 36.204887 36.204887 36.204887 0.000000 0.000000 0.000000 0.000000 0.000000 0.000000
0.000000 0.000000 0.000000 0.000000 0.000000 0.000000 0.000000 0.000000 0.000000 0.000000 0.000000 0.000000 0.000000 0.000000 0.000000 0.000000 0.000000 0.000000 0.000000 0.000000 0.000000 0.000000 0.000000 0.000000 0.000000 0.000000 0.000000 0.000000 0.000000 0.000000 0.000000 0.000000 0.000000 14.285300 14.285300 14.285300 14.285300 14.285300 14.285300 14.285300 13.935106 13.935106 13.935106 13.935106 13.935106 13.935106 16.749144 16.749144 16.749144 16.749144 16.749144 16.749144 16.749144 0.000000 0.000000 0.000000 0.000000 0.000000 0.000000 0.000000 0.000000 0.000000 0.000000 0.000000 0.000000 0.000000 0.000000 0.000000 0.000000 0.000000 0.000000 0.000000 0.000000 0.000000 0.000000 0.000000 0.000000 0.000000 0.000000 0.000000 0.000000 0.000000 0.000000 0.000000 0.000000 0.000000 0.000000 0.000000 0.000000 0.000000 0.000000 0.000000 0.000000 0.000000 0.000000 0.000000 0.000000 0.000000 0.000000 0.000000 0.000000 0.000000 0.000000
0.000000 0.000000 0.000000 0.000000 0.000000 0.000000 0.000000 0.000000 0.000000 0.000000 0.000000 0.000000 0.000000 0.000000 0.000000 0.000000 0.000000 0.000000 0.000000 0.000000 0.000000 0.000000 0.000000 0.000000 0.000000 0.000000 0.000000 0.000000 0.000000 0.000000 0.000000 0.000000 0.000000 14.285300 14.285300 14.285300 14.285300 14.285300 14.285300 14.285300 13.935106 13.935106 13.935106 13.935106 13.935106 13.935106 16.749144 16.749144 16.749144 16.749144 16.749144 16.749144 16.749144 0.000000 0.000000 0.000000 0.000000 0.000000 0.000000 0.000000 0.000000 0.000000 0.000000 0.000000 0.000000 0.000000 0.000000 0.000000 0.000000 0.000000 0.000000 0.000000 0.000000 0.000000 0.000000 0.000000 0.000000 0.000000 0.000000 0.000000 0.000000 0.000000 0.000000 0.000000 0.000000 0.000000 0.000000 0.000000 0.000000 0.000000 0.000000 0.000000 0.000000 0.000000 0.000000 0.000000 0.000000 0.000000 0.000000 0.000000 0.000000 0.000000 0.000000
0.000000 0.000000 0.000000 0.000000 0.000000 0.000000 0.000000 0.000000 0.000000 0.000000 0.000000 0.000000 0.000000 0.000000 0.000000 0.000000 0.000000 0.000000 0.000000 0.000000 0.000000 0.000000 0.000000 0.000000 0.000000 0.000000 0.000000 0.000000 0.000000 0.000000 0.000000 0.000000 0.000000 0.000000 0.000000 0.000000 0.000000 0.000000 0.000000 0.000000 0.000000 0.000000 0.000000 0.000000 0.000000 0.000000 0.000000 0.000000 0.000000 0.000000 0.000000 0.000000 0.000000 0.000000 0.000000 0.000000 0.000000 0.000000 0.000000 0.000000 0.000000 0.000000 0.000000 0.000000 0.000000 0.000000 0.000000 0.000000 0.000000 0.000000 0.000000 0.000000 0.000000 0.000000 0.000000 0.000000 0.000000 0.000000 0.000000 0.000000 0.000000 0.000000 0.000000 0.000000 0.000000 0.000000 0.000000 0.000000 0.000000 0.000000 0.000000 0.000000 0.000000 0.000000 0.000000 0.000000 0.000000 0.000000 0.000000 0.000000 0.000000 0.000000 0.000000
0.000000 0.000000 0.000000 0.000000 0.000000 0.000000 0.000000 0.000000 0.000000 0.000000 0.000000 0.000000 0.000000 0.000000 0.000000 0.000000 0.000000 0.000000 0.000000 0.000000 0.000000 0.000000 0.000000 0.000000 0.000000 0.000000 0.000000 0.000000 0.000000 0.000000 0.000000 0.000000 0.000000 0.000000 0.000000 0.000000 0.000000 0.000000 0.000000 0.000000 0.000000 0.000000 0.000000 0.000000 0.000000 0.000000 0.000000 0.000000 0.000000 0.000000 0.000000 0.000000 0.000000 0.000000 0.000000 0.000000 0.000000 0.000000 0.000000 0.000000 0.000000 0.000000 0.000000 0.000000 0.000000 0.000000 0.000000 0.000000 0.000000 0.000000 0.000000 0.000000 0.000000 0.000000 0.000000 0.000000 0.000000 0.000000 0.000000 0.000000 0.000000 0.000000 0.000000 0.000000 0.000000 0.000000 0.000000 0.000000 0.000000 0.000000 0.000000 0.000000 0.000000 0.000000 0.000000 0.000000 0.000000 0.000000 0.000000 0.000000 0.000000 0.000000 0.000000
0.000000 0.000000 0.000000 0.000000 0.000000 0.000000 0.000000 0.000000 0.000000 0.000000 0.000000 0.000000 0.000000 0.000000 0.000000 0.000000 0.000000 0.000000 0.000000 0.000000 0.000000 0.000000 0.000000 0.000000 0.000000 0.000000 0.000000 0.000000 0.000000 0.000000 0.000000 0.000000 0.000000 0.000000 0.000000 0.000000 0.000000 0.000000 0.000000 0.000000 0.000000 0.000000 0.000000 0.000000 0.000000 0.000000 0.000000 0.000000 0.000000 0.000000 0.000000 0.000000 0.000000 0.000000 0.000000 0.000000 0.000000 0.000000 0.000000 0.000000 0.000000 0.000000 0.000000 0.000000 0.000000 0.000000 0.000000 0.000000 0.000000 0.000000 0.000000 0.000000 0.000000 0.000000 0.000000 0.000000 0.000000 0.000000 0.000000 0.000000 0.000000 0.000000 0.000000 0.000000 0.000000 0.000000 0.000000 0.000000 0.000000 0.000000 0.000000 0.000000 0.000000 0.000000 0.000000 0.000000 0.000000 0.000000 0.000000 0.000000 0.000000 0.000000 0.000000
0.000000 0.000000 0.000000 0.000000 0.000000 0.000000 0.000000 0.000000 0.000000 0.000000 0.000000 0.000000 0.000000 0.000000 0.000000 0.000000 0.000000 0.000000 0.000000 0.000000 0.000000 0.000000 0.000000 0.000000 0.000000 0.000000 0.000000 0.000000 0.000000 0.000000 0.000000 0.000000 0.000000 0.000000 0.000000 0.000000 0.000000 0.000000 0.000000 0.000000 0.000000 0.000000 0.000000 0.000000 0.000000 0.000000 0.000000 0.000000 0.000000 0.000000 0.000000 0.000000 0.000000 0.000000 0.000000 0.000000 0.000000 0.000000 0.000000 0.000000 0.000000 0.000000 0.000000 0.000000 0.000000 0.000000 0.000000 0.000000 0.000000 0.000000 0.000000 0.000000 0.000000 0.000000 0.000000 0.000000 0.000000 0.000000 0.000000 0.000000 0.000000 0.000000 0.000000 0.000000 0.000000 0.000000 0.000000 0.000000 0.000000 0.000000 0.000000 0.000000 0.000000 0.000000 0.000000 0.000000 0.000000 0.000000 0.000000 0.000000 0.000000 0.000000 0.000000
0.000000 0.000000 0.000000 0.000000 0.000000 0.000000 0.000000 0.000000 0.000000 0.000000 0.000000 0.000000 0.000000 0.000000 0.000000 0.000000 0.000000 0.000000 0.000000 0.000000 0.000000 0.000000 0.000000 0.000000 0.000000 0.000000 0.000000 0.000000 0.000000 0.000000 0.000000 0.000000 0.000000 0.000000 0.000000 0.000000 0.000000 0.000000 0.000000 0.000000 0.000000 0.000000 0.000000 0.000000 0.000000 0.000000 0.000000 0.000000 0.000000 0.000000 0.000000 0.000000 0.000000 0.000000 0.000000 0.000000 0.000000 0.000000 0.000000 0.000000 0.000000 0.000000 0.000000 0.000000 0.000000 0.000000 0.000000 0.000000 0.000000 0.000000 0.000000 0.000000 0.000000 0.000000 0.000000 0.000000 0.000000 0.000000 0.000000 0.000000 0.000000 0.000000 0.000000 0.000000 0.000000 0.000000 0.000000 0.000000 0.000000 0.000000 0.000000 0.000000 0.000000 0.000000 0.000000 0.000000 0.000000 0.000000 0.000000 0.000000 0.000000 0.000000 0.000000
0.000000 0.000000 0.000000 0.000000 17.803918 17.803918 17.803918 17.803918 17.803918 17.803918 17.803918 17.803918 17.803918 17.803918 0.000000 0.000000 0.000000 0.000000 0.000000 0.000000 0.000000 0.000000 0.000000 0.000000 0.000000 0.000000 0.000000 0.000000 0.000000 0.000000 0.000000 0.000000 0.000000 21.336799 21.336799 21.336799 21.336799 21.336799 21.336799 21.336799 21.336799 21.336799 21.336799 21.336799 21.336799 0.000000 0.000000 0.000000 0.000000 0.000000 0.000000 0.000000 0.000000 0.000000 0.000000 0.000000 0.000000 0.000000 0.000000 0.000000 0.000000 0.000000 0.000000 0.000000 0.000000 0.000000 0.000000 0.000000 0.000000 0.000000 0.000000 0.000000 0.000000 0.000000 0.000000 0.000000 0.000000 0.000000 0.000000 0.000000 0.000000 0.000000 0.000000 0.000000 0.000000 0.000000 0.000000 0.000000 0.000000 0.000000 0.000000 0.000000 0.000000 0.000000 0.000000 0.000000 0.000000 0.000000 0.000000 0.000000 0.000000 0.000000 0.000000
0.000000 0.000000 0.000000 0.000000 17.803918 17.803918 17.803918 17.803918 17.803918 17.803918 17.803918 17.803918 17.803918 17.803918 0.000000 0.000000 0.000000 0.000000 0.000000 0.000000 0.000000 0.000000 0.000000 0.000000 0.000000 0.000000 0.000000 0.000000 0.000000 0.000000 0.000000 0.000000 0.000000 21.336799 21.336799 21.336799 21.336799 21.336799 21.336799 21.336799 21.336799 21.336799 21.336799 21.336799 21.336799 0.000000 0.000000 0.000000 0.000000 0.000000 0.000000 0.000000 0.000000 0.000000 0.000000 0.000000 0.000000 0.000000 0.000000 0.000000 16.595815 16.595815 16.595815 16.595815 16.595815 16.595815 0.000000 0.000000 0.000000 0.000000 0.000000 0.000000 0.000000 0.000000 0.000000 22.161750 22.161750 22.161750 22.161750 22.161750 22.161750 22.161750 0.000000 0.000000 0.000000 0.000000 0.000000 0.000000 0.000000 0.000000 0.000000 0.000000 0.000000 0.000000 0.000000 0.000000 0.000000 0.000000 0.000000 0.000000 0.000000 0.000000 0.000000
0.000000 0.000000 0.000000 0.000000 17.803918 17.803918 17.803918 17.803918 17.803918 17.803918 17.803918 17.803918 17.803918 17.803918 0.000000 0.000000 0.000000 0.000000 0.000000 0.000000 0.000000 0.000000 0.000000 0.000000 0.000000 0.000000 0.000000 0.000000 0.000000 0.000000 0.000000 0.000000 0.000000 21.336799 21.336799 21.336799 21.336799 21.336799 21.336799 21.336799 21.336799 21.336799 21.336799 21.336799 21.336799 0.000000 0.000000 0.000000 0.000000 0.000000 0.000000 0.000000 0.000000 0.000000 0.000000 0.000000 0.000000 0.000000 0.000000 0.000000 16.595815 16.595815 16.595815 16.595815 16.595815 16.595815 0.000000 0.000000 0.000000 0.000000 0.000000 0.000000 0.000000 0.000000 0.000000 22.161750 22.161750 22.161750 22.161750 22.161750 22.161750 22.161750 0.000000 0.000000 0.000000 0.000000 0.000000 0.000000 0.000000 0.000000 0.000000 0.000000 0.000000 0.000000 0.000000 0.000000 0.000000 0.000000 0.000000 0.000000 0.000000 0.000000 0.000000
0.000000 0.000000 0.000000 0.000000 17.803918 17.803918 17.803918 17.803918 17.803918 17.803918 17.803918 17.803918 17.803918 17.803918 0.000000 0.000000 0.000000 0.000000 0.000000 0.000000 0.000000 0.000000 0.000000 0.000000 0.000000 0.000000 0.000000 0.000000 0.000000 0.000000 0.000000 0.000000 0.000000 21.336799 21.336799 21.336799 21.336799 21.336799 21.336799 21.336799 21.336799 21.336799 21.336799 21.336799 21.336799 0.000000 0.000000 0.000000 0.000000 0.000000 0.000000 0.000000 0.000000 0.000000 0.000000 0.000000 0.000000 0.000000 0.000000 0.000000 16.595815 16.595815 16.595815 16.595815 16.595815 16.595815 0.000000 0.000000 0.000000 0.000000 0.000000 0.000000 0.000000 0.000000 0.000000 22.161750 22.161750 22.161750 22.161750 22.161750 22.161750 22.161750 0.000000 0.000000 0.000000 0.000000 0.000000 0.000000 0.000000 0.000000 0.000000 0.000000 0.000000 0.000000 0.000000 0.000000 0.000000 0.000000 0.000000 0.000000 0.000000 0.000000 0.000000
0.000000 0.000000 0.000000 0.000000 17.803918 17.803918 17.803918 17.803918 17.803918 17.803918 17.803918 17.803918 17.803918 17.803918 0.000000 0.000000 0.000000 0.000000 0.000000 0.000000 0.000000 0.000000 0.000000 0.000000 0.000000 0.000000 0.000000 0.000000 0.000000 0.000000 0.000000 0.000000 0.000000 21.336799 21.336799 21.336799 21.336799 21.336799 21.336799 21.336799 21.336799 21.336799 21.336799 21.336799 21.336799 0.000000 0.000000 0.000000 0.000000 0.000000 0.000000 0.000000 0.000000 0.000000 0.000000 0.000000 0.000000 0.000000 0.000000 0.000000 16.595815 16.595815 16.595815 16.595815 16.595815 16.595815 0.000000 0.000000 0.000000 0.000000 0.000000 0.000000 0.000000 0.000000 0.000000 22.161750 22.161750 22.161750 22.161750 22.161750 22.161750 22.161750 0.000000 0.000000 0.000000 0.000000 0.000000 0.000000 0.000000 0.000000 0.000000 0.000000 0.000000 0.000000 0.000000 0.000000 0.000000 0.000000 0.000000 0.000000 0.000000 0.000000 0.000000
0.000000 0.000000 0.000000 0.000000 17.803918 17.803918 17.803918 17.803918 17.803918 17.803918 17.803918 17.803918 17.803918 17.803918 0.000000 0.000000 0.000000 0.000000 0.000000 0.000000 0.000000 0.000000 0.000000 0.000000 0.000000 0.000000 0.000000 0.000000 0.000000 0.000000 0.000000 0.000000 0.000000 21.336799 21.336799 21.336799 21.336799 21.336799 21.336799 21.336799 21.336799 21.336799 21.336799 21.336799 21.336799 0.000000 0.000000 0.000000 0.000000 0.000000 0.000000 0.000000 0.000000 0.000000 0.000000 0.000000 0.000000 0.000000 0.000000 0.000000 16.595815 16.595815 16.595815 16.595815 16.595815 16.595815 0.000000 0.000000 0.000000 0.000000 0.000000 0.000000 0.000000 0.000000 0.000000 22.161750 22.161750 22.161750 22.161750 22.161750 22.161750 22.161750 0.000000 0.000000 0.000000 0.000000 0.000000 0.000000 0.000000 0.000000 0.000000 0.000000 0.000000 0.000000 0.000000 0.000000 0.000000 0.000000 0.000000 0.000000 0.000000 0.000000 0.000000
0.000000 0.000000 0.000000 0.000000 17.803918 17.803918 17.803918 17.803918 17.803918 17.803918 17.803918 17.803918 17.803918 17.803918 0.000000 0.000000 0.000000 0.000000 0.000000 0.000000 0.000000 0.000000 0.000000 0.000000 0.000000 0.000000 0.000000 0.000000 0.000000 0.000000 0.000000 0.000000 0.000000 21.336799 21.336799 21.336799 21.336799 21.336799 21.336799 21.336799 21.336799 21.336799 21.336799 21.336799 21.336799 0.000000 0.000000 0.000000 0.000000 0.000000 0.000000 0.000000 0.000000 0.000000 0.000000 0.000000 0.000000 0.000000 0.000000 0.000000 16.595815 16.595815 16.595815 16.595815 16.595815 16.595815 0.000000 0.000000 0.000000 0.000000 0.000000 0.000000 0.000000 0.000000 0.000000 22.161750 22.161750 22.161750 22.161750 22.161750 22.161750 22.161750 0.000000 0.000000 0.000000 0.000000 0.000000 0.000000 0.000000 0.000000 0.000000 0.000000 0.000000 0.000000 0.000000 0.000000 0.000000 0.000000 0.000000 0.000000 0.000000 0.000000 0.000000
0.000000 0.000000 0.000000 0.000000 17.803918 17.803918 17.803918 17.803918 17.803918 17.803918 17.803918 17.803918 17.803918 17.803918 0.000000 0.000000 0.000000 0.000000 0.000000 0.000000 0.000000 0.000000 0.000000 0.000000 0.000000 0.000000 0.000000 0.000000 0.000000 0.000000 0.000000 0.000000 0.000000 21.336799 21.336799 21.336799 21.336799 21.336799 21.336799 21.336799 21.336799 21.336799 21.336799 21.336799 21.336799 0.000000 0.000000 0.000000 0.000000 0.000000 0.000000 0.000000 0.000000 0.000000 0.000000 0.000000 0.000000 0.000000 0.000000 0.000000 16.595815 16.595815 16.595815 16.595815 16.595815 16.595815 0.000000 0.000000 0.000000 0.000000 0.000000 0.000000 0.000000 0.000000 0.000000 22.161750 22.161750 22.161750 22.161750 22.161750 22.161750 22.161750 0.000000 0.000000 0.000000 0.000000 0.000000 0.000000 0.000000 0.000000 0.000000 0.000000 0.000000 0.000000 0.000000 0.000000 0.000000 0.000000 0.000000 0.000000 0.000000 0.000000 0.000000
0.000000 0.000000 0.000000 0.000000 18.208857 18.208857 18.208857 18.208857 18.208857 18.208857 18.208857 18.208857 18.208857 18.208857 13.816687 13.816687 13.816687 13.816687 13.816687 13.816687 13.816687 0.000000 0.000000 0.000000 0.000000 0.000000 0.000000 0.000000 0.000000 0.000000 0.000000 0.000000 0.000000 22.086533 22.086533 22.086533 22.086533 22.086533 22.086533 22.086533 22.086533 22.086533 22.086533 22.086533 22.086533 17.589998 17.589998 17.589998 17.589998 17.589998 17.589998 17.589998 17.589998 0.000000 0.000000 0.000000 0.000000 0.000000 0.000000 0.000000 16.595815 16.595815 16.595815 16.595815 16.595815 16.595815 0.000000 0.000000 0.000000 0.000000 0.000000 0.000000 0.000000 0.000000 0.000000 22.161750 22.161750 22.161750 22.161750 22.161750 22.161750 22.161750 0.000000 0.000000 0.000000 0.000000 0.000000 0.000000 0.000000 0.000000 0.000000 0.000000 0.000000 0.000000 0.000000 0.000000 0.000000 0.000000 0.000000 0.000000 0.000000 0.000000 0.000000
0.000000 0.000000 0.000000 0.000000 18.208857 18.208857 18.208857 18.208857 18.208857 18.208857 18.208857 18.208857 18.208857 18.208857 13.816687 13.816687 13.816687 13.816687 13.816687 13.816687 13.816687 0.000000 0.000000 0.000000 0.000000 0.000000 0.000000 0.000000 0.000000 0.000000 0.000000 0.000000 0.000000 22.086533 22.086533 22.086533 22.086533 22.086533 22.086533 22.086533 22.086533 22.086533 22.086533 22.086533 22.086533 17.589998 17.589998 17.589998 17.589998 17.589998 17.589998 17.589998 17.589998 0.000000 0.000000 0.000000 0.000000 0.000000 0.000000 0.000000 16.595815 16.595815 16.595815 16.595815 16.595815 16.595815 0.000000 0.000000 0.000000 0.000000 0.000000 0.000000 0.000000 0.000000 0.000000 22.161750 22.161750 22.161750 22.161750 22.161750 22.161750 22.161750 0.000000 0.000000 0.000000 0.000000 0.000000 0.000000 0.000000 0.000000 0.000000 0.000000 0.000000 0.000000 0.000000 0.000000 0.000000 0.000000 0.000000 0.000000 0.000000 0.000000 0.000000
0.000000 0.000000 0.000000 0.000000 18.208857 18.208857 18.208857 18.208857 18.208857 18.208857 18.208857 18.208857 18.208857 18.208857 13.816687 13.816687 13.816687 13.816687 13.816687 13.816687 13.816687 0.000000 0.000000 0.000000 0.000000 0.000000 0.000000 0.000000 0.000000 0.000000 0.000000 0.000000 0.000000 22.086533 22.086533 22.086533 22.086533 22.086533 22.086533 22.086533 22.086533 22.086533 22.086533 22.086533 22.086533 17.589998 17.589998 17.589998 17.589998 17.589998 17.589998 17.589998 17.589998 0.000000 0.000000 0.000000 0.000000 0.000000 0.000000 0.000000 16.595815 16.595815 16.595815 16.595815 16.595815 16.595815 0.000000 0.000000 0.000000 0.000000 0.000000 0.000000 0.000000 0.000000 0.000000 22.161750 22.161750 22.161750 22.161750 22.161750 22.161750 22.161750 0.000000 0.000000 0.000000 0.000000 0.000000 0.000000 0.000000 0.000000 0.000000 0.000000 0.000000 0.000000 0.000000 0.000000 0.000000 0.000000 0.000000 0.000000 0.000000 0.000000 0.000000
0.000000 0.000000 0.000000 0.000000 18.208857 18.208857 18.208857 18.208857 18.208857 18.208857 18.208857 18.208857 18.208857 18.208857 13.816687 13.816687 13.816687 13.816687 13.816687 13.816687 13.816687 0.000000 0.000000 0.000000 0.000000 0.000000 0.000000 0.000000 0.000000 0.000000 0.000000 0.000000 0.000000 22.086533 22.086533 22.086533 22.086533 22.086533 22.086533 22.086533 22.086533 22.086533 22.086533 22.086533 22.086533 17.589998 17.589998 17.589998 17.589998 17.589998 17.589998 17.589998 17.589998 0.000000 0.000000 0.000000 0.000000 0.000000 0.000000 0.000000 16.595815 16.595815 16.595815 16.595815 16.595815 16.595815 0.000000 0.000000 0.000000 0.000000 0.000000 0.000000 0.000000 0.000000 0.000000 22.161750 22.161750 22.161750 22.161750 22.161750 22.161750 22.161750 0.000000 0.000000 0.000000 0.000000 0.000000 0.000000 0.000000 0.000000 0.000000 0.000000 0.000000 0.000000 0.000000 0.000000 0.000000 0.000000 0.000000 0.000000 0.000000 0.000000 0.000000
0.000000 0.000000 0.000000 0.000000 18.208857 18.208857 18.208857 18.208857 18.208857 18.208857 18.208857 18.208857 18.208857 18.208857 13.816687 13.816687 13.816687 13.816687 13.816687 13.816687 13.816687 0.000000 0.000000 0.000000 0.000000 0.000000 0.000000 0.000000 0.000000 0.000000 0.000000 0.000000 0.000000 22.086533 22.086533 22.086533 22.086533 22.086533 22.086533 22.086533 22.086533 22.086533 22.086533 22.086533 22.086533 17.589998 17.589998 17.589998 17.589998 17.589998 17.589998 17.589998 17.589998 0.000000 0.000000 0.000000 0.000000 0.000000 0.000000 0.000000 16.595815 16.595815 16.595815 16.595815 16.595815 16.595815 0.000000 0.000000 0.000000 0.000000 0.000000 0.000000 0.000000 0.000000 0.000000 22.161750 22.161750 22.161750 22.161750 22.161750 22.161750 22.161750 0.000000 0.000000 0.000000 0.000000 0.000000 0.000000 0.000000 0.000000 0.000000 0.000000 0.000000 0.000000 0.000000 0.000000 0.000000 0.000000 0.000000 0.000000 0.000000 0.000000 0.000000
0.000000 0.000000 0.000000 0.000000 18.208857 18.208857 18.208857 18.208857 18.208857 18.208857 18.208857 18.208857 18.208857 18.208857 13.816687 13.816687 13.816687 13.816687 13.816687 13.816687 13.816687 0.000000 0.000000 0.000000 0.000000 0.000000 0.000000 0.000000 0.000000 0.000000 0.000000 0.000000 0.000000 22.086533 22.086533 22.086533 22.086533 22.086533 22.086533 22.086533 22.086533 22.086533 22.086533 22.086533 22.086533 17.589998 17.589998 17.589998 17.589998 17.589998 17.589998 17.589998 17.589998 0.000000 0.000000 0.000000 0.000000 0.000000 0.000000 0.000000 16.595815 16.595815 16.595815 16.595815 16.595815 16.595815 0.000000 0.000000 0.000000 0.000000 0.000000 0.000000 0.000000 0.000000 0.000000 22.161750 22.161750 22.161750 22.161750 22.161750 22.161750 22.161750 0.000000 0.000000 0.000000 0.000000 0.000000 0.000000 0.000000 0.000000 0.000000 0.000000 0.000000 0.000000 0.000000 0.000000 0.000000 0.000000 0.000000 0.000000 0.000000 0.000000 0.000000
0.000000 0.000000 0.000000 0.000000 18.208857 18.208857 18.208857 18.208857 18.208857 18.208857 18.208857 18.208857 18.208857 18.208857 13.816687 13.816687 13.816687 13.816687 13.816687 13.816687 13.816687 0.000000 0.000000 0.000000 0.000000 0.000000 0.000000 0.000000 0.000000 0.000000 0.000000 0.000000 0.000000 22.086533 22.086533 22.086533 22.086533 22.086533 22.086533 22.086533 22.086533 22.086533 22.086533 22.086533 22.086533 17.589998 17.589998 17.589998 17.589998 17.589998 17.589998 17.589998 17.589998 0.000000 0.000000 0.000000 0.000000 0.000000 0.000000 0.000000 0.000000 0.000000 0.000000 0.000000 0.000000 0.000000 0.000000 0.000000 0.000000 0.000000 0.000000 0.000000 0.000000 0.000000 0.000000 0.000000 0.000000 0.000000 0.000000 0.000000 0.000000 0.000000 0.000000 0.000000 0.000000 0.000000 0.000000 0.000000 0.000000 0.000000 0.000000 0.000000 0.000000 0.000000 0.000000 0.000000 0.000000 0.000000 0.000000 0.000000 0.000000 0.000000 0.000000
0.000000 0.000000 0.000000 0.000000 18.208857 18.208857 18.208857 18.208857 18.208857 18.208857 18.208857 18.208857 18.208857 18.208857 13.816687 13.816687 13.816687 13.816687 13.816687 13.816687 13.816687 0.000000 0.000000 0.000000 0.000000 0.000000 0.000000 0.000000 0.000000 0.000000 0.000000 0.000000 0.000000 22.086533 22.086533 22.086533 22.086533 22.086533 22.086533 22.086533 22.086533 22.086533 22.086533 22.086533 22.086533 17.589998 17.589998 17.589998 17.589998 17.589998 17.589998 17.589998 17.589998 0.000000 0.000000 0.000000 0.000000 0.000000 0.000000 0.000000 0.000000 0.000000 0.000000 0.000000 0.000000 0.000000 0.000000 0.000000 0.000000 0.000000 0.000000 0.000000 0.000000 0.000000 0.000000 0.000000 0.000000 0.000000 0.000000 0.000000 0.000000 0.000000 0.000000 0.000000 0.000000 0.000000 0.000000 0.000000 0.000000 0.000000 0.000000 0.000000 0.000000 0.000000 0.000000 0.000000 0.000000 0.000000 0.000000 0.000000 0.000000 0.000000 0.000000
0.000000 0.000000 0.000000 0.000000 0.000000 0.000000 0.000000 0.000000 0.000000 0.000000 0.000000 0.000000 0.000000 0.000000 0.000000 0.000000 0.000000 0.000000 0.000000 0.000000 0.000000 0.000000 0.000000 0.000000 0.000000 0.000000 0.000000 0.000000 0.000000 0.000000 0.000000 0.000000 0.000000 0.000000 0.000000 0.000000 0.000000 0.000000 0.000000 0.000000 0.000000 0.000000 0.000000 0.000000 0.000000 0.000000 0.000000 0.000000 0.000000 0.000000 0.000000 0.000000 0.000000 0.000000 0.000000 0.000000 0.000000 0.000000 0.000000 0.000000 0.000000 0.000000 0.000000 0.000000 0.000000 0.000000 0.000000 0.000000 0.000000 0.000000 0.000000 0.000000 0.000000 0.000000 0.000000 0.000000 0.000000 0.000000 0.000000 0.000000 0.000000 0.000000 0.000000 0.000000 0.000000 0.000000 0.000000 0.000000 0.000000 0.000000 0.000000 0.000000 0.000000 0.000000 0.000000 0.000000 0.000000 0.000000 0.000000 0.000000 0.000000 0.000000 0.000000
0.000000 0.000000 0.000000 0.000000 0.000000 0.000000 0.000000 0.000000 0.000000 0.000000 0.000000 0.000000 0.000000 0.000000 0.000000 0.000000 0.000000 0.000000 0.000000 0.000000 0.000000 0.000000 0.000000 0.000000 0.000000 0.000000 0.000000 0.000000 0.000000 0.000000 0.000000 0.000000 0.000000 0.000000 0.000000 0.000000 0.000000 0.000000 0.000000 0.000000 0.000000 0.000000 0.000000 0.000000 0.000000 0.000000 0.000000 0.000000 0.000000 0.000000 0.000000 0.000000 0.000000 0.000000 0.000000 0.000000 0.000000 0.000000 0.000000 0.000000 0.000000 0.000000 0.000000 0.000000 0.000000 0.000000 0.000000 0.000000 0.000000 0.000000 0.000000 0.000000 0.000000 0.000000 0.000000 0.000000 0.000000 0.000000 0.000000 0.000000 0.000000 0.000000 0.000000 0.000000 0.000000 0.000000 0.000000 0.000000 0.000000 0.000000 0.000000 0.000000 0.000000 0.000000 0.000000 0.000000 0.000000 0.000000 0.000000 0.000000 0.000000 0.000000 0.000000
0.000000 0.000000 0.000000 0.000000 0.000000 0.000000 0.000000 0.000000 0.000000 0.000000 0.000000 0.000000 0.000000 0.000000 0.000000 0.000000 0.000000 0.000000 0.000000 0.000000 0.000000 0.000000 0.000000 0.000000 0.000000 0.000000 0.000000 0.000000 0.000000 0.000000 0.000000 0.000000 0.000000 0.000000 0.000000 0.000000 0.000000 0.000000 0.000000 0.000000 0.000000 0.000000 0.000000 0.000000 0.000000 0.000000 0.000000 0.000000 0.000000 0.000000 0.000000 0.000000 0.000000 0.000000 0.000000 0.000000 0.000000 0.000000 0.000000 0.000000 0.000000 0.000000 0.000000 0.000000 0.000000 0.000000 0.000000 0.000000 0.000000 0.000000 0.000000 0.000000 0.000000 0.000000 0.000000 0.000000 0.000000 0.000000 0.000000 0.000000 0.000000 0.000000 0.000000 0.000000 0.000000 0.000000 0.000000 0.000000 0.000000 0.000000 0.000000 0.000000 0.000000 0.000000 0.000000 0.000000 0.000000 0.000000 0.000000 0.000000 0.000000 0.000000 0.000000
0.000000 0.000000 0.000000 0.000000 0.000000 0.000000 0.000000 0.000000 0.000000 0.000000 0.000000 0.000000 0.000000 0.000000 0.000000 0.000000 0.000000 0.000000 0.000000 0.000000 0.000000 0.000000 0.000000 0.000000 0.000000 0.000000 0.000000 0.000000 0.000000 0.000000 0.000000 0.000000 0.000000 0.000000 0.000000 0.000000 0.000000 0.000000 0.000000 0.000000 0.000000 0.000000 0.000000 0.000000 0.000000 0.000000 0.000000 0.000000 0.000000 0.000000 0.000000 0.000000 0.000000 0.000000 0.000000 0.000000 0.000000 0.000000 0.000000 0.000000 0.000000 0.000000 0.000000 0.000000 0.000000 0.000000 0.000000 0.000000 0.000000 0.000000 0.000000 0.000000 0.000000 0.000000 0.000000 0.000000 0.000000 0.000000 0.000000 0.000000 0.000000 0.000000 0.000000 0.000000 0.000000 0.000000 0.000000 0.000000 0.000000 0.000000 0.000000 0.000000 0.000000 0.000000 0.000000 0.000000 0.000000 0.000000 0.000000 0.000000 0.000000 0.000000 0.000000
0.000000 0.000000 0.000000 0.000000 0.000000 0.000000 0.000000 0.000000 0.000000 0.000000 0.000000 0.000000 0.000000 0.000000 0.000000 0.000000 0.000000 0.000000 0.000000 0.000000 0.000000 0.000000 0.000000 0.000000 0.000000 0.000000 0.000000 0.000000 0.000000 0.000000 0.000000 0.000000 0.000000 0.000000 0.000000 0.000000 0.000000 0.000000 0.000000 0.000000 0.000000 0.000000 0.000000 0.000000 0.000000 0.000000 0.000000 0.000000 0.000000 0.000000 0.000000 0.000000 0.000000 0.000000 0.000000 0.000000 0.000000 0.000000 0.000000 0.000000 0.000000 0.000000 0.000000 0.000000 0.000000 0.000000 0.000000 0.000000 0.000000 0.000000 0.000000 0.000000 0.000000 0.000000 0.000000 0.000000 0.000000 0.000000 0.000000 0.000000 0.000000 0.000000 0.000000 0.000000 0.000000 0.000000 0.000000 0.000000 0.000000 0.000000 0.000000 0.000000 0.000000 0.000000 0.000000 0.000000 0.000000 0.000000 0.000000 0.000000 0.000000 0.000000 0.000000
0.000000 0.000000 0.000000 0.000000 25.085458 25.085458 25.085458 25.085458 25.085458 25.085458 25.085458 25.085458 25.085458 25.085458 25.085458 25.085458 27.602705 27.602705 27.602705 27.602705 27.602705 27.602705 27.602705 27.602705 27.602705 27.602705 27.602705 27.602705 0.000000 0.000000 0.000000 0.000000 0.000000 0.000000 0.000000 0.000000 0.000000 0.000000 0.000000 0.000000 13.869798 13.869798 13.869798 13.869798 13.869798 13.869798 0.000000 0.000000 0.000000 0.000000 0.000000 0.000000 0.000000 0.000000 0.000000 0.000000 0.000000 0.000000 0.000000 0.000000 0.000000 0.000000 0.000000 0.000000 0.000000 0.000000 0.000000 0.000000 0.000000 0.000000 0.000000 0.000000 0.000000 0.000000 0.000000 0.000000 0.000000 0.000000 0.000000 0.000000 0.000000 0.000000 0.000000 0.000000 0.000000 0.000000 0.000000 0.000000 0.000000 0.000000 0.000000 0.000000 0.000000 0.000000 0.000000 0.000000 0.000000 0.000000 0.000000 0.000000 0.000000 0.000000 0.000000
0.000000 0.000000 0.000000 0.000000 25.085458 25.085458 25.085458 25.085458 25.085458 25.085458 25.085458 25.085458 25.085458 25.085458 25.085458 25.085458 27.602705 27.602705 27.602705 27.602705 27.602705 27.602705 27.602705 27.602705 27.602705 27.602705 27.602705 27.602705 0.000000 0.000000 0.000000 0.000000 0.000000 0.000000 0.000000 0.000000 0.000000 0.000000 0.000000 0.000000 13.869798 13.869798 13.869798 13.869798 13.869798 13.869798 0.000000 0.000000 0.000000 0.000000 0.000000 0.000000 0.000000 0.000000 0.000000 0.000000 0.000000 0.000000 0.000000 0.000000 0.000000 0.000000 0.000000 0.000000 0.000000 0.000000 0.000000 0.000000 0.000000 0.000000 0.000000 0.000000 0.000000 0.000000 0.000000 0.000000 0.000000 0.000000 0.000000 0.000000 0.000000 0.000000 0.000000 0.000000 0.000000 0.000000 0.000000 0.000000 0.000000 0.000000 0.000000 0.000000 0.000000 0.000000 0.000000 0.000000 0.000000 0.000000 0.000000 0.000000 0.000000 0.000000 0.000000
0.000000 0.000000 0.000000 0.000000 25.085458 25.085458 25.085458 25.085458 25.085458 25.085458 25.085458 25.085458 25.085458 25.085458 25.085458 25.085458 27.602705 27.602705 27.602705 27.602705 27.602705 27.602705 27.602705 27.602705 27.602705 27.602705 27.602705 27.602705 0.000000 0.000000 0.000000 0.000000 0.000000 0.000000 0.000000 0.000000 0.000000 0.000000 0.000000 0.000000 13.869798 13.869798 13.869798 13.869798 13.869798 13.869798 0.000000 0.000000 0.000000 0.000000 0.000000 0.000000 0.000000 0.000000 0.000000 0.000000 0.000000 0.000000 0.000000 0.000000 7.230515 7.230515 7.230515 7.230515 7.230515 7.230515 0.000000 0.000000 0.000000 0.000000 0.000000 0.000000 0.000000 0.000000 0.000000 12.091438 12.091438 12.091438 12.091438 12.091438 12.091438 12.091438 12.091438 12.091438 0.000000 0.000000 0.000000 0.000000 12.394521 12.394521 12.394521 12.394521 12.394521 12.394521 12.394521 12.394521 12.394521 0.000000 0.000000 0.000000 0.000000 0.000000 0.000000
0.000000 0.000000 0.000000 0.000000 25.085458 25.085458 25.085458 25.085458 25.085458 25.085458 25.085458 25.085458 25.085458 25.085458 25.085458 25.085458 27.602705 27.602705 27.602705 27.602705 27.602705 27.602705 27.602705 27.602705 27.602705 27.602705 27.602705 27.602705 0.000000 0.000000 0.000000 0.000000 0.000000 0.000000 0.000000 0.000000 0.000000 0.000000 0.000000 0.000000 13.869798 13.869798 13.869798 13.869798 13.869798 13.869798 0.000000 0.000000 0.000000 0.000000 0.000000 0.000000 0.000000 0.000000 0.000000 0.000000 0.000000 0.000000 0.000000 0.000000 7.230515 7.230515 7.230515 7.230515 7.230515 7.230515 0.000000 0.000000 0.000000 0.000000 0.000000 0.000000 0.000000 0.000000 0.000000 12.091438 12.091438 12.091438 12.091438 12.091438 12.091438 12.091438 12.091438 12.091438 0.000000 0.000000 0.000000 0.000000 12.394521 12.394521 12.394521 12.394521 12.394521 12.394521 12.394521 12.394521 12.394521 0.000000 0.000000 0.000000 0.000000 0.000000 0.000000
0.000000 0.000000 0.000000 0.000000 25.085458 25.085458 25.085458 25.085458 25.085458 25.085458 25.085458 25.085458 25.085458 25.085458 25.085458 25.085458 27.602705 27.602705 27.602705 27.602705 27.602705 27.602705 27.602705 27.602705 27.602705 27.602705 27.602705 27.602705 0.000000 0.000000 0.000000 0.000000 0.000000 0.000000 0.000000 0.000000 0.000000 0.000000 0.000000 0.000000 13.869798 13.869798 13.869798 13.869798 13.869798 13.869798 0.000000 0.000000 0.000000 0.000000 0.000000 0.000000 0.000000 0.000000 0.000000 0.000000 0.000000 0.000000 0.000000 0.000000 7.230515 7.230515 7.230515 7.230515 7.230515 7.230515 0.000000 0.000000 0.000000 0.000000 0.000000 0.000000 0.000000 0.000000 0.000000 12.091438 12.091438 12.091438 12.091438 12.091438 12.091438 12.091438 12.091438 12.091438 0.000000 0.000000 0.000000 0.000000 12.394521 12.394521 12.394521 12.394521 12.394521 12.394521 12.394521 12.394521 12.394521 0.000000 0.000000 0.000000 0.000000 0.000000 0.000000
0.000000 0.000000 0.000000 0.000000 25.085458 25.085458 25.085458 25.085458 25.085458 25.085458 25.085458 25.085458 25.085458 25.085458 25.085458 25.085458 27.602705 27.602705 27.602705 27.602705 27.602705 27.602705 27.602705 27.602705 27.602705 27.602705 27.602705 27.602705 0.000000 0.000000 0.000000 0.000000 0.000000 0.000000 0.000000 0.000000 0.000000 0.000000 0.000000 0.000000 13.869798 13.869798 13.869798 13.869798 13.869798 13.869798 0.000000 0.000000 0.000000 0.000000 0.000000 0.000000 0.000000 0.000000 0.000000 0.000000 0.000000 0.000000 0.000000 0.000000 7.230515 7.230515 7.230515 7.230515 7.230515 7.230515 0.000000 0.000000 0.000000 0.000000 0.000000 0.000000 0.000000 0.000000 0.000000 12.091438 12.091438 12.091438 12.091438 12.091438 12.091438 12.091438 12.091438 12.091438 0.000000 0.000000 0.000000 0.000000 12.394521 12.394521 12.394521 12.394521 12.394521 12.394521 12.394521 12.394521 12.394521 0.000000 0.000000 0.000000 0.000000 0.000000 0.000000
0.000000 0.000000 0.000000 0.000000 25.085458 25.085458 25.085458 25.085458 25.085458 25.085458 25.085458 25.085458 25.085458 25.085458 25.085458 25.085458 27.602705 27.602705 27.602705 27.602705 27.602705 27.602705 27.602705 27.602705 27.602705 27.602705 27.602705 27.602705 0.000000 0.000000 0.000000 0.000000 0.000000 0.000000 0.000000 0.000000 0.000000 0.000000 0.000000 0.000000 13.869798 13.869798 13.869798 13.869798 13.869798 13.869798 0.000000 0.000000 0.000000 0.000000 0.000000 0.000000 0.000000 0.000000 0.000000 0.000000 0.000000 0.000000 0.000000 0.000000 7.230515 7.230515 7.230515 7.230515 7.230515 7.230515 0.000000 0.000000 0.000000 0.000000 0.000000 0.000000 0.000000 0.000000 0.000000 12.091438 12.091438 12.091438 12.091438 12.091438 12.091438 12.091438 12.091438 12.091438 0.000000 0.000000 0.000000 0.000000 12.394521 12.394521 12.394521 12.394521 12.394521 12.394521 12.394521 12.394521 12.394521 0.000000 0.000000 0.000000 0.000000 0.000000 0.000000
0.000000 0.000000 0.000000 0.000000 25.085458 25.085458 25.085458 25.085458 25.085458 25.085458 25.085458 25.085458 25.085458 25.085458 25.085458 25.085458 27.602705 27.602705 27.602705 27.602705 27.602705 27.602705 27.602705 27.602705 27.602705 27.602705 27.602705 27.602705 0.000000 0.000000 0.000000 0.000000 0.000000 0.000000 0.000000 0.000000 0.000000 0.000000 0.000000 0.000000 13.869798 13.869798 13.869798 13.869798 13.869798 13.869798 0.000000 0.000000 0.000000 0.000000 0.000000 0.000000 0.000000 0.000000 0.000000 0.000000 0.000000 0.000000 0.000000 0.000000 0.000000 0.000000 0.000000 0.000000 0.000000 0.000000 0.000000 0.000000 0.000000 0.000000 0.000000 0.000000 0.000000 0.000000 0.000000 0.000000 0.000000 0.000000 0.000000 0.000000 0.000000 0.000000 0.000000 0.000000 0.000000 0.000000 0.000000 0.000000 0.000000 0.000000 0.000000 0.000000 0.000000 0.000000 0.000000 0.000000 0.000000 0.000000 0.000000 0.000000 0.000000 0.000000 0.000000
0.000000 0.000000 0.000000 0.000000 25.085458 25.085458 25.085458 25.085458 25.085458 25.085458 25.085458 25.085458 25.085458 25.085458 25.085458 25.085458 27.602705 27.602705 27.602705 27.602705 27.602705 27.602705 27.602705 27.602705 27.602705 27.602705 27.602705 27.602705 0.000000 0.000000 0.000000 0.000000 0.000000 0.000000 0.000000 0.000000 0.000000 0.000000 0.000000 0.000000 13.869798 13.869798 13.869798 13.869798 13.869798 13.869798 0.000000 0.000000 0.000000 0.000000 0.000000 0.000000 0.000000 0.000000 0.000000 0.000000 0.000000 0.000000 0.000000 0.000000 0.000000 0.000000 0.000000 0.000000 0.000000 0.000000 0.000000 0.000000 0.000000 0.000000 0.000000 0.000000 0.000000 0.000000 0.000000 0.000000 0.000000 0.000000 0.000000 0.000000 0.000000 0.000000 0.000000 0.000000 0.000000 0.000000 0.000000 0.000000 0.000000 0.000000 0.000000 0.000000 0.000000 0.000000 0.000000 0.000000 0.000000 0.000000 0.000000 0.000000 0.000000 0.000000 0.000000
0.000000 0.000000 0.000000 0.000000 0.000000 0.000000 0.000000 0.000000 0.000000 0.000000 0.000000 0.000000 0.000000 0.000000 0.000000 0.000000 0.000000 0.000000 0.000000 0.000000 0.000000 0.000000 0.000000 0.000000 0.000000 0.000000 0.000000 0.000000 0.000000 0.000000 0.000000 0.000000 0.000000 0.000000 0.000000 0.000000 0.000000 0.000000 0.000000 0.000000 0.000000 0.000000 0.000000 0.000000 0.000000 0.000000 0.000000 0.000000 0.000000 0.000000 0.000000 0.000000 0.000000 0.000000 0.000000 0.000000 0.000000 0.000000 0.000000 0.000000 0.000000 0.000000 0.000000 0.000000 0.000000 0.000000 0.000000 0.000000 0.000000 0.000000 0.000000 0.000000 0.000000 0.000000 0.000000 0.000000 0.000000 0.000000 0.000000 0.000000 0.000000 0.000000 0.000000 0.000000 0.000000 0.000000 0.000000 0.000000 0.000000 0.000000 0.000000 0.000000 0.000000 0.000000 0.000000 0.000000 0.000000 0.000000 0.000000 0.000000 0.000000 0.000000 0.000000
0.000000 0.000000 0.000000 0.000000 0.000000 0.000000 0.000000 0.000000 0.000000 0.000000 0.000000 0.000000 0.000000 0.000000 0.000000 0.000000 0.000000 0.000000 0.000000 0.000000 0.000000 0.000000 0.000000 0.000000 0.000000 0.000000 0.000000 0.000000 0.000000 0.000000 0.000000 0.000000 0.000000 0.000000 0.000000 0.000000 0.000000 0.000000 0.000000 0.000000 0.000000 0.000000 0.000000 0.000000 0.000000 0.000000 0.000000 0.000000 0.000000 0.000000 0.000000 0.000000 0.000000 0.000000 0.000000 0.000000 0.000000 0.000000 0.000000 0.000000 0.000000 0.000000 0.000000 0.000000 0.000000 0.000000 0.000000 0.000000 0.000000 0.000000 0.000000 0.000000 0.000000 0.000000 0.000000 0.000000 0.000000 0.000000 0.000000 0.000000 0.000000 0.000000 0.000000 0.000000 0.000000 0.000000 0.000000 0.000000 0.000000 0.000000 0.000000 0.000000 0.000000 0.000000 0.000000 0.000000 0.000000 0.000000 0.000000 0.000000 0.000000 0.000000 0.000000
0.000000 0.000000 0.000000 0.000000 0.000000 0.000000 0.000000 0.000000 0.000000 0.000000 0.000000 0.000000 0.000000 0.000000 0.000000 0.000000 0.000000 0.000000 0.000000 0.000000 0.000000 0.000000 0.000000 0.000000 0.000000 0.000000 0.000000 0.000000 0.000000 0.000000 0.000000 0.000000 0.000000 0.000000 0.000000 0.000000 0.000000 0.000000 0.000000 0.000000 0.000000 0.000000 0.000000 0.000000 0.000000 0.000000 0.000000 0.000000 0.000000 0.000000 0.000000 0.000000 0.000000 0.000000 0.000000 0.000000 0.000000 0.000000 0.000000 0.000000 0.000000 0.000000 0.000000 0.000000 0.000000 0.000000 0.000000 0.000000 0.000000 0.000000 0.000000 0.000000 0.000000 0.000000 0.000000 0.000000 0.000000 0.000000 0.000000 0.000000 0.000000 0.000000 0.000000 0.000000 0.000000 0.000000 0.000000 0.000000 0.000000 0.000000 0.000000 0.000000 0.000000 0.000000 0.000000 0.000000 0.000000 0.000000 0.000000 0.000000 0.000000 0.000000 0.000000
0.000000 0.000000 0.000000 0.000000 0.000000 0.000000 0.000000 0.000000 0.000000 0.000000 0.000000 0.000000 0.000000 0.000000 0.000000 0.000000 0.000000 0.000000 0.000000 0.000000 0.000000 0.000000 0.000000 0.000000 0.000000 0.000000 0.000000 0.000000 0.000000 0.000000 0.000000 0.000000 0.000000 0.000000 0.000000 0.000000 0.000000 0.000000 0.000000 0.000000 0.000000 0.000000 0.000000 0.000000 0.000000 0.000000 0.000000 0.000000 0.000000 0.000000 0.000000 0.000000 0.000000 0.000000 0.000000 0.000000 0.000000 0.000000 0.000000 0.000000 0.000000 0.000000 0.000000 0.000000 0.000000 0.000000 0.000000 0.000000 0.000000 0.000000 0.000000 0.000000 0.000000 0.000000 0.000000 0.000000 0.000000 0.000000 0.000000 0.000000 0.000000 0.000000 0.000000 0.000000 0.000000 0.000000 0.000000 0.000000 0.000000 0.000000 0.000000 0.000000 0.000000 0.000000 0.000000 0.000000 0.000000 0.000000 0.000000 0.000000 0.000000 0.000000 0.000000
