0.000000 0.000000 0.000000 0.000000 0.000000 0.000000 0.000000 0.000000 0.000000 0.000000 0.000000 0.000000 0.000000 0.000000 0.000000 0.000000 0.000000 0.000000 0.000000 0.000000 0.000000 0.000000 0.000000 0.000000 0.000000 0.000000 0.000000 0.000000 0.000000 0.000000 0.000000 0.000000 0.000000 0.000000 0.000000 0.000000 0.000000 0.000000 0.000000 0.000000 0.000000 0.000000 0.000000 0.000000 0.000000 0.000000 0.000000 0.000000 0.000000 0.000000 0.000000 0.000000 0.000000 0.000000 0.000000 0.000000 0.000000 0.000000 0.000000 0.000000 0.000000 0.000000 0.000000 0.000000 0.000000 0.000000 0.000000 0.000000 0.000000 0.000000 0.000000 0.000000 0.000000 0.000000 0.000000 0.000000 0.000000 0.000000 0.000000 0.000000 0.000000 0.000000 0.000000 0.000000 0.000000 0.000000 0.000000 0.000000 0.000000 0.000000 0.000000 0.000000 0.000000 0.000000 0.000000 0.000000 0.000000 0.000000 0.000000 0.000000 0.000000 0.000000 0.000000
0.000000 0.000000 0.000000 0.000000 0.000000 0.000000 0.000000 0.000000 0.000000 0.000000 0.000000 0.000000 0.000000 0.000000 0.000000 0.000000 0.000000 0.000000 0.000000 0.000000 0.000000 0.000000 0.000000 0.000000 0.000000 0.000000 0.000000 0.000000 0.000000 0.000000 0.000000 0.000000 0.000000 0.000000 0.000000 0.000000 0.000000 0.000000 0.000000 0.000000 0.000000 0.000000 0.000000 0.000000 0.000000 0.000000 0.000000 0.000000 0.000000 0.000000 0.000000 0.000000 0.000000 0.000000 0.000000 0.000000 0.000000 0.000000 0.000000 0.000000 0.000000 0.000000 0.000000 0.000000 0.000000 0.000000 0.000000 0.000000 0.000000 0.000000 0.000000 0.000000 0.000000 0.000000 0.000000 0.000000 0.000000 0.000000 0.000000 0.000000 0.000000 0.000000 0.000000 0.000000 0.000000 0.000000 0.000000 0.000000 0.000000 0.000000 0.000000 0.000000 0.000000 0.000000 0.000000 0.000000 0.000000 0.000000 0.000000 0.000000 0.000000 0.000000 0.000000
0.000000 0.000000 0.000000 0.000000 0.000000 0.000000 0.000000 0.000000 0.000000 0.000000 0.000000 0.000000 0.000000 0.000000 0.000000 0.000000 0.000000 0.000000 0.000000 0.000000 0.000000 0.000000 0.000000 0.000000 0.000000 0.000000 0.000000 0.000000 0.000000 0.000000 0.000000 0.000000 0.000000 0.000000 0.000000 0.000000 0.000000 0.000000 0.000000 0.000000 0.000000 0.000000 0.000000 0.000000 0.000000 0.000000 0.000000 0.000000 0.000000 0.000000 0.000000 0.000000 0.000000 0.000000 0.000000 0.000000 0.000000 0.000000 0.000000 0.000000 0.000000 0.000000 0.000000 0.000000 0.000000 0.000000 0.000000 0.000000 0.000000 0.000000 0.000000 0.000000 0.000000 0.000000 0.000000 0.000000 0.000000 0.000000 0.000000 0.000000 0.000000 0.000000 0.000000 0.000000 0.000000 0.000000 0.000000 0.000000 0.000000 0.000000 0.000000 0.000000 0.000000 0.000000 0.000000 0.000000 0.000000 0.000000 0.000000 0.000000 0.000000 0.000000 0.000000
0.000000 0.000000 0.000000 0.000000 0.000000 0.000000 0.000000 0.000000 0.000000 0.000000 0.000000 0.000000 0.000000 0.000000 0.000000 0.000000 0.000000 0.000000 0.000000 0.000000 0.000000 0.000000 0.000000 0.000000 0.000000 0.000000 0.000000 0.000000 0.000000 0.000000 0.000000 0.000000 0.000000 0.000000 0.000000 0.000000 0.000000 0.000000 0.000000 0.000000 0.000000 0.000000 0.000000 0.000000 0.000000 0.000000 0.000000 0.000000 0.000000 0.000000 0.000000 0.000000 0.000000 0.000000 0.000000 0.000000 0.000000 0.000000 0.000000 0.000000 0.000000 0.000000 0.000000 0.000000 0.000000 0.000000 0.000000 0.000000 0.000000 0.000000 0.000000 0.000000 0.000000 0.000000 0.000000 0.000000 0.000000 0.000000 0.000000 0.000000 0.000000 0.000000 0.000000 0.000000 0.000000 0.000000 0.000000 0.000000 0.000000 0.000000 0.000000 0.000000 0.000000 0.000000 0.000000 0.000000 0.000000 0.000000 0.000000 0.000000 0.000000 0.000000 0.000000
0.000000 0.000000 0.000000 0.000000 0.000000 0.000000 0.000000 0.000000 0.000000 0.000000 0.000000 0.000000 0.000000 13.243113 13.243113 13.243113 13.243113 13.243113 13.243113 13.243113 15.046879 15.046879 15.046879 15.046879 15.046879 15.046879 15.046879 15.046879 0.000000 0.000000 0.000000 0.000000 0.000000 13.321590 13.321590 13.321590 13.321590 13.321590 13.321590 13.321590 13.321590 0.000000 0.000000 0.000000 0.000000 0.000000 0.000000 0.000000 0.000000 0.000000 0.000000 0.000000 0.000000 0.000000 0.000000 0.000000 0.000000 0.000000 0.000000 0.000000 0.000000 0.000000 0.000000 0.000000 0.000000 0.000000 0.000000 0.000000 0.000000 0.000000 0.000000 0.000000 0.000000 0.000000 0.000000 0.000000 0.000000 0.000000 0.000000 0.000000 0.000000 0.000000 0.000000 0.000000 0.000000 0.000000 0.000000 0.000000 0.000000 0.000000 0.000000 0.000000 0.000000 0.000000 0.000000 0.000000 0.000000 0.000000 0.000000 0.000000 0.000000 0.000000 0.000000
0.000000 0.000000 0.000000 0.000000 0.000000 0.000000 0.000000 0.000000 0.000000 0.000000 0.000000 0.000000 0.000000 13.243113 13.243113 13.243113 13.243113 13.243113 13.243113 13.243113 15.046879 15.046879 15.046879 15.046879 15.046879 15.046879 15.046879 15.046879 0.000000 0.000000 0.000000 0.000000 0.000000 13.321590 13.321590 13.321590 13.321590 13.321590 13.321590 13.321590 13.321590 0.000000 0.000000 0.000000 0.000000 0.000000 0.000000 0.000000 0.000000 0.000000 0.000000 0.000000 0.000000 0.000000 0.000000 0.000000 0.000000 0.000000 0.000000 0.000000 0.000000 0.000000 0.000000 0.000000 0.000000 0.000000 0.000000 0.000000 0.000000 0.000000 0.000000 0.000000 0.000000 0.000000 0.000000 0.000000 0.000000 0.000000 0.000000 0.000000 0.000000 0.000000 0.000000 0.000000 0.000000 0.000000 0.000000 0.000000 0.000000 0.000000 0.000000 0.000000 0.000000 0.000000 0.000000 0.000000 0.000000 0.000000 0.000000 0.000000 0.000000 0.000000 0.000000
0.000000 0.000000 0.000000 0.000000 0.000000 0.000000 0.000000 0.000000 0.000000 0.000000 0.000000 0.000000 0.000000 13.243113 13.243113 13.243113 13.243113 13.243113 13.243113 13.243113 15.046879 15.046879 15.046879 15.046879 15.046879 15.046879 15.046879 15.046879 0.000000 0.000000 0.000000 0.000000 0.000000 13.321590 13.321590 13.321590 13.321590 13.321590 13.321590 13.321590 13.321590 0.000000 0.000000 0.000000 0.000000 0.000000 0.000000 0.000000 0.000000 0.000000 0.000000 0.000000 0.000000 0.000000 0.000000 0.000000 0.000000 0.000000 0.000000 0.000000 0.000000 0.000000 21.310557 21.310557 21.310557 21.310557 21.310557 21.310557 21.310557 21.310557 0.000000 0.000000 0.000000 0.000000 0.000000 0.000000 0.000000 0.000000 0.000000 0.000000 0.000000 0.000000 0.000000 0.000000 0.000000 0.000000 0.000000 0.000000 0.000000 21.311996 21.311996 21.311996 21.311996 21.311996 21.311996 21.311996 21.311996 0.000000 0.000000 0.000000 0.000000 0.000000 0.000000
0.000000 0.000000 0.000000 0.000000 0.000000 0.000000 0.000000 0.000000 0.000000 0.000000 0.000000 0.000000 0.000000 13.243113 13.243113 13.243113 13.243113 13.243113 13.243113 13.243113 15.046879 15.046879 15.046879 15.046879 15.046879 15.046879 15.046879 15.046879 0.000000 0.000000 0.000000 0.000000 0.000000 13.321590 13.321590 13.321590 13.321590 13.321590 13.321590 13.321590 13.321590 0.000000 0.000000 0.000000 0.000000 0.000000 0.000000 0.000000 0.000000 0.000000 0.000000 0.000000 0.000000 0.000000 0.000000 0.000000 0.000000 0.000000 0.000000 0.000000 0.000000 0.000000 21.310557 21.310557 21.310557 21.310557 21.310557 21.310557 21.310557 21.310557 0.000000 0.000000 0.000000 0.000000 0.000000 0.000000 0.000000 0.000000 0.000000 0.000000 0.000000 0.000000 0.000000 0.000000 0.000000 0.000000 0.000000 0.000000 0.000000 21.311996 21.311996 21.311996 21.311996 21.311996 21.311996 21.311996 21.311996 0.000000 0.000000 0.000000 0.000000 0.000000 0.000000
0.000000 0.000000 0.000000 0.000000 0.000000 0.000000 0.000000 0.000000 0.000000 0.000000 0.000000 0.000000 0.000000 13.243113 13.243113 13.243113 13.243113 13.243113 13.243113 13.243113 15.046879 15.046879 15.046879 15.046879 15.046879 15.046879 15.046879 15.046879 0.000000 0.000000 0.000000 0.000000 0.000000 13.321590 13.321590 13.321590 13.321590 13.321590 13.321590 13.321590 13.321590 0.000000 0.000000 0.000000 0.000000 0.000000 0.000000 0.000000 0.000000 0.000000 0.000000 0.000000 0.000000 0.000000 0.000000 0.000000 0.000000 0.000000 0.000000 0.000000 0.000000 0.000000 21.310557 21.310557 21.310557 21.310557 21.310557 21.310557 21.310557 21.310557 0.000000 0.000000 0.000000 0.000000 0.000000 0.000000 0.000000 0.000000 0.000000 0.000000 0.000000 0.000000 0.000000 0.000000 0.000000 0.000000 0.000000 0.000000 0.000000 21.311996 21.311996 21.311996 21.311996 21.311996 21.311996 21.311996 21.311996 0.000000 0.000000 0.000000 0.000000 0.000000 0.000000
0.000000 0.000000 0.000000 0.000000 0.000000 0.000000 0.000000 0.000000 0.000000 0.000000 0.000000 0.000000 0.000000 13.243113 13.243113 13.243113 13.243113 13.243113 13.243113 13.243113 15.046879 15.046879 15.046879 15.046879 15.046879 15.046879 15.046879 15.046879 0.000000 0.000000 0.000000 0.000000 0.000000 13.321590 13.321590 13.321590 13.321590 13.321590 13.321590 13.321590 13.321590 0.000000 0.000000 0.000000 0.000000 0.000000 0.000000 0.000000 0.000000 0.000000 0.000000 0.000000 0.000000 0.000000 0.000000 0.000000 0.000000 0.000000 0.000000 0.000000 0.000000 0.000000 21.310557 21.310557 21.310557 21.310557 21.310557 21.310557 21.310557 21.310557 0.000000 0.000000 0.000000 0.000000 0.000000 0.000000 0.000000 0.000000 0.000000 0.000000 0.000000 0.000000 0.000000 0.000000 0.000000 0.000000 0.000000 0.000000 0.000000 21.311996 21.311996 21.311996 21.311996 21.311996 21.311996 21.311996 21.311996 0.000000 0.000000 0.000000 0.000000 0.000000 0.000000
0.000000 0.000000 0.000000 0.000000 0.000000 0.000000 0.000000 0.000000 0.000000 0.000000 0.000000 0.000000 0.000000 13.243113 13.243113 13.243113 13.243113 13.243113 13.243113 13.243113 15.046879 15.046879 15.046879 15.046879 15.046879 15.046879 15.046879 15.046879 0.000000 0.000000 0.000000 0.000000 0.000000 13.321590 13.321590 13.321590 13.321590 13.321590 13.321590 13.321590 13.321590 0.000000 0.000000 0.000000 0.000000 0.000000 0.000000 0.000000 0.000000 0.000000 0.000000 0.000000 0.000000 0.000000 0.000000 0.000000 0.000000 0.000000 0.000000 0.000000 0.000000 0.000000 21.310557 21.310557 21.310557 21.310557 21.310557 21.310557 21.310557 21.310557 0.000000 0.000000 0.000000 0.000000 0.000000 0.000000 0.000000 0.000000 0.000000 0.000000 0.000000 0.000000 0.000000 0.000000 0.000000 0.000000 0.000000 0.000000 0.000000 21.311996 21.311996 21.311996 21.311996 21.311996 21.311996 21.311996 21.311996 0.000000 0.000000 0.000000 0.000000 0.000000 0.000000
0.000000 0.000000 0.000000 0.000000 13.421458 13.421458 13.421458 13.421458 13.421458 13.421458 13.421458 13.421458 13.421458 11.487512 11.487512 11.487512 11.487512 11.487512 11.487512 11.487512 13.052158 13.052158 13.052158 13.052158 13.052158 13.052158 13.052158 13.052158 0.000000 0.000000 0.000000 0.000000 0.000000 13.650246 13.650246 13.650246 13.650246 13.650246 13.650246 13.650246 13.650246 0.000000 0.000000 0.000000 0.000000 0.000000 0.000000 0.000000 0.000000 0.000000 0.000000 0.000000 0.000000 0.000000 0.000000 0.000000 0.000000 0.000000 0.000000 0.000000 0.000000 0.000000 21.310557 21.310557 21.310557 21.310557 21.310557 21.310557 21.310557 21.310557 0.000000 0.000000 0.000000 0.000000 0.000000 0.000000 0.000000 0.000000 0.000000 0.000000 0.000000 0.000000 0.000000 0.000000 0.000000 0.000000 0.000000 0.000000 0.000000 21.311996 21.311996 21.311996 21.311996 21.311996 21.311996 21.311996 21.311996 0.000000 0.000000 0.000000 0.000000 0.000000 0.000000
0.000000 0.000000 0.000000 0.000000 13.421458 13.421458 13.421458 13.421458 13.421458 13.421458 13.421458 13.421458 13.421458 11.487512 11.487512 11.487512 11.487512 11.487512 11.487512 11.487512 13.052158 13.052158 13.052158 13.052158 13.052158 13.052158 13.052158 13.052158 0.000000 0.000000 0.000000 0.000000 0.000000 13.650246 13.650246 13.650246 13.650246 13.650246 13.650246 13.650246 13.650246 0.000000 0.000000 0.000000 0.000000 0.000000 0.000000 0.000000 0.000000 0.000000 0.000000 0.000000 0.000000 0.000000 0.000000 0.000000 0.000000 0.000000 0.000000 0.000000 0.000000 0.000000 21.310557 21.310557 21.310557 21.310557 21.310557 21.310557 21.310557 21.310557 0.000000 0.000000 0.000000 0.000000 0.000000 0.000000 0.000000 0.000000 0.000000 0.000000 0.000000 0.000000 0.000000 0.000000 0.000000 0.000000 0.000000 0.000000 0.000000 21.311996 21.311996 21.311996 21.311996 21.311996 21.311996 21.311996 21.311996 0.000000 0.000000 0.000000 0.000000 0.000000 0.000000
0.000000 0.000000 0.000000 0.000000 13.421458 13.421458 13.421458 13.421458 13.421458 13.421458 13.421458 13.421458 13.421458 11.487512 11.487512 11.487512 11.487512 11.487512 11.487512 11.487512 13.052158 13.052158 13.052158 13.052158 13.052158 13.052158 13.052158 13.052158 0.000000 0.000000 0.000000 0.000000 0.000000 13.650246 13.650246 13.650246 13.650246 13.650246 13.650246 13.650246 13.650246 0.000000 0.000000 0.000000 0.000000 0.000000 0.000000 0.000000 0.000000 0.000000 0.000000 0.000000 0.000000 0.000000 0.000000 0.000000 0.000000 0.000000 0.000000 0.000000 0.000000 0.000000 21.310557 21.310557 21.310557 21.310557 21.310557 21.310557 21.310557 21.310557 0.000000 0.000000 0.000000 0.000000 0.000000 0.000000 0.000000 0.000000 0.000000 0.000000 0.000000 0.000000 0.000000 0.000000 0.000000 0.000000 0.000000 0.000000 0.000000 21.311996 21.311996 21.311996 21.311996 21.311996 21.311996 21.311996 21.311996 0.000000 0.000000 0.000000 0.000000 0.000000 0.000000
0.000000 0.000000 0.000000 0.000000 13.421458 13.421458 13.421458 13.421458 13.421458 13.421458 13.421458 13.421458 13.421458 11.487512 11.487512 11.487512 11.487512 11.487512 11.487512 11.487512 13.052158 13.052158 13.052158 13.052158 13.052158 13.052158 13.052158 13.052158 0.000000 0.000000 0.000000 0.000000 0.000000 13.650246 13.650246 13.650246 13.650246 13.650246 13.650246 13.650246 13.650246 0.000000 0.000000 0.000000 0.000000 0.000000 0.000000 0.000000 0.000000 0.000000 0.000000 0.000000 0.000000 0.000000 0.000000 0.000000 0.000000 0.000000 0.000000 0.000000 0.000000 0.000000 21.310557 21.310557 21.310557 21.310557 21.310557 21.310557 21.310557 21.310557 0.000000 0.000000 0.000000 0.000000 0.000000 0.000000 0.000000 0.000000 0.000000 0.000000 0.000000 0.000000 0.000000 0.000000 0.000000 0.000000 0.000000 0.000000 0.000000 21.311996 21.311996 21.311996 21.311996 21.311996 21.311996 21.311996 21.311996 0.000000 0.000000 0.000000 0.000000 0.000000 0.000000
0.000000 0.000000 0.000000 0.000000 13.421458 13.421458 13.421458 13.421458 13.421458 13.421458 13.421458 13.421458 13.421458 11.487512 11.487512 11.487512 11.487512 11.487512 11.487512 11.487512 13.052158 13.052158 13.052158 13.052158 13.052158 13.052158 13.052158 13.052158 0.000000 0.000000 0.000000 0.000000 0.000000 13.650246 13.650246 13.650246 13.650246 13.650246 13.650246 13.650246 13.650246 0.000000 0.000000 0.000000 0.000000 0.000000 0.000000 0.000000 0.000000 0.000000 0.000000 0.000000 0.000000 0.000000 0.000000 0.000000 0.000000 0.000000 0.000000 0.000000 0.000000 0.000000 21.310557 21.310557 21.310557 21.310557 21.310557 21.310557 21.310557 21.310557 0.000000 0.000000 0.000000 0.000000 0.000000 0.000000 0.000000 0.000000 0.000000 0.000000 0.000000 0.000000 0.000000 0.000000 0.000000 0.000000 0.000000 0.000000 0.000000 21.311996 21.311996 21.311996 21.311996 21.311996 21.311996 21.311996 21.311996 0.000000 0.000000 0.000000 0.000000 0.000000 0.000000
0.000000 0.000000 0.000000 0.000000 13.421458 13.421458 13.421458 13.421458 13.421458 13.421458 13.421458 13.421458 13.421458 11.487512 11.487512 11.487512 11.487512 11.487512 11.487512 11.487512 13.052158 13.052158 13.052158 13.052158 13.052158 13.052158 13.052158 13.052158 0.000000 0.000000 0.000000 0.000000 0.000000 13.650246 13.650246 13.650246 13.650246 13.650246 13.650246 13.650246 13.650246 0.000000 0.000000 0.000000 0.000000 0.000000 0.000000 0.000000 0.000000 0.000000 0.000000 0.000000 0.000000 0.000000 0.000000 0.000000 0.000000 0.000000 0.000000 0.000000 0.000000 0.000000 0.000000 0.000000 0.000000 0.000000 0.000000 0.000000 0.000000 0.000000 0.000000 0.000000 0.000000 0.000000 0.000000 0.000000 0.000000 0.000000 0.000000 0.000000 0.000000 0.000000 0.000000 0.000000 0.000000 0.000000 0.000000 0.000000 0.000000 0.000000 0.000000 0.000000 0.000000 0.000000 0.000000 0.000000 0.000000 0.000000 0.000000 0.000000 0.000000 0.000000 0.000000
0.000000 0.000000 0.000000 0.000000 13.421458 13.421458 13.421458 13.421458 13.421458 13.421458 13.421458 13.421458 13.421458 11.487512 11.487512 11.487512 11.487512 11.487512 11.487512 11.487512 13.052158 13.052158 13.052158 13.052158 13.052158 13.052158 13.052158 13.052158 0.000000 0.000000 0.000000 0.000000 0.000000 13.650246 13.650246 13.650246 13.650246 13.650246 13.650246 13.650246 13.650246 0.000000 0.000000 0.000000 0.000000 0.000000 0.000000 0.000000 0.000000 0.000000 0.000000 0.000000 0.000000 0.000000 0.000000 0.000000 0.000000 0.000000 0.000000 0.000000 0.000000 0.000000 0.000000 0.000000 0.000000 0.000000 0.000000 0.000000 0.000000 0.000000 0.000000 0.000000 0.000000 0.000000 0.000000 0.000000 0.000000 0.000000 0.000000 0.000000 0.000000 0.000000 0.000000 0.000000 0.000000 0.000000 0.000000 0.000000 0.000000 0.000000 0.000000 0.000000 0.000000 0.000000 0.000000 0.000000 0.000000 0.000000 0.000000 0.000000 0.000000 0.000000 0.000000
0.000000 0.000000 0.000000 0.000000 0.000000 0.000000 0.000000 0.000000 0.000000 0.000000 0.000000 0.000000 0.000000 0.000000 0.000000 0.000000 0.000000 0.000000 0.000000 0.000000 0.000000 0.000000 0.000000 0.000000 0.000000 0.000000 0.000000 0.000000 0.000000 0.000000 0.000000 0.000000 0.000000 0.000000 0.000000 0.000000 0.000000 0.000000 0.000000 0.000000 0.000000 0.000000 0.000000 0.000000 0.000000 0.000000 0.000000 0.000000 0.000000 0.000000 0.000000 0.000000 0.000000 0.000000 0.000000 0.000000 0.000000 0.000000 0.000000 0.000000 0.000000 0.000000 0.000000 0.000000 0.000000 0.000000 0.000000 0.000000 0.000000 0.000000 0.000000 0.000000 0.000000 0.000000 0.000000 0.000000 0.000000 0.000000 0.000000 0.000000 0.000000 0.000000 0.000000 0.000000 0.000000 0.000000 0.000000 0.000000 0.000000 0.000000 0.000000 0.000000 0.000000 0.000000 0.000000 0.000000 0.000000 0.000000 0.000000 0.000000 0.000000 0.000000 0.000000
0.000000 0.000000 0.000000 0.000000 0.000000 0.000000 0.000000 0.000000 0.000000 0.000000 0.000000 0.000000 0.000000 0.000000 0.000000 0.000000 0.000000 0.000000 0.000000 0.000000 0.000000 0.000000 0.000000 0.000000 0.000000 0.000000 0.000000 0.000000 0.000000 0.000000 0.000000 0.000000 0.000000 0.000000 0.000000 0.000000 0.000000 0.000000 0.000000 0.000000 0.000000 0.000000 0.000000 0.000000 0.000000 0.000000 0.000000 0.000000 0.000000 0.000000 0.000000 0.000000 0.000000 0.000000 0.000000 0.000000 0.000000 0.000000 0.000000 0.000000 0.000000 0.000000 0.000000 0.000000 0.000000 0.000000 0.000000 0.000000 0.000000 0.000000 0.000000 0.000000 0.000000 0.000000 0.000000 0.000000 0.000000 0.000000 0.000000 0.000000 0.000000 0.000000 0.000000 0.000000 0.000000 0.000000 0.000000 0.000000 0.000000 0.000000 0.000000 0.000000 0.000000 0.000000 0.000000 0.000000 0.000000 0.000000 0.000000 0.000000 0.000000 0.000000 0.000000
0.000000 0.000000 0.000000 0.000000 0.000000 0.000000 0.000000 0.000000 0.000000 0.000000 0.000000 0.000000 0.000000 0.000000 0.000000 0.000000 0.000000 0.000000 0.000000 0.000000 0.000000 0.000000 0.000000 0.000000 0.000000 0.000000 0.000000 0.000000 0.000000 0.000000 0.000000 0.000000 0.000000 0.000000 0.000000 0.000000 0.000000 0.000000 0.000000 0.000000 0.000000 0.000000 0.000000 0.000000 0.000000 0.000000 0.000000 0.000000 0.000000 0.000000 0.000000 0.000000 0.000000 0.000000 0.000000 0.000000 0.000000 0.000000 0.000000 0.000000 0.000000 0.000000 0.000000 0.000000 0.000000 0.000000 0.000000 0.000000 0.000000 0.000000 0.000000 0.000000 0.000000 0.000000 0.000000 0.000000 0.000000 0.000000 0.000000 0.000000 0.000000 0.000000 0.000000 0.000000 0.000000 0.000000 0.000000 0.000000 0.000000 0.000000 0.000000 0.000000 0.000000 0.000000 0.000000 0.000000 0.000000 0.000000 0.000000 0.000000 0.000000 0.000000 0.000000
0.000000 0.000000 0.000000 0.000000 0.000000 0.000000 0.000000 0.000000 0.000000 0.000000 0.000000 0.000000 0.000000 0.000000 0.000000 0.000000 0.000000 0.000000 0.000000 0.000000 0.000000 0.000000 0.000000 0.000000 0.000000 0.000000 0.000000 0.000000 0.000000 0.000000 0.000000 0.000000 0.000000 0.000000 0.000000 0.000000 0.000000 0.000000 0.000000 0.000000 0.000000 0.000000 0.000000 0.000000 0.000000 0.000000 0.000000 0.000000 0.000000 0.000000 0.000000 0.000000 0.000000 0.000000 0.000000 0.000000 0.000000 0.000000 0.000000 0.000000 0.000000 0.000000 0.000000 0.000000 0.000000 0.000000 0.000000 0.000000 0.000000 0.000000 0.000000 0.000000 0.000000 0.000000 0.000000 0.000000 0.000000 0.000000 0.000000 0.000000 0.000000 0.000000 0.000000 0.000000 0.000000 0.000000 0.000000 0.000000 0.000000 0.000000 0.000000 0.000000 0.000000 0.000000 0.000000 0.000000 0.000000 0.000000 0.000000 0.000000 0.000000 0.000000 0.000000
0.000000 0.000000 0.000000 0.000000 0.000000 0.000000 0.000000 0.000000 0.000000 0.000000 0.000000 0.000000 0.000000 0.000000 0.000000 0.000000 0.000000 0.000000 0.000000 0.000000 0.000000 0.000000 0.000000 0.000000 0.000000 0.000000 0.000000 0.000000 0.000000 0.000000 0.000000 0.000000 0.000000 0.000000 0.000000 0.000000 0.000000 0.000000 0.000000 0.000000 0.000000 0.000000 0.000000 0.000000 0.000000 0.000000 0.000000 0.000000 0.000000 0.000000 0.000000 0.000000 0.000000 0.000000 0.000000 0.000000 0.000000 0.000000 0.000000 0.000000 0.000000 0.000000 0.000000 0.000000 0.000000 0.000000 0.000000 0.000000 0.000000 0.000000 0.000000 0.000000 0.000000 0.000000 0.000000 0.000000 0.000000 0.000000 0.000000 0.000000 0.000000 0.000000 0.000000 0.000000 0.000000 0.000000 0.000000 0.000000 0.000000 0.000000 0.000000 0.000000 0.000000 0.000000 0.000000 0.000000 0.000000 0.000000 0.000000 0.000000 0.000000 0.000000 0.000000
0.000000 0.000000 0.000000 0.000000 0.000000 0.000000 0.000000 0.000000 0.000000 0.000000 0.000000 0.000000 0.000000 0.000000 0.000000 0.000000 0.000000 0.000000 0.000000 0.000000 0.000000 0.000000 0.000000 0.000000 0.000000 0.000000 0.000000 0.000000 0.000000 0.000000 0.000000 0.000000 0.000000 24.801475 24.801475 24.801475 24.801475 24.801475 24.801475 24.801475 24.801475 0.000000 0.000000 0.000000 0.000000 0.000000 0.000000 0.000000 0.000000 0.000000 0.000000 0.000000 0.000000 0.000000 0.000000 0.000000 0.000000 0.000000 0.000000 0.000000 0.000000 0.000000 0.000000 0.000000 0.000000 0.000000 0.000000 0.000000 0.000000 32.858401 32.858401 32.858401 32.858401 32.858401 32.858401 32.858401 32.858401 32.858401 32.858401 32.858401 32.858401 32.858401 0.000000 0.000000 0.000000 0.000000 0.000000 21.386618 21.386618 21.386618 21.386618 21.386618 21.386618 21.386618 21.386618 21.386618 21.386618 21.386618 21.386618 0.000000 0.000000 0.000000 0.000000
0.000000 0.000000 0.000000 0.000000 0.000000 0.000000 0.000000 0.000000 0.000000 0.000000 0.000000 0.000000 0.000000 0.000000 0.000000 0.000000 0.000000 0.000000 0.000000 0.000000 0.000000 0.000000 0.000000 0.000000 0.000000 0.000000 0.000000 0.000000 0.000000 0.000000 0.000000 0.000000 0.000000 24.801475 24.801475 24.801475 24.801475 24.801475 24.801475 24.801475 24.801475 0.000000 0.000000 0.000000 0.000000 0.000000 0.000000 0.000000 0.000000 0.000000 0.000000 0.000000 0.000000 0.000000 0.000000 0.000000 0.000000 0.000000 0.000000 0.000000 0.000000 0.000000 0.000000 0.000000 0.000000 0.000000 0.000000 0.000000 0.000000 32.858401 32.858401 32.858401 32.858401 32.858401 32.858401 32.858401 32.858401 32.858401 32.858401 32.858401 32.858401 32.858401 0.000000 0.000000 0.000000 0.000000 0.000000 21.386618 21.386618 21.386618 21.386618 21.386618 21.386618 21.386618 21.386618 21.386618 21.386618 21.386618 21.386618 0.000000 0.000000 0.000000 0.000000
0.000000 0.000000 0.000000 0.000000 0.000000 0.000000 20.870661 20.870661 20.870661 20.870661 20.870661 20.870661 20.870661 0.000000 0.000000 0.000000 0.000000 29.338437 29.338437 29.338437 29.338437 29.338437 29.338437 29.338437 29.338437 29.338437 0.000000 0.000000 0.000000 0.000000 0.000000 0.000000 0.000000 24.801475 24.801475 24.801475 24.801475 24.801475 24.801475 24.801475 24.801475 0.000000 0.000000 0.000000 0.000000 0.000000 0.000000 0.000000 8.442365 8.442365 8.442365 8.442365 8.442365 0.000000 0.000000 0.000000 0.000000 0.000000 0.000000 0.000000 0.000000 0.000000 0.000000 0.000000 0.000000 0.000000 0.000000 0.000000 0.000000 32.858401 32.858401 32.858401 32.858401 32.858401 32.858401 32.858401 32.858401 32.858401 32.858401 32.858401 32.858401 32.858401 0.000000 0.000000 0.000000 0.000000 0.000000 21.386618 21.386618 21.386618 21.386618 21.386618 21.386618 21.386618 21.386618 21.386618 21.386618 21.386618 21.386618 0.000000 0.000000 0.000000 0.000000
0.000000 0.000000 0.000000 0.000000 0.000000 0.000000 20.870661 20.870661 20.870661 20.870661 20.870661 20.870661 20.870661 0.000000 0.000000 0.000000 0.000000 29.338437 29.338437 29.338437 29.338437 29.338437 29.338437 29.338437 29.338437 29.338437 0.000000 0.000000 0.000000 0.000000 0.000000 0.000000 0.000000 24.801475 24.801475 24.801475 24.801475 24.801475 24.801475 24.801475 24.801475 0.000000 0.000000 0.000000 0.000000 0.000000 0.000000 0.000000 8.442365 8.442365 8.442365 8.442365 8.442365 0.000000 0.000000 0.000000 0.000000 0.000000 0.000000 0.000000 0.000000 0.000000 0.000000 0.000000 0.000000 0.000000 0.000000 0.000000 0.000000 32.858401 32.858401 32.858401 32.858401 32.858401 32.858401 32.858401 32.858401 32.858401 32.858401 32.858401 32.858401 32.858401 0.000000 0.000000 0.000000 0.000000 0.000000 21.386618 21.386618 21.386618 21.386618 21.386618 21.386618 21.386618 21.386618 21.386618 21.386618 21.386618 21.386618 0.000000 0.000000 0.000000 0.000000
0.000000 0.000000 0.000000 0.000000 0.000000 0.000000 20.870661 20.870661 20.870661 20.870661 20.870661 20.870661 20.870661 0.000000 0.000000 0.000000 0.000000 29.338437 29.338437 29.338437 29.338437 29.338437 29.338437 29.338437 29.338437 29.338437 0.000000 0.000000 0.000000 0.000000 0.000000 0.000000 0.000000 24.801475 24.801475 24.801475 24.801475 24.801475 24.801475 24.801475 24.801475 0.000000 0.000000 0.000000 0.000000 0.000000 0.000000 0.000000 8.442365 8.442365 8.442365 8.442365 8.442365 0.000000 0.000000 0.000000 0.000000 0.000000 0.000000 0.000000 0.000000 0.000000 0.000000 0.000000 0.000000 0.000000 0.000000 0.000000 0.000000 32.858401 32.858401 32.858401 32.858401 32.858401 32.858401 32.858401 32.858401 32.858401 32.858401 32.858401 32.858401 32.858401 0.000000 0.000000 0.000000 0.000000 0.000000 21.386618 21.386618 21.386618 21.386618 21.386618 21.386618 21.386618 21.386618 21.386618 21.386618 21.386618 21.386618 0.000000 0.000000 0.000000 0.000000
0.000000 0.000000 0.000000 0.000000 0.000000 0.000000 20.870661 20.870661 20.870661 20.870661 20.870661 20.870661 20.870661 0.000000 0.000000 0.000000 0.000000 29.338437 29.338437 29.338437 29.338437 29.338437 29.338437 29.338437 29.338437 29.338437 0.000000 0.000000 0.000000 0.000000 0.000000 0.000000 0.000000 24.801475 24.801475 24.801475 24.801475 24.801475 24.801475 24.801475 24.801475 0.000000 0.000000 0.000000 0.000000 0.000000 0.000000 0.000000 8.442365 8.442365 8.442365 8.442365 8.442365 0.000000 0.000000 0.000000 0.000000 0.000000 0.000000 0.000000 0.000000 0.000000 0.000000 0.000000 0.000000 0.000000 0.000000 0.000000 0.000000 32.858401 32.858401 32.858401 32.858401 32.858401 32.858401 32.858401 32.858401 32.858401 32.858401 32.858401 32.858401 32.858401 0.000000 0.000000 0.000000 0.000000 0.000000 21.386618 21.386618 21.386618 21.386618 21.386618 21.386618 21.386618 21.386618 21.386618 21.386618 21.386618 21.386618 0.000000 0.000000 0.000000 0.000000
0.000000 0.000000 0.000000 0.000000 0.000000 0.000000 20.870661 20.870661 20.870661 20.870661 20.870661 20.870661 20.870661 0.000000 0.000000 0.000000 0.000000 29.338437 29.338437 29.338437 29.338437 29.338437 29.338437 29.338437 29.338437 29.338437 0.000000 0.000000 0.000000 0.000000 0.000000 0.000000 0.000000 24.801475 24.801475 24.801475 24.801475 24.801475 24.801475 24.801475 24.801475 0.000000 0.000000 0.000000 0.000000 0.000000 0.000000 0.000000 8.442365 8.442365 8.442365 8.442365 8.442365 0.000000 0.000000 0.000000 0.000000 0.000000 0.000000 0.000000 0.000000 0.000000 0.000000 0.000000 0.000000 0.000000 0.000000 0.000000 0.000000 32.858401 32.858401 32.858401 32.858401 32.858401 32.858401 32.858401 32.858401 32.858401 32.858401 32.858401 32.858401 32.858401 0.000000 0.000000 0.000000 0.000000 0.000000 21.386618 21.386618 21.386618 21.386618 21.386618 21.386618 21.386618 21.386618 21.386618 21.386618 21.386618 21.386618 0.000000 0.000000 0.000000 0.000000
0.000000 0.000000 0.000000 0.000000 0.000000 0.000000 20.870661 20.870661 20.870661 20.870661 20.870661 20.870661 20.870661 0.000000 0.000000 0.000000 0.000000 29.338437 29.338437 29.338437 29.338437 29.338437 29.338437 29.338437 29.338437 29.338437 0.000000 0.000000 0.000000 0.000000 0.000000 0.000000 0.000000 24.801475 24.801475 24.801475 24.801475 24.801475 24.801475 24.801475 24.801475 0.000000 0.000000 0.000000 0.000000 0.000000 0.000000 0.000000 8.442365 8.442365 8.442365 8.442365 8.442365 0.000000 0.000000 0.000000 0.000000 0.000000 0.000000 0.000000 0.000000 0.000000 0.000000 0.000000 0.000000 0.000000 0.000000 0.000000 0.000000 32.858401 32.858401 32.858401 32.858401 32.858401 32.858401 32.858401 32.858401 32.858401 32.858401 32.858401 32.858401 32.858401 0.000000 0.000000 0.000000 0.000000 0.000000 0.000000 0.000000 0.000000 0.000000 0.000000 0.000000 0.000000 0.000000 0.000000 0.000000 0.000000 0.000000 0.000000 0.000000 0.000000 0.000000
0.000000 0.000000 0.000000 0.000000 0.000000 0.000000 20.870661 20.870661 20.870661 20.870661 20.870661 20.870661 20.870661 0.000000 0.000000 0.000000 0.000000 29.338437 29.338437 29.338437 29.338437 29.338437 29.338437 29.338437 29.338437 29.338437 0.000000 0.000000 0.000000 0.000000 0.000000 0.000000 0.000000 24.801475 24.801475 24.801475 24.801475 24.801475 24.801475 24.801475 24.801475 0.000000 0.000000 0.000000 0.000000 0.000000 0.000000 0.000000 8.442365 8.442365 8.442365 8.442365 8.442365 0.000000 0.000000 0.000000 0.000000 0.000000 0.000000 0.000000 0.000000 0.000000 0.000000 0.000000 0.000000 0.000000 0.000000 0.000000 0.000000 32.858401 32.858401 32.858401 32.858401 32.858401 32.858401 32.858401 32.858401 32.858401 32.858401 32.858401 32.858401 32.858401 0.000000 0.000000 0.000000 0.000000 0.000000 0.000000 0.000000 0.000000 0.000000 0.000000 0.000000 0.000000 0.000000 0.000000 0.000000 0.000000 0.000000 0.000000 0.000000 0.000000 0.000000
0.000000 0.000000 0.000000 0.000000 0.000000 0.000000 20.870661 20.870661 20.870661 20.870661 20.870661 20.870661 20.870661 0.000000 0.000000 0.000000 0.000000 29.338437 29.338437 29.338437 29.338437 29.338437 29.338437 29.338437 29.338437 29.338437 0.000000 0.000000 0.000000 0.000000 0.000000 0.000000 0.000000 24.801475 24.801475 24.801475 24.801475 24.801475 24.801475 24.801475 24.801475 0.000000 0.000000 0.000000 0.000000 0.000000 0.000000 0.000000 0.000000 0.000000 0.000000 0.000000 0.000000 0.000000 0.000000 0.000000 0.000000 0.000000 0.000000 0.000000 0.000000 0.000000 0.000000 0.000000 0.000000 0.000000 0.000000 0.000000 0.000000 32.858401 32.858401 32.858401 32.858401 32.858401 32.858401 32.858401 32.858401 32.858401 32.858401 32.858401 32.858401 32.858401 0.000000 0.000000 0.000000 0.000000 0.000000 0.000000 0.000000 0.000000 0.000000 0.000000 0.000000 0.000000 0.000000 0.000000 0.000000 0.000000 0.000000 0.000000 0.000000 0.000000 0.000000
0.000000 0.000000 0.000000 0.000000 0.000000 0.000000 20.870661 20.870661 20.870661 20.870661 20.870661 20.870661 20.870661 0.000000 0.000000 0.000000 0.000000 29.338437 29.338437 29.338437 29.338437 29.338437 29.338437 29.338437 29.338437 29.338437 0.000000 0.000000 0.000000 0.000000 0.000000 0.000000 0.000000 24.801475 24.801475 24.801475 24.801475 24.801475 24.801475 24.801475 24.801475 0.000000 0.000000 0.000000 0.000000 0.000000 0.000000 0.000000 0.000000 0.000000 0.000000 0.000000 0.000000 0.000000 0.000000 0.000000 0.000000 0.000000 0.000000 0.000000 0.000000 0.000000 0.000000 0.000000 0.000000 0.000000 0.000000 0.000000 0.000000 32.858401 32.858401 32.858401 32.858401 32.858401 32.858401 32.858401 32.858401 32.858401 32.858401 32.858401 32.858401 32.858401 0.000000 0.000000 0.000000 0.000000 0.000000 0.000000 0.000000 0.000000 0.000000 0.000000 0.000000 0.000000 0.000000 0.000000 0.000000 0.000000 0.000000 0.000000 0.000000 0.000000 0.000000
0.000000 0.000000 0.000000 0.000000 0.000000 0.000000 20.870661 20.870661 20.870661 20.870661 20.870661 20.870661 20.870661 0.000000 0.000000 0.000000 0.000000 29.338437 29.338437 29.338437 29.338437 29.338437 29.338437 29.338437 29.338437 29.338437 0.000000 0.000000 0.000000 0.000000 0.000000 0.000000 0.000000 24.801475 24.801475 24.801475 24.801475 24.801475 24.801475 24.801475 24.801475 0.000000 0.000000 0.000000 0.000000 0.000000 0.000000 0.000000 0.000000 0.000000 0.000000 0.000000 0.000000 0.000000 0.000000 17.962709 17.962709 17.962709 17.962709 17.962709 17.962709 17.962709 22.631914 22.631914 22.631914 22.631914 22.631914 22.631914 22.631914 22.631914 0.000000 0.000000 0.000000 0.000000 0.000000 0.000000 0.000000 0.000000 0.000000 0.000000 0.000000 0.000000 0.000000 0.000000 0.000000 0.000000 0.000000 0.000000 0.000000 0.000000 0.000000 0.000000 0.000000 0.000000 0.000000 0.000000 0.000000 0.000000 0.000000 0.000000 0.000000 0.000000 0.000000
0.000000 0.000000 0.000000 0.000000 0.000000 0.000000 20.870661 20.870661 20.870661 20.870661 20.870661 20.870661 20.870661 0.000000 0.000000 0.000000 0.000000 29.338437 29.338437 29.338437 29.338437 29.338437 29.338437 29.338437 29.338437 29.338437 0.000000 0.000000 0.000000 0.000000 0.000000 0.000000 0.000000 24.801475 24.801475 24.801475 24.801475 24.801475 24.801475 24.801475 24.801475 0.000000 0.000000 0.000000 0.000000 0.000000 0.000000 0.000000 0.000000 0.000000 0.000000 0.000000 0.000000 0.000000 0.000000 17.962709 17.962709 17.962709 17.962709 17.962709 17.962709 17.962709 22.631914 22.631914 22.631914 22.631914 22.631914 22.631914 22.631914 22.631914 0.000000 0.000000 0.000000 0.000000 0.000000 0.000000 0.000000 0.000000 0.000000 0.000000 0.000000 0.000000 0.000000 0.000000 0.000000 0.000000 0.000000 0.000000 0.000000 0.000000 0.000000 0.000000 0.000000 0.000000 0.000000 0.000000 0.000000 0.000000 0.000000 0.000000 0.000000 0.000000 0.000000
0.000000 0.000000 0.000000 0.000000 0.000000 0.000000 20.870661 20.870661 20.870661 20.870661 20.870661 20.870661 20.870661 0.000000 0.000000 0.000000 0.000000 29.338437 29.338437 29.338437 29.338437 29.338437 29.338437 29.338437 29.338437 29.338437 0.000000 0.000000 0.000000 0.000000 0.000000 0.000000 0.000000 0.000000 0.000000 0.000000 0.000000 0.000000 0.000000 0.000000 0.000000 0.000000 0.000000 0.000000 0.000000 0.000000 0.000000 0.000000 18.657708 18.657708 18.657708 18.657708 18.657708 0.000000 0.000000 17.962709 17.962709 17.962709 17.962709 17.962709 17.962709 17.962709 22.631914 22.631914 22.631914 22.631914 22.631914 22.631914 22.631914 22.631914 0.000000 0.000000 15.167105 15.167105 15.167105 15.167105 15.167105 15.167105 15.167105 15.167105 0.000000 0.000000 0.000000 0.000000 0.000000 0.000000 0.000000 0.000000 0.000000 0.000000 0.000000 0.000000 0.000000 0.000000 0.000000 0.000000 0.000000 0.000000 0.000000 0.000000 0.000000 0.000000 0.000000
0.000000 0.000000 0.000000 0.000000 0.000000 0.000000 20.870661 20.870661 20.870661 20.870661 20.870661 20.870661 20.870661 0.000000 0.000000 0.000000 0.000000 29.338437 29.338437 29.338437 29.338437 29.338437 29.338437 29.338437 29.338437 29.338437 0.000000 0.000000 0.000000 0.000000 0.000000 0.000000 0.000000 0.000000 0.000000 0.000000 0.000000 0.000000 0.000000 0.000000 0.000000 0.000000 0.000000 0.000000 0.000000 0.000000 0.000000 0.000000 18.657708 18.657708 18.657708 18.657708 18.657708 0.000000 0.000000 17.962709 17.962709 17.962709 17.962709 17.962709 17.962709 17.962709 22.631914 22.631914 22.631914 22.631914 22.631914 22.631914 22.631914 22.631914 0.000000 0.000000 15.167105 15.167105 15.167105 15.167105 15.167105 15.167105 15.167105 15.167105 0.000000 0.000000 0.000000 0.000000 0.000000 0.000000 0.000000 0.000000 0.000000 0.000000 0.000000 0.000000 0.000000 0.000000 0.000000 0.000000 0.000000 0.000000 0.000000 0.000000 0.000000 0.000000 0.000000
0.000000 0.000000 0.000000 0.000000 0.000000 0.000000 0.000000 0.000000 0.000000 0.000000 0.000000 0.000000 0.000000 0.000000 0.000000 0.000000 0.000000 0.000000 0.000000 0.000000 0.000000 0.000000 0.000000 0.000000 0.000000 0.000000 0.000000 0.000000 0.000000 0.000000 0.000000 0.000000 0.000000 0.000000 0.000000 0.000000 0.000000 0.000000 0.000000 0.000000 0.000000 0.000000 0.000000 0.000000 0.000000 0.000000 0.000000 0.000000 18.657708 18.657708 18.657708 18.657708 18.657708 0.000000 0.000000 17.962709 17.962709 17.962709 17.962709 17.962709 17.962709 17.962709 22.631914 22.631914 22.631914 22.631914 22.631914 22.631914 22.631914 22.631914 0.000000 0.000000 15.167105 15.167105 15.167105 15.167105 15.167105 15.167105 15.167105 15.167105 0.000000 0.000000 0.000000 0.000000 0.000000 0.000000 0.000000 0.000000 0.000000 0.000000 0.000000 0.000000 0.000000 0.000000 0.000000 0.000000 0.000000 0.000000 0.000000 0.000000 0.000000 0.000000 0.000000
0.000000 0.000000 0.000000 0.000000 0.000000 0.000000 0.000000 0.000000 0.000000 0.000000 0.000000 0.000000 0.000000 0.000000 0.000000 0.000000 0.000000 0.000000 0.000000 0.000000 0.000000 0.000000 0.000000 0.000000 0.000000 0.000000 0.000000 0.000000 0.000000 0.000000 0.000000 0.000000 0.000000 0.000000 0.000000 0.000000 0.000000 0.000000 0.000000 0.000000 0.000000 0.000000 0.000000 0.000000 0.000000 0.000000 0.000000 0.000000 18.657708 18.657708 18.657708 18.657708 18.657708 0.000000 0.000000 17.962709 17.962709 17.962709 17.962709 17.962709 17.962709 17.962709 22.631914 22.631914 22.631914 22.631914 22.631914 22.631914 22.631914 22.631914 0.000000 0.000000 15.167105 15.167105 15.167105 15.167105 15.167105 15.167105 15.167105 15.167105 0.000000 0.000000 0.000000 0.000000 0.000000 0.000000 0.000000 0.000000 0.000000 0.000000 0.000000 0.000000 0.000000 0.000000 0.000000 0.000000 0.000000 0.000000 0.000000 0.000000 0.000000 0.000000 0.000000
0.000000 0.000000 0.000000 0.000000 0.000000 0.000000 0.000000 0.000000 0.000000 0.000000 0.000000 0.000000 0.000000 0.000000 0.000000 0.000000 0.000000 0.000000 0.000000 0.000000 0.000000 0.000000 0.000000 0.000000 0.000000 0.000000 0.000000 0.000000 0.000000 0.000000 0.000000 0.000000 0.000000 0.000000 0.000000 0.000000 0.000000 0.000000 0.000000 0.000000 0.000000 0.000000 0.000000 0.000000 0.000000 0.000000 0.000000 0.000000 18.657708 18.657708 18.657708 18.657708 18.657708 0.000000 0.000000 17.962709 17.962709 17.962709 17.962709 17.962709 17.962709 17.962709 22.631914 22.631914 22.631914 22.631914 22.631914 22.631914 22.631914 22.631914 0.000000 0.000000 15.167105 15.167105 15.167105 15.167105 15.167105 15.167105 15.167105 15.167105 0.000000 0.000000 0.000000 0.000000 0.000000 0.000000 0.000000 0.000000 0.000000 0.000000 0.000000 0.000000 0.000000 0.000000 0.000000 0.000000 0.000000 0.000000 0.000000 0.000000 0.000000 0.000000 0.000000
0.000000 0.000000 0.000000 0.000000 0.000000 0.000000 0.000000 0.000000 0.000000 0.000000 0.000000 0.000000 0.000000 0.000000 0.000000 0.000000 0.000000 0.000000 0.000000 0.000000 0.000000 0.000000 0.000000 0.000000 0.000000 0.000000 0.000000 0.000000 0.000000 0.000000 0.000000 0.000000 0.000000 0.000000 0.000000 0.000000 0.000000 0.000000 0.000000 0.000000 0.000000 0.000000 0.000000 0.000000 0.000000 0.000000 0.000000 0.000000 18.657708 18.657708 18.657708 18.657708 18.657708 0.000000 0.000000 17.962709 17.962709 17.962709 17.962709 17.962709 17.962709 17.962709 22.631914 22.631914 22.631914 22.631914 22.631914 22.631914 22.631914 22.631914 0.000000 0.000000 15.167105 15.167105 15.167105 15.167105 15.167105 15.167105 15.167105 15.167105 0.000000 0.000000 0.000000 0.000000 0.000000 0.000000 0.000000 0.000000 0.000000 0.000000 0.000000 0.000000 0.000000 0.000000 0.000000 0.000000 0.000000 0.000000 0.000000 0.000000 0.000000 0.000000 0.000000
0.000000 0.000000 0.000000 0.000000 0.000000 0.000000 10.604931 10.604931 10.604931 10.604931 10.604931 10.604931 10.604931 0.000000 0.000000 0.000000 0.000000 14.907630 14.907630 14.907630 14.907630 14.907630 14.907630 14.907630 14.907630 14.907630 0.000000 0.000000 0.000000 0.000000 0.000000 0.000000 0.000000 0.000000 0.000000 0.000000 0.000000 0.000000 0.000000 0.000000 0.000000 0.000000 0.000000 0.000000 0.000000 0.000000 0.000000 0.000000 18.657708 18.657708 18.657708 18.657708 18.657708 0.000000 0.000000 17.962709 17.962709 17.962709 17.962709 17.962709 17.962709 17.962709 22.631914 22.631914 22.631914 22.631914 22.631914 22.631914 22.631914 22.631914 0.000000 0.000000 15.167105 15.167105 15.167105 15.167105 15.167105 15.167105 15.167105 15.167105 0.000000 0.000000 0.000000 0.000000 0.000000 0.000000 0.000000 0.000000 0.000000 0.000000 0.000000 0.000000 0.000000 0.000000 0.000000 0.000000 0.000000 0.000000 0.000000 0.000000 0.000000 0.000000 0.000000
0.000000 0.000000 0.000000 0.000000 0.000000 0.000000 10.604931 10.604931 10.604931 10.604931 10.604931 10.604931 10.604931 0.000000 0.000000 0.000000 0.000000 14.907630 14.907630 14.907630 14.907630 14.907630 14.907630 14.907630 14.907630 14.907630 0.000000 0.000000 0.000000 0.000000 0.000000 0.000000 0.000000 0.000000 0.000000 0.000000 0.000000 0.000000 0.000000 0.000000 0.000000 0.000000 0.000000 0.000000 0.000000 0.000000 0.000000 0.000000 18.657708 18.657708 18.657708 18.657708 18.657708 0.000000 0.000000 17.962709 17.962709 17.962709 17.962709 17.962709 17.962709 17.962709 22.631914 22.631914 22.631914 22.631914 22.631914 22.631914 22.631914 22.631914 0.000000 0.000000 0.000000 0.000000 0.000000 0.000000 0.000000 0.000000 0.000000 0.000000 0.000000 0.000000 0.000000 0.000000 0.000000 0.000000 0.000000 0.000000 0.000000 0.000000 0.000000 0.000000 0.000000 0.000000 0.000000 0.000000 0.000000 0.000000 0.000000 0.000000 0.000000 0.000000 0.000000
0.000000 0.000000 0.000000 0.000000 0.000000 0.000000 10.604931 10.604931 10.604931 10.604931 10.604931 10.604931 10.604931 0.000000 0.000000 0.000000 0.000000 14.907630 14.907630 14.907630 14.907630 14.907630 14.907630 14.907630 14.907630 14.907630 0.000000 0.000000 0.000000 0.000000 0.000000 0.000000 0.000000 0.000000 0.000000 0.000000 0.000000 0.000000 0.000000 0.000000 0.000000 0.000000 0.000000 0.000000 0.000000 0.000000 0.000000 0.000000 18.657708 18.657708 18.657708 18.657708 18.657708 0.000000 0.000000 17.962709 17.962709 17.962709 17.962709 17.962709 17.962709 17.962709 22.631914 22.631914 22.631914 22.631914 22.631914 22.631914 22.631914 22.631914 0.000000 0.000000 0.000000 0.000000 0.000000 0.000000 0.000000 0.000000 0.000000 0.000000 0.000000 0.000000 0.000000 0.000000 0.000000 0.000000 0.000000 0.000000 0.000000 0.000000 0.000000 0.000000 0.000000 0.000000 0.000000 0.000000 0.000000 0.000000 0.000000 0.000000 0.000000 0.000000 0.000000
0.000000 0.000000 0.000000 0.000000 0.000000 0.000000 10.604931 10.604931 10.604931 10.604931 10.604931 10.604931 10.604931 0.000000 0.000000 0.000000 0.000000 14.907630 14.907630 14.907630 14.907630 14.907630 14.907630 14.907630 14.907630 14.907630 0.000000 0.000000 0.000000 0.000000 0.000000 0.000000 0.000000 0.000000 0.000000 0.000000 0.000000 0.000000 0.000000 0.000000 0.000000 0.000000 0.000000 0.000000 0.000000 0.000000 0.000000 0.000000 18.657708 18.657708 18.657708 18.657708 18.657708 0.000000 0.000000 14.593373 14.593373 14.593373 14.593373 14.593373 14.593373 14.593373 0.000000 0.000000 0.000000 0.000000 0.000000 0.000000 0.000000 0.000000 0.000000 0.000000 0.000000 0.000000 0.000000 0.000000 0.000000 0.000000 0.000000 0.000000 0.000000 0.000000 0.000000 0.000000 0.000000 0.000000 0.000000 0.000000 0.000000 0.000000 0.000000 0.000000 0.000000 0.000000 0.000000 0.000000 0.000000 0.000000 0.000000 0.000000 0.000000 0.000000 0.000000
0.000000 0.000000 0.000000 0.000000 0.000000 0.000000 10.604931 10.604931 10.604931 10.604931 10.604931 10.604931 10.604931 0.000000 0.000000 0.000000 0.000000 14.907630 14.907630 14.907630 14.907630 14.907630 14.907630 14.907630 14.907630 14.907630 0.000000 0.000000 0.000000 0.000000 0.000000 0.000000 0.000000 0.000000 0.000000 0.000000 0.000000 0.000000 0.000000 0.000000 0.000000 0.000000 0.000000 0.000000 0.000000 0.000000 0.000000 0.000000 18.657708 18.657708 18.657708 18.657708 18.657708 0.000000 0.000000 14.593373 14.593373 14.593373 14.593373 14.593373 14.593373 14.593373 0.000000 0.000000 0.000000 0.000000 0.000000 0.000000 0.000000 0.000000 0.000000 0.000000 0.000000 0.000000 0.000000 0.000000 0.000000 0.000000 0.000000 0.000000 0.000000 0.000000 0.000000 0.000000 0.000000 0.000000 0.000000 0.000000 0.000000 0.000000 0.000000 0.000000 0.000000 0.000000 0.000000 0.000000 0.000000 0.000000 0.000000 0.000000 0.000000 0.000000 0.000000
0.000000 0.000000 0.000000 0.000000 0.000000 0.000000 10.604931 10.604931 10.604931 10.604931 10.604931 10.604931 10.604931 0.000000 0.000000 0.000000 0.000000 14.907630 14.907630 14.907630 14.907630 14.907630 14.907630 14.907630 14.907630 14.907630 0.000000 0.000000 0.000000 0.000000 0.000000 0.000000 0.000000 0.000000 0.000000 0.000000 0.000000 0.000000 0.000000 0.000000 0.000000 0.000000 0.000000 0.000000 0.000000 0.000000 0.000000 0.000000 18.657708 18.657708 18.657708 18.657708 18.657708 0.000000 0.000000 14.593373 14.593373 14.593373 14.593373 14.593373 14.593373 14.593373 0.000000 0.000000 0.000000 0.000000 0.000000 0.000000 0.000000 0.000000 0.000000 0.000000 0.000000 0.000000 0.000000 0.000000 0.000000 0.000000 0.000000 0.000000 0.000000 0.000000 0.000000 0.000000 0.000000 0.000000 0.000000 0.000000 0.000000 0.000000 0.000000 0.000000 0.000000 0.000000 0.000000 0.000000 0.000000 0.000000 0.000000 0.000000 0.000000 0.000000 0.000000
0.000000 0.000000 0.000000 0.000000 0.000000 0.000000 0.000000 0.000000 0.000000 0.000000 0.000000 0.000000 0.000000 0.000000 0.000000 0.000000 0.000000 0.000000 0.000000 0.000000 0.000000 0.000000 0.000000 0.000000 0.000000 0.000000 0.000000 0.000000 0.000000 0.000000 0.000000 0.000000 0.000000 0.000000 0.000000 0.000000 0.000000 0.000000 0.000000 0.000000 0.000000 0.000000 0.000000 0.000000 0.000000 0.000000 0.000000 0.000000 18.657708 18.657708 18.657708 18.657708 18.657708 0.000000 0.000000 14.593373 14.593373 14.593373 14.593373 14.593373 14.593373 14.593373 0.000000 0.000000 0.000000 0.000000 0.000000 0.000000 0.000000 0.000000 0.000000 0.000000 0.000000 0.000000 0.000000 0.000000 0.000000 0.000000 0.000000 0.000000 0.000000 0.000000 0.000000 0.000000 0.000000 0.000000 0.000000 0.000000 0.000000 0.000000 0.000000 0.000000 0.000000 0.000000 0.000000 0.000000 0.000000 0.000000 0.000000 0.000000 0.000000 0.000000 0.000000
0.000000 0.000000 0.000000 0.000000 0.000000 0.000000 0.000000 0.000000 0.000000 0.000000 0.000000 0.000000 0.000000 0.000000 0.000000 0.000000 0.000000 0.000000 0.000000 0.000000 0.000000 0.000000 0.000000 0.000000 0.000000 0.000000 0.000000 0.000000 0.000000 0.000000 0.000000 0.000000 0.000000 0.000000 0.000000 0.000000 0.000000 0.000000 0.000000 0.000000 0.000000 0.000000 0.000000 0.000000 0.000000 0.000000 0.000000 0.000000 18.657708 18.657708 18.657708 18.657708 18.657708 0.000000 0.000000 14.593373 14.593373 14.593373 14.593373 14.593373 14.593373 14.593373 0.000000 0.000000 0.000000 0.000000 0.000000 0.000000 0.000000 0.000000 0.000000 0.000000 0.000000 0.000000 0.000000 0.000000 0.000000 0.000000 0.000000 0.000000 0.000000 0.000000 0.000000 0.000000 0.000000 0.000000 0.000000 35.809652 35.809652 35.809652 35.809652 35.809652 35.809652 35.809652 35.809652 35.809652 35.809652 35.809652 35.809652 0.000000 0.000000 0.000000 0.000000
0.000000 0.000000 0.000000 0.000000 0.000000 0.000000 0.000000 0.000000 0.000000 0.000000 0.000000 0.000000 0.000000 0.000000 0.000000 0.000000 0.000000 0.000000 0.000000 0.000000 0.000000 0.000000 0.000000 0.000000 0.000000 0.000000 0.000000 0.000000 0.000000 0.000000 0.000000 0.000000 0.000000 0.000000 0.000000 0.000000 0.000000 0.000000 0.000000 0.000000 0.000000 0.000000 0.000000 0.000000 0.000000 0.000000 0.000000 0.000000 18.657708 18.657708 18.657708 18.657708 18.657708 0.000000 0.000000 14.593373 14.593373 14.593373 14.593373 14.593373 14.593373 14.593373 0.000000 0.000000 0.000000 0.000000 0.000000 0.000000 0.000000 0.000000 0.000000 0.000000 0.000000 0.000000 0.000000 0.000000 0.000000 0.000000 0.000000 0.000000 0.000000 0.000000 0.000000 0.000000 0.000000 0.000000 0.000000 35.809652 35.809652 35.809652 35.809652 35.809652 35.809652 35.809652 35.809652 35.809652 35.809652 35.809652 35.809652 0.000000 0.000000 0.000000 0.000000
0.000000 0.000000 0.000000 0.000000 0.000000 0.000000 0.000000 0.000000 0.000000 0.000000 0.000000 0.000000 0.000000 0.000000 0.000000 0.000000 0.000000 0.000000 0.000000 0.000000 0.000000 0.000000 0.000000 0.000000 0.000000 0.000000 0.000000 0.000000 0.000000 0.000000 0.000000 0.000000 0.000000 0.000000 0.000000 0.000000 0.000000 0.000000 0.000000 0.000000 0.000000 0.000000 0.000000 0.000000 0.000000 0.000000 0.000000 0.000000 18.657708 18.657708 18.657708 18.657708 18.657708 0.000000 0.000000 14.593373 14.593373 14.593373 14.593373 14.593373 14.593373 14.593373 0.000000 0.000000 0.000000 0.000000 0.000000 0.000000 0.000000 0.000000 0.000000 0.000000 0.000000 0.000000 0.000000 0.000000 0.000000 0.000000 0.000000 0.000000 0.000000 0.000000 0.000000 0.000000 0.000000 0.000000 0.000000 35.809652 35.809652 35.809652 35.809652 35.809652 35.809652 35.809652 35.809652 35.809652 35.809652 35.809652 35.809652 0.000000 0.000000 0.000000 0.000000
0.000000 0.000000 0.000000 0.000000 0.000000 0.000000 11.760646 11.760646 11.760646 11.760646 11.760646 11.760646 11.760646 0.000000 0.000000 0.000000 0.000000 0.000000 0.000000 0.000000 0.000000 0.000000 0.000000 0.000000 0.000000 0.000000 0.000000 0.000000 0.000000 0.000000 0.000000 0.000000 0.000000 0.000000 0.000000 0.000000 0.000000 0.000000 0.000000 0.000000 0.000000 0.000000 0.000000 0.000000 0.000000 0.000000 0.000000 0.000000 0.000000 0.000000 0.000000 0.000000 0.000000 0.000000 0.000000 14.593373 14.593373 14.593373 14.593373 14.593373 14.593373 14.593373 0.000000 0.000000 0.000000 0.000000 0.000000 0.000000 0.000000 0.000000 0.000000 0.000000 0.000000 0.000000 0.000000 0.000000 0.000000 0.000000 0.000000 0.000000 0.000000 0.000000 0.000000 0.000000 0.000000 0.000000 0.000000 35.809652 35.809652 35.809652 35.809652 35.809652 35.809652 35.809652 35.809652 35.809652 35.809652 35.809652 35.809652 0.000000 0.000000 0.000000 0.000000
0.000000 0.000000 0.000000 0.000000 0.000000 0.000000 11.760646 11.760646 11.760646 11.760646 11.760646 11.760646 11.760646 0.000000 0.000000 0.000000 0.000000 0.000000 0.000000 0.000000 0.000000 0.000000 0.000000 0.000000 0.000000 0.000000 0.000000 0.000000 0.000000 0.000000 0.000000 0.000000 0.000000 0.000000 0.000000 0.000000 0.000000 0.000000 0.000000 0.000000 0.000000 0.000000 0.000000 0.000000 0.000000 0.000000 15.622898 15.622898 15.622898 15.622898 15.622898 15.622898 15.622898 15.622898 15.622898 0.000000 0.000000 0.000000 0.000000 0.000000 0.000000 0.000000 0.000000 0.000000 0.000000 0.000000 0.000000 0.000000 0.000000 0.000000 0.000000 0.000000 0.000000 0.000000 0.000000 0.000000 0.000000 0.000000 0.000000 0.000000 0.000000 0.000000 0.000000 0.000000 0.000000 0.000000 0.000000 35.809652 35.809652 35.809652 35.809652 35.809652 35.809652 35.809652 35.809652 35.809652 35.809652 35.809652 35.809652 0.000000 0.000000 0.000000 0.000000
0.000000 0.000000 0.000000 0.000000 0.000000 0.000000 11.760646 11.760646 11.760646 11.760646 11.760646 11.760646 11.760646 0.000000 0.000000 0.000000 0.000000 0.000000 0.000000 0.000000 0.000000 0.000000 0.000000 0.000000 0.000000 0.000000 0.000000 0.000000 0.000000 0.000000 0.000000 0.000000 0.000000 0.000000 0.000000 0.000000 0.000000 0.000000 0.000000 0.000000 0.000000 0.000000 0.000000 0.000000 0.000000 0.000000 15.622898 15.622898 15.622898 15.622898 15.622898 15.622898 15.622898 15.622898 15.622898 0.000000 0.000000 0.000000 0.000000 0.000000 0.000000 0.000000 0.000000 0.000000 0.000000 0.000000 0.000000 0.000000 0.000000 0.000000 0.000000 0.000000 0.000000 0.000000 0.000000 0.000000 0.000000 0.000000 0.000000 0.000000 0.000000 0.000000 0.000000 0.000000 0.000000 0.000000 0.000000 35.809652 35.809652 35.809652 35.809652 35.809652 35.809652 35.809652 35.809652 35.809652 35.809652 35.809652 35.809652 0.000000 0.000000 0.000000 0.000000
0.000000 0.000000 0.000000 0.000000 0.000000 0.000000 11.760646 11.760646 11.760646 11.760646 11.760646 11.760646 11.760646 0.000000 0.000000 0.000000 0.000000 0.000000 0.000000 0.000000 0.000000 0.000000 0.000000 0.000000 0.000000 0.000000 0.000000 0.000000 0.000000 0.000000 0.000000 0.000000 0.000000 0.000000 0.000000 0.000000 0.000000 0.000000 0.000000 0.000000 0.000000 0.000000 0.000000 0.000000 0.000000 0.000000 15.622898 15.622898 15.622898 15.622898 15.622898 15.622898 15.622898 15.622898 15.622898 0.000000 0.000000 2.891025 2.891025 2.891025 0.000000 0.000000 0.000000 0.000000 0.000000 0.000000 0.000000 0.000000 0.000000 0.000000 0.000000 0.000000 0.000000 0.000000 0.000000 0.000000 0.000000 0.000000 0.000000 0.000000 0.000000 0.000000 0.000000 0.000000 0.000000 0.000000 0.000000 35.809652 35.809652 35.809652 35.809652 35.809652 35.809652 35.809652 35.809652 35.809652 35.809652 35.809652 35.809652 0.000000 0.000000 0.000000 0.000000
0.000000 0.000000 0.000000 0.000000 0.000000 0.000000 11.760646 11.760646 11.760646 11.760646 11.760646 11.760646 11.760646 0.000000 0.000000 0.000000 0.000000 0.000000 0.000000 0.000000 0.000000 0.000000 0.000000 0.000000 0.000000 0.000000 0.000000 0.000000 0.000000 0.000000 0.000000 0.000000 0.000000 0.000000 0.000000 0.000000 0.000000 0.000000 0.000000 0.000000 0.000000 0.000000 0.000000 0.000000 0.000000 0.000000 15.622898 15.622898 15.622898 15.622898 15.622898 15.622898 15.622898 15.622898 15.622898 0.000000 0.000000 2.891025 2.891025 2.891025 0.000000 0.000000 0.000000 0.000000 0.000000 0.000000 0.000000 0.000000 0.000000 0.000000 0.000000 0.000000 0.000000 0.000000 0.000000 0.000000 0.000000 0.000000 0.000000 0.000000 0.000000 0.000000 0.000000 0.000000 0.000000 0.000000 0.000000 35.809652 35.809652 35.809652 35.809652 35.809652 35.809652 35.809652 35.809652 35.809652 35.809652 35.809652 35.809652 0.000000 0.000000 0.000000 0.000000
0.000000 0.000000 0.000000 0.000000 0.000000 0.000000 11.760646 11.760646 11.760646 11.760646 11.760646 11.760646 11.760646 0.000000 0.000000 0.000000 0.000000 0.000000 0.000000 0.000000 0.000000 0.000000 0.000000 0.000000 0.000000 0.000000 0.000000 0.000000 0.000000 0.000000 0.000000 0.000000 0.000000 0.000000 0.000000 0.000000 0.000000 0.000000 0.000000 0.000000 0.000000 0.000000 0.000000 0.000000 0.000000 0.000000 15.622898 15.622898 15.622898 15.622898 15.622898 15.622898 15.622898 15.622898 15.622898 0.000000 0.000000 2.891025 2.891025 2.891025 0.000000 0.000000 0.000000 0.000000 0.000000 0.000000 0.000000 0.000000 0.000000 0.000000 0.000000 0.000000 0.000000 0.000000 0.000000 0.000000 0.000000 0.000000 0.000000 0.000000 0.000000 0.000000 0.000000 0.000000 0.000000 0.000000 0.000000 35.809652 35.809652 35.809652 35.809652 35.809652 35.809652 35.809652 35.809652 35.809652 35.809652 35.809652 35.809652 0.000000 0.000000 0.000000 0.000000
0.000000 0.000000 0.000000 0.000000 0.000000 0.000000 11.760646 11.760646 11.760646 11.760646 11.760646 11.760646 11.760646 0.000000 0.000000 0.000000 0.000000 0.000000 0.000000 0.000000 0.000000 0.000000 0.000000 0.000000 0.000000 0.000000 0.000000 0.000000 0.000000 0.000000 0.000000 0.000000 0.000000 0.000000 0.000000 0.000000 0.000000 0.000000 0.000000 0.000000 0.000000 0.000000 0.000000 0.000000 0.000000 0.000000 15.622898 15.622898 15.622898 15.622898 15.622898 15.622898 15.622898 15.622898 15.622898 0.000000 0.000000 2.891025 2.891025 2.891025 0.000000 0.000000 0.000000 0.000000 0.000000 0.000000 0.000000 0.000000 0.000000 0.000000 0.000000 0.000000 0.000000 0.000000 0.000000 0.000000 0.000000 0.000000 0.000000 0.000000 0.000000 0.000000 0.000000 0.000000 0.000000 0.000000 0.000000 35.809652 35.809652 35.809652 35.809652 35.809652 35.809652 35.809652 35.809652 35.809652 35.809652 35.809652 35.809652 0.000000 0.000000 0.000000 0.000000
0.000000 0.000000 0.000000 0.000000 0.000000 0.000000 0.000000 0.000000 0.000000 0.000000 0.000000 0.000000 0.000000 0.000000 0.000000 0.000000 0.000000 0.000000 0.000000 0.000000 0.000000 0.000000 0.000000 0.000000 0.000000 0.000000 0.000000 0.000000 0.000000 0.000000 0.000000 0.000000 0.000000 0.000000 0.000000 0.000000 0.000000 0.000000 0.000000 0.000000 0.000000 0.000000 0.000000 0.000000 0.000000 0.000000 15.622898 15.622898 15.622898 15.622898 15.622898 15.622898 15.622898 15.622898 15.622898 0.000000 0.000000 0.000000 0.000000 0.000000 0.000000 0.000000 0.000000 0.000000 0.000000 0.000000 0.000000 0.000000 0.000000 0.000000 0.000000 0.000000 0.000000 0.000000 0.000000 0.000000 0.000000 0.000000 0.000000 0.000000 0.000000 0.000000 0.000000 0.000000 0.000000 0.000000 0.000000 35.809652 35.809652 35.809652 35.809652 35.809652 35.809652 35.809652 35.809652 35.809652 35.809652 35.809652 35.809652 0.000000 0.000000 0.000000 0.000000
0.000000 0.000000 0.000000 0.000000 0.000000 0.000000 0.000000 0.000000 0.000000 0.000000 0.000000 0.000000 0.000000 0.000000 0.000000 0.000000 0.000000 0.000000 0.000000 0.000000 0.000000 0.000000 0.000000 0.000000 0.000000 0.000000 0.000000 0.000000 0.000000 0.000000 0.000000 0.000000 0.000000 0.000000 0.000000 0.000000 0.000000 0.000000 0.000000 0.000000 0.000000 0.000000 0.000000 0.000000 0.000000 0.000000 15.622898 15.622898 15.622898 15.622898 15.622898 15.622898 15.622898 15.622898 15.622898 0.000000 0.000000 0.000000 0.000000 0.000000 0.000000 0.000000 0.000000 0.000000 0.000000 0.000000 0.000000 0.000000 0.000000 0.000000 0.000000 0.000000 0.000000 0.000000 0.000000 0.000000 0.000000 0.000000 0.000000 0.000000 0.000000 0.000000 0.000000 0.000000 0.000000 0.000000 0.000000 35.809652 35.809652 35.809652 35.809652 35.809652 35.809652 35.809652 35.809652 35.809652 35.809652 35.809652 35.809652 0.000000 0.000000 0.000000 0.000000
0.000000 0.000000 0.000000 0.000000 0.000000 0.000000 0.000000 0.000000 0.000000 0.000000 0.000000 0.000000 0.000000 0.000000 0.000000 0.000000 0.000000 0.000000 0.000000 0.000000 0.000000 0.000000 0.000000 0.000000 0.000000 0.000000 0.000000 0.000000 0.000000 0.000000 0.000000 0.000000 0.000000 0.000000 0.000000 0.000000 0.000000 0.000000 0.000000 0.000000 0.000000 0.000000 0.000000 0.000000 0.000000 0.000000 0.000000 0.000000 0.000000 0.000000 0.000000 0.000000 0.000000 0.000000 0.000000 0.000000 0.000000 0.000000 0.000000 0.000000 0.000000 0.000000 0.000000 0.000000 0.000000 0.000000 0.000000 0.000000 0.000000 0.000000 0.000000 0.000000 0.000000 0.000000 0.000000 0.000000 0.000000 0.000000 0.000000 0.000000 0.000000 0.000000 0.000000 0.000000 0.000000 0.000000 0.000000 0.000000 0.000000 0.000000 0.000000 0.000000 0.000000 0.000000 0.000000 0.000000 0.000000 0.000000 0.000000 0.000000 0.000000 0.000000 0.000000
0.000000 0.000000 0.000000 0.000000 0.000000 0.000000 0.000000 0.000000 0.000000 0.000000 0.000000 0.000000 0.000000 0.000000 0.000000 0.000000 0.000000 0.000000 0.000000 0.000000 0.000000 0.000000 0.000000 0.000000 0.000000 0.000000 0.000000 0.000000 0.000000 0.000000 0.000000 0.000000 0.000000 0.000000 0.000000 0.000000 0.000000 0.000000 0.000000 0.000000 0.000000 0.000000 0.000000 0.000000 0.000000 0.000000 0.000000 0.000000 0.000000 0.000000 0.000000 0.000000 0.000000 0.000000 0.000000 0.000000 0.000000 0.000000 0.000000 0.000000 0.000000 0.000000 0.000000 0.000000 0.000000 0.000000 0.000000 0.000000 0.000000 0.000000 0.000000 0.000000 0.000000 0.000000 0.000000 0.000000 0.000000 0.000000 0.000000 0.000000 0.000000 0.000000 0.000000 0.000000 0.000000 0.000000 0.000000 0.000000 0.000000 0.000000 0.000000 0.000000 0.000000 0.000000 0.000000 0.000000 0.000000 0.000000 0.000000 0.000000 0.000000 0.000000 0.000000
0.000000 0.000000 0.000000 0.000000 0.000000 0.000000 0.000000 0.000000 0.000000 0.000000 0.000000 0.000000 0.000000 0.000000 0.000000 0.000000 0.000000 0.000000 0.000000 0.000000 0.000000 0.000000 0.000000 0.000000 0.000000 0.000000 0.000000 0.000000 0.000000 0.000000 0.000000 0.000000 0.000000 0.000000 0.000000 0.000000 0.000000 0.000000 0.000000 0.000000 0.000000 0.000000 0.000000 0.000000 0.000000 0.000000 0.000000 0.000000 0.000000 0.000000 0.000000 0.000000 0.000000 0.000000 0.000000 0.000000 0.000000 0.000000 0.000000 0.000000 0.000000 0.000000 0.000000 0.000000 0.000000 0.000000 0.000000 0.000000 0.000000 0.000000 0.000000 0.000000 0.000000 0.000000 0.000000 0.000000 0.000000 0.000000 0.000000 0.000000 0.000000 0.000000 0.000000 0.000000 0.000000 0.000000 0.000000 0.000000 0.000000 0.000000 0.000000 0.000000 0.000000 0.000000 0.000000 0.000000 0.000000 0.000000 0.000000 0.000000 0.000000 0.000000 0.000000
0.000000 0.000000 0.000000 0.000000 0.000000 0.000000 0.000000 0.000000 0.000000 0.000000 0.000000 0.000000 0.000000 0.000000 0.000000 0.000000 0.000000 0.000000 0.000000 0.000000 0.000000 0.000000 0.000000 0.000000 0.000000 0.000000 0.000000 0.000000 0.000000 0.000000 0.000000 0.000000 0.000000 0.000000 0.000000 0.000000 0.000000 0.000000 0.000000 0.000000 0.000000 0.000000 0.000000 0.000000 0.000000 0.000000 0.000000 0.000000 0.000000 0.000000 0.000000 0.000000 0.000000 0.000000 0.000000 0.000000 0.000000 0.000000 0.000000 0.000000 0.000000 0.000000 0.000000 0.000000 0.000000 0.000000 0.000000 0.000000 0.000000 0.000000 0.000000 0.000000 0.000000 0.000000 0.000000 0.000000 0.000000 0.000000 0.000000 0.000000 0.000000 0.000000 0.000000 0.000000 0.000000 0.000000 0.000000 0.000000 0.000000 0.000000 0.000000 0.000000 0.000000 0.000000 0.000000 0.000000 0.000000 0.000000 0.000000 0.000000 0.000000 0.000000 0.000000
0.000000 0.000000 0.000000 0.000000 0.000000 0.000000 0.000000 0.000000 0.000000 0.000000 0.000000 0.000000 0.000000 0.000000 0.000000 0.000000 0.000000 0.000000 0.000000 0.000000 0.000000 0.000000 0.000000 0.000000 0.000000 0.000000 0.000000 0.000000 0.000000 0.000000 0.000000 0.000000 0.000000 0.000000 0.000000 0.000000 0.000000 0.000000 0.000000 0.000000 0.000000 0.000000 0.000000 0.000000 0.000000 0.000000 0.000000 0.000000 0.000000 0.000000 0.000000 0.000000 0.000000 0.000000 0.000000 0.000000 0.000000 0.000000 0.000000 0.000000 0.000000 0.000000 0.000000 0.000000 0.000000 0.000000 0.000000 0.000000 0.000000 0.000000 0.000000 0.000000 0.000000 0.000000 0.000000 0.000000 0.000000 0.000000 0.000000 0.000000 0.000000 0.000000 0.000000 0.000000 0.000000 0.000000 0.000000 0.000000 0.000000 0.000000 0.000000 0.000000 0.000000 0.000000 0.000000 0.000000 0.000000 0.000000 0.000000 0.000000 0.000000 0.000000 0.000000
0.000000 0.000000 0.000000 0.000000 13.472645 13.472645 13.472645 13.472645 13.472645 13.472645 13.472645 14.677964 14.677964 14.677964 14.677964 14.677964 14.677964 14.677964 19.693820 19.693820 19.693820 19.693820 19.693820 19.693820 19.693820 19.693820 19.693820 19.693820 0.000000 0.000000 0.000000 0.000000 0.000000 0.000000 0.000000 0.000000 0.000000 0.000000 0.000000 0.000000 0.000000 0.000000 0.000000 0.000000 0.000000 0.000000 0.000000 0.000000 0.000000 0.000000 0.000000 0.000000 0.000000 0.000000 0.000000 0.000000 0.000000 0.000000 0.000000 0.000000 0.000000 0.000000 0.000000 0.000000 0.000000 0.000000 0.000000 0.000000 0.000000 0.000000 0.000000 0.000000 0.000000 0.000000 0.000000 0.000000 0.000000 0.000000 0.000000 0.000000 0.000000 0.000000 0.000000 0.000000 0.000000 0.000000 0.000000 24.442759 24.442759 24.442759 24.442759 24.442759 24.442759 24.442759 24.442759 24.442759 24.442759 24.442759 24.442759 0.000000 0.000000 0.000000 0.000000
0.000000 0.000000 0.000000 0.000000 13.472645 13.472645 13.472645 13.472645 13.472645 13.472645 13.472645 14.677964 14.677964 14.677964 14.677964 14.677964 14.677964 14.677964 19.693820 19.693820 19.693820 19.693820 19.693820 19.693820 19.693820 19.693820 19.693820 19.693820 0.000000 0.000000 0.000000 0.000000 0.000000 0.000000 0.000000 0.000000 0.000000 0.000000 0.000000 0.000000 0.000000 0.000000 0.000000 0.000000 0.000000 0.000000 0.000000 0.000000 0.000000 0.000000 0.000000 0.000000 0.000000 0.000000 0.000000 0.000000 0.000000 0.000000 0.000000 0.000000 0.000000 0.000000 0.000000 0.000000 0.000000 0.000000 0.000000 0.000000 0.000000 0.000000 0.000000 0.000000 0.000000 0.000000 0.000000 0.000000 0.000000 0.000000 0.000000 0.000000 0.000000 0.000000 0.000000 0.000000 0.000000 0.000000 0.000000 24.442759 24.442759 24.442759 24.442759 24.442759 24.442759 24.442759 24.442759 24.442759 24.442759 24.442759 24.442759 0.000000 0.000000 0.000000 0.000000
0.000000 0.000000 0.000000 0.000000 13.472645 13.472645 13.472645 13.472645 13.472645 13.472645 13.472645 14.677964 14.677964 14.677964 14.677964 14.677964 14.677964 14.677964 19.693820 19.693820 19.693820 19.693820 19.693820 19.693820 19.693820 19.693820 19.693820 19.693820 0.000000 0.000000 0.000000 0.000000 0.000000 0.000000 0.000000 0.000000 0.000000 0.000000 0.000000 0.000000 0.000000 0.000000 0.000000 0.000000 0.000000 0.000000 0.000000 0.000000 10.056728 10.056728 10.056728 10.056728 10.056728 10.056728 10.056728 10.056728 10.056728 0.000000 0.000000 0.000000 0.000000 9.689202 9.689202 9.689202 9.689202 9.689202 9.689202 9.689202 9.689202 9.689202 0.000000 0.000000 0.000000 7.645943 7.645943 7.645943 7.645943 7.645943 7.645943 7.645943 0.000000 0.000000 0.000000 0.000000 0.000000 0.000000 0.000000 24.442759 24.442759 24.442759 24.442759 24.442759 24.442759 24.442759 24.442759 24.442759 24.442759 24.442759 24.442759 0.000000 0.000000 0.000000 0.000000
0.000000 0.000000 0.000000 0.000000 13.472645 13.472645 13.472645 13.472645 13.472645 13.472645 13.472645 14.677964 14.677964 14.677964 14.677964 14.677964 14.677964 14.677964 19.693820 19.693820 19.693820 19.693820 19.693820 19.693820 19.693820 19.693820 19.693820 19.693820 0.000000 0.000000 0.000000 0.000000 0.000000 0.000000 0.000000 0.000000 0.000000 0.000000 0.000000 0.000000 0.000000 0.000000 0.000000 0.000000 0.000000 0.000000 0.000000 0.000000 10.056728 10.056728 10.056728 10.056728 10.056728 10.056728 10.056728 10.056728 10.056728 0.000000 0.000000 0.000000 0.000000 9.689202 9.689202 9.689202 9.689202 9.689202 9.689202 9.689202 9.689202 9.689202 0.000000 0.000000 0.000000 7.645943 7.645943 7.645943 7.645943 7.645943 7.645943 7.645943 0.000000 0.000000 0.000000 0.000000 0.000000 0.000000 0.000000 24.442759 24.442759 24.442759 24.442759 24.442759 24.442759 24.442759 24.442759 24.442759 24.442759 24.442759 24.442759 0.000000 0.000000 0.000000 0.000000
0.000000 0.000000 0.000000 0.000000 13.472645 13.472645 13.472645 13.472645 13.472645 13.472645 13.472645 14.677964 14.677964 14.677964 14.677964 14.677964 14.677964 14.677964 19.693820 19.693820 19.693820 19.693820 19.693820 19.693820 19.693820 19.693820 19.693820 19.693820 0.000000 0.000000 0.000000 0.000000 0.000000 0.000000 0.000000 0.000000 0.000000 0.000000 0.000000 0.000000 0.000000 0.000000 0.000000 0.000000 0.000000 0.000000 0.000000 0.000000 10.056728 10.056728 10.056728 10.056728 10.056728 10.056728 10.056728 10.056728 10.056728 0.000000 0.000000 0.000000 0.000000 9.689202 9.689202 9.689202 9.689202 9.689202 9.689202 9.689202 9.689202 9.689202 0.000000 0.000000 0.000000 7.645943 7.645943 7.645943 7.645943 7.645943 7.645943 7.645943 0.000000 0.000000 0.000000 0.000000 0.000000 0.000000 0.000000 24.442759 24.442759 24.442759 24.442759 24.442759 24.442759 24.442759 24.442759 24.442759 24.442759 24.442759 24.442759 0.000000 0.000000 0.000000 0.000000
0.000000 0.000000 0.000000 0.000000 13.472645 13.472645 13.472645 13.472645 13.472645 13.472645 13.472645 14.677964 14.677964 14.677964 14.677964 14.677964 14.677964 14.677964 19.693820 19.693820 19.693820 19.693820 19.693820 19.693820 19.693820 19.693820 19.693820 19.693820 0.000000 0.000000 0.000000 0.000000 0.000000 0.000000 0.000000 0.000000 0.000000 0.000000 0.000000 0.000000 0.000000 0.000000 0.000000 0.000000 0.000000 0.000000 0.000000 0.000000 10.056728 10.056728 10.056728 10.056728 10.056728 10.056728 10.056728 10.056728 10.056728 0.000000 0.000000 0.000000 0.000000 9.689202 9.689202 9.689202 9.689202 9.689202 9.689202 9.689202 9.689202 9.689202 0.000000 0.000000 0.000000 7.645943 7.645943 7.645943 7.645943 7.645943 7.645943 7.645943 0.000000 0.000000 0.000000 0.000000 0.000000 0.000000 0.000000 24.442759 24.442759 24.442759 24.442759 24.442759 24.442759 24.442759 24.442759 24.442759 24.442759 24.442759 24.442759 0.000000 0.000000 0.000000 0.000000
0.000000 0.000000 0.000000 0.000000 13.472645 13.472645 13.472645 13.472645 13.472645 13.472645 13.472645 14.677964 14.677964 14.677964 14.677964 14.677964 14.677964 14.677964 19.693820 19.693820 19.693820 19.693820 19.693820 19.693820 19.693820 19.693820 19.693820 19.693820 0.000000 0.000000 0.000000 0.000000 0.000000 0.000000 0.000000 0.000000 0.000000 0.000000 0.000000 0.000000 0.000000 0.000000 0.000000 0.000000 0.000000 0.000000 0.000000 0.000000 0.000000 0.000000 0.000000 0.000000 0.000000 0.000000 0.000000 0.000000 0.000000 0.000000 0.000000 0.000000 0.000000 0.000000 0.000000 0.000000 0.000000 0.000000 0.000000 0.000000 0.000000 0.000000 0.000000 0.000000 0.000000 0.000000 0.000000 0.000000 0.000000 0.000000 0.000000 0.000000 0.000000 0.000000 0.000000 0.000000 0.000000 0.000000 0.000000 24.442759 24.442759 24.442759 24.442759 24.442759 24.442759 24.442759 24.442759 24.442759 24.442759 24.442759 24.442759 0.000000 0.000000 0.000000 0.000000
0.000000 0.000000 0.000000 0.000000 13.472645 13.472645 13.472645 13.472645 13.472645 13.472645 13.472645 14.677964 14.677964 14.677964 14.677964 14.677964 14.677964 14.677964 19.693820 19.693820 19.693820 19.693820 19.693820 19.693820 19.693820 19.693820 19.693820 19.693820 0.000000 0.000000 0.000000 0.000000 0.000000 0.000000 0.000000 0.000000 0.000000 0.000000 0.000000 0.000000 0.000000 0.000000 0.000000 0.000000 0.000000 0.000000 0.000000 0.000000 0.000000 0.000000 0.000000 0.000000 0.000000 0.000000 0.000000 0.000000 0.000000 0.000000 0.000000 0.000000 0.000000 0.000000 0.000000 0.000000 0.000000 0.000000 0.000000 0.000000 0.000000 0.000000 0.000000 0.000000 0.000000 0.000000 0.000000 0.000000 0.000000 0.000000 0.000000 0.000000 0.000000 0.000000 0.000000 0.000000 0.000000 0.000000 0.000000 24.442759 24.442759 24.442759 24.442759 24.442759 24.442759 24.442759 24.442759 24.442759 24.442759 24.442759 24.442759 0.000000 0.000000 0.000000 0.000000
0.000000 0.000000 0.000000 0.000000 0.000000 0.000000 0.000000 0.000000 0.000000 0.000000 0.000000 0.000000 0.000000 0.000000 0.000000 0.000000 0.000000 0.000000 0.000000 0.000000 0.000000 0.000000 0.000000 0.000000 0.000000 0.000000 0.000000 0.000000 0.000000 0.000000 0.000000 0.000000 0.000000 0.000000 0.000000 0.000000 0.000000 0.000000 0.000000 0.000000 0.000000 0.000000 0.000000 0.000000 0.000000 0.000000 0.000000 0.000000 0.000000 0.000000 0.000000 0.000000 0.000000 0.000000 0.000000 0.000000 0.000000 0.000000 0.000000 0.000000 0.000000 0.000000 0.000000 0.000000 0.000000 0.000000 0.000000 0.000000 0.000000 0.000000 0.000000 0.000000 0.000000 0.000000 0.000000 0.000000 0.000000 0.000000 0.000000 0.000000 0.000000 0.000000 0.000000 0.000000 0.000000 0.000000 0.000000 0.000000 0.000000 0.000000 0.000000 0.000000 0.000000 0.000000 0.000000 0.000000 0.000000 0.000000 0.000000 0.000000 0.000000 0.000000 0.000000
0.000000 0.000000 0.000000 0.000000 0.000000 0.000000 0.000000 0.000000 0.000000 0.000000 0.000000 0.000000 0.000000 0.000000 0.000000 0.000000 0.000000 0.000000 0.000000 0.000000 0.000000 0.000000 0.000000 0.000000 0.000000 0.000000 0.000000 0.000000 0.000000 0.000000 0.000000 0.000000 0.000000 0.000000 0.000000 0.000000 0.000000 0.000000 0.000000 0.000000 0.000000 0.000000 0.000000 0.000000 0.000000 0.000000 0.000000 0.000000 0.000000 0.000000 0.000000 0.000000 0.000000 0.000000 0.000000 0.000000 0.000000 0.000000 0.000000 0.000000 0.000000 0.000000 0.000000 0.000000 0.000000 0.000000 0.000000 0.000000 0.000000 0.000000 0.000000 0.000000 0.000000 0.000000 0.000000 0.000000 0.000000 0.000000 0.000000 0.000000 0.000000 0.000000 0.000000 0.000000 0.000000 0.000000 0.000000 0.000000 0.000000 0.000000 0.000000 0.000000 0.000000 0.000000 0.000000 0.000000 0.000000 0.000000 0.000000 0.000000 0.000000 0.000000 0.000000
0.000000 0.000000 0.000000 0.000000 0.000000 0.000000 0.000000 0.000000 0.000000 0.000000 0.000000 0.000000 0.000000 0.000000 0.000000 0.000000 0.000000 0.000000 0.000000 0.000000 0.000000 0.000000 0.000000 0.000000 0.000000 0.000000 0.000000 0.000000 0.000000 0.000000 0.000000 0.000000 0.000000 0.000000 0.000000 0.000000 0.000000 0.000000 0.000000 0.000000 0.000000 0.000000 0.000000 0.000000 0.000000 0.000000 0.000000 0.000000 0.000000 0.000000 0.000000 0.000000 0.000000 0.000000 0.000000 0.000000 0.000000 0.000000 0.000000 0.000000 0.000000 0.000000 0.000000 0.000000 0.000000 0.000000 0.000000 0.000000 0.000000 0.000000 0.000000 0.000000 0.000000 0.000000 0.000000 0.000000 0.000000 0.000000 0.000000 0.000000 0.000000 0.000000 0.000000 0.000000 0.000000 0.000000 0.000000 0.000000 0.000000 0.000000 0.000000 0.000000 0.000000 0.000000 0.000000 0.000000 0.000000 0.000000 0.000000 0.000000 0.000000 0.000000 0.000000
0.000000 0.000000 0.000000 0.000000 0.000000 0.000000 0.000000 0.000000 0.000000 0.000000 0.000000 0.000000 0.000000 0.000000 0.000000 0.000000 0.000000 0.000000 0.000000 0.000000 0.000000 0.000000 0.000000 0.000000 0.000000 0.000000 0.000000 0.000000 0.000000 0.000000 0.000000 0.000000 0.000000 0.000000 0.000000 0.000000 0.000000 0.000000 0.000000 0.000000 0.000000 0.000000 0.000000 0.000000 0.000000 0.000000 0.000000 0.000000 0.000000 0.000000 0.000000 0.000000 0.000000 0.000000 0.000000 0.000000 0.000000 0.000000 0.000000 0.000000 0.000000 0.000000 0.000000 0.000000 0.000000 0.000000 0.000000 0.000000 0.000000 0.000000 0.000000 0.000000 0.000000 0.000000 0.000000 0.000000 0.000000 0.000000 0.000000 0.000000 0.000000 0.000000 0.000000 0.000000 0.000000 0.000000 0.000000 0.000000 0.000000 0.000000 0.000000 0.000000 0.000000 0.000000 0.000000 0.000000 0.000000 0.000000 0.000000 0.000000 0.000000 0.000000 0.000000
0.000000 0.000000 0.000000 0.000000 0.000000 0.000000 0.000000 0.000000 0.000000 0.000000 0.000000 0.000000 0.000000 0.000000 0.000000 0.000000 0.000000 0.000000 0.000000 0.000000 0.000000 0.000000 0.000000 0.000000 0.000000 0.000000 0.000000 0.000000 0.000000 0.000000 0.000000 0.000000 0.000000 0.000000 0.000000 0.000000 0.000000 0.000000 0.000000 0.000000 0.000000 0.000000 0.000000 0.000000 0.000000 0.000000 0.000000 0.000000 0.000000 0.000000 0.000000 0.000000 0.000000 0.000000 0.000000 0.000000 0.000000 0.000000 0.000000 0.000000 0.000000 0.000000 0.000000 0.000000 0.000000 0.000000 0.000000 0.000000 0.000000 0.000000 0.000000 0.000000 0.000000 0.000000 0.000000 0.000000 0.000000 0.000000 0.000000 0.000000 0.000000 0.000000 0.000000 0.000000 0.000000 0.000000 0.000000 0.000000 0.000000 0.000000 0.000000 0.000000 0.000000 0.000000 0.000000 0.000000 0.000000 0.000000 0.000000 0.000000 0.000000 0.000000 0.000000
0.000000 0.000000 0.000000 0.000000 0.000000 0.000000 0.000000 0.000000 0.000000 0.000000 0.000000 0.000000 0.000000 0.000000 0.000000 0.000000 0.000000 0.000000 0.000000 0.000000 0.000000 0.000000 0.000000 0.000000 0.000000 0.000000 0.000000 0.000000 0.000000 0.000000 0.000000 0.000000 0.000000 0.000000 0.000000 0.000000 0.000000 0.000000 0.000000 0.000000 0.000000 0.000000 0.000000 0.000000 0.000000 0.000000 16.123759 16.123759 16.123759 16.123759 16.123759 16.123759 16.123759 16.123759 16.123759 16.123759 11.293271 11.293271 11.293271 11.293271 11.293271 11.293271 0.000000 0.000000 0.000000 0.000000 0.000000 0.000000 0.000000 0.000000 10.630085 10.630085 10.630085 10.630085 10.630085 10.630085 10.606131 10.606131 10.606131 10.606131 10.606131 10.606131 0.000000 0.000000 0.000000 0.000000 0.000000 0.000000 0.000000 0.000000 0.000000 0.000000 0.000000 0.000000 0.000000 0.000000 0.000000 0.000000 0.000000 0.000000 0.000000 0.000000 0.000000
0.000000 0.000000 0.000000 0.000000 0.000000 0.000000 0.000000 0.000000 0.000000 0.000000 0.000000 0.000000 0.000000 0.000000 0.000000 0.000000 0.000000 0.000000 0.000000 0.000000 0.000000 0.000000 0.000000 0.000000 0.000000 0.000000 0.000000 0.000000 0.000000 0.000000 0.000000 0.000000 0.000000 0.000000 0.000000 0.000000 0.000000 0.000000 0.000000 0.000000 0.000000 0.000000 0.000000 0.000000 0.000000 0.000000 16.123759 16.123759 16.123759 16.123759 16.123759 16.123759 16.123759 16.123759 16.123759 16.123759 11.293271 11.293271 11.293271 11.293271 11.293271 11.293271 0.000000 0.000000 0.000000 0.000000 0.000000 0.000000 0.000000 0.000000 10.630085 10.630085 10.630085 10.630085 10.630085 10.630085 10.606131 10.606131 10.606131 10.606131 10.606131 10.606131 0.000000 0.000000 0.000000 0.000000 0.000000 0.000000 0.000000 0.000000 0.000000 0.000000 0.000000 0.000000 0.000000 0.000000 0.000000 0.000000 0.000000 0.000000 0.000000 0.000000 0.000000
0.000000 0.000000 0.000000 0.000000 0.000000 0.000000 0.000000 0.000000 0.000000 0.000000 0.000000 0.000000 0.000000 0.000000 0.000000 0.000000 0.000000 0.000000 0.000000 10.053659 10.053659 10.053659 10.053659 10.053659 10.053659 10.053659 0.000000 0.000000 0.000000 0.000000 0.000000 0.000000 0.000000 0.000000 0.000000 15.764757 15.764757 15.764757 15.764757 0.000000 0.000000 0.000000 0.000000 0.000000 0.000000 0.000000 16.123759 16.123759 16.123759 16.123759 16.123759 16.123759 16.123759 16.123759 16.123759 16.123759 11.293271 11.293271 11.293271 11.293271 11.293271 11.293271 0.000000 0.000000 2.780741 2.780741 2.780741 2.780741 0.000000 0.000000 10.630085 10.630085 10.630085 10.630085 10.630085 10.630085 10.606131 10.606131 10.606131 10.606131 10.606131 10.606131 0.000000 0.000000 0.000000 0.000000 0.000000 0.000000 0.000000 32.249636 32.249636 32.249636 32.249636 32.249636 32.249636 32.249636 32.249636 0.000000 0.000000 0.000000 0.000000 0.000000 0.000000
0.000000 0.000000 0.000000 0.000000 0.000000 0.000000 0.000000 0.000000 0.000000 0.000000 0.000000 0.000000 0.000000 0.000000 0.000000 0.000000 0.000000 0.000000 0.000000 10.053659 10.053659 10.053659 10.053659 10.053659 10.053659 10.053659 0.000000 0.000000 0.000000 0.000000 0.000000 0.000000 0.000000 0.000000 0.000000 15.764757 15.764757 15.764757 15.764757 0.000000 0.000000 0.000000 0.000000 0.000000 0.000000 0.000000 16.123759 16.123759 16.123759 16.123759 16.123759 16.123759 16.123759 16.123759 16.123759 16.123759 11.293271 11.293271 11.293271 11.293271 11.293271 11.293271 0.000000 0.000000 2.780741 2.780741 2.780741 2.780741 0.000000 0.000000 10.630085 10.630085 10.630085 10.630085 10.630085 10.630085 10.606131 10.606131 10.606131 10.606131 10.606131 10.606131 0.000000 0.000000 0.000000 0.000000 0.000000 0.000000 0.000000 32.249636 32.249636 32.249636 32.249636 32.249636 32.249636 32.249636 32.249636 0.000000 0.000000 0.000000 0.000000 0.000000 0.000000
0.000000 0.000000 0.000000 0.000000 0.000000 0.000000 0.000000 0.000000 0.000000 0.000000 0.000000 0.000000 0.000000 0.000000 0.000000 0.000000 0.000000 0.000000 0.000000 10.053659 10.053659 10.053659 10.053659 10.053659 10.053659 10.053659 0.000000 0.000000 0.000000 0.000000 0.000000 0.000000 0.000000 0.000000 0.000000 15.764757 15.764757 15.764757 15.764757 0.000000 0.000000 0.000000 0.000000 0.000000 0.000000 0.000000 16.123759 16.123759 16.123759 16.123759 16.123759 16.123759 16.123759 16.123759 16.123759 16.123759 11.293271 11.293271 11.293271 11.293271 11.293271 11.293271 0.000000 0.000000 2.780741 2.780741 2.780741 2.780741 0.000000 0.000000 10.630085 10.630085 10.630085 10.630085 10.630085 10.630085 10.606131 10.606131 10.606131 10.606131 10.606131 10.606131 0.000000 0.000000 0.000000 0.000000 0.000000 0.000000 0.000000 32.249636 32.249636 32.249636 32.249636 32.249636 32.249636 32.249636 32.249636 0.000000 0.000000 0.000000 0.000000 0.000000 0.000000
0.000000 0.000000 0.000000 0.000000 0.000000 0.000000 0.000000 0.000000 0.000000 0.000000 0.000000 0.000000 0.000000 0.000000 0.000000 0.000000 0.000000 0.000000 0.000000 10.053659 10.053659 10.053659 10.053659 10.053659 10.053659 10.053659 0.000000 0.000000 0.000000 0.000000 0.000000 0.000000 0.000000 0.000000 0.000000 15.764757 15.764757 15.764757 15.764757 0.000000 0.000000 0.000000 0.000000 0.000000 0.000000 0.000000 16.123759 16.123759 16.123759 16.123759 16.123759 16.123759 16.123759 16.123759 16.123759 16.123759 11.293271 11.293271 11.293271 11.293271 11.293271 11.293271 0.000000 0.000000 0.000000 0.000000 0.000000 0.000000 0.000000 0.000000 10.630085 10.630085 10.630085 10.630085 10.630085 10.630085 10.606131 10.606131 10.606131 10.606131 10.606131 10.606131 0.000000 0.000000 0.000000 0.000000 0.000000 0.000000 0.000000 32.249636 32.249636 32.249636 32.249636 32.249636 32.249636 32.249636 32.249636 0.000000 0.000000 0.000000 0.000000 0.000000 0.000000
0.000000 0.000000 0.000000 0.000000 0.000000 0.000000 0.000000 0.000000 0.000000 0.000000 0.000000 0.000000 0.000000 0.000000 0.000000 0.000000 0.000000 0.000000 0.000000 10.053659 10.053659 10.053659 10.053659 10.053659 10.053659 10.053659 0.000000 0.000000 0.000000 0.000000 0.000000 0.000000 0.000000 0.000000 0.000000 15.764757 15.764757 15.764757 15.764757 0.000000 0.000000 0.000000 0.000000 0.000000 0.000000 0.000000 16.123759 16.123759 16.123759 16.123759 16.123759 16.123759 16.123759 16.123759 16.123759 16.123759 11.293271 11.293271 11.293271 11.293271 11.293271 11.293271 0.000000 0.000000 0.000000 0.000000 0.000000 0.000000 0.000000 0.000000 10.630085 10.630085 10.630085 10.630085 10.630085 10.630085 10.606131 10.606131 10.606131 10.606131 10.606131 10.606131 0.000000 0.000000 0.000000 0.000000 0.000000 0.000000 0.000000 32.249636 32.249636 32.249636 32.249636 32.249636 32.249636 32.249636 32.249636 0.000000 0.000000 0.000000 0.000000 0.000000 0.000000
0.000000 0.000000 0.000000 0.000000 0.000000 0.000000 0.000000 0.000000 0.000000 0.000000 0.000000 0.000000 0.000000 0.000000 0.000000 0.000000 0.000000 0.000000 0.000000 10.053659 10.053659 10.053659 10.053659 10.053659 10.053659 10.053659 0.000000 0.000000 0.000000 0.000000 0.000000 0.000000 0.000000 0.000000 0.000000 15.764757 15.764757 15.764757 15.764757 0.000000 0.000000 0.000000 0.000000 0.000000 0.000000 0.000000 0.000000 0.000000 0.000000 0.000000 0.000000 0.000000 0.000000 14.559286 14.559286 14.559286 14.559286 14.559286 14.559286 14.559286 14.559286 14.559286 0.000000 0.000000 0.000000 0.000000 0.000000 0.000000 0.000000 0.000000 9.517460 9.517460 9.517460 9.517460 9.517460 9.517460 9.608686 9.608686 9.608686 9.608686 9.608686 9.608686 0.000000 0.000000 0.000000 0.000000 0.000000 0.000000 0.000000 32.249636 32.249636 32.249636 32.249636 32.249636 32.249636 32.249636 32.249636 0.000000 0.000000 0.000000 0.000000 0.000000 0.000000
0.000000 0.000000 0.000000 0.000000 0.000000 0.000000 0.000000 0.000000 0.000000 0.000000 0.000000 0.000000 0.000000 0.000000 0.000000 0.000000 0.000000 0.000000 0.000000 0.000000 0.000000 0.000000 0.000000 0.000000 0.000000 0.000000 0.000000 0.000000 0.000000 0.000000 0.000000 0.000000 0.000000 0.000000 0.000000 15.764757 15.764757 15.764757 15.764757 0.000000 0.000000 0.000000 0.000000 0.000000 0.000000 0.000000 0.000000 0.000000 0.000000 0.000000 0.000000 0.000000 0.000000 14.559286 14.559286 14.559286 14.559286 14.559286 14.559286 14.559286 14.559286 14.559286 0.000000 0.000000 0.000000 0.000000 0.000000 0.000000 0.000000 0.000000 9.517460 9.517460 9.517460 9.517460 9.517460 9.517460 9.608686 9.608686 9.608686 9.608686 9.608686 9.608686 0.000000 0.000000 0.000000 0.000000 0.000000 0.000000 0.000000 32.249636 32.249636 32.249636 32.249636 32.249636 32.249636 32.249636 32.249636 0.000000 0.000000 0.000000 0.000000 0.000000 0.000000
0.000000 0.000000 0.000000 0.000000 0.000000 0.000000 0.000000 0.000000 0.000000 0.000000 0.000000 0.000000 0.000000 0.000000 0.000000 0.000000 0.000000 0.000000 0.000000 0.000000 0.000000 0.000000 0.000000 0.000000 0.000000 0.000000 0.000000 0.000000 0.000000 0.000000 0.000000 0.000000 0.000000 0.000000 0.000000 15.764757 15.764757 15.764757 15.764757 0.000000 0.000000 0.000000 0.000000 0.000000 0.000000 0.000000 0.000000 0.000000 0.000000 0.000000 0.000000 0.000000 0.000000 14.559286 14.559286 14.559286 14.559286 14.559286 14.559286 14.559286 14.559286 14.559286 0.000000 0.000000 0.000000 0.000000 0.000000 0.000000 0.000000 0.000000 9.517460 9.517460 9.517460 9.517460 9.517460 9.517460 9.608686 9.608686 9.608686 9.608686 9.608686 9.608686 0.000000 0.000000 0.000000 0.000000 0.000000 0.000000 0.000000 32.249636 32.249636 32.249636 32.249636 32.249636 32.249636 32.249636 32.249636 0.000000 0.000000 0.000000 0.000000 0.000000 0.000000
0.000000 0.000000 0.000000 0.000000 0.000000 0.000000 0.000000 0.000000 0.000000 0.000000 0.000000 0.000000 0.000000 0.000000 0.000000 0.000000 0.000000 0.000000 0.000000 0.000000 0.000000 0.000000 0.000000 0.000000 0.000000 0.000000 0.000000 0.000000 0.000000 0.000000 0.000000 0.000000 0.000000 0.000000 0.000000 15.764757 15.764757 15.764757 15.764757 0.000000 0.000000 0.000000 0.000000 0.000000 0.000000 0.000000 0.000000 0.000000 0.000000 0.000000 0.000000 0.000000 0.000000 14.559286 14.559286 14.559286 14.559286 14.559286 14.559286 14.559286 14.559286 14.559286 0.000000 0.000000 0.000000 0.000000 0.000000 0.000000 0.000000 0.000000 9.517460 9.517460 9.517460 9.517460 9.517460 9.517460 9.608686 9.608686 9.608686 9.608686 9.608686 9.608686 0.000000 0.000000 0.000000 0.000000 0.000000 0.000000 0.000000 32.249636 32.249636 32.249636 32.249636 32.249636 32.249636 32.249636 32.249636 0.000000 0.000000 0.000000 0.000000 0.000000 0.000000
0.000000 0.000000 0.000000 0.000000 0.000000 0.000000 0.000000 0.000000 0.000000 0.000000 0.000000 0.000000 0.000000 0.000000 0.000000 0.000000 0.000000 0.000000 0.000000 0.000000 0.000000 0.000000 0.000000 0.000000 0.000000 0.000000 0.000000 0.000000 0.000000 0.000000 0.000000 0.000000 0.000000 0.000000 0.000000 15.764757 15.764757 15.764757 15.764757 0.000000 0.000000 0.000000 0.000000 0.000000 0.000000 0.000000 0.000000 0.000000 0.000000 0.000000 0.000000 0.000000 0.000000 14.559286 14.559286 14.559286 14.559286 14.559286 14.559286 14.559286 14.559286 14.559286 0.000000 0.000000 0.000000 0.000000 0.000000 0.000000 0.000000 0.000000 9.517460 9.517460 9.517460 9.517460 9.517460 9.517460 9.608686 9.608686 9.608686 9.608686 9.608686 9.608686 0.000000 0.000000 0.000000 0.000000 0.000000 0.000000 0.000000 32.249636 32.249636 32.249636 32.249636 32.249636 32.249636 32.249636 32.249636 0.000000 0.000000 0.000000 0.000000 0.000000 0.000000
0.000000 0.000000 0.000000 0.000000 0.000000 0.000000 0.000000 0.000000 0.000000 0.000000 0.000000 0.000000 0.000000 3.738979 3.738979 3.738979 0.000000 0.000000 0.000000 9.854698 9.854698 9.854698 9.854698 9.854698 9.854698 9.854698 0.000000 0.000000 0.000000 0.000000 0.000000 0.000000 0.000000 0.000000 0.000000 15.764757 15.764757 15.764757 15.764757 0.000000 0.000000 0.000000 0.000000 0.000000 0.000000 0.000000 0.000000 0.000000 0.000000 0.000000 0.000000 0.000000 0.000000 14.559286 14.559286 14.559286 14.559286 14.559286 14.559286 14.559286 14.559286 14.559286 0.000000 0.000000 0.000000 0.000000 0.000000 0.000000 0.000000 0.000000 9.517460 9.517460 9.517460 9.517460 9.517460 9.517460 9.608686 9.608686 9.608686 9.608686 9.608686 9.608686 0.000000 0.000000 0.000000 0.000000 0.000000 0.000000 0.000000 32.249636 32.249636 32.249636 32.249636 32.249636 32.249636 32.249636 32.249636 0.000000 0.000000 0.000000 0.000000 0.000000 0.000000
0.000000 0.000000 0.000000 0.000000 0.000000 0.000000 0.000000 0.000000 0.000000 0.000000 0.000000 0.000000 0.000000 3.738979 3.738979 3.738979 0.000000 0.000000 0.000000 9.854698 9.854698 9.854698 9.854698 9.854698 9.854698 9.854698 0.000000 0.000000 0.000000 0.000000 0.000000 0.000000 0.000000 0.000000 0.000000 15.764757 15.764757 15.764757 15.764757 0.000000 0.000000 0.000000 0.000000 0.000000 0.000000 0.000000 0.000000 0.000000 0.000000 0.000000 0.000000 0.000000 0.000000 14.559286 14.559286 14.559286 14.559286 14.559286 14.559286 14.559286 14.559286 14.559286 0.000000 0.000000 0.000000 0.000000 0.000000 0.000000 0.000000 0.000000 9.517460 9.517460 9.517460 9.517460 9.517460 9.517460 9.608686 9.608686 9.608686 9.608686 9.608686 9.608686 0.000000 0.000000 0.000000 0.000000 0.000000 0.000000 0.000000 32.249636 32.249636 32.249636 32.249636 32.249636 32.249636 32.249636 32.249636 0.000000 0.000000 0.000000 0.000000 0.000000 0.000000
0.000000 0.000000 0.000000 0.000000 0.000000 0.000000 0.000000 0.000000 0.000000 0.000000 0.000000 0.000000 0.000000 3.738979 3.738979 3.738979 0.000000 0.000000 0.000000 9.854698 9.854698 9.854698 9.854698 9.854698 9.854698 9.854698 0.000000 0.000000 0.000000 0.000000 0.000000 0.000000 0.000000 0.000000 0.000000 15.764757 15.764757 15.764757 15.764757 0.000000 0.000000 0.000000 0.000000 0.000000 0.000000 0.000000 0.000000 0.000000 0.000000 0.000000 0.000000 0.000000 0.000000 0.000000 0.000000 0.000000 0.000000 0.000000 0.000000 0.000000 0.000000 0.000000 0.000000 0.000000 0.000000 0.000000 0.000000 0.000000 0.000000 0.000000 9.458629 9.458629 9.458629 9.458629 9.458629 9.458629 0.000000 0.000000 0.000000 0.000000 0.000000 0.000000 0.000000 0.000000 0.000000 0.000000 0.000000 0.000000 0.000000 32.249636 32.249636 32.249636 32.249636 32.249636 32.249636 32.249636 32.249636 0.000000 0.000000 0.000000 0.000000 0.000000 0.000000
0.000000 0.000000 0.000000 0.000000 0.000000 0.000000 0.000000 0.000000 0.000000 0.000000 0.000000 0.000000 0.000000 3.738979 3.738979 3.738979 0.000000 0.000000 0.000000 9.854698 9.854698 9.854698 9.854698 9.854698 9.854698 9.854698 0.000000 0.000000 0.000000 0.000000 0.000000 0.000000 0.000000 0.000000 0.000000 15.764757 15.764757 15.764757 15.764757 0.000000 0.000000 0.000000 0.000000 0.000000 0.000000 0.000000 0.000000 0.000000 0.000000 0.000000 0.000000 0.000000 0.000000 0.000000 0.000000 0.000000 0.000000 0.000000 0.000000 0.000000 0.000000 0.000000 0.000000 0.000000 2.133522 2.133522 2.133522 2.133522 0.000000 0.000000 9.458629 9.458629 9.458629 9.458629 9.458629 9.458629 0.000000 0.000000 0.000000 0.000000 0.000000 0.000000 0.000000 0.000000 0.000000 0.000000 0.000000 0.000000 0.000000 32.249636 32.249636 32.249636 32.249636 32.249636 32.249636 32.249636 32.249636 0.000000 0.000000 0.000000 0.000000 0.000000 0.000000
0.000000 0.000000 0.000000 0.000000 0.000000 0.000000 0.000000 0.000000 0.000000 0.000000 0.000000 0.000000 0.000000 3.738979 3.738979 3.738979 0.000000 0.000000 0.000000 9.854698 9.854698 9.854698 9.854698 9.854698 9.854698 9.854698 0.000000 0.000000 0.000000 0.000000 0.000000 0.000000 0.000000 0.000000 0.000000 15.764757 15.764757 15.764757 15.764757 0.000000 0.000000 0.000000 0.000000 0.000000 0.000000 0.000000 0.000000 0.000000 0.000000 0.000000 0.000000 0.000000 0.000000 0.000000 0.000000 0.000000 0.000000 0.000000 0.000000 0.000000 0.000000 0.000000 0.000000 0.000000 2.133522 2.133522 2.133522 2.133522 0.000000 0.000000 9.458629 9.458629 9.458629 9.458629 9.458629 9.458629 0.000000 0.000000 0.000000 0.000000 0.000000 0.000000 0.000000 0.000000 0.000000 0.000000 0.000000 0.000000 0.000000 32.249636 32.249636 32.249636 32.249636 32.249636 32.249636 32.249636 32.249636 0.000000 0.000000 0.000000 0.000000 0.000000 0.000000
0.000000 0.000000 0.000000 0.000000 0.000000 0.000000 0.000000 0.000000 0.000000 0.000000 0.000000 0.000000 0.000000 3.738979 3.738979 3.738979 0.000000 0.000000 0.000000 9.854698 9.854698 9.854698 9.854698 9.854698 9.854698 9.854698 0.000000 0.000000 0.000000 0.000000 0.000000 0.000000 0.000000 0.000000 0.000000 15.764757 15.764757 15.764757 15.764757 0.000000 0.000000 0.000000 0.000000 0.000000 0.000000 0.000000 0.000000 0.000000 0.000000 0.000000 0.000000 0.000000 0.000000 0.000000 0.000000 0.000000 0.000000 0.000000 0.000000 0.000000 0.000000 0.000000 0.000000 0.000000 2.133522 2.133522 2.133522 2.133522 0.000000 0.000000 9.458629 9.458629 9.458629 9.458629 9.458629 9.458629 0.000000 0.000000 0.000000 0.000000 0.000000 0.000000 0.000000 0.000000 0.000000 0.000000 0.000000 0.000000 0.000000 32.249636 32.249636 32.249636 32.249636 32.249636 32.249636 32.249636 32.249636 0.000000 0.000000 0.000000 0.000000 0.000000 0.000000
0.000000 0.000000 0.000000 0.000000 0.000000 0.000000 0.000000 0.000000 0.000000 0.000000 0.000000 0.000000 0.000000 0.000000 0.000000 0.000000 0.000000 0.000000 0.000000 0.000000 0.000000 0.000000 0.000000 0.000000 0.000000 0.000000 0.000000 0.000000 0.000000 0.000000 0.000000 0.000000 0.000000 0.000000 0.000000 0.000000 0.000000 0.000000 0.000000 0.000000 0.000000 0.000000 0.000000 0.000000 0.000000 0.000000 0.000000 0.000000 0.000000 0.000000 0.000000 0.000000 0.000000 0.000000 0.000000 0.000000 0.000000 0.000000 0.000000 0.000000 0.000000 0.000000 0.000000 0.000000 0.000000 0.000000 0.000000 0.000000 0.000000 0.000000 9.458629 9.458629 9.458629 9.458629 9.458629 9.458629 0.000000 0.000000 0.000000 0.000000 0.000000 0.000000 0.000000 0.000000 0.000000 0.000000 0.000000 0.000000 0.000000 0.000000 0.000000 0.000000 0.000000 0.000000 0.000000 0.000000 0.000000 0.000000 0.000000 0.000000 0.000000 0.000000 0.000000
0.000000 0.000000 0.000000 0.000000 0.000000 0.000000 0.000000 0.000000 0.000000 0.000000 0.000000 0.000000 0.000000 0.000000 0.000000 0.000000 0.000000 0.000000 0.000000 0.000000 0.000000 0.000000 0.000000 0.000000 0.000000 0.000000 0.000000 0.000000 0.000000 0.000000 0.000000 0.000000 0.000000 0.000000 0.000000 0.000000 0.000000 0.000000 0.000000 0.000000 0.000000 0.000000 0.000000 0.000000 0.000000 0.000000 0.000000 0.000000 0.000000 0.000000 0.000000 0.000000 0.000000 0.000000 0.000000 0.000000 0.000000 0.000000 0.000000 0.000000 0.000000 0.000000 0.000000 0.000000 0.000000 0.000000 0.000000 0.000000 0.000000 0.000000 9.458629 9.458629 9.458629 9.458629 9.458629 9.458629 0.000000 0.000000 0.000000 0.000000 0.000000 0.000000 0.000000 0.000000 0.000000 0.000000 0.000000 0.000000 0.000000 0.000000 0.000000 0.000000 0.000000 0.000000 0.000000 0.000000 0.000000 0.000000 0.000000 0.000000 0.000000 0.000000 0.000000
0.000000 0.000000 0.000000 0.000000 0.000000 0.000000 0.000000 0.000000 0.000000 0.000000 0.000000 0.000000 0.000000 0.000000 0.000000 0.000000 0.000000 0.000000 0.000000 0.000000 0.000000 0.000000 0.000000 0.000000 0.000000 0.000000 0.000000 0.000000 0.000000 0.000000 0.000000 0.000000 0.000000 0.000000 0.000000 0.000000 0.000000 0.000000 0.000000 0.000000 0.000000 0.000000 0.000000 0.000000 0.000000 0.000000 0.000000 0.000000 0.000000 0.000000 0.000000 0.000000 0.000000 0.000000 0.000000 0.000000 0.000000 0.000000 0.000000 0.000000 0.000000 0.000000 0.000000 0.000000 0.000000 0.000000 0.000000 0.000000 0.000000 0.000000 0.000000 0.000000 0.000000 0.000000 0.000000 0.000000 0.000000 0.000000 0.000000 0.000000 0.000000 0.000000 0.000000 0.000000 0.000000 0.000000 0.000000 0.000000 0.000000 0.000000 0.000000 0.000000 0.000000 0.000000 0.000000 0.000000 0.000000 0.000000 0.000000 0.000000 0.000000 0.000000 0.000000
0.000000 0.000000 0.000000 0.000000 0.000000 0.000000 0.000000 0.000000 0.000000 0.000000 0.000000 0.000000 0.000000 0.000000 0.000000 0.000000 0.000000 0.000000 0.000000 0.000000 0.000000 0.000000 0.000000 0.000000 0.000000 0.000000 0.000000 0.000000 0.000000 0.000000 0.000000 0.000000 0.000000 0.000000 0.000000 0.000000 0.000000 0.000000 0.000000 0.000000 0.000000 0.000000 0.000000 0.000000 0.000000 0.000000 0.000000 0.000000 0.000000 0.000000 0.000000 0.000000 0.000000 0.000000 0.000000 0.000000 0.000000 0.000000 0.000000 0.000000 0.000000 0.000000 0.000000 0.000000 0.000000 0.000000 0.000000 0.000000 0.000000 0.000000 0.000000 0.000000 0.000000 0.000000 0.000000 0.000000 0.000000 0.000000 0.000000 0.000000 0.000000 0.000000 0.000000 0.000000 0.000000 0.000000 0.000000 0.000000 0.000000 0.000000 0.000000 0.000000 0.000000 0.000000 0.000000 0.000000 0.000000 0.000000 0.000000 0.000000 0.000000 0.000000 0.000000
0.000000 0.000000 0.000000 0.000000 0.000000 0.000000 0.000000 0.000000 0.000000 0.000000 0.000000 0.000000 0.000000 0.000000 0.000000 0.000000 0.000000 0.000000 0.000000 0.000000 0.000000 0.000000 0.000000 0.000000 0.000000 0.000000 0.000000 0.000000 0.000000 0.000000 0.000000 0.000000 0.000000 0.000000 0.000000 0.000000 0.000000 0.000000 0.000000 0.000000 0.000000 0.000000 0.000000 0.000000 0.000000 0.000000 0.000000 0.000000 0.000000 0.000000 0.000000 0.000000 0.000000 0.000000 0.000000 0.000000 0.000000 0.000000 0.000000 0.000000 0.000000 0.000000 0.000000 0.000000 0.000000 0.000000 0.000000 0.000000 0.000000 0.000000 0.000000 0.000000 0.000000 0.000000 0.000000 0.000000 0.000000 0.000000 0.000000 0.000000 0.000000 0.000000 0.000000 0.000000 0.000000 0.000000 0.000000 0.000000 0.000000 0.000000 0.000000 0.000000 0.000000 0.000000 0.000000 0.000000 0.000000 0.000000 0.000000 0.000000 0.000000 0.000000 0.000000
0.000000 0.000000 0.000000 0.000000 0.000000 0.000000 0.000000 0.000000 0.000000 0.000000 0.000000 0.000000 0.000000 0.000000 0.000000 0.000000 0.000000 0.000000 0.000000 0.000000 0.000000 0.000000 0.000000 0.000000 0.000000 0.000000 0.000000 0.000000 0.000000 0.000000 0.000000 0.000000 0.000000 0.000000 0.000000 0.000000 0.000000 0.000000 0.000000 0.000000 0.000000 0.000000 0.000000 0.000000 0.000000 0.000000 0.000000 0.000000 0.000000 0.000000 0.000000 0.000000 0.000000 0.000000 0.000000 0.000000 0.000000 0.000000 0.000000 0.000000 0.000000 0.000000 0.000000 0.000000 0.000000 0.000000 0.000000 0.000000 0.000000 0.000000 0.000000 0.000000 0.000000 0.000000 0.000000 0.000000 0.000000 0.000000 0.000000 0.000000 0.000000 0.000000 0.000000 0.000000 0.000000 0.000000 0.000000 0.000000 0.000000 0.000000 0.000000 0.000000 0.000000 0.000000 0.000000 0.000000 0.000000 0.000000 0.000000 0.000000 0.000000 0.000000 0.000000
