0.000000 0.000000 0.000000 0.000000 0.000000 0.000000 0.000000 0.000000 0.000000 0.000000 0.000000 0.000000 0.000000 0.000000 0.000000 0.000000 0.000000 0.000000 0.000000 0.000000 0.000000 0.000000 0.000000 0.000000 0.000000 0.000000 0.000000 0.000000 0.000000 0.000000 0.000000 0.000000 0.000000 0.000000 0.000000 0.000000 0.000000 0.000000 0.000000 0.000000 0.000000 0.000000 0.000000 0.000000 0.000000 0.000000 0.000000 0.000000 0.000000 0.000000 0.000000 0.000000 0.000000 0.000000 0.000000 0.000000 0.000000 0.000000 0.000000 0.000000 0.000000 0.000000 0.000000 0.000000 0.000000 0.000000 0.000000 0.000000 0.000000 0.000000 0.000000 0.000000 0.000000 0.000000 0.000000 0.000000 0.000000 0.000000 0.000000 0.000000 0.000000 0.000000 0.000000 0.000000 0.000000 0.000000 0.000000 0.000000 0.000000 0.000000 0.000000 0.000000 0.000000 0.000000 0.000000 0.000000 0.000000 0.000000 0.000000 0.000000 0.000000 0.000000 0.000000
0.000000 0.000000 0.000000 0.000000 0.000000 0.000000 0.000000 0.000000 0.000000 0.000000 0.000000 0.000000 0.000000 0.000000 0.000000 0.000000 0.000000 0.000000 0.000000 0.000000 0.000000 0.000000 0.000000 0.000000 0.000000 0.000000 0.000000 0.000000 0.000000 0.000000 0.000000 0.000000 0.000000 0.000000 0.000000 0.000000 0.000000 0.000000 0.000000 0.000000 0.000000 0.000000 0.000000 0.000000 0.000000 0.000000 0.000000 0.000000 0.000000 0.000000 0.000000 0.000000 0.000000 0.000000 0.000000 0.000000 0.000000 0.000000 0.000000 0.000000 0.000000 0.000000 0.000000 0.000000 0.000000 0.000000 0.000000 0.000000 0.000000 0.000000 0.000000 0.000000 0.000000 0.000000 0.000000 0.000000 0.000000 0.000000 0.000000 0.000000 0.000000 0.000000 0.000000 0.000000 0.000000 0.000000 0.000000 0.000000 0.000000 0.000000 0.000000 0.000000 0.000000 0.000000 0.000000 0.000000 0.000000 0.000000 0.000000 0.000000 0.000000 0.000000 0.000000
0.000000 0.000000 0.000000 0.000000 0.000000 0.000000 0.000000 0.000000 0.000000 0.000000 0.000000 0.000000 0.000000 0.000000 0.000000 0.000000 0.000000 0.000000 0.000000 0.000000 0.000000 0.000000 0.000000 0.000000 0.000000 0.000000 0.000000 0.000000 0.000000 0.000000 0.000000 0.000000 0.000000 0.000000 0.000000 0.000000 0.000000 0.000000 0.000000 0.000000 0.000000 0.000000 0.000000 0.000000 0.000000 0.000000 0.000000 0.000000 0.000000 0.000000 0.000000 0.000000 0.000000 0.000000 0.000000 0.000000 0.000000 0.000000 0.000000 0.000000 0.000000 0.000000 0.000000 0.000000 0.000000 0.000000 0.000000 0.000000 0.000000 0.000000 0.000000 0.000000 0.000000 0.000000 0.000000 0.000000 0.000000 0.000000 0.000000 0.000000 0.000000 0.000000 0.000000 0.000000 0.000000 0.000000 0.000000 0.000000 0.000000 0.000000 0.000000 0.000000 0.000000 0.000000 0.000000 0.000000 0.000000 0.000000 0.000000 0.000000 0.000000 0.000000 0.000000
0.000000 0.000000 0.000000 0.000000 0.000000 0.000000 0.000000 0.000000 0.000000 0.000000 0.000000 0.000000 0.000000 0.000000 0.000000 0.000000 0.000000 0.000000 0.000000 0.000000 0.000000 0.000000 0.000000 0.000000 0.000000 0.000000 0.000000 0.000000 0.000000 0.000000 0.000000 0.000000 0.000000 0.000000 0.000000 0.000000 0.000000 0.000000 0.000000 0.000000 0.000000 0.000000 0.000000 0.000000 0.000000 0.000000 0.000000 0.000000 0.000000 0.000000 0.000000 0.000000 0.000000 0.000000 0.000000 0.000000 0.000000 0.000000 0.000000 0.000000 0.000000 0.000000 0.000000 0.000000 0.000000 0.000000 0.000000 0.000000 0.000000 0.000000 0.000000 0.000000 0.000000 0.000000 0.000000 0.000000 0.000000 0.000000 0.000000 0.000000 0.000000 0.000000 0.000000 0.000000 0.000000 0.000000 0.000000 0.000000 0.000000 0.000000 0.000000 0.000000 0.000000 0.000000 0.000000 0.000000 0.000000 0.000000 0.000000 0.000000 0.000000 0.000000 0.000000
0.000000 0.000000 0.000000 0.000000 23.032247 23.032247 23.032247 23.032247 23.032247 23.032247 23.032247 23.032247 23.032247 23.032247 23.032247 23.032247 0.000000 0.000000 0.000000 0.000000 0.000000 0.000000 0.000000 0.000000 0.000000 0.000000 0.000000 0.000000 0.000000 0.000000 0.000000 0.000000 0.000000 0.000000 0.000000 0.000000 0.000000 0.000000 0.000000 0.000000 0.000000 0.000000 0.000000 0.000000 0.000000 0.000000 0.000000 0.000000 0.000000 0.000000 0.000000 0.000000 0.000000 0.000000 0.000000 0.000000 0.000000 0.000000 0.000000 0.000000 0.000000 0.000000 0.000000 0.000000 0.000000 0.000000 0.000000 0.000000 0.000000 0.000000 0.000000 0.000000 0.000000 0.000000 0.000000 0.000000 0.000000 0.000000 0.000000 0.000000 0.000000 0.000000 0.000000 0.000000 0.000000 0.000000 0.000000 0.000000 0.000000 0.000000 0.000000 0.000000 0.000000 0.000000 0.000000 0.000000 0.000000 0.000000 0.000000 0.000000 0.000000 0.000000 0.000000
0.000000 0.000000 0.000000 0.000000 23.032247 23.032247 23.032247 23.032247 23.032247 23.032247 23.032247 23.032247 23.032247 23.032247 23.032247 23.032247 0.000000 0.000000 0.000000 0.000000 0.000000 0.000000 0.000000 0.000000 0.000000 0.000000 0.000000 0.000000 0.000000 0.000000 0.000000 0.000000 0.000000 0.000000 0.000000 0.000000 0.000000 0.000000 0.000000 0.000000 0.000000 0.000000 0.000000 0.000000 0.000000 0.000000 0.000000 0.000000 0.000000 0.000000 0.000000 0.000000 0.000000 0.000000 0.000000 0.000000 0.000000 0.000000 0.000000 0.000000 0.000000 0.000000 0.000000 0.000000 0.000000 0.000000 0.000000 0.000000 0.000000 0.000000 0.000000 0.000000 0.000000 0.000000 0.000000 0.000000 0.000000 0.000000 0.000000 0.000000 0.000000 0.000000 0.000000 0.000000 0.000000 0.000000 0.000000 0.000000 0.000000 0.000000 0.000000 0.000000 0.000000 0.000000 0.000000 0.000000 0.000000 0.000000 0.000000 0.000000 0.000000 0.000000 0.000000
0.000000 0.000000 0.000000 0.000000 23.032247 23.032247 23.032247 23.032247 23.032247 23.032247 23.032247 23.032247 23.032247 23.032247 23.032247 23.032247 0.000000 0.000000 0.000000 0.000000 0.000000 0.000000 0.000000 0.000000 0.000000 0.000000 0.000000 0.000000 0.000000 0.000000 0.000000 0.000000 0.000000 0.000000 0.000000 0.000000 0.000000 0.000000 0.000000 0.000000 0.000000 0.000000 0.000000 0.000000 0.000000 0.000000 0.000000 0.000000 0.000000 0.000000 0.000000 0.000000 0.000000 0.000000 0.000000 0.000000 0.000000 0.000000 0.000000 0.000000 0.000000 0.000000 0.000000 0.000000 0.000000 0.000000 0.000000 0.000000 0.000000 22.104355 22.104355 22.104355 22.104355 22.104355 22.104355 22.104355 0.000000 0.000000 0.000000 0.000000 22.837654 22.837654 22.837654 22.837654 22.837654 22.837654 22.837654 0.000000 0.000000 0.000000 0.000000 0.000000 0.000000 0.000000 0.000000 0.000000 0.000000 0.000000 0.000000 0.000000 0.000000 0.000000 0.000000
0.000000 0.000000 0.000000 0.000000 23.032247 23.032247 23.032247 23.032247 23.032247 23.032247 23.032247 23.032247 23.032247 23.032247 23.032247 23.032247 0.000000 0.000000 0.000000 0.000000 0.000000 0.000000 0.000000 0.000000 0.000000 0.000000 0.000000 0.000000 0.000000 0.000000 0.000000 0.000000 0.000000 0.000000 0.000000 0.000000 0.000000 0.000000 0.000000 0.000000 0.000000 0.000000 0.000000 0.000000 0.000000 0.000000 0.000000 0.000000 0.000000 0.000000 0.000000 0.000000 0.000000 0.000000 0.000000 0.000000 0.000000 0.000000 0.000000 0.000000 0.000000 0.000000 0.000000 0.000000 0.000000 0.000000 0.000000 0.000000 0.000000 22.104355 22.104355 22.104355 22.104355 22.104355 22.104355 22.104355 0.000000 0.000000 0.000000 0.000000 22.837654 22.837654 22.837654 22.837654 22.837654 22.837654 22.837654 0.000000 0.000000 0.000000 0.000000 0.000000 0.000000 0.000000 0.000000 0.000000 0.000000 0.000000 0.000000 0.000000 0.000000 0.000000 0.000000
0.000000 0.000000 0.000000 0.000000 23.032247 23.032247 23.032247 23.032247 23.032247 23.032247 23.032247 23.032247 23.032247 23.032247 23.032247 23.032247 0.000000 0.000000 0.000000 0.000000 0.000000 0.000000 0.000000 0.000000 0.000000 0.000000 0.000000 0.000000 0.000000 0.000000 0.000000 0.000000 0.000000 0.000000 0.000000 0.000000 0.000000 0.000000 0.000000 0.000000 0.000000 0.000000 0.000000 0.000000 0.000000 0.000000 0.000000 0.000000 0.000000 0.000000 0.000000 0.000000 0.000000 0.000000 0.000000 0.000000 0.000000 0.000000 0.000000 0.000000 0.000000 0.000000 0.000000 0.000000 0.000000 0.000000 0.000000 0.000000 0.000000 22.104355 22.104355 22.104355 22.104355 22.104355 22.104355 22.104355 0.000000 0.000000 0.000000 0.000000 22.837654 22.837654 22.837654 22.837654 22.837654 22.837654 22.837654 0.000000 0.000000 0.000000 0.000000 0.000000 0.000000 0.000000 0.000000 0.000000 0.000000 0.000000 0.000000 0.000000 0.000000 0.000000 0.000000
0.000000 0.000000 0.000000 0.000000 23.032247 23.032247 23.032247 23.032247 23.032247 23.032247 23.032247 23.032247 23.032247 23.032247 23.032247 23.032247 0.000000 0.000000 0.000000 0.000000 0.000000 0.000000 0.000000 0.000000 0.000000 0.000000 0.000000 0.000000 0.000000 0.000000 0.000000 0.000000 0.000000 0.000000 0.000000 0.000000 0.000000 0.000000 0.000000 0.000000 0.000000 0.000000 0.000000 0.000000 0.000000 0.000000 0.000000 0.000000 0.000000 0.000000 0.000000 0.000000 0.000000 0.000000 0.000000 0.000000 0.000000 0.000000 0.000000 0.000000 0.000000 0.000000 0.000000 0.000000 0.000000 0.000000 0.000000 0.000000 0.000000 22.104355 22.104355 22.104355 22.104355 22.104355 22.104355 22.104355 0.000000 0.000000 0.000000 0.000000 22.837654 22.837654 22.837654 22.837654 22.837654 22.837654 22.837654 0.000000 0.000000 0.000000 0.000000 0.000000 0.000000 0.000000 0.000000 0.000000 0.000000 0.000000 0.000000 0.000000 0.000000 0.000000 0.000000
0.000000 0.000000 0.000000 0.000000 23.032247 23.032247 23.032247 23.032247 23.032247 23.032247 23.032247 23.032247 23.032247 23.032247 23.032247 23.032247 0.000000 0.000000 0.000000 0.000000 0.000000 0.000000 0.000000 0.000000 0.000000 0.000000 0.000000 0.000000 0.000000 0.000000 0.000000 0.000000 0.000000 0.000000 0.000000 0.000000 0.000000 0.000000 0.000000 0.000000 0.000000 0.000000 0.000000 0.000000 0.000000 0.000000 0.000000 0.000000 0.000000 0.000000 0.000000 0.000000 0.000000 0.000000 0.000000 0.000000 0.000000 0.000000 0.000000 0.000000 0.000000 0.000000 0.000000 0.000000 0.000000 0.000000 0.000000 0.000000 0.000000 22.104355 22.104355 22.104355 22.104355 22.104355 22.104355 22.104355 0.000000 0.000000 0.000000 0.000000 22.837654 22.837654 22.837654 22.837654 22.837654 22.837654 22.837654 0.000000 0.000000 0.000000 0.000000 0.000000 0.000000 0.000000 0.000000 0.000000 0.000000 0.000000 0.000000 0.000000 0.000000 0.000000 0.000000
0.000000 0.000000 0.000000 0.000000 23.032247 23.032247 23.032247 23.032247 23.032247 23.032247 23.032247 23.032247 23.032247 23.032247 23.032247 23.032247 0.000000 0.000000 0.000000 0.000000 0.000000 0.000000 0.000000 0.000000 0.000000 0.000000 0.000000 0.000000 0.000000 0.000000 0.000000 0.000000 0.000000 0.000000 0.000000 0.000000 0.000000 0.000000 0.000000 0.000000 0.000000 0.000000 0.000000 0.000000 0.000000 0.000000 0.000000 0.000000 0.000000 0.000000 0.000000 0.000000 0.000000 0.000000 0.000000 0.000000 0.000000 0.000000 0.000000 0.000000 0.000000 0.000000 0.000000 0.000000 0.000000 0.000000 0.000000 0.000000 0.000000 22.104355 22.104355 22.104355 22.104355 22.104355 22.104355 22.104355 0.000000 0.000000 0.000000 0.000000 22.837654 22.837654 22.837654 22.837654 22.837654 22.837654 22.837654 0.000000 0.000000 0.000000 0.000000 0.000000 0.000000 0.000000 0.000000 0.000000 0.000000 0.000000 0.000000 0.000000 0.000000 0.000000 0.000000
0.000000 0.000000 0.000000 0.000000 25.613669 25.613669 25.613669 25.613669 25.613669 25.613669 25.613669 25.613669 25.613669 25.613669 25.613669 25.613669 0.000000 0.000000 0.000000 0.000000 0.000000 0.000000 0.000000 0.000000 0.000000 0.000000 0.000000 0.000000 0.000000 0.000000 0.000000 0.000000 0.000000 0.000000 0.000000 0.000000 0.000000 0.000000 0.000000 0.000000 0.000000 0.000000 0.000000 0.000000 0.000000 0.000000 0.000000 0.000000 0.000000 0.000000 0.000000 0.000000 0.000000 0.000000 0.000000 0.000000 0.000000 0.000000 0.000000 0.000000 0.000000 0.000000 0.000000 0.000000 0.000000 0.000000 0.000000 0.000000 0.000000 22.104355 22.104355 22.104355 22.104355 22.104355 22.104355 22.104355 0.000000 0.000000 0.000000 0.000000 22.837654 22.837654 22.837654 22.837654 22.837654 22.837654 22.837654 0.000000 0.000000 0.000000 0.000000 0.000000 0.000000 0.000000 0.000000 0.000000 0.000000 0.000000 0.000000 0.000000 0.000000 0.000000 0.000000
0.000000 0.000000 0.000000 0.000000 25.613669 25.613669 25.613669 25.613669 25.613669 25.613669 25.613669 25.613669 25.613669 25.613669 25.613669 25.613669 0.000000 0.000000 0.000000 0.000000 0.000000 0.000000 0.000000 0.000000 0.000000 0.000000 0.000000 0.000000 0.000000 0.000000 0.000000 0.000000 0.000000 0.000000 0.000000 0.000000 0.000000 0.000000 0.000000 0.000000 0.000000 0.000000 0.000000 0.000000 0.000000 0.000000 0.000000 0.000000 0.000000 0.000000 0.000000 0.000000 0.000000 0.000000 0.000000 0.000000 0.000000 0.000000 0.000000 0.000000 0.000000 0.000000 0.000000 0.000000 0.000000 0.000000 0.000000 0.000000 0.000000 22.104355 22.104355 22.104355 22.104355 22.104355 22.104355 22.104355 0.000000 0.000000 0.000000 0.000000 22.837654 22.837654 22.837654 22.837654 22.837654 22.837654 22.837654 0.000000 0.000000 0.000000 0.000000 0.000000 0.000000 0.000000 0.000000 0.000000 0.000000 0.000000 0.000000 0.000000 0.000000 0.000000 0.000000
0.000000 0.000000 0.000000 0.000000 25.613669 25.613669 25.613669 25.613669 25.613669 25.613669 25.613669 25.613669 25.613669 25.613669 25.613669 25.613669 0.000000 0.000000 0.000000 0.000000 0.000000 12.134112 12.134112 12.134112 12.134112 12.134112 12.134112 12.134112 0.000000 0.000000 0.000000 0.000000 0.000000 0.000000 0.000000 0.000000 0.000000 0.000000 0.000000 0.000000 0.000000 0.000000 0.000000 0.000000 0.000000 0.000000 0.000000 0.000000 0.000000 0.000000 0.000000 0.000000 0.000000 0.000000 0.000000 0.000000 0.000000 0.000000 0.000000 0.000000 0.000000 0.000000 0.000000 0.000000 0.000000 0.000000 0.000000 0.000000 0.000000 22.104355 22.104355 22.104355 22.104355 22.104355 22.104355 22.104355 0.000000 0.000000 0.000000 0.000000 22.837654 22.837654 22.837654 22.837654 22.837654 22.837654 22.837654 0.000000 0.000000 0.000000 0.000000 0.000000 0.000000 0.000000 0.000000 0.000000 0.000000 0.000000 0.000000 0.000000 0.000000 0.000000 0.000000
0.000000 0.000000 0.000000 0.000000 25.613669 25.613669 25.613669 25.613669 25.613669 25.613669 25.613669 25.613669 25.613669 25.613669 25.613669 25.613669 0.000000 0.000000 0.000000 0.000000 0.000000 12.134112 12.134112 12.134112 12.134112 12.134112 12.134112 12.134112 0.000000 0.000000 0.000000 0.000000 0.000000 0.000000 0.000000 0.000000 0.000000 0.000000 0.000000 0.000000 0.000000 0.000000 0.000000 0.000000 0.000000 0.000000 0.000000 0.000000 0.000000 0.000000 0.000000 0.000000 0.000000 0.000000 0.000000 0.000000 0.000000 0.000000 0.000000 0.000000 0.000000 0.000000 0.000000 0.000000 0.000000 0.000000 0.000000 0.000000 0.000000 22.104355 22.104355 22.104355 22.104355 22.104355 22.104355 22.104355 0.000000 0.000000 0.000000 0.000000 22.837654 22.837654 22.837654 22.837654 22.837654 22.837654 22.837654 0.000000 0.000000 0.000000 0.000000 0.000000 0.000000 0.000000 0.000000 0.000000 0.000000 0.000000 0.000000 0.000000 0.000000 0.000000 0.000000
0.000000 0.000000 0.000000 0.000000 25.613669 25.613669 25.613669 25.613669 25.613669 25.613669 25.613669 25.613669 25.613669 25.613669 25.613669 25.613669 0.000000 0.000000 0.000000 0.000000 0.000000 12.134112 12.134112 12.134112 12.134112 12.134112 12.134112 12.134112 0.000000 0.000000 0.000000 0.000000 0.000000 0.000000 0.000000 0.000000 0.000000 0.000000 0.000000 0.000000 0.000000 0.000000 0.000000 0.000000 0.000000 0.000000 0.000000 0.000000 0.000000 0.000000 0.000000 0.000000 0.000000 0.000000 0.000000 0.000000 0.000000 0.000000 0.000000 0.000000 0.000000 0.000000 0.000000 0.000000 0.000000 0.000000 0.000000 0.000000 0.000000 22.104355 22.104355 22.104355 22.104355 22.104355 22.104355 22.104355 0.000000 0.000000 0.000000 0.000000 22.837654 22.837654 22.837654 22.837654 22.837654 22.837654 22.837654 0.000000 0.000000 0.000000 0.000000 0.000000 0.000000 0.000000 0.000000 0.000000 0.000000 0.000000 0.000000 0.000000 0.000000 0.000000 0.000000
0.000000 0.000000 0.000000 0.000000 25.613669 25.613669 25.613669 25.613669 25.613669 25.613669 25.613669 25.613669 25.613669 25.613669 25.613669 25.613669 0.000000 0.000000 0.000000 0.000000 0.000000 12.134112 12.134112 12.134112 12.134112 12.134112 12.134112 12.134112 0.000000 0.000000 0.000000 0.000000 0.000000 0.000000 0.000000 0.000000 0.000000 0.000000 0.000000 0.000000 0.000000 0.000000 0.000000 0.000000 0.000000 0.000000 0.000000 0.000000 0.000000 0.000000 0.000000 0.000000 0.000000 0.000000 0.000000 0.000000 0.000000 0.000000 0.000000 0.000000 0.000000 0.000000 0.000000 0.000000 0.000000 0.000000 0.000000 0.000000 0.000000 22.104355 22.104355 22.104355 22.104355 22.104355 22.104355 22.104355 0.000000 0.000000 0.000000 0.000000 22.837654 22.837654 22.837654 22.837654 22.837654 22.837654 22.837654 0.000000 0.000000 0.000000 0.000000 0.000000 0.000000 0.000000 0.000000 0.000000 0.000000 0.000000 0.000000 0.000000 0.000000 0.000000 0.000000
0.000000 0.000000 0.000000 0.000000 25.613669 25.613669 25.613669 25.613669 25.613669 25.613669 25.613669 25.613669 25.613669 25.613669 25.613669 25.613669 0.000000 0.000000 0.000000 0.000000 0.000000 12.134112 12.134112 12.134112 12.134112 12.134112 12.134112 12.134112 0.000000 0.000000 0.000000 0.000000 0.000000 0.000000 0.000000 0.000000 0.000000 0.000000 0.000000 0.000000 0.000000 0.000000 0.000000 0.000000 0.000000 0.000000 0.000000 0.000000 0.000000 0.000000 0.000000 0.000000 0.000000 0.000000 0.000000 0.000000 0.000000 0.000000 0.000000 0.000000 0.000000 0.000000 0.000000 0.000000 0.000000 0.000000 0.000000 0.000000 0.000000 22.104355 22.104355 22.104355 22.104355 22.104355 22.104355 22.104355 0.000000 0.000000 0.000000 0.000000 22.837654 22.837654 22.837654 22.837654 22.837654 22.837654 22.837654 0.000000 0.000000 0.000000 0.000000 0.000000 0.000000 0.000000 0.000000 0.000000 0.000000 0.000000 0.000000 0.000000 0.000000 0.000000 0.000000
0.000000 0.000000 0.000000 0.000000 25.613669 25.613669 25.613669 25.613669 25.613669 25.613669 25.613669 25.613669 25.613669 25.613669 25.613669 25.613669 0.000000 0.000000 0.000000 0.000000 0.000000 12.134112 12.134112 12.134112 12.134112 12.134112 12.134112 12.134112 0.000000 0.000000 0.000000 0.000000 0.000000 0.000000 0.000000 0.000000 0.000000 0.000000 0.000000 0.000000 0.000000 0.000000 0.000000 0.000000 0.000000 0.000000 0.000000 0.000000 0.000000 0.000000 0.000000 0.000000 0.000000 0.000000 0.000000 0.000000 0.000000 0.000000 0.000000 0.000000 0.000000 0.000000 0.000000 0.000000 0.000000 0.000000 0.000000 0.000000 0.000000 0.000000 0.000000 0.000000 0.000000 0.000000 0.000000 0.000000 0.000000 0.000000 0.000000 0.000000 0.000000 0.000000 0.000000 0.000000 0.000000 0.000000 0.000000 0.000000 0.000000 0.000000 0.000000 0.000000 0.000000 0.000000 0.000000 0.000000 0.000000 0.000000 0.000000 0.000000 0.000000 0.000000 0.000000
0.000000 0.000000 0.000000 0.000000 25.613669 25.613669 25.613669 25.613669 25.613669 25.613669 25.613669 25.613669 25.613669 25.613669 25.613669 25.613669 0.000000 0.000000 0.000000 0.000000 0.000000 12.134112 12.134112 12.134112 12.134112 12.134112 12.134112 12.134112 0.000000 0.000000 0.000000 0.000000 0.000000 0.000000 0.000000 0.000000 0.000000 0.000000 0.000000 0.000000 0.000000 0.000000 0.000000 0.000000 0.000000 0.000000 0.000000 0.000000 0.000000 0.000000 0.000000 0.000000 0.000000 0.000000 0.000000 0.000000 0.000000 0.000000 0.000000 0.000000 0.000000 0.000000 0.000000 0.000000 0.000000 0.000000 0.000000 0.000000 0.000000 0.000000 0.000000 0.000000 0.000000 0.000000 0.000000 0.000000 0.000000 0.000000 0.000000 0.000000 0.000000 0.000000 0.000000 0.000000 0.000000 0.000000 0.000000 0.000000 0.000000 0.000000 0.000000 0.000000 0.000000 0.000000 0.000000 0.000000 0.000000 0.000000 0.000000 0.000000 0.000000 0.000000 0.000000
0.000000 0.000000 0.000000 0.000000 0.000000 0.000000 0.000000 0.000000 0.000000 0.000000 0.000000 0.000000 0.000000 0.000000 0.000000 0.000000 0.000000 0.000000 0.000000 0.000000 0.000000 0.000000 0.000000 0.000000 0.000000 0.000000 0.000000 0.000000 0.000000 0.000000 0.000000 0.000000 0.000000 0.000000 0.000000 0.000000 0.000000 0.000000 0.000000 0.000000 0.000000 0.000000 0.000000 0.000000 0.000000 0.000000 0.000000 0.000000 0.000000 0.000000 0.000000 0.000000 0.000000 0.000000 0.000000 0.000000 0.000000 0.000000 0.000000 0.000000 0.000000 0.000000 0.000000 0.000000 0.000000 0.000000 0.000000 0.000000 0.000000 0.000000 0.000000 0.000000 0.000000 0.000000 0.000000 0.000000 0.000000 0.000000 0.000000 0.000000 0.000000 0.000000 0.000000 0.000000 0.000000 0.000000 0.000000 0.000000 0.000000 0.000000 0.000000 0.000000 0.000000 0.000000 0.000000 0.000000 0.000000 0.000000 0.000000 0.000000 0.000000 0.000000 0.000000
0.000000 0.000000 0.000000 0.000000 0.000000 0.000000 0.000000 0.000000 0.000000 0.000000 0.000000 0.000000 0.000000 0.000000 0.000000 0.000000 0.000000 0.000000 0.000000 0.000000 0.000000 0.000000 0.000000 0.000000 0.000000 0.000000 0.000000 0.000000 0.000000 0.000000 0.000000 0.000000 0.000000 0.000000 0.000000 0.000000 0.000000 0.000000 0.000000 0.000000 0.000000 0.000000 0.000000 0.000000 0.000000 0.000000 0.000000 0.000000 0.000000 0.000000 0.000000 0.000000 0.000000 0.000000 0.000000 0.000000 0.000000 0.000000 0.000000 0.000000 0.000000 0.000000 0.000000 0.000000 0.000000 0.000000 0.000000 0.000000 0.000000 0.000000 0.000000 0.000000 0.000000 0.000000 0.000000 0.000000 0.000000 0.000000 0.000000 0.000000 0.000000 0.000000 0.000000 0.000000 0.000000 0.000000 0.000000 0.000000 0.000000 0.000000 0.000000 0.000000 0.000000 0.000000 0.000000 0.000000 0.000000 0.000000 0.000000 0.000000 0.000000 0.000000 0.000000
0.000000 0.000000 0.000000 0.000000 0.000000 0.000000 0.000000 0.000000 0.000000 0.000000 0.000000 0.000000 0.000000 0.000000 0.000000 0.000000 0.000000 0.000000 0.000000 0.000000 0.000000 0.000000 0.000000 0.000000 0.000000 0.000000 0.000000 0.000000 0.000000 0.000000 0.000000 0.000000 0.000000 0.000000 0.000000 0.000000 0.000000 0.000000 0.000000 0.000000 0.000000 0.000000 0.000000 0.000000 0.000000 0.000000 0.000000 0.000000 0.000000 0.000000 0.000000 0.000000 0.000000 0.000000 0.000000 0.000000 0.000000 0.000000 0.000000 0.000000 0.000000 0.000000 0.000000 0.000000 0.000000 0.000000 0.000000 0.000000 0.000000 0.000000 0.000000 0.000000 0.000000 0.000000 0.000000 0.000000 0.000000 0.000000 0.000000 0.000000 0.000000 0.000000 0.000000 0.000000 0.000000 0.000000 0.000000 0.000000 0.000000 0.000000 0.000000 0.000000 0.000000 0.000000 0.000000 0.000000 0.000000 0.000000 0.000000 0.000000 0.000000 0.000000 0.000000
0.000000 0.000000 0.000000 0.000000 0.000000 0.000000 0.000000 0.000000 0.000000 0.000000 0.000000 0.000000 0.000000 0.000000 0.000000 0.000000 0.000000 0.000000 0.000000 0.000000 0.000000 0.000000 0.000000 0.000000 0.000000 0.000000 0.000000 0.000000 0.000000 0.000000 0.000000 0.000000 0.000000 0.000000 0.000000 0.000000 0.000000 0.000000 0.000000 0.000000 0.000000 0.000000 0.000000 0.000000 0.000000 0.000000 0.000000 0.000000 0.000000 0.000000 0.000000 0.000000 0.000000 0.000000 0.000000 0.000000 0.000000 0.000000 0.000000 0.000000 0.000000 0.000000 0.000000 0.000000 0.000000 0.000000 0.000000 0.000000 0.000000 0.000000 0.000000 0.000000 0.000000 0.000000 0.000000 0.000000 0.000000 0.000000 0.000000 0.000000 0.000000 0.000000 0.000000 0.000000 0.000000 0.000000 0.000000 0.000000 0.000000 0.000000 0.000000 0.000000 0.000000 0.000000 0.000000 0.000000 0.000000 0.000000 0.000000 0.000000 0.000000 0.000000 0.000000
0.000000 0.000000 0.000000 0.000000 0.000000 0.000000 0.000000 0.000000 0.000000 0.000000 0.000000 0.000000 0.000000 0.000000 0.000000 0.000000 0.000000 0.000000 0.000000 0.000000 0.000000 0.000000 0.000000 0.000000 0.000000 0.000000 0.000000 0.000000 0.000000 0.000000 0.000000 0.000000 0.000000 0.000000 0.000000 0.000000 0.000000 0.000000 0.000000 0.000000 0.000000 0.000000 0.000000 0.000000 0.000000 0.000000 0.000000 0.000000 0.000000 0.000000 0.000000 0.000000 0.000000 0.000000 0.000000 0.000000 0.000000 0.000000 0.000000 0.000000 0.000000 0.000000 0.000000 0.000000 0.000000 0.000000 0.000000 0.000000 0.000000 0.000000 0.000000 0.000000 0.000000 0.000000 0.000000 0.000000 0.000000 0.000000 0.000000 0.000000 0.000000 0.000000 0.000000 0.000000 0.000000 0.000000 0.000000 0.000000 0.000000 0.000000 0.000000 0.000000 0.000000 0.000000 0.000000 0.000000 0.000000 0.000000 0.000000 0.000000 0.000000 0.000000 0.000000
0.000000 0.000000 0.000000 0.000000 25.353293 25.353293 25.353293 25.353293 25.353293 25.353293 25.353293 25.353293 25.353293 25.353293 25.353293 25.353293 0.000000 0.000000 0.000000 0.000000 0.000000 0.000000 0.000000 0.000000 0.000000 0.000000 0.000000 0.000000 0.000000 0.000000 0.000000 0.000000 0.000000 0.000000 0.000000 0.000000 0.000000 0.000000 0.000000 0.000000 0.000000 0.000000 0.000000 0.000000 0.000000 0.000000 0.000000 0.000000 0.000000 0.000000 0.000000 0.000000 0.000000 0.000000 0.000000 0.000000 0.000000 0.000000 0.000000 0.000000 0.000000 0.000000 0.000000 0.000000 0.000000 0.000000 0.000000 0.000000 0.000000 0.000000 0.000000 0.000000 0.000000 0.000000 0.000000 0.000000 0.000000 0.000000 0.000000 0.000000 0.000000 0.000000 0.000000 0.000000 0.000000 0.000000 0.000000 0.000000 0.000000 0.000000 0.000000 0.000000 0.000000 0.000000 0.000000 0.000000 0.000000 0.000000 0.000000 0.000000 0.000000 0.000000 0.000000
0.000000 0.000000 0.000000 0.000000 25.353293 25.353293 25.353293 25.353293 25.353293 25.353293 25.353293 25.353293 25.353293 25.353293 25.353293 25.353293 0.000000 0.000000 0.000000 0.000000 0.000000 0.000000 0.000000 0.000000 0.000000 0.000000 0.000000 0.000000 0.000000 0.000000 0.000000 0.000000 0.000000 0.000000 0.000000 0.000000 0.000000 0.000000 0.000000 0.000000 0.000000 0.000000 0.000000 0.000000 0.000000 0.000000 0.000000 0.000000 0.000000 0.000000 0.000000 0.000000 0.000000 0.000000 0.000000 0.000000 0.000000 0.000000 0.000000 0.000000 0.000000 0.000000 0.000000 0.000000 0.000000 0.000000 0.000000 0.000000 0.000000 0.000000 0.000000 0.000000 0.000000 0.000000 0.000000 0.000000 0.000000 0.000000 0.000000 0.000000 0.000000 0.000000 0.000000 0.000000 0.000000 0.000000 0.000000 0.000000 0.000000 0.000000 0.000000 0.000000 0.000000 0.000000 0.000000 0.000000 0.000000 0.000000 0.000000 0.000000 0.000000 0.000000 0.000000
0.000000 0.000000 0.000000 0.000000 25.353293 25.353293 25.353293 25.353293 25.353293 25.353293 25.353293 25.353293 25.353293 25.353293 25.353293 25.353293 0.000000 0.000000 0.000000 0.000000 0.000000 0.000000 0.000000 0.000000 0.000000 0.000000 0.000000 0.000000 0.000000 0.000000 0.000000 0.000000 0.000000 0.000000 0.000000 52.008019 52.008019 52.008019 52.008019 52.008019 52.008019 52.008019 52.008019 52.008019 52.008019 52.008019 52.008019 52.008019 0.000000 0.000000 0.000000 0.000000 32.386794 32.386794 32.386794 32.386794 32.386794 32.386794 32.386794 32.386794 32.386794 0.000000 0.000000 0.000000 0.000000 0.000000 0.000000 0.000000 0.000000 48.520695 48.520695 48.520695 48.520695 48.520695 48.520695 48.520695 48.520695 48.520695 48.520695 48.520695 48.520695 48.520695 0.000000 0.000000 0.000000 0.000000 0.000000 0.000000 0.000000 0.000000 0.000000 0.000000 0.000000 0.000000 0.000000 0.000000 0.000000 0.000000 0.000000 0.000000 0.000000 0.000000 0.000000
0.000000 0.000000 0.000000 0.000000 25.353293 25.353293 25.353293 25.353293 25.353293 25.353293 25.353293 25.353293 25.353293 25.353293 25.353293 25.353293 0.000000 0.000000 0.000000 0.000000 0.000000 0.000000 0.000000 0.000000 0.000000 0.000000 0.000000 0.000000 0.000000 0.000000 0.000000 0.000000 0.000000 0.000000 0.000000 52.008019 52.008019 52.008019 52.008019 52.008019 52.008019 52.008019 52.008019 52.008019 52.008019 52.008019 52.008019 52.008019 0.000000 0.000000 0.000000 0.000000 32.386794 32.386794 32.386794 32.386794 32.386794 32.386794 32.386794 32.386794 32.386794 0.000000 0.000000 0.000000 0.000000 0.000000 0.000000 0.000000 0.000000 48.520695 48.520695 48.520695 48.520695 48.520695 48.520695 48.520695 48.520695 48.520695 48.520695 48.520695 48.520695 48.520695 0.000000 0.000000 0.000000 0.000000 0.000000 0.000000 0.000000 0.000000 0.000000 0.000000 0.000000 0.000000 0.000000 0.000000 0.000000 0.000000 0.000000 0.000000 0.000000 0.000000 0.000000
0.000000 0.000000 0.000000 0.000000 25.353293 25.353293 25.353293 25.353293 25.353293 25.353293 25.353293 25.353293 25.353293 25.353293 25.353293 25.353293 0.000000 0.000000 0.000000 0.000000 0.000000 0.000000 0.000000 0.000000 0.000000 0.000000 0.000000 0.000000 0.000000 0.000000 0.000000 0.000000 0.000000 0.000000 0.000000 52.008019 52.008019 52.008019 52.008019 52.008019 52.008019 52.008019 52.008019 52.008019 52.008019 52.008019 52.008019 52.008019 0.000000 0.000000 0.000000 0.000000 32.386794 32.386794 32.386794 32.386794 32.386794 32.386794 32.386794 32.386794 32.386794 0.000000 0.000000 0.000000 0.000000 0.000000 0.000000 0.000000 0.000000 48.520695 48.520695 48.520695 48.520695 48.520695 48.520695 48.520695 48.520695 48.520695 48.520695 48.520695 48.520695 48.520695 0.000000 0.000000 0.000000 0.000000 0.000000 0.000000 0.000000 0.000000 0.000000 0.000000 0.000000 0.000000 0.000000 0.000000 0.000000 0.000000 0.000000 0.000000 0.000000 0.000000 0.000000
0.000000 0.000000 0.000000 0.000000 25.353293 25.353293 25.353293 25.353293 25.353293 25.353293 25.353293 25.353293 25.353293 25.353293 25.353293 25.353293 0.000000 0.000000 0.000000 0.000000 0.000000 0.000000 0.000000 0.000000 0.000000 0.000000 0.000000 0.000000 0.000000 0.000000 0.000000 0.000000 0.000000 0.000000 0.000000 52.008019 52.008019 52.008019 52.008019 52.008019 52.008019 52.008019 52.008019 52.008019 52.008019 52.008019 52.008019 52.008019 0.000000 0.000000 0.000000 0.000000 32.386794 32.386794 32.386794 32.386794 32.386794 32.386794 32.386794 32.386794 32.386794 0.000000 0.000000 0.000000 0.000000 0.000000 0.000000 0.000000 0.000000 48.520695 48.520695 48.520695 48.520695 48.520695 48.520695 48.520695 48.520695 48.520695 48.520695 48.520695 48.520695 48.520695 0.000000 0.000000 0.000000 0.000000 0.000000 0.000000 0.000000 0.000000 0.000000 0.000000 0.000000 0.000000 0.000000 0.000000 0.000000 0.000000 0.000000 0.000000 0.000000 0.000000 0.000000
0.000000 0.000000 0.000000 0.000000 25.353293 25.353293 25.353293 25.353293 25.353293 25.353293 25.353293 25.353293 25.353293 25.353293 25.353293 25.353293 0.000000 0.000000 0.000000 0.000000 0.000000 0.000000 0.000000 0.000000 0.000000 0.000000 0.000000 0.000000 0.000000 0.000000 0.000000 0.000000 0.000000 0.000000 0.000000 52.008019 52.008019 52.008019 52.008019 52.008019 52.008019 52.008019 52.008019 52.008019 52.008019 52.008019 52.008019 52.008019 0.000000 0.000000 0.000000 0.000000 32.386794 32.386794 32.386794 32.386794 32.386794 32.386794 32.386794 32.386794 32.386794 0.000000 0.000000 0.000000 0.000000 0.000000 0.000000 0.000000 0.000000 48.520695 48.520695 48.520695 48.520695 48.520695 48.520695 48.520695 48.520695 48.520695 48.520695 48.520695 48.520695 48.520695 0.000000 0.000000 0.000000 0.000000 0.000000 0.000000 0.000000 0.000000 0.000000 0.000000 0.000000 0.000000 0.000000 0.000000 0.000000 0.000000 0.000000 0.000000 0.000000 0.000000 0.000000
0.000000 0.000000 0.000000 0.000000 25.353293 25.353293 25.353293 25.353293 25.353293 25.353293 25.353293 25.353293 25.353293 25.353293 25.353293 25.353293 0.000000 0.000000 0.000000 0.000000 0.000000 0.000000 0.000000 0.000000 0.000000 0.000000 0.000000 0.000000 0.000000 0.000000 0.000000 0.000000 0.000000 0.000000 0.000000 52.008019 52.008019 52.008019 52.008019 52.008019 52.008019 52.008019 52.008019 52.008019 52.008019 52.008019 52.008019 52.008019 0.000000 0.000000 0.000000 0.000000 32.386794 32.386794 32.386794 32.386794 32.386794 32.386794 32.386794 32.386794 32.386794 0.000000 0.000000 0.000000 0.000000 0.000000 0.000000 0.000000 0.000000 48.520695 48.520695 48.520695 48.520695 48.520695 48.520695 48.520695 48.520695 48.520695 48.520695 48.520695 48.520695 48.520695 0.000000 0.000000 0.000000 0.000000 0.000000 0.000000 0.000000 0.000000 0.000000 0.000000 0.000000 0.000000 0.000000 0.000000 0.000000 0.000000 0.000000 0.000000 0.000000 0.000000 0.000000
0.000000 0.000000 0.000000 0.000000 25.353293 25.353293 25.353293 25.353293 25.353293 25.353293 25.353293 25.353293 25.353293 25.353293 25.353293 25.353293 0.000000 0.000000 0.000000 0.000000 0.000000 0.000000 0.000000 0.000000 0.000000 0.000000 0.000000 0.000000 0.000000 0.000000 0.000000 0.000000 0.000000 0.000000 0.000000 52.008019 52.008019 52.008019 52.008019 52.008019 52.008019 52.008019 52.008019 52.008019 52.008019 52.008019 52.008019 52.008019 0.000000 0.000000 0.000000 0.000000 32.386794 32.386794 32.386794 32.386794 32.386794 32.386794 32.386794 32.386794 32.386794 0.000000 0.000000 0.000000 0.000000 0.000000 0.000000 0.000000 0.000000 48.520695 48.520695 48.520695 48.520695 48.520695 48.520695 48.520695 48.520695 48.520695 48.520695 48.520695 48.520695 48.520695 0.000000 0.000000 0.000000 0.000000 0.000000 0.000000 0.000000 0.000000 0.000000 0.000000 0.000000 0.000000 0.000000 0.000000 0.000000 0.000000 0.000000 0.000000 0.000000 0.000000 0.000000
0.000000 0.000000 0.000000 0.000000 0.000000 0.000000 0.000000 0.000000 0.000000 0.000000 0.000000 0.000000 0.000000 0.000000 0.000000 0.000000 0.000000 0.000000 0.000000 0.000000 0.000000 0.000000 0.000000 0.000000 0.000000 0.000000 0.000000 0.000000 0.000000 0.000000 0.000000 0.000000 0.000000 0.000000 0.000000 52.008019 52.008019 52.008019 52.008019 52.008019 52.008019 52.008019 52.008019 52.008019 52.008019 52.008019 52.008019 52.008019 0.000000 0.000000 0.000000 0.000000 32.386794 32.386794 32.386794 32.386794 32.386794 32.386794 32.386794 32.386794 32.386794 0.000000 0.000000 0.000000 0.000000 0.000000 0.000000 0.000000 0.000000 48.520695 48.520695 48.520695 48.520695 48.520695 48.520695 48.520695 48.520695 48.520695 48.520695 48.520695 48.520695 48.520695 0.000000 0.000000 0.000000 0.000000 0.000000 0.000000 0.000000 0.000000 0.000000 0.000000 0.000000 0.000000 0.000000 0.000000 0.000000 0.000000 0.000000 0.000000 0.000000 0.000000 0.000000
0.000000 0.000000 0.000000 0.000000 0.000000 0.000000 0.000000 0.000000 0.000000 0.000000 0.000000 0.000000 0.000000 0.000000 0.000000 0.000000 0.000000 0.000000 0.000000 0.000000 0.000000 0.000000 0.000000 0.000000 0.000000 0.000000 0.000000 0.000000 0.000000 0.000000 0.000000 0.000000 0.000000 0.000000 0.000000 52.008019 52.008019 52.008019 52.008019 52.008019 52.008019 52.008019 52.008019 52.008019 52.008019 52.008019 52.008019 52.008019 0.000000 0.000000 0.000000 0.000000 32.386794 32.386794 32.386794 32.386794 32.386794 32.386794 32.386794 32.386794 32.386794 0.000000 0.000000 0.000000 0.000000 0.000000 0.000000 0.000000 0.000000 48.520695 48.520695 48.520695 48.520695 48.520695 48.520695 48.520695 48.520695 48.520695 48.520695 48.520695 48.520695 48.520695 0.000000 0.000000 0.000000 0.000000 0.000000 0.000000 0.000000 0.000000 0.000000 0.000000 0.000000 0.000000 0.000000 0.000000 0.000000 0.000000 0.000000 0.000000 0.000000 0.000000 0.000000
0.000000 0.000000 0.000000 0.000000 0.000000 0.000000 0.000000 0.000000 0.000000 0.000000 0.000000 0.000000 0.000000 0.000000 0.000000 0.000000 0.000000 0.000000 0.000000 0.000000 0.000000 0.000000 0.000000 0.000000 0.000000 0.000000 0.000000 0.000000 0.000000 0.000000 0.000000 0.000000 0.000000 0.000000 0.000000 52.008019 52.008019 52.008019 52.008019 52.008019 52.008019 52.008019 52.008019 52.008019 52.008019 52.008019 52.008019 52.008019 0.000000 0.000000 0.000000 0.000000 32.386794 32.386794 32.386794 32.386794 32.386794 32.386794 32.386794 32.386794 32.386794 0.000000 0.000000 0.000000 0.000000 0.000000 0.000000 0.000000 0.000000 48.520695 48.520695 48.520695 48.520695 48.520695 48.520695 48.520695 48.520695 48.520695 48.520695 48.520695 48.520695 48.520695 0.000000 0.000000 0.000000 0.000000 0.000000 0.000000 0.000000 0.000000 0.000000 0.000000 0.000000 0.000000 0.000000 0.000000 0.000000 0.000000 0.000000 0.000000 0.000000 0.000000 0.000000
0.000000 0.000000 0.000000 0.000000 0.000000 0.000000 0.000000 0.000000 0.000000 0.000000 0.000000 0.000000 0.000000 0.000000 0.000000 0.000000 0.000000 0.000000 0.000000 0.000000 0.000000 0.000000 0.000000 0.000000 0.000000 0.000000 0.000000 0.000000 0.000000 0.000000 0.000000 0.000000 0.000000 0.000000 0.000000 52.008019 52.008019 52.008019 52.008019 52.008019 52.008019 52.008019 52.008019 52.008019 52.008019 52.008019 52.008019 52.008019 0.000000 0.000000 0.000000 0.000000 32.386794 32.386794 32.386794 32.386794 32.386794 32.386794 32.386794 32.386794 32.386794 0.000000 0.000000 0.000000 0.000000 0.000000 0.000000 0.000000 0.000000 48.520695 48.520695 48.520695 48.520695 48.520695 48.520695 48.520695 48.520695 48.520695 48.520695 48.520695 48.520695 48.520695 0.000000 0.000000 0.000000 0.000000 0.000000 0.000000 0.000000 0.000000 0.000000 0.000000 0.000000 0.000000 0.000000 0.000000 0.000000 0.000000 0.000000 0.000000 0.000000 0.000000 0.000000
0.000000 0.000000 0.000000 0.000000 0.000000 0.000000 0.000000 0.000000 0.000000 0.000000 0.000000 0.000000 0.000000 0.000000 0.000000 0.000000 0.000000 0.000000 0.000000 0.000000 0.000000 0.000000 0.000000 0.000000 0.000000 0.000000 0.000000 0.000000 0.000000 0.000000 0.000000 0.000000 0.000000 0.000000 0.000000 52.008019 52.008019 52.008019 52.008019 52.008019 52.008019 52.008019 52.008019 52.008019 52.008019 52.008019 52.008019 52.008019 0.000000 0.000000 0.000000 0.000000 32.386794 32.386794 32.386794 32.386794 32.386794 32.386794 32.386794 32.386794 32.386794 0.000000 0.000000 0.000000 0.000000 0.000000 0.000000 0.000000 0.000000 48.520695 48.520695 48.520695 48.520695 48.520695 48.520695 48.520695 48.520695 48.520695 48.520695 48.520695 48.520695 48.520695 0.000000 0.000000 0.000000 0.000000 0.000000 0.000000 0.000000 0.000000 0.000000 0.000000 0.000000 0.000000 0.000000 0.000000 0.000000 0.000000 0.000000 0.000000 0.000000 0.000000 0.000000
0.000000 0.000000 0.000000 0.000000 0.000000 0.000000 0.000000 0.000000 0.000000 0.000000 0.000000 0.000000 0.000000 0.000000 0.000000 0.000000 0.000000 0.000000 0.000000 0.000000 0.000000 0.000000 0.000000 0.000000 0.000000 0.000000 0.000000 0.000000 0.000000 0.000000 0.000000 0.000000 0.000000 0.000000 0.000000 52.008019 52.008019 52.008019 52.008019 52.008019 52.008019 52.008019 52.008019 52.008019 52.008019 52.008019 52.008019 52.008019 0.000000 0.000000 0.000000 0.000000 32.386794 32.386794 32.386794 32.386794 32.386794 32.386794 32.386794 32.386794 32.386794 0.000000 0.000000 0.000000 0.000000 0.000000 0.000000 0.000000 0.000000 48.520695 48.520695 48.520695 48.520695 48.520695 48.520695 48.520695 48.520695 48.520695 48.520695 48.520695 48.520695 48.520695 0.000000 0.000000 0.000000 0.000000 0.000000 0.000000 0.000000 0.000000 0.000000 0.000000 0.000000 0.000000 0.000000 0.000000 0.000000 0.000000 0.000000 0.000000 0.000000 0.000000 0.000000
0.000000 0.000000 0.000000 0.000000 0.000000 0.000000 0.000000 0.000000 0.000000 0.000000 0.000000 0.000000 0.000000 0.000000 0.000000 0.000000 0.000000 0.000000 0.000000 0.000000 0.000000 0.000000 0.000000 0.000000 0.000000 0.000000 0.000000 0.000000 0.000000 0.000000 0.000000 0.000000 0.000000 0.000000 0.000000 52.008019 52.008019 52.008019 52.008019 52.008019 52.008019 52.008019 52.008019 52.008019 52.008019 52.008019 52.008019 52.008019 0.000000 0.000000 0.000000 0.000000 32.386794 32.386794 32.386794 32.386794 32.386794 32.386794 32.386794 32.386794 32.386794 0.000000 0.000000 0.000000 0.000000 0.000000 0.000000 0.000000 0.000000 48.520695 48.520695 48.520695 48.520695 48.520695 48.520695 48.520695 48.520695 48.520695 48.520695 48.520695 48.520695 48.520695 0.000000 0.000000 0.000000 0.000000 0.000000 0.000000 0.000000 0.000000 0.000000 0.000000 0.000000 0.000000 0.000000 0.000000 0.000000 0.000000 0.000000 0.000000 0.000000 0.000000 0.000000
0.000000 0.000000 0.000000 0.000000 0.000000 0.000000 0.000000 0.000000 0.000000 0.000000 0.000000 0.000000 0.000000 0.000000 0.000000 0.000000 0.000000 0.000000 0.000000 0.000000 0.000000 0.000000 0.000000 0.000000 0.000000 0.000000 0.000000 0.000000 0.000000 0.000000 0.000000 0.000000 0.000000 0.000000 0.000000 52.008019 52.008019 52.008019 52.008019 52.008019 52.008019 52.008019 52.008019 52.008019 52.008019 52.008019 52.008019 52.008019 0.000000 0.000000 0.000000 0.000000 32.386794 32.386794 32.386794 32.386794 32.386794 32.386794 32.386794 32.386794 32.386794 0.000000 0.000000 0.000000 0.000000 0.000000 0.000000 0.000000 0.000000 48.520695 48.520695 48.520695 48.520695 48.520695 48.520695 48.520695 48.520695 48.520695 48.520695 48.520695 48.520695 48.520695 0.000000 0.000000 0.000000 0.000000 0.000000 0.000000 0.000000 0.000000 0.000000 0.000000 0.000000 0.000000 0.000000 0.000000 0.000000 0.000000 0.000000 0.000000 0.000000 0.000000 0.000000
0.000000 0.000000 0.000000 0.000000 0.000000 0.000000 0.000000 0.000000 0.000000 0.000000 0.000000 0.000000 0.000000 0.000000 0.000000 0.000000 0.000000 0.000000 0.000000 0.000000 0.000000 0.000000 0.000000 0.000000 0.000000 0.000000 0.000000 0.000000 0.000000 0.000000 0.000000 0.000000 0.000000 0.000000 0.000000 52.008019 52.008019 52.008019 52.008019 52.008019 52.008019 52.008019 52.008019 52.008019 52.008019 52.008019 52.008019 52.008019 0.000000 0.000000 0.000000 0.000000 32.386794 32.386794 32.386794 32.386794 32.386794 32.386794 32.386794 32.386794 32.386794 0.000000 0.000000 0.000000 0.000000 0.000000 0.000000 0.000000 0.000000 48.520695 48.520695 48.520695 48.520695 48.520695 48.520695 48.520695 48.520695 48.520695 48.520695 48.520695 48.520695 48.520695 0.000000 0.000000 0.000000 0.000000 0.000000 0.000000 0.000000 0.000000 0.000000 0.000000 0.000000 0.000000 0.000000 0.000000 0.000000 0.000000 0.000000 0.000000 0.000000 0.000000 0.000000
0.000000 0.000000 0.000000 0.000000 0.000000 0.000000 0.000000 0.000000 0.000000 0.000000 0.000000 0.000000 0.000000 0.000000 0.000000 0.000000 0.000000 0.000000 0.000000 0.000000 0.000000 0.000000 0.000000 0.000000 0.000000 0.000000 0.000000 0.000000 0.000000 0.000000 0.000000 0.000000 0.000000 0.000000 0.000000 0.000000 0.000000 0.000000 0.000000 0.000000 0.000000 0.000000 0.000000 0.000000 0.000000 0.000000 0.000000 0.000000 0.000000 0.000000 0.000000 0.000000 0.000000 0.000000 0.000000 0.000000 0.000000 0.000000 0.000000 0.000000 0.000000 0.000000 0.000000 0.000000 0.000000 0.000000 0.000000 0.000000 0.000000 0.000000 0.000000 0.000000 0.000000 0.000000 0.000000 0.000000 0.000000 0.000000 0.000000 0.000000 0.000000 0.000000 0.000000 0.000000 0.000000 0.000000 0.000000 0.000000 0.000000 0.000000 0.000000 0.000000 0.000000 0.000000 0.000000 0.000000 0.000000 0.000000 0.000000 0.000000 0.000000 0.000000 0.000000
0.000000 0.000000 0.000000 0.000000 0.000000 0.000000 0.000000 0.000000 0.000000 0.000000 0.000000 0.000000 0.000000 0.000000 0.000000 0.000000 0.000000 0.000000 0.000000 0.000000 0.000000 0.000000 0.000000 0.000000 0.000000 0.000000 0.000000 0.000000 0.000000 0.000000 0.000000 0.000000 0.000000 0.000000 0.000000 0.000000 0.000000 0.000000 0.000000 0.000000 0.000000 0.000000 0.000000 0.000000 0.000000 0.000000 0.000000 0.000000 0.000000 0.000000 0.000000 0.000000 0.000000 0.000000 0.000000 0.000000 0.000000 0.000000 0.000000 0.000000 0.000000 0.000000 0.000000 0.000000 0.000000 0.000000 0.000000 0.000000 0.000000 0.000000 0.000000 0.000000 0.000000 0.000000 0.000000 0.000000 0.000000 0.000000 0.000000 0.000000 0.000000 0.000000 0.000000 0.000000 0.000000 0.000000 0.000000 0.000000 0.000000 0.000000 0.000000 0.000000 0.000000 0.000000 0.000000 0.000000 0.000000 0.000000 0.000000 0.000000 0.000000 0.000000 0.000000
0.000000 0.000000 0.000000 0.000000 0.000000 0.000000 0.000000 0.000000 0.000000 0.000000 0.000000 0.000000 0.000000 0.000000 0.000000 0.000000 0.000000 0.000000 0.000000 0.000000 0.000000 0.000000 0.000000 0.000000 0.000000 0.000000 0.000000 0.000000 0.000000 0.000000 0.000000 0.000000 0.000000 0.000000 0.000000 0.000000 0.000000 0.000000 0.000000 0.000000 0.000000 0.000000 0.000000 0.000000 0.000000 0.000000 0.000000 0.000000 0.000000 0.000000 0.000000 0.000000 0.000000 0.000000 0.000000 0.000000 0.000000 0.000000 0.000000 0.000000 0.000000 0.000000 0.000000 0.000000 0.000000 0.000000 0.000000 0.000000 0.000000 0.000000 0.000000 0.000000 0.000000 0.000000 0.000000 0.000000 0.000000 0.000000 0.000000 0.000000 0.000000 0.000000 0.000000 0.000000 0.000000 0.000000 0.000000 0.000000 0.000000 0.000000 0.000000 0.000000 0.000000 0.000000 0.000000 0.000000 0.000000 0.000000 0.000000 0.000000 0.000000 0.000000 0.000000
0.000000 0.000000 0.000000 0.000000 0.000000 0.000000 0.000000 0.000000 0.000000 0.000000 0.000000 0.000000 0.000000 0.000000 0.000000 0.000000 0.000000 0.000000 0.000000 0.000000 0.000000 0.000000 0.000000 0.000000 0.000000 0.000000 0.000000 0.000000 0.000000 0.000000 0.000000 0.000000 0.000000 0.000000 0.000000 0.000000 0.000000 0.000000 0.000000 0.000000 0.000000 0.000000 0.000000 0.000000 0.000000 0.000000 0.000000 0.000000 0.000000 0.000000 0.000000 0.000000 0.000000 0.000000 0.000000 0.000000 0.000000 0.000000 0.000000 0.000000 0.000000 0.000000 0.000000 0.000000 0.000000 0.000000 0.000000 0.000000 0.000000 0.000000 0.000000 0.000000 0.000000 0.000000 0.000000 0.000000 0.000000 0.000000 0.000000 0.000000 0.000000 0.000000 0.000000 0.000000 0.000000 0.000000 0.000000 0.000000 0.000000 0.000000 0.000000 0.000000 0.000000 0.000000 0.000000 0.000000 0.000000 0.000000 0.000000 0.000000 0.000000 0.000000 0.000000
0.000000 0.000000 0.000000 0.000000 0.000000 0.000000 0.000000 0.000000 0.000000 0.000000 0.000000 0.000000 0.000000 0.000000 0.000000 0.000000 0.000000 0.000000 0.000000 0.000000 0.000000 0.000000 0.000000 0.000000 0.000000 0.000000 0.000000 0.000000 0.000000 0.000000 0.000000 0.000000 0.000000 0.000000 0.000000 0.000000 0.000000 0.000000 0.000000 0.000000 0.000000 0.000000 0.000000 0.000000 0.000000 0.000000 0.000000 0.000000 0.000000 0.000000 0.000000 0.000000 0.000000 0.000000 0.000000 0.000000 0.000000 0.000000 0.000000 0.000000 0.000000 0.000000 0.000000 0.000000 0.000000 0.000000 0.000000 0.000000 0.000000 0.000000 0.000000 0.000000 0.000000 0.000000 0.000000 0.000000 0.000000 0.000000 0.000000 0.000000 0.000000 0.000000 0.000000 0.000000 0.000000 0.000000 0.000000 0.000000 0.000000 0.000000 0.000000 0.000000 0.000000 0.000000 0.000000 0.000000 0.000000 0.000000 0.000000 0.000000 0.000000 0.000000 0.000000
0.000000 0.000000 0.000000 0.000000 0.000000 0.000000 0.000000 0.000000 0.000000 0.000000 0.000000 0.000000 0.000000 0.000000 0.000000 0.000000 0.000000 0.000000 0.000000 0.000000 0.000000 0.000000 0.000000 0.000000 0.000000 0.000000 0.000000 0.000000 0.000000 0.000000 0.000000 0.000000 0.000000 0.000000 0.000000 0.000000 0.000000 0.000000 0.000000 0.000000 0.000000 0.000000 0.000000 0.000000 0.000000 0.000000 0.000000 0.000000 0.000000 0.000000 0.000000 0.000000 0.000000 0.000000 0.000000 0.000000 0.000000 0.000000 0.000000 0.000000 0.000000 0.000000 0.000000 0.000000 0.000000 0.000000 0.000000 0.000000 0.000000 0.000000 0.000000 0.000000 0.000000 0.000000 0.000000 0.000000 0.000000 0.000000 0.000000 0.000000 0.000000 0.000000 0.000000 0.000000 0.000000 0.000000 0.000000 0.000000 0.000000 0.000000 0.000000 0.000000 0.000000 0.000000 0.000000 0.000000 0.000000 0.000000 0.000000 0.000000 0.000000 0.000000 0.000000
0.000000 0.000000 0.000000 0.000000 0.000000 0.000000 0.000000 0.000000 0.000000 0.000000 0.000000 0.000000 0.000000 0.000000 0.000000 0.000000 0.000000 0.000000 0.000000 0.000000 0.000000 0.000000 0.000000 0.000000 0.000000 0.000000 0.000000 0.000000 0.000000 0.000000 0.000000 0.000000 0.000000 0.000000 0.000000 0.000000 0.000000 0.000000 0.000000 0.000000 0.000000 0.000000 0.000000 0.000000 0.000000 0.000000 0.000000 0.000000 0.000000 0.000000 0.000000 0.000000 0.000000 0.000000 0.000000 0.000000 0.000000 0.000000 0.000000 0.000000 0.000000 0.000000 0.000000 0.000000 0.000000 0.000000 0.000000 0.000000 0.000000 0.000000 0.000000 0.000000 0.000000 0.000000 0.000000 0.000000 0.000000 0.000000 0.000000 0.000000 0.000000 0.000000 0.000000 0.000000 0.000000 0.000000 0.000000 0.000000 0.000000 0.000000 0.000000 0.000000 0.000000 0.000000 0.000000 0.000000 0.000000 0.000000 0.000000 0.000000 0.000000 0.000000 0.000000
0.000000 0.000000 0.000000 0.000000 31.687133 31.687133 31.687133 31.687133 31.687133 31.687133 31.687133 31.687133 31.687133 31.687133 31.687133 31.687133 0.000000 0.000000 0.000000 0.000000 0.000000 0.000000 0.000000 0.000000 0.000000 0.000000 0.000000 0.000000 0.000000 0.000000 0.000000 0.000000 0.000000 26.683249 26.683249 26.683249 26.683249 26.683249 26.683249 26.683249 26.683249 26.683249 26.683249 34.491706 34.491706 34.491706 34.491706 34.491706 34.491706 34.491706 34.491706 34.491706 34.491706 34.491706 34.491706 34.491706 17.628697 17.628697 17.628697 17.628697 17.628697 17.628697 0.000000 0.000000 0.000000 0.000000 0.000000 0.000000 0.000000 0.000000 0.000000 0.000000 0.000000 0.000000 0.000000 0.000000 0.000000 0.000000 0.000000 0.000000 0.000000 0.000000 0.000000 0.000000 0.000000 0.000000 0.000000 0.000000 0.000000 0.000000 0.000000 0.000000 0.000000 0.000000 0.000000 0.000000 0.000000 0.000000 0.000000 0.000000 0.000000 0.000000 0.000000
0.000000 0.000000 0.000000 0.000000 31.687133 31.687133 31.687133 31.687133 31.687133 31.687133 31.687133 31.687133 31.687133 31.687133 31.687133 31.687133 0.000000 0.000000 0.000000 0.000000 0.000000 0.000000 0.000000 0.000000 0.000000 0.000000 0.000000 0.000000 0.000000 0.000000 0.000000 0.000000 0.000000 26.683249 26.683249 26.683249 26.683249 26.683249 26.683249 26.683249 26.683249 26.683249 26.683249 34.491706 34.491706 34.491706 34.491706 34.491706 34.491706 34.491706 34.491706 34.491706 34.491706 34.491706 34.491706 34.491706 17.628697 17.628697 17.628697 17.628697 17.628697 17.628697 0.000000 0.000000 0.000000 0.000000 0.000000 0.000000 0.000000 0.000000 0.000000 0.000000 0.000000 0.000000 0.000000 0.000000 0.000000 0.000000 0.000000 0.000000 0.000000 0.000000 0.000000 0.000000 0.000000 0.000000 0.000000 0.000000 0.000000 0.000000 0.000000 0.000000 0.000000 0.000000 0.000000 0.000000 0.000000 0.000000 0.000000 0.000000 0.000000 0.000000 0.000000
0.000000 0.000000 0.000000 0.000000 31.687133 31.687133 31.687133 31.687133 31.687133 31.687133 31.687133 31.687133 31.687133 31.687133 31.687133 31.687133 0.000000 0.000000 0.000000 0.000000 0.000000 0.000000 0.000000 0.000000 0.000000 0.000000 0.000000 0.000000 0.000000 0.000000 0.000000 0.000000 0.000000 26.683249 26.683249 26.683249 26.683249 26.683249 26.683249 26.683249 26.683249 26.683249 26.683249 34.491706 34.491706 34.491706 34.491706 34.491706 34.491706 34.491706 34.491706 34.491706 34.491706 34.491706 34.491706 34.491706 17.628697 17.628697 17.628697 17.628697 17.628697 17.628697 0.000000 0.000000 0.000000 0.000000 0.000000 0.000000 0.000000 27.198794 27.198794 27.198794 27.198794 27.198794 27.198794 27.198794 27.198794 27.198794 27.198794 27.198794 27.198794 27.198794 27.198794 27.198794 27.198794 0.000000 0.000000 0.000000 16.108400 16.108400 16.108400 16.108400 16.108400 16.108400 16.108400 16.108400 16.108400 0.000000 0.000000 0.000000 0.000000 0.000000 0.000000
0.000000 0.000000 0.000000 0.000000 31.687133 31.687133 31.687133 31.687133 31.687133 31.687133 31.687133 31.687133 31.687133 31.687133 31.687133 31.687133 0.000000 0.000000 0.000000 0.000000 0.000000 0.000000 0.000000 0.000000 0.000000 0.000000 0.000000 0.000000 0.000000 0.000000 0.000000 0.000000 0.000000 26.683249 26.683249 26.683249 26.683249 26.683249 26.683249 26.683249 26.683249 26.683249 26.683249 34.491706 34.491706 34.491706 34.491706 34.491706 34.491706 34.491706 34.491706 34.491706 34.491706 34.491706 34.491706 34.491706 17.628697 17.628697 17.628697 17.628697 17.628697 17.628697 0.000000 0.000000 0.000000 0.000000 0.000000 0.000000 0.000000 27.198794 27.198794 27.198794 27.198794 27.198794 27.198794 27.198794 27.198794 27.198794 27.198794 27.198794 27.198794 27.198794 27.198794 27.198794 27.198794 0.000000 0.000000 0.000000 16.108400 16.108400 16.108400 16.108400 16.108400 16.108400 16.108400 16.108400 16.108400 0.000000 0.000000 0.000000 0.000000 0.000000 0.000000
0.000000 0.000000 0.000000 0.000000 31.687133 31.687133 31.687133 31.687133 31.687133 31.687133 31.687133 31.687133 31.687133 31.687133 31.687133 31.687133 0.000000 0.000000 0.000000 0.000000 0.000000 0.000000 0.000000 0.000000 0.000000 0.000000 0.000000 0.000000 0.000000 0.000000 0.000000 0.000000 0.000000 26.683249 26.683249 26.683249 26.683249 26.683249 26.683249 26.683249 26.683249 26.683249 26.683249 34.491706 34.491706 34.491706 34.491706 34.491706 34.491706 34.491706 34.491706 34.491706 34.491706 34.491706 34.491706 34.491706 17.628697 17.628697 17.628697 17.628697 17.628697 17.628697 0.000000 0.000000 0.000000 0.000000 0.000000 0.000000 0.000000 27.198794 27.198794 27.198794 27.198794 27.198794 27.198794 27.198794 27.198794 27.198794 27.198794 27.198794 27.198794 27.198794 27.198794 27.198794 27.198794 0.000000 0.000000 0.000000 16.108400 16.108400 16.108400 16.108400 16.108400 16.108400 16.108400 16.108400 16.108400 0.000000 0.000000 0.000000 0.000000 0.000000 0.000000
0.000000 0.000000 0.000000 0.000000 31.687133 31.687133 31.687133 31.687133 31.687133 31.687133 31.687133 31.687133 31.687133 31.687133 31.687133 31.687133 0.000000 0.000000 0.000000 0.000000 0.000000 0.000000 0.000000 0.000000 0.000000 0.000000 0.000000 0.000000 0.000000 0.000000 0.000000 0.000000 0.000000 26.683249 26.683249 26.683249 26.683249 26.683249 26.683249 26.683249 26.683249 26.683249 26.683249 34.491706 34.491706 34.491706 34.491706 34.491706 34.491706 34.491706 34.491706 34.491706 34.491706 34.491706 34.491706 34.491706 17.628697 17.628697 17.628697 17.628697 17.628697 17.628697 0.000000 0.000000 0.000000 0.000000 0.000000 0.000000 0.000000 27.198794 27.198794 27.198794 27.198794 27.198794 27.198794 27.198794 27.198794 27.198794 27.198794 27.198794 27.198794 27.198794 27.198794 27.198794 27.198794 0.000000 0.000000 0.000000 16.108400 16.108400 16.108400 16.108400 16.108400 16.108400 16.108400 16.108400 16.108400 0.000000 0.000000 0.000000 0.000000 0.000000 0.000000
0.000000 0.000000 0.000000 0.000000 31.687133 31.687133 31.687133 31.687133 31.687133 31.687133 31.687133 31.687133 31.687133 31.687133 31.687133 31.687133 0.000000 0.000000 0.000000 0.000000 0.000000 0.000000 0.000000 0.000000 0.000000 0.000000 0.000000 0.000000 0.000000 0.000000 0.000000 0.000000 0.000000 26.683249 26.683249 26.683249 26.683249 26.683249 26.683249 26.683249 26.683249 26.683249 26.683249 34.491706 34.491706 34.491706 34.491706 34.491706 34.491706 34.491706 34.491706 34.491706 34.491706 34.491706 34.491706 34.491706 17.628697 17.628697 17.628697 17.628697 17.628697 17.628697 0.000000 0.000000 0.000000 0.000000 0.000000 0.000000 0.000000 27.198794 27.198794 27.198794 27.198794 27.198794 27.198794 27.198794 27.198794 27.198794 27.198794 27.198794 27.198794 27.198794 27.198794 27.198794 27.198794 0.000000 0.000000 0.000000 16.108400 16.108400 16.108400 16.108400 16.108400 16.108400 16.108400 16.108400 16.108400 0.000000 0.000000 0.000000 0.000000 0.000000 0.000000
0.000000 0.000000 0.000000 0.000000 31.687133 31.687133 31.687133 31.687133 31.687133 31.687133 31.687133 31.687133 31.687133 31.687133 31.687133 31.687133 0.000000 0.000000 0.000000 0.000000 0.000000 0.000000 0.000000 0.000000 0.000000 0.000000 0.000000 0.000000 0.000000 0.000000 0.000000 0.000000 0.000000 26.683249 26.683249 26.683249 26.683249 26.683249 26.683249 26.683249 26.683249 26.683249 26.683249 34.491706 34.491706 34.491706 34.491706 34.491706 34.491706 34.491706 34.491706 34.491706 34.491706 34.491706 34.491706 34.491706 17.628697 17.628697 17.628697 17.628697 17.628697 17.628697 0.000000 0.000000 0.000000 0.000000 0.000000 0.000000 0.000000 27.198794 27.198794 27.198794 27.198794 27.198794 27.198794 27.198794 27.198794 27.198794 27.198794 27.198794 27.198794 27.198794 27.198794 27.198794 27.198794 0.000000 0.000000 0.000000 16.108400 16.108400 16.108400 16.108400 16.108400 16.108400 16.108400 16.108400 16.108400 0.000000 0.000000 0.000000 0.000000 0.000000 0.000000
0.000000 0.000000 0.000000 0.000000 31.687133 31.687133 31.687133 31.687133 31.687133 31.687133 31.687133 31.687133 31.687133 31.687133 31.687133 31.687133 0.000000 0.000000 0.000000 0.000000 0.000000 0.000000 0.000000 0.000000 0.000000 0.000000 0.000000 0.000000 0.000000 0.000000 0.000000 0.000000 0.000000 26.683249 26.683249 26.683249 26.683249 26.683249 26.683249 26.683249 26.683249 26.683249 26.683249 34.491706 34.491706 34.491706 34.491706 34.491706 34.491706 34.491706 34.491706 34.491706 34.491706 34.491706 34.491706 34.491706 17.628697 17.628697 17.628697 17.628697 17.628697 17.628697 0.000000 0.000000 0.000000 0.000000 0.000000 0.000000 0.000000 27.198794 27.198794 27.198794 27.198794 27.198794 27.198794 27.198794 27.198794 27.198794 27.198794 27.198794 27.198794 27.198794 27.198794 27.198794 27.198794 0.000000 0.000000 0.000000 16.108400 16.108400 16.108400 16.108400 16.108400 16.108400 16.108400 16.108400 16.108400 0.000000 0.000000 0.000000 0.000000 0.000000 0.000000
0.000000 0.000000 0.000000 0.000000 31.687133 31.687133 31.687133 31.687133 31.687133 31.687133 31.687133 31.687133 31.687133 31.687133 31.687133 31.687133 0.000000 0.000000 0.000000 0.000000 0.000000 0.000000 0.000000 0.000000 0.000000 0.000000 0.000000 0.000000 0.000000 0.000000 0.000000 0.000000 0.000000 26.683249 26.683249 26.683249 26.683249 26.683249 26.683249 26.683249 26.683249 26.683249 26.683249 34.491706 34.491706 34.491706 34.491706 34.491706 34.491706 34.491706 34.491706 34.491706 34.491706 34.491706 34.491706 34.491706 17.628697 17.628697 17.628697 17.628697 17.628697 17.628697 0.000000 0.000000 0.000000 0.000000 0.000000 0.000000 0.000000 0.000000 0.000000 0.000000 0.000000 0.000000 0.000000 0.000000 0.000000 0.000000 0.000000 0.000000 0.000000 0.000000 0.000000 0.000000 0.000000 0.000000 0.000000 0.000000 0.000000 0.000000 0.000000 0.000000 0.000000 0.000000 0.000000 0.000000 0.000000 0.000000 0.000000 0.000000 0.000000 0.000000 0.000000
0.000000 0.000000 0.000000 0.000000 31.687133 31.687133 31.687133 31.687133 31.687133 31.687133 31.687133 31.687133 31.687133 31.687133 31.687133 31.687133 0.000000 0.000000 0.000000 0.000000 0.000000 0.000000 0.000000 0.000000 0.000000 0.000000 0.000000 0.000000 0.000000 0.000000 0.000000 0.000000 0.000000 26.683249 26.683249 26.683249 26.683249 26.683249 26.683249 26.683249 26.683249 26.683249 26.683249 34.491706 34.491706 34.491706 34.491706 34.491706 34.491706 34.491706 34.491706 34.491706 34.491706 34.491706 34.491706 34.491706 17.628697 17.628697 17.628697 17.628697 17.628697 17.628697 0.000000 0.000000 0.000000 0.000000 0.000000 0.000000 0.000000 0.000000 0.000000 0.000000 0.000000 0.000000 0.000000 0.000000 0.000000 0.000000 0.000000 0.000000 0.000000 0.000000 0.000000 0.000000 0.000000 0.000000 0.000000 0.000000 0.000000 0.000000 0.000000 0.000000 0.000000 0.000000 0.000000 0.000000 0.000000 0.000000 0.000000 0.000000 0.000000 0.000000 0.000000
0.000000 0.000000 0.000000 0.000000 0.000000 0.000000 0.000000 0.000000 0.000000 0.000000 0.000000 0.000000 0.000000 0.000000 0.000000 0.000000 0.000000 0.000000 0.000000 0.000000 0.000000 0.000000 0.000000 0.000000 0.000000 0.000000 0.000000 0.000000 0.000000 0.000000 0.000000 0.000000 0.000000 0.000000 0.000000 0.000000 0.000000 0.000000 0.000000 0.000000 0.000000 0.000000 0.000000 0.000000 0.000000 0.000000 0.000000 0.000000 0.000000 0.000000 0.000000 0.000000 0.000000 0.000000 0.000000 0.000000 0.000000 0.000000 0.000000 0.000000 0.000000 0.000000 0.000000 0.000000 0.000000 0.000000 0.000000 0.000000 0.000000 0.000000 0.000000 0.000000 0.000000 0.000000 0.000000 0.000000 0.000000 0.000000 0.000000 0.000000 0.000000 0.000000 0.000000 0.000000 0.000000 0.000000 0.000000 0.000000 0.000000 0.000000 0.000000 0.000000 0.000000 0.000000 0.000000 0.000000 0.000000 0.000000 0.000000 0.000000 0.000000 0.000000 0.000000
0.000000 0.000000 0.000000 0.000000 0.000000 0.000000 0.000000 0.000000 0.000000 0.000000 0.000000 0.000000 0.000000 0.000000 0.000000 0.000000 0.000000 0.000000 0.000000 0.000000 0.000000 0.000000 0.000000 0.000000 0.000000 0.000000 0.000000 0.000000 0.000000 0.000000 0.000000 0.000000 0.000000 0.000000 0.000000 0.000000 0.000000 0.000000 0.000000 0.000000 0.000000 0.000000 0.000000 0.000000 0.000000 0.000000 0.000000 0.000000 0.000000 0.000000 0.000000 0.000000 0.000000 0.000000 0.000000 0.000000 0.000000 0.000000 0.000000 0.000000 0.000000 0.000000 0.000000 0.000000 0.000000 0.000000 0.000000 0.000000 0.000000 0.000000 0.000000 0.000000 0.000000 0.000000 0.000000 0.000000 0.000000 0.000000 0.000000 0.000000 0.000000 0.000000 0.000000 0.000000 0.000000 0.000000 0.000000 0.000000 0.000000 0.000000 0.000000 0.000000 0.000000 0.000000 0.000000 0.000000 0.000000 0.000000 0.000000 0.000000 0.000000 0.000000 0.000000
0.000000 0.000000 0.000000 0.000000 0.000000 0.000000 0.000000 0.000000 0.000000 0.000000 0.000000 0.000000 0.000000 0.000000 0.000000 0.000000 0.000000 0.000000 0.000000 0.000000 0.000000 0.000000 0.000000 0.000000 0.000000 0.000000 0.000000 0.000000 0.000000 0.000000 0.000000 0.000000 0.000000 0.000000 0.000000 0.000000 0.000000 0.000000 0.000000 0.000000 0.000000 0.000000 0.000000 0.000000 0.000000 0.000000 0.000000 0.000000 0.000000 0.000000 0.000000 0.000000 0.000000 0.000000 0.000000 0.000000 0.000000 0.000000 0.000000 0.000000 0.000000 0.000000 0.000000 0.000000 0.000000 0.000000 0.000000 0.000000 0.000000 0.000000 0.000000 0.000000 0.000000 0.000000 0.000000 0.000000 0.000000 0.000000 0.000000 0.000000 0.000000 0.000000 0.000000 0.000000 0.000000 0.000000 0.000000 0.000000 0.000000 0.000000 0.000000 0.000000 0.000000 0.000000 0.000000 0.000000 0.000000 0.000000 0.000000 0.000000 0.000000 0.000000 0.000000
0.000000 0.000000 0.000000 0.000000 0.000000 0.000000 0.000000 0.000000 0.000000 0.000000 0.000000 0.000000 0.000000 0.000000 0.000000 0.000000 0.000000 0.000000 0.000000 0.000000 0.000000 0.000000 0.000000 0.000000 0.000000 0.000000 0.000000 0.000000 0.000000 0.000000 0.000000 0.000000 0.000000 0.000000 0.000000 0.000000 0.000000 0.000000 0.000000 0.000000 0.000000 0.000000 0.000000 0.000000 0.000000 0.000000 0.000000 0.000000 0.000000 0.000000 0.000000 0.000000 0.000000 0.000000 0.000000 0.000000 0.000000 0.000000 0.000000 0.000000 0.000000 0.000000 0.000000 0.000000 0.000000 0.000000 0.000000 0.000000 0.000000 0.000000 0.000000 0.000000 0.000000 0.000000 0.000000 0.000000 0.000000 0.000000 0.000000 0.000000 0.000000 0.000000 0.000000 0.000000 0.000000 0.000000 0.000000 0.000000 0.000000 0.000000 0.000000 0.000000 0.000000 0.000000 0.000000 0.000000 0.000000 0.000000 0.000000 0.000000 0.000000 0.000000 0.000000
0.000000 0.000000 0.000000 0.000000 0.000000 0.000000 0.000000 0.000000 0.000000 0.000000 0.000000 0.000000 0.000000 0.000000 0.000000 0.000000 0.000000 0.000000 0.000000 0.000000 0.000000 0.000000 0.000000 0.000000 0.000000 0.000000 0.000000 0.000000 0.000000 0.000000 0.000000 0.000000 0.000000 0.000000 0.000000 0.000000 0.000000 0.000000 0.000000 0.000000 0.000000 0.000000 0.000000 0.000000 0.000000 0.000000 0.000000 0.000000 0.000000 0.000000 0.000000 0.000000 0.000000 0.000000 0.000000 0.000000 0.000000 0.000000 0.000000 0.000000 0.000000 0.000000 0.000000 0.000000 0.000000 0.000000 0.000000 0.000000 0.000000 0.000000 0.000000 0.000000 0.000000 0.000000 0.000000 0.000000 0.000000 0.000000 0.000000 0.000000 0.000000 0.000000 0.000000 0.000000 0.000000 0.000000 0.000000 0.000000 0.000000 0.000000 0.000000 0.000000 0.000000 0.000000 0.000000 0.000000 0.000000 0.000000 0.000000 0.000000 0.000000 0.000000 0.000000
0.000000 0.000000 0.000000 0.000000 29.757479 29.757479 29.757479 29.757479 29.757479 29.757479 29.757479 29.757479 29.757479 29.757479 29.757479 29.757479 0.000000 0.000000 0.000000 0.000000 0.000000 0.000000 0.000000 0.000000 0.000000 0.000000 0.000000 0.000000 0.000000 0.000000 0.000000 0.000000 0.000000 0.000000 0.000000 0.000000 0.000000 0.000000 0.000000 0.000000 0.000000 0.000000 0.000000 0.000000 0.000000 0.000000 0.000000 0.000000 0.000000 0.000000 0.000000 0.000000 0.000000 0.000000 0.000000 0.000000 0.000000 0.000000 0.000000 0.000000 0.000000 0.000000 0.000000 0.000000 0.000000 0.000000 0.000000 0.000000 0.000000 0.000000 0.000000 0.000000 0.000000 0.000000 0.000000 0.000000 0.000000 0.000000 0.000000 0.000000 0.000000 0.000000 0.000000 0.000000 0.000000 0.000000 0.000000 0.000000 32.678503 32.678503 32.678503 32.678503 32.678503 32.678503 32.678503 32.678503 32.678503 32.678503 32.678503 0.000000 0.000000 0.000000 0.000000
0.000000 0.000000 0.000000 0.000000 29.757479 29.757479 29.757479 29.757479 29.757479 29.757479 29.757479 29.757479 29.757479 29.757479 29.757479 29.757479 0.000000 0.000000 0.000000 0.000000 0.000000 0.000000 0.000000 0.000000 0.000000 0.000000 0.000000 0.000000 0.000000 0.000000 0.000000 0.000000 0.000000 0.000000 0.000000 0.000000 0.000000 0.000000 0.000000 0.000000 0.000000 0.000000 0.000000 0.000000 0.000000 0.000000 0.000000 0.000000 0.000000 0.000000 0.000000 0.000000 0.000000 0.000000 0.000000 0.000000 0.000000 0.000000 0.000000 0.000000 0.000000 0.000000 0.000000 0.000000 0.000000 0.000000 0.000000 0.000000 0.000000 0.000000 0.000000 0.000000 0.000000 0.000000 0.000000 0.000000 0.000000 0.000000 0.000000 0.000000 0.000000 0.000000 0.000000 0.000000 0.000000 0.000000 0.000000 0.000000 32.678503 32.678503 32.678503 32.678503 32.678503 32.678503 32.678503 32.678503 32.678503 32.678503 32.678503 0.000000 0.000000 0.000000 0.000000
0.000000 0.000000 0.000000 0.000000 29.757479 29.757479 29.757479 29.757479 29.757479 29.757479 29.757479 29.757479 29.757479 29.757479 29.757479 29.757479 0.000000 0.000000 0.000000 0.000000 0.000000 0.000000 0.000000 0.000000 0.000000 0.000000 0.000000 0.000000 0.000000 0.000000 0.000000 0.000000 0.000000 0.000000 0.000000 23.829673 23.829673 23.829673 23.829673 23.829673 23.829673 23.829673 23.829673 23.829673 23.829673 23.829673 23.829673 0.000000 0.000000 0.000000 0.000000 0.000000 0.000000 0.000000 0.000000 0.000000 0.000000 0.000000 0.000000 0.000000 0.000000 0.000000 0.000000 0.000000 0.000000 0.000000 0.000000 0.000000 0.000000 0.000000 0.000000 0.000000 0.000000 0.000000 0.000000 0.000000 0.000000 20.156526 20.156526 20.156526 20.156526 20.156526 20.156526 20.156526 20.156526 20.156526 0.000000 0.000000 32.678503 32.678503 32.678503 32.678503 32.678503 32.678503 32.678503 32.678503 32.678503 32.678503 32.678503 0.000000 0.000000 0.000000 0.000000
0.000000 0.000000 0.000000 0.000000 29.757479 29.757479 29.757479 29.757479 29.757479 29.757479 29.757479 29.757479 29.757479 29.757479 29.757479 29.757479 0.000000 0.000000 0.000000 0.000000 0.000000 0.000000 0.000000 0.000000 0.000000 0.000000 0.000000 0.000000 0.000000 0.000000 0.000000 0.000000 0.000000 0.000000 0.000000 23.829673 23.829673 23.829673 23.829673 23.829673 23.829673 23.829673 23.829673 23.829673 23.829673 23.829673 23.829673 0.000000 0.000000 0.000000 0.000000 0.000000 0.000000 0.000000 0.000000 0.000000 0.000000 0.000000 0.000000 0.000000 0.000000 0.000000 0.000000 0.000000 0.000000 0.000000 0.000000 0.000000 0.000000 0.000000 0.000000 0.000000 0.000000 0.000000 0.000000 0.000000 0.000000 20.156526 20.156526 20.156526 20.156526 20.156526 20.156526 20.156526 20.156526 20.156526 0.000000 0.000000 32.678503 32.678503 32.678503 32.678503 32.678503 32.678503 32.678503 32.678503 32.678503 32.678503 32.678503 0.000000 0.000000 0.000000 0.000000
0.000000 0.000000 0.000000 0.000000 29.757479 29.757479 29.757479 29.757479 29.757479 29.757479 29.757479 29.757479 29.757479 29.757479 29.757479 29.757479 0.000000 0.000000 0.000000 0.000000 0.000000 0.000000 0.000000 0.000000 0.000000 0.000000 0.000000 0.000000 0.000000 0.000000 0.000000 0.000000 0.000000 0.000000 0.000000 23.829673 23.829673 23.829673 23.829673 23.829673 23.829673 23.829673 23.829673 23.829673 23.829673 23.829673 23.829673 0.000000 0.000000 0.000000 0.000000 0.000000 0.000000 0.000000 0.000000 0.000000 0.000000 0.000000 0.000000 0.000000 0.000000 0.000000 0.000000 0.000000 0.000000 0.000000 0.000000 0.000000 0.000000 0.000000 0.000000 0.000000 0.000000 0.000000 0.000000 0.000000 0.000000 20.156526 20.156526 20.156526 20.156526 20.156526 20.156526 20.156526 20.156526 20.156526 0.000000 0.000000 32.678503 32.678503 32.678503 32.678503 32.678503 32.678503 32.678503 32.678503 32.678503 32.678503 32.678503 0.000000 0.000000 0.000000 0.000000
0.000000 0.000000 0.000000 0.000000 29.757479 29.757479 29.757479 29.757479 29.757479 29.757479 29.757479 29.757479 29.757479 29.757479 29.757479 29.757479 0.000000 0.000000 0.000000 0.000000 0.000000 0.000000 0.000000 0.000000 0.000000 0.000000 0.000000 0.000000 0.000000 0.000000 0.000000 0.000000 0.000000 0.000000 0.000000 23.829673 23.829673 23.829673 23.829673 23.829673 23.829673 23.829673 23.829673 23.829673 23.829673 23.829673 23.829673 0.000000 0.000000 0.000000 0.000000 0.000000 0.000000 0.000000 0.000000 0.000000 0.000000 0.000000 0.000000 0.000000 0.000000 0.000000 0.000000 0.000000 0.000000 0.000000 0.000000 0.000000 0.000000 0.000000 0.000000 0.000000 0.000000 0.000000 0.000000 0.000000 0.000000 20.156526 20.156526 20.156526 20.156526 20.156526 20.156526 20.156526 20.156526 20.156526 0.000000 0.000000 32.678503 32.678503 32.678503 32.678503 32.678503 32.678503 32.678503 32.678503 32.678503 32.678503 32.678503 0.000000 0.000000 0.000000 0.000000
0.000000 0.000000 0.000000 0.000000 29.757479 29.757479 29.757479 29.757479 29.757479 29.757479 29.757479 29.757479 29.757479 29.757479 29.757479 29.757479 0.000000 0.000000 0.000000 0.000000 0.000000 0.000000 0.000000 0.000000 0.000000 0.000000 0.000000 0.000000 0.000000 0.000000 0.000000 0.000000 0.000000 0.000000 0.000000 23.829673 23.829673 23.829673 23.829673 23.829673 23.829673 23.829673 23.829673 23.829673 23.829673 23.829673 23.829673 0.000000 0.000000 0.000000 0.000000 0.000000 0.000000 0.000000 0.000000 0.000000 0.000000 0.000000 0.000000 0.000000 0.000000 0.000000 0.000000 0.000000 0.000000 0.000000 0.000000 0.000000 0.000000 0.000000 0.000000 0.000000 0.000000 0.000000 0.000000 0.000000 0.000000 20.156526 20.156526 20.156526 20.156526 20.156526 20.156526 20.156526 20.156526 20.156526 0.000000 0.000000 32.678503 32.678503 32.678503 32.678503 32.678503 32.678503 32.678503 32.678503 32.678503 32.678503 32.678503 0.000000 0.000000 0.000000 0.000000
0.000000 0.000000 0.000000 0.000000 29.757479 29.757479 29.757479 29.757479 29.757479 29.757479 29.757479 29.757479 29.757479 29.757479 29.757479 29.757479 0.000000 0.000000 0.000000 0.000000 0.000000 0.000000 0.000000 0.000000 0.000000 0.000000 0.000000 0.000000 0.000000 0.000000 0.000000 0.000000 0.000000 0.000000 0.000000 23.829673 23.829673 23.829673 23.829673 23.829673 23.829673 23.829673 23.829673 23.829673 23.829673 23.829673 23.829673 0.000000 0.000000 0.000000 0.000000 0.000000 0.000000 0.000000 0.000000 0.000000 0.000000 0.000000 0.000000 0.000000 0.000000 0.000000 0.000000 0.000000 0.000000 0.000000 0.000000 0.000000 0.000000 0.000000 0.000000 0.000000 0.000000 0.000000 0.000000 0.000000 0.000000 20.156526 20.156526 20.156526 20.156526 20.156526 20.156526 20.156526 20.156526 20.156526 0.000000 0.000000 32.678503 32.678503 32.678503 32.678503 32.678503 32.678503 32.678503 32.678503 32.678503 32.678503 32.678503 0.000000 0.000000 0.000000 0.000000
0.000000 0.000000 0.000000 0.000000 29.757479 29.757479 29.757479 29.757479 29.757479 29.757479 29.757479 29.757479 29.757479 29.757479 29.757479 29.757479 0.000000 0.000000 0.000000 0.000000 0.000000 0.000000 0.000000 0.000000 0.000000 0.000000 0.000000 0.000000 0.000000 0.000000 0.000000 0.000000 0.000000 0.000000 0.000000 23.829673 23.829673 23.829673 23.829673 23.829673 23.829673 23.829673 23.829673 23.829673 23.829673 23.829673 23.829673 0.000000 0.000000 0.000000 0.000000 0.000000 0.000000 0.000000 0.000000 0.000000 0.000000 0.000000 0.000000 0.000000 0.000000 0.000000 0.000000 0.000000 0.000000 0.000000 0.000000 0.000000 0.000000 0.000000 0.000000 0.000000 0.000000 0.000000 0.000000 0.000000 0.000000 20.156526 20.156526 20.156526 20.156526 20.156526 20.156526 20.156526 20.156526 20.156526 0.000000 0.000000 32.678503 32.678503 32.678503 32.678503 32.678503 32.678503 32.678503 32.678503 32.678503 32.678503 32.678503 0.000000 0.000000 0.000000 0.000000
0.000000 0.000000 0.000000 0.000000 29.757479 29.757479 29.757479 29.757479 29.757479 29.757479 29.757479 29.757479 29.757479 29.757479 29.757479 29.757479 0.000000 0.000000 0.000000 0.000000 0.000000 0.000000 0.000000 0.000000 0.000000 0.000000 0.000000 0.000000 0.000000 0.000000 0.000000 0.000000 0.000000 0.000000 0.000000 23.829673 23.829673 23.829673 23.829673 23.829673 23.829673 23.829673 23.829673 23.829673 23.829673 23.829673 23.829673 0.000000 0.000000 0.000000 0.000000 0.000000 0.000000 0.000000 0.000000 0.000000 0.000000 0.000000 0.000000 0.000000 0.000000 0.000000 0.000000 0.000000 0.000000 0.000000 0.000000 0.000000 0.000000 0.000000 0.000000 0.000000 0.000000 0.000000 0.000000 0.000000 0.000000 20.156526 20.156526 20.156526 20.156526 20.156526 20.156526 20.156526 20.156526 20.156526 0.000000 0.000000 32.678503 32.678503 32.678503 32.678503 32.678503 32.678503 32.678503 32.678503 32.678503 32.678503 32.678503 0.000000 0.000000 0.000000 0.000000
0.000000 0.000000 0.000000 0.000000 19.020910 19.020910 19.020910 19.020910 19.020910 19.020910 19.020910 19.020910 19.020910 19.020910 19.020910 19.020910 0.000000 0.000000 0.000000 0.000000 0.000000 0.000000 0.000000 0.000000 0.000000 0.000000 0.000000 0.000000 0.000000 0.000000 0.000000 0.000000 0.000000 0.000000 0.000000 0.000000 0.000000 0.000000 0.000000 0.000000 0.000000 0.000000 0.000000 0.000000 0.000000 0.000000 0.000000 0.000000 0.000000 0.000000 0.000000 0.000000 0.000000 0.000000 0.000000 0.000000 0.000000 0.000000 0.000000 0.000000 0.000000 0.000000 0.000000 0.000000 0.000000 0.000000 0.000000 0.000000 0.000000 0.000000 0.000000 0.000000 0.000000 0.000000 0.000000 0.000000 0.000000 20.156526 20.156526 20.156526 20.156526 20.156526 20.156526 20.156526 20.156526 20.156526 0.000000 0.000000 32.678503 32.678503 32.678503 32.678503 32.678503 32.678503 32.678503 32.678503 32.678503 32.678503 32.678503 0.000000 0.000000 0.000000 0.000000
0.000000 0.000000 0.000000 0.000000 19.020910 19.020910 19.020910 19.020910 19.020910 19.020910 19.020910 19.020910 19.020910 19.020910 19.020910 19.020910 0.000000 0.000000 0.000000 0.000000 0.000000 0.000000 0.000000 0.000000 0.000000 0.000000 0.000000 0.000000 0.000000 0.000000 0.000000 0.000000 0.000000 0.000000 0.000000 0.000000 0.000000 0.000000 0.000000 0.000000 0.000000 0.000000 0.000000 0.000000 0.000000 0.000000 0.000000 0.000000 0.000000 0.000000 0.000000 0.000000 0.000000 0.000000 0.000000 0.000000 0.000000 0.000000 0.000000 0.000000 0.000000 0.000000 0.000000 0.000000 0.000000 0.000000 0.000000 0.000000 0.000000 0.000000 0.000000 0.000000 0.000000 0.000000 0.000000 0.000000 0.000000 0.000000 0.000000 0.000000 0.000000 0.000000 0.000000 0.000000 0.000000 0.000000 0.000000 0.000000 32.678503 32.678503 32.678503 32.678503 32.678503 32.678503 32.678503 32.678503 32.678503 32.678503 32.678503 0.000000 0.000000 0.000000 0.000000
0.000000 0.000000 0.000000 0.000000 19.020910 19.020910 19.020910 19.020910 19.020910 19.020910 19.020910 19.020910 19.020910 19.020910 19.020910 19.020910 0.000000 0.000000 0.000000 0.000000 0.000000 0.000000 0.000000 0.000000 0.000000 0.000000 0.000000 0.000000 0.000000 0.000000 0.000000 0.000000 0.000000 0.000000 0.000000 0.000000 0.000000 0.000000 0.000000 0.000000 0.000000 0.000000 0.000000 0.000000 0.000000 0.000000 0.000000 0.000000 0.000000 0.000000 0.000000 0.000000 0.000000 0.000000 0.000000 0.000000 0.000000 0.000000 0.000000 0.000000 0.000000 0.000000 0.000000 0.000000 0.000000 0.000000 0.000000 0.000000 0.000000 0.000000 0.000000 0.000000 0.000000 0.000000 0.000000 0.000000 0.000000 0.000000 0.000000 0.000000 0.000000 0.000000 0.000000 0.000000 0.000000 0.000000 0.000000 0.000000 31.968235 31.968235 31.968235 31.968235 31.968235 31.968235 31.968235 31.968235 31.968235 31.968235 31.968235 0.000000 0.000000 0.000000 0.000000
0.000000 0.000000 0.000000 0.000000 19.020910 19.020910 19.020910 19.020910 19.020910 19.020910 19.020910 19.020910 19.020910 19.020910 19.020910 19.020910 0.000000 0.000000 0.000000 0.000000 0.000000 0.000000 0.000000 5.063272 5.063272 5.063272 0.000000 0.000000 0.000000 0.000000 0.000000 0.000000 0.000000 0.000000 0.000000 0.000000 0.000000 0.000000 0.000000 0.000000 0.000000 0.000000 0.000000 0.000000 0.000000 0.000000 0.000000 0.000000 0.000000 0.000000 0.000000 0.000000 0.000000 0.000000 0.000000 0.000000 0.000000 0.000000 0.000000 0.000000 0.000000 0.000000 0.000000 0.000000 0.000000 0.000000 0.000000 0.000000 0.000000 0.000000 0.000000 0.000000 0.000000 0.000000 0.000000 0.000000 0.000000 0.000000 0.000000 0.000000 0.000000 0.000000 0.000000 0.000000 0.000000 0.000000 0.000000 0.000000 31.968235 31.968235 31.968235 31.968235 31.968235 31.968235 31.968235 31.968235 31.968235 31.968235 31.968235 0.000000 0.000000 0.000000 0.000000
0.000000 0.000000 0.000000 0.000000 19.020910 19.020910 19.020910 19.020910 19.020910 19.020910 19.020910 19.020910 19.020910 19.020910 19.020910 19.020910 0.000000 0.000000 0.000000 0.000000 0.000000 0.000000 0.000000 5.063272 5.063272 5.063272 0.000000 0.000000 0.000000 0.000000 0.000000 0.000000 0.000000 0.000000 0.000000 18.351640 18.351640 18.351640 18.351640 18.351640 18.351640 18.351640 18.351640 18.351640 18.351640 18.351640 18.351640 0.000000 0.000000 0.000000 0.000000 0.000000 0.000000 0.000000 0.000000 0.000000 0.000000 0.000000 0.000000 0.000000 0.000000 0.000000 0.000000 0.000000 0.000000 0.000000 0.000000 0.000000 0.000000 0.000000 0.000000 0.000000 0.000000 0.000000 0.000000 0.000000 0.000000 19.530203 19.530203 19.530203 19.530203 19.530203 19.530203 19.530203 19.530203 19.530203 0.000000 0.000000 31.968235 31.968235 31.968235 31.968235 31.968235 31.968235 31.968235 31.968235 31.968235 31.968235 31.968235 0.000000 0.000000 0.000000 0.000000
0.000000 0.000000 0.000000 0.000000 19.020910 19.020910 19.020910 19.020910 19.020910 19.020910 19.020910 19.020910 19.020910 19.020910 19.020910 19.020910 0.000000 0.000000 0.000000 0.000000 0.000000 0.000000 0.000000 5.063272 5.063272 5.063272 0.000000 0.000000 0.000000 0.000000 0.000000 0.000000 0.000000 0.000000 0.000000 18.351640 18.351640 18.351640 18.351640 18.351640 18.351640 18.351640 18.351640 18.351640 18.351640 18.351640 18.351640 0.000000 0.000000 0.000000 0.000000 0.000000 0.000000 0.000000 0.000000 0.000000 0.000000 0.000000 0.000000 0.000000 0.000000 0.000000 0.000000 0.000000 0.000000 0.000000 0.000000 0.000000 0.000000 0.000000 0.000000 0.000000 0.000000 0.000000 0.000000 0.000000 0.000000 19.530203 19.530203 19.530203 19.530203 19.530203 19.530203 19.530203 19.530203 19.530203 0.000000 0.000000 31.968235 31.968235 31.968235 31.968235 31.968235 31.968235 31.968235 31.968235 31.968235 31.968235 31.968235 0.000000 0.000000 0.000000 0.000000
0.000000 0.000000 0.000000 0.000000 19.020910 19.020910 19.020910 19.020910 19.020910 19.020910 19.020910 19.020910 19.020910 19.020910 19.020910 19.020910 0.000000 0.000000 0.000000 0.000000 0.000000 0.000000 0.000000 5.063272 5.063272 5.063272 0.000000 0.000000 0.000000 0.000000 0.000000 0.000000 0.000000 0.000000 0.000000 18.351640 18.351640 18.351640 18.351640 18.351640 18.351640 18.351640 18.351640 18.351640 18.351640 18.351640 18.351640 0.000000 0.000000 0.000000 0.000000 0.000000 0.000000 0.000000 0.000000 0.000000 0.000000 0.000000 0.000000 0.000000 0.000000 0.000000 0.000000 0.000000 0.000000 0.000000 0.000000 0.000000 0.000000 0.000000 0.000000 0.000000 0.000000 0.000000 0.000000 0.000000 0.000000 19.530203 19.530203 19.530203 19.530203 19.530203 19.530203 19.530203 19.530203 19.530203 0.000000 0.000000 31.968235 31.968235 31.968235 31.968235 31.968235 31.968235 31.968235 31.968235 31.968235 31.968235 31.968235 0.000000 0.000000 0.000000 0.000000
0.000000 0.000000 0.000000 0.000000 41.910094 41.910094 41.910094 41.910094 41.910094 41.910094 41.910094 41.910094 41.910094 41.910094 41.910094 41.910094 0.000000 0.000000 0.000000 0.000000 0.000000 0.000000 0.000000 5.063272 5.063272 5.063272 0.000000 0.000000 0.000000 0.000000 0.000000 0.000000 0.000000 0.000000 0.000000 18.351640 18.351640 18.351640 18.351640 18.351640 18.351640 18.351640 18.351640 18.351640 18.351640 18.351640 18.351640 0.000000 0.000000 0.000000 0.000000 0.000000 0.000000 0.000000 0.000000 0.000000 0.000000 0.000000 0.000000 0.000000 0.000000 0.000000 0.000000 0.000000 0.000000 0.000000 0.000000 0.000000 0.000000 0.000000 0.000000 0.000000 0.000000 0.000000 0.000000 0.000000 0.000000 19.530203 19.530203 19.530203 19.530203 19.530203 19.530203 19.530203 19.530203 19.530203 0.000000 0.000000 31.968235 31.968235 31.968235 31.968235 31.968235 31.968235 31.968235 31.968235 31.968235 31.968235 31.968235 0.000000 0.000000 0.000000 0.000000
0.000000 0.000000 0.000000 0.000000 41.910094 41.910094 41.910094 41.910094 41.910094 41.910094 41.910094 41.910094 41.910094 41.910094 41.910094 41.910094 0.000000 0.000000 0.000000 0.000000 0.000000 0.000000 0.000000 5.063272 5.063272 5.063272 0.000000 0.000000 0.000000 0.000000 0.000000 0.000000 0.000000 0.000000 0.000000 18.351640 18.351640 18.351640 18.351640 18.351640 18.351640 18.351640 18.351640 18.351640 18.351640 18.351640 18.351640 0.000000 0.000000 0.000000 0.000000 0.000000 0.000000 0.000000 0.000000 0.000000 0.000000 0.000000 0.000000 0.000000 0.000000 0.000000 0.000000 0.000000 0.000000 0.000000 0.000000 0.000000 0.000000 0.000000 0.000000 0.000000 0.000000 0.000000 0.000000 0.000000 0.000000 19.530203 19.530203 19.530203 19.530203 19.530203 19.530203 19.530203 19.530203 19.530203 0.000000 0.000000 31.968235 31.968235 31.968235 31.968235 31.968235 31.968235 31.968235 31.968235 31.968235 31.968235 31.968235 0.000000 0.000000 0.000000 0.000000
0.000000 0.000000 0.000000 0.000000 41.910094 41.910094 41.910094 41.910094 41.910094 41.910094 41.910094 41.910094 41.910094 41.910094 41.910094 41.910094 0.000000 0.000000 0.000000 0.000000 0.000000 0.000000 0.000000 5.063272 5.063272 5.063272 0.000000 0.000000 0.000000 0.000000 0.000000 0.000000 0.000000 0.000000 0.000000 18.351640 18.351640 18.351640 18.351640 18.351640 18.351640 18.351640 18.351640 18.351640 18.351640 18.351640 18.351640 0.000000 0.000000 0.000000 0.000000 0.000000 0.000000 0.000000 0.000000 0.000000 0.000000 0.000000 0.000000 0.000000 0.000000 0.000000 0.000000 0.000000 0.000000 0.000000 0.000000 0.000000 0.000000 0.000000 0.000000 0.000000 0.000000 0.000000 0.000000 0.000000 0.000000 19.530203 19.530203 19.530203 19.530203 19.530203 19.530203 19.530203 19.530203 19.530203 0.000000 0.000000 31.968235 31.968235 31.968235 31.968235 31.968235 31.968235 31.968235 31.968235 31.968235 31.968235 31.968235 0.000000 0.000000 0.000000 0.000000
0.000000 0.000000 0.000000 0.000000 41.910094 41.910094 41.910094 41.910094 41.910094 41.910094 41.910094 41.910094 41.910094 41.910094 41.910094 41.910094 0.000000 0.000000 0.000000 0.000000 0.000000 0.000000 0.000000 0.000000 0.000000 0.000000 0.000000 0.000000 0.000000 0.000000 0.000000 0.000000 0.000000 0.000000 0.000000 0.000000 0.000000 0.000000 0.000000 0.000000 0.000000 0.000000 0.000000 0.000000 0.000000 0.000000 0.000000 0.000000 0.000000 0.000000 0.000000 0.000000 0.000000 0.000000 0.000000 0.000000 0.000000 0.000000 0.000000 0.000000 0.000000 0.000000 0.000000 0.000000 0.000000 0.000000 0.000000 0.000000 0.000000 0.000000 0.000000 0.000000 0.000000 0.000000 0.000000 0.000000 0.000000 19.530203 19.530203 19.530203 19.530203 19.530203 19.530203 19.530203 19.530203 19.530203 0.000000 0.000000 31.968235 31.968235 31.968235 31.968235 31.968235 31.968235 31.968235 31.968235 31.968235 31.968235 31.968235 0.000000 0.000000 0.000000 0.000000
0.000000 0.000000 0.000000 0.000000 41.910094 41.910094 41.910094 41.910094 41.910094 41.910094 41.910094 41.910094 41.910094 41.910094 41.910094 41.910094 0.000000 0.000000 0.000000 0.000000 0.000000 0.000000 0.000000 0.000000 0.000000 0.000000 0.000000 0.000000 0.000000 0.000000 0.000000 0.000000 0.000000 0.000000 0.000000 0.000000 0.000000 0.000000 0.000000 0.000000 0.000000 0.000000 0.000000 0.000000 0.000000 0.000000 0.000000 0.000000 0.000000 0.000000 0.000000 0.000000 0.000000 0.000000 0.000000 0.000000 0.000000 0.000000 0.000000 0.000000 0.000000 0.000000 0.000000 0.000000 0.000000 0.000000 0.000000 0.000000 0.000000 0.000000 0.000000 0.000000 0.000000 0.000000 0.000000 0.000000 0.000000 19.530203 19.530203 19.530203 19.530203 19.530203 19.530203 19.530203 19.530203 19.530203 0.000000 0.000000 31.968235 31.968235 31.968235 31.968235 31.968235 31.968235 31.968235 31.968235 31.968235 31.968235 31.968235 0.000000 0.000000 0.000000 0.000000
0.000000 0.000000 0.000000 0.000000 41.910094 41.910094 41.910094 41.910094 41.910094 41.910094 41.910094 41.910094 41.910094 41.910094 41.910094 41.910094 0.000000 0.000000 0.000000 0.000000 0.000000 0.000000 0.000000 0.000000 0.000000 0.000000 0.000000 0.000000 0.000000 0.000000 0.000000 0.000000 0.000000 0.000000 0.000000 0.000000 0.000000 0.000000 0.000000 0.000000 0.000000 0.000000 0.000000 0.000000 0.000000 0.000000 0.000000 0.000000 0.000000 0.000000 0.000000 0.000000 0.000000 0.000000 0.000000 0.000000 0.000000 0.000000 0.000000 0.000000 0.000000 0.000000 0.000000 0.000000 0.000000 0.000000 0.000000 0.000000 0.000000 0.000000 0.000000 0.000000 0.000000 0.000000 0.000000 0.000000 0.000000 19.530203 19.530203 19.530203 19.530203 19.530203 19.530203 19.530203 19.530203 19.530203 0.000000 0.000000 31.968235 31.968235 31.968235 31.968235 31.968235 31.968235 31.968235 31.968235 31.968235 31.968235 31.968235 0.000000 0.000000 0.000000 0.000000
0.000000 0.000000 0.000000 0.000000 41.910094 41.910094 41.910094 41.910094 41.910094 41.910094 41.910094 41.910094 41.910094 41.910094 41.910094 41.910094 0.000000 0.000000 0.000000 0.000000 0.000000 0.000000 0.000000 4.944967 4.944967 4.944967 0.000000 0.000000 0.000000 0.000000 0.000000 0.000000 0.000000 0.000000 0.000000 0.000000 0.000000 0.000000 0.000000 0.000000 0.000000 0.000000 0.000000 0.000000 0.000000 0.000000 0.000000 0.000000 0.000000 0.000000 0.000000 0.000000 0.000000 0.000000 0.000000 0.000000 0.000000 0.000000 0.000000 0.000000 0.000000 0.000000 0.000000 0.000000 0.000000 0.000000 0.000000 0.000000 0.000000 0.000000 0.000000 0.000000 0.000000 0.000000 0.000000 0.000000 0.000000 0.000000 0.000000 0.000000 0.000000 0.000000 0.000000 0.000000 0.000000 0.000000 0.000000 0.000000 31.968235 31.968235 31.968235 31.968235 31.968235 31.968235 31.968235 31.968235 31.968235 31.968235 31.968235 0.000000 0.000000 0.000000 0.000000
0.000000 0.000000 0.000000 0.000000 41.910094 41.910094 41.910094 41.910094 41.910094 41.910094 41.910094 41.910094 41.910094 41.910094 41.910094 41.910094 0.000000 0.000000 0.000000 0.000000 0.000000 0.000000 0.000000 4.944967 4.944967 4.944967 0.000000 0.000000 0.000000 0.000000 0.000000 0.000000 0.000000 0.000000 0.000000 0.000000 0.000000 0.000000 0.000000 0.000000 0.000000 0.000000 0.000000 0.000000 0.000000 0.000000 0.000000 0.000000 0.000000 0.000000 0.000000 14.627986 14.627986 14.627986 14.627986 14.627986 14.627986 14.627986 14.627986 14.627986 14.627986 0.000000 0.000000 0.000000 0.000000 0.000000 0.000000 0.000000 0.000000 0.000000 0.000000 0.000000 0.000000 0.000000 0.000000 0.000000 0.000000 0.000000 0.000000 0.000000 0.000000 0.000000 0.000000 0.000000 0.000000 0.000000 0.000000 0.000000 31.968235 31.968235 31.968235 31.968235 31.968235 31.968235 31.968235 31.968235 31.968235 31.968235 31.968235 0.000000 0.000000 0.000000 0.000000
0.000000 0.000000 0.000000 0.000000 41.910094 41.910094 41.910094 41.910094 41.910094 41.910094 41.910094 41.910094 41.910094 41.910094 41.910094 41.910094 0.000000 0.000000 0.000000 0.000000 0.000000 0.000000 0.000000 4.944967 4.944967 4.944967 0.000000 0.000000 0.000000 0.000000 0.000000 0.000000 0.000000 0.000000 0.000000 0.000000 0.000000 0.000000 0.000000 0.000000 0.000000 0.000000 0.000000 0.000000 0.000000 0.000000 0.000000 0.000000 0.000000 0.000000 0.000000 14.627986 14.627986 14.627986 14.627986 14.627986 14.627986 14.627986 14.627986 14.627986 14.627986 0.000000 0.000000 0.000000 0.000000 0.000000 0.000000 0.000000 0.000000 0.000000 0.000000 0.000000 0.000000 0.000000 0.000000 12.115208 12.115208 12.115208 12.115208 12.115208 12.115208 12.115208 11.135988 11.135988 11.135988 11.135988 11.135988 11.135988 18.973079 18.973079 18.973079 18.973079 18.973079 18.973079 18.973079 18.973079 18.973079 18.973079 18.973079 0.000000 0.000000 0.000000 0.000000
0.000000 0.000000 0.000000 0.000000 41.910094 41.910094 41.910094 41.910094 41.910094 41.910094 41.910094 41.910094 41.910094 41.910094 41.910094 41.910094 0.000000 0.000000 0.000000 0.000000 0.000000 0.000000 0.000000 4.944967 4.944967 4.944967 0.000000 0.000000 0.000000 0.000000 0.000000 0.000000 0.000000 0.000000 0.000000 0.000000 0.000000 0.000000 0.000000 0.000000 0.000000 0.000000 0.000000 0.000000 0.000000 0.000000 0.000000 0.000000 0.000000 0.000000 0.000000 14.627986 14.627986 14.627986 14.627986 14.627986 14.627986 14.627986 14.627986 14.627986 14.627986 0.000000 0.000000 0.000000 0.000000 0.000000 0.000000 0.000000 0.000000 3.211473 3.211473 3.211473 3.211473 0.000000 0.000000 12.115208 12.115208 12.115208 12.115208 12.115208 12.115208 12.115208 11.135988 11.135988 11.135988 11.135988 11.135988 11.135988 18.973079 18.973079 18.973079 18.973079 18.973079 18.973079 18.973079 18.973079 18.973079 18.973079 18.973079 0.000000 0.000000 0.000000 0.000000
0.000000 0.000000 0.000000 0.000000 41.910094 41.910094 41.910094 41.910094 41.910094 41.910094 41.910094 41.910094 41.910094 41.910094 41.910094 41.910094 0.000000 0.000000 0.000000 0.000000 0.000000 0.000000 0.000000 4.944967 4.944967 4.944967 0.000000 0.000000 0.000000 0.000000 0.000000 0.000000 0.000000 0.000000 0.000000 0.000000 0.000000 0.000000 0.000000 0.000000 0.000000 0.000000 0.000000 0.000000 0.000000 0.000000 0.000000 0.000000 0.000000 0.000000 0.000000 14.627986 14.627986 14.627986 14.627986 14.627986 14.627986 14.627986 14.627986 14.627986 14.627986 0.000000 0.000000 0.000000 0.000000 0.000000 0.000000 0.000000 0.000000 3.211473 3.211473 3.211473 3.211473 0.000000 0.000000 12.115208 12.115208 12.115208 12.115208 12.115208 12.115208 12.115208 11.135988 11.135988 11.135988 11.135988 11.135988 11.135988 18.973079 18.973079 18.973079 18.973079 18.973079 18.973079 18.973079 18.973079 18.973079 18.973079 18.973079 0.000000 0.000000 0.000000 0.000000
0.000000 0.000000 0.000000 0.000000 41.910094 41.910094 41.910094 41.910094 41.910094 41.910094 41.910094 41.910094 41.910094 41.910094 41.910094 41.910094 0.000000 0.000000 0.000000 0.000000 0.000000 0.000000 0.000000 4.944967 4.944967 4.944967 0.000000 0.000000 0.000000 0.000000 0.000000 0.000000 0.000000 0.000000 0.000000 0.000000 0.000000 0.000000 0.000000 0.000000 0.000000 0.000000 0.000000 0.000000 0.000000 0.000000 0.000000 0.000000 0.000000 0.000000 0.000000 14.627986 14.627986 14.627986 14.627986 14.627986 14.627986 14.627986 14.627986 14.627986 14.627986 0.000000 0.000000 0.000000 0.000000 0.000000 0.000000 0.000000 0.000000 3.211473 3.211473 3.211473 3.211473 0.000000 0.000000 12.115208 12.115208 12.115208 12.115208 12.115208 12.115208 12.115208 11.135988 11.135988 11.135988 11.135988 11.135988 11.135988 18.973079 18.973079 18.973079 18.973079 18.973079 18.973079 18.973079 18.973079 18.973079 18.973079 18.973079 0.000000 0.000000 0.000000 0.000000
0.000000 0.000000 0.000000 0.000000 41.910094 41.910094 41.910094 41.910094 41.910094 41.910094 41.910094 41.910094 41.910094 41.910094 41.910094 41.910094 0.000000 0.000000 0.000000 0.000000 0.000000 0.000000 0.000000 4.944967 4.944967 4.944967 0.000000 0.000000 0.000000 0.000000 0.000000 0.000000 0.000000 0.000000 0.000000 0.000000 0.000000 0.000000 0.000000 0.000000 0.000000 0.000000 0.000000 0.000000 0.000000 0.000000 0.000000 0.000000 0.000000 0.000000 0.000000 14.627986 14.627986 14.627986 14.627986 14.627986 14.627986 14.627986 14.627986 14.627986 14.627986 0.000000 0.000000 0.000000 0.000000 0.000000 0.000000 0.000000 0.000000 3.211473 3.211473 3.211473 3.211473 0.000000 0.000000 12.115208 12.115208 12.115208 12.115208 12.115208 12.115208 12.115208 11.135988 11.135988 11.135988 11.135988 11.135988 11.135988 18.973079 18.973079 18.973079 18.973079 18.973079 18.973079 18.973079 18.973079 18.973079 18.973079 18.973079 0.000000 0.000000 0.000000 0.000000
0.000000 0.000000 0.000000 0.000000 41.910094 41.910094 41.910094 41.910094 41.910094 41.910094 41.910094 41.910094 41.910094 41.910094 41.910094 41.910094 0.000000 0.000000 0.000000 0.000000 0.000000 0.000000 0.000000 0.000000 0.000000 0.000000 0.000000 0.000000 0.000000 0.000000 0.000000 0.000000 0.000000 0.000000 0.000000 0.000000 0.000000 0.000000 0.000000 0.000000 0.000000 0.000000 0.000000 0.000000 0.000000 0.000000 0.000000 0.000000 0.000000 0.000000 0.000000 0.000000 0.000000 0.000000 0.000000 0.000000 0.000000 0.000000 0.000000 0.000000 0.000000 0.000000 0.000000 0.000000 0.000000 0.000000 0.000000 0.000000 0.000000 0.000000 0.000000 0.000000 0.000000 0.000000 0.000000 12.115208 12.115208 12.115208 12.115208 12.115208 12.115208 12.115208 11.135988 11.135988 11.135988 11.135988 11.135988 11.135988 18.973079 18.973079 18.973079 18.973079 18.973079 18.973079 18.973079 18.973079 18.973079 18.973079 18.973079 0.000000 0.000000 0.000000 0.000000
0.000000 0.000000 0.000000 0.000000 41.910094 41.910094 41.910094 41.910094 41.910094 41.910094 41.910094 41.910094 41.910094 41.910094 41.910094 41.910094 0.000000 0.000000 0.000000 0.000000 0.000000 0.000000 0.000000 0.000000 0.000000 0.000000 0.000000 0.000000 0.000000 0.000000 0.000000 0.000000 0.000000 0.000000 0.000000 0.000000 0.000000 0.000000 0.000000 0.000000 0.000000 0.000000 0.000000 0.000000 0.000000 0.000000 0.000000 0.000000 0.000000 0.000000 0.000000 0.000000 0.000000 0.000000 0.000000 0.000000 0.000000 0.000000 0.000000 0.000000 0.000000 0.000000 0.000000 0.000000 0.000000 0.000000 0.000000 0.000000 0.000000 0.000000 0.000000 0.000000 0.000000 0.000000 0.000000 12.115208 12.115208 12.115208 12.115208 12.115208 12.115208 12.115208 11.135988 11.135988 11.135988 11.135988 11.135988 11.135988 18.973079 18.973079 18.973079 18.973079 18.973079 18.973079 18.973079 18.973079 18.973079 18.973079 18.973079 0.000000 0.000000 0.000000 0.000000
0.000000 0.000000 0.000000 0.000000 0.000000 0.000000 0.000000 0.000000 0.000000 0.000000 0.000000 0.000000 0.000000 0.000000 0.000000 0.000000 0.000000 0.000000 0.000000 0.000000 0.000000 0.000000 0.000000 0.000000 0.000000 0.000000 0.000000 0.000000 0.000000 0.000000 0.000000 0.000000 0.000000 0.000000 0.000000 0.000000 0.000000 0.000000 0.000000 0.000000 0.000000 0.000000 0.000000 0.000000 0.000000 0.000000 0.000000 0.000000 0.000000 0.000000 0.000000 0.000000 0.000000 0.000000 0.000000 0.000000 0.000000 0.000000 0.000000 0.000000 0.000000 0.000000 0.000000 0.000000 0.000000 0.000000 0.000000 0.000000 0.000000 0.000000 0.000000 0.000000 0.000000 0.000000 0.000000 0.000000 0.000000 0.000000 0.000000 0.000000 0.000000 0.000000 0.000000 0.000000 0.000000 0.000000 0.000000 0.000000 0.000000 0.000000 0.000000 0.000000 0.000000 0.000000 0.000000 0.000000 0.000000 0.000000 0.000000 0.000000 0.000000 0.000000 0.000000
0.000000 0.000000 0.000000 0.000000 0.000000 0.000000 0.000000 0.000000 0.000000 0.000000 0.000000 0.000000 0.000000 0.000000 0.000000 0.000000 0.000000 0.000000 0.000000 0.000000 0.000000 0.000000 0.000000 0.000000 0.000000 0.000000 0.000000 0.000000 0.000000 0.000000 0.000000 0.000000 0.000000 0.000000 0.000000 0.000000 0.000000 0.000000 0.000000 0.000000 0.000000 0.000000 0.000000 0.000000 0.000000 0.000000 0.000000 0.000000 0.000000 0.000000 0.000000 0.000000 0.000000 0.000000 0.000000 0.000000 0.000000 0.000000 0.000000 0.000000 0.000000 0.000000 0.000000 0.000000 0.000000 0.000000 0.000000 0.000000 0.000000 0.000000 0.000000 0.000000 0.000000 0.000000 0.000000 0.000000 0.000000 0.000000 0.000000 0.000000 0.000000 0.000000 0.000000 0.000000 0.000000 0.000000 0.000000 0.000000 0.000000 0.000000 0.000000 0.000000 0.000000 0.000000 0.000000 0.000000 0.000000 0.000000 0.000000 0.000000 0.000000 0.000000 0.000000
0.000000 0.000000 0.000000 0.000000 0.000000 0.000000 0.000000 0.000000 0.000000 0.000000 0.000000 0.000000 0.000000 0.000000 0.000000 0.000000 0.000000 0.000000 0.000000 0.000000 0.000000 0.000000 0.000000 0.000000 0.000000 0.000000 0.000000 0.000000 0.000000 0.000000 0.000000 0.000000 0.000000 0.000000 0.000000 0.000000 0.000000 0.000000 0.000000 0.000000 0.000000 0.000000 0.000000 0.000000 0.000000 0.000000 0.000000 0.000000 0.000000 0.000000 0.000000 0.000000 0.000000 0.000000 0.000000 0.000000 0.000000 0.000000 0.000000 0.000000 0.000000 0.000000 0.000000 0.000000 0.000000 0.000000 0.000000 0.000000 0.000000 0.000000 0.000000 0.000000 0.000000 0.000000 0.000000 0.000000 0.000000 0.000000 0.000000 0.000000 0.000000 0.000000 0.000000 0.000000 0.000000 0.000000 0.000000 0.000000 0.000000 0.000000 0.000000 0.000000 0.000000 0.000000 0.000000 0.000000 0.000000 0.000000 0.000000 0.000000 0.000000 0.000000 0.000000
0.000000 0.000000 0.000000 0.000000 0.000000 0.000000 0.000000 0.000000 0.000000 0.000000 0.000000 0.000000 0.000000 0.000000 0.000000 0.000000 0.000000 0.000000 0.000000 0.000000 0.000000 0.000000 0.000000 0.000000 0.000000 0.000000 0.000000 0.000000 0.000000 0.000000 0.000000 0.000000 0.000000 0.000000 0.000000 0.000000 0.000000 0.000000 0.000000 0.000000 0.000000 0.000000 0.000000 0.000000 0.000000 0.000000 0.000000 0.000000 0.000000 0.000000 0.000000 0.000000 0.000000 0.000000 0.000000 0.000000 0.000000 0.000000 0.000000 0.000000 0.000000 0.000000 0.000000 0.000000 0.000000 0.000000 0.000000 0.000000 0.000000 0.000000 0.000000 0.000000 0.000000 0.000000 0.000000 0.000000 0.000000 0.000000 0.000000 0.000000 0.000000 0.000000 0.000000 0.000000 0.000000 0.000000 0.000000 0.000000 0.000000 0.000000 0.000000 0.000000 0.000000 0.000000 0.000000 0.000000 0.000000 0.000000 0.000000 0.000000 0.000000 0.000000 0.000000
