0.000000 0.000000 0.000000 0.000000 0.000000 0.000000 0.000000 0.000000 0.000000 0.000000 0.000000 0.000000 0.000000 0.000000 0.000000 0.000000 0.000000 0.000000 0.000000 0.000000 0.000000 0.000000 0.000000 0.000000 0.000000 0.000000 0.000000 0.000000 0.000000 0.000000 0.000000 0.000000 0.000000 0.000000 0.000000 0.000000 0.000000 0.000000 0.000000 0.000000 0.000000 0.000000 0.000000 0.000000 0.000000 0.000000 0.000000 0.000000 0.000000 0.000000 0.000000 0.000000 0.000000 0.000000 0.000000 0.000000 0.000000 0.000000 0.000000 0.000000 0.000000 0.000000 0.000000 0.000000 0.000000 0.000000 0.000000 0.000000 0.000000 0.000000 0.000000 0.000000 0.000000 0.000000 0.000000 0.000000 0.000000 0.000000 0.000000 0.000000 0.000000 0.000000 0.000000 0.000000 0.000000 0.000000 0.000000 0.000000 0.000000 0.000000 0.000000 0.000000 0.000000 0.000000 0.000000 0.000000 0.000000 0.000000 0.000000 0.000000 0.000000 0.000000 0.000000
0.000000 0.000000 0.000000 0.000000 0.000000 0.000000 0.000000 0.000000 0.000000 0.000000 0.000000 0.000000 0.000000 0.000000 0.000000 0.000000 0.000000 0.000000 0.000000 0.000000 0.000000 0.000000 0.000000 0.000000 0.000000 0.000000 0.000000 0.000000 0.000000 0.000000 0.000000 0.000000 0.000000 0.000000 0.000000 0.000000 0.000000 0.000000 0.000000 0.000000 0.000000 0.000000 0.000000 0.000000 0.000000 0.000000 0.000000 0.000000 0.000000 0.000000 0.000000 0.000000 0.000000 0.000000 0.000000 0.000000 0.000000 0.000000 0.000000 0.000000 0.000000 0.000000 0.000000 0.000000 0.000000 0.000000 0.000000 0.000000 0.000000 0.000000 0.000000 0.000000 0.000000 0.000000 0.000000 0.000000 0.000000 0.000000 0.000000 0.000000 0.000000 0.000000 0.000000 0.000000 0.000000 0.000000 0.000000 0.000000 0.000000 0.000000 0.000000 0.000000 0.000000 0.000000 0.000000 0.000000 0.000000 0.000000 0.000000 0.000000 0.000000 0.000000 0.000000
0.000000 0.000000 0.000000 0.000000 0.000000 0.000000 0.000000 0.000000 0.000000 0.000000 0.000000 0.000000 0.000000 0.000000 0.000000 0.000000 0.000000 0.000000 0.000000 0.000000 0.000000 0.000000 0.000000 0.000000 0.000000 0.000000 0.000000 0.000000 0.000000 0.000000 0.000000 0.000000 0.000000 0.000000 0.000000 0.000000 0.000000 0.000000 0.000000 0.000000 0.000000 0.000000 0.000000 0.000000 0.000000 0.000000 0.000000 0.000000 0.000000 0.000000 0.000000 0.000000 0.000000 0.000000 0.000000 0.000000 0.000000 0.000000 0.000000 0.000000 0.000000 0.000000 0.000000 0.000000 0.000000 0.000000 0.000000 0.000000 0.000000 0.000000 0.000000 0.000000 0.000000 0.000000 0.000000 0.000000 0.000000 0.000000 0.000000 0.000000 0.000000 0.000000 0.000000 0.000000 0.000000 0.000000 0.000000 0.000000 0.000000 0.000000 0.000000 0.000000 0.000000 0.000000 0.000000 0.000000 0.000000 0.000000 0.000000 0.000000 0.000000 0.000000 0.000000
0.000000 0.000000 0.000000 0.000000 0.000000 0.000000 0.000000 0.000000 0.000000 0.000000 0.000000 0.000000 0.000000 0.000000 0.000000 0.000000 0.000000 0.000000 0.000000 0.000000 0.000000 0.000000 0.000000 0.000000 0.000000 0.000000 0.000000 0.000000 0.000000 0.000000 0.000000 0.000000 0.000000 0.000000 0.000000 0.000000 0.000000 0.000000 0.000000 0.000000 0.000000 0.000000 0.000000 0.000000 0.000000 0.000000 0.000000 0.000000 0.000000 0.000000 0.000000 0.000000 0.000000 0.000000 0.000000 0.000000 0.000000 0.000000 0.000000 0.000000 0.000000 0.000000 0.000000 0.000000 0.000000 0.000000 0.000000 0.000000 0.000000 0.000000 0.000000 0.000000 0.000000 0.000000 0.000000 0.000000 0.000000 0.000000 0.000000 0.000000 0.000000 0.000000 0.000000 0.000000 0.000000 0.000000 0.000000 0.000000 0.000000 0.000000 0.000000 0.000000 0.000000 0.000000 0.000000 0.000000 0.000000 0.000000 0.000000 0.000000 0.000000 0.000000 0.000000
0.000000 0.000000 0.000000 0.000000 0.000000 0.000000 0.000000 0.000000 0.000000 0.000000 0.000000 0.000000 0.000000 0.000000 0.000000 0.000000 0.000000 0.000000 0.000000 0.000000 0.000000 0.000000 0.000000 0.000000 0.000000 0.000000 0.000000 0.000000 0.000000 0.000000 0.000000 0.000000 0.000000 0.000000 0.000000 0.000000 0.000000 0.000000 0.000000 0.000000 0.000000 0.000000 0.000000 0.000000 0.000000 0.000000 0.000000 0.000000 0.000000 0.000000 0.000000 0.000000 0.000000 0.000000 0.000000 0.000000 0.000000 0.000000 0.000000 0.000000 0.000000 0.000000 0.000000 0.000000 0.000000 0.000000 0.000000 0.000000 0.000000 0.000000 0.000000 0.000000 0.000000 0.000000 0.000000 0.000000 0.000000 0.000000 0.000000 0.000000 0.000000 0.000000 0.000000 0.000000 0.000000 0.000000 0.000000 0.000000 0.000000 0.000000 0.000000 0.000000 17.104261 17.104261 17.104261 17.104261 17.104261 17.104261 17.104261 0.000000 0.000000 0.000000 0.000000
0.000000 0.000000 0.000000 0.000000 0.000000 0.000000 0.000000 0.000000 0.000000 0.000000 0.000000 0.000000 0.000000 0.000000 0.000000 0.000000 0.000000 0.000000 0.000000 0.000000 0.000000 0.000000 0.000000 0.000000 0.000000 0.000000 0.000000 0.000000 0.000000 0.000000 0.000000 0.000000 0.000000 0.000000 0.000000 0.000000 0.000000 0.000000 0.000000 0.000000 0.000000 0.000000 0.000000 0.000000 0.000000 0.000000 0.000000 0.000000 0.000000 0.000000 0.000000 0.000000 0.000000 0.000000 0.000000 0.000000 0.000000 0.000000 0.000000 0.000000 0.000000 0.000000 0.000000 0.000000 0.000000 0.000000 0.000000 0.000000 0.000000 0.000000 0.000000 0.000000 0.000000 0.000000 0.000000 0.000000 0.000000 0.000000 0.000000 0.000000 0.000000 0.000000 0.000000 0.000000 0.000000 0.000000 0.000000 0.000000 0.000000 0.000000 0.000000 0.000000 17.104261 17.104261 17.104261 17.104261 17.104261 17.104261 17.104261 0.000000 0.000000 0.000000 0.000000
0.000000 0.000000 0.000000 0.000000 0.000000 0.000000 0.000000 0.000000 0.000000 0.000000 0.000000 0.000000 0.000000 0.000000 0.000000 0.000000 0.000000 0.000000 0.000000 0.000000 0.000000 0.000000 11.540835 11.540835 11.540835 11.540835 11.540835 11.540835 0.000000 0.000000 0.000000 33.854267 33.854267 33.854267 33.854267 33.854267 33.854267 33.854267 33.854267 33.854267 33.854267 33.854267 33.854267 33.854267 33.854267 33.854267 33.854267 0.000000 0.000000 0.000000 0.000000 0.000000 0.000000 0.000000 0.000000 0.000000 21.502553 21.502553 21.502553 21.502553 21.502553 21.502553 21.502553 21.502553 21.502553 21.502553 21.502553 21.502553 21.502553 0.000000 0.000000 0.000000 0.000000 0.000000 0.000000 0.000000 0.000000 12.261225 12.261225 12.261225 12.261225 12.261225 12.261225 12.261225 12.261225 0.000000 0.000000 0.000000 0.000000 0.000000 0.000000 0.000000 17.104261 17.104261 17.104261 17.104261 17.104261 17.104261 17.104261 0.000000 0.000000 0.000000 0.000000
0.000000 0.000000 0.000000 0.000000 0.000000 0.000000 0.000000 0.000000 0.000000 0.000000 0.000000 0.000000 0.000000 0.000000 0.000000 0.000000 0.000000 0.000000 0.000000 0.000000 0.000000 0.000000 11.540835 11.540835 11.540835 11.540835 11.540835 11.540835 0.000000 0.000000 0.000000 33.854267 33.854267 33.854267 33.854267 33.854267 33.854267 33.854267 33.854267 33.854267 33.854267 33.854267 33.854267 33.854267 33.854267 33.854267 33.854267 0.000000 0.000000 0.000000 0.000000 0.000000 0.000000 0.000000 0.000000 0.000000 21.502553 21.502553 21.502553 21.502553 21.502553 21.502553 21.502553 21.502553 21.502553 21.502553 21.502553 21.502553 21.502553 0.000000 0.000000 0.000000 0.000000 0.000000 0.000000 0.000000 0.000000 12.261225 12.261225 12.261225 12.261225 12.261225 12.261225 12.261225 12.261225 0.000000 0.000000 0.000000 0.000000 0.000000 0.000000 0.000000 17.104261 17.104261 17.104261 17.104261 17.104261 17.104261 17.104261 0.000000 0.000000 0.000000 0.000000
0.000000 0.000000 0.000000 0.000000 0.000000 0.000000 0.000000 0.000000 0.000000 0.000000 0.000000 0.000000 0.000000 0.000000 0.000000 0.000000 0.000000 0.000000 0.000000 0.000000 0.000000 0.000000 11.540835 11.540835 11.540835 11.540835 11.540835 11.540835 0.000000 0.000000 0.000000 33.854267 33.854267 33.854267 33.854267 33.854267 33.854267 33.854267 33.854267 33.854267 33.854267 33.854267 33.854267 33.854267 33.854267 33.854267 33.854267 0.000000 0.000000 0.000000 0.000000 0.000000 0.000000 0.000000 0.000000 0.000000 21.502553 21.502553 21.502553 21.502553 21.502553 21.502553 21.502553 21.502553 21.502553 21.502553 21.502553 21.502553 21.502553 0.000000 0.000000 0.000000 0.000000 0.000000 0.000000 0.000000 0.000000 12.261225 12.261225 12.261225 12.261225 12.261225 12.261225 12.261225 12.261225 0.000000 0.000000 0.000000 0.000000 0.000000 0.000000 0.000000 17.104261 17.104261 17.104261 17.104261 17.104261 17.104261 17.104261 0.000000 0.000000 0.000000 0.000000
0.000000 0.000000 0.000000 0.000000 0.000000 0.000000 0.000000 0.000000 0.000000 0.000000 0.000000 0.000000 0.000000 0.000000 0.000000 0.000000 0.000000 0.000000 0.000000 0.000000 0.000000 0.000000 11.540835 11.540835 11.540835 11.540835 11.540835 11.540835 0.000000 0.000000 0.000000 33.854267 33.854267 33.854267 33.854267 33.854267 33.854267 33.854267 33.854267 33.854267 33.854267 33.854267 33.854267 33.854267 33.854267 33.854267 33.854267 0.000000 0.000000 0.000000 0.000000 0.000000 0.000000 0.000000 0.000000 0.000000 21.502553 21.502553 21.502553 21.502553 21.502553 21.502553 21.502553 21.502553 21.502553 21.502553 21.502553 21.502553 21.502553 0.000000 0.000000 0.000000 0.000000 0.000000 0.000000 0.000000 0.000000 12.261225 12.261225 12.261225 12.261225 12.261225 12.261225 12.261225 12.261225 0.000000 0.000000 0.000000 0.000000 0.000000 0.000000 0.000000 17.104261 17.104261 17.104261 17.104261 17.104261 17.104261 17.104261 0.000000 0.000000 0.000000 0.000000
0.000000 0.000000 0.000000 0.000000 0.000000 0.000000 0.000000 0.000000 0.000000 0.000000 0.000000 0.000000 0.000000 0.000000 0.000000 0.000000 0.000000 0.000000 0.000000 0.000000 0.000000 0.000000 11.540835 11.540835 11.540835 11.540835 11.540835 11.540835 0.000000 0.000000 0.000000 33.854267 33.854267 33.854267 33.854267 33.854267 33.854267 33.854267 33.854267 33.854267 33.854267 33.854267 33.854267 33.854267 33.854267 33.854267 33.854267 0.000000 0.000000 0.000000 0.000000 0.000000 0.000000 0.000000 0.000000 0.000000 21.502553 21.502553 21.502553 21.502553 21.502553 21.502553 21.502553 21.502553 21.502553 21.502553 21.502553 21.502553 21.502553 0.000000 0.000000 0.000000 0.000000 0.000000 0.000000 0.000000 0.000000 12.261225 12.261225 12.261225 12.261225 12.261225 12.261225 12.261225 12.261225 0.000000 0.000000 0.000000 0.000000 0.000000 0.000000 0.000000 17.104261 17.104261 17.104261 17.104261 17.104261 17.104261 17.104261 0.000000 0.000000 0.000000 0.000000
0.000000 0.000000 0.000000 0.000000 0.000000 0.000000 0.000000 0.000000 0.000000 0.000000 0.000000 0.000000 0.000000 0.000000 0.000000 0.000000 0.000000 0.000000 0.000000 0.000000 0.000000 0.000000 11.540835 11.540835 11.540835 11.540835 11.540835 11.540835 0.000000 0.000000 0.000000 33.854267 33.854267 33.854267 33.854267 33.854267 33.854267 33.854267 33.854267 33.854267 33.854267 33.854267 33.854267 33.854267 33.854267 33.854267 33.854267 0.000000 0.000000 0.000000 0.000000 0.000000 0.000000 0.000000 0.000000 0.000000 21.502553 21.502553 21.502553 21.502553 21.502553 21.502553 21.502553 21.502553 21.502553 21.502553 21.502553 21.502553 21.502553 0.000000 0.000000 0.000000 0.000000 0.000000 0.000000 0.000000 0.000000 12.261225 12.261225 12.261225 12.261225 12.261225 12.261225 12.261225 12.261225 0.000000 0.000000 0.000000 0.000000 0.000000 0.000000 0.000000 17.104261 17.104261 17.104261 17.104261 17.104261 17.104261 17.104261 0.000000 0.000000 0.000000 0.000000
0.000000 0.000000 0.000000 0.000000 0.000000 0.000000 0.000000 0.000000 0.000000 0.000000 0.000000 0.000000 0.000000 0.000000 0.000000 0.000000 0.000000 0.000000 0.000000 0.000000 0.000000 0.000000 11.540835 11.540835 11.540835 11.540835 11.540835 11.540835 0.000000 0.000000 0.000000 33.854267 33.854267 33.854267 33.854267 33.854267 33.854267 33.854267 33.854267 33.854267 33.854267 33.854267 33.854267 33.854267 33.854267 33.854267 33.854267 0.000000 0.000000 0.000000 0.000000 0.000000 0.000000 0.000000 0.000000 0.000000 21.502553 21.502553 21.502553 21.502553 21.502553 21.502553 21.502553 21.502553 21.502553 21.502553 21.502553 21.502553 21.502553 0.000000 0.000000 0.000000 0.000000 0.000000 0.000000 0.000000 0.000000 12.261225 12.261225 12.261225 12.261225 12.261225 12.261225 12.261225 12.261225 0.000000 0.000000 0.000000 0.000000 0.000000 0.000000 0.000000 17.104261 17.104261 17.104261 17.104261 17.104261 17.104261 17.104261 0.000000 0.000000 0.000000 0.000000
0.000000 0.000000 0.000000 0.000000 0.000000 0.000000 0.000000 0.000000 0.000000 0.000000 0.000000 0.000000 0.000000 0.000000 0.000000 0.000000 0.000000 0.000000 0.000000 0.000000 0.000000 0.000000 11.540835 11.540835 11.540835 11.540835 11.540835 11.540835 0.000000 0.000000 0.000000 33.854267 33.854267 33.854267 33.854267 33.854267 33.854267 33.854267 33.854267 33.854267 33.854267 33.854267 33.854267 33.854267 33.854267 33.854267 33.854267 0.000000 0.000000 0.000000 0.000000 0.000000 0.000000 0.000000 0.000000 0.000000 0.000000 0.000000 0.000000 0.000000 0.000000 0.000000 0.000000 0.000000 0.000000 0.000000 0.000000 0.000000 0.000000 0.000000 0.000000 0.000000 0.000000 0.000000 0.000000 0.000000 0.000000 0.000000 0.000000 0.000000 0.000000 0.000000 0.000000 0.000000 0.000000 0.000000 0.000000 0.000000 0.000000 0.000000 0.000000 0.000000 22.302733 22.302733 22.302733 22.302733 22.302733 22.302733 22.302733 0.000000 0.000000 0.000000 0.000000
0.000000 0.000000 0.000000 0.000000 0.000000 0.000000 0.000000 0.000000 0.000000 0.000000 0.000000 0.000000 0.000000 0.000000 0.000000 0.000000 0.000000 0.000000 0.000000 0.000000 0.000000 0.000000 11.540835 11.540835 11.540835 11.540835 11.540835 11.540835 0.000000 0.000000 0.000000 33.854267 33.854267 33.854267 33.854267 33.854267 33.854267 33.854267 33.854267 33.854267 33.854267 33.854267 33.854267 33.854267 33.854267 33.854267 33.854267 0.000000 0.000000 0.000000 0.000000 0.000000 0.000000 0.000000 0.000000 0.000000 0.000000 0.000000 0.000000 0.000000 0.000000 0.000000 0.000000 0.000000 0.000000 0.000000 0.000000 0.000000 0.000000 0.000000 0.000000 0.000000 0.000000 0.000000 0.000000 0.000000 0.000000 0.000000 0.000000 0.000000 0.000000 0.000000 0.000000 0.000000 0.000000 0.000000 0.000000 0.000000 0.000000 0.000000 0.000000 0.000000 22.302733 22.302733 22.302733 22.302733 22.302733 22.302733 22.302733 0.000000 0.000000 0.000000 0.000000
0.000000 0.000000 0.000000 0.000000 0.000000 0.000000 0.000000 0.000000 0.000000 0.000000 0.000000 0.000000 0.000000 0.000000 0.000000 0.000000 0.000000 0.000000 0.000000 0.000000 0.000000 0.000000 0.000000 0.000000 0.000000 0.000000 0.000000 0.000000 0.000000 0.000000 0.000000 0.000000 0.000000 0.000000 0.000000 0.000000 0.000000 0.000000 0.000000 0.000000 0.000000 0.000000 0.000000 0.000000 0.000000 0.000000 0.000000 0.000000 0.000000 0.000000 0.000000 0.000000 0.000000 0.000000 0.000000 0.000000 0.000000 0.000000 0.000000 0.000000 0.000000 0.000000 0.000000 0.000000 0.000000 0.000000 0.000000 0.000000 0.000000 0.000000 0.000000 0.000000 0.000000 0.000000 0.000000 0.000000 0.000000 0.000000 0.000000 0.000000 0.000000 0.000000 0.000000 0.000000 0.000000 0.000000 0.000000 0.000000 0.000000 0.000000 0.000000 0.000000 22.302733 22.302733 22.302733 22.302733 22.302733 22.302733 22.302733 0.000000 0.000000 0.000000 0.000000
0.000000 0.000000 0.000000 0.000000 17.674275 17.674275 17.674275 17.674275 17.674275 17.674275 17.674275 17.674275 20.182397 20.182397 20.182397 20.182397 20.182397 20.182397 20.182397 20.182397 21.542147 21.542147 21.542147 21.542147 21.542147 21.542147 21.542147 21.542147 21.542147 21.542147 0.000000 0.000000 0.000000 0.000000 0.000000 0.000000 0.000000 0.000000 0.000000 0.000000 0.000000 0.000000 0.000000 0.000000 0.000000 0.000000 0.000000 0.000000 0.000000 0.000000 0.000000 0.000000 0.000000 0.000000 0.000000 0.000000 0.000000 0.000000 0.000000 0.000000 0.000000 0.000000 0.000000 0.000000 0.000000 0.000000 0.000000 0.000000 0.000000 0.000000 0.000000 0.000000 0.000000 0.000000 0.000000 0.000000 0.000000 15.463110 15.463110 15.463110 15.463110 15.463110 15.463110 15.463110 15.463110 0.000000 0.000000 0.000000 0.000000 0.000000 0.000000 0.000000 22.302733 22.302733 22.302733 22.302733 22.302733 22.302733 22.302733 0.000000 0.000000 0.000000 0.000000
0.000000 0.000000 0.000000 0.000000 17.674275 17.674275 17.674275 17.674275 17.674275 17.674275 17.674275 17.674275 20.182397 20.182397 20.182397 20.182397 20.182397 20.182397 20.182397 20.182397 21.542147 21.542147 21.542147 21.542147 21.542147 21.542147 21.542147 21.542147 21.542147 21.542147 0.000000 0.000000 0.000000 0.000000 0.000000 0.000000 0.000000 0.000000 0.000000 0.000000 0.000000 0.000000 0.000000 0.000000 0.000000 0.000000 0.000000 0.000000 0.000000 0.000000 0.000000 0.000000 0.000000 0.000000 0.000000 0.000000 25.676893 25.676893 25.676893 25.676893 25.676893 25.676893 25.676893 25.676893 25.676893 25.676893 25.676893 25.676893 25.676893 0.000000 0.000000 0.000000 0.000000 0.000000 0.000000 0.000000 0.000000 15.463110 15.463110 15.463110 15.463110 15.463110 15.463110 15.463110 15.463110 0.000000 0.000000 0.000000 0.000000 0.000000 0.000000 0.000000 22.302733 22.302733 22.302733 22.302733 22.302733 22.302733 22.302733 0.000000 0.000000 0.000000 0.000000
0.000000 0.000000 0.000000 0.000000 17.674275 17.674275 17.674275 17.674275 17.674275 17.674275 17.674275 17.674275 20.182397 20.182397 20.182397 20.182397 20.182397 20.182397 20.182397 20.182397 21.542147 21.542147 21.542147 21.542147 21.542147 21.542147 21.542147 21.542147 21.542147 21.542147 0.000000 23.042542 23.042542 23.042542 23.042542 23.042542 23.042542 23.042542 23.042542 23.042542 23.042542 23.042542 23.042542 23.042542 23.042542 23.042542 23.042542 0.000000 0.000000 0.000000 0.000000 0.000000 0.000000 0.000000 0.000000 0.000000 25.676893 25.676893 25.676893 25.676893 25.676893 25.676893 25.676893 25.676893 25.676893 25.676893 25.676893 25.676893 25.676893 0.000000 0.000000 0.000000 0.000000 0.000000 0.000000 0.000000 0.000000 15.463110 15.463110 15.463110 15.463110 15.463110 15.463110 15.463110 15.463110 0.000000 0.000000 0.000000 0.000000 0.000000 0.000000 0.000000 22.302733 22.302733 22.302733 22.302733 22.302733 22.302733 22.302733 0.000000 0.000000 0.000000 0.000000
0.000000 0.000000 0.000000 0.000000 17.674275 17.674275 17.674275 17.674275 17.674275 17.674275 17.674275 17.674275 20.182397 20.182397 20.182397 20.182397 20.182397 20.182397 20.182397 20.182397 21.542147 21.542147 21.542147 21.542147 21.542147 21.542147 21.542147 21.542147 21.542147 21.542147 0.000000 23.042542 23.042542 23.042542 23.042542 23.042542 23.042542 23.042542 23.042542 23.042542 23.042542 23.042542 23.042542 23.042542 23.042542 23.042542 23.042542 0.000000 0.000000 0.000000 0.000000 0.000000 0.000000 0.000000 0.000000 0.000000 25.676893 25.676893 25.676893 25.676893 25.676893 25.676893 25.676893 25.676893 25.676893 25.676893 25.676893 25.676893 25.676893 0.000000 0.000000 0.000000 0.000000 0.000000 0.000000 0.000000 0.000000 15.463110 15.463110 15.463110 15.463110 15.463110 15.463110 15.463110 15.463110 0.000000 0.000000 0.000000 0.000000 0.000000 0.000000 0.000000 22.302733 22.302733 22.302733 22.302733 22.302733 22.302733 22.302733 0.000000 0.000000 0.000000 0.000000
0.000000 0.000000 0.000000 0.000000 17.674275 17.674275 17.674275 17.674275 17.674275 17.674275 17.674275 17.674275 20.182397 20.182397 20.182397 20.182397 20.182397 20.182397 20.182397 20.182397 21.542147 21.542147 21.542147 21.542147 21.542147 21.542147 21.542147 21.542147 21.542147 21.542147 0.000000 23.042542 23.042542 23.042542 23.042542 23.042542 23.042542 23.042542 23.042542 23.042542 23.042542 23.042542 23.042542 23.042542 23.042542 23.042542 23.042542 0.000000 0.000000 0.000000 0.000000 0.000000 0.000000 0.000000 0.000000 0.000000 25.676893 25.676893 25.676893 25.676893 25.676893 25.676893 25.676893 25.676893 25.676893 25.676893 25.676893 25.676893 25.676893 0.000000 0.000000 0.000000 0.000000 0.000000 0.000000 0.000000 0.000000 15.463110 15.463110 15.463110 15.463110 15.463110 15.463110 15.463110 15.463110 0.000000 0.000000 0.000000 0.000000 0.000000 0.000000 0.000000 22.302733 22.302733 22.302733 22.302733 22.302733 22.302733 22.302733 0.000000 0.000000 0.000000 0.000000
0.000000 0.000000 0.000000 0.000000 17.674275 17.674275 17.674275 17.674275 17.674275 17.674275 17.674275 17.674275 20.182397 20.182397 20.182397 20.182397 20.182397 20.182397 20.182397 20.182397 21.542147 21.542147 21.542147 21.542147 21.542147 21.542147 21.542147 21.542147 21.542147 21.542147 0.000000 23.042542 23.042542 23.042542 23.042542 23.042542 23.042542 23.042542 23.042542 23.042542 23.042542 23.042542 23.042542 23.042542 23.042542 23.042542 23.042542 0.000000 0.000000 0.000000 0.000000 0.000000 0.000000 0.000000 0.000000 0.000000 25.676893 25.676893 25.676893 25.676893 25.676893 25.676893 25.676893 25.676893 25.676893 25.676893 25.676893 25.676893 25.676893 0.000000 0.000000 0.000000 0.000000 0.000000 0.000000 0.000000 0.000000 15.463110 15.463110 15.463110 15.463110 15.463110 15.463110 15.463110 15.463110 0.000000 0.000000 0.000000 0.000000 0.000000 0.000000 0.000000 22.302733 22.302733 22.302733 22.302733 22.302733 22.302733 22.302733 0.000000 0.000000 0.000000 0.000000
0.000000 0.000000 0.000000 0.000000 17.674275 17.674275 17.674275 17.674275 17.674275 17.674275 17.674275 17.674275 20.182397 20.182397 20.182397 20.182397 20.182397 20.182397 20.182397 20.182397 21.542147 21.542147 21.542147 21.542147 21.542147 21.542147 21.542147 21.542147 21.542147 21.542147 0.000000 23.042542 23.042542 23.042542 23.042542 23.042542 23.042542 23.042542 23.042542 23.042542 23.042542 23.042542 23.042542 23.042542 23.042542 23.042542 23.042542 0.000000 0.000000 0.000000 0.000000 0.000000 0.000000 0.000000 0.000000 0.000000 25.676893 25.676893 25.676893 25.676893 25.676893 25.676893 25.676893 25.676893 25.676893 25.676893 25.676893 25.676893 25.676893 0.000000 0.000000 0.000000 0.000000 0.000000 0.000000 0.000000 0.000000 15.463110 15.463110 15.463110 15.463110 15.463110 15.463110 15.463110 15.463110 0.000000 0.000000 0.000000 0.000000 0.000000 0.000000 0.000000 22.302733 22.302733 22.302733 22.302733 22.302733 22.302733 22.302733 0.000000 0.000000 0.000000 0.000000
0.000000 0.000000 0.000000 0.000000 17.674275 17.674275 17.674275 17.674275 17.674275 17.674275 17.674275 17.674275 20.182397 20.182397 20.182397 20.182397 20.182397 20.182397 20.182397 20.182397 21.542147 21.542147 21.542147 21.542147 21.542147 21.542147 21.542147 21.542147 21.542147 21.542147 0.000000 23.042542 23.042542 23.042542 23.042542 23.042542 23.042542 23.042542 23.042542 23.042542 23.042542 23.042542 23.042542 23.042542 23.042542 23.042542 23.042542 0.000000 0.000000 0.000000 0.000000 0.000000 0.000000 0.000000 0.000000 0.000000 25.676893 25.676893 25.676893 25.676893 25.676893 25.676893 25.676893 25.676893 25.676893 25.676893 25.676893 25.676893 25.676893 0.000000 0.000000 0.000000 0.000000 0.000000 0.000000 0.000000 0.000000 15.463110 15.463110 15.463110 15.463110 15.463110 15.463110 15.463110 15.463110 0.000000 0.000000 0.000000 0.000000 0.000000 0.000000 0.000000 22.302733 22.302733 22.302733 22.302733 22.302733 22.302733 22.302733 0.000000 0.000000 0.000000 0.000000
0.000000 0.000000 0.000000 0.000000 17.674275 17.674275 17.674275 17.674275 17.674275 17.674275 17.674275 17.674275 20.182397 20.182397 20.182397 20.182397 20.182397 20.182397 20.182397 20.182397 21.542147 21.542147 21.542147 21.542147 21.542147 21.542147 21.542147 21.542147 21.542147 21.542147 0.000000 0.000000 0.000000 0.000000 0.000000 0.000000 0.000000 0.000000 0.000000 0.000000 0.000000 0.000000 0.000000 0.000000 0.000000 0.000000 0.000000 0.000000 0.000000 0.000000 0.000000 0.000000 0.000000 0.000000 0.000000 0.000000 25.676893 25.676893 25.676893 25.676893 25.676893 25.676893 25.676893 25.676893 25.676893 25.676893 25.676893 25.676893 25.676893 0.000000 0.000000 0.000000 0.000000 0.000000 0.000000 0.000000 0.000000 15.463110 15.463110 15.463110 15.463110 15.463110 15.463110 15.463110 15.463110 0.000000 0.000000 0.000000 0.000000 0.000000 0.000000 0.000000 22.302733 22.302733 22.302733 22.302733 22.302733 22.302733 22.302733 0.000000 0.000000 0.000000 0.000000
0.000000 0.000000 0.000000 0.000000 17.674275 17.674275 17.674275 17.674275 17.674275 17.674275 17.674275 17.674275 20.182397 20.182397 20.182397 20.182397 20.182397 20.182397 20.182397 20.182397 21.542147 21.542147 21.542147 21.542147 21.542147 21.542147 21.542147 21.542147 21.542147 21.542147 0.000000 0.000000 0.000000 0.000000 0.000000 0.000000 0.000000 0.000000 0.000000 0.000000 0.000000 0.000000 0.000000 0.000000 0.000000 0.000000 0.000000 0.000000 0.000000 0.000000 0.000000 0.000000 0.000000 0.000000 0.000000 0.000000 0.000000 0.000000 0.000000 0.000000 0.000000 0.000000 0.000000 0.000000 0.000000 0.000000 0.000000 0.000000 0.000000 0.000000 0.000000 0.000000 0.000000 0.000000 0.000000 0.000000 0.000000 0.000000 0.000000 0.000000 0.000000 0.000000 0.000000 0.000000 0.000000 0.000000 0.000000 0.000000 0.000000 0.000000 0.000000 0.000000 22.302733 22.302733 22.302733 22.302733 22.302733 22.302733 22.302733 0.000000 0.000000 0.000000 0.000000
0.000000 0.000000 0.000000 0.000000 0.000000 0.000000 0.000000 0.000000 0.000000 0.000000 0.000000 0.000000 0.000000 0.000000 0.000000 0.000000 0.000000 0.000000 0.000000 0.000000 16.281375 16.281375 16.281375 16.281375 16.281375 16.281375 16.281375 16.281375 16.281375 16.281375 0.000000 0.000000 0.000000 0.000000 0.000000 0.000000 0.000000 0.000000 0.000000 0.000000 0.000000 0.000000 0.000000 0.000000 0.000000 0.000000 0.000000 0.000000 0.000000 0.000000 0.000000 0.000000 0.000000 0.000000 0.000000 0.000000 0.000000 0.000000 0.000000 0.000000 0.000000 0.000000 0.000000 0.000000 0.000000 0.000000 0.000000 0.000000 0.000000 0.000000 0.000000 0.000000 0.000000 0.000000 0.000000 0.000000 0.000000 0.000000 0.000000 0.000000 0.000000 0.000000 0.000000 0.000000 0.000000 0.000000 0.000000 0.000000 0.000000 0.000000 0.000000 0.000000 26.523334 26.523334 26.523334 26.523334 26.523334 26.523334 26.523334 0.000000 0.000000 0.000000 0.000000
0.000000 0.000000 0.000000 0.000000 0.000000 0.000000 0.000000 0.000000 0.000000 0.000000 0.000000 0.000000 0.000000 0.000000 0.000000 0.000000 0.000000 0.000000 0.000000 0.000000 16.281375 16.281375 16.281375 16.281375 16.281375 16.281375 16.281375 16.281375 16.281375 16.281375 0.000000 0.000000 0.000000 0.000000 0.000000 0.000000 0.000000 0.000000 0.000000 0.000000 0.000000 0.000000 0.000000 0.000000 0.000000 0.000000 0.000000 0.000000 0.000000 0.000000 0.000000 0.000000 0.000000 0.000000 0.000000 0.000000 0.000000 0.000000 0.000000 0.000000 0.000000 0.000000 0.000000 0.000000 0.000000 0.000000 0.000000 0.000000 0.000000 0.000000 0.000000 0.000000 0.000000 0.000000 0.000000 0.000000 0.000000 0.000000 0.000000 0.000000 0.000000 0.000000 0.000000 0.000000 0.000000 0.000000 0.000000 0.000000 0.000000 0.000000 0.000000 0.000000 26.523334 26.523334 26.523334 26.523334 26.523334 26.523334 26.523334 0.000000 0.000000 0.000000 0.000000
0.000000 0.000000 0.000000 0.000000 0.000000 0.000000 30.060688 30.060688 30.060688 30.060688 30.060688 30.060688 30.060688 30.060688 30.060688 30.060688 30.060688 30.060688 30.060688 0.000000 16.281375 16.281375 16.281375 16.281375 16.281375 16.281375 16.281375 16.281375 16.281375 16.281375 0.000000 38.667028 38.667028 38.667028 38.667028 38.667028 38.667028 38.667028 38.667028 38.667028 38.667028 38.667028 38.667028 38.667028 38.667028 38.667028 38.667028 0.000000 0.000000 0.000000 0.000000 0.000000 0.000000 0.000000 0.000000 0.000000 0.000000 0.000000 0.000000 0.000000 0.000000 0.000000 0.000000 0.000000 0.000000 0.000000 0.000000 0.000000 0.000000 0.000000 0.000000 0.000000 0.000000 0.000000 0.000000 0.000000 0.000000 0.000000 0.000000 0.000000 0.000000 0.000000 0.000000 0.000000 0.000000 0.000000 0.000000 0.000000 0.000000 0.000000 0.000000 0.000000 26.523334 26.523334 26.523334 26.523334 26.523334 26.523334 26.523334 0.000000 0.000000 0.000000 0.000000
0.000000 0.000000 0.000000 0.000000 0.000000 0.000000 30.060688 30.060688 30.060688 30.060688 30.060688 30.060688 30.060688 30.060688 30.060688 30.060688 30.060688 30.060688 30.060688 0.000000 16.281375 16.281375 16.281375 16.281375 16.281375 16.281375 16.281375 16.281375 16.281375 16.281375 0.000000 38.667028 38.667028 38.667028 38.667028 38.667028 38.667028 38.667028 38.667028 38.667028 38.667028 38.667028 38.667028 38.667028 38.667028 38.667028 38.667028 0.000000 0.000000 0.000000 0.000000 0.000000 0.000000 0.000000 0.000000 0.000000 0.000000 0.000000 0.000000 0.000000 0.000000 0.000000 0.000000 0.000000 0.000000 0.000000 0.000000 0.000000 0.000000 0.000000 0.000000 0.000000 0.000000 0.000000 0.000000 0.000000 0.000000 16.411885 16.411885 16.411885 16.411885 16.411885 16.411885 16.411885 16.411885 0.000000 0.000000 0.000000 0.000000 0.000000 0.000000 0.000000 26.523334 26.523334 26.523334 26.523334 26.523334 26.523334 26.523334 0.000000 0.000000 0.000000 0.000000
0.000000 0.000000 0.000000 0.000000 0.000000 0.000000 30.060688 30.060688 30.060688 30.060688 30.060688 30.060688 30.060688 30.060688 30.060688 30.060688 30.060688 30.060688 30.060688 0.000000 16.281375 16.281375 16.281375 16.281375 16.281375 16.281375 16.281375 16.281375 16.281375 16.281375 0.000000 38.667028 38.667028 38.667028 38.667028 38.667028 38.667028 38.667028 38.667028 38.667028 38.667028 38.667028 38.667028 38.667028 38.667028 38.667028 38.667028 0.000000 0.000000 0.000000 0.000000 0.000000 0.000000 0.000000 0.000000 0.000000 0.000000 0.000000 0.000000 0.000000 0.000000 0.000000 0.000000 0.000000 0.000000 0.000000 0.000000 0.000000 0.000000 0.000000 0.000000 0.000000 0.000000 0.000000 0.000000 0.000000 0.000000 16.411885 16.411885 16.411885 16.411885 16.411885 16.411885 16.411885 16.411885 0.000000 0.000000 0.000000 0.000000 0.000000 0.000000 0.000000 26.523334 26.523334 26.523334 26.523334 26.523334 26.523334 26.523334 0.000000 0.000000 0.000000 0.000000
0.000000 0.000000 0.000000 0.000000 0.000000 0.000000 30.060688 30.060688 30.060688 30.060688 30.060688 30.060688 30.060688 30.060688 30.060688 30.060688 30.060688 30.060688 30.060688 0.000000 16.281375 16.281375 16.281375 16.281375 16.281375 16.281375 16.281375 16.281375 16.281375 16.281375 0.000000 38.667028 38.667028 38.667028 38.667028 38.667028 38.667028 38.667028 38.667028 38.667028 38.667028 38.667028 38.667028 38.667028 38.667028 38.667028 38.667028 0.000000 0.000000 0.000000 0.000000 0.000000 0.000000 0.000000 0.000000 0.000000 0.000000 0.000000 0.000000 0.000000 0.000000 0.000000 0.000000 0.000000 0.000000 0.000000 0.000000 0.000000 0.000000 0.000000 0.000000 0.000000 0.000000 0.000000 0.000000 0.000000 0.000000 16.411885 16.411885 16.411885 16.411885 16.411885 16.411885 16.411885 16.411885 0.000000 0.000000 0.000000 0.000000 0.000000 0.000000 0.000000 26.523334 26.523334 26.523334 26.523334 26.523334 26.523334 26.523334 0.000000 0.000000 0.000000 0.000000
0.000000 0.000000 0.000000 0.000000 0.000000 0.000000 30.060688 30.060688 30.060688 30.060688 30.060688 30.060688 30.060688 30.060688 30.060688 30.060688 30.060688 30.060688 30.060688 0.000000 16.281375 16.281375 16.281375 16.281375 16.281375 16.281375 16.281375 16.281375 16.281375 16.281375 0.000000 38.667028 38.667028 38.667028 38.667028 38.667028 38.667028 38.667028 38.667028 38.667028 38.667028 38.667028 38.667028 38.667028 38.667028 38.667028 38.667028 0.000000 0.000000 0.000000 0.000000 0.000000 0.000000 0.000000 0.000000 0.000000 0.000000 0.000000 0.000000 0.000000 0.000000 0.000000 0.000000 0.000000 0.000000 0.000000 0.000000 0.000000 0.000000 0.000000 0.000000 0.000000 0.000000 0.000000 0.000000 0.000000 0.000000 16.411885 16.411885 16.411885 16.411885 16.411885 16.411885 16.411885 16.411885 0.000000 0.000000 0.000000 0.000000 0.000000 0.000000 0.000000 26.523334 26.523334 26.523334 26.523334 26.523334 26.523334 26.523334 0.000000 0.000000 0.000000 0.000000
0.000000 0.000000 0.000000 0.000000 0.000000 0.000000 30.060688 30.060688 30.060688 30.060688 30.060688 30.060688 30.060688 30.060688 30.060688 30.060688 30.060688 30.060688 30.060688 0.000000 16.281375 16.281375 16.281375 16.281375 16.281375 16.281375 16.281375 16.281375 16.281375 16.281375 0.000000 38.667028 38.667028 38.667028 38.667028 38.667028 38.667028 38.667028 38.667028 38.667028 38.667028 38.667028 38.667028 38.667028 38.667028 38.667028 38.667028 0.000000 0.000000 0.000000 0.000000 0.000000 0.000000 0.000000 0.000000 0.000000 0.000000 0.000000 0.000000 0.000000 0.000000 0.000000 0.000000 0.000000 0.000000 0.000000 0.000000 0.000000 0.000000 0.000000 0.000000 0.000000 0.000000 0.000000 0.000000 0.000000 0.000000 16.411885 16.411885 16.411885 16.411885 16.411885 16.411885 16.411885 16.411885 0.000000 0.000000 0.000000 0.000000 0.000000 0.000000 0.000000 26.523334 26.523334 26.523334 26.523334 26.523334 26.523334 26.523334 0.000000 0.000000 0.000000 0.000000
0.000000 0.000000 0.000000 0.000000 0.000000 0.000000 30.060688 30.060688 30.060688 30.060688 30.060688 30.060688 30.060688 30.060688 30.060688 30.060688 30.060688 30.060688 30.060688 0.000000 14.266758 14.266758 14.266758 14.266758 14.266758 14.266758 14.266758 14.266758 14.266758 14.266758 0.000000 38.667028 38.667028 38.667028 38.667028 38.667028 38.667028 38.667028 38.667028 38.667028 38.667028 38.667028 38.667028 38.667028 38.667028 38.667028 38.667028 0.000000 0.000000 0.000000 0.000000 0.000000 0.000000 0.000000 0.000000 0.000000 0.000000 0.000000 0.000000 0.000000 0.000000 0.000000 0.000000 0.000000 0.000000 0.000000 0.000000 0.000000 0.000000 0.000000 0.000000 0.000000 0.000000 0.000000 0.000000 0.000000 0.000000 16.411885 16.411885 16.411885 16.411885 16.411885 16.411885 16.411885 16.411885 0.000000 0.000000 0.000000 0.000000 0.000000 0.000000 0.000000 26.523334 26.523334 26.523334 26.523334 26.523334 26.523334 26.523334 0.000000 0.000000 0.000000 0.000000
0.000000 0.000000 0.000000 0.000000 0.000000 0.000000 30.060688 30.060688 30.060688 30.060688 30.060688 30.060688 30.060688 30.060688 30.060688 30.060688 30.060688 30.060688 30.060688 0.000000 14.266758 14.266758 14.266758 14.266758 14.266758 14.266758 14.266758 14.266758 14.266758 14.266758 0.000000 38.667028 38.667028 38.667028 38.667028 38.667028 38.667028 38.667028 38.667028 38.667028 38.667028 38.667028 38.667028 38.667028 38.667028 38.667028 38.667028 0.000000 0.000000 0.000000 0.000000 0.000000 0.000000 0.000000 0.000000 0.000000 0.000000 0.000000 0.000000 0.000000 0.000000 0.000000 0.000000 0.000000 0.000000 0.000000 0.000000 0.000000 0.000000 0.000000 0.000000 0.000000 0.000000 0.000000 0.000000 0.000000 0.000000 16.411885 16.411885 16.411885 16.411885 16.411885 16.411885 16.411885 16.411885 0.000000 0.000000 0.000000 0.000000 0.000000 0.000000 0.000000 26.523334 26.523334 26.523334 26.523334 26.523334 26.523334 26.523334 0.000000 0.000000 0.000000 0.000000
0.000000 0.000000 0.000000 0.000000 0.000000 0.000000 30.060688 30.060688 30.060688 30.060688 30.060688 30.060688 30.060688 30.060688 30.060688 30.060688 30.060688 30.060688 30.060688 0.000000 14.266758 14.266758 14.266758 14.266758 14.266758 14.266758 14.266758 14.266758 14.266758 14.266758 0.000000 38.667028 38.667028 38.667028 38.667028 38.667028 38.667028 38.667028 38.667028 38.667028 38.667028 38.667028 38.667028 38.667028 38.667028 38.667028 38.667028 0.000000 0.000000 0.000000 0.000000 0.000000 0.000000 0.000000 0.000000 0.000000 0.000000 0.000000 0.000000 0.000000 0.000000 0.000000 0.000000 0.000000 0.000000 0.000000 0.000000 0.000000 0.000000 0.000000 0.000000 0.000000 0.000000 0.000000 0.000000 0.000000 0.000000 16.411885 16.411885 16.411885 16.411885 16.411885 16.411885 16.411885 16.411885 0.000000 0.000000 0.000000 0.000000 0.000000 0.000000 0.000000 26.523334 26.523334 26.523334 26.523334 26.523334 26.523334 26.523334 0.000000 0.000000 0.000000 0.000000
0.000000 0.000000 0.000000 0.000000 0.000000 0.000000 30.060688 30.060688 30.060688 30.060688 30.060688 30.060688 30.060688 30.060688 30.060688 30.060688 30.060688 30.060688 30.060688 0.000000 14.266758 14.266758 14.266758 14.266758 14.266758 14.266758 14.266758 14.266758 14.266758 14.266758 0.000000 38.667028 38.667028 38.667028 38.667028 38.667028 38.667028 38.667028 38.667028 38.667028 38.667028 38.667028 38.667028 38.667028 38.667028 38.667028 38.667028 0.000000 0.000000 0.000000 0.000000 0.000000 0.000000 0.000000 0.000000 0.000000 0.000000 0.000000 0.000000 0.000000 0.000000 0.000000 0.000000 0.000000 0.000000 0.000000 0.000000 0.000000 0.000000 0.000000 0.000000 0.000000 0.000000 0.000000 0.000000 0.000000 0.000000 16.411885 16.411885 16.411885 16.411885 16.411885 16.411885 16.411885 16.411885 0.000000 0.000000 0.000000 0.000000 0.000000 0.000000 0.000000 26.523334 26.523334 26.523334 26.523334 26.523334 26.523334 26.523334 0.000000 0.000000 0.000000 0.000000
0.000000 0.000000 0.000000 0.000000 0.000000 0.000000 0.000000 0.000000 0.000000 0.000000 0.000000 0.000000 0.000000 0.000000 0.000000 0.000000 0.000000 0.000000 0.000000 0.000000 14.266758 14.266758 14.266758 14.266758 14.266758 14.266758 14.266758 14.266758 14.266758 14.266758 0.000000 0.000000 0.000000 0.000000 0.000000 0.000000 0.000000 0.000000 0.000000 0.000000 0.000000 0.000000 0.000000 0.000000 0.000000 0.000000 0.000000 0.000000 0.000000 0.000000 0.000000 0.000000 0.000000 0.000000 0.000000 0.000000 0.000000 0.000000 0.000000 0.000000 0.000000 0.000000 0.000000 0.000000 0.000000 0.000000 0.000000 0.000000 0.000000 0.000000 0.000000 0.000000 0.000000 0.000000 0.000000 0.000000 0.000000 0.000000 0.000000 0.000000 0.000000 0.000000 0.000000 0.000000 0.000000 0.000000 0.000000 0.000000 0.000000 0.000000 0.000000 0.000000 26.523334 26.523334 26.523334 26.523334 26.523334 26.523334 26.523334 0.000000 0.000000 0.000000 0.000000
0.000000 0.000000 0.000000 0.000000 0.000000 0.000000 0.000000 0.000000 0.000000 0.000000 0.000000 0.000000 0.000000 0.000000 0.000000 0.000000 0.000000 0.000000 0.000000 0.000000 14.266758 14.266758 14.266758 14.266758 14.266758 14.266758 14.266758 14.266758 14.266758 14.266758 0.000000 0.000000 0.000000 0.000000 0.000000 0.000000 0.000000 0.000000 0.000000 0.000000 0.000000 0.000000 0.000000 0.000000 0.000000 0.000000 0.000000 0.000000 0.000000 0.000000 0.000000 0.000000 0.000000 0.000000 0.000000 0.000000 0.000000 0.000000 0.000000 0.000000 0.000000 0.000000 0.000000 0.000000 0.000000 0.000000 0.000000 0.000000 0.000000 0.000000 0.000000 0.000000 0.000000 0.000000 0.000000 0.000000 0.000000 0.000000 0.000000 0.000000 0.000000 0.000000 0.000000 0.000000 0.000000 0.000000 0.000000 0.000000 0.000000 0.000000 0.000000 0.000000 26.523334 26.523334 26.523334 26.523334 26.523334 26.523334 26.523334 0.000000 0.000000 0.000000 0.000000
0.000000 0.000000 0.000000 0.000000 0.000000 0.000000 0.000000 0.000000 0.000000 0.000000 0.000000 0.000000 0.000000 0.000000 0.000000 0.000000 0.000000 0.000000 0.000000 0.000000 0.000000 0.000000 0.000000 0.000000 0.000000 0.000000 0.000000 0.000000 0.000000 0.000000 0.000000 0.000000 0.000000 0.000000 0.000000 0.000000 0.000000 0.000000 0.000000 0.000000 0.000000 0.000000 0.000000 0.000000 0.000000 0.000000 0.000000 0.000000 0.000000 0.000000 0.000000 0.000000 0.000000 0.000000 0.000000 0.000000 0.000000 0.000000 0.000000 0.000000 0.000000 0.000000 0.000000 0.000000 0.000000 0.000000 0.000000 0.000000 0.000000 0.000000 0.000000 0.000000 0.000000 0.000000 0.000000 0.000000 0.000000 0.000000 0.000000 0.000000 0.000000 0.000000 0.000000 0.000000 0.000000 0.000000 0.000000 0.000000 0.000000 0.000000 0.000000 0.000000 0.000000 0.000000 0.000000 0.000000 0.000000 0.000000 0.000000 0.000000 0.000000 0.000000 0.000000
0.000000 0.000000 0.000000 0.000000 0.000000 0.000000 0.000000 0.000000 0.000000 0.000000 0.000000 0.000000 0.000000 0.000000 0.000000 0.000000 0.000000 0.000000 0.000000 0.000000 0.000000 0.000000 0.000000 0.000000 0.000000 0.000000 0.000000 0.000000 0.000000 0.000000 0.000000 0.000000 0.000000 0.000000 0.000000 0.000000 0.000000 0.000000 0.000000 0.000000 0.000000 0.000000 0.000000 0.000000 0.000000 0.000000 0.000000 0.000000 0.000000 0.000000 0.000000 0.000000 0.000000 0.000000 0.000000 0.000000 0.000000 0.000000 0.000000 0.000000 0.000000 0.000000 0.000000 0.000000 0.000000 0.000000 0.000000 0.000000 0.000000 0.000000 0.000000 0.000000 0.000000 0.000000 0.000000 0.000000 0.000000 0.000000 0.000000 0.000000 0.000000 0.000000 0.000000 0.000000 0.000000 0.000000 0.000000 0.000000 0.000000 0.000000 0.000000 0.000000 0.000000 0.000000 0.000000 0.000000 0.000000 0.000000 0.000000 0.000000 0.000000 0.000000 0.000000
0.000000 0.000000 0.000000 0.000000 0.000000 0.000000 0.000000 0.000000 0.000000 0.000000 0.000000 0.000000 0.000000 0.000000 0.000000 0.000000 0.000000 0.000000 0.000000 0.000000 0.000000 0.000000 0.000000 0.000000 0.000000 0.000000 0.000000 0.000000 0.000000 0.000000 0.000000 0.000000 0.000000 0.000000 0.000000 0.000000 0.000000 0.000000 0.000000 0.000000 0.000000 0.000000 0.000000 0.000000 0.000000 0.000000 0.000000 0.000000 0.000000 0.000000 0.000000 0.000000 0.000000 0.000000 0.000000 0.000000 0.000000 0.000000 0.000000 0.000000 0.000000 0.000000 0.000000 0.000000 0.000000 0.000000 0.000000 0.000000 0.000000 0.000000 0.000000 0.000000 0.000000 0.000000 0.000000 0.000000 0.000000 0.000000 0.000000 0.000000 0.000000 0.000000 0.000000 0.000000 0.000000 0.000000 0.000000 0.000000 0.000000 0.000000 0.000000 0.000000 0.000000 0.000000 0.000000 0.000000 0.000000 0.000000 0.000000 0.000000 0.000000 0.000000 0.000000
0.000000 0.000000 0.000000 0.000000 0.000000 0.000000 0.000000 0.000000 0.000000 0.000000 0.000000 0.000000 0.000000 0.000000 0.000000 0.000000 0.000000 0.000000 0.000000 0.000000 0.000000 0.000000 0.000000 0.000000 0.000000 0.000000 0.000000 0.000000 0.000000 0.000000 0.000000 0.000000 0.000000 0.000000 0.000000 0.000000 0.000000 0.000000 0.000000 0.000000 0.000000 0.000000 0.000000 0.000000 0.000000 0.000000 0.000000 0.000000 0.000000 0.000000 0.000000 0.000000 0.000000 0.000000 0.000000 0.000000 0.000000 0.000000 0.000000 0.000000 0.000000 0.000000 0.000000 0.000000 0.000000 0.000000 0.000000 0.000000 0.000000 0.000000 0.000000 0.000000 0.000000 0.000000 0.000000 0.000000 0.000000 0.000000 0.000000 0.000000 0.000000 0.000000 0.000000 0.000000 0.000000 0.000000 0.000000 0.000000 0.000000 0.000000 0.000000 0.000000 0.000000 0.000000 0.000000 0.000000 0.000000 0.000000 0.000000 0.000000 0.000000 0.000000 0.000000
0.000000 0.000000 0.000000 0.000000 0.000000 0.000000 0.000000 0.000000 0.000000 0.000000 0.000000 0.000000 0.000000 0.000000 0.000000 0.000000 0.000000 0.000000 0.000000 0.000000 0.000000 0.000000 0.000000 0.000000 0.000000 0.000000 0.000000 0.000000 0.000000 0.000000 0.000000 0.000000 0.000000 0.000000 0.000000 0.000000 0.000000 0.000000 0.000000 0.000000 0.000000 0.000000 0.000000 0.000000 0.000000 0.000000 0.000000 0.000000 0.000000 0.000000 0.000000 0.000000 0.000000 0.000000 0.000000 0.000000 0.000000 0.000000 0.000000 0.000000 0.000000 0.000000 0.000000 0.000000 0.000000 0.000000 0.000000 0.000000 0.000000 0.000000 0.000000 0.000000 0.000000 0.000000 0.000000 0.000000 0.000000 0.000000 0.000000 0.000000 0.000000 0.000000 0.000000 0.000000 0.000000 0.000000 0.000000 0.000000 0.000000 0.000000 0.000000 0.000000 0.000000 0.000000 0.000000 0.000000 0.000000 0.000000 0.000000 0.000000 0.000000 0.000000 0.000000
0.000000 0.000000 0.000000 0.000000 0.000000 0.000000 0.000000 0.000000 0.000000 0.000000 0.000000 0.000000 0.000000 0.000000 0.000000 0.000000 0.000000 0.000000 0.000000 0.000000 0.000000 0.000000 0.000000 0.000000 0.000000 0.000000 0.000000 0.000000 0.000000 0.000000 0.000000 0.000000 0.000000 0.000000 0.000000 0.000000 0.000000 0.000000 0.000000 0.000000 0.000000 0.000000 0.000000 0.000000 0.000000 0.000000 0.000000 0.000000 0.000000 0.000000 0.000000 0.000000 0.000000 0.000000 0.000000 0.000000 0.000000 0.000000 0.000000 0.000000 0.000000 0.000000 0.000000 0.000000 0.000000 0.000000 0.000000 0.000000 0.000000 0.000000 0.000000 0.000000 0.000000 0.000000 0.000000 0.000000 19.006082 19.006082 19.006082 19.006082 19.006082 19.006082 19.006082 19.006082 19.006082 19.006082 19.006082 0.000000 0.000000 0.000000 0.000000 0.000000 16.658746 16.658746 16.658746 16.658746 16.658746 16.658746 16.658746 0.000000 0.000000 0.000000 0.000000
0.000000 0.000000 0.000000 0.000000 0.000000 0.000000 0.000000 0.000000 0.000000 0.000000 0.000000 0.000000 0.000000 0.000000 0.000000 0.000000 0.000000 0.000000 0.000000 0.000000 0.000000 0.000000 0.000000 0.000000 0.000000 0.000000 0.000000 0.000000 0.000000 0.000000 0.000000 0.000000 0.000000 0.000000 0.000000 0.000000 0.000000 0.000000 0.000000 0.000000 0.000000 0.000000 0.000000 0.000000 0.000000 0.000000 0.000000 0.000000 0.000000 0.000000 0.000000 0.000000 0.000000 0.000000 0.000000 0.000000 0.000000 0.000000 0.000000 0.000000 0.000000 0.000000 0.000000 0.000000 0.000000 0.000000 0.000000 0.000000 0.000000 0.000000 0.000000 0.000000 0.000000 0.000000 0.000000 0.000000 19.006082 19.006082 19.006082 19.006082 19.006082 19.006082 19.006082 19.006082 19.006082 19.006082 19.006082 0.000000 0.000000 0.000000 0.000000 0.000000 16.658746 16.658746 16.658746 16.658746 16.658746 16.658746 16.658746 0.000000 0.000000 0.000000 0.000000
0.000000 0.000000 0.000000 0.000000 0.000000 0.000000 0.000000 0.000000 0.000000 0.000000 0.000000 0.000000 0.000000 0.000000 0.000000 0.000000 0.000000 0.000000 0.000000 0.000000 0.000000 0.000000 0.000000 0.000000 0.000000 0.000000 0.000000 0.000000 0.000000 0.000000 0.000000 0.000000 0.000000 0.000000 0.000000 0.000000 0.000000 0.000000 0.000000 0.000000 0.000000 0.000000 0.000000 0.000000 0.000000 0.000000 0.000000 0.000000 0.000000 0.000000 0.000000 0.000000 0.000000 0.000000 0.000000 0.000000 28.622473 28.622473 28.622473 28.622473 28.622473 28.622473 28.622473 28.622473 28.622473 28.622473 28.622473 28.622473 28.622473 0.000000 0.000000 0.000000 0.000000 0.000000 0.000000 0.000000 19.006082 19.006082 19.006082 19.006082 19.006082 19.006082 19.006082 19.006082 19.006082 19.006082 19.006082 0.000000 0.000000 0.000000 0.000000 0.000000 16.658746 16.658746 16.658746 16.658746 16.658746 16.658746 16.658746 0.000000 0.000000 0.000000 0.000000
0.000000 0.000000 0.000000 0.000000 0.000000 0.000000 0.000000 0.000000 0.000000 0.000000 0.000000 0.000000 0.000000 0.000000 0.000000 0.000000 0.000000 0.000000 0.000000 0.000000 0.000000 0.000000 0.000000 0.000000 0.000000 0.000000 0.000000 0.000000 0.000000 0.000000 0.000000 0.000000 0.000000 0.000000 0.000000 0.000000 0.000000 0.000000 0.000000 0.000000 0.000000 0.000000 0.000000 0.000000 0.000000 0.000000 0.000000 0.000000 0.000000 0.000000 0.000000 0.000000 0.000000 0.000000 0.000000 0.000000 28.622473 28.622473 28.622473 28.622473 28.622473 28.622473 28.622473 28.622473 28.622473 28.622473 28.622473 28.622473 28.622473 0.000000 0.000000 0.000000 0.000000 0.000000 0.000000 0.000000 19.006082 19.006082 19.006082 19.006082 19.006082 19.006082 19.006082 19.006082 19.006082 19.006082 19.006082 0.000000 0.000000 0.000000 0.000000 0.000000 16.658746 16.658746 16.658746 16.658746 16.658746 16.658746 16.658746 0.000000 0.000000 0.000000 0.000000
0.000000 0.000000 0.000000 0.000000 0.000000 0.000000 0.000000 0.000000 0.000000 0.000000 0.000000 0.000000 0.000000 0.000000 0.000000 0.000000 0.000000 0.000000 0.000000 0.000000 0.000000 0.000000 0.000000 0.000000 0.000000 0.000000 0.000000 0.000000 0.000000 0.000000 0.000000 0.000000 0.000000 0.000000 0.000000 0.000000 0.000000 0.000000 0.000000 0.000000 0.000000 0.000000 0.000000 0.000000 0.000000 0.000000 0.000000 0.000000 0.000000 0.000000 0.000000 0.000000 0.000000 0.000000 0.000000 0.000000 28.622473 28.622473 28.622473 28.622473 28.622473 28.622473 28.622473 28.622473 28.622473 28.622473 28.622473 28.622473 28.622473 0.000000 0.000000 0.000000 0.000000 0.000000 0.000000 0.000000 19.006082 19.006082 19.006082 19.006082 19.006082 19.006082 19.006082 19.006082 19.006082 19.006082 19.006082 0.000000 0.000000 0.000000 0.000000 0.000000 16.658746 16.658746 16.658746 16.658746 16.658746 16.658746 16.658746 0.000000 0.000000 0.000000 0.000000
0.000000 0.000000 0.000000 0.000000 0.000000 0.000000 0.000000 0.000000 0.000000 0.000000 0.000000 0.000000 0.000000 0.000000 0.000000 0.000000 0.000000 0.000000 0.000000 0.000000 0.000000 0.000000 0.000000 0.000000 0.000000 0.000000 0.000000 0.000000 0.000000 0.000000 0.000000 0.000000 0.000000 0.000000 0.000000 0.000000 0.000000 0.000000 0.000000 0.000000 0.000000 0.000000 0.000000 0.000000 0.000000 0.000000 0.000000 0.000000 0.000000 0.000000 0.000000 0.000000 0.000000 0.000000 0.000000 0.000000 28.622473 28.622473 28.622473 28.622473 28.622473 28.622473 28.622473 28.622473 28.622473 28.622473 28.622473 28.622473 28.622473 0.000000 0.000000 0.000000 0.000000 0.000000 0.000000 0.000000 19.006082 19.006082 19.006082 19.006082 19.006082 19.006082 19.006082 19.006082 19.006082 19.006082 19.006082 0.000000 0.000000 0.000000 0.000000 0.000000 16.658746 16.658746 16.658746 16.658746 16.658746 16.658746 16.658746 0.000000 0.000000 0.000000 0.000000
0.000000 0.000000 0.000000 0.000000 0.000000 0.000000 0.000000 0.000000 0.000000 0.000000 0.000000 0.000000 0.000000 0.000000 0.000000 0.000000 0.000000 0.000000 0.000000 0.000000 0.000000 0.000000 0.000000 0.000000 0.000000 0.000000 0.000000 0.000000 0.000000 0.000000 0.000000 0.000000 0.000000 0.000000 0.000000 0.000000 0.000000 0.000000 0.000000 0.000000 0.000000 0.000000 0.000000 0.000000 0.000000 0.000000 0.000000 0.000000 0.000000 0.000000 0.000000 0.000000 0.000000 0.000000 0.000000 0.000000 28.622473 28.622473 28.622473 28.622473 28.622473 28.622473 28.622473 28.622473 28.622473 28.622473 28.622473 28.622473 28.622473 0.000000 0.000000 0.000000 0.000000 0.000000 0.000000 0.000000 19.006082 19.006082 19.006082 19.006082 19.006082 19.006082 19.006082 19.006082 19.006082 19.006082 19.006082 0.000000 0.000000 0.000000 0.000000 0.000000 16.658746 16.658746 16.658746 16.658746 16.658746 16.658746 16.658746 0.000000 0.000000 0.000000 0.000000
0.000000 0.000000 0.000000 0.000000 16.702960 16.702960 16.702960 16.702960 16.702960 16.702960 16.702960 0.000000 0.000000 0.000000 0.000000 0.000000 0.000000 0.000000 0.000000 0.000000 0.000000 0.000000 0.000000 0.000000 0.000000 0.000000 0.000000 0.000000 0.000000 0.000000 0.000000 0.000000 0.000000 0.000000 0.000000 0.000000 15.400635 15.400635 15.400635 15.400635 15.400635 15.400635 15.400635 0.000000 0.000000 0.000000 0.000000 0.000000 0.000000 0.000000 0.000000 0.000000 0.000000 0.000000 0.000000 0.000000 28.622473 28.622473 28.622473 28.622473 28.622473 28.622473 28.622473 28.622473 28.622473 28.622473 28.622473 28.622473 28.622473 0.000000 0.000000 0.000000 0.000000 0.000000 0.000000 0.000000 0.000000 0.000000 0.000000 0.000000 0.000000 0.000000 0.000000 0.000000 0.000000 0.000000 0.000000 0.000000 0.000000 0.000000 0.000000 0.000000 16.658746 16.658746 16.658746 16.658746 16.658746 16.658746 16.658746 0.000000 0.000000 0.000000 0.000000
0.000000 0.000000 0.000000 0.000000 16.702960 16.702960 16.702960 16.702960 16.702960 16.702960 16.702960 0.000000 0.000000 0.000000 0.000000 0.000000 0.000000 0.000000 0.000000 0.000000 0.000000 0.000000 0.000000 0.000000 0.000000 0.000000 0.000000 0.000000 0.000000 0.000000 0.000000 0.000000 0.000000 0.000000 0.000000 0.000000 15.400635 15.400635 15.400635 15.400635 15.400635 15.400635 15.400635 0.000000 0.000000 0.000000 0.000000 0.000000 0.000000 0.000000 0.000000 0.000000 0.000000 0.000000 0.000000 0.000000 28.622473 28.622473 28.622473 28.622473 28.622473 28.622473 28.622473 28.622473 28.622473 28.622473 28.622473 28.622473 28.622473 0.000000 0.000000 0.000000 0.000000 0.000000 0.000000 0.000000 0.000000 0.000000 0.000000 0.000000 0.000000 0.000000 0.000000 0.000000 0.000000 0.000000 0.000000 0.000000 0.000000 0.000000 0.000000 0.000000 16.658746 16.658746 16.658746 16.658746 16.658746 16.658746 16.658746 0.000000 0.000000 0.000000 0.000000
0.000000 0.000000 0.000000 0.000000 16.702960 16.702960 16.702960 16.702960 16.702960 16.702960 16.702960 0.000000 0.000000 0.000000 0.000000 0.000000 0.000000 0.000000 0.000000 0.000000 19.917641 19.917641 19.917641 19.917641 19.917641 19.917641 19.917641 19.917641 19.917641 19.917641 19.917641 19.917641 19.917641 19.917641 0.000000 0.000000 15.400635 15.400635 15.400635 15.400635 15.400635 15.400635 15.400635 0.000000 0.000000 0.000000 0.000000 0.000000 0.000000 0.000000 0.000000 0.000000 0.000000 0.000000 0.000000 0.000000 28.622473 28.622473 28.622473 28.622473 28.622473 28.622473 28.622473 28.622473 28.622473 28.622473 28.622473 28.622473 28.622473 0.000000 0.000000 0.000000 0.000000 0.000000 0.000000 0.000000 0.000000 0.000000 0.000000 0.000000 0.000000 0.000000 0.000000 0.000000 0.000000 0.000000 0.000000 0.000000 0.000000 0.000000 0.000000 0.000000 20.334593 20.334593 20.334593 20.334593 20.334593 20.334593 20.334593 0.000000 0.000000 0.000000 0.000000
0.000000 0.000000 0.000000 0.000000 16.702960 16.702960 16.702960 16.702960 16.702960 16.702960 16.702960 0.000000 0.000000 0.000000 0.000000 0.000000 0.000000 0.000000 0.000000 0.000000 19.917641 19.917641 19.917641 19.917641 19.917641 19.917641 19.917641 19.917641 19.917641 19.917641 19.917641 19.917641 19.917641 19.917641 0.000000 0.000000 15.400635 15.400635 15.400635 15.400635 15.400635 15.400635 15.400635 0.000000 0.000000 0.000000 0.000000 0.000000 0.000000 0.000000 0.000000 0.000000 0.000000 0.000000 0.000000 0.000000 28.622473 28.622473 28.622473 28.622473 28.622473 28.622473 28.622473 28.622473 28.622473 28.622473 28.622473 28.622473 28.622473 0.000000 0.000000 0.000000 0.000000 0.000000 0.000000 0.000000 0.000000 0.000000 0.000000 0.000000 0.000000 0.000000 0.000000 0.000000 0.000000 0.000000 0.000000 0.000000 0.000000 0.000000 0.000000 0.000000 20.334593 20.334593 20.334593 20.334593 20.334593 20.334593 20.334593 0.000000 0.000000 0.000000 0.000000
0.000000 0.000000 0.000000 0.000000 16.702960 16.702960 16.702960 16.702960 16.702960 16.702960 16.702960 0.000000 0.000000 0.000000 0.000000 0.000000 0.000000 0.000000 0.000000 0.000000 19.917641 19.917641 19.917641 19.917641 19.917641 19.917641 19.917641 19.917641 19.917641 19.917641 19.917641 19.917641 19.917641 19.917641 0.000000 0.000000 15.400635 15.400635 15.400635 15.400635 15.400635 15.400635 15.400635 0.000000 0.000000 0.000000 0.000000 0.000000 0.000000 0.000000 0.000000 0.000000 0.000000 0.000000 0.000000 0.000000 0.000000 0.000000 0.000000 0.000000 0.000000 0.000000 0.000000 0.000000 0.000000 0.000000 0.000000 0.000000 0.000000 0.000000 0.000000 0.000000 0.000000 0.000000 0.000000 0.000000 0.000000 0.000000 0.000000 0.000000 0.000000 0.000000 0.000000 0.000000 0.000000 0.000000 0.000000 0.000000 0.000000 0.000000 0.000000 0.000000 20.334593 20.334593 20.334593 20.334593 20.334593 20.334593 20.334593 0.000000 0.000000 0.000000 0.000000
0.000000 0.000000 0.000000 0.000000 16.702960 16.702960 16.702960 16.702960 16.702960 16.702960 16.702960 0.000000 0.000000 0.000000 0.000000 0.000000 0.000000 0.000000 0.000000 0.000000 19.917641 19.917641 19.917641 19.917641 19.917641 19.917641 19.917641 19.917641 19.917641 19.917641 19.917641 19.917641 19.917641 19.917641 0.000000 0.000000 15.400635 15.400635 15.400635 15.400635 15.400635 15.400635 15.400635 0.000000 0.000000 0.000000 0.000000 0.000000 0.000000 0.000000 0.000000 0.000000 0.000000 0.000000 0.000000 0.000000 0.000000 0.000000 0.000000 0.000000 0.000000 0.000000 0.000000 0.000000 0.000000 0.000000 0.000000 0.000000 0.000000 0.000000 0.000000 0.000000 0.000000 0.000000 0.000000 0.000000 0.000000 0.000000 0.000000 0.000000 0.000000 0.000000 0.000000 0.000000 0.000000 0.000000 0.000000 0.000000 0.000000 0.000000 0.000000 0.000000 20.334593 20.334593 20.334593 20.334593 20.334593 20.334593 20.334593 0.000000 0.000000 0.000000 0.000000
0.000000 0.000000 0.000000 0.000000 16.702960 16.702960 16.702960 16.702960 16.702960 16.702960 16.702960 0.000000 0.000000 0.000000 0.000000 0.000000 0.000000 0.000000 0.000000 0.000000 19.917641 19.917641 19.917641 19.917641 19.917641 19.917641 19.917641 19.917641 19.917641 19.917641 19.917641 19.917641 19.917641 19.917641 0.000000 0.000000 15.400635 15.400635 15.400635 15.400635 15.400635 15.400635 15.400635 0.000000 0.000000 0.000000 0.000000 0.000000 0.000000 0.000000 0.000000 0.000000 0.000000 0.000000 0.000000 0.000000 0.000000 0.000000 0.000000 0.000000 0.000000 0.000000 0.000000 0.000000 0.000000 0.000000 0.000000 0.000000 0.000000 0.000000 0.000000 0.000000 0.000000 0.000000 0.000000 0.000000 0.000000 0.000000 0.000000 0.000000 0.000000 0.000000 0.000000 0.000000 0.000000 0.000000 0.000000 0.000000 0.000000 0.000000 0.000000 0.000000 20.334593 20.334593 20.334593 20.334593 20.334593 20.334593 20.334593 0.000000 0.000000 0.000000 0.000000
0.000000 0.000000 0.000000 0.000000 16.702960 16.702960 16.702960 16.702960 16.702960 16.702960 16.702960 0.000000 0.000000 0.000000 0.000000 0.000000 0.000000 0.000000 0.000000 0.000000 19.917641 19.917641 19.917641 19.917641 19.917641 19.917641 19.917641 19.917641 19.917641 19.917641 19.917641 19.917641 19.917641 19.917641 0.000000 0.000000 15.400635 15.400635 15.400635 15.400635 15.400635 15.400635 15.400635 0.000000 0.000000 0.000000 0.000000 0.000000 0.000000 0.000000 0.000000 0.000000 0.000000 0.000000 0.000000 0.000000 0.000000 0.000000 0.000000 0.000000 0.000000 0.000000 0.000000 0.000000 0.000000 0.000000 0.000000 0.000000 0.000000 0.000000 0.000000 0.000000 0.000000 0.000000 0.000000 0.000000 0.000000 0.000000 0.000000 0.000000 0.000000 0.000000 0.000000 0.000000 0.000000 0.000000 0.000000 0.000000 0.000000 0.000000 0.000000 0.000000 20.334593 20.334593 20.334593 20.334593 20.334593 20.334593 20.334593 0.000000 0.000000 0.000000 0.000000
0.000000 0.000000 0.000000 0.000000 16.702960 16.702960 16.702960 16.702960 16.702960 16.702960 16.702960 0.000000 0.000000 0.000000 0.000000 0.000000 0.000000 0.000000 0.000000 0.000000 0.000000 0.000000 0.000000 0.000000 0.000000 0.000000 0.000000 0.000000 0.000000 0.000000 0.000000 0.000000 0.000000 0.000000 0.000000 0.000000 15.400635 15.400635 15.400635 15.400635 15.400635 15.400635 15.400635 0.000000 0.000000 0.000000 0.000000 0.000000 0.000000 0.000000 0.000000 0.000000 0.000000 0.000000 0.000000 0.000000 33.978800 33.978800 33.978800 33.978800 33.978800 33.978800 33.978800 33.978800 33.978800 33.978800 33.978800 33.978800 33.978800 0.000000 0.000000 0.000000 0.000000 0.000000 0.000000 0.000000 0.000000 0.000000 0.000000 0.000000 0.000000 0.000000 0.000000 0.000000 0.000000 0.000000 0.000000 0.000000 0.000000 0.000000 0.000000 0.000000 20.334593 20.334593 20.334593 20.334593 20.334593 20.334593 20.334593 0.000000 0.000000 0.000000 0.000000
0.000000 0.000000 0.000000 0.000000 16.702960 16.702960 16.702960 16.702960 16.702960 16.702960 16.702960 0.000000 0.000000 0.000000 0.000000 0.000000 0.000000 0.000000 0.000000 0.000000 0.000000 0.000000 0.000000 0.000000 0.000000 0.000000 0.000000 0.000000 0.000000 0.000000 0.000000 0.000000 0.000000 0.000000 0.000000 0.000000 15.400635 15.400635 15.400635 15.400635 15.400635 15.400635 15.400635 0.000000 0.000000 0.000000 0.000000 0.000000 0.000000 0.000000 0.000000 0.000000 0.000000 0.000000 0.000000 0.000000 33.978800 33.978800 33.978800 33.978800 33.978800 33.978800 33.978800 33.978800 33.978800 33.978800 33.978800 33.978800 33.978800 0.000000 0.000000 0.000000 0.000000 0.000000 0.000000 0.000000 0.000000 0.000000 0.000000 0.000000 0.000000 0.000000 0.000000 0.000000 0.000000 0.000000 0.000000 0.000000 0.000000 0.000000 0.000000 0.000000 20.334593 20.334593 20.334593 20.334593 20.334593 20.334593 20.334593 0.000000 0.000000 0.000000 0.000000
0.000000 0.000000 0.000000 0.000000 19.227595 19.227595 19.227595 19.227595 19.227595 19.227595 19.227595 0.000000 0.000000 0.000000 0.000000 0.000000 0.000000 0.000000 19.112158 19.112158 19.112158 19.112158 19.112158 19.112158 19.112158 30.114328 30.114328 30.114328 30.114328 30.114328 30.114328 30.114328 30.114328 30.114328 30.114328 30.114328 0.000000 0.000000 0.000000 0.000000 0.000000 0.000000 0.000000 0.000000 0.000000 0.000000 0.000000 0.000000 0.000000 0.000000 0.000000 0.000000 0.000000 0.000000 0.000000 0.000000 33.978800 33.978800 33.978800 33.978800 33.978800 33.978800 33.978800 33.978800 33.978800 33.978800 33.978800 33.978800 33.978800 0.000000 0.000000 0.000000 0.000000 0.000000 0.000000 0.000000 0.000000 0.000000 0.000000 0.000000 0.000000 0.000000 0.000000 0.000000 0.000000 0.000000 0.000000 0.000000 0.000000 0.000000 0.000000 0.000000 20.334593 20.334593 20.334593 20.334593 20.334593 20.334593 20.334593 0.000000 0.000000 0.000000 0.000000
0.000000 0.000000 0.000000 0.000000 19.227595 19.227595 19.227595 19.227595 19.227595 19.227595 19.227595 0.000000 0.000000 0.000000 0.000000 0.000000 0.000000 0.000000 19.112158 19.112158 19.112158 19.112158 19.112158 19.112158 19.112158 30.114328 30.114328 30.114328 30.114328 30.114328 30.114328 30.114328 30.114328 30.114328 30.114328 30.114328 0.000000 0.000000 0.000000 0.000000 0.000000 0.000000 0.000000 0.000000 0.000000 0.000000 0.000000 0.000000 0.000000 0.000000 0.000000 0.000000 0.000000 0.000000 0.000000 0.000000 33.978800 33.978800 33.978800 33.978800 33.978800 33.978800 33.978800 33.978800 33.978800 33.978800 33.978800 33.978800 33.978800 0.000000 0.000000 0.000000 0.000000 0.000000 0.000000 0.000000 28.868975 28.868975 28.868975 28.868975 28.868975 28.868975 28.868975 28.868975 28.868975 28.868975 28.868975 0.000000 0.000000 0.000000 0.000000 0.000000 20.334593 20.334593 20.334593 20.334593 20.334593 20.334593 20.334593 0.000000 0.000000 0.000000 0.000000
0.000000 0.000000 0.000000 0.000000 19.227595 19.227595 19.227595 19.227595 19.227595 19.227595 19.227595 0.000000 0.000000 0.000000 0.000000 0.000000 0.000000 0.000000 19.112158 19.112158 19.112158 19.112158 19.112158 19.112158 19.112158 30.114328 30.114328 30.114328 30.114328 30.114328 30.114328 30.114328 30.114328 30.114328 30.114328 30.114328 0.000000 0.000000 0.000000 0.000000 0.000000 0.000000 0.000000 0.000000 0.000000 0.000000 0.000000 0.000000 0.000000 0.000000 0.000000 0.000000 0.000000 0.000000 0.000000 0.000000 33.978800 33.978800 33.978800 33.978800 33.978800 33.978800 33.978800 33.978800 33.978800 33.978800 33.978800 33.978800 33.978800 0.000000 0.000000 0.000000 0.000000 0.000000 0.000000 0.000000 28.868975 28.868975 28.868975 28.868975 28.868975 28.868975 28.868975 28.868975 28.868975 28.868975 28.868975 0.000000 0.000000 0.000000 0.000000 0.000000 20.334593 20.334593 20.334593 20.334593 20.334593 20.334593 20.334593 0.000000 0.000000 0.000000 0.000000
0.000000 0.000000 0.000000 0.000000 19.227595 19.227595 19.227595 19.227595 19.227595 19.227595 19.227595 0.000000 0.000000 0.000000 0.000000 0.000000 0.000000 0.000000 19.112158 19.112158 19.112158 19.112158 19.112158 19.112158 19.112158 30.114328 30.114328 30.114328 30.114328 30.114328 30.114328 30.114328 30.114328 30.114328 30.114328 30.114328 0.000000 0.000000 0.000000 0.000000 0.000000 0.000000 0.000000 0.000000 0.000000 0.000000 0.000000 0.000000 0.000000 0.000000 0.000000 0.000000 0.000000 0.000000 0.000000 0.000000 33.978800 33.978800 33.978800 33.978800 33.978800 33.978800 33.978800 33.978800 33.978800 33.978800 33.978800 33.978800 33.978800 0.000000 0.000000 0.000000 0.000000 0.000000 0.000000 0.000000 28.868975 28.868975 28.868975 28.868975 28.868975 28.868975 28.868975 28.868975 28.868975 28.868975 28.868975 0.000000 0.000000 0.000000 0.000000 0.000000 14.324390 14.324390 14.324390 14.324390 14.324390 14.324390 14.324390 0.000000 0.000000 0.000000 0.000000
0.000000 0.000000 0.000000 0.000000 19.227595 19.227595 19.227595 19.227595 19.227595 19.227595 19.227595 0.000000 0.000000 0.000000 0.000000 0.000000 0.000000 0.000000 19.112158 19.112158 19.112158 19.112158 19.112158 19.112158 19.112158 30.114328 30.114328 30.114328 30.114328 30.114328 30.114328 30.114328 30.114328 30.114328 30.114328 30.114328 0.000000 0.000000 0.000000 0.000000 0.000000 0.000000 0.000000 0.000000 0.000000 0.000000 0.000000 0.000000 0.000000 0.000000 0.000000 0.000000 0.000000 0.000000 0.000000 0.000000 33.978800 33.978800 33.978800 33.978800 33.978800 33.978800 33.978800 33.978800 33.978800 33.978800 33.978800 33.978800 33.978800 0.000000 0.000000 0.000000 0.000000 0.000000 0.000000 0.000000 28.868975 28.868975 28.868975 28.868975 28.868975 28.868975 28.868975 28.868975 28.868975 28.868975 28.868975 0.000000 0.000000 0.000000 0.000000 0.000000 14.324390 14.324390 14.324390 14.324390 14.324390 14.324390 14.324390 0.000000 0.000000 0.000000 0.000000
0.000000 0.000000 0.000000 0.000000 19.227595 19.227595 19.227595 19.227595 19.227595 19.227595 19.227595 0.000000 0.000000 0.000000 0.000000 0.000000 0.000000 0.000000 19.112158 19.112158 19.112158 19.112158 19.112158 19.112158 19.112158 30.114328 30.114328 30.114328 30.114328 30.114328 30.114328 30.114328 30.114328 30.114328 30.114328 30.114328 0.000000 0.000000 0.000000 0.000000 0.000000 0.000000 0.000000 0.000000 0.000000 0.000000 0.000000 0.000000 0.000000 0.000000 0.000000 0.000000 0.000000 0.000000 0.000000 0.000000 33.978800 33.978800 33.978800 33.978800 33.978800 33.978800 33.978800 33.978800 33.978800 33.978800 33.978800 33.978800 33.978800 0.000000 0.000000 0.000000 0.000000 0.000000 0.000000 0.000000 28.868975 28.868975 28.868975 28.868975 28.868975 28.868975 28.868975 28.868975 28.868975 28.868975 28.868975 0.000000 0.000000 0.000000 0.000000 0.000000 14.324390 14.324390 14.324390 14.324390 14.324390 14.324390 14.324390 0.000000 0.000000 0.000000 0.000000
0.000000 0.000000 0.000000 0.000000 19.227595 19.227595 19.227595 19.227595 19.227595 19.227595 19.227595 0.000000 0.000000 0.000000 0.000000 0.000000 0.000000 0.000000 19.112158 19.112158 19.112158 19.112158 19.112158 19.112158 19.112158 30.114328 30.114328 30.114328 30.114328 30.114328 30.114328 30.114328 30.114328 30.114328 30.114328 30.114328 0.000000 0.000000 0.000000 0.000000 0.000000 0.000000 0.000000 0.000000 0.000000 0.000000 0.000000 0.000000 0.000000 0.000000 0.000000 0.000000 0.000000 0.000000 0.000000 0.000000 33.978800 33.978800 33.978800 33.978800 33.978800 33.978800 33.978800 33.978800 33.978800 33.978800 33.978800 33.978800 33.978800 0.000000 0.000000 0.000000 0.000000 0.000000 0.000000 0.000000 28.868975 28.868975 28.868975 28.868975 28.868975 28.868975 28.868975 28.868975 28.868975 28.868975 28.868975 0.000000 0.000000 0.000000 0.000000 0.000000 14.324390 14.324390 14.324390 14.324390 14.324390 14.324390 14.324390 0.000000 0.000000 0.000000 0.000000
0.000000 0.000000 0.000000 0.000000 19.227595 19.227595 19.227595 19.227595 19.227595 19.227595 19.227595 0.000000 0.000000 0.000000 0.000000 0.000000 0.000000 0.000000 19.112158 19.112158 19.112158 19.112158 19.112158 19.112158 19.112158 30.114328 30.114328 30.114328 30.114328 30.114328 30.114328 30.114328 30.114328 30.114328 30.114328 30.114328 0.000000 0.000000 0.000000 0.000000 0.000000 0.000000 0.000000 0.000000 0.000000 0.000000 0.000000 0.000000 0.000000 0.000000 0.000000 0.000000 0.000000 0.000000 0.000000 0.000000 33.978800 33.978800 33.978800 33.978800 33.978800 33.978800 33.978800 33.978800 33.978800 33.978800 33.978800 33.978800 33.978800 0.000000 0.000000 0.000000 0.000000 0.000000 0.000000 0.000000 28.868975 28.868975 28.868975 28.868975 28.868975 28.868975 28.868975 28.868975 28.868975 28.868975 28.868975 0.000000 0.000000 0.000000 0.000000 0.000000 14.324390 14.324390 14.324390 14.324390 14.324390 14.324390 14.324390 0.000000 0.000000 0.000000 0.000000
0.000000 0.000000 0.000000 0.000000 19.227595 19.227595 19.227595 19.227595 19.227595 19.227595 19.227595 0.000000 0.000000 0.000000 0.000000 0.000000 0.000000 0.000000 19.112158 19.112158 19.112158 19.112158 19.112158 19.112158 19.112158 30.114328 30.114328 30.114328 30.114328 30.114328 30.114328 30.114328 30.114328 30.114328 30.114328 30.114328 0.000000 0.000000 0.000000 0.000000 0.000000 0.000000 0.000000 0.000000 0.000000 0.000000 0.000000 0.000000 0.000000 0.000000 0.000000 0.000000 0.000000 0.000000 0.000000 0.000000 33.978800 33.978800 33.978800 33.978800 33.978800 33.978800 33.978800 33.978800 33.978800 33.978800 33.978800 33.978800 33.978800 0.000000 0.000000 0.000000 0.000000 0.000000 0.000000 0.000000 28.868975 28.868975 28.868975 28.868975 28.868975 28.868975 28.868975 28.868975 28.868975 28.868975 28.868975 0.000000 0.000000 0.000000 0.000000 0.000000 14.324390 14.324390 14.324390 14.324390 14.324390 14.324390 14.324390 0.000000 0.000000 0.000000 0.000000
0.000000 0.000000 0.000000 0.000000 19.227595 19.227595 19.227595 19.227595 19.227595 19.227595 19.227595 0.000000 0.000000 0.000000 0.000000 0.000000 0.000000 0.000000 19.112158 19.112158 19.112158 19.112158 19.112158 19.112158 19.112158 30.114328 30.114328 30.114328 30.114328 30.114328 30.114328 30.114328 30.114328 30.114328 30.114328 30.114328 0.000000 0.000000 0.000000 0.000000 0.000000 0.000000 0.000000 0.000000 0.000000 0.000000 0.000000 0.000000 0.000000 0.000000 0.000000 0.000000 0.000000 0.000000 0.000000 0.000000 0.000000 0.000000 0.000000 0.000000 0.000000 0.000000 0.000000 0.000000 0.000000 0.000000 0.000000 0.000000 0.000000 0.000000 0.000000 0.000000 0.000000 0.000000 0.000000 0.000000 28.868975 28.868975 28.868975 28.868975 28.868975 28.868975 28.868975 28.868975 28.868975 28.868975 28.868975 0.000000 0.000000 0.000000 0.000000 0.000000 14.324390 14.324390 14.324390 14.324390 14.324390 14.324390 14.324390 0.000000 0.000000 0.000000 0.000000
0.000000 0.000000 0.000000 0.000000 19.227595 19.227595 19.227595 19.227595 19.227595 19.227595 19.227595 0.000000 0.000000 0.000000 0.000000 0.000000 0.000000 0.000000 19.112158 19.112158 19.112158 19.112158 19.112158 19.112158 19.112158 30.114328 30.114328 30.114328 30.114328 30.114328 30.114328 30.114328 30.114328 30.114328 30.114328 30.114328 0.000000 0.000000 0.000000 0.000000 0.000000 0.000000 0.000000 0.000000 0.000000 0.000000 0.000000 0.000000 0.000000 0.000000 0.000000 0.000000 0.000000 0.000000 0.000000 0.000000 0.000000 0.000000 0.000000 0.000000 0.000000 0.000000 0.000000 0.000000 0.000000 0.000000 0.000000 0.000000 0.000000 0.000000 0.000000 0.000000 0.000000 0.000000 0.000000 0.000000 28.868975 28.868975 28.868975 28.868975 28.868975 28.868975 28.868975 28.868975 28.868975 28.868975 28.868975 0.000000 0.000000 0.000000 0.000000 0.000000 14.324390 14.324390 14.324390 14.324390 14.324390 14.324390 14.324390 0.000000 0.000000 0.000000 0.000000
0.000000 0.000000 0.000000 0.000000 0.000000 0.000000 0.000000 0.000000 0.000000 0.000000 0.000000 0.000000 0.000000 0.000000 0.000000 0.000000 0.000000 0.000000 0.000000 0.000000 0.000000 0.000000 0.000000 0.000000 0.000000 0.000000 0.000000 0.000000 0.000000 0.000000 0.000000 0.000000 0.000000 0.000000 0.000000 0.000000 0.000000 0.000000 0.000000 0.000000 0.000000 0.000000 0.000000 0.000000 0.000000 0.000000 0.000000 0.000000 0.000000 0.000000 0.000000 0.000000 0.000000 0.000000 0.000000 0.000000 0.000000 0.000000 0.000000 0.000000 0.000000 0.000000 0.000000 0.000000 0.000000 0.000000 0.000000 0.000000 0.000000 0.000000 0.000000 0.000000 0.000000 0.000000 0.000000 0.000000 0.000000 0.000000 0.000000 0.000000 0.000000 0.000000 0.000000 0.000000 0.000000 0.000000 0.000000 0.000000 0.000000 0.000000 0.000000 0.000000 0.000000 0.000000 0.000000 0.000000 0.000000 0.000000 0.000000 0.000000 0.000000 0.000000 0.000000
0.000000 0.000000 0.000000 0.000000 0.000000 0.000000 0.000000 0.000000 0.000000 0.000000 0.000000 0.000000 0.000000 0.000000 0.000000 0.000000 0.000000 0.000000 0.000000 0.000000 0.000000 0.000000 0.000000 0.000000 0.000000 0.000000 0.000000 0.000000 0.000000 0.000000 0.000000 0.000000 0.000000 0.000000 0.000000 0.000000 0.000000 0.000000 0.000000 0.000000 0.000000 0.000000 0.000000 0.000000 0.000000 0.000000 0.000000 0.000000 0.000000 0.000000 0.000000 0.000000 0.000000 0.000000 0.000000 0.000000 0.000000 0.000000 0.000000 0.000000 0.000000 0.000000 0.000000 0.000000 0.000000 0.000000 0.000000 0.000000 0.000000 0.000000 0.000000 0.000000 0.000000 0.000000 0.000000 0.000000 0.000000 0.000000 0.000000 0.000000 0.000000 0.000000 0.000000 0.000000 0.000000 0.000000 0.000000 0.000000 0.000000 0.000000 0.000000 0.000000 0.000000 0.000000 0.000000 0.000000 0.000000 0.000000 0.000000 0.000000 0.000000 0.000000 0.000000
0.000000 0.000000 0.000000 0.000000 0.000000 0.000000 0.000000 0.000000 0.000000 0.000000 0.000000 0.000000 0.000000 0.000000 0.000000 0.000000 0.000000 0.000000 0.000000 0.000000 0.000000 0.000000 0.000000 0.000000 0.000000 0.000000 0.000000 0.000000 0.000000 0.000000 0.000000 0.000000 0.000000 0.000000 0.000000 0.000000 0.000000 0.000000 0.000000 0.000000 0.000000 0.000000 0.000000 0.000000 0.000000 0.000000 0.000000 0.000000 0.000000 0.000000 0.000000 0.000000 0.000000 0.000000 0.000000 0.000000 0.000000 0.000000 0.000000 0.000000 0.000000 0.000000 0.000000 0.000000 0.000000 0.000000 0.000000 0.000000 0.000000 0.000000 0.000000 0.000000 0.000000 0.000000 0.000000 0.000000 0.000000 0.000000 0.000000 0.000000 0.000000 0.000000 0.000000 0.000000 0.000000 0.000000 0.000000 0.000000 0.000000 0.000000 0.000000 0.000000 0.000000 0.000000 0.000000 0.000000 0.000000 0.000000 0.000000 0.000000 0.000000 0.000000 0.000000
0.000000 0.000000 0.000000 0.000000 0.000000 0.000000 0.000000 0.000000 0.000000 0.000000 0.000000 0.000000 0.000000 0.000000 0.000000 0.000000 0.000000 0.000000 0.000000 0.000000 0.000000 0.000000 0.000000 0.000000 0.000000 0.000000 0.000000 0.000000 0.000000 0.000000 0.000000 0.000000 0.000000 0.000000 0.000000 0.000000 0.000000 0.000000 0.000000 0.000000 0.000000 0.000000 0.000000 0.000000 0.000000 0.000000 0.000000 0.000000 0.000000 0.000000 0.000000 0.000000 0.000000 0.000000 0.000000 0.000000 0.000000 0.000000 0.000000 0.000000 0.000000 0.000000 0.000000 0.000000 0.000000 0.000000 0.000000 0.000000 0.000000 0.000000 0.000000 0.000000 0.000000 0.000000 0.000000 0.000000 0.000000 0.000000 0.000000 0.000000 0.000000 0.000000 0.000000 0.000000 0.000000 0.000000 0.000000 0.000000 0.000000 0.000000 0.000000 0.000000 0.000000 0.000000 0.000000 0.000000 0.000000 0.000000 0.000000 0.000000 0.000000 0.000000 0.000000
0.000000 0.000000 0.000000 0.000000 0.000000 0.000000 0.000000 0.000000 0.000000 0.000000 0.000000 0.000000 0.000000 0.000000 0.000000 0.000000 0.000000 0.000000 0.000000 0.000000 0.000000 0.000000 0.000000 0.000000 0.000000 0.000000 0.000000 0.000000 0.000000 0.000000 0.000000 0.000000 0.000000 0.000000 0.000000 0.000000 0.000000 0.000000 0.000000 0.000000 0.000000 0.000000 0.000000 0.000000 0.000000 0.000000 0.000000 0.000000 0.000000 0.000000 0.000000 0.000000 0.000000 0.000000 0.000000 0.000000 0.000000 0.000000 0.000000 0.000000 0.000000 0.000000 0.000000 0.000000 0.000000 0.000000 0.000000 0.000000 0.000000 0.000000 0.000000 0.000000 0.000000 0.000000 0.000000 0.000000 0.000000 0.000000 0.000000 0.000000 0.000000 0.000000 0.000000 0.000000 0.000000 0.000000 0.000000 0.000000 0.000000 0.000000 0.000000 0.000000 0.000000 0.000000 0.000000 0.000000 0.000000 0.000000 0.000000 0.000000 0.000000 0.000000 0.000000
0.000000 0.000000 0.000000 0.000000 0.000000 0.000000 0.000000 0.000000 0.000000 0.000000 0.000000 0.000000 0.000000 0.000000 0.000000 0.000000 0.000000 0.000000 0.000000 0.000000 0.000000 0.000000 0.000000 0.000000 29.859447 29.859447 29.859447 29.859447 29.859447 29.859447 29.859447 29.859447 29.859447 29.859447 29.859447 29.859447 29.859447 29.859447 29.859447 21.840207 21.840207 21.840207 21.840207 21.840207 21.840207 21.840207 21.840207 21.840207 21.840207 0.000000 0.000000 0.000000 0.000000 0.000000 0.000000 0.000000 0.000000 0.000000 0.000000 0.000000 0.000000 0.000000 0.000000 0.000000 0.000000 0.000000 0.000000 0.000000 0.000000 0.000000 0.000000 0.000000 0.000000 0.000000 0.000000 0.000000 22.848590 22.848590 22.848590 22.848590 22.848590 22.848590 22.848590 22.848590 22.848590 22.848590 22.848590 0.000000 0.000000 0.000000 0.000000 0.000000 0.000000 0.000000 0.000000 0.000000 0.000000 0.000000 0.000000 0.000000 0.000000 0.000000 0.000000
0.000000 0.000000 0.000000 0.000000 0.000000 0.000000 0.000000 0.000000 0.000000 0.000000 0.000000 0.000000 0.000000 0.000000 0.000000 0.000000 0.000000 0.000000 0.000000 0.000000 0.000000 0.000000 0.000000 0.000000 29.859447 29.859447 29.859447 29.859447 29.859447 29.859447 29.859447 29.859447 29.859447 29.859447 29.859447 29.859447 29.859447 29.859447 29.859447 21.840207 21.840207 21.840207 21.840207 21.840207 21.840207 21.840207 21.840207 21.840207 21.840207 0.000000 0.000000 0.000000 0.000000 0.000000 0.000000 0.000000 0.000000 0.000000 0.000000 0.000000 0.000000 0.000000 0.000000 0.000000 0.000000 0.000000 0.000000 0.000000 0.000000 0.000000 0.000000 0.000000 0.000000 0.000000 0.000000 0.000000 22.848590 22.848590 22.848590 22.848590 22.848590 22.848590 22.848590 22.848590 22.848590 22.848590 22.848590 0.000000 0.000000 0.000000 0.000000 0.000000 0.000000 0.000000 0.000000 0.000000 0.000000 0.000000 0.000000 0.000000 0.000000 0.000000 0.000000
0.000000 0.000000 0.000000 0.000000 0.000000 0.000000 0.000000 0.000000 0.000000 0.000000 0.000000 0.000000 0.000000 0.000000 0.000000 0.000000 0.000000 0.000000 0.000000 0.000000 0.000000 0.000000 0.000000 0.000000 29.859447 29.859447 29.859447 29.859447 29.859447 29.859447 29.859447 29.859447 29.859447 29.859447 29.859447 29.859447 29.859447 29.859447 29.859447 21.840207 21.840207 21.840207 21.840207 21.840207 21.840207 21.840207 21.840207 21.840207 21.840207 0.000000 0.000000 0.000000 0.000000 0.000000 0.000000 0.000000 14.573039 14.573039 14.573039 14.573039 14.573039 14.573039 14.573039 14.573039 14.573039 14.573039 14.573039 14.573039 14.573039 0.000000 0.000000 0.000000 0.000000 0.000000 0.000000 0.000000 22.848590 22.848590 22.848590 22.848590 22.848590 22.848590 22.848590 22.848590 22.848590 22.848590 22.848590 0.000000 0.000000 0.000000 0.000000 0.000000 0.000000 0.000000 4.430211 4.430211 4.430211 0.000000 0.000000 0.000000 0.000000 0.000000 0.000000
0.000000 0.000000 0.000000 0.000000 0.000000 0.000000 0.000000 0.000000 0.000000 0.000000 0.000000 0.000000 0.000000 0.000000 0.000000 0.000000 0.000000 0.000000 0.000000 0.000000 0.000000 0.000000 0.000000 0.000000 29.859447 29.859447 29.859447 29.859447 29.859447 29.859447 29.859447 29.859447 29.859447 29.859447 29.859447 29.859447 29.859447 29.859447 29.859447 21.840207 21.840207 21.840207 21.840207 21.840207 21.840207 21.840207 21.840207 21.840207 21.840207 0.000000 0.000000 0.000000 0.000000 0.000000 0.000000 0.000000 14.573039 14.573039 14.573039 14.573039 14.573039 14.573039 14.573039 14.573039 14.573039 14.573039 14.573039 14.573039 14.573039 0.000000 0.000000 0.000000 0.000000 0.000000 0.000000 0.000000 22.848590 22.848590 22.848590 22.848590 22.848590 22.848590 22.848590 22.848590 22.848590 22.848590 22.848590 0.000000 0.000000 0.000000 0.000000 0.000000 0.000000 0.000000 4.430211 4.430211 4.430211 0.000000 0.000000 0.000000 0.000000 0.000000 0.000000
0.000000 0.000000 0.000000 0.000000 0.000000 0.000000 0.000000 0.000000 0.000000 0.000000 0.000000 0.000000 0.000000 0.000000 0.000000 0.000000 0.000000 0.000000 0.000000 0.000000 0.000000 0.000000 0.000000 0.000000 29.859447 29.859447 29.859447 29.859447 29.859447 29.859447 29.859447 29.859447 29.859447 29.859447 29.859447 29.859447 29.859447 29.859447 29.859447 21.840207 21.840207 21.840207 21.840207 21.840207 21.840207 21.840207 21.840207 21.840207 21.840207 0.000000 0.000000 0.000000 0.000000 0.000000 0.000000 0.000000 14.573039 14.573039 14.573039 14.573039 14.573039 14.573039 14.573039 14.573039 14.573039 14.573039 14.573039 14.573039 14.573039 0.000000 0.000000 0.000000 0.000000 0.000000 0.000000 0.000000 22.848590 22.848590 22.848590 22.848590 22.848590 22.848590 22.848590 22.848590 22.848590 22.848590 22.848590 0.000000 0.000000 0.000000 0.000000 0.000000 0.000000 0.000000 4.430211 4.430211 4.430211 0.000000 0.000000 0.000000 0.000000 0.000000 0.000000
0.000000 0.000000 0.000000 0.000000 0.000000 0.000000 0.000000 0.000000 0.000000 0.000000 0.000000 0.000000 0.000000 0.000000 0.000000 0.000000 0.000000 0.000000 0.000000 0.000000 0.000000 0.000000 0.000000 0.000000 29.859447 29.859447 29.859447 29.859447 29.859447 29.859447 29.859447 29.859447 29.859447 29.859447 29.859447 29.859447 29.859447 29.859447 29.859447 21.840207 21.840207 21.840207 21.840207 21.840207 21.840207 21.840207 21.840207 21.840207 21.840207 0.000000 0.000000 0.000000 0.000000 0.000000 0.000000 0.000000 14.573039 14.573039 14.573039 14.573039 14.573039 14.573039 14.573039 14.573039 14.573039 14.573039 14.573039 14.573039 14.573039 0.000000 0.000000 0.000000 0.000000 0.000000 0.000000 0.000000 22.848590 22.848590 22.848590 22.848590 22.848590 22.848590 22.848590 22.848590 22.848590 22.848590 22.848590 0.000000 0.000000 0.000000 0.000000 0.000000 0.000000 0.000000 4.430211 4.430211 4.430211 0.000000 0.000000 0.000000 0.000000 0.000000 0.000000
0.000000 0.000000 0.000000 0.000000 0.000000 0.000000 0.000000 0.000000 0.000000 0.000000 0.000000 0.000000 0.000000 0.000000 0.000000 0.000000 0.000000 0.000000 0.000000 0.000000 0.000000 0.000000 0.000000 0.000000 29.859447 29.859447 29.859447 29.859447 29.859447 29.859447 29.859447 29.859447 29.859447 29.859447 29.859447 29.859447 29.859447 29.859447 29.859447 21.840207 21.840207 21.840207 21.840207 21.840207 21.840207 21.840207 21.840207 21.840207 21.840207 0.000000 0.000000 0.000000 0.000000 0.000000 0.000000 0.000000 14.573039 14.573039 14.573039 14.573039 14.573039 14.573039 14.573039 14.573039 14.573039 14.573039 14.573039 14.573039 14.573039 0.000000 0.000000 0.000000 0.000000 0.000000 0.000000 0.000000 22.848590 22.848590 22.848590 22.848590 22.848590 22.848590 22.848590 22.848590 22.848590 22.848590 22.848590 0.000000 0.000000 0.000000 0.000000 0.000000 0.000000 0.000000 4.430211 4.430211 4.430211 0.000000 0.000000 0.000000 0.000000 0.000000 0.000000
0.000000 0.000000 0.000000 0.000000 0.000000 0.000000 0.000000 0.000000 0.000000 0.000000 0.000000 0.000000 0.000000 0.000000 0.000000 0.000000 0.000000 0.000000 0.000000 0.000000 0.000000 0.000000 0.000000 0.000000 29.859447 29.859447 29.859447 29.859447 29.859447 29.859447 29.859447 29.859447 29.859447 29.859447 29.859447 29.859447 29.859447 29.859447 29.859447 21.840207 21.840207 21.840207 21.840207 21.840207 21.840207 21.840207 21.840207 21.840207 21.840207 0.000000 0.000000 0.000000 0.000000 0.000000 0.000000 0.000000 0.000000 0.000000 0.000000 0.000000 0.000000 0.000000 0.000000 0.000000 0.000000 0.000000 0.000000 0.000000 0.000000 0.000000 0.000000 0.000000 0.000000 0.000000 0.000000 0.000000 22.848590 22.848590 22.848590 22.848590 22.848590 22.848590 22.848590 22.848590 22.848590 22.848590 22.848590 0.000000 0.000000 0.000000 0.000000 0.000000 0.000000 0.000000 0.000000 0.000000 0.000000 0.000000 0.000000 0.000000 0.000000 0.000000 0.000000
0.000000 0.000000 0.000000 0.000000 0.000000 0.000000 0.000000 0.000000 0.000000 0.000000 0.000000 0.000000 0.000000 0.000000 0.000000 0.000000 0.000000 0.000000 0.000000 0.000000 0.000000 0.000000 0.000000 0.000000 29.859447 29.859447 29.859447 29.859447 29.859447 29.859447 29.859447 29.859447 29.859447 29.859447 29.859447 29.859447 29.859447 29.859447 29.859447 21.840207 21.840207 21.840207 21.840207 21.840207 21.840207 21.840207 21.840207 21.840207 21.840207 0.000000 0.000000 0.000000 0.000000 0.000000 0.000000 0.000000 0.000000 0.000000 0.000000 0.000000 0.000000 0.000000 0.000000 0.000000 0.000000 0.000000 0.000000 0.000000 0.000000 0.000000 0.000000 0.000000 0.000000 0.000000 0.000000 0.000000 22.848590 22.848590 22.848590 22.848590 22.848590 22.848590 22.848590 22.848590 22.848590 22.848590 22.848590 0.000000 0.000000 0.000000 0.000000 0.000000 0.000000 0.000000 0.000000 0.000000 0.000000 0.000000 0.000000 0.000000 0.000000 0.000000 0.000000
0.000000 0.000000 0.000000 0.000000 0.000000 0.000000 0.000000 0.000000 0.000000 0.000000 0.000000 0.000000 0.000000 0.000000 0.000000 0.000000 0.000000 0.000000 0.000000 0.000000 0.000000 0.000000 0.000000 0.000000 0.000000 0.000000 0.000000 0.000000 0.000000 0.000000 0.000000 0.000000 0.000000 0.000000 0.000000 0.000000 0.000000 0.000000 0.000000 0.000000 0.000000 0.000000 0.000000 0.000000 0.000000 0.000000 0.000000 0.000000 0.000000 0.000000 0.000000 0.000000 0.000000 0.000000 0.000000 0.000000 0.000000 0.000000 0.000000 0.000000 0.000000 0.000000 0.000000 0.000000 0.000000 0.000000 0.000000 0.000000 0.000000 0.000000 0.000000 0.000000 0.000000 0.000000 0.000000 0.000000 0.000000 0.000000 0.000000 0.000000 0.000000 0.000000 0.000000 0.000000 0.000000 0.000000 0.000000 0.000000 0.000000 0.000000 0.000000 0.000000 0.000000 0.000000 0.000000 0.000000 0.000000 0.000000 0.000000 0.000000 0.000000 0.000000 0.000000
0.000000 0.000000 0.000000 0.000000 0.000000 0.000000 0.000000 0.000000 0.000000 0.000000 0.000000 0.000000 0.000000 0.000000 0.000000 0.000000 0.000000 0.000000 0.000000 0.000000 0.000000 0.000000 0.000000 0.000000 0.000000 0.000000 0.000000 0.000000 0.000000 0.000000 0.000000 0.000000 0.000000 0.000000 0.000000 0.000000 0.000000 0.000000 0.000000 0.000000 0.000000 0.000000 0.000000 0.000000 0.000000 0.000000 0.000000 0.000000 0.000000 0.000000 0.000000 0.000000 0.000000 0.000000 0.000000 0.000000 0.000000 0.000000 0.000000 0.000000 0.000000 0.000000 0.000000 0.000000 0.000000 0.000000 0.000000 0.000000 0.000000 0.000000 0.000000 0.000000 0.000000 0.000000 0.000000 0.000000 0.000000 0.000000 0.000000 0.000000 0.000000 0.000000 0.000000 0.000000 0.000000 0.000000 0.000000 0.000000 0.000000 0.000000 0.000000 0.000000 0.000000 0.000000 0.000000 0.000000 0.000000 0.000000 0.000000 0.000000 0.000000 0.000000 0.000000
0.000000 0.000000 0.000000 0.000000 0.000000 0.000000 0.000000 0.000000 0.000000 0.000000 0.000000 0.000000 0.000000 0.000000 0.000000 0.000000 0.000000 0.000000 0.000000 0.000000 0.000000 0.000000 0.000000 0.000000 0.000000 0.000000 0.000000 0.000000 0.000000 0.000000 0.000000 0.000000 0.000000 0.000000 0.000000 0.000000 0.000000 0.000000 0.000000 0.000000 0.000000 0.000000 0.000000 0.000000 0.000000 0.000000 0.000000 0.000000 0.000000 0.000000 0.000000 0.000000 0.000000 0.000000 0.000000 0.000000 0.000000 0.000000 0.000000 0.000000 0.000000 0.000000 0.000000 0.000000 0.000000 0.000000 0.000000 0.000000 0.000000 0.000000 0.000000 0.000000 0.000000 0.000000 0.000000 0.000000 0.000000 0.000000 0.000000 0.000000 0.000000 0.000000 0.000000 0.000000 0.000000 0.000000 0.000000 0.000000 0.000000 0.000000 0.000000 0.000000 0.000000 0.000000 0.000000 0.000000 0.000000 0.000000 0.000000 0.000000 0.000000 0.000000 0.000000
0.000000 0.000000 0.000000 0.000000 0.000000 0.000000 0.000000 0.000000 0.000000 0.000000 0.000000 0.000000 0.000000 0.000000 0.000000 0.000000 0.000000 0.000000 0.000000 0.000000 0.000000 0.000000 0.000000 0.000000 0.000000 0.000000 0.000000 0.000000 0.000000 0.000000 0.000000 0.000000 0.000000 0.000000 0.000000 0.000000 0.000000 0.000000 0.000000 0.000000 0.000000 0.000000 0.000000 0.000000 0.000000 0.000000 0.000000 0.000000 0.000000 0.000000 0.000000 0.000000 0.000000 0.000000 0.000000 0.000000 0.000000 0.000000 0.000000 0.000000 0.000000 0.000000 0.000000 0.000000 0.000000 0.000000 0.000000 0.000000 0.000000 0.000000 0.000000 0.000000 0.000000 0.000000 0.000000 0.000000 0.000000 0.000000 0.000000 0.000000 0.000000 0.000000 0.000000 0.000000 0.000000 0.000000 0.000000 0.000000 0.000000 0.000000 0.000000 0.000000 0.000000 0.000000 0.000000 0.000000 0.000000 0.000000 0.000000 0.000000 0.000000 0.000000 0.000000
0.000000 0.000000 0.000000 0.000000 0.000000 0.000000 0.000000 0.000000 0.000000 0.000000 0.000000 0.000000 0.000000 0.000000 0.000000 0.000000 0.000000 0.000000 0.000000 0.000000 0.000000 0.000000 0.000000 0.000000 0.000000 0.000000 0.000000 0.000000 0.000000 0.000000 0.000000 0.000000 0.000000 0.000000 0.000000 0.000000 0.000000 0.000000 0.000000 0.000000 0.000000 0.000000 0.000000 0.000000 0.000000 0.000000 0.000000 0.000000 0.000000 0.000000 0.000000 0.000000 0.000000 0.000000 0.000000 0.000000 0.000000 0.000000 0.000000 0.000000 0.000000 0.000000 0.000000 0.000000 0.000000 0.000000 0.000000 0.000000 0.000000 0.000000 0.000000 0.000000 0.000000 0.000000 0.000000 0.000000 0.000000 0.000000 0.000000 0.000000 0.000000 0.000000 0.000000 0.000000 0.000000 0.000000 0.000000 0.000000 0.000000 0.000000 0.000000 0.000000 0.000000 0.000000 0.000000 0.000000 0.000000 0.000000 0.000000 0.000000 0.000000 0.000000 0.000000
0.000000 0.000000 0.000000 0.000000 0.000000 0.000000 0.000000 0.000000 0.000000 0.000000 0.000000 0.000000 0.000000 0.000000 0.000000 0.000000 0.000000 0.000000 0.000000 0.000000 0.000000 0.000000 0.000000 0.000000 0.000000 0.000000 0.000000 0.000000 0.000000 0.000000 0.000000 0.000000 0.000000 0.000000 0.000000 0.000000 0.000000 0.000000 0.000000 0.000000 0.000000 0.000000 0.000000 0.000000 0.000000 0.000000 0.000000 0.000000 0.000000 0.000000 0.000000 0.000000 0.000000 0.000000 0.000000 0.000000 0.000000 0.000000 0.000000 0.000000 0.000000 0.000000 0.000000 0.000000 0.000000 0.000000 0.000000 0.000000 0.000000 0.000000 0.000000 0.000000 0.000000 0.000000 0.000000 0.000000 0.000000 0.000000 0.000000 0.000000 0.000000 0.000000 0.000000 0.000000 0.000000 0.000000 0.000000 0.000000 0.000000 0.000000 0.000000 0.000000 0.000000 0.000000 0.000000 0.000000 0.000000 0.000000 0.000000 0.000000 0.000000 0.000000 0.000000
0.000000 0.000000 0.000000 0.000000 0.000000 0.000000 0.000000 0.000000 0.000000 0.000000 0.000000 0.000000 0.000000 0.000000 0.000000 0.000000 0.000000 0.000000 0.000000 0.000000 0.000000 0.000000 0.000000 0.000000 0.000000 0.000000 0.000000 0.000000 0.000000 0.000000 0.000000 0.000000 0.000000 0.000000 0.000000 0.000000 0.000000 0.000000 0.000000 0.000000 0.000000 0.000000 0.000000 0.000000 0.000000 0.000000 0.000000 0.000000 0.000000 0.000000 0.000000 0.000000 0.000000 0.000000 0.000000 0.000000 0.000000 0.000000 0.000000 0.000000 0.000000 0.000000 0.000000 0.000000 0.000000 0.000000 0.000000 0.000000 0.000000 0.000000 0.000000 0.000000 0.000000 0.000000 0.000000 0.000000 0.000000 0.000000 0.000000 0.000000 0.000000 0.000000 0.000000 0.000000 0.000000 0.000000 0.000000 0.000000 0.000000 0.000000 0.000000 0.000000 0.000000 0.000000 0.000000 0.000000 0.000000 0.000000 0.000000 0.000000 0.000000 0.000000 0.000000
0.000000 0.000000 0.000000 0.000000 0.000000 0.000000 12.854119 12.854119 12.854119 12.854119 12.854119 12.854119 12.854119 12.854119 12.854119 12.854119 12.854119 12.854119 12.854119 12.854119 12.854119 12.854119 12.854119 0.000000 0.000000 0.000000 0.000000 0.000000 0.000000 0.000000 0.000000 0.000000 0.000000 0.000000 0.000000 0.000000 0.000000 0.000000 0.000000 0.000000 0.000000 0.000000 0.000000 0.000000 0.000000 0.000000 0.000000 0.000000 0.000000 0.000000 0.000000 0.000000 0.000000 0.000000 0.000000 0.000000 9.666257 9.666257 9.666257 9.666257 9.666257 9.666257 9.666257 9.666257 9.666257 9.666257 9.666257 9.666257 9.666257 0.000000 0.000000 0.000000 0.000000 0.000000 0.000000 0.000000 0.000000 0.000000 0.000000 0.000000 0.000000 0.000000 0.000000 0.000000 0.000000 0.000000 0.000000 0.000000 0.000000 0.000000 0.000000 0.000000 0.000000 0.000000 0.000000 0.000000 0.000000 0.000000 0.000000 0.000000 0.000000 0.000000 0.000000
0.000000 0.000000 0.000000 0.000000 0.000000 0.000000 12.854119 12.854119 12.854119 12.854119 12.854119 12.854119 12.854119 12.854119 12.854119 12.854119 12.854119 12.854119 12.854119 12.854119 12.854119 12.854119 12.854119 0.000000 0.000000 0.000000 0.000000 0.000000 0.000000 0.000000 0.000000 0.000000 0.000000 0.000000 0.000000 0.000000 0.000000 0.000000 0.000000 0.000000 0.000000 0.000000 0.000000 0.000000 0.000000 0.000000 0.000000 0.000000 0.000000 0.000000 0.000000 0.000000 0.000000 0.000000 0.000000 0.000000 9.666257 9.666257 9.666257 9.666257 9.666257 9.666257 9.666257 9.666257 9.666257 9.666257 9.666257 9.666257 9.666257 0.000000 0.000000 0.000000 0.000000 0.000000 0.000000 0.000000 0.000000 0.000000 0.000000 0.000000 0.000000 0.000000 0.000000 0.000000 0.000000 0.000000 0.000000 0.000000 0.000000 0.000000 0.000000 0.000000 0.000000 0.000000 0.000000 0.000000 0.000000 0.000000 0.000000 0.000000 0.000000 0.000000 0.000000
0.000000 0.000000 0.000000 0.000000 0.000000 0.000000 12.854119 12.854119 12.854119 12.854119 12.854119 12.854119 12.854119 12.854119 12.854119 12.854119 12.854119 12.854119 12.854119 12.854119 12.854119 12.854119 12.854119 0.000000 0.000000 0.000000 0.000000 0.000000 0.000000 0.000000 0.000000 0.000000 0.000000 0.000000 0.000000 0.000000 0.000000 0.000000 0.000000 0.000000 0.000000 0.000000 0.000000 0.000000 0.000000 0.000000 0.000000 0.000000 0.000000 0.000000 0.000000 0.000000 0.000000 0.000000 0.000000 0.000000 9.666257 9.666257 9.666257 9.666257 9.666257 9.666257 9.666257 9.666257 9.666257 9.666257 9.666257 9.666257 9.666257 0.000000 0.000000 0.000000 0.000000 0.000000 0.000000 0.000000 0.000000 0.000000 0.000000 0.000000 0.000000 0.000000 0.000000 0.000000 0.000000 0.000000 0.000000 0.000000 0.000000 0.000000 0.000000 0.000000 0.000000 0.000000 0.000000 0.000000 0.000000 0.000000 0.000000 0.000000 0.000000 0.000000 0.000000
0.000000 0.000000 0.000000 0.000000 0.000000 0.000000 0.000000 0.000000 0.000000 0.000000 0.000000 0.000000 0.000000 0.000000 0.000000 0.000000 0.000000 0.000000 0.000000 0.000000 0.000000 0.000000 0.000000 0.000000 0.000000 0.000000 0.000000 0.000000 0.000000 0.000000 0.000000 0.000000 0.000000 0.000000 0.000000 0.000000 0.000000 0.000000 0.000000 0.000000 0.000000 0.000000 0.000000 0.000000 0.000000 0.000000 0.000000 0.000000 0.000000 0.000000 0.000000 0.000000 0.000000 0.000000 0.000000 0.000000 0.000000 0.000000 0.000000 0.000000 0.000000 0.000000 0.000000 0.000000 0.000000 0.000000 0.000000 0.000000 0.000000 0.000000 0.000000 0.000000 0.000000 0.000000 0.000000 0.000000 0.000000 0.000000 0.000000 0.000000 0.000000 0.000000 0.000000 0.000000 0.000000 0.000000 0.000000 0.000000 0.000000 0.000000 0.000000 0.000000 0.000000 0.000000 0.000000 0.000000 0.000000 0.000000 0.000000 0.000000 0.000000 0.000000 0.000000
0.000000 0.000000 0.000000 0.000000 0.000000 0.000000 0.000000 0.000000 0.000000 0.000000 0.000000 0.000000 0.000000 0.000000 0.000000 0.000000 0.000000 0.000000 0.000000 0.000000 0.000000 0.000000 0.000000 0.000000 0.000000 0.000000 0.000000 0.000000 0.000000 0.000000 0.000000 0.000000 0.000000 0.000000 0.000000 0.000000 0.000000 0.000000 0.000000 0.000000 0.000000 0.000000 0.000000 0.000000 0.000000 0.000000 0.000000 0.000000 0.000000 0.000000 0.000000 0.000000 0.000000 0.000000 0.000000 0.000000 0.000000 0.000000 0.000000 0.000000 0.000000 0.000000 0.000000 0.000000 0.000000 0.000000 0.000000 0.000000 0.000000 0.000000 0.000000 0.000000 0.000000 0.000000 0.000000 0.000000 0.000000 0.000000 0.000000 0.000000 0.000000 0.000000 0.000000 0.000000 0.000000 0.000000 0.000000 0.000000 0.000000 0.000000 0.000000 0.000000 0.000000 0.000000 0.000000 0.000000 0.000000 0.000000 0.000000 0.000000 0.000000 0.000000 0.000000
0.000000 0.000000 0.000000 0.000000 0.000000 0.000000 0.000000 0.000000 0.000000 0.000000 0.000000 0.000000 0.000000 0.000000 0.000000 0.000000 0.000000 0.000000 0.000000 0.000000 0.000000 0.000000 0.000000 0.000000 0.000000 0.000000 0.000000 0.000000 0.000000 0.000000 0.000000 0.000000 0.000000 0.000000 0.000000 0.000000 0.000000 0.000000 0.000000 0.000000 0.000000 0.000000 0.000000 0.000000 0.000000 0.000000 0.000000 0.000000 0.000000 0.000000 0.000000 0.000000 0.000000 0.000000 0.000000 0.000000 0.000000 0.000000 0.000000 0.000000 0.000000 0.000000 0.000000 0.000000 0.000000 0.000000 0.000000 0.000000 0.000000 0.000000 0.000000 0.000000 0.000000 0.000000 0.000000 0.000000 0.000000 0.000000 0.000000 0.000000 0.000000 0.000000 0.000000 0.000000 0.000000 0.000000 0.000000 0.000000 0.000000 0.000000 0.000000 0.000000 0.000000 0.000000 0.000000 0.000000 0.000000 0.000000 0.000000 0.000000 0.000000 0.000000 0.000000
0.000000 0.000000 0.000000 0.000000 0.000000 0.000000 0.000000 0.000000 0.000000 0.000000 0.000000 0.000000 0.000000 0.000000 0.000000 0.000000 0.000000 0.000000 0.000000 0.000000 0.000000 0.000000 0.000000 0.000000 0.000000 0.000000 0.000000 0.000000 0.000000 0.000000 0.000000 0.000000 0.000000 0.000000 0.000000 0.000000 0.000000 0.000000 0.000000 0.000000 0.000000 0.000000 0.000000 0.000000 0.000000 0.000000 0.000000 0.000000 0.000000 0.000000 0.000000 0.000000 0.000000 0.000000 0.000000 0.000000 0.000000 0.000000 0.000000 0.000000 0.000000 0.000000 0.000000 0.000000 0.000000 0.000000 0.000000 0.000000 0.000000 0.000000 0.000000 0.000000 0.000000 0.000000 0.000000 0.000000 0.000000 0.000000 0.000000 0.000000 0.000000 0.000000 0.000000 0.000000 0.000000 0.000000 0.000000 0.000000 0.000000 0.000000 0.000000 0.000000 0.000000 0.000000 0.000000 0.000000 0.000000 0.000000 0.000000 0.000000 0.000000 0.000000 0.000000
0.000000 0.000000 0.000000 0.000000 0.000000 0.000000 0.000000 0.000000 0.000000 0.000000 0.000000 0.000000 0.000000 0.000000 0.000000 0.000000 0.000000 0.000000 0.000000 0.000000 0.000000 0.000000 0.000000 0.000000 0.000000 0.000000 0.000000 0.000000 0.000000 0.000000 0.000000 0.000000 0.000000 0.000000 0.000000 0.000000 0.000000 0.000000 0.000000 0.000000 0.000000 0.000000 0.000000 0.000000 0.000000 0.000000 0.000000 0.000000 0.000000 0.000000 0.000000 0.000000 0.000000 0.000000 0.000000 0.000000 0.000000 0.000000 0.000000 0.000000 0.000000 0.000000 0.000000 0.000000 0.000000 0.000000 0.000000 0.000000 0.000000 0.000000 0.000000 0.000000 0.000000 0.000000 0.000000 0.000000 0.000000 0.000000 0.000000 0.000000 0.000000 0.000000 0.000000 0.000000 0.000000 0.000000 0.000000 0.000000 0.000000 0.000000 0.000000 0.000000 0.000000 0.000000 0.000000 0.000000 0.000000 0.000000 0.000000 0.000000 0.000000 0.000000 0.000000
0.000000 0.000000 0.000000 0.000000 0.000000 0.000000 0.000000 0.000000 0.000000 0.000000 0.000000 0.000000 0.000000 0.000000 0.000000 0.000000 0.000000 0.000000 0.000000 0.000000 0.000000 0.000000 0.000000 0.000000 0.000000 0.000000 0.000000 0.000000 0.000000 0.000000 0.000000 0.000000 0.000000 0.000000 0.000000 0.000000 0.000000 0.000000 0.000000 0.000000 0.000000 0.000000 0.000000 0.000000 0.000000 0.000000 0.000000 0.000000 0.000000 0.000000 0.000000 0.000000 0.000000 0.000000 0.000000 0.000000 0.000000 0.000000 0.000000 0.000000 0.000000 0.000000 0.000000 0.000000 0.000000 0.000000 0.000000 0.000000 0.000000 0.000000 0.000000 0.000000 0.000000 0.000000 0.000000 0.000000 0.000000 0.000000 0.000000 0.000000 0.000000 0.000000 0.000000 0.000000 0.000000 0.000000 0.000000 0.000000 0.000000 0.000000 0.000000 0.000000 0.000000 0.000000 0.000000 0.000000 0.000000 0.000000 0.000000 0.000000 0.000000 0.000000 0.000000
