0.000000 0.000000 0.000000 0.000000 0.000000 0.000000 0.000000 0.000000 0.000000 0.000000 0.000000 0.000000 0.000000 0.000000 0.000000 0.000000 0.000000 0.000000 0.000000 0.000000 0.000000 0.000000 0.000000 0.000000 0.000000 0.000000 0.000000 0.000000 0.000000 0.000000 0.000000 0.000000 0.000000 0.000000 0.000000 0.000000 0.000000 0.000000 0.000000 0.000000 0.000000 0.000000 0.000000 0.000000 0.000000 0.000000 0.000000 0.000000 0.000000 0.000000 0.000000 0.000000 0.000000 0.000000 0.000000 0.000000 0.000000 0.000000 0.000000 0.000000 0.000000 0.000000 0.000000 0.000000 0.000000 0.000000 0.000000 0.000000 0.000000 0.000000 0.000000 0.000000 0.000000 0.000000 0.000000 0.000000 0.000000 0.000000 0.000000 0.000000 0.000000 0.000000 0.000000 0.000000 0.000000 0.000000 0.000000 0.000000 0.000000 0.000000 0.000000 0.000000 0.000000 0.000000 0.000000 0.000000 0.000000 0.000000 0.000000 0.000000 0.000000 0.000000 0.000000
0.000000 0.000000 0.000000 0.000000 0.000000 0.000000 0.000000 0.000000 0.000000 0.000000 0.000000 0.000000 0.000000 0.000000 0.000000 0.000000 0.000000 0.000000 0.000000 0.000000 0.000000 0.000000 0.000000 0.000000 0.000000 0.000000 0.000000 0.000000 0.000000 0.000000 0.000000 0.000000 0.000000 0.000000 0.000000 0.000000 0.000000 0.000000 0.000000 0.000000 0.000000 0.000000 0.000000 0.000000 0.000000 0.000000 0.000000 0.000000 0.000000 0.000000 0.000000 0.000000 0.000000 0.000000 0.000000 0.000000 0.000000 0.000000 0.000000 0.000000 0.000000 0.000000 0.000000 0.000000 0.000000 0.000000 0.000000 0.000000 0.000000 0.000000 0.000000 0.000000 0.000000 0.000000 0.000000 0.000000 0.000000 0.000000 0.000000 0.000000 0.000000 0.000000 0.000000 0.000000 0.000000 0.000000 0.000000 0.000000 0.000000 0.000000 0.000000 0.000000 0.000000 0.000000 0.000000 0.000000 0.000000 0.000000 0.000000 0.000000 0.000000 0.000000 0.000000
0.000000 0.000000 0.000000 0.000000 0.000000 0.000000 0.000000 0.000000 0.000000 0.000000 0.000000 0.000000 0.000000 0.000000 0.000000 0.000000 0.000000 0.000000 0.000000 0.000000 0.000000 0.000000 0.000000 0.000000 0.000000 0.000000 0.000000 0.000000 0.000000 0.000000 0.000000 0.000000 0.000000 0.000000 0.000000 0.000000 0.000000 0.000000 0.000000 0.000000 0.000000 0.000000 0.000000 0.000000 0.000000 0.000000 0.000000 0.000000 0.000000 0.000000 0.000000 0.000000 0.000000 0.000000 0.000000 0.000000 0.000000 0.000000 0.000000 0.000000 0.000000 0.000000 0.000000 0.000000 0.000000 0.000000 0.000000 0.000000 0.000000 0.000000 0.000000 0.000000 0.000000 0.000000 0.000000 0.000000 0.000000 0.000000 0.000000 0.000000 0.000000 0.000000 0.000000 0.000000 0.000000 0.000000 0.000000 0.000000 0.000000 0.000000 0.000000 0.000000 0.000000 0.000000 0.000000 0.000000 0.000000 0.000000 0.000000 0.000000 0.000000 0.000000 0.000000
0.000000 0.000000 0.000000 0.000000 0.000000 0.000000 0.000000 0.000000 0.000000 0.000000 0.000000 0.000000 0.000000 0.000000 0.000000 0.000000 0.000000 0.000000 0.000000 0.000000 0.000000 0.000000 0.000000 0.000000 0.000000 0.000000 0.000000 0.000000 0.000000 0.000000 0.000000 0.000000 0.000000 0.000000 0.000000 0.000000 0.000000 0.000000 0.000000 0.000000 0.000000 0.000000 0.000000 0.000000 0.000000 0.000000 0.000000 0.000000 0.000000 0.000000 0.000000 0.000000 0.000000 0.000000 0.000000 0.000000 0.000000 0.000000 0.000000 0.000000 0.000000 0.000000 0.000000 0.000000 0.000000 0.000000 0.000000 0.000000 0.000000 0.000000 0.000000 0.000000 0.000000 0.000000 0.000000 0.000000 0.000000 0.000000 0.000000 0.000000 0.000000 0.000000 0.000000 0.000000 0.000000 0.000000 0.000000 0.000000 0.000000 0.000000 0.000000 0.000000 0.000000 0.000000 0.000000 0.000000 0.000000 0.000000 0.000000 0.000000 0.000000 0.000000 0.000000
0.000000 0.000000 0.000000 0.000000 0.000000 0.000000 0.000000 0.000000 0.000000 0.000000 0.000000 0.000000 0.000000 0.000000 0.000000 0.000000 0.000000 0.000000 0.000000 0.000000 0.000000 0.000000 0.000000 0.000000 0.000000 0.000000 0.000000 0.000000 0.000000 0.000000 0.000000 0.000000 0.000000 0.000000 0.000000 0.000000 0.000000 0.000000 0.000000 0.000000 0.000000 0.000000 0.000000 0.000000 0.000000 0.000000 0.000000 0.000000 0.000000 0.000000 0.000000 0.000000 0.000000 0.000000 0.000000 0.000000 0.000000 11.031778 11.031778 11.031778 11.031778 11.031778 11.031778 0.000000 0.000000 0.000000 0.000000 0.000000 0.000000 0.000000 0.000000 0.000000 0.000000 0.000000 0.000000 0.000000 0.000000 0.000000 0.000000 0.000000 0.000000 0.000000 0.000000 0.000000 0.000000 0.000000 0.000000 0.000000 0.000000 0.000000 0.000000 0.000000 0.000000 0.000000 0.000000 0.000000 0.000000 0.000000 0.000000 0.000000 0.000000 0.000000 0.000000
0.000000 0.000000 0.000000 0.000000 0.000000 0.000000 0.000000 0.000000 0.000000 0.000000 0.000000 0.000000 0.000000 0.000000 0.000000 0.000000 0.000000 0.000000 0.000000 0.000000 0.000000 0.000000 0.000000 0.000000 0.000000 0.000000 0.000000 0.000000 0.000000 0.000000 0.000000 0.000000 0.000000 0.000000 0.000000 0.000000 0.000000 0.000000 0.000000 0.000000 0.000000 0.000000 0.000000 0.000000 0.000000 0.000000 0.000000 0.000000 0.000000 0.000000 0.000000 0.000000 0.000000 0.000000 0.000000 0.000000 0.000000 11.031778 11.031778 11.031778 11.031778 11.031778 11.031778 0.000000 0.000000 0.000000 0.000000 0.000000 0.000000 0.000000 0.000000 0.000000 0.000000 0.000000 0.000000 0.000000 0.000000 0.000000 0.000000 0.000000 0.000000 0.000000 0.000000 0.000000 0.000000 0.000000 0.000000 0.000000 0.000000 0.000000 0.000000 0.000000 0.000000 0.000000 0.000000 0.000000 0.000000 0.000000 0.000000 0.000000 0.000000 0.000000 0.000000
0.000000 0.000000 0.000000 0.000000 0.000000 0.000000 0.000000 0.000000 0.000000 0.000000 0.000000 0.000000 0.000000 0.000000 0.000000 0.000000 0.000000 0.000000 0.000000 0.000000 0.000000 0.000000 0.000000 0.000000 0.000000 0.000000 0.000000 0.000000 0.000000 0.000000 0.000000 24.090524 24.090524 24.090524 24.090524 24.090524 24.090524 0.000000 0.000000 0.000000 0.000000 0.000000 0.000000 0.000000 0.000000 0.000000 0.000000 0.000000 0.000000 0.000000 0.000000 0.000000 0.000000 0.000000 0.000000 0.000000 0.000000 11.031778 11.031778 11.031778 11.031778 11.031778 11.031778 0.000000 0.000000 0.000000 0.000000 0.000000 0.000000 0.000000 27.543680 27.543680 27.543680 27.543680 27.543680 27.543680 27.543680 0.000000 0.000000 0.000000 0.000000 0.000000 0.000000 0.000000 0.000000 0.000000 0.000000 0.000000 0.000000 0.000000 0.000000 0.000000 0.000000 0.000000 0.000000 0.000000 0.000000 0.000000 0.000000 0.000000 0.000000 0.000000 0.000000
0.000000 0.000000 0.000000 0.000000 0.000000 0.000000 0.000000 0.000000 0.000000 0.000000 0.000000 0.000000 0.000000 0.000000 0.000000 0.000000 0.000000 0.000000 0.000000 0.000000 0.000000 0.000000 0.000000 0.000000 0.000000 0.000000 0.000000 0.000000 0.000000 0.000000 0.000000 24.090524 24.090524 24.090524 24.090524 24.090524 24.090524 0.000000 0.000000 0.000000 0.000000 0.000000 0.000000 0.000000 0.000000 0.000000 0.000000 0.000000 0.000000 0.000000 0.000000 0.000000 0.000000 0.000000 0.000000 0.000000 0.000000 11.031778 11.031778 11.031778 11.031778 11.031778 11.031778 0.000000 0.000000 0.000000 0.000000 0.000000 0.000000 0.000000 27.543680 27.543680 27.543680 27.543680 27.543680 27.543680 27.543680 0.000000 0.000000 0.000000 0.000000 0.000000 0.000000 0.000000 0.000000 0.000000 0.000000 0.000000 0.000000 0.000000 0.000000 0.000000 0.000000 0.000000 0.000000 0.000000 0.000000 0.000000 0.000000 0.000000 0.000000 0.000000 0.000000
0.000000 0.000000 0.000000 0.000000 0.000000 0.000000 0.000000 0.000000 0.000000 0.000000 0.000000 0.000000 0.000000 0.000000 0.000000 0.000000 0.000000 0.000000 0.000000 0.000000 0.000000 0.000000 0.000000 0.000000 0.000000 0.000000 0.000000 0.000000 0.000000 0.000000 0.000000 24.090524 24.090524 24.090524 24.090524 24.090524 24.090524 0.000000 0.000000 0.000000 0.000000 0.000000 0.000000 0.000000 0.000000 0.000000 0.000000 0.000000 0.000000 0.000000 0.000000 0.000000 0.000000 0.000000 0.000000 0.000000 0.000000 11.031778 11.031778 11.031778 11.031778 11.031778 11.031778 0.000000 0.000000 0.000000 0.000000 0.000000 0.000000 0.000000 27.543680 27.543680 27.543680 27.543680 27.543680 27.543680 27.543680 0.000000 0.000000 0.000000 0.000000 0.000000 0.000000 0.000000 0.000000 0.000000 0.000000 0.000000 0.000000 0.000000 0.000000 0.000000 0.000000 0.000000 0.000000 0.000000 0.000000 0.000000 0.000000 0.000000 0.000000 0.000000 0.000000
0.000000 0.000000 0.000000 0.000000 0.000000 0.000000 0.000000 0.000000 0.000000 0.000000 0.000000 0.000000 0.000000 0.000000 0.000000 0.000000 0.000000 0.000000 0.000000 0.000000 0.000000 0.000000 0.000000 0.000000 0.000000 0.000000 0.000000 0.000000 0.000000 0.000000 0.000000 24.090524 24.090524 24.090524 24.090524 24.090524 24.090524 0.000000 0.000000 0.000000 0.000000 0.000000 0.000000 0.000000 0.000000 0.000000 0.000000 0.000000 0.000000 0.000000 0.000000 0.000000 0.000000 0.000000 0.000000 0.000000 0.000000 11.031778 11.031778 11.031778 11.031778 11.031778 11.031778 0.000000 0.000000 0.000000 0.000000 0.000000 0.000000 0.000000 27.543680 27.543680 27.543680 27.543680 27.543680 27.543680 27.543680 0.000000 0.000000 0.000000 0.000000 0.000000 0.000000 0.000000 0.000000 0.000000 0.000000 0.000000 0.000000 0.000000 0.000000 0.000000 0.000000 0.000000 0.000000 0.000000 0.000000 0.000000 0.000000 0.000000 0.000000 0.000000 0.000000
0.000000 0.000000 0.000000 0.000000 0.000000 0.000000 0.000000 0.000000 0.000000 0.000000 0.000000 0.000000 0.000000 0.000000 0.000000 0.000000 0.000000 0.000000 0.000000 0.000000 0.000000 0.000000 0.000000 0.000000 0.000000 0.000000 0.000000 0.000000 0.000000 0.000000 0.000000 24.090524 24.090524 24.090524 24.090524 24.090524 24.090524 0.000000 0.000000 0.000000 0.000000 0.000000 0.000000 0.000000 0.000000 0.000000 0.000000 0.000000 0.000000 0.000000 0.000000 0.000000 0.000000 0.000000 0.000000 0.000000 0.000000 11.031778 11.031778 11.031778 11.031778 11.031778 11.031778 0.000000 0.000000 0.000000 0.000000 0.000000 0.000000 0.000000 27.543680 27.543680 27.543680 27.543680 27.543680 27.543680 27.543680 0.000000 0.000000 0.000000 0.000000 0.000000 0.000000 0.000000 0.000000 0.000000 0.000000 0.000000 0.000000 0.000000 0.000000 0.000000 0.000000 0.000000 0.000000 0.000000 0.000000 0.000000 0.000000 0.000000 0.000000 0.000000 0.000000
0.000000 0.000000 0.000000 0.000000 0.000000 0.000000 0.000000 0.000000 0.000000 0.000000 0.000000 0.000000 0.000000 0.000000 0.000000 0.000000 0.000000 0.000000 0.000000 0.000000 0.000000 0.000000 0.000000 0.000000 0.000000 0.000000 0.000000 0.000000 0.000000 0.000000 0.000000 24.090524 24.090524 24.090524 24.090524 24.090524 24.090524 0.000000 0.000000 0.000000 0.000000 0.000000 0.000000 0.000000 0.000000 0.000000 0.000000 0.000000 0.000000 0.000000 0.000000 0.000000 0.000000 0.000000 0.000000 0.000000 0.000000 0.000000 0.000000 0.000000 0.000000 0.000000 0.000000 0.000000 0.000000 0.000000 0.000000 0.000000 0.000000 0.000000 27.543680 27.543680 27.543680 27.543680 27.543680 27.543680 27.543680 0.000000 0.000000 0.000000 0.000000 0.000000 0.000000 0.000000 0.000000 0.000000 0.000000 0.000000 0.000000 0.000000 0.000000 0.000000 0.000000 0.000000 0.000000 0.000000 0.000000 0.000000 0.000000 0.000000 0.000000 0.000000 0.000000
0.000000 0.000000 0.000000 0.000000 0.000000 0.000000 0.000000 0.000000 0.000000 0.000000 0.000000 0.000000 0.000000 0.000000 0.000000 0.000000 0.000000 0.000000 0.000000 0.000000 0.000000 0.000000 0.000000 0.000000 0.000000 0.000000 0.000000 0.000000 0.000000 0.000000 0.000000 24.090524 24.090524 24.090524 24.090524 24.090524 24.090524 0.000000 0.000000 0.000000 0.000000 0.000000 0.000000 0.000000 0.000000 0.000000 0.000000 0.000000 0.000000 0.000000 0.000000 0.000000 0.000000 0.000000 0.000000 0.000000 0.000000 0.000000 0.000000 0.000000 0.000000 0.000000 0.000000 0.000000 0.000000 0.000000 0.000000 0.000000 0.000000 0.000000 27.543680 27.543680 27.543680 27.543680 27.543680 27.543680 27.543680 0.000000 0.000000 0.000000 0.000000 0.000000 0.000000 0.000000 0.000000 0.000000 0.000000 0.000000 0.000000 0.000000 0.000000 0.000000 0.000000 0.000000 0.000000 0.000000 0.000000 0.000000 0.000000 0.000000 0.000000 0.000000 0.000000
0.000000 0.000000 0.000000 0.000000 0.000000 0.000000 0.000000 0.000000 0.000000 0.000000 0.000000 0.000000 0.000000 0.000000 0.000000 0.000000 0.000000 0.000000 0.000000 0.000000 0.000000 0.000000 0.000000 0.000000 0.000000 0.000000 0.000000 0.000000 0.000000 0.000000 0.000000 24.090524 24.090524 24.090524 24.090524 24.090524 24.090524 0.000000 0.000000 0.000000 0.000000 0.000000 0.000000 0.000000 0.000000 0.000000 1.893503 1.893503 1.893503 0.000000 0.000000 0.000000 1.634429 1.634429 1.634429 0.000000 0.000000 0.000000 0.000000 0.000000 0.000000 0.000000 0.000000 0.000000 0.000000 0.000000 0.000000 0.000000 0.000000 0.000000 27.543680 27.543680 27.543680 27.543680 27.543680 27.543680 27.543680 0.000000 0.000000 0.000000 0.000000 0.000000 0.000000 0.000000 0.000000 0.000000 0.000000 0.000000 0.000000 0.000000 0.000000 0.000000 0.000000 0.000000 0.000000 0.000000 0.000000 0.000000 0.000000 0.000000 0.000000 0.000000 0.000000
0.000000 0.000000 0.000000 0.000000 0.000000 0.000000 0.000000 0.000000 0.000000 0.000000 0.000000 0.000000 0.000000 0.000000 0.000000 0.000000 0.000000 0.000000 0.000000 0.000000 0.000000 0.000000 0.000000 0.000000 0.000000 0.000000 0.000000 0.000000 0.000000 0.000000 0.000000 24.090524 24.090524 24.090524 24.090524 24.090524 24.090524 0.000000 0.000000 0.000000 0.000000 0.000000 0.000000 0.000000 0.000000 0.000000 1.893503 1.893503 1.893503 0.000000 0.000000 0.000000 1.634429 1.634429 1.634429 0.000000 0.000000 0.000000 0.000000 0.000000 0.000000 0.000000 0.000000 0.000000 0.000000 0.000000 0.000000 0.000000 0.000000 0.000000 27.543680 27.543680 27.543680 27.543680 27.543680 27.543680 27.543680 0.000000 0.000000 0.000000 0.000000 0.000000 0.000000 0.000000 0.000000 0.000000 0.000000 0.000000 0.000000 0.000000 0.000000 0.000000 0.000000 0.000000 0.000000 0.000000 0.000000 0.000000 0.000000 0.000000 0.000000 0.000000 0.000000
0.000000 0.000000 0.000000 0.000000 0.000000 0.000000 0.000000 0.000000 0.000000 0.000000 0.000000 0.000000 0.000000 0.000000 0.000000 0.000000 0.000000 0.000000 0.000000 0.000000 0.000000 0.000000 0.000000 0.000000 0.000000 0.000000 0.000000 0.000000 0.000000 0.000000 0.000000 24.090524 24.090524 24.090524 24.090524 24.090524 24.090524 0.000000 0.000000 0.000000 0.000000 0.000000 0.000000 0.000000 0.000000 0.000000 1.893503 1.893503 1.893503 0.000000 0.000000 0.000000 1.634429 1.634429 1.634429 0.000000 0.000000 0.000000 0.000000 0.000000 0.000000 0.000000 0.000000 0.000000 0.000000 0.000000 0.000000 0.000000 0.000000 0.000000 27.543680 27.543680 27.543680 27.543680 27.543680 27.543680 27.543680 0.000000 0.000000 0.000000 0.000000 0.000000 0.000000 0.000000 0.000000 0.000000 0.000000 0.000000 0.000000 0.000000 0.000000 0.000000 0.000000 0.000000 0.000000 0.000000 0.000000 0.000000 0.000000 0.000000 0.000000 0.000000 0.000000
0.000000 0.000000 0.000000 0.000000 0.000000 0.000000 0.000000 0.000000 0.000000 0.000000 0.000000 0.000000 0.000000 0.000000 0.000000 0.000000 0.000000 0.000000 0.000000 0.000000 0.000000 0.000000 0.000000 0.000000 0.000000 0.000000 0.000000 0.000000 0.000000 0.000000 0.000000 24.090524 24.090524 24.090524 24.090524 24.090524 24.090524 0.000000 0.000000 0.000000 0.000000 0.000000 0.000000 0.000000 0.000000 0.000000 0.000000 0.000000 0.000000 0.000000 0.000000 0.000000 0.000000 0.000000 0.000000 0.000000 0.000000 0.000000 0.000000 0.000000 0.000000 0.000000 0.000000 0.000000 0.000000 0.000000 0.000000 0.000000 0.000000 0.000000 27.543680 27.543680 27.543680 27.543680 27.543680 27.543680 27.543680 0.000000 0.000000 0.000000 0.000000 0.000000 0.000000 0.000000 0.000000 0.000000 0.000000 0.000000 0.000000 0.000000 0.000000 0.000000 0.000000 0.000000 0.000000 0.000000 0.000000 0.000000 0.000000 0.000000 0.000000 0.000000 0.000000
0.000000 0.000000 0.000000 0.000000 0.000000 0.000000 0.000000 0.000000 0.000000 0.000000 0.000000 0.000000 0.000000 0.000000 0.000000 0.000000 0.000000 0.000000 0.000000 0.000000 0.000000 0.000000 0.000000 0.000000 0.000000 0.000000 0.000000 0.000000 0.000000 0.000000 0.000000 24.090524 24.090524 24.090524 24.090524 24.090524 24.090524 0.000000 0.000000 0.000000 0.000000 0.000000 0.000000 0.000000 0.000000 0.000000 0.000000 0.000000 0.000000 0.000000 0.000000 0.000000 0.000000 0.000000 0.000000 0.000000 0.000000 9.541010 9.541010 9.541010 9.541010 9.541010 9.541010 0.000000 0.000000 0.000000 0.000000 0.000000 0.000000 0.000000 27.543680 27.543680 27.543680 27.543680 27.543680 27.543680 27.543680 0.000000 0.000000 0.000000 0.000000 0.000000 0.000000 0.000000 0.000000 0.000000 0.000000 0.000000 0.000000 0.000000 0.000000 0.000000 0.000000 0.000000 0.000000 0.000000 0.000000 0.000000 0.000000 0.000000 0.000000 0.000000 0.000000
0.000000 0.000000 0.000000 0.000000 0.000000 0.000000 0.000000 0.000000 0.000000 0.000000 0.000000 0.000000 0.000000 0.000000 0.000000 0.000000 0.000000 0.000000 0.000000 0.000000 0.000000 0.000000 0.000000 0.000000 0.000000 0.000000 0.000000 0.000000 0.000000 0.000000 0.000000 24.090524 24.090524 24.090524 24.090524 24.090524 24.090524 0.000000 0.000000 0.000000 0.000000 0.000000 0.000000 0.000000 0.000000 0.000000 0.000000 0.000000 0.000000 0.000000 0.000000 0.000000 0.000000 0.000000 0.000000 0.000000 0.000000 9.541010 9.541010 9.541010 9.541010 9.541010 9.541010 0.000000 0.000000 0.000000 0.000000 0.000000 0.000000 0.000000 27.543680 27.543680 27.543680 27.543680 27.543680 27.543680 27.543680 0.000000 0.000000 0.000000 0.000000 0.000000 0.000000 0.000000 0.000000 0.000000 0.000000 0.000000 0.000000 0.000000 0.000000 0.000000 0.000000 0.000000 0.000000 0.000000 0.000000 0.000000 0.000000 0.000000 0.000000 0.000000 0.000000
0.000000 0.000000 0.000000 0.000000 0.000000 0.000000 0.000000 0.000000 0.000000 0.000000 0.000000 0.000000 0.000000 0.000000 0.000000 0.000000 0.000000 0.000000 0.000000 0.000000 0.000000 0.000000 0.000000 0.000000 0.000000 0.000000 0.000000 0.000000 0.000000 0.000000 0.000000 24.090524 24.090524 24.090524 24.090524 24.090524 24.090524 0.000000 0.000000 0.000000 0.000000 0.000000 0.000000 0.000000 0.000000 0.000000 1.867111 1.867111 1.867111 0.000000 0.000000 0.000000 0.000000 0.000000 0.000000 0.000000 0.000000 9.541010 9.541010 9.541010 9.541010 9.541010 9.541010 0.000000 0.000000 0.000000 0.000000 0.000000 0.000000 0.000000 27.543680 27.543680 27.543680 27.543680 27.543680 27.543680 27.543680 0.000000 0.000000 0.000000 0.000000 0.000000 0.000000 0.000000 0.000000 0.000000 0.000000 0.000000 0.000000 0.000000 0.000000 0.000000 0.000000 0.000000 0.000000 0.000000 0.000000 0.000000 0.000000 0.000000 0.000000 0.000000 0.000000
0.000000 0.000000 0.000000 0.000000 0.000000 0.000000 0.000000 0.000000 0.000000 0.000000 0.000000 0.000000 0.000000 0.000000 0.000000 0.000000 0.000000 0.000000 0.000000 0.000000 0.000000 0.000000 0.000000 0.000000 0.000000 0.000000 0.000000 0.000000 0.000000 0.000000 0.000000 24.090524 24.090524 24.090524 24.090524 24.090524 24.090524 0.000000 0.000000 0.000000 0.000000 0.000000 0.000000 0.000000 0.000000 0.000000 1.867111 1.867111 1.867111 0.000000 0.000000 0.000000 0.000000 0.000000 0.000000 0.000000 0.000000 9.541010 9.541010 9.541010 9.541010 9.541010 9.541010 0.000000 0.000000 0.000000 0.000000 0.000000 0.000000 0.000000 27.543680 27.543680 27.543680 27.543680 27.543680 27.543680 27.543680 0.000000 0.000000 0.000000 0.000000 0.000000 0.000000 0.000000 0.000000 0.000000 0.000000 0.000000 0.000000 0.000000 0.000000 0.000000 0.000000 0.000000 0.000000 0.000000 0.000000 0.000000 0.000000 0.000000 0.000000 0.000000 0.000000
0.000000 0.000000 0.000000 0.000000 0.000000 0.000000 0.000000 0.000000 0.000000 0.000000 0.000000 0.000000 0.000000 0.000000 0.000000 0.000000 0.000000 0.000000 0.000000 0.000000 0.000000 0.000000 0.000000 0.000000 0.000000 0.000000 0.000000 0.000000 0.000000 0.000000 0.000000 24.090524 24.090524 24.090524 24.090524 24.090524 24.090524 0.000000 0.000000 0.000000 0.000000 0.000000 0.000000 0.000000 0.000000 0.000000 1.867111 1.867111 1.867111 0.000000 0.000000 0.000000 0.000000 0.000000 0.000000 0.000000 0.000000 9.541010 9.541010 9.541010 9.541010 9.541010 9.541010 0.000000 0.000000 0.000000 0.000000 0.000000 0.000000 0.000000 27.543680 27.543680 27.543680 27.543680 27.543680 27.543680 27.543680 0.000000 0.000000 0.000000 0.000000 0.000000 0.000000 0.000000 0.000000 0.000000 0.000000 0.000000 0.000000 0.000000 0.000000 0.000000 0.000000 0.000000 0.000000 0.000000 0.000000 0.000000 0.000000 0.000000 0.000000 0.000000 0.000000
0.000000 0.000000 0.000000 0.000000 0.000000 0.000000 0.000000 0.000000 0.000000 0.000000 0.000000 0.000000 0.000000 0.000000 0.000000 0.000000 0.000000 0.000000 0.000000 0.000000 0.000000 0.000000 0.000000 0.000000 0.000000 0.000000 0.000000 0.000000 0.000000 0.000000 0.000000 0.000000 0.000000 0.000000 0.000000 0.000000 0.000000 0.000000 0.000000 0.000000 0.000000 0.000000 0.000000 0.000000 0.000000 0.000000 0.000000 0.000000 0.000000 0.000000 0.000000 0.000000 0.000000 0.000000 0.000000 0.000000 0.000000 9.541010 9.541010 9.541010 9.541010 9.541010 9.541010 0.000000 0.000000 0.000000 0.000000 0.000000 0.000000 0.000000 0.000000 0.000000 0.000000 0.000000 0.000000 0.000000 0.000000 0.000000 0.000000 0.000000 0.000000 0.000000 0.000000 0.000000 0.000000 0.000000 0.000000 0.000000 0.000000 0.000000 0.000000 0.000000 0.000000 0.000000 0.000000 0.000000 0.000000 0.000000 0.000000 0.000000 0.000000 0.000000 0.000000
0.000000 0.000000 0.000000 0.000000 0.000000 0.000000 0.000000 0.000000 0.000000 0.000000 0.000000 0.000000 0.000000 0.000000 0.000000 0.000000 0.000000 0.000000 0.000000 0.000000 0.000000 0.000000 0.000000 0.000000 0.000000 0.000000 0.000000 0.000000 0.000000 0.000000 0.000000 0.000000 0.000000 0.000000 0.000000 0.000000 0.000000 0.000000 0.000000 0.000000 0.000000 0.000000 0.000000 0.000000 0.000000 0.000000 0.000000 0.000000 0.000000 0.000000 0.000000 0.000000 0.000000 0.000000 0.000000 0.000000 0.000000 9.541010 9.541010 9.541010 9.541010 9.541010 9.541010 0.000000 0.000000 0.000000 0.000000 0.000000 0.000000 0.000000 0.000000 0.000000 0.000000 0.000000 0.000000 0.000000 0.000000 0.000000 0.000000 0.000000 0.000000 0.000000 0.000000 0.000000 0.000000 0.000000 0.000000 0.000000 0.000000 0.000000 0.000000 0.000000 0.000000 0.000000 0.000000 0.000000 0.000000 0.000000 0.000000 0.000000 0.000000 0.000000 0.000000
0.000000 0.000000 0.000000 0.000000 0.000000 0.000000 0.000000 0.000000 0.000000 0.000000 0.000000 0.000000 0.000000 0.000000 0.000000 0.000000 0.000000 0.000000 0.000000 0.000000 0.000000 0.000000 0.000000 0.000000 0.000000 0.000000 0.000000 0.000000 0.000000 0.000000 0.000000 0.000000 0.000000 0.000000 0.000000 0.000000 0.000000 0.000000 0.000000 0.000000 0.000000 0.000000 0.000000 0.000000 0.000000 0.000000 0.000000 0.000000 0.000000 0.000000 0.000000 0.000000 0.000000 0.000000 0.000000 0.000000 0.000000 0.000000 0.000000 0.000000 0.000000 0.000000 0.000000 0.000000 0.000000 0.000000 0.000000 0.000000 0.000000 0.000000 0.000000 0.000000 0.000000 0.000000 0.000000 0.000000 0.000000 0.000000 0.000000 0.000000 0.000000 0.000000 0.000000 0.000000 0.000000 0.000000 0.000000 0.000000 0.000000 0.000000 0.000000 0.000000 0.000000 0.000000 0.000000 0.000000 0.000000 0.000000 0.000000 0.000000 0.000000 0.000000 0.000000
0.000000 0.000000 0.000000 0.000000 0.000000 0.000000 0.000000 0.000000 0.000000 0.000000 0.000000 0.000000 0.000000 0.000000 0.000000 0.000000 0.000000 0.000000 0.000000 0.000000 0.000000 0.000000 0.000000 0.000000 0.000000 0.000000 0.000000 0.000000 0.000000 0.000000 0.000000 0.000000 0.000000 0.000000 0.000000 0.000000 0.000000 0.000000 0.000000 0.000000 0.000000 0.000000 0.000000 0.000000 0.000000 0.000000 0.000000 0.000000 0.000000 0.000000 0.000000 0.000000 0.000000 0.000000 0.000000 0.000000 0.000000 0.000000 0.000000 0.000000 0.000000 0.000000 0.000000 0.000000 0.000000 0.000000 0.000000 0.000000 0.000000 0.000000 0.000000 0.000000 0.000000 0.000000 0.000000 0.000000 0.000000 0.000000 0.000000 0.000000 0.000000 0.000000 0.000000 0.000000 0.000000 0.000000 0.000000 0.000000 0.000000 0.000000 0.000000 0.000000 0.000000 0.000000 0.000000 0.000000 0.000000 0.000000 0.000000 0.000000 0.000000 0.000000 0.000000
0.000000 0.000000 0.000000 0.000000 0.000000 0.000000 0.000000 0.000000 0.000000 0.000000 0.000000 0.000000 0.000000 0.000000 0.000000 0.000000 0.000000 0.000000 0.000000 0.000000 0.000000 0.000000 0.000000 0.000000 0.000000 0.000000 0.000000 0.000000 0.000000 0.000000 0.000000 0.000000 0.000000 0.000000 0.000000 0.000000 0.000000 0.000000 0.000000 0.000000 0.000000 0.000000 0.000000 0.000000 0.000000 0.000000 0.000000 0.000000 0.000000 0.000000 0.000000 0.000000 0.000000 0.000000 0.000000 0.000000 0.000000 0.000000 0.000000 0.000000 0.000000 0.000000 0.000000 0.000000 0.000000 0.000000 0.000000 0.000000 0.000000 0.000000 0.000000 0.000000 0.000000 0.000000 0.000000 0.000000 0.000000 0.000000 0.000000 0.000000 0.000000 0.000000 0.000000 0.000000 0.000000 0.000000 0.000000 0.000000 0.000000 0.000000 0.000000 0.000000 0.000000 0.000000 0.000000 0.000000 0.000000 0.000000 0.000000 0.000000 0.000000 0.000000 0.000000
0.000000 0.000000 0.000000 0.000000 0.000000 0.000000 0.000000 0.000000 0.000000 0.000000 0.000000 0.000000 0.000000 0.000000 0.000000 0.000000 0.000000 0.000000 0.000000 0.000000 0.000000 0.000000 0.000000 0.000000 0.000000 0.000000 0.000000 0.000000 0.000000 0.000000 0.000000 0.000000 0.000000 0.000000 0.000000 0.000000 0.000000 0.000000 0.000000 0.000000 0.000000 0.000000 0.000000 0.000000 0.000000 0.000000 0.000000 0.000000 0.000000 0.000000 0.000000 0.000000 0.000000 0.000000 0.000000 0.000000 0.000000 0.000000 0.000000 0.000000 0.000000 0.000000 0.000000 0.000000 0.000000 0.000000 0.000000 0.000000 0.000000 0.000000 0.000000 0.000000 0.000000 0.000000 0.000000 0.000000 0.000000 0.000000 0.000000 0.000000 0.000000 0.000000 0.000000 0.000000 0.000000 0.000000 0.000000 0.000000 0.000000 0.000000 0.000000 0.000000 0.000000 0.000000 0.000000 0.000000 0.000000 0.000000 0.000000 0.000000 0.000000 0.000000 0.000000
0.000000 0.000000 0.000000 0.000000 0.000000 0.000000 0.000000 0.000000 0.000000 0.000000 0.000000 0.000000 0.000000 0.000000 0.000000 0.000000 0.000000 0.000000 0.000000 0.000000 0.000000 0.000000 0.000000 0.000000 0.000000 0.000000 0.000000 0.000000 0.000000 0.000000 0.000000 0.000000 0.000000 0.000000 0.000000 0.000000 0.000000 0.000000 0.000000 0.000000 0.000000 0.000000 0.000000 0.000000 0.000000 0.000000 0.000000 0.000000 0.000000 0.000000 0.000000 0.000000 0.000000 0.000000 0.000000 0.000000 0.000000 0.000000 0.000000 0.000000 0.000000 0.000000 0.000000 0.000000 0.000000 0.000000 0.000000 0.000000 0.000000 0.000000 0.000000 0.000000 0.000000 0.000000 0.000000 0.000000 0.000000 0.000000 0.000000 0.000000 0.000000 0.000000 0.000000 0.000000 0.000000 0.000000 0.000000 0.000000 0.000000 0.000000 0.000000 0.000000 0.000000 0.000000 0.000000 0.000000 0.000000 0.000000 0.000000 0.000000 0.000000 0.000000 0.000000
0.000000 0.000000 0.000000 0.000000 20.302368 20.302368 20.302368 20.302368 20.302368 20.302368 20.302368 20.302368 20.302368 20.302368 20.302368 20.302368 20.302368 11.105752 11.105752 11.105752 11.105752 11.105752 11.105752 11.105752 22.638562 22.638562 22.638562 22.638562 22.638562 22.638562 22.638562 22.638562 22.638562 22.638562 22.638562 22.638562 22.638562 22.638562 22.638562 0.000000 0.000000 0.000000 0.000000 0.000000 10.337068 10.337068 10.337068 10.337068 10.337068 10.337068 0.000000 0.000000 0.000000 0.000000 0.000000 0.000000 0.000000 10.191813 10.191813 10.191813 10.191813 10.191813 10.191813 0.000000 0.000000 0.000000 0.000000 0.000000 0.000000 0.000000 0.000000 0.000000 0.000000 0.000000 0.000000 0.000000 0.000000 0.000000 0.000000 0.000000 0.000000 0.000000 0.000000 0.000000 12.635997 12.635997 12.635997 12.635997 12.635997 12.635997 12.635997 12.635997 10.969364 10.969364 10.969364 10.969364 10.969364 10.969364 10.969364 0.000000 0.000000 0.000000 0.000000
0.000000 0.000000 0.000000 0.000000 20.302368 20.302368 20.302368 20.302368 20.302368 20.302368 20.302368 20.302368 20.302368 20.302368 20.302368 20.302368 20.302368 11.105752 11.105752 11.105752 11.105752 11.105752 11.105752 11.105752 22.638562 22.638562 22.638562 22.638562 22.638562 22.638562 22.638562 22.638562 22.638562 22.638562 22.638562 22.638562 22.638562 22.638562 22.638562 0.000000 0.000000 0.000000 0.000000 0.000000 10.337068 10.337068 10.337068 10.337068 10.337068 10.337068 0.000000 0.000000 0.000000 0.000000 0.000000 0.000000 0.000000 10.191813 10.191813 10.191813 10.191813 10.191813 10.191813 0.000000 0.000000 0.000000 0.000000 0.000000 0.000000 0.000000 0.000000 0.000000 0.000000 0.000000 0.000000 0.000000 0.000000 0.000000 0.000000 0.000000 0.000000 0.000000 0.000000 0.000000 12.635997 12.635997 12.635997 12.635997 12.635997 12.635997 12.635997 12.635997 10.969364 10.969364 10.969364 10.969364 10.969364 10.969364 10.969364 0.000000 0.000000 0.000000 0.000000
0.000000 0.000000 0.000000 0.000000 20.302368 20.302368 20.302368 20.302368 20.302368 20.302368 20.302368 20.302368 20.302368 20.302368 20.302368 20.302368 20.302368 11.105752 11.105752 11.105752 11.105752 11.105752 11.105752 11.105752 22.638562 22.638562 22.638562 22.638562 22.638562 22.638562 22.638562 22.638562 22.638562 22.638562 22.638562 22.638562 22.638562 22.638562 22.638562 0.000000 0.000000 0.000000 0.000000 0.000000 10.337068 10.337068 10.337068 10.337068 10.337068 10.337068 0.000000 0.000000 0.000000 0.000000 0.000000 0.000000 0.000000 10.191813 10.191813 10.191813 10.191813 10.191813 10.191813 0.000000 0.000000 0.000000 0.000000 0.000000 0.000000 0.000000 0.000000 0.000000 0.000000 0.000000 0.000000 0.000000 0.000000 0.000000 0.000000 0.000000 0.000000 0.000000 0.000000 0.000000 12.635997 12.635997 12.635997 12.635997 12.635997 12.635997 12.635997 12.635997 10.969364 10.969364 10.969364 10.969364 10.969364 10.969364 10.969364 0.000000 0.000000 0.000000 0.000000
0.000000 0.000000 0.000000 0.000000 20.302368 20.302368 20.302368 20.302368 20.302368 20.302368 20.302368 20.302368 20.302368 20.302368 20.302368 20.302368 20.302368 11.105752 11.105752 11.105752 11.105752 11.105752 11.105752 11.105752 22.638562 22.638562 22.638562 22.638562 22.638562 22.638562 22.638562 22.638562 22.638562 22.638562 22.638562 22.638562 22.638562 22.638562 22.638562 0.000000 0.000000 0.000000 0.000000 0.000000 10.337068 10.337068 10.337068 10.337068 10.337068 10.337068 0.000000 0.000000 0.000000 0.000000 0.000000 0.000000 0.000000 10.191813 10.191813 10.191813 10.191813 10.191813 10.191813 0.000000 0.000000 0.000000 0.000000 0.000000 0.000000 0.000000 0.000000 0.000000 0.000000 0.000000 0.000000 0.000000 0.000000 0.000000 0.000000 0.000000 0.000000 0.000000 0.000000 0.000000 12.635997 12.635997 12.635997 12.635997 12.635997 12.635997 12.635997 12.635997 10.969364 10.969364 10.969364 10.969364 10.969364 10.969364 10.969364 0.000000 0.000000 0.000000 0.000000
0.000000 0.000000 0.000000 0.000000 20.302368 20.302368 20.302368 20.302368 20.302368 20.302368 20.302368 20.302368 20.302368 20.302368 20.302368 20.302368 20.302368 11.105752 11.105752 11.105752 11.105752 11.105752 11.105752 11.105752 22.638562 22.638562 22.638562 22.638562 22.638562 22.638562 22.638562 22.638562 22.638562 22.638562 22.638562 22.638562 22.638562 22.638562 22.638562 0.000000 0.000000 0.000000 0.000000 0.000000 10.337068 10.337068 10.337068 10.337068 10.337068 10.337068 0.000000 0.000000 0.000000 0.000000 0.000000 0.000000 0.000000 10.191813 10.191813 10.191813 10.191813 10.191813 10.191813 0.000000 0.000000 0.000000 0.000000 0.000000 0.000000 0.000000 0.000000 0.000000 0.000000 0.000000 0.000000 0.000000 0.000000 0.000000 0.000000 0.000000 0.000000 0.000000 0.000000 0.000000 12.635997 12.635997 12.635997 12.635997 12.635997 12.635997 12.635997 12.635997 10.969364 10.969364 10.969364 10.969364 10.969364 10.969364 10.969364 0.000000 0.000000 0.000000 0.000000
0.000000 0.000000 0.000000 0.000000 20.302368 20.302368 20.302368 20.302368 20.302368 20.302368 20.302368 20.302368 20.302368 20.302368 20.302368 20.302368 20.302368 11.105752 11.105752 11.105752 11.105752 11.105752 11.105752 11.105752 22.638562 22.638562 22.638562 22.638562 22.638562 22.638562 22.638562 22.638562 22.638562 22.638562 22.638562 22.638562 22.638562 22.638562 22.638562 0.000000 0.000000 0.000000 0.000000 0.000000 10.337068 10.337068 10.337068 10.337068 10.337068 10.337068 0.000000 0.000000 0.000000 0.000000 0.000000 0.000000 0.000000 10.191813 10.191813 10.191813 10.191813 10.191813 10.191813 0.000000 0.000000 0.000000 0.000000 0.000000 0.000000 0.000000 0.000000 0.000000 0.000000 0.000000 0.000000 0.000000 0.000000 0.000000 0.000000 0.000000 0.000000 0.000000 0.000000 0.000000 12.635997 12.635997 12.635997 12.635997 12.635997 12.635997 12.635997 12.635997 10.969364 10.969364 10.969364 10.969364 10.969364 10.969364 10.969364 0.000000 0.000000 0.000000 0.000000
0.000000 0.000000 0.000000 0.000000 0.000000 0.000000 0.000000 0.000000 0.000000 0.000000 0.000000 0.000000 0.000000 0.000000 0.000000 0.000000 0.000000 0.000000 0.000000 0.000000 0.000000 0.000000 0.000000 0.000000 0.000000 0.000000 0.000000 0.000000 0.000000 0.000000 0.000000 0.000000 0.000000 0.000000 0.000000 0.000000 0.000000 0.000000 0.000000 0.000000 0.000000 0.000000 0.000000 0.000000 0.000000 0.000000 0.000000 0.000000 0.000000 0.000000 0.000000 0.000000 0.000000 0.000000 0.000000 0.000000 0.000000 0.000000 0.000000 0.000000 0.000000 0.000000 0.000000 0.000000 0.000000 0.000000 0.000000 0.000000 0.000000 0.000000 0.000000 0.000000 0.000000 0.000000 0.000000 0.000000 0.000000 0.000000 0.000000 0.000000 0.000000 0.000000 0.000000 0.000000 0.000000 0.000000 0.000000 0.000000 0.000000 0.000000 0.000000 0.000000 0.000000 0.000000 0.000000 0.000000 0.000000 0.000000 0.000000 0.000000 0.000000 0.000000 0.000000
0.000000 0.000000 0.000000 0.000000 0.000000 0.000000 0.000000 0.000000 0.000000 0.000000 0.000000 0.000000 0.000000 0.000000 0.000000 0.000000 0.000000 0.000000 0.000000 0.000000 0.000000 0.000000 0.000000 0.000000 0.000000 0.000000 0.000000 0.000000 0.000000 0.000000 0.000000 0.000000 0.000000 0.000000 0.000000 0.000000 0.000000 0.000000 0.000000 0.000000 0.000000 0.000000 0.000000 0.000000 0.000000 0.000000 0.000000 0.000000 0.000000 0.000000 0.000000 0.000000 0.000000 0.000000 0.000000 0.000000 0.000000 0.000000 0.000000 0.000000 0.000000 0.000000 0.000000 0.000000 0.000000 0.000000 0.000000 0.000000 0.000000 0.000000 0.000000 0.000000 0.000000 0.000000 0.000000 0.000000 0.000000 0.000000 0.000000 0.000000 0.000000 0.000000 0.000000 0.000000 0.000000 0.000000 0.000000 0.000000 0.000000 0.000000 0.000000 0.000000 0.000000 0.000000 0.000000 0.000000 0.000000 0.000000 0.000000 0.000000 0.000000 0.000000 0.000000
0.000000 0.000000 0.000000 0.000000 0.000000 0.000000 0.000000 0.000000 0.000000 0.000000 0.000000 0.000000 0.000000 0.000000 0.000000 0.000000 0.000000 0.000000 0.000000 0.000000 0.000000 0.000000 0.000000 0.000000 0.000000 0.000000 0.000000 0.000000 0.000000 0.000000 0.000000 0.000000 0.000000 0.000000 0.000000 0.000000 0.000000 0.000000 0.000000 0.000000 0.000000 0.000000 0.000000 0.000000 0.000000 0.000000 0.000000 0.000000 0.000000 0.000000 0.000000 0.000000 0.000000 0.000000 0.000000 0.000000 0.000000 0.000000 0.000000 0.000000 0.000000 0.000000 0.000000 0.000000 0.000000 0.000000 0.000000 0.000000 0.000000 0.000000 0.000000 0.000000 0.000000 0.000000 0.000000 0.000000 0.000000 0.000000 0.000000 0.000000 0.000000 0.000000 0.000000 0.000000 0.000000 0.000000 0.000000 0.000000 0.000000 0.000000 0.000000 0.000000 0.000000 0.000000 0.000000 0.000000 0.000000 0.000000 0.000000 0.000000 0.000000 0.000000 0.000000
0.000000 0.000000 0.000000 0.000000 0.000000 0.000000 0.000000 0.000000 0.000000 0.000000 0.000000 0.000000 0.000000 0.000000 0.000000 0.000000 0.000000 0.000000 0.000000 0.000000 0.000000 0.000000 0.000000 0.000000 0.000000 0.000000 0.000000 0.000000 0.000000 0.000000 0.000000 0.000000 0.000000 0.000000 0.000000 0.000000 0.000000 0.000000 0.000000 0.000000 0.000000 0.000000 0.000000 0.000000 0.000000 0.000000 0.000000 0.000000 0.000000 0.000000 0.000000 0.000000 0.000000 0.000000 0.000000 0.000000 0.000000 0.000000 0.000000 0.000000 0.000000 0.000000 0.000000 0.000000 0.000000 0.000000 0.000000 0.000000 0.000000 0.000000 0.000000 0.000000 0.000000 0.000000 0.000000 0.000000 0.000000 0.000000 0.000000 0.000000 0.000000 0.000000 0.000000 0.000000 0.000000 0.000000 0.000000 0.000000 0.000000 0.000000 0.000000 0.000000 0.000000 0.000000 0.000000 0.000000 0.000000 0.000000 0.000000 0.000000 0.000000 0.000000 0.000000
0.000000 0.000000 0.000000 0.000000 0.000000 0.000000 0.000000 0.000000 0.000000 0.000000 0.000000 0.000000 0.000000 0.000000 0.000000 0.000000 0.000000 0.000000 0.000000 0.000000 0.000000 0.000000 0.000000 0.000000 0.000000 0.000000 0.000000 0.000000 0.000000 0.000000 0.000000 0.000000 0.000000 0.000000 0.000000 0.000000 0.000000 0.000000 0.000000 0.000000 0.000000 0.000000 0.000000 0.000000 0.000000 0.000000 0.000000 0.000000 0.000000 0.000000 0.000000 0.000000 0.000000 0.000000 0.000000 0.000000 0.000000 0.000000 0.000000 0.000000 0.000000 0.000000 0.000000 0.000000 0.000000 0.000000 0.000000 0.000000 0.000000 0.000000 0.000000 0.000000 0.000000 0.000000 0.000000 0.000000 0.000000 0.000000 0.000000 0.000000 0.000000 0.000000 0.000000 0.000000 0.000000 0.000000 0.000000 0.000000 0.000000 0.000000 0.000000 0.000000 0.000000 0.000000 0.000000 0.000000 0.000000 0.000000 0.000000 0.000000 0.000000 0.000000 0.000000
0.000000 0.000000 0.000000 0.000000 0.000000 0.000000 0.000000 0.000000 0.000000 0.000000 0.000000 0.000000 0.000000 0.000000 0.000000 0.000000 0.000000 0.000000 0.000000 0.000000 0.000000 0.000000 0.000000 0.000000 0.000000 0.000000 0.000000 0.000000 0.000000 0.000000 0.000000 0.000000 0.000000 0.000000 0.000000 0.000000 0.000000 0.000000 0.000000 0.000000 0.000000 0.000000 0.000000 0.000000 12.244139 12.244139 12.244139 12.244139 12.244139 12.244139 12.244139 12.244139 17.329766 17.329766 17.329766 17.329766 17.329766 17.329766 17.329766 17.329766 17.329766 17.329766 17.329766 0.000000 0.000000 0.000000 0.000000 0.000000 0.000000 0.000000 0.000000 0.000000 0.000000 0.000000 0.000000 0.000000 0.000000 0.000000 0.000000 0.000000 0.000000 0.000000 0.000000 0.000000 10.509236 10.509236 10.509236 10.509236 10.509236 10.509236 10.509236 12.438190 12.438190 12.438190 12.438190 12.438190 12.438190 12.438190 12.438190 0.000000 0.000000 0.000000 0.000000
0.000000 0.000000 0.000000 0.000000 0.000000 0.000000 0.000000 0.000000 0.000000 0.000000 0.000000 0.000000 0.000000 0.000000 0.000000 0.000000 0.000000 0.000000 0.000000 0.000000 0.000000 0.000000 0.000000 0.000000 0.000000 0.000000 0.000000 0.000000 0.000000 0.000000 0.000000 0.000000 0.000000 0.000000 0.000000 0.000000 0.000000 0.000000 0.000000 0.000000 0.000000 0.000000 0.000000 0.000000 12.244139 12.244139 12.244139 12.244139 12.244139 12.244139 12.244139 12.244139 17.329766 17.329766 17.329766 17.329766 17.329766 17.329766 17.329766 17.329766 17.329766 17.329766 17.329766 0.000000 0.000000 0.000000 0.000000 0.000000 0.000000 0.000000 0.000000 0.000000 0.000000 0.000000 0.000000 0.000000 0.000000 0.000000 0.000000 0.000000 0.000000 0.000000 0.000000 0.000000 10.509236 10.509236 10.509236 10.509236 10.509236 10.509236 10.509236 12.438190 12.438190 12.438190 12.438190 12.438190 12.438190 12.438190 12.438190 0.000000 0.000000 0.000000 0.000000
0.000000 0.000000 0.000000 0.000000 0.000000 0.000000 34.756691 34.756691 34.756691 34.756691 34.756691 34.756691 34.756691 34.756691 34.756691 34.756691 34.756691 34.756691 34.756691 34.756691 0.000000 0.000000 0.000000 0.000000 32.147123 32.147123 32.147123 32.147123 32.147123 32.147123 32.147123 32.147123 32.147123 32.147123 32.147123 32.147123 32.147123 0.000000 0.000000 0.000000 0.000000 0.000000 0.000000 0.000000 12.244139 12.244139 12.244139 12.244139 12.244139 12.244139 12.244139 12.244139 17.329766 17.329766 17.329766 17.329766 17.329766 17.329766 17.329766 17.329766 17.329766 17.329766 17.329766 0.000000 0.000000 0.000000 0.000000 0.000000 0.000000 0.000000 0.000000 0.000000 0.000000 0.000000 0.000000 0.000000 0.000000 0.000000 0.000000 0.000000 0.000000 0.000000 0.000000 0.000000 10.509236 10.509236 10.509236 10.509236 10.509236 10.509236 10.509236 12.438190 12.438190 12.438190 12.438190 12.438190 12.438190 12.438190 12.438190 0.000000 0.000000 0.000000 0.000000
0.000000 0.000000 0.000000 0.000000 0.000000 0.000000 34.756691 34.756691 34.756691 34.756691 34.756691 34.756691 34.756691 34.756691 34.756691 34.756691 34.756691 34.756691 34.756691 34.756691 0.000000 0.000000 0.000000 0.000000 32.147123 32.147123 32.147123 32.147123 32.147123 32.147123 32.147123 32.147123 32.147123 32.147123 32.147123 32.147123 32.147123 0.000000 0.000000 0.000000 0.000000 0.000000 0.000000 0.000000 12.244139 12.244139 12.244139 12.244139 12.244139 12.244139 12.244139 12.244139 17.329766 17.329766 17.329766 17.329766 17.329766 17.329766 17.329766 17.329766 17.329766 17.329766 17.329766 0.000000 0.000000 0.000000 0.000000 0.000000 0.000000 0.000000 0.000000 0.000000 0.000000 0.000000 0.000000 0.000000 0.000000 0.000000 0.000000 0.000000 0.000000 0.000000 0.000000 0.000000 10.509236 10.509236 10.509236 10.509236 10.509236 10.509236 10.509236 12.438190 12.438190 12.438190 12.438190 12.438190 12.438190 12.438190 12.438190 0.000000 0.000000 0.000000 0.000000
0.000000 0.000000 0.000000 0.000000 0.000000 0.000000 34.756691 34.756691 34.756691 34.756691 34.756691 34.756691 34.756691 34.756691 34.756691 34.756691 34.756691 34.756691 34.756691 34.756691 0.000000 0.000000 0.000000 0.000000 32.147123 32.147123 32.147123 32.147123 32.147123 32.147123 32.147123 32.147123 32.147123 32.147123 32.147123 32.147123 32.147123 0.000000 0.000000 0.000000 0.000000 0.000000 0.000000 0.000000 12.244139 12.244139 12.244139 12.244139 12.244139 12.244139 12.244139 12.244139 17.329766 17.329766 17.329766 17.329766 17.329766 17.329766 17.329766 17.329766 17.329766 17.329766 17.329766 0.000000 0.000000 0.000000 0.000000 0.000000 0.000000 0.000000 0.000000 0.000000 0.000000 0.000000 0.000000 0.000000 0.000000 0.000000 0.000000 0.000000 0.000000 0.000000 0.000000 0.000000 10.509236 10.509236 10.509236 10.509236 10.509236 10.509236 10.509236 12.438190 12.438190 12.438190 12.438190 12.438190 12.438190 12.438190 12.438190 0.000000 0.000000 0.000000 0.000000
0.000000 0.000000 0.000000 0.000000 0.000000 0.000000 34.756691 34.756691 34.756691 34.756691 34.756691 34.756691 34.756691 34.756691 34.756691 34.756691 34.756691 34.756691 34.756691 34.756691 0.000000 0.000000 0.000000 0.000000 32.147123 32.147123 32.147123 32.147123 32.147123 32.147123 32.147123 32.147123 32.147123 32.147123 32.147123 32.147123 32.147123 0.000000 0.000000 0.000000 0.000000 0.000000 0.000000 0.000000 12.244139 12.244139 12.244139 12.244139 12.244139 12.244139 12.244139 12.244139 17.329766 17.329766 17.329766 17.329766 17.329766 17.329766 17.329766 17.329766 17.329766 17.329766 17.329766 0.000000 0.000000 0.000000 0.000000 0.000000 0.000000 0.000000 0.000000 0.000000 0.000000 0.000000 0.000000 0.000000 0.000000 0.000000 0.000000 0.000000 0.000000 0.000000 0.000000 0.000000 10.509236 10.509236 10.509236 10.509236 10.509236 10.509236 10.509236 12.438190 12.438190 12.438190 12.438190 12.438190 12.438190 12.438190 12.438190 0.000000 0.000000 0.000000 0.000000
0.000000 0.000000 0.000000 0.000000 0.000000 0.000000 34.756691 34.756691 34.756691 34.756691 34.756691 34.756691 34.756691 34.756691 34.756691 34.756691 34.756691 34.756691 34.756691 34.756691 0.000000 0.000000 0.000000 0.000000 32.147123 32.147123 32.147123 32.147123 32.147123 32.147123 32.147123 32.147123 32.147123 32.147123 32.147123 32.147123 32.147123 0.000000 0.000000 0.000000 0.000000 0.000000 0.000000 0.000000 0.000000 0.000000 0.000000 0.000000 0.000000 0.000000 0.000000 0.000000 21.651192 21.651192 21.651192 21.651192 21.651192 21.651192 21.651192 21.651192 21.651192 21.651192 21.651192 0.000000 0.000000 0.000000 0.000000 0.000000 0.000000 0.000000 0.000000 0.000000 0.000000 0.000000 0.000000 0.000000 0.000000 0.000000 0.000000 0.000000 0.000000 0.000000 0.000000 0.000000 10.509236 10.509236 10.509236 10.509236 10.509236 10.509236 10.509236 12.438190 12.438190 12.438190 12.438190 12.438190 12.438190 12.438190 12.438190 0.000000 0.000000 0.000000 0.000000
0.000000 0.000000 0.000000 0.000000 0.000000 0.000000 34.756691 34.756691 34.756691 34.756691 34.756691 34.756691 34.756691 34.756691 34.756691 34.756691 34.756691 34.756691 34.756691 34.756691 0.000000 0.000000 0.000000 0.000000 32.147123 32.147123 32.147123 32.147123 32.147123 32.147123 32.147123 32.147123 32.147123 32.147123 32.147123 32.147123 32.147123 0.000000 0.000000 0.000000 0.000000 0.000000 0.000000 0.000000 0.000000 0.000000 0.000000 0.000000 0.000000 0.000000 0.000000 0.000000 21.651192 21.651192 21.651192 21.651192 21.651192 21.651192 21.651192 21.651192 21.651192 21.651192 21.651192 0.000000 0.000000 0.000000 0.000000 0.000000 0.000000 0.000000 0.000000 0.000000 0.000000 0.000000 0.000000 0.000000 0.000000 0.000000 0.000000 0.000000 0.000000 0.000000 0.000000 0.000000 12.797333 12.797333 12.797333 12.797333 12.797333 12.797333 12.797333 15.146264 15.146264 15.146264 15.146264 15.146264 15.146264 15.146264 15.146264 0.000000 0.000000 0.000000 0.000000
0.000000 0.000000 0.000000 0.000000 0.000000 0.000000 34.756691 34.756691 34.756691 34.756691 34.756691 34.756691 34.756691 34.756691 34.756691 34.756691 34.756691 34.756691 34.756691 34.756691 0.000000 0.000000 0.000000 0.000000 32.147123 32.147123 32.147123 32.147123 32.147123 32.147123 32.147123 32.147123 32.147123 32.147123 32.147123 32.147123 32.147123 0.000000 0.000000 0.000000 0.000000 0.000000 0.000000 0.000000 0.000000 0.000000 0.000000 0.000000 0.000000 0.000000 0.000000 0.000000 21.651192 21.651192 21.651192 21.651192 21.651192 21.651192 21.651192 21.651192 21.651192 21.651192 21.651192 0.000000 0.000000 0.000000 0.000000 0.000000 0.000000 0.000000 0.000000 0.000000 0.000000 0.000000 0.000000 0.000000 0.000000 0.000000 0.000000 0.000000 0.000000 0.000000 0.000000 0.000000 12.797333 12.797333 12.797333 12.797333 12.797333 12.797333 12.797333 15.146264 15.146264 15.146264 15.146264 15.146264 15.146264 15.146264 15.146264 0.000000 0.000000 0.000000 0.000000
0.000000 0.000000 0.000000 0.000000 0.000000 0.000000 34.756691 34.756691 34.756691 34.756691 34.756691 34.756691 34.756691 34.756691 34.756691 34.756691 34.756691 34.756691 34.756691 34.756691 0.000000 0.000000 0.000000 0.000000 32.147123 32.147123 32.147123 32.147123 32.147123 32.147123 32.147123 32.147123 32.147123 32.147123 32.147123 32.147123 32.147123 0.000000 0.000000 0.000000 0.000000 0.000000 0.000000 0.000000 0.000000 0.000000 0.000000 0.000000 0.000000 0.000000 0.000000 0.000000 21.651192 21.651192 21.651192 21.651192 21.651192 21.651192 21.651192 21.651192 21.651192 21.651192 21.651192 0.000000 0.000000 0.000000 0.000000 0.000000 0.000000 0.000000 0.000000 0.000000 0.000000 0.000000 0.000000 0.000000 0.000000 0.000000 0.000000 0.000000 0.000000 0.000000 0.000000 0.000000 12.797333 12.797333 12.797333 12.797333 12.797333 12.797333 12.797333 15.146264 15.146264 15.146264 15.146264 15.146264 15.146264 15.146264 15.146264 0.000000 0.000000 0.000000 0.000000
0.000000 0.000000 0.000000 0.000000 0.000000 0.000000 34.756691 34.756691 34.756691 34.756691 34.756691 34.756691 34.756691 34.756691 34.756691 34.756691 34.756691 34.756691 34.756691 34.756691 0.000000 0.000000 0.000000 0.000000 32.147123 32.147123 32.147123 32.147123 32.147123 32.147123 32.147123 32.147123 32.147123 32.147123 32.147123 32.147123 32.147123 0.000000 0.000000 0.000000 0.000000 0.000000 0.000000 0.000000 0.000000 0.000000 0.000000 0.000000 0.000000 0.000000 0.000000 0.000000 21.651192 21.651192 21.651192 21.651192 21.651192 21.651192 21.651192 21.651192 21.651192 21.651192 21.651192 0.000000 0.000000 0.000000 0.000000 0.000000 0.000000 0.000000 0.000000 0.000000 0.000000 0.000000 0.000000 0.000000 0.000000 0.000000 0.000000 0.000000 0.000000 0.000000 0.000000 0.000000 12.797333 12.797333 12.797333 12.797333 12.797333 12.797333 12.797333 15.146264 15.146264 15.146264 15.146264 15.146264 15.146264 15.146264 15.146264 0.000000 0.000000 0.000000 0.000000
0.000000 0.000000 0.000000 0.000000 0.000000 0.000000 34.756691 34.756691 34.756691 34.756691 34.756691 34.756691 34.756691 34.756691 34.756691 34.756691 34.756691 34.756691 34.756691 34.756691 0.000000 0.000000 0.000000 0.000000 32.147123 32.147123 32.147123 32.147123 32.147123 32.147123 32.147123 32.147123 32.147123 32.147123 32.147123 32.147123 32.147123 0.000000 0.000000 0.000000 0.000000 0.000000 0.000000 0.000000 0.000000 0.000000 0.000000 0.000000 0.000000 0.000000 0.000000 0.000000 21.651192 21.651192 21.651192 21.651192 21.651192 21.651192 21.651192 21.651192 21.651192 21.651192 21.651192 0.000000 0.000000 0.000000 0.000000 0.000000 0.000000 0.000000 0.000000 0.000000 0.000000 0.000000 0.000000 0.000000 0.000000 0.000000 0.000000 0.000000 0.000000 0.000000 0.000000 0.000000 12.797333 12.797333 12.797333 12.797333 12.797333 12.797333 12.797333 15.146264 15.146264 15.146264 15.146264 15.146264 15.146264 15.146264 15.146264 0.000000 0.000000 0.000000 0.000000
0.000000 0.000000 0.000000 0.000000 0.000000 0.000000 0.000000 0.000000 0.000000 0.000000 0.000000 0.000000 0.000000 0.000000 0.000000 0.000000 0.000000 0.000000 0.000000 0.000000 0.000000 0.000000 0.000000 0.000000 0.000000 0.000000 0.000000 0.000000 0.000000 0.000000 0.000000 0.000000 0.000000 0.000000 0.000000 0.000000 0.000000 0.000000 0.000000 0.000000 0.000000 0.000000 0.000000 0.000000 0.000000 0.000000 0.000000 0.000000 0.000000 0.000000 0.000000 0.000000 21.651192 21.651192 21.651192 21.651192 21.651192 21.651192 21.651192 21.651192 21.651192 21.651192 21.651192 0.000000 0.000000 0.000000 0.000000 0.000000 0.000000 0.000000 0.000000 0.000000 0.000000 0.000000 0.000000 0.000000 0.000000 0.000000 0.000000 0.000000 0.000000 0.000000 0.000000 0.000000 12.797333 12.797333 12.797333 12.797333 12.797333 12.797333 12.797333 15.146264 15.146264 15.146264 15.146264 15.146264 15.146264 15.146264 15.146264 0.000000 0.000000 0.000000 0.000000
0.000000 0.000000 0.000000 0.000000 0.000000 0.000000 0.000000 0.000000 0.000000 0.000000 0.000000 0.000000 0.000000 0.000000 0.000000 0.000000 0.000000 0.000000 0.000000 0.000000 0.000000 0.000000 0.000000 0.000000 0.000000 0.000000 0.000000 0.000000 0.000000 0.000000 0.000000 0.000000 0.000000 0.000000 0.000000 0.000000 0.000000 0.000000 0.000000 0.000000 0.000000 0.000000 0.000000 0.000000 0.000000 0.000000 0.000000 0.000000 0.000000 0.000000 0.000000 0.000000 21.651192 21.651192 21.651192 21.651192 21.651192 21.651192 21.651192 21.651192 21.651192 21.651192 21.651192 0.000000 0.000000 0.000000 0.000000 0.000000 0.000000 0.000000 0.000000 0.000000 0.000000 0.000000 0.000000 0.000000 0.000000 0.000000 0.000000 0.000000 0.000000 0.000000 0.000000 0.000000 12.797333 12.797333 12.797333 12.797333 12.797333 12.797333 12.797333 15.146264 15.146264 15.146264 15.146264 15.146264 15.146264 15.146264 15.146264 0.000000 0.000000 0.000000 0.000000
0.000000 0.000000 0.000000 0.000000 0.000000 0.000000 0.000000 0.000000 0.000000 0.000000 0.000000 0.000000 0.000000 0.000000 0.000000 0.000000 0.000000 0.000000 0.000000 0.000000 0.000000 0.000000 0.000000 0.000000 0.000000 0.000000 0.000000 0.000000 0.000000 0.000000 0.000000 0.000000 0.000000 0.000000 0.000000 0.000000 0.000000 0.000000 0.000000 0.000000 0.000000 0.000000 0.000000 0.000000 0.000000 0.000000 0.000000 0.000000 0.000000 0.000000 0.000000 0.000000 0.000000 0.000000 0.000000 0.000000 0.000000 0.000000 0.000000 0.000000 0.000000 0.000000 0.000000 0.000000 0.000000 0.000000 0.000000 0.000000 0.000000 0.000000 0.000000 0.000000 0.000000 0.000000 0.000000 0.000000 0.000000 0.000000 0.000000 0.000000 0.000000 0.000000 0.000000 0.000000 0.000000 0.000000 0.000000 0.000000 0.000000 0.000000 0.000000 0.000000 0.000000 0.000000 0.000000 0.000000 0.000000 0.000000 0.000000 0.000000 0.000000 0.000000 0.000000
0.000000 0.000000 0.000000 0.000000 0.000000 0.000000 0.000000 0.000000 0.000000 0.000000 0.000000 0.000000 0.000000 0.000000 0.000000 0.000000 0.000000 0.000000 0.000000 0.000000 0.000000 0.000000 0.000000 0.000000 0.000000 0.000000 0.000000 0.000000 0.000000 0.000000 0.000000 0.000000 0.000000 0.000000 0.000000 0.000000 0.000000 0.000000 0.000000 0.000000 0.000000 0.000000 0.000000 0.000000 0.000000 0.000000 0.000000 0.000000 0.000000 0.000000 0.000000 0.000000 0.000000 0.000000 0.000000 0.000000 0.000000 0.000000 0.000000 0.000000 0.000000 0.000000 0.000000 0.000000 0.000000 0.000000 0.000000 0.000000 0.000000 0.000000 0.000000 0.000000 0.000000 0.000000 0.000000 0.000000 0.000000 0.000000 0.000000 0.000000 0.000000 0.000000 0.000000 0.000000 0.000000 0.000000 0.000000 0.000000 0.000000 0.000000 0.000000 0.000000 0.000000 0.000000 0.000000 0.000000 0.000000 0.000000 0.000000 0.000000 0.000000 0.000000 0.000000
0.000000 0.000000 0.000000 0.000000 0.000000 0.000000 0.000000 0.000000 0.000000 0.000000 0.000000 0.000000 0.000000 0.000000 0.000000 0.000000 0.000000 0.000000 0.000000 0.000000 0.000000 0.000000 0.000000 0.000000 0.000000 0.000000 0.000000 0.000000 0.000000 0.000000 0.000000 0.000000 0.000000 0.000000 0.000000 0.000000 0.000000 0.000000 0.000000 0.000000 0.000000 0.000000 0.000000 0.000000 0.000000 0.000000 0.000000 0.000000 0.000000 0.000000 0.000000 0.000000 0.000000 0.000000 0.000000 0.000000 0.000000 0.000000 0.000000 0.000000 0.000000 0.000000 0.000000 0.000000 0.000000 0.000000 0.000000 0.000000 0.000000 0.000000 0.000000 0.000000 0.000000 0.000000 0.000000 0.000000 0.000000 0.000000 0.000000 0.000000 0.000000 0.000000 0.000000 0.000000 0.000000 0.000000 0.000000 0.000000 0.000000 0.000000 0.000000 0.000000 0.000000 0.000000 0.000000 0.000000 0.000000 0.000000 0.000000 0.000000 0.000000 0.000000 0.000000
0.000000 0.000000 0.000000 0.000000 0.000000 0.000000 0.000000 0.000000 0.000000 0.000000 0.000000 0.000000 0.000000 0.000000 0.000000 0.000000 0.000000 0.000000 0.000000 0.000000 0.000000 0.000000 0.000000 0.000000 0.000000 0.000000 0.000000 0.000000 0.000000 0.000000 0.000000 0.000000 0.000000 0.000000 0.000000 0.000000 0.000000 0.000000 0.000000 0.000000 0.000000 0.000000 0.000000 0.000000 0.000000 0.000000 0.000000 0.000000 0.000000 0.000000 0.000000 0.000000 0.000000 0.000000 0.000000 0.000000 0.000000 0.000000 0.000000 0.000000 0.000000 0.000000 0.000000 0.000000 0.000000 0.000000 0.000000 0.000000 0.000000 0.000000 0.000000 0.000000 0.000000 0.000000 0.000000 0.000000 0.000000 0.000000 0.000000 0.000000 0.000000 0.000000 0.000000 0.000000 0.000000 0.000000 0.000000 0.000000 0.000000 0.000000 0.000000 0.000000 0.000000 0.000000 0.000000 0.000000 0.000000 0.000000 0.000000 0.000000 0.000000 0.000000 0.000000
0.000000 0.000000 0.000000 0.000000 0.000000 0.000000 0.000000 0.000000 0.000000 0.000000 0.000000 0.000000 0.000000 0.000000 0.000000 0.000000 0.000000 0.000000 0.000000 0.000000 0.000000 0.000000 0.000000 0.000000 0.000000 0.000000 0.000000 0.000000 0.000000 0.000000 0.000000 0.000000 0.000000 0.000000 0.000000 0.000000 0.000000 0.000000 0.000000 0.000000 0.000000 0.000000 0.000000 0.000000 0.000000 0.000000 0.000000 0.000000 0.000000 0.000000 0.000000 0.000000 0.000000 0.000000 0.000000 0.000000 0.000000 0.000000 0.000000 0.000000 0.000000 0.000000 0.000000 0.000000 0.000000 0.000000 0.000000 0.000000 0.000000 0.000000 0.000000 0.000000 0.000000 0.000000 0.000000 0.000000 0.000000 0.000000 0.000000 0.000000 0.000000 0.000000 0.000000 0.000000 0.000000 0.000000 0.000000 0.000000 0.000000 0.000000 0.000000 0.000000 0.000000 0.000000 0.000000 0.000000 0.000000 0.000000 0.000000 0.000000 0.000000 0.000000 0.000000
0.000000 0.000000 0.000000 0.000000 0.000000 0.000000 0.000000 0.000000 0.000000 0.000000 0.000000 0.000000 0.000000 0.000000 0.000000 0.000000 0.000000 0.000000 0.000000 0.000000 0.000000 0.000000 0.000000 0.000000 0.000000 0.000000 0.000000 0.000000 0.000000 0.000000 0.000000 0.000000 0.000000 0.000000 0.000000 0.000000 0.000000 0.000000 0.000000 0.000000 0.000000 0.000000 0.000000 0.000000 0.000000 0.000000 0.000000 0.000000 0.000000 0.000000 0.000000 0.000000 0.000000 22.768891 22.768891 22.768891 22.768891 22.768891 22.768891 22.768891 22.768891 22.768891 22.768891 0.000000 0.000000 0.000000 0.000000 0.000000 0.000000 0.000000 0.000000 0.000000 0.000000 0.000000 0.000000 0.000000 0.000000 0.000000 0.000000 0.000000 0.000000 0.000000 0.000000 0.000000 35.347942 35.347942 35.347942 35.347942 35.347942 35.347942 35.347942 35.347942 34.789512 34.789512 34.789512 34.789512 34.789512 34.789512 34.789512 0.000000 0.000000 0.000000 0.000000
0.000000 0.000000 0.000000 0.000000 0.000000 0.000000 0.000000 0.000000 0.000000 0.000000 0.000000 0.000000 0.000000 0.000000 0.000000 0.000000 0.000000 0.000000 0.000000 0.000000 0.000000 0.000000 0.000000 0.000000 0.000000 0.000000 0.000000 0.000000 0.000000 0.000000 0.000000 0.000000 0.000000 0.000000 0.000000 0.000000 0.000000 0.000000 0.000000 0.000000 0.000000 0.000000 0.000000 0.000000 0.000000 0.000000 0.000000 0.000000 0.000000 0.000000 0.000000 0.000000 0.000000 22.768891 22.768891 22.768891 22.768891 22.768891 22.768891 22.768891 22.768891 22.768891 22.768891 0.000000 0.000000 0.000000 0.000000 0.000000 0.000000 0.000000 0.000000 0.000000 0.000000 0.000000 0.000000 0.000000 0.000000 0.000000 0.000000 0.000000 0.000000 0.000000 0.000000 0.000000 35.347942 35.347942 35.347942 35.347942 35.347942 35.347942 35.347942 35.347942 34.789512 34.789512 34.789512 34.789512 34.789512 34.789512 34.789512 0.000000 0.000000 0.000000 0.000000
0.000000 0.000000 0.000000 0.000000 0.000000 0.000000 0.000000 0.000000 0.000000 0.000000 0.000000 0.000000 0.000000 0.000000 0.000000 0.000000 0.000000 0.000000 0.000000 0.000000 0.000000 0.000000 0.000000 0.000000 0.000000 0.000000 0.000000 0.000000 0.000000 0.000000 0.000000 0.000000 0.000000 0.000000 0.000000 0.000000 0.000000 0.000000 0.000000 0.000000 0.000000 0.000000 0.000000 0.000000 0.000000 0.000000 7.721480 7.721480 7.721480 7.721480 7.721480 0.000000 0.000000 22.768891 22.768891 22.768891 22.768891 22.768891 22.768891 22.768891 22.768891 22.768891 22.768891 0.000000 0.000000 0.000000 0.000000 0.000000 0.000000 0.000000 21.294267 21.294267 21.294267 21.294267 21.294267 21.294267 21.294267 0.000000 0.000000 0.000000 0.000000 0.000000 0.000000 0.000000 35.347942 35.347942 35.347942 35.347942 35.347942 35.347942 35.347942 35.347942 34.789512 34.789512 34.789512 34.789512 34.789512 34.789512 34.789512 0.000000 0.000000 0.000000 0.000000
0.000000 0.000000 0.000000 0.000000 0.000000 0.000000 0.000000 0.000000 0.000000 0.000000 0.000000 0.000000 0.000000 0.000000 0.000000 0.000000 0.000000 0.000000 0.000000 0.000000 0.000000 0.000000 0.000000 0.000000 0.000000 0.000000 0.000000 0.000000 0.000000 0.000000 0.000000 0.000000 0.000000 0.000000 0.000000 0.000000 0.000000 0.000000 0.000000 0.000000 0.000000 0.000000 0.000000 0.000000 0.000000 0.000000 7.721480 7.721480 7.721480 7.721480 7.721480 0.000000 0.000000 22.768891 22.768891 22.768891 22.768891 22.768891 22.768891 22.768891 22.768891 22.768891 22.768891 0.000000 0.000000 0.000000 0.000000 0.000000 0.000000 0.000000 21.294267 21.294267 21.294267 21.294267 21.294267 21.294267 21.294267 0.000000 0.000000 0.000000 0.000000 0.000000 0.000000 0.000000 35.347942 35.347942 35.347942 35.347942 35.347942 35.347942 35.347942 35.347942 34.789512 34.789512 34.789512 34.789512 34.789512 34.789512 34.789512 0.000000 0.000000 0.000000 0.000000
0.000000 0.000000 0.000000 0.000000 0.000000 0.000000 0.000000 0.000000 4.737961 4.737961 4.737961 0.000000 0.000000 0.000000 0.000000 0.000000 0.000000 0.000000 6.719520 6.719520 6.719520 6.719520 0.000000 0.000000 0.000000 0.000000 0.000000 0.000000 0.000000 0.000000 0.000000 0.000000 0.000000 0.000000 0.000000 0.000000 0.000000 0.000000 0.000000 0.000000 0.000000 0.000000 0.000000 0.000000 0.000000 0.000000 7.721480 7.721480 7.721480 7.721480 7.721480 0.000000 0.000000 22.768891 22.768891 22.768891 22.768891 22.768891 22.768891 22.768891 22.768891 22.768891 22.768891 0.000000 0.000000 0.000000 0.000000 0.000000 0.000000 0.000000 21.294267 21.294267 21.294267 21.294267 21.294267 21.294267 21.294267 0.000000 0.000000 0.000000 0.000000 0.000000 0.000000 0.000000 35.347942 35.347942 35.347942 35.347942 35.347942 35.347942 35.347942 35.347942 34.789512 34.789512 34.789512 34.789512 34.789512 34.789512 34.789512 0.000000 0.000000 0.000000 0.000000
0.000000 0.000000 0.000000 0.000000 0.000000 0.000000 0.000000 0.000000 4.737961 4.737961 4.737961 0.000000 0.000000 0.000000 0.000000 0.000000 0.000000 0.000000 6.719520 6.719520 6.719520 6.719520 0.000000 0.000000 0.000000 0.000000 0.000000 0.000000 0.000000 0.000000 0.000000 0.000000 0.000000 0.000000 0.000000 0.000000 0.000000 0.000000 0.000000 0.000000 0.000000 0.000000 0.000000 0.000000 0.000000 0.000000 7.721480 7.721480 7.721480 7.721480 7.721480 0.000000 0.000000 22.768891 22.768891 22.768891 22.768891 22.768891 22.768891 22.768891 22.768891 22.768891 22.768891 0.000000 0.000000 0.000000 0.000000 0.000000 0.000000 0.000000 21.294267 21.294267 21.294267 21.294267 21.294267 21.294267 21.294267 0.000000 0.000000 0.000000 0.000000 0.000000 0.000000 0.000000 35.347942 35.347942 35.347942 35.347942 35.347942 35.347942 35.347942 35.347942 34.789512 34.789512 34.789512 34.789512 34.789512 34.789512 34.789512 0.000000 0.000000 0.000000 0.000000
0.000000 0.000000 0.000000 0.000000 0.000000 0.000000 0.000000 0.000000 4.737961 4.737961 4.737961 0.000000 0.000000 0.000000 0.000000 0.000000 0.000000 0.000000 6.719520 6.719520 6.719520 6.719520 0.000000 0.000000 0.000000 0.000000 0.000000 0.000000 0.000000 0.000000 0.000000 0.000000 0.000000 0.000000 0.000000 0.000000 0.000000 0.000000 0.000000 0.000000 0.000000 0.000000 0.000000 0.000000 0.000000 0.000000 7.721480 7.721480 7.721480 7.721480 7.721480 0.000000 0.000000 22.768891 22.768891 22.768891 22.768891 22.768891 22.768891 22.768891 22.768891 22.768891 22.768891 0.000000 0.000000 0.000000 0.000000 0.000000 0.000000 0.000000 21.294267 21.294267 21.294267 21.294267 21.294267 21.294267 21.294267 0.000000 0.000000 0.000000 0.000000 0.000000 0.000000 0.000000 35.347942 35.347942 35.347942 35.347942 35.347942 35.347942 35.347942 35.347942 34.789512 34.789512 34.789512 34.789512 34.789512 34.789512 34.789512 0.000000 0.000000 0.000000 0.000000
0.000000 0.000000 0.000000 0.000000 0.000000 0.000000 0.000000 0.000000 4.737961 4.737961 4.737961 0.000000 0.000000 0.000000 0.000000 0.000000 0.000000 0.000000 6.719520 6.719520 6.719520 6.719520 0.000000 0.000000 0.000000 0.000000 0.000000 0.000000 0.000000 0.000000 0.000000 0.000000 0.000000 0.000000 0.000000 0.000000 0.000000 0.000000 0.000000 0.000000 0.000000 0.000000 0.000000 0.000000 0.000000 0.000000 7.721480 7.721480 7.721480 7.721480 7.721480 0.000000 0.000000 22.768891 22.768891 22.768891 22.768891 22.768891 22.768891 22.768891 22.768891 22.768891 22.768891 0.000000 0.000000 0.000000 0.000000 0.000000 0.000000 0.000000 21.294267 21.294267 21.294267 21.294267 21.294267 21.294267 21.294267 0.000000 0.000000 0.000000 0.000000 0.000000 0.000000 0.000000 35.347942 35.347942 35.347942 35.347942 35.347942 35.347942 35.347942 35.347942 34.789512 34.789512 34.789512 34.789512 34.789512 34.789512 34.789512 0.000000 0.000000 0.000000 0.000000
0.000000 0.000000 0.000000 0.000000 0.000000 0.000000 0.000000 0.000000 4.737961 4.737961 4.737961 0.000000 0.000000 0.000000 0.000000 0.000000 0.000000 0.000000 6.719520 6.719520 6.719520 6.719520 0.000000 0.000000 0.000000 0.000000 0.000000 0.000000 0.000000 0.000000 0.000000 0.000000 0.000000 0.000000 0.000000 0.000000 0.000000 0.000000 0.000000 0.000000 0.000000 0.000000 0.000000 0.000000 0.000000 0.000000 0.000000 0.000000 0.000000 0.000000 0.000000 0.000000 0.000000 22.768891 22.768891 22.768891 22.768891 22.768891 22.768891 22.768891 22.768891 22.768891 22.768891 0.000000 0.000000 0.000000 0.000000 0.000000 0.000000 0.000000 21.294267 21.294267 21.294267 21.294267 21.294267 21.294267 21.294267 0.000000 0.000000 0.000000 0.000000 0.000000 0.000000 0.000000 35.347942 35.347942 35.347942 35.347942 35.347942 35.347942 35.347942 35.347942 34.789512 34.789512 34.789512 34.789512 34.789512 34.789512 34.789512 0.000000 0.000000 0.000000 0.000000
0.000000 0.000000 0.000000 0.000000 0.000000 0.000000 0.000000 0.000000 4.737961 4.737961 4.737961 0.000000 0.000000 0.000000 0.000000 0.000000 0.000000 0.000000 6.719520 6.719520 6.719520 6.719520 0.000000 0.000000 0.000000 0.000000 0.000000 0.000000 0.000000 0.000000 0.000000 0.000000 0.000000 0.000000 0.000000 0.000000 0.000000 0.000000 0.000000 0.000000 0.000000 0.000000 0.000000 0.000000 0.000000 0.000000 0.000000 0.000000 0.000000 0.000000 0.000000 0.000000 0.000000 22.768891 22.768891 22.768891 22.768891 22.768891 22.768891 22.768891 22.768891 22.768891 22.768891 0.000000 0.000000 0.000000 0.000000 0.000000 0.000000 0.000000 21.294267 21.294267 21.294267 21.294267 21.294267 21.294267 21.294267 0.000000 0.000000 0.000000 0.000000 0.000000 0.000000 0.000000 35.347942 35.347942 35.347942 35.347942 35.347942 35.347942 35.347942 35.347942 34.789512 34.789512 34.789512 34.789512 34.789512 34.789512 34.789512 0.000000 0.000000 0.000000 0.000000
0.000000 0.000000 0.000000 0.000000 0.000000 0.000000 0.000000 0.000000 4.737961 4.737961 4.737961 0.000000 0.000000 0.000000 0.000000 0.000000 0.000000 0.000000 6.719520 6.719520 6.719520 6.719520 0.000000 0.000000 0.000000 0.000000 0.000000 0.000000 0.000000 0.000000 0.000000 0.000000 0.000000 0.000000 0.000000 0.000000 0.000000 0.000000 0.000000 0.000000 0.000000 0.000000 0.000000 0.000000 0.000000 0.000000 0.000000 0.000000 0.000000 0.000000 0.000000 0.000000 0.000000 20.626588 20.626588 20.626588 20.626588 20.626588 20.626588 20.626588 20.626588 20.626588 20.626588 0.000000 0.000000 0.000000 0.000000 0.000000 0.000000 0.000000 21.294267 21.294267 21.294267 21.294267 21.294267 21.294267 21.294267 0.000000 0.000000 0.000000 0.000000 0.000000 0.000000 0.000000 35.347942 35.347942 35.347942 35.347942 35.347942 35.347942 35.347942 35.347942 34.789512 34.789512 34.789512 34.789512 34.789512 34.789512 34.789512 0.000000 0.000000 0.000000 0.000000
0.000000 0.000000 0.000000 0.000000 0.000000 0.000000 0.000000 0.000000 0.000000 0.000000 0.000000 0.000000 0.000000 0.000000 0.000000 0.000000 0.000000 0.000000 0.000000 0.000000 0.000000 0.000000 0.000000 0.000000 0.000000 0.000000 0.000000 0.000000 0.000000 0.000000 0.000000 0.000000 0.000000 0.000000 0.000000 0.000000 0.000000 0.000000 0.000000 0.000000 0.000000 0.000000 0.000000 0.000000 0.000000 0.000000 0.000000 0.000000 0.000000 0.000000 0.000000 0.000000 0.000000 20.626588 20.626588 20.626588 20.626588 20.626588 20.626588 20.626588 20.626588 20.626588 20.626588 0.000000 0.000000 0.000000 0.000000 0.000000 0.000000 0.000000 21.294267 21.294267 21.294267 21.294267 21.294267 21.294267 21.294267 0.000000 0.000000 0.000000 0.000000 0.000000 0.000000 0.000000 35.347942 35.347942 35.347942 35.347942 35.347942 35.347942 35.347942 35.347942 34.789512 34.789512 34.789512 34.789512 34.789512 34.789512 34.789512 0.000000 0.000000 0.000000 0.000000
0.000000 0.000000 0.000000 0.000000 0.000000 0.000000 0.000000 0.000000 0.000000 0.000000 0.000000 0.000000 0.000000 0.000000 0.000000 0.000000 0.000000 0.000000 0.000000 0.000000 0.000000 0.000000 0.000000 0.000000 0.000000 0.000000 0.000000 0.000000 0.000000 0.000000 0.000000 0.000000 0.000000 0.000000 0.000000 0.000000 0.000000 0.000000 0.000000 0.000000 0.000000 0.000000 0.000000 0.000000 0.000000 0.000000 11.282036 11.282036 11.282036 11.282036 11.282036 0.000000 0.000000 20.626588 20.626588 20.626588 20.626588 20.626588 20.626588 20.626588 20.626588 20.626588 20.626588 0.000000 0.000000 0.000000 0.000000 0.000000 0.000000 0.000000 21.294267 21.294267 21.294267 21.294267 21.294267 21.294267 21.294267 0.000000 0.000000 0.000000 0.000000 0.000000 0.000000 0.000000 35.347942 35.347942 35.347942 35.347942 35.347942 35.347942 35.347942 35.347942 34.789512 34.789512 34.789512 34.789512 34.789512 34.789512 34.789512 0.000000 0.000000 0.000000 0.000000
0.000000 0.000000 0.000000 0.000000 0.000000 0.000000 0.000000 0.000000 0.000000 0.000000 0.000000 0.000000 0.000000 0.000000 0.000000 0.000000 0.000000 0.000000 0.000000 0.000000 0.000000 0.000000 0.000000 0.000000 0.000000 0.000000 0.000000 0.000000 0.000000 0.000000 0.000000 0.000000 0.000000 0.000000 0.000000 0.000000 0.000000 0.000000 0.000000 0.000000 0.000000 0.000000 0.000000 0.000000 0.000000 0.000000 11.282036 11.282036 11.282036 11.282036 11.282036 0.000000 0.000000 20.626588 20.626588 20.626588 20.626588 20.626588 20.626588 20.626588 20.626588 20.626588 20.626588 0.000000 0.000000 0.000000 0.000000 0.000000 0.000000 0.000000 21.294267 21.294267 21.294267 21.294267 21.294267 21.294267 21.294267 0.000000 0.000000 0.000000 0.000000 0.000000 0.000000 0.000000 35.347942 35.347942 35.347942 35.347942 35.347942 35.347942 35.347942 35.347942 34.789512 34.789512 34.789512 34.789512 34.789512 34.789512 34.789512 0.000000 0.000000 0.000000 0.000000
0.000000 0.000000 0.000000 0.000000 0.000000 0.000000 0.000000 0.000000 0.000000 0.000000 0.000000 0.000000 0.000000 0.000000 0.000000 0.000000 0.000000 0.000000 0.000000 0.000000 0.000000 0.000000 0.000000 0.000000 0.000000 0.000000 0.000000 0.000000 0.000000 0.000000 0.000000 0.000000 0.000000 0.000000 0.000000 0.000000 0.000000 0.000000 0.000000 0.000000 0.000000 0.000000 0.000000 0.000000 0.000000 0.000000 11.282036 11.282036 11.282036 11.282036 11.282036 0.000000 0.000000 20.626588 20.626588 20.626588 20.626588 20.626588 20.626588 20.626588 20.626588 20.626588 20.626588 0.000000 0.000000 0.000000 0.000000 0.000000 0.000000 0.000000 21.294267 21.294267 21.294267 21.294267 21.294267 21.294267 21.294267 0.000000 0.000000 0.000000 0.000000 0.000000 0.000000 0.000000 35.347942 35.347942 35.347942 35.347942 35.347942 35.347942 35.347942 35.347942 34.789512 34.789512 34.789512 34.789512 34.789512 34.789512 34.789512 0.000000 0.000000 0.000000 0.000000
0.000000 0.000000 0.000000 0.000000 0.000000 0.000000 0.000000 0.000000 0.000000 0.000000 0.000000 0.000000 0.000000 0.000000 0.000000 0.000000 0.000000 0.000000 0.000000 0.000000 0.000000 0.000000 0.000000 0.000000 0.000000 0.000000 0.000000 0.000000 0.000000 0.000000 0.000000 0.000000 0.000000 0.000000 0.000000 0.000000 0.000000 0.000000 0.000000 0.000000 0.000000 0.000000 0.000000 0.000000 0.000000 0.000000 11.282036 11.282036 11.282036 11.282036 11.282036 0.000000 0.000000 20.626588 20.626588 20.626588 20.626588 20.626588 20.626588 20.626588 20.626588 20.626588 20.626588 0.000000 0.000000 0.000000 0.000000 0.000000 0.000000 0.000000 0.000000 0.000000 0.000000 0.000000 0.000000 0.000000 0.000000 0.000000 0.000000 0.000000 0.000000 0.000000 0.000000 0.000000 35.347942 35.347942 35.347942 35.347942 35.347942 35.347942 35.347942 35.347942 34.789512 34.789512 34.789512 34.789512 34.789512 34.789512 34.789512 0.000000 0.000000 0.000000 0.000000
0.000000 0.000000 0.000000 0.000000 0.000000 0.000000 0.000000 0.000000 0.000000 0.000000 0.000000 0.000000 0.000000 0.000000 0.000000 0.000000 0.000000 0.000000 0.000000 0.000000 0.000000 0.000000 0.000000 0.000000 0.000000 0.000000 0.000000 0.000000 0.000000 0.000000 0.000000 0.000000 0.000000 0.000000 0.000000 0.000000 0.000000 0.000000 0.000000 0.000000 0.000000 0.000000 0.000000 0.000000 0.000000 0.000000 11.282036 11.282036 11.282036 11.282036 11.282036 0.000000 0.000000 20.626588 20.626588 20.626588 20.626588 20.626588 20.626588 20.626588 20.626588 20.626588 20.626588 0.000000 0.000000 0.000000 0.000000 0.000000 0.000000 0.000000 0.000000 0.000000 0.000000 0.000000 0.000000 0.000000 0.000000 0.000000 0.000000 0.000000 0.000000 0.000000 0.000000 0.000000 35.347942 35.347942 35.347942 35.347942 35.347942 35.347942 35.347942 35.347942 34.789512 34.789512 34.789512 34.789512 34.789512 34.789512 34.789512 0.000000 0.000000 0.000000 0.000000
0.000000 0.000000 0.000000 0.000000 0.000000 0.000000 12.814925 12.814925 12.814925 12.814925 12.814925 12.814925 12.814925 0.000000 0.000000 0.000000 0.000000 0.000000 0.000000 0.000000 0.000000 0.000000 0.000000 0.000000 0.000000 0.000000 0.000000 0.000000 0.000000 0.000000 0.000000 0.000000 0.000000 0.000000 0.000000 0.000000 0.000000 0.000000 0.000000 0.000000 0.000000 0.000000 0.000000 0.000000 0.000000 0.000000 11.282036 11.282036 11.282036 11.282036 11.282036 0.000000 0.000000 20.626588 20.626588 20.626588 20.626588 20.626588 20.626588 20.626588 20.626588 20.626588 20.626588 0.000000 0.000000 0.000000 0.000000 0.000000 0.000000 0.000000 0.000000 0.000000 0.000000 0.000000 0.000000 0.000000 0.000000 0.000000 0.000000 0.000000 0.000000 0.000000 0.000000 0.000000 35.347942 35.347942 35.347942 35.347942 35.347942 35.347942 35.347942 35.347942 34.789512 34.789512 34.789512 34.789512 34.789512 34.789512 34.789512 0.000000 0.000000 0.000000 0.000000
0.000000 0.000000 0.000000 0.000000 0.000000 0.000000 12.814925 12.814925 12.814925 12.814925 12.814925 12.814925 12.814925 0.000000 0.000000 0.000000 0.000000 0.000000 0.000000 0.000000 0.000000 0.000000 0.000000 0.000000 0.000000 0.000000 0.000000 0.000000 0.000000 0.000000 0.000000 0.000000 0.000000 0.000000 0.000000 0.000000 0.000000 0.000000 0.000000 0.000000 0.000000 0.000000 0.000000 0.000000 0.000000 0.000000 11.282036 11.282036 11.282036 11.282036 11.282036 0.000000 0.000000 0.000000 0.000000 0.000000 0.000000 0.000000 0.000000 0.000000 0.000000 0.000000 0.000000 0.000000 0.000000 0.000000 0.000000 0.000000 0.000000 0.000000 13.874002 13.874002 13.874002 13.874002 13.874002 13.874002 13.874002 0.000000 0.000000 0.000000 0.000000 0.000000 0.000000 0.000000 35.347942 35.347942 35.347942 35.347942 35.347942 35.347942 35.347942 35.347942 34.789512 34.789512 34.789512 34.789512 34.789512 34.789512 34.789512 0.000000 0.000000 0.000000 0.000000
0.000000 0.000000 0.000000 0.000000 0.000000 0.000000 12.814925 12.814925 12.814925 12.814925 12.814925 12.814925 12.814925 0.000000 0.000000 0.000000 0.000000 0.000000 0.000000 0.000000 0.000000 0.000000 0.000000 0.000000 0.000000 0.000000 0.000000 0.000000 0.000000 0.000000 5.830506 5.830506 5.830506 5.830506 5.830506 0.000000 0.000000 0.000000 0.000000 0.000000 0.000000 0.000000 0.000000 0.000000 0.000000 0.000000 11.282036 11.282036 11.282036 11.282036 11.282036 0.000000 0.000000 0.000000 0.000000 0.000000 0.000000 0.000000 0.000000 0.000000 0.000000 0.000000 0.000000 0.000000 0.000000 0.000000 0.000000 0.000000 0.000000 0.000000 13.874002 13.874002 13.874002 13.874002 13.874002 13.874002 13.874002 0.000000 0.000000 0.000000 0.000000 0.000000 0.000000 0.000000 35.347942 35.347942 35.347942 35.347942 35.347942 35.347942 35.347942 35.347942 34.789512 34.789512 34.789512 34.789512 34.789512 34.789512 34.789512 0.000000 0.000000 0.000000 0.000000
0.000000 0.000000 0.000000 0.000000 0.000000 0.000000 12.814925 12.814925 12.814925 12.814925 12.814925 12.814925 12.814925 0.000000 0.000000 0.000000 0.000000 0.000000 0.000000 0.000000 0.000000 0.000000 0.000000 0.000000 0.000000 0.000000 0.000000 0.000000 0.000000 0.000000 5.830506 5.830506 5.830506 5.830506 5.830506 0.000000 0.000000 0.000000 0.000000 0.000000 0.000000 0.000000 0.000000 0.000000 0.000000 0.000000 0.000000 0.000000 0.000000 0.000000 0.000000 0.000000 0.000000 0.000000 0.000000 0.000000 0.000000 0.000000 0.000000 0.000000 0.000000 0.000000 0.000000 0.000000 0.000000 0.000000 0.000000 0.000000 0.000000 0.000000 13.874002 13.874002 13.874002 13.874002 13.874002 13.874002 13.874002 0.000000 0.000000 0.000000 0.000000 0.000000 0.000000 0.000000 16.581376 16.581376 16.581376 16.581376 16.581376 16.581376 16.581376 16.581376 16.319422 16.319422 16.319422 16.319422 16.319422 16.319422 16.319422 0.000000 0.000000 0.000000 0.000000
0.000000 0.000000 0.000000 0.000000 0.000000 0.000000 12.814925 12.814925 12.814925 12.814925 12.814925 12.814925 12.814925 0.000000 0.000000 0.000000 0.000000 0.000000 0.000000 0.000000 0.000000 0.000000 0.000000 0.000000 0.000000 0.000000 0.000000 0.000000 0.000000 0.000000 5.830506 5.830506 5.830506 5.830506 5.830506 0.000000 0.000000 0.000000 0.000000 0.000000 0.000000 0.000000 0.000000 0.000000 0.000000 0.000000 0.000000 0.000000 0.000000 0.000000 0.000000 0.000000 0.000000 0.000000 0.000000 0.000000 0.000000 0.000000 0.000000 0.000000 0.000000 0.000000 0.000000 0.000000 0.000000 0.000000 0.000000 0.000000 0.000000 0.000000 13.874002 13.874002 13.874002 13.874002 13.874002 13.874002 13.874002 0.000000 0.000000 0.000000 0.000000 0.000000 0.000000 0.000000 16.581376 16.581376 16.581376 16.581376 16.581376 16.581376 16.581376 16.581376 16.319422 16.319422 16.319422 16.319422 16.319422 16.319422 16.319422 0.000000 0.000000 0.000000 0.000000
0.000000 0.000000 0.000000 0.000000 0.000000 0.000000 12.814925 12.814925 12.814925 12.814925 12.814925 12.814925 12.814925 0.000000 0.000000 0.000000 0.000000 0.000000 0.000000 0.000000 0.000000 0.000000 0.000000 0.000000 0.000000 0.000000 0.000000 0.000000 0.000000 0.000000 5.830506 5.830506 5.830506 5.830506 5.830506 0.000000 0.000000 0.000000 0.000000 0.000000 0.000000 0.000000 0.000000 0.000000 0.000000 0.000000 0.000000 0.000000 0.000000 0.000000 0.000000 0.000000 0.000000 0.000000 0.000000 0.000000 0.000000 0.000000 0.000000 0.000000 0.000000 0.000000 0.000000 0.000000 0.000000 0.000000 0.000000 0.000000 0.000000 0.000000 13.874002 13.874002 13.874002 13.874002 13.874002 13.874002 13.874002 0.000000 0.000000 0.000000 0.000000 0.000000 0.000000 0.000000 16.581376 16.581376 16.581376 16.581376 16.581376 16.581376 16.581376 16.581376 16.319422 16.319422 16.319422 16.319422 16.319422 16.319422 16.319422 0.000000 0.000000 0.000000 0.000000
0.000000 0.000000 0.000000 0.000000 0.000000 0.000000 12.814925 12.814925 12.814925 12.814925 12.814925 12.814925 12.814925 0.000000 0.000000 0.000000 0.000000 0.000000 0.000000 0.000000 0.000000 0.000000 0.000000 0.000000 0.000000 0.000000 0.000000 0.000000 0.000000 0.000000 0.000000 0.000000 0.000000 0.000000 0.000000 0.000000 0.000000 0.000000 0.000000 0.000000 0.000000 0.000000 0.000000 0.000000 0.000000 0.000000 9.035487 9.035487 9.035487 9.035487 9.035487 0.000000 0.000000 0.000000 0.000000 0.000000 0.000000 0.000000 0.000000 0.000000 0.000000 0.000000 0.000000 0.000000 0.000000 0.000000 0.000000 0.000000 0.000000 0.000000 13.874002 13.874002 13.874002 13.874002 13.874002 13.874002 13.874002 0.000000 0.000000 0.000000 0.000000 0.000000 0.000000 0.000000 16.581376 16.581376 16.581376 16.581376 16.581376 16.581376 16.581376 16.581376 16.319422 16.319422 16.319422 16.319422 16.319422 16.319422 16.319422 0.000000 0.000000 0.000000 0.000000
0.000000 0.000000 0.000000 0.000000 0.000000 0.000000 12.814925 12.814925 12.814925 12.814925 12.814925 12.814925 12.814925 0.000000 0.000000 0.000000 0.000000 0.000000 0.000000 0.000000 0.000000 0.000000 0.000000 0.000000 0.000000 0.000000 0.000000 0.000000 0.000000 0.000000 0.000000 0.000000 0.000000 0.000000 0.000000 0.000000 0.000000 0.000000 0.000000 0.000000 0.000000 0.000000 0.000000 0.000000 0.000000 0.000000 9.035487 9.035487 9.035487 9.035487 9.035487 0.000000 0.000000 0.000000 0.000000 0.000000 0.000000 0.000000 0.000000 0.000000 0.000000 0.000000 0.000000 0.000000 0.000000 0.000000 0.000000 0.000000 0.000000 0.000000 13.874002 13.874002 13.874002 13.874002 13.874002 13.874002 13.874002 0.000000 0.000000 0.000000 0.000000 0.000000 0.000000 0.000000 16.581376 16.581376 16.581376 16.581376 16.581376 16.581376 16.581376 16.581376 16.319422 16.319422 16.319422 16.319422 16.319422 16.319422 16.319422 0.000000 0.000000 0.000000 0.000000
0.000000 0.000000 0.000000 0.000000 0.000000 0.000000 0.000000 0.000000 0.000000 0.000000 0.000000 0.000000 0.000000 0.000000 0.000000 0.000000 0.000000 0.000000 0.000000 0.000000 0.000000 0.000000 0.000000 0.000000 0.000000 0.000000 0.000000 0.000000 0.000000 0.000000 0.000000 0.000000 0.000000 0.000000 0.000000 0.000000 0.000000 0.000000 0.000000 0.000000 0.000000 0.000000 0.000000 0.000000 0.000000 0.000000 9.035487 9.035487 9.035487 9.035487 9.035487 0.000000 0.000000 0.000000 0.000000 0.000000 0.000000 0.000000 0.000000 0.000000 0.000000 0.000000 0.000000 0.000000 0.000000 0.000000 0.000000 0.000000 0.000000 0.000000 13.874002 13.874002 13.874002 13.874002 13.874002 13.874002 13.874002 0.000000 0.000000 0.000000 0.000000 0.000000 0.000000 0.000000 16.581376 16.581376 16.581376 16.581376 16.581376 16.581376 16.581376 16.581376 16.319422 16.319422 16.319422 16.319422 16.319422 16.319422 16.319422 0.000000 0.000000 0.000000 0.000000
0.000000 0.000000 0.000000 0.000000 0.000000 0.000000 0.000000 0.000000 0.000000 0.000000 0.000000 0.000000 0.000000 0.000000 0.000000 0.000000 0.000000 0.000000 0.000000 0.000000 0.000000 0.000000 0.000000 0.000000 0.000000 0.000000 0.000000 0.000000 0.000000 0.000000 0.000000 0.000000 0.000000 0.000000 0.000000 0.000000 0.000000 0.000000 0.000000 0.000000 0.000000 0.000000 0.000000 0.000000 0.000000 0.000000 9.035487 9.035487 9.035487 9.035487 9.035487 0.000000 0.000000 0.000000 0.000000 0.000000 0.000000 0.000000 0.000000 0.000000 0.000000 0.000000 0.000000 0.000000 0.000000 0.000000 0.000000 0.000000 0.000000 0.000000 0.000000 0.000000 0.000000 0.000000 0.000000 0.000000 0.000000 0.000000 0.000000 0.000000 0.000000 0.000000 0.000000 0.000000 16.581376 16.581376 16.581376 16.581376 16.581376 16.581376 16.581376 16.581376 16.319422 16.319422 16.319422 16.319422 16.319422 16.319422 16.319422 0.000000 0.000000 0.000000 0.000000
0.000000 0.000000 0.000000 0.000000 0.000000 0.000000 0.000000 0.000000 0.000000 0.000000 0.000000 0.000000 0.000000 0.000000 0.000000 0.000000 0.000000 0.000000 0.000000 0.000000 0.000000 0.000000 0.000000 0.000000 0.000000 0.000000 0.000000 0.000000 0.000000 0.000000 0.000000 0.000000 0.000000 0.000000 0.000000 0.000000 0.000000 0.000000 0.000000 0.000000 0.000000 0.000000 0.000000 0.000000 0.000000 0.000000 9.035487 9.035487 9.035487 9.035487 9.035487 0.000000 0.000000 0.000000 0.000000 0.000000 0.000000 0.000000 0.000000 0.000000 0.000000 0.000000 0.000000 0.000000 0.000000 0.000000 0.000000 0.000000 0.000000 0.000000 0.000000 0.000000 0.000000 0.000000 0.000000 0.000000 0.000000 0.000000 0.000000 0.000000 0.000000 0.000000 0.000000 0.000000 16.581376 16.581376 16.581376 16.581376 16.581376 16.581376 16.581376 16.581376 16.319422 16.319422 16.319422 16.319422 16.319422 16.319422 16.319422 0.000000 0.000000 0.000000 0.000000
0.000000 0.000000 0.000000 0.000000 0.000000 0.000000 0.000000 0.000000 0.000000 0.000000 0.000000 0.000000 0.000000 0.000000 0.000000 0.000000 0.000000 0.000000 0.000000 0.000000 0.000000 0.000000 0.000000 0.000000 0.000000 0.000000 0.000000 0.000000 0.000000 0.000000 0.000000 0.000000 0.000000 0.000000 0.000000 0.000000 0.000000 0.000000 0.000000 0.000000 0.000000 0.000000 0.000000 0.000000 0.000000 0.000000 9.035487 9.035487 9.035487 9.035487 9.035487 0.000000 0.000000 0.000000 0.000000 0.000000 0.000000 0.000000 0.000000 0.000000 0.000000 0.000000 0.000000 0.000000 0.000000 0.000000 0.000000 0.000000 0.000000 0.000000 0.000000 0.000000 0.000000 0.000000 0.000000 0.000000 0.000000 0.000000 0.000000 0.000000 0.000000 0.000000 0.000000 0.000000 16.581376 16.581376 16.581376 16.581376 16.581376 16.581376 16.581376 16.581376 16.319422 16.319422 16.319422 16.319422 16.319422 16.319422 16.319422 0.000000 0.000000 0.000000 0.000000
0.000000 0.000000 0.000000 0.000000 0.000000 0.000000 0.000000 0.000000 0.000000 0.000000 0.000000 0.000000 0.000000 0.000000 0.000000 0.000000 16.388337 16.388337 16.388337 16.388337 16.388337 16.388337 16.388337 16.388337 0.000000 0.000000 0.000000 0.000000 19.706842 19.706842 19.706842 19.706842 19.706842 19.706842 19.706842 19.706842 19.706842 0.000000 0.000000 0.000000 0.000000 0.000000 0.000000 0.000000 0.000000 0.000000 9.035487 9.035487 9.035487 9.035487 9.035487 0.000000 0.000000 0.000000 0.000000 0.000000 0.000000 0.000000 0.000000 0.000000 0.000000 0.000000 0.000000 0.000000 0.000000 0.000000 0.000000 0.000000 0.000000 0.000000 0.000000 0.000000 0.000000 0.000000 0.000000 0.000000 0.000000 0.000000 0.000000 0.000000 0.000000 0.000000 0.000000 0.000000 0.000000 0.000000 0.000000 0.000000 0.000000 0.000000 0.000000 0.000000 0.000000 0.000000 0.000000 0.000000 0.000000 0.000000 0.000000 0.000000 0.000000 0.000000 0.000000
0.000000 0.000000 0.000000 0.000000 0.000000 0.000000 0.000000 0.000000 0.000000 0.000000 0.000000 0.000000 0.000000 0.000000 0.000000 0.000000 16.388337 16.388337 16.388337 16.388337 16.388337 16.388337 16.388337 16.388337 0.000000 0.000000 0.000000 0.000000 19.706842 19.706842 19.706842 19.706842 19.706842 19.706842 19.706842 19.706842 19.706842 0.000000 0.000000 0.000000 0.000000 0.000000 0.000000 0.000000 0.000000 0.000000 0.000000 0.000000 0.000000 0.000000 0.000000 0.000000 0.000000 0.000000 0.000000 0.000000 0.000000 0.000000 0.000000 0.000000 0.000000 0.000000 0.000000 0.000000 0.000000 0.000000 0.000000 0.000000 0.000000 0.000000 13.518285 13.518285 13.518285 13.518285 13.518285 13.518285 13.518285 0.000000 0.000000 0.000000 0.000000 0.000000 0.000000 0.000000 0.000000 0.000000 0.000000 0.000000 0.000000 0.000000 0.000000 0.000000 0.000000 0.000000 0.000000 0.000000 0.000000 0.000000 0.000000 0.000000 0.000000 0.000000 0.000000
0.000000 0.000000 0.000000 0.000000 0.000000 0.000000 0.000000 0.000000 0.000000 0.000000 0.000000 0.000000 0.000000 0.000000 0.000000 0.000000 16.388337 16.388337 16.388337 16.388337 16.388337 16.388337 16.388337 16.388337 0.000000 0.000000 0.000000 0.000000 19.706842 19.706842 19.706842 19.706842 19.706842 19.706842 19.706842 19.706842 19.706842 0.000000 0.000000 0.000000 0.000000 0.000000 0.000000 0.000000 0.000000 0.000000 0.000000 0.000000 0.000000 0.000000 0.000000 0.000000 0.000000 0.000000 0.000000 0.000000 0.000000 0.000000 0.000000 0.000000 0.000000 0.000000 0.000000 0.000000 0.000000 0.000000 0.000000 0.000000 0.000000 0.000000 13.518285 13.518285 13.518285 13.518285 13.518285 13.518285 13.518285 0.000000 0.000000 0.000000 0.000000 0.000000 0.000000 0.000000 0.000000 0.000000 0.000000 0.000000 0.000000 0.000000 0.000000 0.000000 0.000000 0.000000 0.000000 0.000000 0.000000 0.000000 0.000000 0.000000 0.000000 0.000000 0.000000
0.000000 0.000000 0.000000 0.000000 0.000000 0.000000 0.000000 0.000000 0.000000 0.000000 0.000000 0.000000 0.000000 0.000000 0.000000 0.000000 16.388337 16.388337 16.388337 16.388337 16.388337 16.388337 16.388337 16.388337 0.000000 0.000000 0.000000 0.000000 19.706842 19.706842 19.706842 19.706842 19.706842 19.706842 19.706842 19.706842 19.706842 0.000000 0.000000 0.000000 0.000000 0.000000 0.000000 0.000000 18.225981 18.225981 18.225981 18.225981 18.225981 18.225981 18.225981 18.225981 18.225981 0.000000 0.000000 0.000000 0.000000 0.000000 0.000000 0.000000 0.000000 0.000000 0.000000 0.000000 0.000000 0.000000 0.000000 0.000000 0.000000 0.000000 13.518285 13.518285 13.518285 13.518285 13.518285 13.518285 13.518285 0.000000 0.000000 0.000000 0.000000 0.000000 0.000000 0.000000 0.000000 0.000000 0.000000 0.000000 0.000000 0.000000 0.000000 0.000000 0.000000 0.000000 0.000000 0.000000 0.000000 0.000000 0.000000 0.000000 0.000000 0.000000 0.000000
0.000000 0.000000 0.000000 0.000000 0.000000 0.000000 0.000000 0.000000 0.000000 0.000000 0.000000 0.000000 0.000000 0.000000 0.000000 0.000000 16.388337 16.388337 16.388337 16.388337 16.388337 16.388337 16.388337 16.388337 0.000000 0.000000 0.000000 0.000000 19.706842 19.706842 19.706842 19.706842 19.706842 19.706842 19.706842 19.706842 19.706842 0.000000 0.000000 0.000000 0.000000 0.000000 0.000000 0.000000 18.225981 18.225981 18.225981 18.225981 18.225981 18.225981 18.225981 18.225981 18.225981 0.000000 0.000000 0.000000 0.000000 0.000000 0.000000 0.000000 0.000000 0.000000 0.000000 0.000000 0.000000 0.000000 0.000000 0.000000 0.000000 0.000000 13.518285 13.518285 13.518285 13.518285 13.518285 13.518285 13.518285 0.000000 0.000000 0.000000 0.000000 0.000000 0.000000 0.000000 0.000000 0.000000 0.000000 0.000000 0.000000 0.000000 0.000000 0.000000 0.000000 0.000000 0.000000 0.000000 0.000000 0.000000 0.000000 0.000000 0.000000 0.000000 0.000000
0.000000 0.000000 0.000000 0.000000 0.000000 0.000000 0.000000 0.000000 0.000000 0.000000 0.000000 0.000000 0.000000 0.000000 0.000000 0.000000 16.388337 16.388337 16.388337 16.388337 16.388337 16.388337 16.388337 16.388337 0.000000 0.000000 0.000000 0.000000 19.706842 19.706842 19.706842 19.706842 19.706842 19.706842 19.706842 19.706842 19.706842 0.000000 0.000000 0.000000 0.000000 0.000000 0.000000 0.000000 18.225981 18.225981 18.225981 18.225981 18.225981 18.225981 18.225981 18.225981 18.225981 0.000000 0.000000 0.000000 0.000000 0.000000 0.000000 0.000000 0.000000 0.000000 0.000000 0.000000 0.000000 0.000000 0.000000 0.000000 0.000000 0.000000 13.518285 13.518285 13.518285 13.518285 13.518285 13.518285 13.518285 0.000000 0.000000 0.000000 0.000000 0.000000 0.000000 0.000000 0.000000 0.000000 0.000000 0.000000 0.000000 0.000000 0.000000 0.000000 0.000000 0.000000 0.000000 0.000000 0.000000 0.000000 0.000000 0.000000 0.000000 0.000000 0.000000
0.000000 0.000000 0.000000 0.000000 0.000000 0.000000 0.000000 0.000000 0.000000 0.000000 0.000000 0.000000 0.000000 0.000000 0.000000 0.000000 16.388337 16.388337 16.388337 16.388337 16.388337 16.388337 16.388337 16.388337 0.000000 0.000000 0.000000 0.000000 19.706842 19.706842 19.706842 19.706842 19.706842 19.706842 19.706842 19.706842 19.706842 0.000000 0.000000 0.000000 0.000000 0.000000 0.000000 0.000000 18.225981 18.225981 18.225981 18.225981 18.225981 18.225981 18.225981 18.225981 18.225981 0.000000 0.000000 0.000000 0.000000 0.000000 0.000000 0.000000 0.000000 0.000000 0.000000 0.000000 0.000000 0.000000 0.000000 0.000000 0.000000 0.000000 13.518285 13.518285 13.518285 13.518285 13.518285 13.518285 13.518285 0.000000 0.000000 0.000000 0.000000 0.000000 0.000000 0.000000 0.000000 0.000000 0.000000 0.000000 0.000000 0.000000 0.000000 0.000000 0.000000 0.000000 0.000000 0.000000 0.000000 0.000000 0.000000 0.000000 0.000000 0.000000 0.000000
0.000000 0.000000 0.000000 0.000000 0.000000 0.000000 0.000000 0.000000 0.000000 0.000000 0.000000 0.000000 0.000000 0.000000 0.000000 0.000000 16.388337 16.388337 16.388337 16.388337 16.388337 16.388337 16.388337 16.388337 0.000000 0.000000 0.000000 0.000000 19.706842 19.706842 19.706842 19.706842 19.706842 19.706842 19.706842 19.706842 19.706842 0.000000 0.000000 0.000000 0.000000 0.000000 0.000000 0.000000 18.225981 18.225981 18.225981 18.225981 18.225981 18.225981 18.225981 18.225981 18.225981 0.000000 0.000000 0.000000 0.000000 0.000000 0.000000 0.000000 0.000000 0.000000 0.000000 0.000000 0.000000 0.000000 0.000000 0.000000 0.000000 0.000000 13.518285 13.518285 13.518285 13.518285 13.518285 13.518285 13.518285 0.000000 0.000000 0.000000 0.000000 0.000000 0.000000 0.000000 0.000000 0.000000 0.000000 0.000000 0.000000 0.000000 0.000000 0.000000 0.000000 0.000000 0.000000 0.000000 0.000000 0.000000 0.000000 0.000000 0.000000 0.000000 0.000000
0.000000 0.000000 0.000000 0.000000 0.000000 0.000000 0.000000 0.000000 0.000000 0.000000 0.000000 0.000000 0.000000 0.000000 0.000000 0.000000 16.388337 16.388337 16.388337 16.388337 16.388337 16.388337 16.388337 16.388337 0.000000 0.000000 0.000000 0.000000 19.706842 19.706842 19.706842 19.706842 19.706842 19.706842 19.706842 19.706842 19.706842 0.000000 0.000000 0.000000 0.000000 0.000000 0.000000 0.000000 18.225981 18.225981 18.225981 18.225981 18.225981 18.225981 18.225981 18.225981 18.225981 0.000000 0.000000 0.000000 0.000000 0.000000 0.000000 0.000000 0.000000 0.000000 0.000000 0.000000 0.000000 0.000000 0.000000 0.000000 0.000000 0.000000 13.518285 13.518285 13.518285 13.518285 13.518285 13.518285 13.518285 0.000000 0.000000 0.000000 0.000000 0.000000 0.000000 0.000000 0.000000 0.000000 0.000000 0.000000 0.000000 0.000000 0.000000 0.000000 0.000000 0.000000 0.000000 0.000000 0.000000 0.000000 0.000000 0.000000 0.000000 0.000000 0.000000
0.000000 0.000000 0.000000 0.000000 0.000000 0.000000 0.000000 0.000000 0.000000 0.000000 0.000000 0.000000 0.000000 0.000000 0.000000 0.000000 0.000000 0.000000 0.000000 0.000000 0.000000 0.000000 0.000000 0.000000 0.000000 0.000000 0.000000 0.000000 0.000000 0.000000 0.000000 0.000000 0.000000 0.000000 0.000000 0.000000 0.000000 0.000000 0.000000 0.000000 0.000000 0.000000 0.000000 0.000000 18.225981 18.225981 18.225981 18.225981 18.225981 18.225981 18.225981 18.225981 18.225981 0.000000 0.000000 0.000000 0.000000 0.000000 0.000000 0.000000 0.000000 0.000000 0.000000 0.000000 0.000000 0.000000 0.000000 0.000000 0.000000 0.000000 0.000000 0.000000 0.000000 0.000000 0.000000 0.000000 0.000000 0.000000 0.000000 0.000000 0.000000 0.000000 0.000000 0.000000 0.000000 0.000000 0.000000 0.000000 0.000000 0.000000 0.000000 0.000000 0.000000 0.000000 0.000000 0.000000 0.000000 0.000000 0.000000 0.000000 0.000000 0.000000 0.000000
0.000000 0.000000 0.000000 0.000000 0.000000 0.000000 0.000000 0.000000 0.000000 0.000000 0.000000 0.000000 0.000000 0.000000 0.000000 0.000000 0.000000 0.000000 0.000000 0.000000 0.000000 0.000000 0.000000 0.000000 0.000000 0.000000 0.000000 0.000000 0.000000 0.000000 0.000000 0.000000 0.000000 0.000000 0.000000 0.000000 0.000000 0.000000 0.000000 0.000000 0.000000 0.000000 0.000000 0.000000 18.225981 18.225981 18.225981 18.225981 18.225981 18.225981 18.225981 18.225981 18.225981 0.000000 0.000000 0.000000 0.000000 0.000000 0.000000 0.000000 0.000000 0.000000 0.000000 0.000000 0.000000 0.000000 0.000000 0.000000 0.000000 0.000000 0.000000 0.000000 0.000000 0.000000 0.000000 0.000000 0.000000 0.000000 0.000000 0.000000 0.000000 0.000000 0.000000 0.000000 0.000000 0.000000 0.000000 0.000000 0.000000 0.000000 0.000000 0.000000 0.000000 0.000000 0.000000 0.000000 0.000000 0.000000 0.000000 0.000000 0.000000 0.000000 0.000000
0.000000 0.000000 0.000000 0.000000 0.000000 0.000000 0.000000 0.000000 0.000000 0.000000 0.000000 0.000000 0.000000 0.000000 0.000000 0.000000 0.000000 0.000000 0.000000 0.000000 0.000000 0.000000 0.000000 0.000000 0.000000 0.000000 0.000000 0.000000 0.000000 0.000000 0.000000 0.000000 0.000000 0.000000 0.000000 0.000000 0.000000 0.000000 0.000000 0.000000 0.000000 0.000000 0.000000 0.000000 0.000000 0.000000 0.000000 0.000000 0.000000 0.000000 0.000000 0.000000 0.000000 0.000000 0.000000 0.000000 0.000000 0.000000 0.000000 0.000000 0.000000 0.000000 0.000000 0.000000 0.000000 0.000000 0.000000 0.000000 0.000000 0.000000 0.000000 0.000000 0.000000 0.000000 0.000000 0.000000 0.000000 0.000000 0.000000 0.000000 0.000000 0.000000 0.000000 0.000000 0.000000 0.000000 0.000000 0.000000 0.000000 0.000000 0.000000 0.000000 0.000000 0.000000 0.000000 0.000000 0.000000 0.000000 0.000000 0.000000 0.000000 0.000000 0.000000
0.000000 0.000000 0.000000 0.000000 0.000000 0.000000 0.000000 0.000000 0.000000 0.000000 0.000000 0.000000 0.000000 0.000000 0.000000 0.000000 0.000000 0.000000 0.000000 0.000000 0.000000 0.000000 0.000000 0.000000 0.000000 0.000000 0.000000 0.000000 0.000000 0.000000 0.000000 0.000000 0.000000 0.000000 0.000000 0.000000 0.000000 0.000000 0.000000 0.000000 0.000000 0.000000 0.000000 0.000000 0.000000 0.000000 0.000000 0.000000 0.000000 0.000000 0.000000 0.000000 0.000000 0.000000 0.000000 0.000000 0.000000 0.000000 0.000000 0.000000 0.000000 0.000000 0.000000 0.000000 0.000000 0.000000 0.000000 0.000000 0.000000 0.000000 0.000000 0.000000 0.000000 0.000000 0.000000 0.000000 0.000000 0.000000 0.000000 0.000000 0.000000 0.000000 0.000000 0.000000 0.000000 0.000000 0.000000 0.000000 0.000000 0.000000 0.000000 0.000000 0.000000 0.000000 0.000000 0.000000 0.000000 0.000000 0.000000 0.000000 0.000000 0.000000 0.000000
0.000000 0.000000 0.000000 0.000000 0.000000 0.000000 0.000000 0.000000 0.000000 0.000000 0.000000 0.000000 0.000000 0.000000 0.000000 0.000000 0.000000 0.000000 0.000000 0.000000 0.000000 0.000000 0.000000 0.000000 0.000000 0.000000 0.000000 0.000000 0.000000 0.000000 0.000000 0.000000 0.000000 0.000000 0.000000 0.000000 0.000000 0.000000 0.000000 0.000000 0.000000 0.000000 0.000000 0.000000 0.000000 0.000000 0.000000 0.000000 0.000000 0.000000 0.000000 0.000000 0.000000 0.000000 0.000000 0.000000 0.000000 0.000000 0.000000 0.000000 0.000000 0.000000 0.000000 0.000000 0.000000 0.000000 0.000000 0.000000 0.000000 0.000000 0.000000 0.000000 0.000000 0.000000 0.000000 0.000000 0.000000 0.000000 0.000000 0.000000 0.000000 0.000000 0.000000 0.000000 0.000000 0.000000 0.000000 0.000000 0.000000 0.000000 0.000000 0.000000 0.000000 0.000000 0.000000 0.000000 0.000000 0.000000 0.000000 0.000000 0.000000 0.000000 0.000000
0.000000 0.000000 0.000000 0.000000 0.000000 0.000000 0.000000 0.000000 0.000000 0.000000 0.000000 0.000000 0.000000 0.000000 0.000000 0.000000 0.000000 0.000000 0.000000 0.000000 0.000000 0.000000 0.000000 0.000000 0.000000 0.000000 0.000000 0.000000 0.000000 0.000000 0.000000 0.000000 0.000000 0.000000 0.000000 0.000000 0.000000 0.000000 0.000000 0.000000 0.000000 0.000000 0.000000 0.000000 0.000000 0.000000 0.000000 0.000000 0.000000 0.000000 0.000000 0.000000 0.000000 0.000000 0.000000 0.000000 0.000000 0.000000 0.000000 0.000000 0.000000 0.000000 0.000000 0.000000 0.000000 0.000000 0.000000 0.000000 0.000000 0.000000 0.000000 0.000000 0.000000 0.000000 0.000000 0.000000 0.000000 0.000000 0.000000 0.000000 0.000000 0.000000 0.000000 0.000000 0.000000 0.000000 0.000000 0.000000 0.000000 0.000000 0.000000 0.000000 0.000000 0.000000 0.000000 0.000000 0.000000 0.000000 0.000000 0.000000 0.000000 0.000000 0.000000
