0.000000 0.000000 0.000000 0.000000 0.000000 0.000000 0.000000 0.000000 0.000000 0.000000 0.000000 0.000000 0.000000 0.000000 0.000000 0.000000 0.000000 0.000000 0.000000 0.000000 0.000000 0.000000 0.000000 0.000000 0.000000 0.000000 0.000000 0.000000 0.000000 0.000000 0.000000 0.000000 0.000000 0.000000 0.000000 0.000000 0.000000 0.000000 0.000000 0.000000 0.000000 0.000000 0.000000 0.000000 0.000000 0.000000 0.000000 0.000000 0.000000 0.000000 0.000000 0.000000 0.000000 0.000000 0.000000 0.000000 0.000000 0.000000 0.000000 0.000000 0.000000 0.000000 0.000000 0.000000 0.000000 0.000000 0.000000 0.000000 0.000000 0.000000 0.000000 0.000000 0.000000 0.000000 0.000000 0.000000 0.000000 0.000000 0.000000 0.000000 0.000000 0.000000 0.000000 0.000000 0.000000 0.000000 0.000000 0.000000 0.000000 0.000000 0.000000 0.000000 0.000000 0.000000 0.000000 0.000000 0.000000 0.000000 0.000000 0.000000 0.000000 0.000000 0.000000
0.000000 0.000000 0.000000 0.000000 0.000000 0.000000 0.000000 0.000000 0.000000 0.000000 0.000000 0.000000 0.000000 0.000000 0.000000 0.000000 0.000000 0.000000 0.000000 0.000000 0.000000 0.000000 0.000000 0.000000 0.000000 0.000000 0.000000 0.000000 0.000000 0.000000 0.000000 0.000000 0.000000 0.000000 0.000000 0.000000 0.000000 0.000000 0.000000 0.000000 0.000000 0.000000 0.000000 0.000000 0.000000 0.000000 0.000000 0.000000 0.000000 0.000000 0.000000 0.000000 0.000000 0.000000 0.000000 0.000000 0.000000 0.000000 0.000000 0.000000 0.000000 0.000000 0.000000 0.000000 0.000000 0.000000 0.000000 0.000000 0.000000 0.000000 0.000000 0.000000 0.000000 0.000000 0.000000 0.000000 0.000000 0.000000 0.000000 0.000000 0.000000 0.000000 0.000000 0.000000 0.000000 0.000000 0.000000 0.000000 0.000000 0.000000 0.000000 0.000000 0.000000 0.000000 0.000000 0.000000 0.000000 0.000000 0.000000 0.000000 0.000000 0.000000 0.000000
0.000000 0.000000 0.000000 0.000000 0.000000 0.000000 0.000000 0.000000 0.000000 0.000000 0.000000 0.000000 0.000000 0.000000 0.000000 0.000000 0.000000 0.000000 0.000000 0.000000 0.000000 0.000000 0.000000 0.000000 0.000000 0.000000 0.000000 0.000000 0.000000 0.000000 0.000000 0.000000 0.000000 0.000000 0.000000 0.000000 0.000000 0.000000 0.000000 0.000000 0.000000 0.000000 0.000000 0.000000 0.000000 0.000000 0.000000 0.000000 0.000000 0.000000 0.000000 0.000000 0.000000 0.000000 0.000000 0.000000 0.000000 0.000000 0.000000 0.000000 0.000000 0.000000 0.000000 0.000000 0.000000 0.000000 0.000000 0.000000 0.000000 0.000000 0.000000 0.000000 0.000000 0.000000 0.000000 0.000000 0.000000 0.000000 0.000000 0.000000 0.000000 0.000000 0.000000 0.000000 0.000000 0.000000 0.000000 0.000000 0.000000 0.000000 0.000000 0.000000 0.000000 0.000000 0.000000 0.000000 0.000000 0.000000 0.000000 0.000000 0.000000 0.000000 0.000000
0.000000 0.000000 0.000000 0.000000 0.000000 0.000000 0.000000 0.000000 0.000000 0.000000 0.000000 0.000000 0.000000 0.000000 0.000000 0.000000 0.000000 0.000000 0.000000 0.000000 0.000000 0.000000 0.000000 0.000000 0.000000 0.000000 0.000000 0.000000 0.000000 0.000000 0.000000 0.000000 0.000000 0.000000 0.000000 0.000000 0.000000 0.000000 0.000000 0.000000 0.000000 0.000000 0.000000 0.000000 0.000000 0.000000 0.000000 0.000000 0.000000 0.000000 0.000000 0.000000 0.000000 0.000000 0.000000 0.000000 0.000000 0.000000 0.000000 0.000000 0.000000 0.000000 0.000000 0.000000 0.000000 0.000000 0.000000 0.000000 0.000000 0.000000 0.000000 0.000000 0.000000 0.000000 0.000000 0.000000 0.000000 0.000000 0.000000 0.000000 0.000000 0.000000 0.000000 0.000000 0.000000 0.000000 0.000000 0.000000 0.000000 0.000000 0.000000 0.000000 0.000000 0.000000 0.000000 0.000000 0.000000 0.000000 0.000000 0.000000 0.000000 0.000000 0.000000
0.000000 0.000000 0.000000 0.000000 0.000000 0.000000 0.000000 0.000000 0.000000 0.000000 0.000000 0.000000 0.000000 0.000000 0.000000 0.000000 0.000000 0.000000 0.000000 0.000000 0.000000 0.000000 0.000000 0.000000 0.000000 0.000000 0.000000 0.000000 0.000000 0.000000 0.000000 0.000000 0.000000 0.000000 0.000000 0.000000 0.000000 0.000000 0.000000 0.000000 0.000000 0.000000 0.000000 0.000000 0.000000 0.000000 0.000000 0.000000 0.000000 0.000000 0.000000 0.000000 0.000000 0.000000 0.000000 0.000000 0.000000 0.000000 0.000000 0.000000 0.000000 0.000000 0.000000 0.000000 0.000000 0.000000 0.000000 0.000000 0.000000 0.000000 0.000000 0.000000 0.000000 0.000000 0.000000 0.000000 0.000000 0.000000 0.000000 0.000000 0.000000 0.000000 0.000000 0.000000 0.000000 0.000000 0.000000 0.000000 0.000000 0.000000 0.000000 0.000000 0.000000 0.000000 0.000000 0.000000 0.000000 0.000000 0.000000 0.000000 0.000000 0.000000 0.000000
0.000000 0.000000 0.000000 0.000000 0.000000 0.000000 0.000000 0.000000 0.000000 0.000000 0.000000 0.000000 0.000000 0.000000 0.000000 0.000000 0.000000 0.000000 0.000000 0.000000 0.000000 0.000000 0.000000 0.000000 0.000000 0.000000 0.000000 0.000000 0.000000 0.000000 0.000000 0.000000 0.000000 0.000000 0.000000 0.000000 0.000000 0.000000 0.000000 0.000000 0.000000 0.000000 0.000000 0.000000 0.000000 0.000000 0.000000 0.000000 0.000000 0.000000 0.000000 0.000000 0.000000 0.000000 0.000000 0.000000 0.000000 0.000000 0.000000 0.000000 0.000000 0.000000 0.000000 0.000000 0.000000 0.000000 0.000000 0.000000 0.000000 0.000000 0.000000 0.000000 0.000000 0.000000 0.000000 0.000000 0.000000 0.000000 0.000000 0.000000 0.000000 0.000000 0.000000 0.000000 0.000000 0.000000 0.000000 0.000000 0.000000 0.000000 0.000000 0.000000 0.000000 0.000000 0.000000 0.000000 0.000000 0.000000 0.000000 0.000000 0.000000 0.000000 0.000000
0.000000 0.000000 0.000000 0.000000 0.000000 0.000000 4.982268 4.982268 4.982268 4.982268 4.982268 0.000000 0.000000 0.000000 0.000000 0.000000 0.000000 0.000000 0.000000 0.000000 0.000000 0.000000 0.000000 0.000000 0.000000 0.000000 0.000000 0.000000 0.000000 0.000000 12.937219 12.937219 12.937219 12.937219 12.937219 12.937219 12.937219 12.937219 12.937219 0.000000 0.000000 0.000000 0.000000 0.000000 0.000000 0.000000 0.000000 14.977987 14.977987 14.977987 14.977987 14.977987 14.977987 14.977987 14.977987 14.977987 0.000000 0.000000 0.000000 0.000000 0.000000 0.000000 0.000000 0.000000 0.000000 0.000000 0.000000 0.000000 0.000000 0.000000 0.000000 0.000000 0.000000 0.000000 0.000000 0.000000 0.000000 0.000000 0.000000 0.000000 0.000000 0.000000 0.000000 30.246286 30.246286 30.246286 30.246286 30.246286 30.246286 30.246286 30.246286 30.246286 30.246286 30.246286 30.246286 30.246286 30.246286 0.000000 0.000000 0.000000 0.000000 0.000000 0.000000
0.000000 0.000000 0.000000 0.000000 0.000000 0.000000 4.982268 4.982268 4.982268 4.982268 4.982268 0.000000 0.000000 0.000000 0.000000 0.000000 0.000000 0.000000 0.000000 0.000000 0.000000 0.000000 0.000000 0.000000 0.000000 0.000000 0.000000 0.000000 0.000000 0.000000 12.937219 12.937219 12.937219 12.937219 12.937219 12.937219 12.937219 12.937219 12.937219 0.000000 0.000000 0.000000 0.000000 0.000000 0.000000 0.000000 0.000000 14.977987 14.977987 14.977987 14.977987 14.977987 14.977987 14.977987 14.977987 14.977987 0.000000 0.000000 0.000000 0.000000 0.000000 0.000000 0.000000 0.000000 0.000000 0.000000 0.000000 0.000000 0.000000 0.000000 0.000000 0.000000 0.000000 0.000000 0.000000 0.000000 0.000000 0.000000 0.000000 0.000000 0.000000 0.000000 0.000000 30.246286 30.246286 30.246286 30.246286 30.246286 30.246286 30.246286 30.246286 30.246286 30.246286 30.246286 30.246286 30.246286 30.246286 0.000000 0.000000 0.000000 0.000000 0.000000 0.000000
0.000000 0.000000 0.000000 0.000000 0.000000 0.000000 4.982268 4.982268 4.982268 4.982268 4.982268 0.000000 0.000000 0.000000 0.000000 0.000000 0.000000 0.000000 0.000000 0.000000 0.000000 0.000000 0.000000 0.000000 0.000000 0.000000 0.000000 0.000000 0.000000 0.000000 12.937219 12.937219 12.937219 12.937219 12.937219 12.937219 12.937219 12.937219 12.937219 0.000000 0.000000 0.000000 0.000000 0.000000 0.000000 0.000000 0.000000 14.977987 14.977987 14.977987 14.977987 14.977987 14.977987 14.977987 14.977987 14.977987 0.000000 0.000000 0.000000 0.000000 0.000000 0.000000 0.000000 0.000000 0.000000 0.000000 0.000000 0.000000 0.000000 0.000000 0.000000 0.000000 0.000000 0.000000 0.000000 0.000000 0.000000 0.000000 0.000000 0.000000 0.000000 0.000000 0.000000 30.246286 30.246286 30.246286 30.246286 30.246286 30.246286 30.246286 30.246286 30.246286 30.246286 30.246286 30.246286 30.246286 30.246286 0.000000 0.000000 0.000000 0.000000 0.000000 0.000000
0.000000 0.000000 0.000000 0.000000 0.000000 0.000000 4.982268 4.982268 4.982268 4.982268 4.982268 0.000000 0.000000 0.000000 0.000000 0.000000 0.000000 0.000000 0.000000 0.000000 0.000000 0.000000 0.000000 0.000000 0.000000 0.000000 0.000000 0.000000 0.000000 0.000000 12.937219 12.937219 12.937219 12.937219 12.937219 12.937219 12.937219 12.937219 12.937219 0.000000 0.000000 0.000000 0.000000 0.000000 0.000000 0.000000 0.000000 14.977987 14.977987 14.977987 14.977987 14.977987 14.977987 14.977987 14.977987 14.977987 0.000000 0.000000 0.000000 0.000000 0.000000 0.000000 0.000000 0.000000 0.000000 0.000000 0.000000 0.000000 0.000000 0.000000 0.000000 0.000000 0.000000 0.000000 0.000000 0.000000 0.000000 0.000000 0.000000 0.000000 0.000000 0.000000 0.000000 30.246286 30.246286 30.246286 30.246286 30.246286 30.246286 30.246286 30.246286 30.246286 30.246286 30.246286 30.246286 30.246286 30.246286 0.000000 0.000000 0.000000 0.000000 0.000000 0.000000
0.000000 0.000000 0.000000 0.000000 0.000000 0.000000 0.000000 0.000000 0.000000 0.000000 0.000000 0.000000 0.000000 0.000000 0.000000 0.000000 0.000000 0.000000 0.000000 0.000000 0.000000 0.000000 0.000000 0.000000 0.000000 0.000000 0.000000 0.000000 0.000000 0.000000 12.937219 12.937219 12.937219 12.937219 12.937219 12.937219 12.937219 12.937219 12.937219 0.000000 0.000000 0.000000 0.000000 0.000000 0.000000 0.000000 0.000000 14.977987 14.977987 14.977987 14.977987 14.977987 14.977987 14.977987 14.977987 14.977987 0.000000 0.000000 0.000000 0.000000 0.000000 0.000000 0.000000 0.000000 0.000000 0.000000 0.000000 0.000000 0.000000 0.000000 0.000000 0.000000 0.000000 0.000000 0.000000 0.000000 0.000000 0.000000 0.000000 0.000000 0.000000 0.000000 0.000000 30.246286 30.246286 30.246286 30.246286 30.246286 30.246286 30.246286 30.246286 30.246286 30.246286 30.246286 30.246286 30.246286 30.246286 0.000000 0.000000 0.000000 0.000000 0.000000 0.000000
0.000000 0.000000 0.000000 0.000000 0.000000 0.000000 0.000000 0.000000 0.000000 0.000000 0.000000 0.000000 0.000000 0.000000 0.000000 0.000000 0.000000 0.000000 0.000000 0.000000 0.000000 0.000000 0.000000 0.000000 0.000000 0.000000 0.000000 0.000000 0.000000 0.000000 12.937219 12.937219 12.937219 12.937219 12.937219 12.937219 12.937219 12.937219 12.937219 0.000000 0.000000 0.000000 0.000000 0.000000 0.000000 0.000000 0.000000 14.977987 14.977987 14.977987 14.977987 14.977987 14.977987 14.977987 14.977987 14.977987 0.000000 0.000000 0.000000 0.000000 0.000000 0.000000 0.000000 0.000000 0.000000 0.000000 0.000000 0.000000 0.000000 0.000000 0.000000 0.000000 0.000000 0.000000 0.000000 0.000000 0.000000 0.000000 0.000000 0.000000 0.000000 0.000000 0.000000 30.246286 30.246286 30.246286 30.246286 30.246286 30.246286 30.246286 30.246286 30.246286 30.246286 30.246286 30.246286 30.246286 30.246286 0.000000 0.000000 0.000000 0.000000 0.000000 0.000000
0.000000 0.000000 0.000000 0.000000 0.000000 0.000000 0.000000 0.000000 0.000000 0.000000 0.000000 0.000000 0.000000 20.374965 20.374965 20.374965 20.374965 20.374965 20.374965 20.374965 20.374965 20.374965 20.374965 20.374965 0.000000 0.000000 0.000000 0.000000 0.000000 0.000000 0.000000 0.000000 0.000000 0.000000 0.000000 0.000000 0.000000 0.000000 0.000000 0.000000 0.000000 0.000000 0.000000 0.000000 0.000000 0.000000 0.000000 14.977987 14.977987 14.977987 14.977987 14.977987 14.977987 14.977987 14.977987 14.977987 0.000000 0.000000 0.000000 0.000000 0.000000 0.000000 0.000000 0.000000 0.000000 0.000000 0.000000 0.000000 0.000000 0.000000 0.000000 0.000000 0.000000 0.000000 0.000000 0.000000 0.000000 0.000000 0.000000 0.000000 0.000000 0.000000 0.000000 30.246286 30.246286 30.246286 30.246286 30.246286 30.246286 30.246286 30.246286 30.246286 30.246286 30.246286 30.246286 30.246286 30.246286 0.000000 0.000000 0.000000 0.000000 0.000000 0.000000
0.000000 0.000000 0.000000 0.000000 0.000000 0.000000 0.000000 0.000000 0.000000 0.000000 0.000000 0.000000 0.000000 20.374965 20.374965 20.374965 20.374965 20.374965 20.374965 20.374965 20.374965 20.374965 20.374965 20.374965 0.000000 0.000000 0.000000 0.000000 0.000000 0.000000 0.000000 0.000000 0.000000 0.000000 0.000000 0.000000 0.000000 0.000000 0.000000 0.000000 0.000000 0.000000 0.000000 0.000000 0.000000 0.000000 0.000000 0.000000 0.000000 0.000000 0.000000 0.000000 0.000000 0.000000 0.000000 0.000000 0.000000 0.000000 0.000000 0.000000 0.000000 0.000000 0.000000 0.000000 0.000000 0.000000 0.000000 0.000000 0.000000 0.000000 0.000000 0.000000 0.000000 0.000000 0.000000 0.000000 0.000000 0.000000 0.000000 0.000000 0.000000 0.000000 0.000000 30.246286 30.246286 30.246286 30.246286 30.246286 30.246286 30.246286 30.246286 30.246286 30.246286 30.246286 30.246286 30.246286 30.246286 0.000000 0.000000 0.000000 0.000000 0.000000 0.000000
0.000000 0.000000 0.000000 0.000000 0.000000 0.000000 5.470072 5.470072 5.470072 5.470072 5.470072 0.000000 0.000000 20.374965 20.374965 20.374965 20.374965 20.374965 20.374965 20.374965 20.374965 20.374965 20.374965 20.374965 0.000000 0.000000 0.000000 0.000000 0.000000 0.000000 0.000000 0.000000 0.000000 0.000000 0.000000 0.000000 0.000000 0.000000 0.000000 0.000000 0.000000 0.000000 0.000000 0.000000 0.000000 0.000000 0.000000 0.000000 0.000000 0.000000 0.000000 0.000000 0.000000 0.000000 0.000000 0.000000 0.000000 0.000000 0.000000 0.000000 0.000000 0.000000 0.000000 0.000000 0.000000 0.000000 0.000000 0.000000 0.000000 0.000000 0.000000 0.000000 0.000000 0.000000 0.000000 0.000000 0.000000 0.000000 0.000000 0.000000 0.000000 0.000000 0.000000 0.000000 0.000000 0.000000 0.000000 0.000000 0.000000 0.000000 0.000000 0.000000 0.000000 0.000000 0.000000 0.000000 0.000000 0.000000 0.000000 0.000000 0.000000 0.000000 0.000000
0.000000 0.000000 0.000000 0.000000 0.000000 0.000000 5.470072 5.470072 5.470072 5.470072 5.470072 0.000000 0.000000 20.374965 20.374965 20.374965 20.374965 20.374965 20.374965 20.374965 20.374965 20.374965 20.374965 20.374965 0.000000 0.000000 0.000000 0.000000 0.000000 0.000000 0.000000 0.000000 0.000000 0.000000 0.000000 0.000000 0.000000 0.000000 0.000000 0.000000 0.000000 0.000000 0.000000 0.000000 0.000000 0.000000 0.000000 0.000000 0.000000 0.000000 0.000000 0.000000 0.000000 0.000000 0.000000 0.000000 0.000000 0.000000 0.000000 0.000000 0.000000 0.000000 0.000000 0.000000 0.000000 0.000000 0.000000 0.000000 0.000000 0.000000 0.000000 0.000000 0.000000 0.000000 0.000000 0.000000 0.000000 0.000000 0.000000 0.000000 0.000000 0.000000 0.000000 0.000000 0.000000 0.000000 0.000000 0.000000 0.000000 0.000000 0.000000 0.000000 0.000000 0.000000 0.000000 0.000000 0.000000 0.000000 0.000000 0.000000 0.000000 0.000000 0.000000
0.000000 0.000000 0.000000 0.000000 0.000000 0.000000 5.470072 5.470072 5.470072 5.470072 5.470072 0.000000 0.000000 20.374965 20.374965 20.374965 20.374965 20.374965 20.374965 20.374965 20.374965 20.374965 20.374965 20.374965 0.000000 0.000000 0.000000 0.000000 0.000000 0.000000 17.551230 17.551230 17.551230 17.551230 17.551230 17.551230 17.551230 17.551230 17.551230 0.000000 0.000000 0.000000 0.000000 0.000000 0.000000 0.000000 0.000000 0.000000 0.000000 0.000000 0.000000 0.000000 0.000000 0.000000 0.000000 0.000000 0.000000 0.000000 0.000000 0.000000 0.000000 0.000000 0.000000 0.000000 0.000000 0.000000 0.000000 0.000000 0.000000 0.000000 0.000000 0.000000 0.000000 0.000000 0.000000 0.000000 0.000000 0.000000 0.000000 0.000000 0.000000 0.000000 0.000000 0.000000 0.000000 0.000000 0.000000 0.000000 0.000000 0.000000 0.000000 0.000000 0.000000 0.000000 0.000000 0.000000 0.000000 0.000000 0.000000 0.000000 0.000000 0.000000 0.000000
0.000000 0.000000 0.000000 0.000000 0.000000 0.000000 5.470072 5.470072 5.470072 5.470072 5.470072 0.000000 0.000000 20.374965 20.374965 20.374965 20.374965 20.374965 20.374965 20.374965 20.374965 20.374965 20.374965 20.374965 0.000000 0.000000 0.000000 0.000000 0.000000 0.000000 17.551230 17.551230 17.551230 17.551230 17.551230 17.551230 17.551230 17.551230 17.551230 0.000000 0.000000 0.000000 0.000000 0.000000 0.000000 0.000000 0.000000 0.000000 0.000000 0.000000 0.000000 0.000000 0.000000 0.000000 0.000000 0.000000 0.000000 0.000000 0.000000 0.000000 0.000000 0.000000 0.000000 0.000000 0.000000 0.000000 0.000000 0.000000 0.000000 0.000000 0.000000 0.000000 0.000000 0.000000 0.000000 0.000000 0.000000 0.000000 0.000000 0.000000 0.000000 0.000000 0.000000 0.000000 0.000000 0.000000 0.000000 0.000000 0.000000 0.000000 0.000000 0.000000 0.000000 0.000000 0.000000 0.000000 0.000000 0.000000 0.000000 0.000000 0.000000 0.000000 0.000000
0.000000 0.000000 0.000000 0.000000 0.000000 0.000000 0.000000 0.000000 0.000000 0.000000 0.000000 0.000000 0.000000 20.374965 20.374965 20.374965 20.374965 20.374965 20.374965 20.374965 20.374965 20.374965 20.374965 20.374965 0.000000 0.000000 0.000000 0.000000 0.000000 0.000000 17.551230 17.551230 17.551230 17.551230 17.551230 17.551230 17.551230 17.551230 17.551230 0.000000 0.000000 0.000000 0.000000 0.000000 0.000000 0.000000 0.000000 0.000000 0.000000 0.000000 0.000000 0.000000 0.000000 0.000000 0.000000 0.000000 0.000000 0.000000 0.000000 0.000000 0.000000 0.000000 0.000000 0.000000 0.000000 23.073289 23.073289 23.073289 23.073289 23.073289 23.073289 23.073289 23.073289 23.073289 23.073289 23.073289 23.073289 23.073289 23.073289 0.000000 0.000000 0.000000 0.000000 23.690652 23.690652 23.690652 23.690652 23.690652 23.690652 23.690652 23.690652 23.690652 23.690652 23.690652 23.690652 23.690652 23.690652 0.000000 0.000000 0.000000 0.000000 0.000000 0.000000
0.000000 0.000000 0.000000 0.000000 0.000000 0.000000 0.000000 0.000000 0.000000 0.000000 0.000000 0.000000 0.000000 20.374965 20.374965 20.374965 20.374965 20.374965 20.374965 20.374965 20.374965 20.374965 20.374965 20.374965 0.000000 0.000000 0.000000 0.000000 0.000000 0.000000 17.551230 17.551230 17.551230 17.551230 17.551230 17.551230 17.551230 17.551230 17.551230 0.000000 0.000000 0.000000 0.000000 0.000000 0.000000 0.000000 0.000000 0.000000 0.000000 0.000000 0.000000 0.000000 0.000000 0.000000 0.000000 0.000000 0.000000 0.000000 0.000000 0.000000 0.000000 0.000000 0.000000 0.000000 0.000000 23.073289 23.073289 23.073289 23.073289 23.073289 23.073289 23.073289 23.073289 23.073289 23.073289 23.073289 23.073289 23.073289 23.073289 0.000000 0.000000 0.000000 0.000000 23.690652 23.690652 23.690652 23.690652 23.690652 23.690652 23.690652 23.690652 23.690652 23.690652 23.690652 23.690652 23.690652 23.690652 0.000000 0.000000 0.000000 0.000000 0.000000 0.000000
0.000000 0.000000 0.000000 0.000000 0.000000 0.000000 0.000000 0.000000 0.000000 0.000000 0.000000 0.000000 0.000000 17.633936 17.633936 17.633936 17.633936 17.633936 17.633936 17.633936 17.633936 17.633936 17.633936 17.633936 0.000000 0.000000 0.000000 0.000000 0.000000 0.000000 17.551230 17.551230 17.551230 17.551230 17.551230 17.551230 17.551230 17.551230 17.551230 0.000000 0.000000 0.000000 0.000000 0.000000 0.000000 0.000000 0.000000 0.000000 0.000000 0.000000 0.000000 0.000000 0.000000 0.000000 0.000000 0.000000 0.000000 0.000000 0.000000 0.000000 0.000000 0.000000 0.000000 0.000000 0.000000 23.073289 23.073289 23.073289 23.073289 23.073289 23.073289 23.073289 23.073289 23.073289 23.073289 23.073289 23.073289 23.073289 23.073289 0.000000 0.000000 0.000000 0.000000 23.690652 23.690652 23.690652 23.690652 23.690652 23.690652 23.690652 23.690652 23.690652 23.690652 23.690652 23.690652 23.690652 23.690652 0.000000 0.000000 0.000000 0.000000 0.000000 0.000000
0.000000 0.000000 0.000000 0.000000 0.000000 0.000000 0.000000 0.000000 0.000000 0.000000 0.000000 0.000000 0.000000 17.633936 17.633936 17.633936 17.633936 17.633936 17.633936 17.633936 17.633936 17.633936 17.633936 17.633936 0.000000 0.000000 0.000000 0.000000 0.000000 0.000000 17.551230 17.551230 17.551230 17.551230 17.551230 17.551230 17.551230 17.551230 17.551230 0.000000 0.000000 0.000000 0.000000 0.000000 0.000000 0.000000 0.000000 0.000000 0.000000 0.000000 0.000000 0.000000 0.000000 0.000000 0.000000 0.000000 0.000000 0.000000 0.000000 0.000000 0.000000 0.000000 0.000000 0.000000 0.000000 23.073289 23.073289 23.073289 23.073289 23.073289 23.073289 23.073289 23.073289 23.073289 23.073289 23.073289 23.073289 23.073289 23.073289 0.000000 0.000000 0.000000 0.000000 23.690652 23.690652 23.690652 23.690652 23.690652 23.690652 23.690652 23.690652 23.690652 23.690652 23.690652 23.690652 23.690652 23.690652 0.000000 0.000000 0.000000 0.000000 0.000000 0.000000
0.000000 0.000000 0.000000 0.000000 0.000000 0.000000 0.000000 0.000000 0.000000 0.000000 0.000000 0.000000 0.000000 17.633936 17.633936 17.633936 17.633936 17.633936 17.633936 17.633936 17.633936 17.633936 17.633936 17.633936 0.000000 0.000000 0.000000 0.000000 0.000000 0.000000 17.551230 17.551230 17.551230 17.551230 17.551230 17.551230 17.551230 17.551230 17.551230 0.000000 0.000000 0.000000 0.000000 0.000000 0.000000 0.000000 0.000000 0.000000 0.000000 0.000000 0.000000 0.000000 0.000000 0.000000 0.000000 0.000000 0.000000 0.000000 0.000000 0.000000 0.000000 0.000000 0.000000 0.000000 0.000000 23.073289 23.073289 23.073289 23.073289 23.073289 23.073289 23.073289 23.073289 23.073289 23.073289 23.073289 23.073289 23.073289 23.073289 0.000000 0.000000 0.000000 0.000000 23.690652 23.690652 23.690652 23.690652 23.690652 23.690652 23.690652 23.690652 23.690652 23.690652 23.690652 23.690652 23.690652 23.690652 0.000000 0.000000 0.000000 0.000000 0.000000 0.000000
0.000000 0.000000 0.000000 0.000000 0.000000 0.000000 0.000000 0.000000 0.000000 0.000000 0.000000 0.000000 0.000000 17.633936 17.633936 17.633936 17.633936 17.633936 17.633936 17.633936 17.633936 17.633936 17.633936 17.633936 0.000000 0.000000 0.000000 0.000000 0.000000 0.000000 17.551230 17.551230 17.551230 17.551230 17.551230 17.551230 17.551230 17.551230 17.551230 0.000000 0.000000 0.000000 0.000000 0.000000 0.000000 0.000000 0.000000 0.000000 0.000000 0.000000 0.000000 0.000000 0.000000 0.000000 0.000000 0.000000 0.000000 0.000000 0.000000 0.000000 0.000000 0.000000 0.000000 0.000000 0.000000 23.073289 23.073289 23.073289 23.073289 23.073289 23.073289 23.073289 23.073289 23.073289 23.073289 23.073289 23.073289 23.073289 23.073289 0.000000 0.000000 0.000000 0.000000 23.690652 23.690652 23.690652 23.690652 23.690652 23.690652 23.690652 23.690652 23.690652 23.690652 23.690652 23.690652 23.690652 23.690652 0.000000 0.000000 0.000000 0.000000 0.000000 0.000000
0.000000 0.000000 0.000000 0.000000 0.000000 0.000000 0.000000 0.000000 0.000000 0.000000 0.000000 0.000000 0.000000 17.633936 17.633936 17.633936 17.633936 17.633936 17.633936 17.633936 17.633936 17.633936 17.633936 17.633936 0.000000 0.000000 0.000000 0.000000 0.000000 0.000000 17.551230 17.551230 17.551230 17.551230 17.551230 17.551230 17.551230 17.551230 17.551230 0.000000 0.000000 0.000000 0.000000 0.000000 0.000000 0.000000 0.000000 0.000000 0.000000 0.000000 0.000000 0.000000 0.000000 0.000000 0.000000 0.000000 0.000000 0.000000 0.000000 0.000000 0.000000 0.000000 0.000000 0.000000 0.000000 23.073289 23.073289 23.073289 23.073289 23.073289 23.073289 23.073289 23.073289 23.073289 23.073289 23.073289 23.073289 23.073289 23.073289 0.000000 0.000000 0.000000 0.000000 23.690652 23.690652 23.690652 23.690652 23.690652 23.690652 23.690652 23.690652 23.690652 23.690652 23.690652 23.690652 23.690652 23.690652 0.000000 0.000000 0.000000 0.000000 0.000000 0.000000
0.000000 0.000000 0.000000 0.000000 0.000000 0.000000 0.000000 0.000000 0.000000 0.000000 0.000000 0.000000 0.000000 17.633936 17.633936 17.633936 17.633936 17.633936 17.633936 17.633936 17.633936 17.633936 17.633936 17.633936 0.000000 0.000000 0.000000 0.000000 0.000000 0.000000 0.000000 0.000000 0.000000 0.000000 0.000000 0.000000 0.000000 0.000000 0.000000 0.000000 0.000000 0.000000 0.000000 0.000000 0.000000 0.000000 0.000000 0.000000 0.000000 0.000000 0.000000 0.000000 0.000000 0.000000 0.000000 0.000000 0.000000 0.000000 0.000000 0.000000 0.000000 0.000000 0.000000 0.000000 0.000000 0.000000 0.000000 0.000000 0.000000 0.000000 0.000000 0.000000 0.000000 0.000000 0.000000 0.000000 0.000000 0.000000 0.000000 0.000000 0.000000 0.000000 0.000000 0.000000 0.000000 0.000000 0.000000 0.000000 0.000000 0.000000 0.000000 0.000000 0.000000 0.000000 0.000000 0.000000 0.000000 0.000000 0.000000 0.000000 0.000000 0.000000 0.000000
0.000000 0.000000 0.000000 0.000000 0.000000 0.000000 0.000000 0.000000 0.000000 0.000000 0.000000 0.000000 0.000000 17.633936 17.633936 17.633936 17.633936 17.633936 17.633936 17.633936 17.633936 17.633936 17.633936 17.633936 0.000000 0.000000 0.000000 0.000000 0.000000 0.000000 0.000000 0.000000 0.000000 0.000000 0.000000 0.000000 0.000000 0.000000 0.000000 0.000000 0.000000 0.000000 0.000000 0.000000 0.000000 0.000000 0.000000 0.000000 0.000000 0.000000 0.000000 0.000000 0.000000 0.000000 0.000000 0.000000 0.000000 0.000000 0.000000 0.000000 0.000000 0.000000 0.000000 0.000000 0.000000 0.000000 0.000000 0.000000 0.000000 0.000000 0.000000 0.000000 0.000000 0.000000 0.000000 0.000000 0.000000 0.000000 0.000000 0.000000 0.000000 0.000000 0.000000 0.000000 0.000000 0.000000 0.000000 0.000000 0.000000 0.000000 0.000000 0.000000 0.000000 0.000000 0.000000 0.000000 0.000000 0.000000 0.000000 0.000000 0.000000 0.000000 0.000000
0.000000 0.000000 0.000000 0.000000 0.000000 0.000000 0.000000 0.000000 0.000000 0.000000 0.000000 0.000000 0.000000 0.000000 0.000000 0.000000 0.000000 0.000000 0.000000 0.000000 0.000000 0.000000 0.000000 0.000000 0.000000 0.000000 0.000000 0.000000 0.000000 0.000000 0.000000 0.000000 0.000000 0.000000 0.000000 0.000000 0.000000 0.000000 0.000000 0.000000 0.000000 0.000000 0.000000 0.000000 0.000000 0.000000 0.000000 0.000000 0.000000 0.000000 0.000000 0.000000 0.000000 0.000000 0.000000 0.000000 0.000000 0.000000 0.000000 0.000000 0.000000 0.000000 0.000000 0.000000 0.000000 0.000000 0.000000 0.000000 0.000000 0.000000 0.000000 0.000000 0.000000 0.000000 0.000000 0.000000 0.000000 0.000000 0.000000 0.000000 0.000000 0.000000 0.000000 0.000000 0.000000 0.000000 0.000000 0.000000 0.000000 0.000000 0.000000 0.000000 0.000000 0.000000 0.000000 0.000000 0.000000 0.000000 0.000000 0.000000 0.000000 0.000000 0.000000
0.000000 0.000000 0.000000 0.000000 0.000000 0.000000 0.000000 0.000000 0.000000 0.000000 0.000000 0.000000 0.000000 0.000000 0.000000 0.000000 0.000000 0.000000 0.000000 0.000000 0.000000 0.000000 0.000000 0.000000 0.000000 0.000000 0.000000 0.000000 0.000000 0.000000 0.000000 0.000000 0.000000 0.000000 0.000000 0.000000 0.000000 0.000000 0.000000 0.000000 0.000000 0.000000 0.000000 0.000000 0.000000 0.000000 0.000000 0.000000 0.000000 0.000000 0.000000 0.000000 0.000000 0.000000 0.000000 0.000000 0.000000 0.000000 0.000000 0.000000 0.000000 0.000000 0.000000 0.000000 0.000000 0.000000 0.000000 0.000000 0.000000 0.000000 0.000000 0.000000 0.000000 0.000000 0.000000 0.000000 0.000000 0.000000 0.000000 0.000000 0.000000 0.000000 0.000000 0.000000 0.000000 0.000000 0.000000 0.000000 0.000000 0.000000 0.000000 0.000000 0.000000 0.000000 0.000000 0.000000 0.000000 0.000000 0.000000 0.000000 0.000000 0.000000 0.000000
0.000000 0.000000 0.000000 0.000000 0.000000 0.000000 0.000000 0.000000 0.000000 0.000000 0.000000 0.000000 0.000000 0.000000 0.000000 0.000000 0.000000 0.000000 0.000000 0.000000 0.000000 0.000000 0.000000 0.000000 0.000000 0.000000 0.000000 0.000000 0.000000 0.000000 0.000000 0.000000 0.000000 0.000000 0.000000 0.000000 0.000000 0.000000 0.000000 0.000000 0.000000 0.000000 0.000000 0.000000 0.000000 0.000000 0.000000 0.000000 0.000000 0.000000 0.000000 0.000000 0.000000 0.000000 0.000000 0.000000 0.000000 0.000000 0.000000 0.000000 0.000000 0.000000 0.000000 0.000000 0.000000 0.000000 0.000000 0.000000 0.000000 0.000000 0.000000 0.000000 0.000000 0.000000 0.000000 0.000000 0.000000 0.000000 0.000000 0.000000 0.000000 0.000000 0.000000 0.000000 0.000000 0.000000 0.000000 0.000000 0.000000 0.000000 0.000000 0.000000 0.000000 0.000000 0.000000 0.000000 0.000000 0.000000 0.000000 0.000000 0.000000 0.000000 0.000000
0.000000 0.000000 0.000000 0.000000 0.000000 0.000000 0.000000 0.000000 0.000000 0.000000 0.000000 0.000000 0.000000 0.000000 0.000000 0.000000 0.000000 0.000000 0.000000 0.000000 0.000000 0.000000 0.000000 0.000000 0.000000 0.000000 0.000000 0.000000 0.000000 0.000000 0.000000 0.000000 0.000000 0.000000 0.000000 0.000000 0.000000 0.000000 0.000000 0.000000 0.000000 0.000000 0.000000 0.000000 0.000000 0.000000 0.000000 0.000000 0.000000 0.000000 0.000000 0.000000 0.000000 0.000000 0.000000 0.000000 0.000000 0.000000 0.000000 0.000000 0.000000 0.000000 0.000000 0.000000 0.000000 0.000000 0.000000 0.000000 0.000000 0.000000 0.000000 0.000000 0.000000 0.000000 0.000000 0.000000 0.000000 0.000000 0.000000 0.000000 0.000000 0.000000 0.000000 0.000000 0.000000 0.000000 0.000000 0.000000 0.000000 0.000000 0.000000 0.000000 0.000000 0.000000 0.000000 0.000000 0.000000 0.000000 0.000000 0.000000 0.000000 0.000000 0.000000
0.000000 0.000000 0.000000 0.000000 0.000000 0.000000 0.000000 0.000000 0.000000 0.000000 0.000000 0.000000 0.000000 0.000000 0.000000 0.000000 0.000000 0.000000 0.000000 0.000000 0.000000 0.000000 0.000000 0.000000 0.000000 0.000000 0.000000 0.000000 0.000000 0.000000 0.000000 0.000000 0.000000 0.000000 0.000000 0.000000 0.000000 0.000000 0.000000 0.000000 0.000000 0.000000 0.000000 0.000000 0.000000 0.000000 0.000000 0.000000 0.000000 0.000000 0.000000 0.000000 0.000000 0.000000 0.000000 0.000000 0.000000 0.000000 0.000000 0.000000 0.000000 0.000000 0.000000 0.000000 0.000000 0.000000 0.000000 0.000000 0.000000 0.000000 0.000000 0.000000 0.000000 0.000000 0.000000 0.000000 0.000000 0.000000 0.000000 0.000000 0.000000 0.000000 0.000000 0.000000 0.000000 0.000000 0.000000 0.000000 0.000000 0.000000 0.000000 0.000000 0.000000 0.000000 0.000000 0.000000 0.000000 0.000000 0.000000 0.000000 0.000000 0.000000 0.000000
0.000000 0.000000 0.000000 0.000000 0.000000 0.000000 0.000000 0.000000 0.000000 0.000000 0.000000 0.000000 0.000000 0.000000 0.000000 0.000000 0.000000 0.000000 0.000000 0.000000 0.000000 0.000000 0.000000 0.000000 0.000000 0.000000 0.000000 0.000000 0.000000 0.000000 0.000000 0.000000 0.000000 0.000000 0.000000 0.000000 0.000000 0.000000 0.000000 0.000000 0.000000 0.000000 0.000000 0.000000 0.000000 0.000000 13.130266 13.130266 13.130266 13.130266 13.130266 13.130266 13.244812 13.244812 13.244812 13.244812 13.244812 13.244812 0.000000 0.000000 0.000000 0.000000 0.000000 0.000000 0.000000 0.000000 0.000000 0.000000 0.000000 0.000000 0.000000 0.000000 0.000000 0.000000 0.000000 0.000000 0.000000 0.000000 0.000000 0.000000 0.000000 0.000000 0.000000 0.000000 0.000000 0.000000 0.000000 0.000000 0.000000 0.000000 0.000000 0.000000 0.000000 0.000000 0.000000 0.000000 0.000000 0.000000 0.000000 0.000000 0.000000 0.000000 0.000000
0.000000 0.000000 0.000000 0.000000 0.000000 0.000000 0.000000 0.000000 0.000000 0.000000 0.000000 0.000000 0.000000 0.000000 0.000000 0.000000 0.000000 0.000000 0.000000 0.000000 0.000000 0.000000 0.000000 0.000000 0.000000 0.000000 0.000000 0.000000 0.000000 0.000000 0.000000 0.000000 0.000000 0.000000 0.000000 0.000000 0.000000 0.000000 0.000000 0.000000 0.000000 0.000000 0.000000 0.000000 0.000000 0.000000 13.130266 13.130266 13.130266 13.130266 13.130266 13.130266 13.244812 13.244812 13.244812 13.244812 13.244812 13.244812 0.000000 0.000000 0.000000 0.000000 0.000000 0.000000 0.000000 0.000000 0.000000 0.000000 0.000000 0.000000 0.000000 0.000000 0.000000 0.000000 0.000000 0.000000 0.000000 0.000000 0.000000 0.000000 0.000000 0.000000 0.000000 0.000000 0.000000 0.000000 0.000000 0.000000 0.000000 0.000000 0.000000 0.000000 0.000000 0.000000 0.000000 0.000000 0.000000 0.000000 0.000000 0.000000 0.000000 0.000000 0.000000
0.000000 0.000000 0.000000 0.000000 0.000000 0.000000 46.528582 46.528582 46.528582 46.528582 46.528582 46.528582 46.528582 46.528582 46.528582 46.528582 46.528582 46.528582 46.528582 46.528582 46.528582 46.528582 0.000000 0.000000 0.000000 0.000000 0.000000 0.000000 0.000000 0.000000 0.000000 0.000000 0.000000 0.000000 0.000000 0.000000 0.000000 0.000000 0.000000 0.000000 0.000000 0.000000 0.000000 0.000000 0.000000 0.000000 13.130266 13.130266 13.130266 13.130266 13.130266 13.130266 13.244812 13.244812 13.244812 13.244812 13.244812 13.244812 0.000000 0.000000 0.000000 0.000000 0.000000 0.000000 0.000000 30.715960 30.715960 30.715960 30.715960 30.715960 30.715960 30.715960 30.715960 30.715960 30.715960 0.000000 0.000000 0.000000 0.000000 20.877044 20.877044 20.877044 20.877044 20.877044 20.877044 20.877044 0.000000 0.000000 0.000000 0.000000 22.738719 22.738719 22.738719 22.738719 22.738719 22.738719 22.738719 0.000000 0.000000 0.000000 0.000000 0.000000 0.000000
0.000000 0.000000 0.000000 0.000000 0.000000 0.000000 46.528582 46.528582 46.528582 46.528582 46.528582 46.528582 46.528582 46.528582 46.528582 46.528582 46.528582 46.528582 46.528582 46.528582 46.528582 46.528582 0.000000 0.000000 0.000000 0.000000 0.000000 0.000000 0.000000 0.000000 0.000000 0.000000 0.000000 0.000000 0.000000 0.000000 0.000000 0.000000 0.000000 0.000000 0.000000 0.000000 0.000000 0.000000 0.000000 0.000000 13.130266 13.130266 13.130266 13.130266 13.130266 13.130266 13.244812 13.244812 13.244812 13.244812 13.244812 13.244812 0.000000 0.000000 0.000000 0.000000 0.000000 0.000000 0.000000 30.715960 30.715960 30.715960 30.715960 30.715960 30.715960 30.715960 30.715960 30.715960 30.715960 0.000000 0.000000 0.000000 0.000000 20.877044 20.877044 20.877044 20.877044 20.877044 20.877044 20.877044 0.000000 0.000000 0.000000 0.000000 22.738719 22.738719 22.738719 22.738719 22.738719 22.738719 22.738719 0.000000 0.000000 0.000000 0.000000 0.000000 0.000000
0.000000 0.000000 0.000000 0.000000 0.000000 0.000000 46.528582 46.528582 46.528582 46.528582 46.528582 46.528582 46.528582 46.528582 46.528582 46.528582 46.528582 46.528582 46.528582 46.528582 46.528582 46.528582 0.000000 0.000000 0.000000 0.000000 0.000000 0.000000 0.000000 0.000000 0.000000 0.000000 0.000000 0.000000 0.000000 0.000000 0.000000 0.000000 0.000000 0.000000 0.000000 0.000000 0.000000 0.000000 0.000000 0.000000 13.130266 13.130266 13.130266 13.130266 13.130266 13.130266 13.244812 13.244812 13.244812 13.244812 13.244812 13.244812 0.000000 0.000000 0.000000 0.000000 0.000000 0.000000 0.000000 30.715960 30.715960 30.715960 30.715960 30.715960 30.715960 30.715960 30.715960 30.715960 30.715960 0.000000 0.000000 0.000000 0.000000 20.877044 20.877044 20.877044 20.877044 20.877044 20.877044 20.877044 0.000000 0.000000 0.000000 0.000000 22.738719 22.738719 22.738719 22.738719 22.738719 22.738719 22.738719 0.000000 0.000000 0.000000 0.000000 0.000000 0.000000
0.000000 0.000000 0.000000 0.000000 0.000000 0.000000 46.528582 46.528582 46.528582 46.528582 46.528582 46.528582 46.528582 46.528582 46.528582 46.528582 46.528582 46.528582 46.528582 46.528582 46.528582 46.528582 0.000000 0.000000 0.000000 0.000000 0.000000 0.000000 0.000000 0.000000 0.000000 0.000000 0.000000 0.000000 0.000000 0.000000 0.000000 0.000000 0.000000 0.000000 0.000000 0.000000 0.000000 0.000000 0.000000 0.000000 13.130266 13.130266 13.130266 13.130266 13.130266 13.130266 13.244812 13.244812 13.244812 13.244812 13.244812 13.244812 0.000000 0.000000 0.000000 0.000000 0.000000 0.000000 0.000000 30.715960 30.715960 30.715960 30.715960 30.715960 30.715960 30.715960 30.715960 30.715960 30.715960 0.000000 0.000000 0.000000 0.000000 20.877044 20.877044 20.877044 20.877044 20.877044 20.877044 20.877044 0.000000 0.000000 0.000000 0.000000 22.738719 22.738719 22.738719 22.738719 22.738719 22.738719 22.738719 0.000000 0.000000 0.000000 0.000000 0.000000 0.000000
0.000000 0.000000 0.000000 0.000000 0.000000 0.000000 46.528582 46.528582 46.528582 46.528582 46.528582 46.528582 46.528582 46.528582 46.528582 46.528582 46.528582 46.528582 46.528582 46.528582 46.528582 46.528582 0.000000 0.000000 0.000000 0.000000 0.000000 0.000000 0.000000 0.000000 0.000000 0.000000 0.000000 0.000000 0.000000 0.000000 0.000000 0.000000 0.000000 0.000000 0.000000 0.000000 0.000000 0.000000 0.000000 0.000000 13.130266 13.130266 13.130266 13.130266 13.130266 13.130266 13.244812 13.244812 13.244812 13.244812 13.244812 13.244812 0.000000 0.000000 0.000000 0.000000 0.000000 0.000000 0.000000 30.715960 30.715960 30.715960 30.715960 30.715960 30.715960 30.715960 30.715960 30.715960 30.715960 0.000000 0.000000 0.000000 0.000000 20.877044 20.877044 20.877044 20.877044 20.877044 20.877044 20.877044 0.000000 0.000000 0.000000 0.000000 22.738719 22.738719 22.738719 22.738719 22.738719 22.738719 22.738719 0.000000 0.000000 0.000000 0.000000 0.000000 0.000000
0.000000 0.000000 0.000000 0.000000 0.000000 0.000000 46.528582 46.528582 46.528582 46.528582 46.528582 46.528582 46.528582 46.528582 46.528582 46.528582 46.528582 46.528582 46.528582 46.528582 46.528582 46.528582 0.000000 0.000000 0.000000 0.000000 0.000000 0.000000 0.000000 0.000000 0.000000 0.000000 0.000000 0.000000 0.000000 0.000000 0.000000 0.000000 0.000000 0.000000 0.000000 0.000000 0.000000 0.000000 0.000000 0.000000 13.130266 13.130266 13.130266 13.130266 13.130266 13.130266 13.244812 13.244812 13.244812 13.244812 13.244812 13.244812 0.000000 0.000000 0.000000 0.000000 0.000000 0.000000 0.000000 30.715960 30.715960 30.715960 30.715960 30.715960 30.715960 30.715960 30.715960 30.715960 30.715960 0.000000 0.000000 0.000000 0.000000 20.877044 20.877044 20.877044 20.877044 20.877044 20.877044 20.877044 0.000000 0.000000 0.000000 0.000000 22.738719 22.738719 22.738719 22.738719 22.738719 22.738719 22.738719 0.000000 0.000000 0.000000 0.000000 0.000000 0.000000
0.000000 0.000000 0.000000 0.000000 0.000000 0.000000 46.528582 46.528582 46.528582 46.528582 46.528582 46.528582 46.528582 46.528582 46.528582 46.528582 46.528582 46.528582 46.528582 46.528582 46.528582 46.528582 0.000000 0.000000 0.000000 0.000000 0.000000 0.000000 0.000000 0.000000 0.000000 0.000000 0.000000 0.000000 0.000000 0.000000 0.000000 0.000000 0.000000 0.000000 0.000000 0.000000 0.000000 0.000000 0.000000 0.000000 13.130266 13.130266 13.130266 13.130266 13.130266 13.130266 13.244812 13.244812 13.244812 13.244812 13.244812 13.244812 0.000000 0.000000 0.000000 0.000000 0.000000 0.000000 0.000000 30.715960 30.715960 30.715960 30.715960 30.715960 30.715960 30.715960 30.715960 30.715960 30.715960 0.000000 0.000000 0.000000 0.000000 20.877044 20.877044 20.877044 20.877044 20.877044 20.877044 20.877044 0.000000 0.000000 0.000000 0.000000 22.738719 22.738719 22.738719 22.738719 22.738719 22.738719 22.738719 0.000000 0.000000 0.000000 0.000000 0.000000 0.000000
0.000000 0.000000 0.000000 0.000000 0.000000 0.000000 46.528582 46.528582 46.528582 46.528582 46.528582 46.528582 46.528582 46.528582 46.528582 46.528582 46.528582 46.528582 46.528582 46.528582 46.528582 46.528582 0.000000 0.000000 0.000000 0.000000 0.000000 0.000000 0.000000 0.000000 0.000000 0.000000 0.000000 0.000000 0.000000 0.000000 0.000000 0.000000 0.000000 0.000000 0.000000 0.000000 0.000000 0.000000 0.000000 0.000000 11.457270 11.457270 11.457270 11.457270 11.457270 11.457270 11.557221 11.557221 11.557221 11.557221 11.557221 11.557221 0.000000 0.000000 0.000000 0.000000 0.000000 0.000000 0.000000 30.715960 30.715960 30.715960 30.715960 30.715960 30.715960 30.715960 30.715960 30.715960 30.715960 0.000000 0.000000 0.000000 0.000000 20.877044 20.877044 20.877044 20.877044 20.877044 20.877044 20.877044 0.000000 0.000000 0.000000 0.000000 22.738719 22.738719 22.738719 22.738719 22.738719 22.738719 22.738719 0.000000 0.000000 0.000000 0.000000 0.000000 0.000000
0.000000 0.000000 0.000000 0.000000 0.000000 0.000000 46.528582 46.528582 46.528582 46.528582 46.528582 46.528582 46.528582 46.528582 46.528582 46.528582 46.528582 46.528582 46.528582 46.528582 46.528582 46.528582 0.000000 0.000000 0.000000 0.000000 0.000000 0.000000 0.000000 0.000000 0.000000 0.000000 0.000000 0.000000 0.000000 0.000000 0.000000 0.000000 0.000000 0.000000 0.000000 0.000000 0.000000 0.000000 0.000000 0.000000 11.457270 11.457270 11.457270 11.457270 11.457270 11.457270 11.557221 11.557221 11.557221 11.557221 11.557221 11.557221 0.000000 0.000000 0.000000 0.000000 0.000000 0.000000 0.000000 30.715960 30.715960 30.715960 30.715960 30.715960 30.715960 30.715960 30.715960 30.715960 30.715960 0.000000 0.000000 0.000000 0.000000 20.877044 20.877044 20.877044 20.877044 20.877044 20.877044 20.877044 0.000000 0.000000 0.000000 0.000000 22.738719 22.738719 22.738719 22.738719 22.738719 22.738719 22.738719 0.000000 0.000000 0.000000 0.000000 0.000000 0.000000
0.000000 0.000000 0.000000 0.000000 0.000000 0.000000 46.528582 46.528582 46.528582 46.528582 46.528582 46.528582 46.528582 46.528582 46.528582 46.528582 46.528582 46.528582 46.528582 46.528582 46.528582 46.528582 0.000000 0.000000 0.000000 0.000000 0.000000 0.000000 0.000000 0.000000 0.000000 0.000000 0.000000 0.000000 0.000000 0.000000 0.000000 0.000000 0.000000 0.000000 0.000000 0.000000 0.000000 0.000000 0.000000 0.000000 11.457270 11.457270 11.457270 11.457270 11.457270 11.457270 11.557221 11.557221 11.557221 11.557221 11.557221 11.557221 0.000000 0.000000 0.000000 0.000000 0.000000 0.000000 0.000000 30.715960 30.715960 30.715960 30.715960 30.715960 30.715960 30.715960 30.715960 30.715960 30.715960 0.000000 0.000000 0.000000 0.000000 20.877044 20.877044 20.877044 20.877044 20.877044 20.877044 20.877044 0.000000 0.000000 0.000000 0.000000 22.738719 22.738719 22.738719 22.738719 22.738719 22.738719 22.738719 0.000000 0.000000 0.000000 0.000000 0.000000 0.000000
0.000000 0.000000 0.000000 0.000000 0.000000 0.000000 46.528582 46.528582 46.528582 46.528582 46.528582 46.528582 46.528582 46.528582 46.528582 46.528582 46.528582 46.528582 46.528582 46.528582 46.528582 46.528582 0.000000 0.000000 0.000000 0.000000 0.000000 0.000000 0.000000 0.000000 0.000000 0.000000 0.000000 0.000000 0.000000 0.000000 0.000000 0.000000 0.000000 0.000000 0.000000 0.000000 0.000000 0.000000 0.000000 0.000000 11.457270 11.457270 11.457270 11.457270 11.457270 11.457270 11.557221 11.557221 11.557221 11.557221 11.557221 11.557221 0.000000 0.000000 0.000000 0.000000 0.000000 0.000000 0.000000 30.715960 30.715960 30.715960 30.715960 30.715960 30.715960 30.715960 30.715960 30.715960 30.715960 0.000000 0.000000 0.000000 0.000000 20.877044 20.877044 20.877044 20.877044 20.877044 20.877044 20.877044 0.000000 0.000000 0.000000 0.000000 22.738719 22.738719 22.738719 22.738719 22.738719 22.738719 22.738719 0.000000 0.000000 0.000000 0.000000 0.000000 0.000000
0.000000 0.000000 0.000000 0.000000 0.000000 0.000000 46.528582 46.528582 46.528582 46.528582 46.528582 46.528582 46.528582 46.528582 46.528582 46.528582 46.528582 46.528582 46.528582 46.528582 46.528582 46.528582 0.000000 0.000000 0.000000 0.000000 0.000000 0.000000 0.000000 0.000000 0.000000 0.000000 0.000000 0.000000 0.000000 0.000000 0.000000 0.000000 0.000000 0.000000 0.000000 0.000000 0.000000 0.000000 0.000000 0.000000 11.457270 11.457270 11.457270 11.457270 11.457270 11.457270 11.557221 11.557221 11.557221 11.557221 11.557221 11.557221 0.000000 0.000000 0.000000 0.000000 0.000000 0.000000 0.000000 30.715960 30.715960 30.715960 30.715960 30.715960 30.715960 30.715960 30.715960 30.715960 30.715960 0.000000 0.000000 0.000000 0.000000 20.877044 20.877044 20.877044 20.877044 20.877044 20.877044 20.877044 0.000000 0.000000 0.000000 0.000000 22.738719 22.738719 22.738719 22.738719 22.738719 22.738719 22.738719 0.000000 0.000000 0.000000 0.000000 0.000000 0.000000
0.000000 0.000000 0.000000 0.000000 0.000000 0.000000 0.000000 0.000000 0.000000 0.000000 0.000000 0.000000 0.000000 0.000000 0.000000 0.000000 0.000000 0.000000 0.000000 0.000000 0.000000 0.000000 0.000000 0.000000 0.000000 0.000000 0.000000 0.000000 0.000000 0.000000 0.000000 0.000000 0.000000 0.000000 0.000000 0.000000 0.000000 0.000000 0.000000 0.000000 0.000000 0.000000 0.000000 0.000000 0.000000 0.000000 11.457270 11.457270 11.457270 11.457270 11.457270 11.457270 11.557221 11.557221 11.557221 11.557221 11.557221 11.557221 0.000000 0.000000 0.000000 0.000000 0.000000 0.000000 0.000000 0.000000 0.000000 0.000000 0.000000 0.000000 0.000000 0.000000 0.000000 0.000000 0.000000 0.000000 0.000000 0.000000 0.000000 0.000000 0.000000 0.000000 0.000000 0.000000 0.000000 0.000000 0.000000 0.000000 0.000000 0.000000 0.000000 0.000000 0.000000 0.000000 0.000000 0.000000 0.000000 0.000000 0.000000 0.000000 0.000000 0.000000 0.000000
0.000000 0.000000 0.000000 0.000000 0.000000 0.000000 0.000000 0.000000 0.000000 0.000000 0.000000 0.000000 0.000000 0.000000 0.000000 0.000000 0.000000 0.000000 0.000000 0.000000 0.000000 0.000000 0.000000 0.000000 0.000000 0.000000 0.000000 0.000000 0.000000 0.000000 0.000000 0.000000 0.000000 0.000000 0.000000 0.000000 0.000000 0.000000 0.000000 0.000000 0.000000 0.000000 0.000000 0.000000 0.000000 0.000000 11.457270 11.457270 11.457270 11.457270 11.457270 11.457270 11.557221 11.557221 11.557221 11.557221 11.557221 11.557221 0.000000 0.000000 0.000000 0.000000 0.000000 0.000000 0.000000 0.000000 0.000000 0.000000 0.000000 0.000000 0.000000 0.000000 0.000000 0.000000 0.000000 0.000000 0.000000 0.000000 0.000000 0.000000 0.000000 0.000000 0.000000 0.000000 0.000000 0.000000 0.000000 0.000000 0.000000 0.000000 0.000000 0.000000 0.000000 0.000000 0.000000 0.000000 0.000000 0.000000 0.000000 0.000000 0.000000 0.000000 0.000000
0.000000 0.000000 0.000000 0.000000 0.000000 0.000000 0.000000 0.000000 0.000000 0.000000 0.000000 0.000000 0.000000 0.000000 0.000000 0.000000 0.000000 0.000000 0.000000 0.000000 0.000000 0.000000 0.000000 0.000000 0.000000 0.000000 0.000000 0.000000 0.000000 0.000000 0.000000 0.000000 0.000000 0.000000 0.000000 0.000000 0.000000 0.000000 0.000000 0.000000 0.000000 0.000000 0.000000 0.000000 0.000000 0.000000 0.000000 0.000000 0.000000 0.000000 0.000000 0.000000 0.000000 0.000000 0.000000 0.000000 0.000000 0.000000 0.000000 0.000000 0.000000 0.000000 0.000000 0.000000 0.000000 0.000000 0.000000 0.000000 0.000000 0.000000 0.000000 0.000000 0.000000 0.000000 0.000000 0.000000 0.000000 0.000000 0.000000 0.000000 0.000000 0.000000 0.000000 0.000000 0.000000 0.000000 0.000000 0.000000 0.000000 0.000000 0.000000 0.000000 0.000000 0.000000 0.000000 0.000000 0.000000 0.000000 0.000000 0.000000 0.000000 0.000000 0.000000
0.000000 0.000000 0.000000 0.000000 0.000000 0.000000 0.000000 0.000000 0.000000 0.000000 0.000000 0.000000 0.000000 0.000000 0.000000 0.000000 0.000000 0.000000 0.000000 0.000000 0.000000 0.000000 0.000000 0.000000 0.000000 0.000000 0.000000 0.000000 0.000000 0.000000 0.000000 0.000000 0.000000 0.000000 0.000000 0.000000 0.000000 0.000000 0.000000 0.000000 0.000000 0.000000 0.000000 0.000000 0.000000 0.000000 0.000000 0.000000 0.000000 0.000000 0.000000 0.000000 0.000000 0.000000 0.000000 0.000000 0.000000 0.000000 0.000000 0.000000 0.000000 0.000000 0.000000 0.000000 0.000000 0.000000 0.000000 0.000000 0.000000 0.000000 0.000000 0.000000 0.000000 0.000000 0.000000 0.000000 0.000000 0.000000 0.000000 0.000000 0.000000 0.000000 0.000000 0.000000 0.000000 0.000000 0.000000 0.000000 0.000000 0.000000 0.000000 0.000000 0.000000 0.000000 0.000000 0.000000 0.000000 0.000000 0.000000 0.000000 0.000000 0.000000 0.000000
0.000000 0.000000 0.000000 0.000000 0.000000 0.000000 0.000000 0.000000 0.000000 0.000000 0.000000 0.000000 0.000000 0.000000 0.000000 0.000000 0.000000 0.000000 0.000000 0.000000 0.000000 0.000000 0.000000 0.000000 0.000000 0.000000 0.000000 0.000000 0.000000 0.000000 0.000000 0.000000 0.000000 0.000000 0.000000 0.000000 0.000000 0.000000 0.000000 0.000000 0.000000 0.000000 0.000000 0.000000 0.000000 0.000000 0.000000 0.000000 0.000000 0.000000 0.000000 0.000000 0.000000 0.000000 0.000000 0.000000 0.000000 0.000000 0.000000 0.000000 0.000000 0.000000 0.000000 0.000000 0.000000 0.000000 0.000000 0.000000 0.000000 0.000000 0.000000 0.000000 0.000000 0.000000 0.000000 0.000000 0.000000 0.000000 0.000000 0.000000 0.000000 0.000000 0.000000 0.000000 0.000000 0.000000 0.000000 0.000000 0.000000 0.000000 0.000000 0.000000 0.000000 0.000000 0.000000 0.000000 0.000000 0.000000 0.000000 0.000000 0.000000 0.000000 0.000000
0.000000 0.000000 0.000000 0.000000 0.000000 0.000000 0.000000 0.000000 0.000000 0.000000 0.000000 0.000000 0.000000 0.000000 0.000000 0.000000 0.000000 0.000000 0.000000 0.000000 0.000000 0.000000 0.000000 0.000000 0.000000 0.000000 0.000000 0.000000 0.000000 0.000000 0.000000 0.000000 0.000000 0.000000 0.000000 0.000000 0.000000 0.000000 0.000000 0.000000 0.000000 0.000000 0.000000 0.000000 0.000000 0.000000 0.000000 0.000000 0.000000 0.000000 0.000000 0.000000 0.000000 0.000000 0.000000 0.000000 0.000000 0.000000 0.000000 0.000000 0.000000 0.000000 0.000000 0.000000 0.000000 0.000000 0.000000 0.000000 0.000000 0.000000 0.000000 0.000000 0.000000 0.000000 0.000000 0.000000 0.000000 0.000000 0.000000 0.000000 0.000000 0.000000 0.000000 0.000000 0.000000 0.000000 0.000000 0.000000 0.000000 0.000000 0.000000 0.000000 0.000000 0.000000 0.000000 0.000000 0.000000 0.000000 0.000000 0.000000 0.000000 0.000000 0.000000
0.000000 0.000000 0.000000 0.000000 0.000000 0.000000 0.000000 0.000000 0.000000 0.000000 0.000000 0.000000 0.000000 0.000000 0.000000 0.000000 0.000000 0.000000 0.000000 0.000000 0.000000 0.000000 0.000000 0.000000 0.000000 0.000000 0.000000 0.000000 0.000000 0.000000 0.000000 0.000000 0.000000 0.000000 0.000000 0.000000 0.000000 0.000000 0.000000 0.000000 0.000000 0.000000 0.000000 0.000000 0.000000 0.000000 0.000000 0.000000 0.000000 0.000000 0.000000 0.000000 0.000000 0.000000 0.000000 0.000000 0.000000 0.000000 0.000000 0.000000 0.000000 0.000000 0.000000 0.000000 0.000000 0.000000 0.000000 0.000000 0.000000 0.000000 0.000000 0.000000 0.000000 0.000000 0.000000 0.000000 0.000000 0.000000 0.000000 0.000000 0.000000 0.000000 0.000000 0.000000 0.000000 0.000000 0.000000 0.000000 0.000000 0.000000 0.000000 0.000000 0.000000 0.000000 0.000000 0.000000 0.000000 0.000000 0.000000 0.000000 0.000000 0.000000 0.000000
0.000000 0.000000 0.000000 0.000000 11.995648 11.995648 11.995648 11.995648 11.995648 11.995648 11.995648 11.995648 17.271688 17.271688 17.271688 17.271688 17.271688 17.271688 17.271688 17.271688 17.271688 17.271688 17.271688 17.271688 0.000000 0.000000 0.000000 0.000000 0.000000 18.055703 18.055703 18.055703 18.055703 18.055703 18.055703 18.055703 18.055703 18.055703 18.055703 18.055703 18.055703 0.000000 0.000000 0.000000 0.000000 0.000000 0.000000 0.000000 0.000000 0.000000 0.000000 0.000000 0.000000 0.000000 0.000000 0.000000 0.000000 0.000000 0.000000 0.000000 0.000000 0.000000 0.000000 0.000000 0.000000 0.000000 0.000000 0.000000 0.000000 0.000000 0.000000 0.000000 0.000000 0.000000 0.000000 0.000000 0.000000 0.000000 0.000000 0.000000 0.000000 0.000000 0.000000 0.000000 0.000000 0.000000 0.000000 0.000000 0.000000 0.000000 0.000000 0.000000 0.000000 0.000000 0.000000 0.000000 0.000000 0.000000 0.000000 0.000000 0.000000 0.000000 0.000000
0.000000 0.000000 0.000000 0.000000 11.995648 11.995648 11.995648 11.995648 11.995648 11.995648 11.995648 11.995648 17.271688 17.271688 17.271688 17.271688 17.271688 17.271688 17.271688 17.271688 17.271688 17.271688 17.271688 17.271688 0.000000 0.000000 0.000000 0.000000 0.000000 18.055703 18.055703 18.055703 18.055703 18.055703 18.055703 18.055703 18.055703 18.055703 18.055703 18.055703 18.055703 0.000000 0.000000 0.000000 0.000000 0.000000 0.000000 0.000000 0.000000 0.000000 0.000000 0.000000 0.000000 0.000000 0.000000 0.000000 0.000000 0.000000 0.000000 0.000000 0.000000 0.000000 0.000000 0.000000 0.000000 0.000000 0.000000 0.000000 0.000000 0.000000 0.000000 0.000000 0.000000 0.000000 0.000000 0.000000 0.000000 0.000000 0.000000 0.000000 0.000000 0.000000 0.000000 0.000000 0.000000 0.000000 0.000000 0.000000 0.000000 0.000000 0.000000 0.000000 0.000000 0.000000 0.000000 0.000000 0.000000 0.000000 0.000000 0.000000 0.000000 0.000000 0.000000
0.000000 0.000000 0.000000 0.000000 11.995648 11.995648 11.995648 11.995648 11.995648 11.995648 11.995648 11.995648 17.271688 17.271688 17.271688 17.271688 17.271688 17.271688 17.271688 17.271688 17.271688 17.271688 17.271688 17.271688 0.000000 0.000000 0.000000 0.000000 0.000000 18.055703 18.055703 18.055703 18.055703 18.055703 18.055703 18.055703 18.055703 18.055703 18.055703 18.055703 18.055703 0.000000 0.000000 0.000000 0.000000 0.000000 0.000000 18.931268 18.931268 18.931268 18.931268 18.931268 18.931268 18.931268 18.931268 18.931268 0.000000 0.000000 0.000000 0.000000 0.000000 0.000000 0.000000 0.000000 0.000000 14.458023 14.458023 14.458023 14.458023 14.458023 14.458023 14.458023 0.000000 0.000000 0.000000 0.000000 13.805994 13.805994 13.805994 13.805994 13.805994 13.805994 0.000000 0.000000 0.000000 0.000000 24.346109 24.346109 24.346109 24.346109 24.346109 24.346109 24.346109 24.346109 24.346109 24.346109 24.346109 0.000000 0.000000 0.000000 0.000000 0.000000 0.000000
0.000000 0.000000 0.000000 0.000000 11.995648 11.995648 11.995648 11.995648 11.995648 11.995648 11.995648 11.995648 17.271688 17.271688 17.271688 17.271688 17.271688 17.271688 17.271688 17.271688 17.271688 17.271688 17.271688 17.271688 0.000000 0.000000 0.000000 0.000000 0.000000 18.055703 18.055703 18.055703 18.055703 18.055703 18.055703 18.055703 18.055703 18.055703 18.055703 18.055703 18.055703 0.000000 0.000000 0.000000 0.000000 0.000000 0.000000 18.931268 18.931268 18.931268 18.931268 18.931268 18.931268 18.931268 18.931268 18.931268 0.000000 0.000000 0.000000 0.000000 0.000000 0.000000 0.000000 0.000000 0.000000 14.458023 14.458023 14.458023 14.458023 14.458023 14.458023 14.458023 0.000000 0.000000 0.000000 0.000000 13.805994 13.805994 13.805994 13.805994 13.805994 13.805994 0.000000 0.000000 0.000000 0.000000 24.346109 24.346109 24.346109 24.346109 24.346109 24.346109 24.346109 24.346109 24.346109 24.346109 24.346109 0.000000 0.000000 0.000000 0.000000 0.000000 0.000000
0.000000 0.000000 0.000000 0.000000 11.995648 11.995648 11.995648 11.995648 11.995648 11.995648 11.995648 11.995648 17.271688 17.271688 17.271688 17.271688 17.271688 17.271688 17.271688 17.271688 17.271688 17.271688 17.271688 17.271688 0.000000 0.000000 0.000000 0.000000 0.000000 18.055703 18.055703 18.055703 18.055703 18.055703 18.055703 18.055703 18.055703 18.055703 18.055703 18.055703 18.055703 0.000000 0.000000 0.000000 0.000000 0.000000 0.000000 18.931268 18.931268 18.931268 18.931268 18.931268 18.931268 18.931268 18.931268 18.931268 0.000000 0.000000 0.000000 0.000000 0.000000 0.000000 0.000000 0.000000 0.000000 14.458023 14.458023 14.458023 14.458023 14.458023 14.458023 14.458023 0.000000 0.000000 0.000000 0.000000 13.805994 13.805994 13.805994 13.805994 13.805994 13.805994 0.000000 0.000000 0.000000 0.000000 24.346109 24.346109 24.346109 24.346109 24.346109 24.346109 24.346109 24.346109 24.346109 24.346109 24.346109 0.000000 0.000000 0.000000 0.000000 0.000000 0.000000
0.000000 0.000000 0.000000 0.000000 11.995648 11.995648 11.995648 11.995648 11.995648 11.995648 11.995648 11.995648 17.271688 17.271688 17.271688 17.271688 17.271688 17.271688 17.271688 17.271688 17.271688 17.271688 17.271688 17.271688 0.000000 0.000000 0.000000 0.000000 0.000000 18.055703 18.055703 18.055703 18.055703 18.055703 18.055703 18.055703 18.055703 18.055703 18.055703 18.055703 18.055703 0.000000 0.000000 0.000000 0.000000 0.000000 0.000000 18.931268 18.931268 18.931268 18.931268 18.931268 18.931268 18.931268 18.931268 18.931268 0.000000 0.000000 0.000000 0.000000 0.000000 0.000000 0.000000 0.000000 0.000000 14.458023 14.458023 14.458023 14.458023 14.458023 14.458023 14.458023 0.000000 0.000000 0.000000 0.000000 13.805994 13.805994 13.805994 13.805994 13.805994 13.805994 0.000000 0.000000 0.000000 0.000000 24.346109 24.346109 24.346109 24.346109 24.346109 24.346109 24.346109 24.346109 24.346109 24.346109 24.346109 0.000000 0.000000 0.000000 0.000000 0.000000 0.000000
0.000000 0.000000 0.000000 0.000000 11.875489 11.875489 11.875489 11.875489 11.875489 11.875489 11.875489 11.875489 17.098679 17.098679 17.098679 17.098679 17.098679 17.098679 17.098679 17.098679 17.098679 17.098679 17.098679 17.098679 0.000000 0.000000 0.000000 0.000000 0.000000 17.970901 17.970901 17.970901 17.970901 17.970901 17.970901 17.970901 17.970901 17.970901 17.970901 17.970901 17.970901 0.000000 0.000000 0.000000 0.000000 0.000000 0.000000 18.931268 18.931268 18.931268 18.931268 18.931268 18.931268 18.931268 18.931268 18.931268 0.000000 0.000000 0.000000 0.000000 0.000000 0.000000 0.000000 0.000000 0.000000 14.458023 14.458023 14.458023 14.458023 14.458023 14.458023 14.458023 0.000000 0.000000 0.000000 0.000000 13.805994 13.805994 13.805994 13.805994 13.805994 13.805994 0.000000 0.000000 0.000000 0.000000 24.346109 24.346109 24.346109 24.346109 24.346109 24.346109 24.346109 24.346109 24.346109 24.346109 24.346109 0.000000 0.000000 0.000000 0.000000 0.000000 0.000000
0.000000 0.000000 0.000000 0.000000 11.875489 11.875489 11.875489 11.875489 11.875489 11.875489 11.875489 11.875489 17.098679 17.098679 17.098679 17.098679 17.098679 17.098679 17.098679 17.098679 17.098679 17.098679 17.098679 17.098679 0.000000 0.000000 0.000000 0.000000 0.000000 17.970901 17.970901 17.970901 17.970901 17.970901 17.970901 17.970901 17.970901 17.970901 17.970901 17.970901 17.970901 0.000000 0.000000 0.000000 0.000000 0.000000 0.000000 18.931268 18.931268 18.931268 18.931268 18.931268 18.931268 18.931268 18.931268 18.931268 0.000000 0.000000 0.000000 0.000000 0.000000 0.000000 0.000000 0.000000 0.000000 14.458023 14.458023 14.458023 14.458023 14.458023 14.458023 14.458023 0.000000 0.000000 0.000000 0.000000 13.805994 13.805994 13.805994 13.805994 13.805994 13.805994 0.000000 0.000000 0.000000 0.000000 24.346109 24.346109 24.346109 24.346109 24.346109 24.346109 24.346109 24.346109 24.346109 24.346109 24.346109 0.000000 0.000000 0.000000 0.000000 0.000000 0.000000
0.000000 0.000000 0.000000 0.000000 11.875489 11.875489 11.875489 11.875489 11.875489 11.875489 11.875489 11.875489 17.098679 17.098679 17.098679 17.098679 17.098679 17.098679 17.098679 17.098679 17.098679 17.098679 17.098679 17.098679 0.000000 0.000000 0.000000 0.000000 0.000000 17.970901 17.970901 17.970901 17.970901 17.970901 17.970901 17.970901 17.970901 17.970901 17.970901 17.970901 17.970901 0.000000 0.000000 0.000000 0.000000 0.000000 0.000000 18.931268 18.931268 18.931268 18.931268 18.931268 18.931268 18.931268 18.931268 18.931268 0.000000 0.000000 0.000000 0.000000 0.000000 0.000000 0.000000 0.000000 0.000000 14.458023 14.458023 14.458023 14.458023 14.458023 14.458023 14.458023 0.000000 0.000000 0.000000 0.000000 13.805994 13.805994 13.805994 13.805994 13.805994 13.805994 0.000000 0.000000 0.000000 0.000000 24.346109 24.346109 24.346109 24.346109 24.346109 24.346109 24.346109 24.346109 24.346109 24.346109 24.346109 0.000000 0.000000 0.000000 0.000000 0.000000 0.000000
0.000000 0.000000 0.000000 0.000000 11.875489 11.875489 11.875489 11.875489 11.875489 11.875489 11.875489 11.875489 17.098679 17.098679 17.098679 17.098679 17.098679 17.098679 17.098679 17.098679 17.098679 17.098679 17.098679 17.098679 0.000000 0.000000 0.000000 0.000000 0.000000 17.970901 17.970901 17.970901 17.970901 17.970901 17.970901 17.970901 17.970901 17.970901 17.970901 17.970901 17.970901 0.000000 0.000000 0.000000 0.000000 0.000000 0.000000 18.931268 18.931268 18.931268 18.931268 18.931268 18.931268 18.931268 18.931268 18.931268 0.000000 0.000000 0.000000 0.000000 0.000000 0.000000 0.000000 0.000000 0.000000 14.458023 14.458023 14.458023 14.458023 14.458023 14.458023 14.458023 0.000000 0.000000 0.000000 0.000000 13.805994 13.805994 13.805994 13.805994 13.805994 13.805994 0.000000 0.000000 0.000000 0.000000 24.346109 24.346109 24.346109 24.346109 24.346109 24.346109 24.346109 24.346109 24.346109 24.346109 24.346109 0.000000 0.000000 0.000000 0.000000 0.000000 0.000000
0.000000 0.000000 0.000000 0.000000 11.875489 11.875489 11.875489 11.875489 11.875489 11.875489 11.875489 11.875489 17.098679 17.098679 17.098679 17.098679 17.098679 17.098679 17.098679 17.098679 17.098679 17.098679 17.098679 17.098679 0.000000 0.000000 0.000000 0.000000 0.000000 17.970901 17.970901 17.970901 17.970901 17.970901 17.970901 17.970901 17.970901 17.970901 17.970901 17.970901 17.970901 0.000000 0.000000 0.000000 0.000000 0.000000 0.000000 18.931268 18.931268 18.931268 18.931268 18.931268 18.931268 18.931268 18.931268 18.931268 0.000000 0.000000 0.000000 0.000000 0.000000 0.000000 0.000000 0.000000 0.000000 14.458023 14.458023 14.458023 14.458023 14.458023 14.458023 14.458023 0.000000 0.000000 0.000000 0.000000 13.805994 13.805994 13.805994 13.805994 13.805994 13.805994 0.000000 0.000000 0.000000 0.000000 24.346109 24.346109 24.346109 24.346109 24.346109 24.346109 24.346109 24.346109 24.346109 24.346109 24.346109 0.000000 0.000000 0.000000 0.000000 0.000000 0.000000
0.000000 0.000000 0.000000 0.000000 11.875489 11.875489 11.875489 11.875489 11.875489 11.875489 11.875489 11.875489 17.098679 17.098679 17.098679 17.098679 17.098679 17.098679 17.098679 17.098679 17.098679 17.098679 17.098679 17.098679 0.000000 0.000000 0.000000 0.000000 0.000000 17.970901 17.970901 17.970901 17.970901 17.970901 17.970901 17.970901 17.970901 17.970901 17.970901 17.970901 17.970901 0.000000 0.000000 0.000000 0.000000 0.000000 0.000000 0.000000 0.000000 0.000000 0.000000 0.000000 0.000000 0.000000 0.000000 0.000000 0.000000 0.000000 0.000000 0.000000 0.000000 0.000000 0.000000 0.000000 0.000000 0.000000 0.000000 0.000000 0.000000 0.000000 0.000000 0.000000 0.000000 0.000000 0.000000 0.000000 0.000000 0.000000 0.000000 0.000000 0.000000 0.000000 0.000000 0.000000 0.000000 0.000000 0.000000 0.000000 0.000000 0.000000 0.000000 0.000000 0.000000 0.000000 0.000000 0.000000 0.000000 0.000000 0.000000 0.000000 0.000000 0.000000 0.000000
0.000000 0.000000 0.000000 0.000000 11.875489 11.875489 11.875489 11.875489 11.875489 11.875489 11.875489 11.875489 17.098679 17.098679 17.098679 17.098679 17.098679 17.098679 17.098679 17.098679 17.098679 17.098679 17.098679 17.098679 0.000000 0.000000 0.000000 0.000000 0.000000 17.970901 17.970901 17.970901 17.970901 17.970901 17.970901 17.970901 17.970901 17.970901 17.970901 17.970901 17.970901 0.000000 0.000000 0.000000 0.000000 0.000000 0.000000 0.000000 0.000000 0.000000 0.000000 0.000000 0.000000 0.000000 0.000000 0.000000 0.000000 0.000000 0.000000 0.000000 0.000000 0.000000 0.000000 0.000000 0.000000 0.000000 0.000000 0.000000 0.000000 0.000000 0.000000 0.000000 0.000000 0.000000 0.000000 0.000000 0.000000 0.000000 0.000000 0.000000 0.000000 0.000000 0.000000 0.000000 0.000000 0.000000 0.000000 0.000000 0.000000 0.000000 0.000000 0.000000 0.000000 0.000000 0.000000 0.000000 0.000000 0.000000 0.000000 0.000000 0.000000 0.000000 0.000000
0.000000 0.000000 0.000000 0.000000 0.000000 0.000000 0.000000 0.000000 0.000000 0.000000 0.000000 0.000000 0.000000 0.000000 0.000000 0.000000 0.000000 0.000000 0.000000 0.000000 0.000000 0.000000 0.000000 0.000000 0.000000 0.000000 0.000000 0.000000 0.000000 0.000000 0.000000 0.000000 0.000000 0.000000 0.000000 0.000000 0.000000 0.000000 0.000000 0.000000 0.000000 0.000000 0.000000 0.000000 0.000000 0.000000 0.000000 0.000000 0.000000 0.000000 0.000000 0.000000 0.000000 0.000000 0.000000 0.000000 0.000000 0.000000 0.000000 0.000000 0.000000 0.000000 0.000000 0.000000 0.000000 0.000000 0.000000 0.000000 0.000000 0.000000 0.000000 0.000000 0.000000 0.000000 0.000000 0.000000 0.000000 0.000000 0.000000 0.000000 0.000000 0.000000 0.000000 0.000000 0.000000 0.000000 0.000000 0.000000 0.000000 0.000000 0.000000 0.000000 0.000000 0.000000 0.000000 0.000000 0.000000 0.000000 0.000000 0.000000 0.000000 0.000000 0.000000
0.000000 0.000000 0.000000 0.000000 0.000000 0.000000 0.000000 0.000000 0.000000 0.000000 0.000000 0.000000 0.000000 0.000000 0.000000 0.000000 0.000000 0.000000 0.000000 0.000000 0.000000 0.000000 0.000000 0.000000 0.000000 0.000000 0.000000 0.000000 0.000000 0.000000 0.000000 0.000000 0.000000 0.000000 0.000000 0.000000 0.000000 0.000000 0.000000 0.000000 0.000000 0.000000 0.000000 0.000000 0.000000 0.000000 0.000000 0.000000 0.000000 0.000000 0.000000 0.000000 0.000000 0.000000 0.000000 0.000000 0.000000 0.000000 0.000000 0.000000 0.000000 0.000000 0.000000 0.000000 0.000000 0.000000 0.000000 0.000000 0.000000 0.000000 0.000000 0.000000 0.000000 0.000000 0.000000 0.000000 0.000000 0.000000 0.000000 0.000000 0.000000 0.000000 0.000000 0.000000 0.000000 0.000000 0.000000 0.000000 0.000000 0.000000 0.000000 0.000000 0.000000 0.000000 0.000000 0.000000 0.000000 0.000000 0.000000 0.000000 0.000000 0.000000 0.000000
0.000000 0.000000 0.000000 0.000000 0.000000 0.000000 0.000000 0.000000 0.000000 0.000000 0.000000 0.000000 0.000000 0.000000 0.000000 0.000000 0.000000 0.000000 0.000000 0.000000 0.000000 0.000000 0.000000 0.000000 0.000000 0.000000 0.000000 0.000000 0.000000 0.000000 0.000000 0.000000 0.000000 0.000000 0.000000 0.000000 0.000000 0.000000 0.000000 0.000000 0.000000 0.000000 0.000000 0.000000 0.000000 0.000000 0.000000 0.000000 0.000000 0.000000 0.000000 0.000000 0.000000 0.000000 0.000000 0.000000 0.000000 0.000000 0.000000 0.000000 0.000000 0.000000 0.000000 0.000000 0.000000 0.000000 0.000000 0.000000 0.000000 0.000000 0.000000 0.000000 0.000000 0.000000 0.000000 0.000000 0.000000 0.000000 0.000000 0.000000 0.000000 0.000000 0.000000 0.000000 0.000000 0.000000 0.000000 0.000000 0.000000 0.000000 0.000000 0.000000 0.000000 0.000000 0.000000 0.000000 0.000000 0.000000 0.000000 0.000000 0.000000 0.000000 0.000000
0.000000 0.000000 0.000000 0.000000 0.000000 0.000000 0.000000 0.000000 0.000000 0.000000 0.000000 0.000000 0.000000 0.000000 0.000000 0.000000 0.000000 0.000000 0.000000 0.000000 0.000000 0.000000 0.000000 0.000000 0.000000 0.000000 0.000000 0.000000 0.000000 0.000000 0.000000 0.000000 0.000000 0.000000 0.000000 0.000000 0.000000 0.000000 0.000000 0.000000 0.000000 0.000000 0.000000 0.000000 0.000000 0.000000 0.000000 0.000000 0.000000 0.000000 0.000000 0.000000 0.000000 0.000000 0.000000 0.000000 0.000000 0.000000 0.000000 0.000000 0.000000 0.000000 0.000000 0.000000 0.000000 0.000000 0.000000 0.000000 0.000000 0.000000 0.000000 0.000000 0.000000 0.000000 0.000000 0.000000 0.000000 0.000000 0.000000 0.000000 0.000000 0.000000 0.000000 0.000000 0.000000 0.000000 0.000000 0.000000 0.000000 0.000000 0.000000 0.000000 0.000000 0.000000 0.000000 0.000000 0.000000 0.000000 0.000000 0.000000 0.000000 0.000000 0.000000
0.000000 0.000000 0.000000 0.000000 0.000000 0.000000 0.000000 0.000000 0.000000 0.000000 0.000000 0.000000 0.000000 0.000000 0.000000 0.000000 0.000000 0.000000 0.000000 0.000000 0.000000 0.000000 0.000000 0.000000 0.000000 0.000000 0.000000 0.000000 0.000000 0.000000 0.000000 0.000000 0.000000 0.000000 0.000000 0.000000 0.000000 0.000000 0.000000 0.000000 0.000000 0.000000 0.000000 0.000000 0.000000 0.000000 0.000000 0.000000 0.000000 0.000000 0.000000 0.000000 0.000000 0.000000 0.000000 0.000000 0.000000 0.000000 0.000000 0.000000 0.000000 0.000000 0.000000 0.000000 0.000000 0.000000 0.000000 0.000000 0.000000 0.000000 0.000000 0.000000 0.000000 0.000000 0.000000 0.000000 0.000000 0.000000 0.000000 0.000000 0.000000 0.000000 0.000000 0.000000 0.000000 0.000000 0.000000 0.000000 0.000000 0.000000 0.000000 0.000000 0.000000 0.000000 0.000000 0.000000 0.000000 0.000000 0.000000 0.000000 0.000000 0.000000 0.000000
0.000000 0.000000 0.000000 0.000000 0.000000 0.000000 0.000000 0.000000 0.000000 0.000000 0.000000 0.000000 0.000000 0.000000 0.000000 0.000000 0.000000 0.000000 0.000000 0.000000 0.000000 0.000000 0.000000 0.000000 0.000000 0.000000 0.000000 0.000000 0.000000 0.000000 0.000000 0.000000 0.000000 0.000000 0.000000 0.000000 0.000000 0.000000 0.000000 0.000000 0.000000 0.000000 0.000000 0.000000 0.000000 0.000000 0.000000 0.000000 0.000000 0.000000 0.000000 0.000000 0.000000 0.000000 0.000000 0.000000 0.000000 0.000000 0.000000 0.000000 0.000000 0.000000 0.000000 0.000000 0.000000 0.000000 0.000000 0.000000 0.000000 0.000000 0.000000 0.000000 0.000000 0.000000 0.000000 0.000000 0.000000 0.000000 0.000000 0.000000 0.000000 0.000000 0.000000 0.000000 0.000000 0.000000 0.000000 0.000000 0.000000 0.000000 0.000000 0.000000 0.000000 0.000000 0.000000 0.000000 0.000000 0.000000 0.000000 0.000000 0.000000 0.000000 0.000000
0.000000 0.000000 0.000000 0.000000 0.000000 0.000000 0.000000 0.000000 0.000000 0.000000 0.000000 0.000000 0.000000 0.000000 0.000000 0.000000 0.000000 0.000000 0.000000 0.000000 0.000000 0.000000 0.000000 0.000000 0.000000 0.000000 0.000000 0.000000 0.000000 0.000000 0.000000 0.000000 0.000000 0.000000 0.000000 0.000000 0.000000 0.000000 0.000000 0.000000 0.000000 0.000000 0.000000 0.000000 0.000000 0.000000 0.000000 0.000000 0.000000 0.000000 0.000000 0.000000 0.000000 0.000000 0.000000 0.000000 0.000000 0.000000 0.000000 0.000000 0.000000 0.000000 0.000000 0.000000 0.000000 0.000000 0.000000 0.000000 0.000000 0.000000 0.000000 0.000000 0.000000 0.000000 0.000000 0.000000 0.000000 0.000000 0.000000 0.000000 0.000000 0.000000 0.000000 0.000000 0.000000 0.000000 0.000000 0.000000 0.000000 0.000000 0.000000 0.000000 0.000000 0.000000 0.000000 0.000000 0.000000 0.000000 0.000000 0.000000 0.000000 0.000000 0.000000
0.000000 0.000000 0.000000 0.000000 0.000000 0.000000 5.440155 5.440155 5.440155 5.440155 0.000000 0.000000 0.000000 0.000000 0.000000 0.000000 0.000000 0.000000 0.000000 0.000000 0.000000 0.000000 0.000000 0.000000 0.000000 0.000000 0.000000 0.000000 0.000000 0.000000 0.000000 0.000000 0.000000 0.000000 0.000000 0.000000 0.000000 0.000000 0.000000 0.000000 0.000000 0.000000 0.000000 0.000000 0.000000 0.000000 0.000000 0.000000 0.000000 0.000000 0.000000 0.000000 0.000000 0.000000 0.000000 0.000000 0.000000 0.000000 0.000000 0.000000 0.000000 0.000000 0.000000 0.000000 0.000000 0.000000 0.000000 0.000000 0.000000 0.000000 0.000000 0.000000 0.000000 0.000000 0.000000 0.000000 0.000000 0.000000 0.000000 0.000000 0.000000 0.000000 0.000000 0.000000 0.000000 0.000000 0.000000 0.000000 19.108938 19.108938 19.108938 19.108938 19.108938 19.108938 19.108938 19.108938 19.108938 0.000000 0.000000 0.000000 0.000000 0.000000 0.000000
0.000000 0.000000 0.000000 0.000000 0.000000 0.000000 5.440155 5.440155 5.440155 5.440155 0.000000 0.000000 0.000000 0.000000 0.000000 0.000000 0.000000 0.000000 0.000000 0.000000 0.000000 0.000000 0.000000 0.000000 0.000000 0.000000 0.000000 0.000000 0.000000 0.000000 0.000000 0.000000 0.000000 0.000000 0.000000 0.000000 0.000000 0.000000 0.000000 0.000000 0.000000 0.000000 0.000000 0.000000 0.000000 0.000000 0.000000 0.000000 0.000000 0.000000 0.000000 0.000000 0.000000 0.000000 0.000000 0.000000 0.000000 0.000000 0.000000 0.000000 0.000000 0.000000 0.000000 0.000000 0.000000 0.000000 0.000000 0.000000 0.000000 0.000000 0.000000 0.000000 0.000000 0.000000 0.000000 0.000000 0.000000 0.000000 0.000000 0.000000 0.000000 0.000000 0.000000 0.000000 0.000000 0.000000 0.000000 0.000000 19.108938 19.108938 19.108938 19.108938 19.108938 19.108938 19.108938 19.108938 19.108938 0.000000 0.000000 0.000000 0.000000 0.000000 0.000000
0.000000 0.000000 0.000000 0.000000 0.000000 0.000000 5.440155 5.440155 5.440155 5.440155 0.000000 0.000000 0.000000 0.000000 0.000000 0.000000 0.000000 0.000000 0.000000 0.000000 0.000000 0.000000 0.000000 0.000000 0.000000 0.000000 0.000000 0.000000 0.000000 0.000000 0.000000 0.000000 0.000000 0.000000 0.000000 0.000000 0.000000 0.000000 0.000000 0.000000 0.000000 0.000000 0.000000 0.000000 0.000000 0.000000 0.000000 0.000000 0.000000 0.000000 0.000000 0.000000 0.000000 0.000000 0.000000 0.000000 0.000000 0.000000 0.000000 0.000000 0.000000 0.000000 0.000000 0.000000 0.000000 0.000000 0.000000 0.000000 0.000000 0.000000 0.000000 0.000000 0.000000 0.000000 0.000000 0.000000 0.000000 0.000000 0.000000 0.000000 0.000000 0.000000 0.000000 0.000000 0.000000 0.000000 0.000000 0.000000 19.108938 19.108938 19.108938 19.108938 19.108938 19.108938 19.108938 19.108938 19.108938 0.000000 0.000000 0.000000 0.000000 0.000000 0.000000
0.000000 0.000000 0.000000 0.000000 0.000000 0.000000 5.440155 5.440155 5.440155 5.440155 0.000000 0.000000 0.000000 0.000000 0.000000 0.000000 0.000000 0.000000 0.000000 0.000000 0.000000 0.000000 0.000000 0.000000 0.000000 0.000000 0.000000 0.000000 0.000000 0.000000 0.000000 0.000000 0.000000 0.000000 0.000000 0.000000 0.000000 0.000000 0.000000 0.000000 0.000000 0.000000 0.000000 0.000000 0.000000 0.000000 0.000000 0.000000 0.000000 0.000000 0.000000 0.000000 0.000000 0.000000 0.000000 0.000000 0.000000 0.000000 0.000000 0.000000 0.000000 0.000000 0.000000 0.000000 0.000000 0.000000 0.000000 0.000000 0.000000 0.000000 0.000000 0.000000 0.000000 0.000000 0.000000 0.000000 0.000000 0.000000 0.000000 0.000000 0.000000 0.000000 0.000000 0.000000 0.000000 0.000000 0.000000 0.000000 19.108938 19.108938 19.108938 19.108938 19.108938 19.108938 19.108938 19.108938 19.108938 0.000000 0.000000 0.000000 0.000000 0.000000 0.000000
0.000000 0.000000 0.000000 0.000000 0.000000 0.000000 5.440155 5.440155 5.440155 5.440155 0.000000 0.000000 0.000000 0.000000 0.000000 0.000000 0.000000 0.000000 0.000000 0.000000 0.000000 0.000000 0.000000 0.000000 0.000000 0.000000 0.000000 0.000000 0.000000 0.000000 0.000000 0.000000 0.000000 0.000000 0.000000 0.000000 0.000000 0.000000 0.000000 0.000000 0.000000 0.000000 0.000000 0.000000 0.000000 0.000000 0.000000 0.000000 0.000000 0.000000 0.000000 0.000000 0.000000 0.000000 0.000000 0.000000 0.000000 0.000000 0.000000 0.000000 0.000000 0.000000 0.000000 0.000000 0.000000 0.000000 0.000000 0.000000 0.000000 0.000000 0.000000 0.000000 0.000000 0.000000 0.000000 0.000000 0.000000 0.000000 0.000000 0.000000 0.000000 0.000000 0.000000 0.000000 0.000000 0.000000 0.000000 0.000000 19.108938 19.108938 19.108938 19.108938 19.108938 19.108938 19.108938 19.108938 19.108938 0.000000 0.000000 0.000000 0.000000 0.000000 0.000000
0.000000 0.000000 0.000000 0.000000 0.000000 0.000000 0.000000 0.000000 0.000000 0.000000 0.000000 0.000000 0.000000 0.000000 0.000000 0.000000 0.000000 0.000000 0.000000 0.000000 0.000000 0.000000 0.000000 0.000000 0.000000 0.000000 0.000000 0.000000 0.000000 0.000000 0.000000 0.000000 0.000000 0.000000 0.000000 0.000000 0.000000 0.000000 0.000000 0.000000 0.000000 0.000000 0.000000 0.000000 0.000000 0.000000 18.219938 18.219938 18.219938 18.219938 18.219938 18.219938 0.000000 0.000000 0.000000 0.000000 0.000000 0.000000 0.000000 0.000000 0.000000 0.000000 0.000000 0.000000 0.000000 0.000000 0.000000 0.000000 0.000000 0.000000 0.000000 0.000000 0.000000 0.000000 0.000000 0.000000 0.000000 0.000000 0.000000 0.000000 0.000000 0.000000 0.000000 0.000000 0.000000 0.000000 0.000000 0.000000 19.108938 19.108938 19.108938 19.108938 19.108938 19.108938 19.108938 19.108938 19.108938 0.000000 0.000000 0.000000 0.000000 0.000000 0.000000
0.000000 0.000000 0.000000 0.000000 0.000000 0.000000 0.000000 0.000000 0.000000 0.000000 0.000000 0.000000 0.000000 0.000000 0.000000 0.000000 0.000000 0.000000 0.000000 0.000000 0.000000 0.000000 0.000000 0.000000 0.000000 0.000000 0.000000 0.000000 0.000000 0.000000 0.000000 0.000000 0.000000 0.000000 0.000000 0.000000 0.000000 0.000000 0.000000 0.000000 0.000000 0.000000 0.000000 0.000000 0.000000 0.000000 18.219938 18.219938 18.219938 18.219938 18.219938 18.219938 0.000000 0.000000 0.000000 0.000000 0.000000 0.000000 0.000000 0.000000 0.000000 0.000000 0.000000 0.000000 0.000000 0.000000 0.000000 0.000000 0.000000 0.000000 0.000000 0.000000 0.000000 0.000000 0.000000 0.000000 0.000000 0.000000 0.000000 0.000000 0.000000 0.000000 0.000000 0.000000 0.000000 0.000000 0.000000 0.000000 19.108938 19.108938 19.108938 19.108938 19.108938 19.108938 19.108938 19.108938 19.108938 0.000000 0.000000 0.000000 0.000000 0.000000 0.000000
0.000000 0.000000 0.000000 0.000000 0.000000 0.000000 0.000000 0.000000 0.000000 0.000000 0.000000 0.000000 0.000000 0.000000 0.000000 0.000000 0.000000 0.000000 0.000000 0.000000 0.000000 0.000000 0.000000 0.000000 0.000000 0.000000 0.000000 0.000000 0.000000 0.000000 0.000000 0.000000 0.000000 0.000000 0.000000 0.000000 0.000000 0.000000 0.000000 0.000000 0.000000 0.000000 0.000000 0.000000 0.000000 0.000000 18.219938 18.219938 18.219938 18.219938 18.219938 18.219938 0.000000 0.000000 0.000000 0.000000 0.000000 0.000000 0.000000 0.000000 0.000000 0.000000 0.000000 0.000000 0.000000 0.000000 0.000000 0.000000 0.000000 0.000000 0.000000 0.000000 0.000000 0.000000 0.000000 0.000000 0.000000 0.000000 0.000000 0.000000 0.000000 0.000000 0.000000 0.000000 0.000000 0.000000 0.000000 0.000000 19.108938 19.108938 19.108938 19.108938 19.108938 19.108938 19.108938 19.108938 19.108938 0.000000 0.000000 0.000000 0.000000 0.000000 0.000000
0.000000 0.000000 0.000000 0.000000 0.000000 0.000000 0.000000 0.000000 0.000000 0.000000 0.000000 0.000000 0.000000 0.000000 0.000000 0.000000 0.000000 0.000000 0.000000 0.000000 0.000000 0.000000 0.000000 0.000000 0.000000 0.000000 0.000000 0.000000 0.000000 0.000000 0.000000 0.000000 0.000000 0.000000 0.000000 0.000000 0.000000 0.000000 0.000000 0.000000 0.000000 0.000000 0.000000 0.000000 0.000000 0.000000 18.219938 18.219938 18.219938 18.219938 18.219938 18.219938 0.000000 0.000000 0.000000 0.000000 0.000000 0.000000 0.000000 0.000000 0.000000 0.000000 0.000000 0.000000 0.000000 0.000000 0.000000 0.000000 0.000000 0.000000 0.000000 0.000000 0.000000 0.000000 0.000000 0.000000 0.000000 0.000000 0.000000 0.000000 0.000000 0.000000 0.000000 0.000000 0.000000 0.000000 0.000000 0.000000 0.000000 0.000000 0.000000 0.000000 0.000000 0.000000 0.000000 0.000000 0.000000 0.000000 0.000000 0.000000 0.000000 0.000000 0.000000
0.000000 0.000000 0.000000 0.000000 0.000000 0.000000 0.000000 0.000000 0.000000 0.000000 0.000000 0.000000 0.000000 0.000000 0.000000 0.000000 0.000000 0.000000 0.000000 0.000000 0.000000 0.000000 0.000000 0.000000 0.000000 0.000000 0.000000 0.000000 0.000000 0.000000 0.000000 0.000000 0.000000 0.000000 0.000000 0.000000 0.000000 0.000000 0.000000 0.000000 0.000000 0.000000 0.000000 0.000000 0.000000 0.000000 18.219938 18.219938 18.219938 18.219938 18.219938 18.219938 0.000000 0.000000 0.000000 0.000000 0.000000 0.000000 0.000000 0.000000 0.000000 0.000000 0.000000 0.000000 0.000000 0.000000 0.000000 0.000000 0.000000 0.000000 0.000000 0.000000 0.000000 0.000000 0.000000 0.000000 0.000000 0.000000 0.000000 0.000000 0.000000 0.000000 0.000000 0.000000 0.000000 0.000000 0.000000 0.000000 0.000000 0.000000 0.000000 0.000000 0.000000 0.000000 0.000000 0.000000 0.000000 0.000000 0.000000 0.000000 0.000000 0.000000 0.000000
0.000000 0.000000 0.000000 0.000000 0.000000 0.000000 0.000000 0.000000 0.000000 0.000000 0.000000 0.000000 0.000000 0.000000 0.000000 0.000000 0.000000 0.000000 0.000000 0.000000 0.000000 0.000000 0.000000 0.000000 0.000000 0.000000 0.000000 0.000000 0.000000 19.655215 19.655215 19.655215 19.655215 19.655215 19.655215 19.655215 19.655215 19.655215 19.655215 19.655215 19.655215 0.000000 0.000000 0.000000 0.000000 0.000000 18.219938 18.219938 18.219938 18.219938 18.219938 18.219938 0.000000 0.000000 0.000000 0.000000 0.000000 0.000000 0.000000 0.000000 0.000000 0.000000 0.000000 0.000000 0.000000 0.000000 0.000000 0.000000 0.000000 0.000000 0.000000 0.000000 0.000000 0.000000 0.000000 0.000000 0.000000 0.000000 0.000000 0.000000 0.000000 0.000000 0.000000 0.000000 0.000000 0.000000 15.274791 15.274791 15.274791 15.274791 15.274791 15.274791 15.274791 14.800829 14.800829 14.800829 14.800829 14.800829 14.800829 0.000000 0.000000 0.000000 0.000000
0.000000 0.000000 0.000000 0.000000 0.000000 0.000000 0.000000 0.000000 0.000000 0.000000 0.000000 0.000000 0.000000 0.000000 0.000000 0.000000 0.000000 0.000000 0.000000 0.000000 0.000000 0.000000 0.000000 0.000000 0.000000 0.000000 0.000000 0.000000 0.000000 19.655215 19.655215 19.655215 19.655215 19.655215 19.655215 19.655215 19.655215 19.655215 19.655215 19.655215 19.655215 0.000000 0.000000 0.000000 0.000000 0.000000 18.219938 18.219938 18.219938 18.219938 18.219938 18.219938 0.000000 0.000000 0.000000 0.000000 0.000000 0.000000 0.000000 0.000000 0.000000 0.000000 0.000000 0.000000 0.000000 0.000000 0.000000 0.000000 0.000000 0.000000 0.000000 0.000000 0.000000 0.000000 0.000000 0.000000 0.000000 0.000000 0.000000 0.000000 0.000000 0.000000 0.000000 0.000000 0.000000 0.000000 15.274791 15.274791 15.274791 15.274791 15.274791 15.274791 15.274791 14.800829 14.800829 14.800829 14.800829 14.800829 14.800829 0.000000 0.000000 0.000000 0.000000
0.000000 0.000000 0.000000 0.000000 0.000000 0.000000 0.000000 0.000000 0.000000 0.000000 0.000000 0.000000 0.000000 0.000000 0.000000 0.000000 0.000000 0.000000 0.000000 0.000000 0.000000 0.000000 0.000000 0.000000 0.000000 0.000000 0.000000 0.000000 0.000000 19.655215 19.655215 19.655215 19.655215 19.655215 19.655215 19.655215 19.655215 19.655215 19.655215 19.655215 19.655215 0.000000 0.000000 0.000000 0.000000 0.000000 18.219938 18.219938 18.219938 18.219938 18.219938 18.219938 0.000000 0.000000 0.000000 0.000000 0.000000 0.000000 0.000000 0.000000 0.000000 0.000000 0.000000 0.000000 0.000000 17.243674 17.243674 17.243674 17.243674 17.243674 17.243674 17.243674 17.243674 17.243674 17.243674 17.243674 17.243674 17.243674 0.000000 0.000000 0.000000 3.934750 3.934750 3.934750 0.000000 0.000000 15.274791 15.274791 15.274791 15.274791 15.274791 15.274791 15.274791 14.800829 14.800829 14.800829 14.800829 14.800829 14.800829 0.000000 0.000000 0.000000 0.000000
0.000000 0.000000 0.000000 0.000000 0.000000 0.000000 0.000000 0.000000 0.000000 0.000000 0.000000 0.000000 0.000000 0.000000 0.000000 0.000000 0.000000 0.000000 0.000000 0.000000 0.000000 0.000000 0.000000 0.000000 0.000000 0.000000 0.000000 0.000000 0.000000 19.655215 19.655215 19.655215 19.655215 19.655215 19.655215 19.655215 19.655215 19.655215 19.655215 19.655215 19.655215 0.000000 0.000000 0.000000 0.000000 0.000000 18.219938 18.219938 18.219938 18.219938 18.219938 18.219938 0.000000 0.000000 0.000000 0.000000 0.000000 0.000000 0.000000 0.000000 0.000000 0.000000 0.000000 0.000000 0.000000 17.243674 17.243674 17.243674 17.243674 17.243674 17.243674 17.243674 17.243674 17.243674 17.243674 17.243674 17.243674 17.243674 0.000000 0.000000 0.000000 3.934750 3.934750 3.934750 0.000000 0.000000 15.274791 15.274791 15.274791 15.274791 15.274791 15.274791 15.274791 14.800829 14.800829 14.800829 14.800829 14.800829 14.800829 0.000000 0.000000 0.000000 0.000000
0.000000 0.000000 0.000000 0.000000 0.000000 0.000000 0.000000 0.000000 0.000000 0.000000 0.000000 0.000000 0.000000 0.000000 0.000000 0.000000 0.000000 0.000000 0.000000 0.000000 0.000000 0.000000 0.000000 0.000000 0.000000 0.000000 0.000000 0.000000 0.000000 19.655215 19.655215 19.655215 19.655215 19.655215 19.655215 19.655215 19.655215 19.655215 19.655215 19.655215 19.655215 0.000000 0.000000 0.000000 0.000000 0.000000 18.219938 18.219938 18.219938 18.219938 18.219938 18.219938 0.000000 0.000000 0.000000 0.000000 0.000000 0.000000 0.000000 0.000000 0.000000 0.000000 0.000000 0.000000 0.000000 17.243674 17.243674 17.243674 17.243674 17.243674 17.243674 17.243674 17.243674 17.243674 17.243674 17.243674 17.243674 17.243674 0.000000 0.000000 0.000000 3.934750 3.934750 3.934750 0.000000 0.000000 15.274791 15.274791 15.274791 15.274791 15.274791 15.274791 15.274791 14.800829 14.800829 14.800829 14.800829 14.800829 14.800829 0.000000 0.000000 0.000000 0.000000
0.000000 0.000000 0.000000 0.000000 0.000000 0.000000 0.000000 0.000000 0.000000 0.000000 0.000000 0.000000 0.000000 0.000000 0.000000 0.000000 0.000000 0.000000 0.000000 0.000000 0.000000 0.000000 0.000000 0.000000 0.000000 0.000000 0.000000 0.000000 0.000000 19.655215 19.655215 19.655215 19.655215 19.655215 19.655215 19.655215 19.655215 19.655215 19.655215 19.655215 19.655215 0.000000 0.000000 0.000000 0.000000 0.000000 18.219938 18.219938 18.219938 18.219938 18.219938 18.219938 0.000000 0.000000 0.000000 0.000000 0.000000 0.000000 0.000000 0.000000 0.000000 0.000000 0.000000 0.000000 0.000000 17.243674 17.243674 17.243674 17.243674 17.243674 17.243674 17.243674 17.243674 17.243674 17.243674 17.243674 17.243674 17.243674 0.000000 0.000000 0.000000 3.934750 3.934750 3.934750 0.000000 0.000000 15.274791 15.274791 15.274791 15.274791 15.274791 15.274791 15.274791 14.800829 14.800829 14.800829 14.800829 14.800829 14.800829 0.000000 0.000000 0.000000 0.000000
0.000000 0.000000 0.000000 0.000000 0.000000 0.000000 0.000000 0.000000 0.000000 0.000000 0.000000 0.000000 0.000000 0.000000 0.000000 0.000000 0.000000 0.000000 0.000000 0.000000 0.000000 0.000000 0.000000 0.000000 0.000000 0.000000 0.000000 0.000000 0.000000 27.201462 27.201462 27.201462 27.201462 27.201462 27.201462 27.201462 27.201462 27.201462 27.201462 27.201462 27.201462 0.000000 0.000000 0.000000 0.000000 0.000000 18.219938 18.219938 18.219938 18.219938 18.219938 18.219938 0.000000 0.000000 0.000000 0.000000 0.000000 0.000000 0.000000 0.000000 0.000000 0.000000 0.000000 0.000000 0.000000 17.243674 17.243674 17.243674 17.243674 17.243674 17.243674 17.243674 17.243674 17.243674 17.243674 17.243674 17.243674 17.243674 0.000000 0.000000 0.000000 3.934750 3.934750 3.934750 0.000000 0.000000 15.274791 15.274791 15.274791 15.274791 15.274791 15.274791 15.274791 14.800829 14.800829 14.800829 14.800829 14.800829 14.800829 0.000000 0.000000 0.000000 0.000000
0.000000 0.000000 0.000000 0.000000 0.000000 0.000000 0.000000 0.000000 0.000000 0.000000 0.000000 0.000000 0.000000 0.000000 0.000000 0.000000 0.000000 0.000000 0.000000 0.000000 0.000000 0.000000 0.000000 0.000000 0.000000 0.000000 0.000000 0.000000 0.000000 27.201462 27.201462 27.201462 27.201462 27.201462 27.201462 27.201462 27.201462 27.201462 27.201462 27.201462 27.201462 0.000000 0.000000 0.000000 0.000000 0.000000 0.000000 0.000000 0.000000 0.000000 0.000000 0.000000 13.824278 13.824278 13.824278 13.824278 13.824278 13.824278 0.000000 0.000000 0.000000 0.000000 0.000000 0.000000 0.000000 0.000000 0.000000 0.000000 0.000000 0.000000 0.000000 0.000000 0.000000 0.000000 0.000000 0.000000 0.000000 0.000000 0.000000 0.000000 0.000000 0.000000 0.000000 0.000000 0.000000 0.000000 15.274791 15.274791 15.274791 15.274791 15.274791 15.274791 15.274791 14.800829 14.800829 14.800829 14.800829 14.800829 14.800829 0.000000 0.000000 0.000000 0.000000
0.000000 0.000000 0.000000 0.000000 0.000000 0.000000 5.688572 5.688572 5.688572 5.688572 0.000000 0.000000 0.000000 0.000000 10.911311 10.911311 10.911311 10.911311 10.911311 10.911311 10.911311 10.911311 0.000000 0.000000 0.000000 0.000000 0.000000 0.000000 0.000000 27.201462 27.201462 27.201462 27.201462 27.201462 27.201462 27.201462 27.201462 27.201462 27.201462 27.201462 27.201462 0.000000 0.000000 0.000000 0.000000 0.000000 0.000000 0.000000 0.000000 0.000000 0.000000 0.000000 13.824278 13.824278 13.824278 13.824278 13.824278 13.824278 0.000000 0.000000 0.000000 0.000000 0.000000 0.000000 0.000000 0.000000 0.000000 0.000000 0.000000 0.000000 0.000000 0.000000 0.000000 0.000000 0.000000 0.000000 0.000000 0.000000 0.000000 0.000000 0.000000 0.000000 0.000000 0.000000 0.000000 0.000000 15.274791 15.274791 15.274791 15.274791 15.274791 15.274791 15.274791 14.800829 14.800829 14.800829 14.800829 14.800829 14.800829 0.000000 0.000000 0.000000 0.000000
0.000000 0.000000 0.000000 0.000000 0.000000 0.000000 5.688572 5.688572 5.688572 5.688572 0.000000 0.000000 0.000000 0.000000 10.911311 10.911311 10.911311 10.911311 10.911311 10.911311 10.911311 10.911311 0.000000 0.000000 0.000000 0.000000 0.000000 0.000000 0.000000 27.201462 27.201462 27.201462 27.201462 27.201462 27.201462 27.201462 27.201462 27.201462 27.201462 27.201462 27.201462 0.000000 0.000000 0.000000 0.000000 0.000000 0.000000 0.000000 0.000000 0.000000 0.000000 0.000000 13.824278 13.824278 13.824278 13.824278 13.824278 13.824278 0.000000 0.000000 0.000000 0.000000 0.000000 0.000000 0.000000 0.000000 0.000000 0.000000 0.000000 0.000000 0.000000 0.000000 0.000000 0.000000 0.000000 0.000000 0.000000 0.000000 0.000000 0.000000 0.000000 0.000000 0.000000 0.000000 0.000000 0.000000 0.000000 0.000000 0.000000 0.000000 0.000000 0.000000 0.000000 0.000000 0.000000 0.000000 0.000000 0.000000 0.000000 0.000000 0.000000 0.000000 0.000000
0.000000 0.000000 0.000000 0.000000 0.000000 0.000000 5.688572 5.688572 5.688572 5.688572 0.000000 0.000000 0.000000 0.000000 10.911311 10.911311 10.911311 10.911311 10.911311 10.911311 10.911311 10.911311 0.000000 0.000000 0.000000 0.000000 0.000000 0.000000 0.000000 27.201462 27.201462 27.201462 27.201462 27.201462 27.201462 27.201462 27.201462 27.201462 27.201462 27.201462 27.201462 0.000000 0.000000 0.000000 0.000000 0.000000 0.000000 0.000000 0.000000 0.000000 0.000000 0.000000 13.824278 13.824278 13.824278 13.824278 13.824278 13.824278 0.000000 0.000000 0.000000 0.000000 0.000000 0.000000 0.000000 0.000000 0.000000 0.000000 0.000000 0.000000 0.000000 0.000000 0.000000 0.000000 0.000000 0.000000 0.000000 0.000000 0.000000 0.000000 0.000000 0.000000 0.000000 0.000000 0.000000 0.000000 0.000000 0.000000 0.000000 0.000000 0.000000 0.000000 0.000000 0.000000 0.000000 0.000000 0.000000 0.000000 0.000000 0.000000 0.000000 0.000000 0.000000
0.000000 0.000000 0.000000 0.000000 0.000000 0.000000 5.688572 5.688572 5.688572 5.688572 0.000000 0.000000 0.000000 0.000000 10.911311 10.911311 10.911311 10.911311 10.911311 10.911311 10.911311 10.911311 0.000000 0.000000 0.000000 0.000000 0.000000 0.000000 0.000000 27.201462 27.201462 27.201462 27.201462 27.201462 27.201462 27.201462 27.201462 27.201462 27.201462 27.201462 27.201462 0.000000 0.000000 0.000000 0.000000 0.000000 0.000000 0.000000 0.000000 0.000000 0.000000 0.000000 13.824278 13.824278 13.824278 13.824278 13.824278 13.824278 0.000000 0.000000 0.000000 0.000000 0.000000 0.000000 0.000000 8.333087 8.333087 8.333087 8.333087 8.333087 8.333087 8.333087 8.333087 8.333087 8.333087 8.333087 8.333087 8.333087 0.000000 0.000000 0.000000 0.000000 0.000000 0.000000 0.000000 0.000000 0.000000 0.000000 0.000000 0.000000 0.000000 0.000000 0.000000 0.000000 0.000000 0.000000 0.000000 0.000000 0.000000 0.000000 0.000000 0.000000 0.000000
0.000000 0.000000 0.000000 0.000000 0.000000 0.000000 5.688572 5.688572 5.688572 5.688572 0.000000 0.000000 0.000000 0.000000 10.911311 10.911311 10.911311 10.911311 10.911311 10.911311 10.911311 10.911311 0.000000 0.000000 0.000000 0.000000 0.000000 0.000000 0.000000 27.201462 27.201462 27.201462 27.201462 27.201462 27.201462 27.201462 27.201462 27.201462 27.201462 27.201462 27.201462 0.000000 0.000000 0.000000 0.000000 0.000000 0.000000 0.000000 0.000000 0.000000 0.000000 0.000000 13.824278 13.824278 13.824278 13.824278 13.824278 13.824278 0.000000 0.000000 0.000000 0.000000 0.000000 0.000000 0.000000 8.333087 8.333087 8.333087 8.333087 8.333087 8.333087 8.333087 8.333087 8.333087 8.333087 8.333087 8.333087 8.333087 0.000000 0.000000 0.000000 0.000000 0.000000 0.000000 0.000000 0.000000 0.000000 0.000000 0.000000 0.000000 0.000000 0.000000 0.000000 0.000000 0.000000 0.000000 0.000000 0.000000 0.000000 0.000000 0.000000 0.000000 0.000000
0.000000 0.000000 0.000000 0.000000 0.000000 0.000000 5.688572 5.688572 5.688572 5.688572 0.000000 0.000000 0.000000 0.000000 10.911311 10.911311 10.911311 10.911311 10.911311 10.911311 10.911311 10.911311 0.000000 0.000000 0.000000 0.000000 0.000000 0.000000 0.000000 27.201462 27.201462 27.201462 27.201462 27.201462 27.201462 27.201462 27.201462 27.201462 27.201462 27.201462 27.201462 0.000000 0.000000 0.000000 0.000000 0.000000 0.000000 0.000000 0.000000 0.000000 0.000000 0.000000 13.824278 13.824278 13.824278 13.824278 13.824278 13.824278 0.000000 0.000000 0.000000 0.000000 0.000000 0.000000 0.000000 8.333087 8.333087 8.333087 8.333087 8.333087 8.333087 8.333087 8.333087 8.333087 8.333087 8.333087 8.333087 8.333087 0.000000 0.000000 0.000000 0.000000 0.000000 0.000000 0.000000 0.000000 0.000000 0.000000 0.000000 0.000000 0.000000 0.000000 0.000000 0.000000 0.000000 0.000000 0.000000 0.000000 0.000000 0.000000 0.000000 0.000000 0.000000
0.000000 0.000000 0.000000 0.000000 0.000000 0.000000 0.000000 0.000000 0.000000 0.000000 0.000000 0.000000 0.000000 0.000000 0.000000 0.000000 0.000000 0.000000 0.000000 0.000000 0.000000 0.000000 0.000000 0.000000 0.000000 0.000000 0.000000 0.000000 0.000000 27.201462 27.201462 27.201462 27.201462 27.201462 27.201462 27.201462 27.201462 27.201462 27.201462 27.201462 27.201462 0.000000 0.000000 0.000000 0.000000 0.000000 0.000000 0.000000 0.000000 0.000000 0.000000 0.000000 13.824278 13.824278 13.824278 13.824278 13.824278 13.824278 0.000000 0.000000 0.000000 0.000000 0.000000 0.000000 0.000000 0.000000 0.000000 0.000000 0.000000 0.000000 0.000000 0.000000 0.000000 0.000000 0.000000 0.000000 0.000000 0.000000 0.000000 0.000000 0.000000 0.000000 0.000000 0.000000 0.000000 0.000000 0.000000 0.000000 0.000000 0.000000 0.000000 0.000000 0.000000 0.000000 0.000000 0.000000 0.000000 0.000000 0.000000 0.000000 0.000000 0.000000 0.000000
0.000000 0.000000 0.000000 0.000000 0.000000 0.000000 0.000000 0.000000 0.000000 0.000000 0.000000 0.000000 0.000000 0.000000 0.000000 0.000000 0.000000 0.000000 0.000000 0.000000 0.000000 0.000000 0.000000 0.000000 0.000000 0.000000 0.000000 0.000000 0.000000 27.201462 27.201462 27.201462 27.201462 27.201462 27.201462 27.201462 27.201462 27.201462 27.201462 27.201462 27.201462 0.000000 0.000000 0.000000 0.000000 0.000000 0.000000 0.000000 0.000000 0.000000 0.000000 0.000000 13.824278 13.824278 13.824278 13.824278 13.824278 13.824278 0.000000 0.000000 0.000000 0.000000 0.000000 0.000000 0.000000 0.000000 0.000000 0.000000 0.000000 0.000000 0.000000 0.000000 0.000000 0.000000 0.000000 0.000000 0.000000 0.000000 0.000000 0.000000 0.000000 0.000000 0.000000 0.000000 0.000000 0.000000 0.000000 0.000000 0.000000 0.000000 0.000000 0.000000 0.000000 0.000000 0.000000 0.000000 0.000000 0.000000 0.000000 0.000000 0.000000 0.000000 0.000000
0.000000 0.000000 0.000000 0.000000 0.000000 0.000000 0.000000 0.000000 0.000000 0.000000 0.000000 0.000000 0.000000 0.000000 0.000000 0.000000 0.000000 0.000000 0.000000 0.000000 0.000000 0.000000 0.000000 0.000000 0.000000 0.000000 0.000000 0.000000 0.000000 0.000000 0.000000 0.000000 0.000000 0.000000 0.000000 0.000000 0.000000 0.000000 0.000000 0.000000 0.000000 0.000000 0.000000 0.000000 0.000000 0.000000 0.000000 0.000000 0.000000 0.000000 0.000000 0.000000 0.000000 0.000000 0.000000 0.000000 0.000000 0.000000 0.000000 0.000000 0.000000 0.000000 0.000000 0.000000 0.000000 0.000000 0.000000 0.000000 0.000000 0.000000 0.000000 0.000000 0.000000 0.000000 0.000000 0.000000 0.000000 0.000000 0.000000 0.000000 0.000000 0.000000 0.000000 0.000000 0.000000 0.000000 0.000000 0.000000 0.000000 0.000000 0.000000 0.000000 0.000000 0.000000 0.000000 0.000000 0.000000 0.000000 0.000000 0.000000 0.000000 0.000000 0.000000
0.000000 0.000000 0.000000 0.000000 0.000000 0.000000 0.000000 0.000000 0.000000 0.000000 0.000000 0.000000 0.000000 0.000000 0.000000 0.000000 0.000000 0.000000 0.000000 0.000000 0.000000 0.000000 0.000000 0.000000 0.000000 0.000000 0.000000 0.000000 0.000000 0.000000 0.000000 0.000000 0.000000 0.000000 0.000000 0.000000 0.000000 0.000000 0.000000 0.000000 0.000000 0.000000 0.000000 0.000000 0.000000 0.000000 0.000000 0.000000 0.000000 0.000000 0.000000 0.000000 0.000000 0.000000 0.000000 0.000000 0.000000 0.000000 0.000000 0.000000 0.000000 0.000000 0.000000 0.000000 0.000000 0.000000 0.000000 0.000000 0.000000 0.000000 0.000000 0.000000 0.000000 0.000000 0.000000 0.000000 0.000000 0.000000 0.000000 0.000000 0.000000 0.000000 0.000000 0.000000 0.000000 0.000000 0.000000 0.000000 0.000000 0.000000 0.000000 0.000000 0.000000 0.000000 0.000000 0.000000 0.000000 0.000000 0.000000 0.000000 0.000000 0.000000 0.000000
0.000000 0.000000 0.000000 0.000000 0.000000 0.000000 0.000000 0.000000 0.000000 0.000000 0.000000 0.000000 0.000000 0.000000 0.000000 0.000000 0.000000 0.000000 0.000000 0.000000 0.000000 0.000000 0.000000 0.000000 0.000000 0.000000 0.000000 0.000000 0.000000 0.000000 0.000000 0.000000 0.000000 0.000000 0.000000 0.000000 0.000000 0.000000 0.000000 0.000000 0.000000 0.000000 0.000000 0.000000 0.000000 0.000000 0.000000 0.000000 0.000000 0.000000 0.000000 0.000000 0.000000 0.000000 0.000000 0.000000 0.000000 0.000000 0.000000 0.000000 0.000000 0.000000 0.000000 0.000000 0.000000 0.000000 0.000000 0.000000 0.000000 0.000000 0.000000 0.000000 0.000000 0.000000 0.000000 0.000000 0.000000 0.000000 0.000000 0.000000 0.000000 0.000000 0.000000 0.000000 0.000000 0.000000 0.000000 0.000000 0.000000 0.000000 0.000000 0.000000 0.000000 0.000000 0.000000 0.000000 0.000000 0.000000 0.000000 0.000000 0.000000 0.000000 0.000000
0.000000 0.000000 0.000000 0.000000 0.000000 0.000000 0.000000 0.000000 0.000000 0.000000 0.000000 0.000000 0.000000 0.000000 0.000000 0.000000 0.000000 0.000000 0.000000 0.000000 0.000000 0.000000 0.000000 0.000000 0.000000 0.000000 0.000000 0.000000 0.000000 0.000000 0.000000 0.000000 0.000000 0.000000 0.000000 0.000000 0.000000 0.000000 0.000000 0.000000 0.000000 0.000000 0.000000 0.000000 0.000000 0.000000 0.000000 0.000000 0.000000 0.000000 0.000000 0.000000 0.000000 0.000000 0.000000 0.000000 0.000000 0.000000 0.000000 0.000000 0.000000 0.000000 0.000000 0.000000 0.000000 0.000000 0.000000 0.000000 0.000000 0.000000 0.000000 0.000000 0.000000 0.000000 0.000000 0.000000 0.000000 0.000000 0.000000 0.000000 0.000000 0.000000 0.000000 0.000000 0.000000 0.000000 0.000000 0.000000 0.000000 0.000000 0.000000 0.000000 0.000000 0.000000 0.000000 0.000000 0.000000 0.000000 0.000000 0.000000 0.000000 0.000000 0.000000
