model,model_sd,benchmark,benchmark_sd,meas_rate
20.1701804527244,12.216190155257944,0.0,0.0,0.003
19.288537094279484,10.41178564294592,0.0,0.0,0.0063750000000000005
19.617286225238367,11.04902627372065,0.0,0.0,0.00975
19.19430957869209,11.323112851815266,0.0,0.0,0.013125000000000001
19.628865616510083,11.289751572919668,0.0,0.0,0.0165
18.542699248326663,10.613353385956632,0.0,0.0,0.019875
18.35175192327114,10.470359871570171,0.0,0.0,0.02325
18.47379376694605,11.416119212596062,0.0,0.0,0.026625
17.831530360737357,9.98811549649569,0.0,0.0,0.03
