model,model_sd,benchmark,benchmark_sd,meas_rate
28.439942072437848,11.012658529219602,0.0,0.0,0.003
26.518623312486717,10.75443634334282,0.0,0.0,0.003931034482758621
25.36462068541439,12.018779197534995,0.0,0.0,0.0048620689655172415
25.17003858354092,12.307736934089073,0.0,0.0,0.005793103448275862
25.44616839304318,13.076149384233736,0.0,0.0,0.006724137931034483
23.265481247083013,11.529953739876559,0.0,0.0,0.007655172413793103
23.87647801052609,12.626223392666779,0.0,0.0,0.008586206896551724
22.734064144009288,11.704833775442912,0.0,0.0,0.009517241379310346
22.400510226607352,12.843034267789646,0.0,0.0,0.010448275862068965
22.051190492457728,12.562100941100761,0.0,0.0,0.011379310344827587
21.85094489632613,11.859919240347077,0.0,0.0,0.012310344827586205
23.09729634973366,12.571929510402764,0.0,0.0,0.013241379310344827
22.893422616976643,11.758862528054996,0.0,0.0,0.01417241379310345
21.977149610337907,11.775038721578222,0.0,0.0,0.015103448275862068
21.548133614617644,12.576047435475727,0.0,0.0,0.01603448275862069
20.983981328887808,12.445535060293912,0.0,0.0,0.016965517241379312
22.784375427636785,13.007658979252838,0.0,0.0,0.01789655172413793
20.17693112397797,10.583567361155662,0.0,0.0,0.018827586206896552
20.426174930286102,11.477172399501862,0.0,0.0,0.01975862068965517
20.791256884532487,11.468655632939488,0.0,0.0,0.020689655172413793
21.940294845439258,11.223221968029955,0.0,0.0,0.02162068965517241
21.80823284230776,12.68656944297556,0.0,0.0,0.022551724137931033
20.342352781215016,12.328817615013968,0.0,0.0,0.023482758620689655
21.248400524781196,12.438819674133855,0.0,0.0,0.024413793103448274
21.095512071947205,11.227455829295254,0.0,0.0,0.025344827586206896
20.142286779810764,11.460720022090626,0.0,0.0,0.026275862068965518
21.925853791592633,13.101586846986795,0.0,0.0,0.027206896551724136
20.800615638241677,11.429620196976106,0.0,0.0,0.02813793103448276
19.858404789110235,11.745251383256024,0.0,0.0,0.02906896551724138
22.178236514323434,11.664772784653168,0.0,0.0,0.03
