model,model_sd,benchmark,benchmark_sd,meas_rate
19.34762761217255,10.064193346145036,0.0,0.0,0.003
11.217253645849704,6.224954524052713,0.0,0.0,0.0063750000000000005
10.317177625677063,5.652144678419207,0.0,0.0,0.00975
9.01350386168557,4.759793562730187,0.0,0.0,0.013125000000000001
8.82723805758018,4.5128510481373825,0.0,0.0,0.0165
8.800385274294523,4.571300366500731,0.0,0.0,0.019875
8.330639781601608,4.016409432677365,0.0,0.0,0.02325
8.261991870214597,3.956571683968283,0.0,0.0,0.026625
8.12759102245991,3.8694241084160286,0.0,0.0,0.03
