model,model_sd,benchmark,benchmark_sd,meas_rate
16.152349107179457,7.856512741144169,0.0,0.0,0.003
13.426810427940119,6.3923550760878225,0.0,0.0,0.006
11.874593626928563,4.528426417049837,0.0,0.0,0.009000000000000001
11.410404008720594,4.17551694337797,0.0,0.0,0.012
10.904645619131589,4.156655979432878,0.0,0.0,0.015
10.669496826565108,3.5813147338839877,0.0,0.0,0.018
10.429222242050855,3.844677773369551,0.0,0.0,0.021
10.07524657007769,3.2908072468614793,0.0,0.0,0.024
9.884624214372142,3.624134966661107,0.0,0.0,0.027
9.756464098356576,3.5702215830416195,0.0,0.0,0.03
