model,model_sd,benchmark,benchmark_sd,meas_rate
19.794238958425517,11.251558120635988,0.0,0.0,0.003
19.528330542015134,11.147920560196466,0.0,0.0,0.0063750000000000005
18.41442228602261,10.88612761176155,0.0,0.0,0.00975
18.666861460696396,11.300165683665545,0.0,0.0,0.013125000000000001
19.067919058451142,11.650448515872338,0.0,0.0,0.0165
19.11153586996465,12.620930990916193,0.0,0.0,0.019875
18.02764724257481,10.266074840356683,0.0,0.0,0.02325
17.534929418743044,10.84739417324622,0.0,0.0,0.026625
16.98745361355576,9.579428804476168,0.0,0.0,0.03
