meas_rate,pred_within_ci,sd,loglikelihood,krig_pred_within_ci,krig_sd,krig_loglikelihood
0.003,0.9684194822050205,23.29924335661064,-4.335622406248991,0.9179180443129213,24.208809397345426,-4.847847622898403
0.0063750000000000005,0.9776201370547821,17.491200220070695,-3.9735819230889327,0.9438824405165367,26.324186675109537,-4.544927789144139
0.00975,0.9777156791832251,14.449075067713595,-3.8276144698077808,0.9495501676439527,24.156000924629183,-4.463970255698351
0.013125000000000001,0.9761643704555091,13.69534766499976,-3.778064360442913,0.9471207938427912,24.024314733607447,-4.409276738802971
0.0165,0.9765241102852468,13.116686717851728,-3.731189046558892,0.9550798227853281,25.606282040851024,-4.355613229622832
0.019875,0.974903215793623,12.600709624978377,-3.701981134455088,0.9531163014096253,24.62769618014177,-4.339573682375084
0.02325,0.9747890699991681,12.217827512464847,-3.682872987995766,0.9515645404716346,24.43434676639813,-4.339181827995613
0.026625,0.9759706915725348,11.783196053774194,-3.6431638092919116,0.9541226721758046,23.318112570878846,-4.265392792372992
0.03,0.9764715433168554,11.50425247109652,-3.6167051570507693,0.9530501574754734,24.09520693496473,-4.251927119992487
