%!PS-Adobe-3.0 EPSF-3.0
%%Title: goodness_of_fit.eps
%%Creator: Matplotlib v3.6.3, https://matplotlib.org/
%%CreationDate: Wed Sep 20 09:37:41 2023
%%Orientation: portrait
%%BoundingBox: 54 216 558 576
%%HiResBoundingBox: 54.000000 216.000000 558.000000 576.000000
%%EndComments
%%BeginProlog
/mpldict 11 dict def
mpldict begin
/_d { bind def } bind def
/m { moveto } _d
/l { lineto } _d
/r { rlineto } _d
/c { curveto } _d
/cl { closepath } _d
/ce { closepath eofill } _d
/box {
      m
      1 index 0 r
      0 exch r
      neg 0 r
      cl
    } _d
/clipbox {
      box
      clip
      newpath
    } _d
/sc { setcachedevice } _d
%!PS-Adobe-3.0 Resource-Font
%%Creator: Converted from TrueType to Type 3 by Matplotlib.
10 dict begin
/FontName /DejaVuSans def
/PaintType 0 def
/FontMatrix [0.00048828125 0 0 0.00048828125 0 0] def
/FontBBox [-2090 -948 3673 2524] def
/FontType 3 def
/Encoding [/minus /space /parenleft /parenright /period /zero /one /two /three /four /five /six /seven /eight /nine /B /E /G /M /R /S /a /c /d /e /f /g /h /i /l /n /o /s /t] def
/CharStrings 35 dict dup begin
/.notdef 0 def
/minus{1716 0 217 557 1499 727 sc
217 727 m
1499 727 l
1499 557 l
217 557 l
217 727 l

ce} _d
/space{651 0 0 0 0 0 sc
ce} _d
/parenleft{799 0 176 -270 635 1554 sc
635 1554 m
546 1401 479 1249 436 1099 c
393 949 371 797 371 643 c
371 489 393 336 436 185 c
480 34 546 -117 635 -270 c
475 -270 l
375 -113 300 41 250 192 c
201 343 176 494 176 643 c
176 792 201 941 250 1092 c
299 1243 374 1397 475 1554 c
635 1554 l

ce} _d
/parenright{799 0 164 -270 623 1554 sc
164 1554 m
324 1554 l
424 1397 499 1243 548 1092 c
598 941 623 792 623 643 c
623 494 598 343 548 192 c
499 41 424 -113 324 -270 c
164 -270 l
253 -117 319 34 362 185 c
406 336 428 489 428 643 c
428 797 406 949 362 1099 c
319 1249 253 1401 164 1554 c

ce} _d
/period{651 0 219 0 430 254 sc
219 254 m
430 254 l
430 0 l
219 0 l
219 254 l

ce} _d
/zero{1303 0 135 -29 1167 1520 sc
651 1360 m
547 1360 469 1309 416 1206 c
364 1104 338 950 338 745 c
338 540 364 387 416 284 c
469 182 547 131 651 131 c
756 131 834 182 886 284 c
939 387 965 540 965 745 c
965 950 939 1104 886 1206 c
834 1309 756 1360 651 1360 c

651 1520 m
818 1520 946 1454 1034 1321 c
1123 1189 1167 997 1167 745 c
1167 494 1123 302 1034 169 c
946 37 818 -29 651 -29 c
484 -29 356 37 267 169 c
179 302 135 494 135 745 c
135 997 179 1189 267 1321 c
356 1454 484 1520 651 1520 c

ce} _d
/one{1303 0 225 0 1114 1493 sc
254 170 m
584 170 l
584 1309 l
225 1237 l
225 1421 l
582 1493 l
784 1493 l
784 170 l
1114 170 l
1114 0 l
254 0 l
254 170 l

ce} _d
/two{1303 0 150 0 1098 1520 sc
393 170 m
1098 170 l
1098 0 l
150 0 l
150 170 l
227 249 331 356 463 489 c
596 623 679 709 713 748 c
778 821 823 882 848 932 c
874 983 887 1032 887 1081 c
887 1160 859 1225 803 1275 c
748 1325 675 1350 586 1350 c
523 1350 456 1339 385 1317 c
315 1295 240 1262 160 1217 c
160 1421 l
241 1454 317 1478 388 1495 c
459 1512 523 1520 582 1520 c
737 1520 860 1481 952 1404 c
1044 1327 1090 1223 1090 1094 c
1090 1033 1078 974 1055 919 c
1032 864 991 800 930 725 c
913 706 860 650 771 557 c
682 465 556 336 393 170 c

ce} _d
/three{1303 0 156 -29 1139 1520 sc
831 805 m
928 784 1003 741 1057 676 c
1112 611 1139 530 1139 434 c
1139 287 1088 173 987 92 c
886 11 742 -29 555 -29 c
492 -29 428 -23 361 -10 c
295 2 227 20 156 45 c
156 240 l
212 207 273 183 340 166 c
407 149 476 141 549 141 c
676 141 772 166 838 216 c
905 266 938 339 938 434 c
938 522 907 591 845 640 c
784 690 698 715 588 715 c
414 715 l
414 881 l
596 881 l
695 881 771 901 824 940 c
877 980 903 1037 903 1112 c
903 1189 876 1247 821 1288 c
767 1329 689 1350 588 1350 c
533 1350 473 1344 410 1332 c
347 1320 277 1301 201 1276 c
201 1456 l
278 1477 349 1493 416 1504 c
483 1515 547 1520 606 1520 c
759 1520 881 1485 970 1415 c
1059 1346 1104 1252 1104 1133 c
1104 1050 1080 980 1033 923 c
986 866 918 827 831 805 c

ce} _d
/four{1303 0 100 0 1188 1493 sc
774 1317 m
264 520 l
774 520 l
774 1317 l

721 1493 m
975 1493 l
975 520 l
1188 520 l
1188 352 l
975 352 l
975 0 l
774 0 l
774 352 l
100 352 l
100 547 l
721 1493 l

ce} _d
/five{1303 0 158 -29 1124 1493 sc
221 1493 m
1014 1493 l
1014 1323 l
406 1323 l
406 957 l
435 967 465 974 494 979 c
523 984 553 987 582 987 c
749 987 881 941 978 850 c
1075 759 1124 635 1124 479 c
1124 318 1074 193 974 104 c
874 15 733 -29 551 -29 c
488 -29 424 -24 359 -13 c
294 -2 227 14 158 35 c
158 238 l
218 205 280 181 344 165 c
408 149 476 141 547 141 c
662 141 754 171 821 232 c
888 293 922 375 922 479 c
922 583 888 665 821 726 c
754 787 662 817 547 817 c
493 817 439 811 385 799 c
332 787 277 768 221 743 c
221 1493 l

ce} _d
/six{1303 0 143 -29 1174 1520 sc
676 827 m
585 827 513 796 460 734 c
407 672 381 587 381 479 c
381 372 407 287 460 224 c
513 162 585 131 676 131 c
767 131 838 162 891 224 c
944 287 971 372 971 479 c
971 587 944 672 891 734 c
838 796 767 827 676 827 c

1077 1460 m
1077 1276 l
1026 1300 975 1318 923 1331 c
872 1344 821 1350 770 1350 c
637 1350 535 1305 464 1215 c
394 1125 354 989 344 807 c
383 865 433 909 492 940 c
551 971 617 987 688 987 c
838 987 956 941 1043 850 c
1130 759 1174 636 1174 479 c
1174 326 1129 203 1038 110 c
947 17 827 -29 676 -29 c
503 -29 371 37 280 169 c
189 302 143 494 143 745 c
143 981 199 1169 311 1309 c
423 1450 573 1520 762 1520 c
813 1520 864 1515 915 1505 c
967 1495 1021 1480 1077 1460 c

ce} _d
/seven{1303 0 168 0 1128 1493 sc
168 1493 m
1128 1493 l
1128 1407 l
586 0 l
375 0 l
885 1323 l
168 1323 l
168 1493 l

ce} _d
/eight{1303 0 139 -29 1163 1520 sc
651 709 m
555 709 479 683 424 632 c
369 581 342 510 342 420 c
342 330 369 259 424 208 c
479 157 555 131 651 131 c
747 131 823 157 878 208 c
933 260 961 331 961 420 c
961 510 933 581 878 632 c
823 683 748 709 651 709 c

449 795 m
362 816 295 857 246 916 c
198 975 174 1048 174 1133 c
174 1252 216 1347 301 1416 c
386 1485 503 1520 651 1520 c
800 1520 916 1485 1001 1416 c
1086 1347 1128 1252 1128 1133 c
1128 1048 1104 975 1055 916 c
1007 857 940 816 854 795 c
951 772 1027 728 1081 662 c
1136 596 1163 515 1163 420 c
1163 275 1119 164 1030 87 c
942 10 816 -29 651 -29 c
486 -29 360 10 271 87 c
183 164 139 275 139 420 c
139 515 166 596 221 662 c
276 728 352 772 449 795 c

375 1114 m
375 1037 399 976 447 933 c
496 890 564 868 651 868 c
738 868 805 890 854 933 c
903 976 928 1037 928 1114 c
928 1191 903 1252 854 1295 c
805 1338 738 1360 651 1360 c
564 1360 496 1338 447 1295 c
399 1252 375 1191 375 1114 c

ce} _d
/nine{1303 0 129 -29 1159 1520 sc
225 31 m
225 215 l
276 191 327 173 379 160 c
431 147 482 141 532 141 c
665 141 767 186 837 275 c
908 365 948 501 958 684 c
919 627 870 583 811 552 c
752 521 686 506 614 506 c
465 506 346 551 259 641 c
172 732 129 855 129 1012 c
129 1165 174 1288 265 1381 c
356 1474 476 1520 627 1520 c
800 1520 931 1454 1022 1321 c
1113 1189 1159 997 1159 745 c
1159 510 1103 322 991 181 c
880 41 730 -29 541 -29 c
490 -29 439 -24 387 -14 c
335 -4 281 11 225 31 c

627 664 m
718 664 789 695 842 757 c
895 819 922 904 922 1012 c
922 1119 895 1204 842 1266 c
789 1329 718 1360 627 1360 c
536 1360 464 1329 411 1266 c
358 1204 332 1119 332 1012 c
332 904 358 819 411 757 c
464 695 536 664 627 664 c

ce} _d
/B{1405 0 201 0 1260 1493 sc
403 713 m
403 166 l
727 166 l
836 166 916 188 968 233 c
1021 278 1047 347 1047 440 c
1047 533 1021 602 968 646 c
916 691 836 713 727 713 c
403 713 l

403 1327 m
403 877 l
702 877 l
801 877 874 895 922 932 c
971 969 995 1026 995 1102 c
995 1177 971 1234 922 1271 c
874 1308 801 1327 702 1327 c
403 1327 l

201 1493 m
717 1493 l
871 1493 990 1461 1073 1397 c
1156 1333 1198 1242 1198 1124 c
1198 1033 1177 960 1134 906 c
1091 852 1029 818 946 805 c
1045 784 1122 739 1177 671 c
1232 604 1260 519 1260 418 c
1260 285 1215 182 1124 109 c
1033 36 904 0 737 0 c
201 0 l
201 1493 l

ce} _d
/E{1294 0 201 0 1163 1493 sc
201 1493 m
1145 1493 l
1145 1323 l
403 1323 l
403 881 l
1114 881 l
1114 711 l
403 711 l
403 170 l
1163 170 l
1163 0 l
201 0 l
201 1493 l

ce} _d
/G{1587 0 115 -29 1419 1520 sc
1219 213 m
1219 614 l
889 614 l
889 780 l
1419 780 l
1419 139 l
1341 84 1255 42 1161 13 c
1067 -15 967 -29 860 -29 c
627 -29 444 39 312 175 c
181 312 115 502 115 745 c
115 989 181 1179 312 1315 c
444 1452 627 1520 860 1520 c
957 1520 1050 1508 1137 1484 c
1225 1460 1306 1425 1380 1378 c
1380 1163 l
1305 1226 1226 1274 1142 1306 c
1058 1338 970 1354 877 1354 c
694 1354 557 1303 465 1201 c
374 1099 328 947 328 745 c
328 544 374 392 465 290 c
557 188 694 137 877 137 c
948 137 1012 143 1068 155 c
1124 168 1174 187 1219 213 c

ce} _d
/M{1767 0 201 0 1567 1493 sc
201 1493 m
502 1493 l
883 477 l
1266 1493 l
1567 1493 l
1567 0 l
1370 0 l
1370 1311 l
985 287 l
782 287 l
397 1311 l
397 0 l
201 0 l
201 1493 l

ce} _d
/R{1423 0 201 0 1364 1493 sc
909 700 m
952 685 994 654 1035 606 c
1076 558 1118 492 1159 408 c
1364 0 l
1147 0 l
956 383 l
907 483 859 549 812 582 c
766 615 703 631 623 631 c
403 631 l
403 0 l
201 0 l
201 1493 l
657 1493 l
828 1493 955 1457 1039 1386 c
1123 1315 1165 1207 1165 1063 c
1165 969 1143 891 1099 829 c
1056 767 992 724 909 700 c

403 1327 m
403 797 l
657 797 l
754 797 828 819 877 864 c
927 909 952 976 952 1063 c
952 1150 927 1216 877 1260 c
828 1305 754 1327 657 1327 c
403 1327 l

ce} _d
/S{1300 0 135 -29 1186 1520 sc
1096 1444 m
1096 1247 l
1019 1284 947 1311 879 1329 c
811 1347 745 1356 682 1356 c
572 1356 487 1335 427 1292 c
368 1249 338 1189 338 1110 c
338 1044 358 994 397 960 c
437 927 512 900 623 879 c
745 854 l
896 825 1007 775 1078 702 c
1150 630 1186 533 1186 412 c
1186 267 1137 158 1040 83 c
943 8 801 -29 614 -29 c
543 -29 468 -21 388 -5 c
309 11 226 35 141 66 c
141 274 l
223 228 303 193 382 170 c
461 147 538 135 614 135 c
729 135 818 158 881 203 c
944 248 975 313 975 397 c
975 470 952 528 907 569 c
862 610 789 641 686 662 c
563 686 l
412 716 303 763 236 827 c
169 891 135 980 135 1094 c
135 1226 181 1330 274 1406 c
367 1482 496 1520 659 1520 c
729 1520 800 1514 873 1501 c
946 1488 1020 1469 1096 1444 c

ce} _d
/a{1255 0 123 -29 1069 1147 sc
702 563 m
553 563 450 546 393 512 c
336 478 307 420 307 338 c
307 273 328 221 371 182 c
414 144 473 125 547 125 c
649 125 731 161 792 233 c
854 306 885 402 885 522 c
885 563 l
702 563 l

1069 639 m
1069 0 l
885 0 l
885 170 l
843 102 791 52 728 19 c
665 -13 589 -29 498 -29 c
383 -29 292 3 224 67 c
157 132 123 218 123 326 c
123 452 165 547 249 611 c
334 675 460 707 627 707 c
885 707 l
885 725 l
885 810 857 875 801 921 c
746 968 668 991 567 991 c
503 991 441 983 380 968 c
319 953 261 930 205 899 c
205 1069 l
272 1095 338 1114 401 1127 c
464 1140 526 1147 586 1147 c
748 1147 869 1105 949 1021 c
1029 937 1069 810 1069 639 c

ce} _d
/c{1126 0 113 -29 999 1147 sc
999 1077 m
999 905 l
947 934 895 955 842 969 c
790 984 737 991 684 991 c
565 991 472 953 406 877 c
340 802 307 696 307 559 c
307 422 340 316 406 240 c
472 165 565 127 684 127 c
737 127 790 134 842 148 c
895 163 947 184 999 213 c
999 43 l
948 19 894 1 839 -11 c
784 -23 726 -29 664 -29 c
495 -29 361 24 262 130 c
163 236 113 379 113 559 c
113 742 163 885 263 990 c
364 1095 501 1147 676 1147 c
733 1147 788 1141 842 1129 c
896 1118 948 1100 999 1077 c

ce} _d
/d{1300 0 113 -29 1114 1556 sc
930 950 m
930 1556 l
1114 1556 l
1114 0 l
930 0 l
930 168 l
891 101 842 52 783 19 c
724 -13 654 -29 571 -29 c
436 -29 325 25 240 133 c
155 241 113 383 113 559 c
113 735 155 877 240 985 c
325 1093 436 1147 571 1147 c
654 1147 724 1131 783 1098 c
842 1066 891 1017 930 950 c

303 559 m
303 424 331 317 386 240 c
442 163 519 125 616 125 c
713 125 790 163 846 240 c
902 317 930 424 930 559 c
930 694 902 800 846 877 c
790 954 713 993 616 993 c
519 993 442 954 386 877 c
331 800 303 694 303 559 c

ce} _d
/e{1260 0 113 -29 1151 1147 sc
1151 606 m
1151 516 l
305 516 l
313 389 351 293 419 226 c
488 160 583 127 705 127 c
776 127 844 136 910 153 c
977 170 1043 196 1108 231 c
1108 57 l
1042 29 974 8 905 -7 c
836 -22 765 -29 694 -29 c
515 -29 374 23 269 127 c
165 231 113 372 113 549 c
113 732 162 878 261 985 c
360 1093 494 1147 662 1147 c
813 1147 932 1098 1019 1001 c
1107 904 1151 773 1151 606 c

967 660 m
966 761 937 841 882 901 c
827 961 755 991 664 991 c
561 991 479 962 417 904 c
356 846 320 764 311 659 c
967 660 l

ce} _d
/f{721 0 47 0 760 1556 sc
760 1556 m
760 1403 l
584 1403 l
518 1403 472 1390 446 1363 c
421 1336 408 1288 408 1219 c
408 1120 l
711 1120 l
711 977 l
408 977 l
408 0 l
223 0 l
223 977 l
47 977 l
47 1120 l
223 1120 l
223 1198 l
223 1323 252 1413 310 1470 c
368 1527 460 1556 586 1556 c
760 1556 l

ce} _d
/g{1300 0 113 -426 1114 1147 sc
930 573 m
930 706 902 810 847 883 c
792 956 715 993 616 993 c
517 993 440 956 385 883 c
330 810 303 706 303 573 c
303 440 330 337 385 264 c
440 191 517 154 616 154 c
715 154 792 191 847 264 c
902 337 930 440 930 573 c

1114 139 m
1114 -52 1072 -193 987 -286 c
902 -379 773 -426 598 -426 c
533 -426 472 -421 415 -411 c
358 -402 302 -387 248 -367 c
248 -188 l
302 -217 355 -239 408 -253 c
461 -267 514 -274 569 -274 c
690 -274 780 -242 840 -179 c
900 -116 930 -21 930 106 c
930 197 l
892 131 843 82 784 49 c
725 16 654 0 571 0 c
434 0 323 52 239 157 c
155 262 113 400 113 573 c
113 746 155 885 239 990 c
323 1095 434 1147 571 1147 c
654 1147 725 1131 784 1098 c
843 1065 892 1016 930 950 c
930 1120 l
1114 1120 l
1114 139 l

ce} _d
/h{1298 0 186 0 1124 1556 sc
1124 676 m
1124 0 l
940 0 l
940 670 l
940 776 919 855 878 908 c
837 961 775 987 692 987 c
593 987 514 955 457 892 c
400 829 371 742 371 633 c
371 0 l
186 0 l
186 1556 l
371 1556 l
371 946 l
415 1013 467 1064 526 1097 c
586 1130 655 1147 733 1147 c
862 1147 959 1107 1025 1027 c
1091 948 1124 831 1124 676 c

ce} _d
/i{569 0 193 0 377 1556 sc
193 1120 m
377 1120 l
377 0 l
193 0 l
193 1120 l

193 1556 m
377 1556 l
377 1323 l
193 1323 l
193 1556 l

ce} _d
/l{569 0 193 0 377 1556 sc
193 1556 m
377 1556 l
377 0 l
193 0 l
193 1556 l

ce} _d
/n{1298 0 186 0 1124 1147 sc
1124 676 m
1124 0 l
940 0 l
940 670 l
940 776 919 855 878 908 c
837 961 775 987 692 987 c
593 987 514 955 457 892 c
400 829 371 742 371 633 c
371 0 l
186 0 l
186 1120 l
371 1120 l
371 946 l
415 1013 467 1064 526 1097 c
586 1130 655 1147 733 1147 c
862 1147 959 1107 1025 1027 c
1091 948 1124 831 1124 676 c

ce} _d
/o{1253 0 113 -29 1141 1147 sc
627 991 m
528 991 450 952 393 875 c
336 798 307 693 307 559 c
307 425 335 319 392 242 c
449 165 528 127 627 127 c
725 127 803 166 860 243 c
917 320 946 426 946 559 c
946 692 917 797 860 874 c
803 952 725 991 627 991 c

627 1147 m
787 1147 913 1095 1004 991 c
1095 887 1141 743 1141 559 c
1141 376 1095 232 1004 127 c
913 23 787 -29 627 -29 c
466 -29 340 23 249 127 c
158 232 113 376 113 559 c
113 743 158 887 249 991 c
340 1095 466 1147 627 1147 c

ce} _d
/s{1067 0 111 -29 967 1147 sc
907 1087 m
907 913 l
855 940 801 960 745 973 c
689 986 631 993 571 993 c
480 993 411 979 365 951 c
320 923 297 881 297 825 c
297 782 313 749 346 724 c
379 700 444 677 543 655 c
606 641 l
737 613 829 573 884 522 c
939 471 967 400 967 309 c
967 205 926 123 843 62 c
761 1 648 -29 504 -29 c
444 -29 381 -23 316 -11 c
251 0 183 18 111 41 c
111 231 l
179 196 246 169 312 151 c
378 134 443 125 508 125 c
595 125 661 140 708 169 c
755 199 778 241 778 295 c
778 345 761 383 727 410 c
694 437 620 462 506 487 c
442 502 l
328 526 246 563 195 612 c
144 662 119 730 119 817 c
119 922 156 1004 231 1061 c
306 1118 412 1147 549 1147 c
617 1147 681 1142 741 1132 c
801 1122 856 1107 907 1087 c

ce} _d
/t{803 0 55 0 754 1438 sc
375 1438 m
375 1120 l
754 1120 l
754 977 l
375 977 l
375 369 l
375 278 387 219 412 193 c
437 167 488 154 565 154 c
754 154 l
754 0 l
565 0 l
423 0 325 26 271 79 c
217 132 190 229 190 369 c
190 977 l
55 977 l
55 1120 l
190 1120 l
190 1438 l
375 1438 l

ce} _d
end readonly def

/BuildGlyph {
 exch begin
 CharStrings exch
 2 copy known not {pop /.notdef} if
 true 3 1 roll get exec
 end
} _d

/BuildChar {
 1 index /Encoding get exch get
 1 index /BuildGlyph get exec
} _d

FontName currentdict end definefont pop
end
%%EndProlog
mpldict begin
54 216 translate
504 360 0 0 clipbox
gsave
0 0 m
504 0 l
504 360 l
0 360 l
cl
1.000 setgray
fill
grestore
gsave
56.09 41.96 m
451.06 41.96 l
451.06 345.24 l
56.09 345.24 l
cl
1.000 setgray
fill
grestore
gsave
394.97 303.28 56.09 41.96 clipbox
-15.498312 128.611429 m
-5.624062 128.611429 l
-5.624062 518.955226 l
-15.498312 518.955226 l
cl
0.122 0.467 0.706 setrgbcolor
fill
grestore
gsave
394.97 303.28 56.09 41.96 clipbox
0 0 m
cl
0.122 0.467 0.706 setrgbcolor
fill
grestore
gsave
394.97 303.28 56.09 41.96 clipbox
0 0 m
cl
0.122 0.467 0.706 setrgbcolor
fill
grestore
gsave
394.97 303.28 56.09 41.96 clipbox
58.558562 128.611429 m
68.432812 128.611429 l
68.432812 290.474982 l
58.558562 290.474982 l
cl
0.122 0.467 0.706 setrgbcolor
fill
grestore
gsave
394.97 303.28 56.09 41.96 clipbox
83.244187 128.611429 m
93.118437 128.611429 l
93.118437 304.602583 l
83.244187 304.602583 l
cl
0.122 0.467 0.706 setrgbcolor
fill
grestore
gsave
394.97 303.28 56.09 41.96 clipbox
107.929813 128.611429 m
117.804063 128.611429 l
117.804063 329.225393 l
107.929813 329.225393 l
cl
0.122 0.467 0.706 setrgbcolor
fill
grestore
gsave
394.97 303.28 56.09 41.96 clipbox
132.615437 128.611429 m
142.489687 128.611429 l
142.489687 293.652753 l
132.615437 293.652753 l
cl
0.122 0.467 0.706 setrgbcolor
fill
grestore
gsave
394.97 303.28 56.09 41.96 clipbox
157.301063 128.611429 m
167.175312 128.611429 l
167.175312 259.819749 l
157.301063 259.819749 l
cl
0.122 0.467 0.706 setrgbcolor
fill
grestore
gsave
394.97 303.28 56.09 41.96 clipbox
181.986688 128.611429 m
191.860938 128.611429 l
191.860938 234.516896 l
181.986688 234.516896 l
cl
0.122 0.467 0.706 setrgbcolor
fill
grestore
gsave
394.97 303.28 56.09 41.96 clipbox
206.672312 128.611429 m
216.546562 128.611429 l
216.546562 196.905952 l
206.672312 196.905952 l
cl
0.122 0.467 0.706 setrgbcolor
fill
grestore
gsave
394.97 303.28 56.09 41.96 clipbox
231.357937 128.611429 m
241.232187 128.611429 l
241.232187 158.738623 l
231.357937 158.738623 l
cl
0.122 0.467 0.706 setrgbcolor
fill
grestore
gsave
394.97 303.28 56.09 41.96 clipbox
256.043563 128.611429 m
265.917813 128.611429 l
265.917813 175.62163 l
256.043563 175.62163 l
cl
0.122 0.467 0.706 setrgbcolor
fill
grestore
gsave
394.97 303.28 56.09 41.96 clipbox
280.729188 128.611429 m
290.603438 128.611429 l
290.603438 191.216813 l
280.729188 191.216813 l
cl
0.122 0.467 0.706 setrgbcolor
fill
grestore
gsave
394.97 303.28 56.09 41.96 clipbox
305.414813 128.611429 m
315.289063 128.611429 l
315.289063 152.556347 l
305.414813 152.556347 l
cl
0.122 0.467 0.706 setrgbcolor
fill
grestore
gsave
394.97 303.28 56.09 41.96 clipbox
330.100437 128.611429 m
339.974688 128.611429 l
339.974688 102.330539 l
330.100437 102.330539 l
cl
0.122 0.467 0.706 setrgbcolor
fill
grestore
gsave
394.97 303.28 56.09 41.96 clipbox
354.786063 128.611429 m
364.660313 128.611429 l
364.660313 66.538815 l
354.786063 66.538815 l
cl
0.122 0.467 0.706 setrgbcolor
fill
grestore
gsave
394.97 303.28 56.09 41.96 clipbox
379.471688 128.611429 m
389.345938 128.611429 l
389.345938 48.752587 l
379.471688 48.752587 l
cl
0.122 0.467 0.706 setrgbcolor
fill
grestore
gsave
394.97 303.28 56.09 41.96 clipbox
404.157312 128.611429 m
414.031563 128.611429 l
414.031563 96.345223 l
404.157312 96.345223 l
cl
0.122 0.467 0.706 setrgbcolor
fill
grestore
gsave
394.97 303.28 56.09 41.96 clipbox
428.842938 128.611429 m
438.717188 128.611429 l
438.717188 211.181395 l
428.842938 211.181395 l
cl
0.122 0.467 0.706 setrgbcolor
fill
grestore
0.800 setlinewidth
1 setlinejoin
0 setlinecap
[] 0 setdash
0.000 setgray
gsave
/o {
gsave
newpath
translate
0.8 setlinewidth
1 setlinejoin

0 setlinecap

0 0 m
0 -3.5 l

gsave
0.000 setgray
fill
grestore
stroke
grestore
} bind def
68.4328 41.96 o
grestore
/DejaVuSans 10.000 selectfont
gsave

54.7062 27.3662 translate
0 rotate
0 0 m /minus glyphshow
8.37891 0 m /two glyphshow
14.7412 0 m /three glyphshow
21.1035 0 m /five glyphshow
grestore
gsave
/o {
gsave
newpath
translate
0.8 setlinewidth
1 setlinejoin

0 setlinecap

0 0 m
0 -3.5 l

gsave
0.000 setgray
fill
grestore
stroke
grestore
} bind def
93.1184 41.96 o
grestore
/DejaVuSans 10.000 selectfont
gsave

79.3919 27.3662 translate
0 rotate
0 0 m /minus glyphshow
8.37891 0 m /two glyphshow
14.7412 0 m /two glyphshow
21.1035 0 m /five glyphshow
grestore
gsave
/o {
gsave
newpath
translate
0.8 setlinewidth
1 setlinejoin

0 setlinecap

0 0 m
0 -3.5 l

gsave
0.000 setgray
fill
grestore
stroke
grestore
} bind def
117.804 41.96 o
grestore
/DejaVuSans 10.000 selectfont
gsave

104.077 27.3662 translate
0 rotate
0 0 m /minus glyphshow
8.37891 0 m /two glyphshow
14.7412 0 m /one glyphshow
21.1035 0 m /five glyphshow
grestore
gsave
/o {
gsave
newpath
translate
0.8 setlinewidth
1 setlinejoin

0 setlinecap

0 0 m
0 -3.5 l

gsave
0.000 setgray
fill
grestore
stroke
grestore
} bind def
142.49 41.96 o
grestore
/DejaVuSans 10.000 selectfont
gsave

128.763 27.3662 translate
0 rotate
0 0 m /minus glyphshow
8.37891 0 m /two glyphshow
14.7412 0 m /zero glyphshow
21.1035 0 m /five glyphshow
grestore
gsave
/o {
gsave
newpath
translate
0.8 setlinewidth
1 setlinejoin

0 setlinecap

0 0 m
0 -3.5 l

gsave
0.000 setgray
fill
grestore
stroke
grestore
} bind def
167.175 41.96 o
grestore
/DejaVuSans 10.000 selectfont
gsave

153.449 27.3662 translate
0 rotate
0 0 m /minus glyphshow
8.37891 0 m /one glyphshow
14.7412 0 m /nine glyphshow
21.1035 0 m /five glyphshow
grestore
gsave
/o {
gsave
newpath
translate
0.8 setlinewidth
1 setlinejoin

0 setlinecap

0 0 m
0 -3.5 l

gsave
0.000 setgray
fill
grestore
stroke
grestore
} bind def
191.861 41.96 o
grestore
/DejaVuSans 10.000 selectfont
gsave

178.134 27.3662 translate
0 rotate
0 0 m /minus glyphshow
8.37891 0 m /one glyphshow
14.7412 0 m /eight glyphshow
21.1035 0 m /five glyphshow
grestore
gsave
/o {
gsave
newpath
translate
0.8 setlinewidth
1 setlinejoin

0 setlinecap

0 0 m
0 -3.5 l

gsave
0.000 setgray
fill
grestore
stroke
grestore
} bind def
216.547 41.96 o
grestore
/DejaVuSans 10.000 selectfont
gsave

202.82 27.3662 translate
0 rotate
0 0 m /minus glyphshow
8.37891 0 m /one glyphshow
14.7412 0 m /seven glyphshow
21.1035 0 m /five glyphshow
grestore
gsave
/o {
gsave
newpath
translate
0.8 setlinewidth
1 setlinejoin

0 setlinecap

0 0 m
0 -3.5 l

gsave
0.000 setgray
fill
grestore
stroke
grestore
} bind def
241.232 41.96 o
grestore
/DejaVuSans 10.000 selectfont
gsave

227.506 27.3662 translate
0 rotate
0 0 m /minus glyphshow
8.37891 0 m /one glyphshow
14.7412 0 m /six glyphshow
21.1035 0 m /five glyphshow
grestore
gsave
/o {
gsave
newpath
translate
0.8 setlinewidth
1 setlinejoin

0 setlinecap

0 0 m
0 -3.5 l

gsave
0.000 setgray
fill
grestore
stroke
grestore
} bind def
265.918 41.96 o
grestore
/DejaVuSans 10.000 selectfont
gsave

252.191 27.3662 translate
0 rotate
0 0 m /minus glyphshow
8.37891 0 m /one glyphshow
14.7412 0 m /five glyphshow
21.1035 0 m /five glyphshow
grestore
gsave
/o {
gsave
newpath
translate
0.8 setlinewidth
1 setlinejoin

0 setlinecap

0 0 m
0 -3.5 l

gsave
0.000 setgray
fill
grestore
stroke
grestore
} bind def
290.603 41.96 o
grestore
/DejaVuSans 10.000 selectfont
gsave

276.877 27.3662 translate
0 rotate
0 0 m /minus glyphshow
8.37891 0 m /one glyphshow
14.7412 0 m /four glyphshow
21.1035 0 m /five glyphshow
grestore
gsave
/o {
gsave
newpath
translate
0.8 setlinewidth
1 setlinejoin

0 setlinecap

0 0 m
0 -3.5 l

gsave
0.000 setgray
fill
grestore
stroke
grestore
} bind def
315.289 41.96 o
grestore
/DejaVuSans 10.000 selectfont
gsave

301.562 27.3662 translate
0 rotate
0 0 m /minus glyphshow
8.37891 0 m /one glyphshow
14.7412 0 m /three glyphshow
21.1035 0 m /five glyphshow
grestore
gsave
/o {
gsave
newpath
translate
0.8 setlinewidth
1 setlinejoin

0 setlinecap

0 0 m
0 -3.5 l

gsave
0.000 setgray
fill
grestore
stroke
grestore
} bind def
339.975 41.96 o
grestore
/DejaVuSans 10.000 selectfont
gsave

326.248 27.3662 translate
0 rotate
0 0 m /minus glyphshow
8.37891 0 m /one glyphshow
14.7412 0 m /two glyphshow
21.1035 0 m /five glyphshow
grestore
gsave
/o {
gsave
newpath
translate
0.8 setlinewidth
1 setlinejoin

0 setlinecap

0 0 m
0 -3.5 l

gsave
0.000 setgray
fill
grestore
stroke
grestore
} bind def
364.66 41.96 o
grestore
/DejaVuSans 10.000 selectfont
gsave

350.934 27.3662 translate
0 rotate
0 0 m /minus glyphshow
8.37891 0 m /one glyphshow
14.7412 0 m /one glyphshow
21.1035 0 m /five glyphshow
grestore
gsave
/o {
gsave
newpath
translate
0.8 setlinewidth
1 setlinejoin

0 setlinecap

0 0 m
0 -3.5 l

gsave
0.000 setgray
fill
grestore
stroke
grestore
} bind def
389.346 41.96 o
grestore
/DejaVuSans 10.000 selectfont
gsave

375.619 27.3662 translate
0 rotate
0 0 m /minus glyphshow
8.37891 0 m /one glyphshow
14.7412 0 m /zero glyphshow
21.1035 0 m /five glyphshow
grestore
gsave
/o {
gsave
newpath
translate
0.8 setlinewidth
1 setlinejoin

0 setlinecap

0 0 m
0 -3.5 l

gsave
0.000 setgray
fill
grestore
stroke
grestore
} bind def
414.032 41.96 o
grestore
/DejaVuSans 10.000 selectfont
gsave

403.485 27.3662 translate
0 rotate
0 0 m /minus glyphshow
8.37891 0 m /nine glyphshow
14.7412 0 m /five glyphshow
grestore
gsave
/o {
gsave
newpath
translate
0.8 setlinewidth
1 setlinejoin

0 setlinecap

0 0 m
0 -3.5 l

gsave
0.000 setgray
fill
grestore
stroke
grestore
} bind def
438.717 41.96 o
grestore
/DejaVuSans 10.000 selectfont
gsave

428.17 27.3662 translate
0 rotate
0 0 m /minus glyphshow
8.37891 0 m /eight glyphshow
14.7412 0 m /five glyphshow
grestore
/DejaVuSans 10.000 selectfont
gsave

209.286 13.6944 translate
0 rotate
0 0 m /c glyphshow
5.49805 0 m /h glyphshow
11.8359 0 m /a glyphshow
17.9639 0 m /n glyphshow
24.3018 0 m /n glyphshow
30.6396 0 m /e glyphshow
36.792 0 m /l glyphshow
39.5703 0 m /space glyphshow
42.749 0 m /g glyphshow
49.0967 0 m /a glyphshow
55.2246 0 m /i glyphshow
58.0029 0 m /n glyphshow
64.3408 0 m /space glyphshow
67.5195 0 m /parenleft glyphshow
71.4209 0 m /d glyphshow
77.7686 0 m /B glyphshow
84.6289 0 m /parenright glyphshow
grestore
gsave
/o {
gsave
newpath
translate
0.8 setlinewidth
1 setlinejoin

0 setlinecap

-0 0 m
-3.5 0 l

gsave
0.000 setgray
fill
grestore
stroke
grestore
} bind def
56.09 41.96 o
grestore
0.000 0.000 1.000 setrgbcolor
/DejaVuSans 10.000 selectfont
gsave

24.8088 38.1631 translate
0 rotate
0 0 m /minus glyphshow
8.37891 0 m /zero glyphshow
14.7412 0 m /period glyphshow
17.9199 0 m /two glyphshow
grestore
0.000 setgray
gsave
/o {
gsave
newpath
translate
0.8 setlinewidth
1 setlinejoin

0 setlinecap

-0 0 m
-3.5 0 l

gsave
0.000 setgray
fill
grestore
stroke
grestore
} bind def
56.09 85.2857 o
grestore
0.000 0.000 1.000 setrgbcolor
/DejaVuSans 10.000 selectfont
gsave

24.8088 81.4888 translate
0 rotate
0 0 m /minus glyphshow
8.37891 0 m /zero glyphshow
14.7412 0 m /period glyphshow
17.9199 0 m /one glyphshow
grestore
0.000 setgray
gsave
/o {
gsave
newpath
translate
0.8 setlinewidth
1 setlinejoin

0 setlinecap

-0 0 m
-3.5 0 l

gsave
0.000 setgray
fill
grestore
stroke
grestore
} bind def
56.09 128.611 o
grestore
0.000 0.000 1.000 setrgbcolor
/DejaVuSans 10.000 selectfont
gsave

33.1838 124.815 translate
0 rotate
0 0 m /zero glyphshow
6.3623 0 m /period glyphshow
9.54102 0 m /zero glyphshow
grestore
0.000 setgray
gsave
/o {
gsave
newpath
translate
0.8 setlinewidth
1 setlinejoin

0 setlinecap

-0 0 m
-3.5 0 l

gsave
0.000 setgray
fill
grestore
stroke
grestore
} bind def
56.09 171.937 o
grestore
0.000 0.000 1.000 setrgbcolor
/DejaVuSans 10.000 selectfont
gsave

33.1838 168.14 translate
0 rotate
0 0 m /zero glyphshow
6.3623 0 m /period glyphshow
9.54102 0 m /one glyphshow
grestore
0.000 setgray
gsave
/o {
gsave
newpath
translate
0.8 setlinewidth
1 setlinejoin

0 setlinecap

-0 0 m
-3.5 0 l

gsave
0.000 setgray
fill
grestore
stroke
grestore
} bind def
56.09 215.263 o
grestore
0.000 0.000 1.000 setrgbcolor
/DejaVuSans 10.000 selectfont
gsave

33.1838 211.466 translate
0 rotate
0 0 m /zero glyphshow
6.3623 0 m /period glyphshow
9.54102 0 m /two glyphshow
grestore
0.000 setgray
gsave
/o {
gsave
newpath
translate
0.8 setlinewidth
1 setlinejoin

0 setlinecap

-0 0 m
-3.5 0 l

gsave
0.000 setgray
fill
grestore
stroke
grestore
} bind def
56.09 258.589 o
grestore
0.000 0.000 1.000 setrgbcolor
/DejaVuSans 10.000 selectfont
gsave

33.1838 254.792 translate
0 rotate
0 0 m /zero glyphshow
6.3623 0 m /period glyphshow
9.54102 0 m /three glyphshow
grestore
0.000 setgray
gsave
/o {
gsave
newpath
translate
0.8 setlinewidth
1 setlinejoin

0 setlinecap

-0 0 m
-3.5 0 l

gsave
0.000 setgray
fill
grestore
stroke
grestore
} bind def
56.09 301.914 o
grestore
0.000 0.000 1.000 setrgbcolor
/DejaVuSans 10.000 selectfont
gsave

33.1838 298.117 translate
0 rotate
0 0 m /zero glyphshow
6.3623 0 m /period glyphshow
9.54102 0 m /four glyphshow
grestore
0.000 setgray
gsave
/o {
gsave
newpath
translate
0.8 setlinewidth
1 setlinejoin

0 setlinecap

-0 0 m
-3.5 0 l

gsave
0.000 setgray
fill
grestore
stroke
grestore
} bind def
56.09 345.24 o
grestore
0.000 0.000 1.000 setrgbcolor
/DejaVuSans 10.000 selectfont
gsave

33.1838 341.443 translate
0 rotate
0 0 m /zero glyphshow
6.3623 0 m /period glyphshow
9.54102 0 m /five glyphshow
grestore
/DejaVuSans 10.000 selectfont
gsave

18.7306 155.842 translate
90 rotate
0 0 m /G glyphshow
7.74902 0 m /o glyphshow
13.8672 0 m /o glyphshow
19.9854 0 m /d glyphshow
26.333 0 m /n glyphshow
32.6709 0 m /e glyphshow
38.8232 0 m /s glyphshow
44.0332 0 m /s glyphshow
49.2432 0 m /space glyphshow
52.4219 0 m /o glyphshow
58.54 0 m /f glyphshow
62.0605 0 m /space glyphshow
65.2393 0 m /f glyphshow
68.7598 0 m /i glyphshow
71.5381 0 m /t glyphshow
grestore
0 setlinejoin
2 setlinecap
0.000 setgray
gsave
56.09 41.96 m
56.09 345.24 l
stroke
grestore
gsave
451.06 41.96 m
451.06 345.24 l
stroke
grestore
gsave
56.09 41.96 m
451.06 41.96 l
stroke
grestore
gsave
56.09 345.24 m
451.06 345.24 l
stroke
grestore
gsave
394.97 303.28 56.09 41.96 clipbox
-5.624063 128.611429 m
4.250187 128.611429 l
4.250187 379.063347 l
-5.624063 379.063347 l
cl
1.000 0.000 0.000 setrgbcolor
fill
grestore
gsave
394.97 303.28 56.09 41.96 clipbox
0 0 m
cl
1.000 0.000 0.000 setrgbcolor
fill
grestore
gsave
394.97 303.28 56.09 41.96 clipbox
0 0 m
cl
1.000 0.000 0.000 setrgbcolor
fill
grestore
gsave
394.97 303.28 56.09 41.96 clipbox
68.432812 128.611429 m
78.307062 128.611429 l
78.307062 330.701419 l
68.432812 330.701419 l
cl
1.000 0.000 0.000 setrgbcolor
fill
grestore
gsave
394.97 303.28 56.09 41.96 clipbox
93.118438 128.611429 m
102.992688 128.611429 l
102.992688 272.191611 l
93.118438 272.191611 l
cl
1.000 0.000 0.000 setrgbcolor
fill
grestore
gsave
394.97 303.28 56.09 41.96 clipbox
117.804062 128.611429 m
127.678312 128.611429 l
127.678312 275.795994 l
117.804062 275.795994 l
cl
1.000 0.000 0.000 setrgbcolor
fill
grestore
gsave
394.97 303.28 56.09 41.96 clipbox
142.489688 128.611429 m
152.363937 128.611429 l
152.363937 256.345306 l
142.489688 256.345306 l
cl
1.000 0.000 0.000 setrgbcolor
fill
grestore
gsave
394.97 303.28 56.09 41.96 clipbox
167.175312 128.611429 m
177.049562 128.611429 l
177.049562 242.446454 l
167.175312 242.446454 l
cl
1.000 0.000 0.000 setrgbcolor
fill
grestore
gsave
394.97 303.28 56.09 41.96 clipbox
191.860937 128.611429 m
201.735187 128.611429 l
201.735187 223.774257 l
191.860937 223.774257 l
cl
1.000 0.000 0.000 setrgbcolor
fill
grestore
gsave
394.97 303.28 56.09 41.96 clipbox
216.546562 128.611429 m
226.420812 128.611429 l
226.420812 202.102833 l
216.546562 202.102833 l
cl
1.000 0.000 0.000 setrgbcolor
fill
grestore
gsave
394.97 303.28 56.09 41.96 clipbox
241.232188 128.611429 m
251.106437 128.611429 l
251.106437 186.060725 l
241.232188 186.060725 l
cl
1.000 0.000 0.000 setrgbcolor
fill
grestore
gsave
394.97 303.28 56.09 41.96 clipbox
265.917813 128.611429 m
275.792063 128.611429 l
275.792063 182.198289 l
265.917813 182.198289 l
cl
1.000 0.000 0.000 setrgbcolor
fill
grestore
gsave
394.97 303.28 56.09 41.96 clipbox
290.603437 128.611429 m
300.477688 128.611429 l
300.477688 181.592961 l
290.603437 181.592961 l
cl
1.000 0.000 0.000 setrgbcolor
fill
grestore
gsave
394.97 303.28 56.09 41.96 clipbox
315.289062 128.611429 m
325.163313 128.611429 l
325.163313 177.192589 l
315.289062 177.192589 l
cl
1.000 0.000 0.000 setrgbcolor
fill
grestore
gsave
394.97 303.28 56.09 41.96 clipbox
339.974688 128.611429 m
349.848938 128.611429 l
349.848938 171.875844 l
339.974688 171.875844 l
cl
1.000 0.000 0.000 setrgbcolor
fill
grestore
gsave
394.97 303.28 56.09 41.96 clipbox
364.660313 128.611429 m
374.534563 128.611429 l
374.534563 165.880244 l
364.660313 165.880244 l
cl
1.000 0.000 0.000 setrgbcolor
fill
grestore
gsave
394.97 303.28 56.09 41.96 clipbox
389.345938 128.611429 m
399.220188 128.611429 l
399.220188 161.816958 l
389.345938 161.816958 l
cl
1.000 0.000 0.000 setrgbcolor
fill
grestore
gsave
394.97 303.28 56.09 41.96 clipbox
414.031563 128.611429 m
423.905813 128.611429 l
423.905813 170.766815 l
414.031563 170.766815 l
cl
1.000 0.000 0.000 setrgbcolor
fill
grestore
gsave
394.97 303.28 56.09 41.96 clipbox
438.717188 128.611429 m
448.591438 128.611429 l
448.591438 198.243992 l
438.717188 198.243992 l
cl
1.000 0.000 0.000 setrgbcolor
fill
grestore
1 setlinejoin
0 setlinecap
gsave
/o {
gsave
newpath
translate
0.8 setlinewidth
1 setlinejoin

0 setlinecap

0 0 m
3.5 0 l

gsave
0.000 setgray
fill
grestore
stroke
grestore
} bind def
451.06 41.96 o
grestore
1.000 0.000 0.000 setrgbcolor
/DejaVuSans 10.000 selectfont
gsave

458.06 38.1631 translate
0 rotate
0 0 m /minus glyphshow
8.37891 0 m /two glyphshow
14.7412 0 m /zero glyphshow
grestore
0.000 setgray
gsave
/o {
gsave
newpath
translate
0.8 setlinewidth
1 setlinejoin

0 setlinecap

0 0 m
3.5 0 l

gsave
0.000 setgray
fill
grestore
stroke
grestore
} bind def
451.06 85.2857 o
grestore
1.000 0.000 0.000 setrgbcolor
/DejaVuSans 10.000 selectfont
gsave

458.06 81.4888 translate
0 rotate
0 0 m /minus glyphshow
8.37891 0 m /one glyphshow
14.7412 0 m /zero glyphshow
grestore
0.000 setgray
gsave
/o {
gsave
newpath
translate
0.8 setlinewidth
1 setlinejoin

0 setlinecap

0 0 m
3.5 0 l

gsave
0.000 setgray
fill
grestore
stroke
grestore
} bind def
451.06 128.611 o
grestore
1.000 0.000 0.000 setrgbcolor
/DejaVuSans 10.000 selectfont
gsave

458.06 124.815 translate
0 rotate
0 0 m /zero glyphshow
grestore
0.000 setgray
gsave
/o {
gsave
newpath
translate
0.8 setlinewidth
1 setlinejoin

0 setlinecap

0 0 m
3.5 0 l

gsave
0.000 setgray
fill
grestore
stroke
grestore
} bind def
451.06 171.937 o
grestore
1.000 0.000 0.000 setrgbcolor
/DejaVuSans 10.000 selectfont
gsave

458.06 168.14 translate
0 rotate
0 0 m /one glyphshow
6.3623 0 m /zero glyphshow
grestore
0.000 setgray
gsave
/o {
gsave
newpath
translate
0.8 setlinewidth
1 setlinejoin

0 setlinecap

0 0 m
3.5 0 l

gsave
0.000 setgray
fill
grestore
stroke
grestore
} bind def
451.06 215.263 o
grestore
1.000 0.000 0.000 setrgbcolor
/DejaVuSans 10.000 selectfont
gsave

458.06 211.466 translate
0 rotate
0 0 m /two glyphshow
6.3623 0 m /zero glyphshow
grestore
0.000 setgray
gsave
/o {
gsave
newpath
translate
0.8 setlinewidth
1 setlinejoin

0 setlinecap

0 0 m
3.5 0 l

gsave
0.000 setgray
fill
grestore
stroke
grestore
} bind def
451.06 258.589 o
grestore
1.000 0.000 0.000 setrgbcolor
/DejaVuSans 10.000 selectfont
gsave

458.06 254.792 translate
0 rotate
0 0 m /three glyphshow
6.3623 0 m /zero glyphshow
grestore
0.000 setgray
gsave
/o {
gsave
newpath
translate
0.8 setlinewidth
1 setlinejoin

0 setlinecap

0 0 m
3.5 0 l

gsave
0.000 setgray
fill
grestore
stroke
grestore
} bind def
451.06 301.914 o
grestore
1.000 0.000 0.000 setrgbcolor
/DejaVuSans 10.000 selectfont
gsave

458.06 298.117 translate
0 rotate
0 0 m /four glyphshow
6.3623 0 m /zero glyphshow
grestore
0.000 setgray
gsave
/o {
gsave
newpath
translate
0.8 setlinewidth
1 setlinejoin

0 setlinecap

0 0 m
3.5 0 l

gsave
0.000 setgray
fill
grestore
stroke
grestore
} bind def
451.06 345.24 o
grestore
1.000 0.000 0.000 setrgbcolor
/DejaVuSans 10.000 selectfont
gsave

458.06 341.443 translate
0 rotate
0 0 m /five glyphshow
6.3623 0 m /zero glyphshow
grestore
/DejaVuSans 10.000 selectfont
gsave

490.748 167.381 translate
90 rotate
0 0 m /R glyphshow
6.94824 0 m /M glyphshow
15.5762 0 m /S glyphshow
21.9238 0 m /E glyphshow
28.2422 0 m /space glyphshow
31.4209 0 m /parenleft glyphshow
35.3223 0 m /d glyphshow
41.6699 0 m /B glyphshow
48.5303 0 m /parenright glyphshow
grestore
0 setlinejoin
2 setlinecap
0.000 setgray
gsave
56.09 41.96 m
56.09 345.24 l
stroke
grestore
gsave
451.06 41.96 m
451.06 345.24 l
stroke
grestore
gsave
56.09 41.96 m
451.06 41.96 l
stroke
grestore
gsave
56.09 345.24 m
451.06 345.24 l
stroke
grestore

end
showpage
