%!PS-Adobe-3.0 EPSF-3.0
%%Title: height_analysis.eps
%%Creator: Matplotlib v3.6.3, https://matplotlib.org/
%%CreationDate: Sat Jan 20 20:50:34 2024
%%Orientation: portrait
%%BoundingBox: 54 216 558 576
%%HiResBoundingBox: 54.000000 216.000000 558.000000 576.000000
%%EndComments
%%BeginProlog
/mpldict 12 dict def
mpldict begin
/_d { bind def } bind def
/m { moveto } _d
/l { lineto } _d
/r { rlineto } _d
/c { curveto } _d
/cl { closepath } _d
/ce { closepath eofill } _d
/box {
      m
      1 index 0 r
      0 exch r
      neg 0 r
      cl
    } _d
/clipbox {
      box
      clip
      newpath
    } _d
/sc { setcachedevice } _d
%!PS-Adobe-3.0 Resource-Font
%%Creator: Converted from TrueType to Type 3 by Matplotlib.
10 dict begin
/FontName /DejaVuSans def
/PaintType 0 def
/FontMatrix [0.00048828125 0 0 0.00048828125 0 0] def
/FontBBox [-2090 -948 3673 2524] def
/FontType 3 def
/Encoding [/space /parenleft /parenright /zero /one /two /four /six /eight /equal /A /B /E /K /M /N /P /R /S /T /U /V /b /d /e /f /g /i /m /n /o /p /r /s /t /u] def
/CharStrings 37 dict dup begin
/.notdef 0 def
/space{651 0 0 0 0 0 sc
ce} _d
/parenleft{799 0 176 -270 635 1554 sc
635 1554 m
546 1401 479 1249 436 1099 c
393 949 371 797 371 643 c
371 489 393 336 436 185 c
480 34 546 -117 635 -270 c
475 -270 l
375 -113 300 41 250 192 c
201 343 176 494 176 643 c
176 792 201 941 250 1092 c
299 1243 374 1397 475 1554 c
635 1554 l

ce} _d
/parenright{799 0 164 -270 623 1554 sc
164 1554 m
324 1554 l
424 1397 499 1243 548 1092 c
598 941 623 792 623 643 c
623 494 598 343 548 192 c
499 41 424 -113 324 -270 c
164 -270 l
253 -117 319 34 362 185 c
406 336 428 489 428 643 c
428 797 406 949 362 1099 c
319 1249 253 1401 164 1554 c

ce} _d
/zero{1303 0 135 -29 1167 1520 sc
651 1360 m
547 1360 469 1309 416 1206 c
364 1104 338 950 338 745 c
338 540 364 387 416 284 c
469 182 547 131 651 131 c
756 131 834 182 886 284 c
939 387 965 540 965 745 c
965 950 939 1104 886 1206 c
834 1309 756 1360 651 1360 c

651 1520 m
818 1520 946 1454 1034 1321 c
1123 1189 1167 997 1167 745 c
1167 494 1123 302 1034 169 c
946 37 818 -29 651 -29 c
484 -29 356 37 267 169 c
179 302 135 494 135 745 c
135 997 179 1189 267 1321 c
356 1454 484 1520 651 1520 c

ce} _d
/one{1303 0 225 0 1114 1493 sc
254 170 m
584 170 l
584 1309 l
225 1237 l
225 1421 l
582 1493 l
784 1493 l
784 170 l
1114 170 l
1114 0 l
254 0 l
254 170 l

ce} _d
/two{1303 0 150 0 1098 1520 sc
393 170 m
1098 170 l
1098 0 l
150 0 l
150 170 l
227 249 331 356 463 489 c
596 623 679 709 713 748 c
778 821 823 882 848 932 c
874 983 887 1032 887 1081 c
887 1160 859 1225 803 1275 c
748 1325 675 1350 586 1350 c
523 1350 456 1339 385 1317 c
315 1295 240 1262 160 1217 c
160 1421 l
241 1454 317 1478 388 1495 c
459 1512 523 1520 582 1520 c
737 1520 860 1481 952 1404 c
1044 1327 1090 1223 1090 1094 c
1090 1033 1078 974 1055 919 c
1032 864 991 800 930 725 c
913 706 860 650 771 557 c
682 465 556 336 393 170 c

ce} _d
/four{1303 0 100 0 1188 1493 sc
774 1317 m
264 520 l
774 520 l
774 1317 l

721 1493 m
975 1493 l
975 520 l
1188 520 l
1188 352 l
975 352 l
975 0 l
774 0 l
774 352 l
100 352 l
100 547 l
721 1493 l

ce} _d
/six{1303 0 143 -29 1174 1520 sc
676 827 m
585 827 513 796 460 734 c
407 672 381 587 381 479 c
381 372 407 287 460 224 c
513 162 585 131 676 131 c
767 131 838 162 891 224 c
944 287 971 372 971 479 c
971 587 944 672 891 734 c
838 796 767 827 676 827 c

1077 1460 m
1077 1276 l
1026 1300 975 1318 923 1331 c
872 1344 821 1350 770 1350 c
637 1350 535 1305 464 1215 c
394 1125 354 989 344 807 c
383 865 433 909 492 940 c
551 971 617 987 688 987 c
838 987 956 941 1043 850 c
1130 759 1174 636 1174 479 c
1174 326 1129 203 1038 110 c
947 17 827 -29 676 -29 c
503 -29 371 37 280 169 c
189 302 143 494 143 745 c
143 981 199 1169 311 1309 c
423 1450 573 1520 762 1520 c
813 1520 864 1515 915 1505 c
967 1495 1021 1480 1077 1460 c

ce} _d
/eight{1303 0 139 -29 1163 1520 sc
651 709 m
555 709 479 683 424 632 c
369 581 342 510 342 420 c
342 330 369 259 424 208 c
479 157 555 131 651 131 c
747 131 823 157 878 208 c
933 260 961 331 961 420 c
961 510 933 581 878 632 c
823 683 748 709 651 709 c

449 795 m
362 816 295 857 246 916 c
198 975 174 1048 174 1133 c
174 1252 216 1347 301 1416 c
386 1485 503 1520 651 1520 c
800 1520 916 1485 1001 1416 c
1086 1347 1128 1252 1128 1133 c
1128 1048 1104 975 1055 916 c
1007 857 940 816 854 795 c
951 772 1027 728 1081 662 c
1136 596 1163 515 1163 420 c
1163 275 1119 164 1030 87 c
942 10 816 -29 651 -29 c
486 -29 360 10 271 87 c
183 164 139 275 139 420 c
139 515 166 596 221 662 c
276 728 352 772 449 795 c

375 1114 m
375 1037 399 976 447 933 c
496 890 564 868 651 868 c
738 868 805 890 854 933 c
903 976 928 1037 928 1114 c
928 1191 903 1252 854 1295 c
805 1338 738 1360 651 1360 c
564 1360 496 1338 447 1295 c
399 1252 375 1191 375 1114 c

ce} _d
/equal{1716 0 217 352 1499 930 sc
217 930 m
1499 930 l
1499 762 l
217 762 l
217 930 l

217 522 m
1499 522 l
1499 352 l
217 352 l
217 522 l

ce} _d
/A{1401 0 16 0 1384 1493 sc
700 1294 m
426 551 l
975 551 l
700 1294 l

586 1493 m
815 1493 l
1384 0 l
1174 0 l
1038 383 l
365 383 l
229 0 l
16 0 l
586 1493 l

ce} _d
/B{1405 0 201 0 1260 1493 sc
403 713 m
403 166 l
727 166 l
836 166 916 188 968 233 c
1021 278 1047 347 1047 440 c
1047 533 1021 602 968 646 c
916 691 836 713 727 713 c
403 713 l

403 1327 m
403 877 l
702 877 l
801 877 874 895 922 932 c
971 969 995 1026 995 1102 c
995 1177 971 1234 922 1271 c
874 1308 801 1327 702 1327 c
403 1327 l

201 1493 m
717 1493 l
871 1493 990 1461 1073 1397 c
1156 1333 1198 1242 1198 1124 c
1198 1033 1177 960 1134 906 c
1091 852 1029 818 946 805 c
1045 784 1122 739 1177 671 c
1232 604 1260 519 1260 418 c
1260 285 1215 182 1124 109 c
1033 36 904 0 737 0 c
201 0 l
201 1493 l

ce} _d
/E{1294 0 201 0 1163 1493 sc
201 1493 m
1145 1493 l
1145 1323 l
403 1323 l
403 881 l
1114 881 l
1114 711 l
403 711 l
403 170 l
1163 170 l
1163 0 l
201 0 l
201 1493 l

ce} _d
/K{1343 0 201 0 1386 1493 sc
201 1493 m
403 1493 l
403 862 l
1073 1493 l
1333 1493 l
592 797 l
1386 0 l
1120 0 l
403 719 l
403 0 l
201 0 l
201 1493 l

ce} _d
/M{1767 0 201 0 1567 1493 sc
201 1493 m
502 1493 l
883 477 l
1266 1493 l
1567 1493 l
1567 0 l
1370 0 l
1370 1311 l
985 287 l
782 287 l
397 1311 l
397 0 l
201 0 l
201 1493 l

ce} _d
/N{1532 0 201 0 1331 1493 sc
201 1493 m
473 1493 l
1135 244 l
1135 1493 l
1331 1493 l
1331 0 l
1059 0 l
397 1249 l
397 0 l
201 0 l
201 1493 l

ce} _d
/P{1235 0 201 0 1165 1493 sc
403 1327 m
403 766 l
657 766 l
751 766 824 790 875 839 c
926 888 952 957 952 1047 c
952 1136 926 1205 875 1254 c
824 1303 751 1327 657 1327 c
403 1327 l

201 1493 m
657 1493 l
824 1493 951 1455 1036 1379 c
1122 1304 1165 1193 1165 1047 c
1165 900 1122 788 1036 713 c
951 638 824 600 657 600 c
403 600 l
403 0 l
201 0 l
201 1493 l

ce} _d
/R{1423 0 201 0 1364 1493 sc
909 700 m
952 685 994 654 1035 606 c
1076 558 1118 492 1159 408 c
1364 0 l
1147 0 l
956 383 l
907 483 859 549 812 582 c
766 615 703 631 623 631 c
403 631 l
403 0 l
201 0 l
201 1493 l
657 1493 l
828 1493 955 1457 1039 1386 c
1123 1315 1165 1207 1165 1063 c
1165 969 1143 891 1099 829 c
1056 767 992 724 909 700 c

403 1327 m
403 797 l
657 797 l
754 797 828 819 877 864 c
927 909 952 976 952 1063 c
952 1150 927 1216 877 1260 c
828 1305 754 1327 657 1327 c
403 1327 l

ce} _d
/S{1300 0 135 -29 1186 1520 sc
1096 1444 m
1096 1247 l
1019 1284 947 1311 879 1329 c
811 1347 745 1356 682 1356 c
572 1356 487 1335 427 1292 c
368 1249 338 1189 338 1110 c
338 1044 358 994 397 960 c
437 927 512 900 623 879 c
745 854 l
896 825 1007 775 1078 702 c
1150 630 1186 533 1186 412 c
1186 267 1137 158 1040 83 c
943 8 801 -29 614 -29 c
543 -29 468 -21 388 -5 c
309 11 226 35 141 66 c
141 274 l
223 228 303 193 382 170 c
461 147 538 135 614 135 c
729 135 818 158 881 203 c
944 248 975 313 975 397 c
975 470 952 528 907 569 c
862 610 789 641 686 662 c
563 686 l
412 716 303 763 236 827 c
169 891 135 980 135 1094 c
135 1226 181 1330 274 1406 c
367 1482 496 1520 659 1520 c
729 1520 800 1514 873 1501 c
946 1488 1020 1469 1096 1444 c

ce} _d
/T{1251 0 -6 0 1257 1493 sc
-6 1493 m
1257 1493 l
1257 1323 l
727 1323 l
727 0 l
524 0 l
524 1323 l
-6 1323 l
-6 1493 l

ce} _d
/U{1499 0 178 -29 1321 1493 sc
178 1493 m
381 1493 l
381 586 l
381 426 410 311 468 240 c
526 170 620 135 750 135 c
879 135 973 170 1031 240 c
1089 311 1118 426 1118 586 c
1118 1493 l
1321 1493 l
1321 561 l
1321 366 1273 219 1176 120 c
1080 21 938 -29 750 -29 c
561 -29 419 21 322 120 c
226 219 178 366 178 561 c
178 1493 l

ce} _d
/V{1401 0 16 0 1384 1493 sc
586 0 m
16 1493 l
227 1493 l
700 236 l
1174 1493 l
1384 1493 l
815 0 l
586 0 l

ce} _d
/b{1300 0 186 -29 1188 1556 sc
997 559 m
997 694 969 800 913 877 c
858 954 781 993 684 993 c
587 993 510 954 454 877 c
399 800 371 694 371 559 c
371 424 399 317 454 240 c
510 163 587 125 684 125 c
781 125 858 163 913 240 c
969 317 997 424 997 559 c

371 950 m
410 1017 458 1066 517 1098 c
576 1131 647 1147 729 1147 c
865 1147 975 1093 1060 985 c
1145 877 1188 735 1188 559 c
1188 383 1145 241 1060 133 c
975 25 865 -29 729 -29 c
647 -29 576 -13 517 19 c
458 52 410 101 371 168 c
371 0 l
186 0 l
186 1556 l
371 1556 l
371 950 l

ce} _d
/d{1300 0 113 -29 1114 1556 sc
930 950 m
930 1556 l
1114 1556 l
1114 0 l
930 0 l
930 168 l
891 101 842 52 783 19 c
724 -13 654 -29 571 -29 c
436 -29 325 25 240 133 c
155 241 113 383 113 559 c
113 735 155 877 240 985 c
325 1093 436 1147 571 1147 c
654 1147 724 1131 783 1098 c
842 1066 891 1017 930 950 c

303 559 m
303 424 331 317 386 240 c
442 163 519 125 616 125 c
713 125 790 163 846 240 c
902 317 930 424 930 559 c
930 694 902 800 846 877 c
790 954 713 993 616 993 c
519 993 442 954 386 877 c
331 800 303 694 303 559 c

ce} _d
/e{1260 0 113 -29 1151 1147 sc
1151 606 m
1151 516 l
305 516 l
313 389 351 293 419 226 c
488 160 583 127 705 127 c
776 127 844 136 910 153 c
977 170 1043 196 1108 231 c
1108 57 l
1042 29 974 8 905 -7 c
836 -22 765 -29 694 -29 c
515 -29 374 23 269 127 c
165 231 113 372 113 549 c
113 732 162 878 261 985 c
360 1093 494 1147 662 1147 c
813 1147 932 1098 1019 1001 c
1107 904 1151 773 1151 606 c

967 660 m
966 761 937 841 882 901 c
827 961 755 991 664 991 c
561 991 479 962 417 904 c
356 846 320 764 311 659 c
967 660 l

ce} _d
/f{721 0 47 0 760 1556 sc
760 1556 m
760 1403 l
584 1403 l
518 1403 472 1390 446 1363 c
421 1336 408 1288 408 1219 c
408 1120 l
711 1120 l
711 977 l
408 977 l
408 0 l
223 0 l
223 977 l
47 977 l
47 1120 l
223 1120 l
223 1198 l
223 1323 252 1413 310 1470 c
368 1527 460 1556 586 1556 c
760 1556 l

ce} _d
/g{1300 0 113 -426 1114 1147 sc
930 573 m
930 706 902 810 847 883 c
792 956 715 993 616 993 c
517 993 440 956 385 883 c
330 810 303 706 303 573 c
303 440 330 337 385 264 c
440 191 517 154 616 154 c
715 154 792 191 847 264 c
902 337 930 440 930 573 c

1114 139 m
1114 -52 1072 -193 987 -286 c
902 -379 773 -426 598 -426 c
533 -426 472 -421 415 -411 c
358 -402 302 -387 248 -367 c
248 -188 l
302 -217 355 -239 408 -253 c
461 -267 514 -274 569 -274 c
690 -274 780 -242 840 -179 c
900 -116 930 -21 930 106 c
930 197 l
892 131 843 82 784 49 c
725 16 654 0 571 0 c
434 0 323 52 239 157 c
155 262 113 400 113 573 c
113 746 155 885 239 990 c
323 1095 434 1147 571 1147 c
654 1147 725 1131 784 1098 c
843 1065 892 1016 930 950 c
930 1120 l
1114 1120 l
1114 139 l

ce} _d
/i{569 0 193 0 377 1556 sc
193 1120 m
377 1120 l
377 0 l
193 0 l
193 1120 l

193 1556 m
377 1556 l
377 1323 l
193 1323 l
193 1556 l

ce} _d
/m{1995 0 186 0 1821 1147 sc
1065 905 m
1111 988 1166 1049 1230 1088 c
1294 1127 1369 1147 1456 1147 c
1573 1147 1663 1106 1726 1024 c
1789 943 1821 827 1821 676 c
1821 0 l
1636 0 l
1636 670 l
1636 777 1617 857 1579 909 c
1541 961 1483 987 1405 987 c
1310 987 1234 955 1179 892 c
1124 829 1096 742 1096 633 c
1096 0 l
911 0 l
911 670 l
911 778 892 858 854 909 c
816 961 757 987 678 987 c
584 987 509 955 454 891 c
399 828 371 742 371 633 c
371 0 l
186 0 l
186 1120 l
371 1120 l
371 946 l
413 1015 463 1065 522 1098 c
581 1131 650 1147 731 1147 c
812 1147 881 1126 938 1085 c
995 1044 1038 984 1065 905 c

ce} _d
/n{1298 0 186 0 1124 1147 sc
1124 676 m
1124 0 l
940 0 l
940 670 l
940 776 919 855 878 908 c
837 961 775 987 692 987 c
593 987 514 955 457 892 c
400 829 371 742 371 633 c
371 0 l
186 0 l
186 1120 l
371 1120 l
371 946 l
415 1013 467 1064 526 1097 c
586 1130 655 1147 733 1147 c
862 1147 959 1107 1025 1027 c
1091 948 1124 831 1124 676 c

ce} _d
/o{1253 0 113 -29 1141 1147 sc
627 991 m
528 991 450 952 393 875 c
336 798 307 693 307 559 c
307 425 335 319 392 242 c
449 165 528 127 627 127 c
725 127 803 166 860 243 c
917 320 946 426 946 559 c
946 692 917 797 860 874 c
803 952 725 991 627 991 c

627 1147 m
787 1147 913 1095 1004 991 c
1095 887 1141 743 1141 559 c
1141 376 1095 232 1004 127 c
913 23 787 -29 627 -29 c
466 -29 340 23 249 127 c
158 232 113 376 113 559 c
113 743 158 887 249 991 c
340 1095 466 1147 627 1147 c

ce} _d
/p{1300 0 186 -426 1188 1147 sc
371 168 m
371 -426 l
186 -426 l
186 1120 l
371 1120 l
371 950 l
410 1017 458 1066 517 1098 c
576 1131 647 1147 729 1147 c
865 1147 975 1093 1060 985 c
1145 877 1188 735 1188 559 c
1188 383 1145 241 1060 133 c
975 25 865 -29 729 -29 c
647 -29 576 -13 517 19 c
458 52 410 101 371 168 c

997 559 m
997 694 969 800 913 877 c
858 954 781 993 684 993 c
587 993 510 954 454 877 c
399 800 371 694 371 559 c
371 424 399 317 454 240 c
510 163 587 125 684 125 c
781 125 858 163 913 240 c
969 317 997 424 997 559 c

ce} _d
/r{842 0 186 0 842 1147 sc
842 948 m
821 960 799 969 774 974 c
750 980 723 983 694 983 c
590 983 510 949 454 881 c
399 814 371 717 371 590 c
371 0 l
186 0 l
186 1120 l
371 1120 l
371 946 l
410 1014 460 1064 522 1097 c
584 1130 659 1147 748 1147 c
761 1147 775 1146 790 1144 c
805 1143 822 1140 841 1137 c
842 948 l

ce} _d
/s{1067 0 111 -29 967 1147 sc
907 1087 m
907 913 l
855 940 801 960 745 973 c
689 986 631 993 571 993 c
480 993 411 979 365 951 c
320 923 297 881 297 825 c
297 782 313 749 346 724 c
379 700 444 677 543 655 c
606 641 l
737 613 829 573 884 522 c
939 471 967 400 967 309 c
967 205 926 123 843 62 c
761 1 648 -29 504 -29 c
444 -29 381 -23 316 -11 c
251 0 183 18 111 41 c
111 231 l
179 196 246 169 312 151 c
378 134 443 125 508 125 c
595 125 661 140 708 169 c
755 199 778 241 778 295 c
778 345 761 383 727 410 c
694 437 620 462 506 487 c
442 502 l
328 526 246 563 195 612 c
144 662 119 730 119 817 c
119 922 156 1004 231 1061 c
306 1118 412 1147 549 1147 c
617 1147 681 1142 741 1132 c
801 1122 856 1107 907 1087 c

ce} _d
/t{803 0 55 0 754 1438 sc
375 1438 m
375 1120 l
754 1120 l
754 977 l
375 977 l
375 369 l
375 278 387 219 412 193 c
437 167 488 154 565 154 c
754 154 l
754 0 l
565 0 l
423 0 325 26 271 79 c
217 132 190 229 190 369 c
190 977 l
55 977 l
55 1120 l
190 1120 l
190 1438 l
375 1438 l

ce} _d
/u{1298 0 174 -29 1112 1147 sc
174 442 m
174 1120 l
358 1120 l
358 449 l
358 343 379 263 420 210 c
461 157 523 131 606 131 c
705 131 784 163 841 226 c
899 289 928 376 928 485 c
928 1120 l
1112 1120 l
1112 0 l
928 0 l
928 172 l
883 104 831 53 772 20 c
713 -13 645 -29 567 -29 c
438 -29 341 11 274 91 c
207 171 174 288 174 442 c

637 1147 m
637 1147 l

ce} _d
end readonly def

/BuildGlyph {
 exch begin
 CharStrings exch
 2 copy known not {pop /.notdef} if
 true 3 1 roll get exec
 end
} _d

/BuildChar {
 1 index /Encoding get exch get
 1 index /BuildGlyph get exec
} _d

FontName currentdict end definefont pop
%!PS-Adobe-3.0 Resource-Font
%%Creator: Converted from TrueType to Type 3 by Matplotlib.
10 dict begin
/FontName /DejaVuSans-Oblique def
/PaintType 0 def
/FontMatrix [0.00048828125 0 0 0.00048828125 0 0] def
/FontBBox [-2080 -717 3398 2187] def
/FontType 3 def
/Encoding [/h /P] def
/CharStrings 3 dict dup begin
/.notdef 0 def
/h{1298 0 72 0 1159 1556 sc
1141 676 m
1010 0 l
825 0 l
956 669 l
962 700 967 728 970 752 c
973 776 975 795 975 809 c
975 865 957 909 922 940 c
887 971 837 987 774 987 c
675 987 590 954 517 887 c
445 820 398 732 377 621 c
256 0 l
72 0 l
375 1556 l
559 1556 l
440 944 l
487 1007 546 1056 619 1092 c
692 1129 768 1147 848 1147 c
947 1147 1023 1120 1077 1067 c
1132 1014 1159 939 1159 842 c
1159 818 1157 792 1154 765 c
1151 738 1147 708 1141 676 c

ce} _d
/P{1235 0 55 0 1231 1493 sc
346 1493 m
813 1493 l
949 1493 1053 1461 1124 1398 c
1195 1335 1231 1242 1231 1120 c
1231 956 1178 828 1073 737 c
968 646 820 600 629 600 c
375 600 l
258 0 l
55 0 l
346 1493 l

516 1327 m
408 766 l
662 766 l
777 766 865 795 926 854 c
987 913 1018 997 1018 1106 c
1018 1176 997 1230 955 1269 c
914 1308 855 1327 780 1327 c
516 1327 l

ce} _d
end readonly def

/BuildGlyph {
 exch begin
 CharStrings exch
 2 copy known not {pop /.notdef} if
 true 3 1 roll get exec
 end
} _d

/BuildChar {
 1 index /Encoding get exch get
 1 index /BuildGlyph get exec
} _d

FontName currentdict end definefont pop
end
%%EndProlog
mpldict begin
54 216 translate
504 360 0 0 clipbox
gsave
0 0 m
504 0 l
504 360 l
0 360 l
cl
1.000 setgray
fill
grestore
gsave
44.66 41.96 m
493.2 41.96 l
493.2 345.24 l
44.66 345.24 l
cl
1.000 setgray
fill
grestore
0.800 setlinewidth
1 setlinejoin
2 setlinecap
[] 0 setdash
0.690 setgray
gsave
448.54 303.28 44.66 41.96 clipbox
65.048182 41.96 m
65.048182 345.24 l
stroke
grestore
0 setlinecap
0.000 setgray
gsave
/o {
gsave
newpath
translate
0.8 setlinewidth
1 setlinejoin

0 setlinecap

0 0 m
0 -3.5 l

gsave
0.000 setgray
fill
grestore
stroke
grestore
} bind def
65.0482 41.96 o
grestore
/DejaVuSans 10.000 selectfont
gsave

58.6888 27.3662 translate
0 rotate
0 0 m /four glyphshow
6.3623 0 m /zero glyphshow
grestore
2 setlinecap
0.690 setgray
gsave
448.54 303.28 44.66 41.96 clipbox
116.018636 41.96 m
116.018636 345.24 l
stroke
grestore
0 setlinecap
0.000 setgray
gsave
/o {
gsave
newpath
translate
0.8 setlinewidth
1 setlinejoin

0 setlinecap

0 0 m
0 -3.5 l

gsave
0.000 setgray
fill
grestore
stroke
grestore
} bind def
116.019 41.96 o
grestore
/DejaVuSans 10.000 selectfont
gsave

109.659 27.3662 translate
0 rotate
0 0 m /six glyphshow
6.3623 0 m /zero glyphshow
grestore
2 setlinecap
0.690 setgray
gsave
448.54 303.28 44.66 41.96 clipbox
166.989091 41.96 m
166.989091 345.24 l
stroke
grestore
0 setlinecap
0.000 setgray
gsave
/o {
gsave
newpath
translate
0.8 setlinewidth
1 setlinejoin

0 setlinecap

0 0 m
0 -3.5 l

gsave
0.000 setgray
fill
grestore
stroke
grestore
} bind def
166.989 41.96 o
grestore
/DejaVuSans 10.000 selectfont
gsave

160.63 27.3662 translate
0 rotate
0 0 m /eight glyphshow
6.3623 0 m /zero glyphshow
grestore
2 setlinecap
0.690 setgray
gsave
448.54 303.28 44.66 41.96 clipbox
217.959545 41.96 m
217.959545 345.24 l
stroke
grestore
0 setlinecap
0.000 setgray
gsave
/o {
gsave
newpath
translate
0.8 setlinewidth
1 setlinejoin

0 setlinecap

0 0 m
0 -3.5 l

gsave
0.000 setgray
fill
grestore
stroke
grestore
} bind def
217.96 41.96 o
grestore
/DejaVuSans 10.000 selectfont
gsave

208.42 27.3662 translate
0 rotate
0 0 m /one glyphshow
6.3623 0 m /zero glyphshow
12.7246 0 m /zero glyphshow
grestore
2 setlinecap
0.690 setgray
gsave
448.54 303.28 44.66 41.96 clipbox
268.93 41.96 m
268.93 345.24 l
stroke
grestore
0 setlinecap
0.000 setgray
gsave
/o {
gsave
newpath
translate
0.8 setlinewidth
1 setlinejoin

0 setlinecap

0 0 m
0 -3.5 l

gsave
0.000 setgray
fill
grestore
stroke
grestore
} bind def
268.93 41.96 o
grestore
/DejaVuSans 10.000 selectfont
gsave

259.391 27.3662 translate
0 rotate
0 0 m /one glyphshow
6.3623 0 m /two glyphshow
12.7246 0 m /zero glyphshow
grestore
2 setlinecap
0.690 setgray
gsave
448.54 303.28 44.66 41.96 clipbox
319.900455 41.96 m
319.900455 345.24 l
stroke
grestore
0 setlinecap
0.000 setgray
gsave
/o {
gsave
newpath
translate
0.8 setlinewidth
1 setlinejoin

0 setlinecap

0 0 m
0 -3.5 l

gsave
0.000 setgray
fill
grestore
stroke
grestore
} bind def
319.9 41.96 o
grestore
/DejaVuSans 10.000 selectfont
gsave

310.361 27.3662 translate
0 rotate
0 0 m /one glyphshow
6.3623 0 m /four glyphshow
12.7246 0 m /zero glyphshow
grestore
2 setlinecap
0.690 setgray
gsave
448.54 303.28 44.66 41.96 clipbox
370.870909 41.96 m
370.870909 345.24 l
stroke
grestore
0 setlinecap
0.000 setgray
gsave
/o {
gsave
newpath
translate
0.8 setlinewidth
1 setlinejoin

0 setlinecap

0 0 m
0 -3.5 l

gsave
0.000 setgray
fill
grestore
stroke
grestore
} bind def
370.871 41.96 o
grestore
/DejaVuSans 10.000 selectfont
gsave

361.332 27.3662 translate
0 rotate
0 0 m /one glyphshow
6.3623 0 m /six glyphshow
12.7246 0 m /zero glyphshow
grestore
2 setlinecap
0.690 setgray
gsave
448.54 303.28 44.66 41.96 clipbox
421.841364 41.96 m
421.841364 345.24 l
stroke
grestore
0 setlinecap
0.000 setgray
gsave
/o {
gsave
newpath
translate
0.8 setlinewidth
1 setlinejoin

0 setlinecap

0 0 m
0 -3.5 l

gsave
0.000 setgray
fill
grestore
stroke
grestore
} bind def
421.841 41.96 o
grestore
/DejaVuSans 10.000 selectfont
gsave

412.302 27.3662 translate
0 rotate
0 0 m /one glyphshow
6.3623 0 m /eight glyphshow
12.7246 0 m /zero glyphshow
grestore
2 setlinecap
0.690 setgray
gsave
448.54 303.28 44.66 41.96 clipbox
472.811818 41.96 m
472.811818 345.24 l
stroke
grestore
0 setlinecap
0.000 setgray
gsave
/o {
gsave
newpath
translate
0.8 setlinewidth
1 setlinejoin

0 setlinecap

0 0 m
0 -3.5 l

gsave
0.000 setgray
fill
grestore
stroke
grestore
} bind def
472.812 41.96 o
grestore
/DejaVuSans 10.000 selectfont
gsave

463.273 27.3662 translate
0 rotate
0 0 m /two glyphshow
6.3623 0 m /zero glyphshow
12.7246 0 m /zero glyphshow
grestore
/DejaVuSans 10.000 selectfont
gsave

197.157 13.6944 translate
0 rotate
0 0 m /T glyphshow
6.1084 0 m /space glyphshow
9.28711 0 m /parenleft glyphshow
13.1885 0 m /N glyphshow
20.6689 0 m /u glyphshow
27.0068 0 m /m glyphshow
36.748 0 m /b glyphshow
43.0957 0 m /e glyphshow
49.248 0 m /r glyphshow
53.3594 0 m /space glyphshow
56.5381 0 m /o glyphshow
62.6562 0 m /f glyphshow
66.1768 0 m /space glyphshow
69.3555 0 m /s glyphshow
74.5654 0 m /t glyphshow
78.4863 0 m /e glyphshow
84.6387 0 m /p glyphshow
90.9863 0 m /s glyphshow
96.1963 0 m /space glyphshow
99.375 0 m /p glyphshow
105.723 0 m /e glyphshow
111.875 0 m /r glyphshow
115.986 0 m /space glyphshow
119.165 0 m /U glyphshow
126.484 0 m /A glyphshow
132.7 0 m /V glyphshow
139.541 0 m /parenright glyphshow
grestore
2 setlinecap
0.690 setgray
gsave
448.54 303.28 44.66 41.96 clipbox
44.66 65.289231 m
493.2 65.289231 l
stroke
grestore
0 setlinecap
0.000 setgray
gsave
/o {
gsave
newpath
translate
0.8 setlinewidth
1 setlinejoin

0 setlinecap

-0 0 m
-3.5 0 l

gsave
0.000 setgray
fill
grestore
stroke
grestore
} bind def
44.66 65.2892 o
grestore
/DejaVuSans 10.000 selectfont
gsave

24.9413 61.4924 translate
0 rotate
0 0 m /one glyphshow
6.3623 0 m /four glyphshow
grestore
2 setlinecap
0.690 setgray
gsave
448.54 303.28 44.66 41.96 clipbox
44.66 111.947692 m
493.2 111.947692 l
stroke
grestore
0 setlinecap
0.000 setgray
gsave
/o {
gsave
newpath
translate
0.8 setlinewidth
1 setlinejoin

0 setlinecap

-0 0 m
-3.5 0 l

gsave
0.000 setgray
fill
grestore
stroke
grestore
} bind def
44.66 111.948 o
grestore
/DejaVuSans 10.000 selectfont
gsave

24.9413 108.151 translate
0 rotate
0 0 m /one glyphshow
6.3623 0 m /six glyphshow
grestore
2 setlinecap
0.690 setgray
gsave
448.54 303.28 44.66 41.96 clipbox
44.66 158.606154 m
493.2 158.606154 l
stroke
grestore
0 setlinecap
0.000 setgray
gsave
/o {
gsave
newpath
translate
0.8 setlinewidth
1 setlinejoin

0 setlinecap

-0 0 m
-3.5 0 l

gsave
0.000 setgray
fill
grestore
stroke
grestore
} bind def
44.66 158.606 o
grestore
/DejaVuSans 10.000 selectfont
gsave

24.9413 154.809 translate
0 rotate
0 0 m /one glyphshow
6.3623 0 m /eight glyphshow
grestore
2 setlinecap
0.690 setgray
gsave
448.54 303.28 44.66 41.96 clipbox
44.66 205.264615 m
493.2 205.264615 l
stroke
grestore
0 setlinecap
0.000 setgray
gsave
/o {
gsave
newpath
translate
0.8 setlinewidth
1 setlinejoin

0 setlinecap

-0 0 m
-3.5 0 l

gsave
0.000 setgray
fill
grestore
stroke
grestore
} bind def
44.66 205.265 o
grestore
/DejaVuSans 10.000 selectfont
gsave

24.9413 201.468 translate
0 rotate
0 0 m /two glyphshow
6.3623 0 m /zero glyphshow
grestore
2 setlinecap
0.690 setgray
gsave
448.54 303.28 44.66 41.96 clipbox
44.66 251.923077 m
493.2 251.923077 l
stroke
grestore
0 setlinecap
0.000 setgray
gsave
/o {
gsave
newpath
translate
0.8 setlinewidth
1 setlinejoin

0 setlinecap

-0 0 m
-3.5 0 l

gsave
0.000 setgray
fill
grestore
stroke
grestore
} bind def
44.66 251.923 o
grestore
/DejaVuSans 10.000 selectfont
gsave

24.9413 248.126 translate
0 rotate
0 0 m /two glyphshow
6.3623 0 m /two glyphshow
grestore
2 setlinecap
0.690 setgray
gsave
448.54 303.28 44.66 41.96 clipbox
44.66 298.581538 m
493.2 298.581538 l
stroke
grestore
0 setlinecap
0.000 setgray
gsave
/o {
gsave
newpath
translate
0.8 setlinewidth
1 setlinejoin

0 setlinecap

-0 0 m
-3.5 0 l

gsave
0.000 setgray
fill
grestore
stroke
grestore
} bind def
44.66 298.582 o
grestore
/DejaVuSans 10.000 selectfont
gsave

24.9413 294.785 translate
0 rotate
0 0 m /two glyphshow
6.3623 0 m /four glyphshow
grestore
2 setlinecap
0.690 setgray
gsave
448.54 303.28 44.66 41.96 clipbox
44.66 345.24 m
493.2 345.24 l
stroke
grestore
0 setlinecap
0.000 setgray
gsave
/o {
gsave
newpath
translate
0.8 setlinewidth
1 setlinejoin

0 setlinecap

-0 0 m
-3.5 0 l

gsave
0.000 setgray
fill
grestore
stroke
grestore
} bind def
44.66 345.24 o
grestore
/DejaVuSans 10.000 selectfont
gsave

24.9413 341.443 translate
0 rotate
0 0 m /two glyphshow
6.3623 0 m /six glyphshow
grestore
/DejaVuSans 10.000 selectfont
gsave

18.8631 167.381 translate
90 rotate
0 0 m /R glyphshow
6.94824 0 m /M glyphshow
15.5762 0 m /S glyphshow
21.9238 0 m /E glyphshow
28.2422 0 m /space glyphshow
31.4209 0 m /parenleft glyphshow
35.3223 0 m /d glyphshow
41.6699 0 m /B glyphshow
48.5303 0 m /parenright glyphshow
grestore
1.500 setlinewidth
1.000 0.000 0.000 setrgbcolor
gsave
448.54 303.28 44.66 41.96 clipbox
65.048182 178.767296 m
65.048182 178.767296 l
stroke
grestore
gsave
448.54 303.28 44.66 41.96 clipbox
166.989091 135.447693 m
166.989091 135.447693 l
stroke
grestore
gsave
448.54 303.28 44.66 41.96 clipbox
268.93 111.869182 m
268.93 111.869182 l
stroke
grestore
gsave
448.54 303.28 44.66 41.96 clipbox
370.870909 97.65391 m
370.870909 97.65391 l
stroke
grestore
gsave
448.54 303.28 44.66 41.96 clipbox
472.811818 88.342006 m
472.811818 88.342006 l
stroke
grestore
0.000 0.000 1.000 setrgbcolor
gsave
448.54 303.28 44.66 41.96 clipbox
65.048182 216.52204 m
65.048182 216.52204 l
stroke
grestore
gsave
448.54 303.28 44.66 41.96 clipbox
166.989091 201.481918 m
166.989091 201.481918 l
stroke
grestore
gsave
448.54 303.28 44.66 41.96 clipbox
268.93 188.698737 m
268.93 188.698737 l
stroke
grestore
gsave
448.54 303.28 44.66 41.96 clipbox
370.870909 177.305097 m
370.870909 177.305097 l
stroke
grestore
gsave
448.54 303.28 44.66 41.96 clipbox
472.811818 168.294701 m
472.811818 168.294701 l
stroke
grestore
[5.55 2.4] 0 setdash
1.000 0.000 0.000 setrgbcolor
gsave
448.54 303.28 44.66 41.96 clipbox
65.048182 178.767296 m
166.989091 135.447693 l
268.93 111.869182 l
370.870909 97.65391 l
472.811818 88.342006 l
stroke
grestore
0.000 0.000 1.000 setrgbcolor
gsave
448.54 303.28 44.66 41.96 clipbox
65.048182 216.52204 m
166.989091 201.481918 l
268.93 188.698737 l
370.870909 177.305097 l
472.811818 168.294701 l
stroke
grestore
0.800 setlinewidth
0 setlinejoin
2 setlinecap
[] 0 setdash
0.000 setgray
gsave
44.66 41.96 m
44.66 345.24 l
stroke
grestore
gsave
493.2 41.96 m
493.2 345.24 l
stroke
grestore
gsave
44.66 41.96 m
493.2 41.96 l
stroke
grestore
gsave
44.66 345.24 m
493.2 345.24 l
stroke
grestore
1.000 setlinewidth
0 setlinecap
0.800 setgray
gsave
51.66 46.96 m
135.66 46.96 l
136.993333 46.96 137.66 47.626667 137.66 48.96 c
137.66 62.96 l
137.66 64.293333 136.993333 64.96 135.66 64.96 c
51.66 64.96 l
50.326667 64.96 49.66 64.293333 49.66 62.96 c
49.66 48.96 l
49.66 47.626667 50.326667 46.96 51.66 46.96 c
cl
gsave
1.000 setgray
fill
grestore
stroke
grestore
1.500 setlinewidth
1 setlinejoin
1.000 0.000 0.000 setrgbcolor
gsave
63.66 51.538125 m
63.66 61.538125 l
stroke
grestore
[5.55 2.4] 0 setdash
gsave
53.66 56.538125 m
73.66 56.538125 l
stroke
grestore
0.000 setgray
gsave
81.66 53.0381 translate
0 rotate
/DejaVuSans-Oblique 10.0 selectfont
0 0.40625 moveto
/h glyphshow
/DejaVuSans-Oblique 7.0 selectfont
6.33789 -1.23438 moveto
/P glyphshow
/DejaVuSans 10.0 selectfont
10.8325 0.40625 moveto
/space glyphshow
14.0112 0.40625 moveto
/equal glyphshow
22.3901 0.40625 moveto
/space glyphshow
25.5688 0.40625 moveto
/one glyphshow
31.9312 0.40625 moveto
/eight glyphshow
38.2935 0.40625 moveto
/space glyphshow
41.4722 0.40625 moveto
/m glyphshow
grestore
1.000 setlinewidth
0 setlinejoin
[] 0 setdash
0.800 setgray
gsave
408.121875 307.89625 m
486.2 307.89625 l
487.533333 307.89625 488.2 308.562917 488.2 309.89625 c
488.2 338.24 l
488.2 339.573333 487.533333 340.24 486.2 340.24 c
408.121875 340.24 l
406.788542 340.24 406.121875 339.573333 406.121875 338.24 c
406.121875 309.89625 l
406.121875 308.562917 406.788542 307.89625 408.121875 307.89625 c
cl
gsave
1.000 setgray
fill
grestore
stroke
grestore
1.500 setlinewidth
1 setlinejoin
1.000 0.000 0.000 setrgbcolor
gsave
420.121875 327.14625 m
420.121875 337.14625 l
stroke
grestore
[5.55 2.4] 0 setdash
gsave
410.121875 332.14625 m
430.121875 332.14625 l
stroke
grestore
0.000 setgray
/DejaVuSans 10.000 selectfont
gsave

438.122 328.646 translate
0 rotate
0 0 m /P glyphshow
5.90527 0 m /r glyphshow
9.7666 0 m /o glyphshow
15.8848 0 m /p glyphshow
22.2324 0 m /o glyphshow
28.3506 0 m /s glyphshow
33.5605 0 m /e glyphshow
39.7129 0 m /d glyphshow
grestore
[] 0 setdash
0.000 0.000 1.000 setrgbcolor
gsave
420.121875 312.474375 m
420.121875 322.474375 l
stroke
grestore
[5.55 2.4] 0 setdash
gsave
410.121875 317.474375 m
430.121875 317.474375 l
stroke
grestore
0.000 setgray
/DejaVuSans 10.000 selectfont
gsave

438.122 313.974 translate
0 rotate
0 0 m /K glyphshow
6.55762 0 m /r glyphshow
10.6689 0 m /i glyphshow
13.4473 0 m /g glyphshow
19.7949 0 m /i glyphshow
22.5732 0 m /n glyphshow
28.9111 0 m /g glyphshow
grestore

end
showpage
