%!PS-Adobe-3.0 EPSF-3.0
%%Title: timing_analysis.eps
%%Creator: Matplotlib v3.6.3, https://matplotlib.org/
%%CreationDate: Sun Jan 21 00:29:47 2024
%%Orientation: portrait
%%BoundingBox: 54 216 558 576
%%HiResBoundingBox: 54.000000 216.000000 558.000000 576.000000
%%EndComments
%%BeginProlog
/mpldict 11 dict def
mpldict begin
/_d { bind def } bind def
/m { moveto } _d
/l { lineto } _d
/r { rlineto } _d
/c { curveto } _d
/cl { closepath } _d
/ce { closepath eofill } _d
/box {
      m
      1 index 0 r
      0 exch r
      neg 0 r
      cl
    } _d
/clipbox {
      box
      clip
      newpath
    } _d
/sc { setcachedevice } _d
%!PS-Adobe-3.0 Resource-Font
%%Creator: Converted from TrueType to Type 3 by Matplotlib.
10 dict begin
/FontName /DejaVuSans def
/PaintType 0 def
/FontMatrix [0.00048828125 0 0 0.00048828125 0 0] def
/FontBBox [-2090 -948 3673 2524] def
/FontType 3 def
/Encoding [/minus /space /parenleft /parenright /zero /one /two /four /six /eight /A /D /G /K /L /P /T /U /V /a /c /d /e /g /h /i /l /n /o /p /r /s /t /y] def
/CharStrings 35 dict dup begin
/.notdef 0 def
/minus{1716 0 217 557 1499 727 sc
217 727 m
1499 727 l
1499 557 l
217 557 l
217 727 l

ce} _d
/space{651 0 0 0 0 0 sc
ce} _d
/parenleft{799 0 176 -270 635 1554 sc
635 1554 m
546 1401 479 1249 436 1099 c
393 949 371 797 371 643 c
371 489 393 336 436 185 c
480 34 546 -117 635 -270 c
475 -270 l
375 -113 300 41 250 192 c
201 343 176 494 176 643 c
176 792 201 941 250 1092 c
299 1243 374 1397 475 1554 c
635 1554 l

ce} _d
/parenright{799 0 164 -270 623 1554 sc
164 1554 m
324 1554 l
424 1397 499 1243 548 1092 c
598 941 623 792 623 643 c
623 494 598 343 548 192 c
499 41 424 -113 324 -270 c
164 -270 l
253 -117 319 34 362 185 c
406 336 428 489 428 643 c
428 797 406 949 362 1099 c
319 1249 253 1401 164 1554 c

ce} _d
/zero{1303 0 135 -29 1167 1520 sc
651 1360 m
547 1360 469 1309 416 1206 c
364 1104 338 950 338 745 c
338 540 364 387 416 284 c
469 182 547 131 651 131 c
756 131 834 182 886 284 c
939 387 965 540 965 745 c
965 950 939 1104 886 1206 c
834 1309 756 1360 651 1360 c

651 1520 m
818 1520 946 1454 1034 1321 c
1123 1189 1167 997 1167 745 c
1167 494 1123 302 1034 169 c
946 37 818 -29 651 -29 c
484 -29 356 37 267 169 c
179 302 135 494 135 745 c
135 997 179 1189 267 1321 c
356 1454 484 1520 651 1520 c

ce} _d
/one{1303 0 225 0 1114 1493 sc
254 170 m
584 170 l
584 1309 l
225 1237 l
225 1421 l
582 1493 l
784 1493 l
784 170 l
1114 170 l
1114 0 l
254 0 l
254 170 l

ce} _d
/two{1303 0 150 0 1098 1520 sc
393 170 m
1098 170 l
1098 0 l
150 0 l
150 170 l
227 249 331 356 463 489 c
596 623 679 709 713 748 c
778 821 823 882 848 932 c
874 983 887 1032 887 1081 c
887 1160 859 1225 803 1275 c
748 1325 675 1350 586 1350 c
523 1350 456 1339 385 1317 c
315 1295 240 1262 160 1217 c
160 1421 l
241 1454 317 1478 388 1495 c
459 1512 523 1520 582 1520 c
737 1520 860 1481 952 1404 c
1044 1327 1090 1223 1090 1094 c
1090 1033 1078 974 1055 919 c
1032 864 991 800 930 725 c
913 706 860 650 771 557 c
682 465 556 336 393 170 c

ce} _d
/four{1303 0 100 0 1188 1493 sc
774 1317 m
264 520 l
774 520 l
774 1317 l

721 1493 m
975 1493 l
975 520 l
1188 520 l
1188 352 l
975 352 l
975 0 l
774 0 l
774 352 l
100 352 l
100 547 l
721 1493 l

ce} _d
/six{1303 0 143 -29 1174 1520 sc
676 827 m
585 827 513 796 460 734 c
407 672 381 587 381 479 c
381 372 407 287 460 224 c
513 162 585 131 676 131 c
767 131 838 162 891 224 c
944 287 971 372 971 479 c
971 587 944 672 891 734 c
838 796 767 827 676 827 c

1077 1460 m
1077 1276 l
1026 1300 975 1318 923 1331 c
872 1344 821 1350 770 1350 c
637 1350 535 1305 464 1215 c
394 1125 354 989 344 807 c
383 865 433 909 492 940 c
551 971 617 987 688 987 c
838 987 956 941 1043 850 c
1130 759 1174 636 1174 479 c
1174 326 1129 203 1038 110 c
947 17 827 -29 676 -29 c
503 -29 371 37 280 169 c
189 302 143 494 143 745 c
143 981 199 1169 311 1309 c
423 1450 573 1520 762 1520 c
813 1520 864 1515 915 1505 c
967 1495 1021 1480 1077 1460 c

ce} _d
/eight{1303 0 139 -29 1163 1520 sc
651 709 m
555 709 479 683 424 632 c
369 581 342 510 342 420 c
342 330 369 259 424 208 c
479 157 555 131 651 131 c
747 131 823 157 878 208 c
933 260 961 331 961 420 c
961 510 933 581 878 632 c
823 683 748 709 651 709 c

449 795 m
362 816 295 857 246 916 c
198 975 174 1048 174 1133 c
174 1252 216 1347 301 1416 c
386 1485 503 1520 651 1520 c
800 1520 916 1485 1001 1416 c
1086 1347 1128 1252 1128 1133 c
1128 1048 1104 975 1055 916 c
1007 857 940 816 854 795 c
951 772 1027 728 1081 662 c
1136 596 1163 515 1163 420 c
1163 275 1119 164 1030 87 c
942 10 816 -29 651 -29 c
486 -29 360 10 271 87 c
183 164 139 275 139 420 c
139 515 166 596 221 662 c
276 728 352 772 449 795 c

375 1114 m
375 1037 399 976 447 933 c
496 890 564 868 651 868 c
738 868 805 890 854 933 c
903 976 928 1037 928 1114 c
928 1191 903 1252 854 1295 c
805 1338 738 1360 651 1360 c
564 1360 496 1338 447 1295 c
399 1252 375 1191 375 1114 c

ce} _d
/A{1401 0 16 0 1384 1493 sc
700 1294 m
426 551 l
975 551 l
700 1294 l

586 1493 m
815 1493 l
1384 0 l
1174 0 l
1038 383 l
365 383 l
229 0 l
16 0 l
586 1493 l

ce} _d
/D{1577 0 201 0 1456 1493 sc
403 1327 m
403 166 l
647 166 l
853 166 1004 213 1099 306 c
1195 399 1243 547 1243 748 c
1243 948 1195 1094 1099 1187 c
1004 1280 853 1327 647 1327 c
403 1327 l

201 1493 m
616 1493 l
905 1493 1118 1433 1253 1312 c
1388 1192 1456 1004 1456 748 c
1456 491 1388 302 1252 181 c
1116 60 904 0 616 0 c
201 0 l
201 1493 l

ce} _d
/G{1587 0 115 -29 1419 1520 sc
1219 213 m
1219 614 l
889 614 l
889 780 l
1419 780 l
1419 139 l
1341 84 1255 42 1161 13 c
1067 -15 967 -29 860 -29 c
627 -29 444 39 312 175 c
181 312 115 502 115 745 c
115 989 181 1179 312 1315 c
444 1452 627 1520 860 1520 c
957 1520 1050 1508 1137 1484 c
1225 1460 1306 1425 1380 1378 c
1380 1163 l
1305 1226 1226 1274 1142 1306 c
1058 1338 970 1354 877 1354 c
694 1354 557 1303 465 1201 c
374 1099 328 947 328 745 c
328 544 374 392 465 290 c
557 188 694 137 877 137 c
948 137 1012 143 1068 155 c
1124 168 1174 187 1219 213 c

ce} _d
/K{1343 0 201 0 1386 1493 sc
201 1493 m
403 1493 l
403 862 l
1073 1493 l
1333 1493 l
592 797 l
1386 0 l
1120 0 l
403 719 l
403 0 l
201 0 l
201 1493 l

ce} _d
/L{1141 0 201 0 1130 1493 sc
201 1493 m
403 1493 l
403 170 l
1130 170 l
1130 0 l
201 0 l
201 1493 l

ce} _d
/P{1235 0 201 0 1165 1493 sc
403 1327 m
403 766 l
657 766 l
751 766 824 790 875 839 c
926 888 952 957 952 1047 c
952 1136 926 1205 875 1254 c
824 1303 751 1327 657 1327 c
403 1327 l

201 1493 m
657 1493 l
824 1493 951 1455 1036 1379 c
1122 1304 1165 1193 1165 1047 c
1165 900 1122 788 1036 713 c
951 638 824 600 657 600 c
403 600 l
403 0 l
201 0 l
201 1493 l

ce} _d
/T{1251 0 -6 0 1257 1493 sc
-6 1493 m
1257 1493 l
1257 1323 l
727 1323 l
727 0 l
524 0 l
524 1323 l
-6 1323 l
-6 1493 l

ce} _d
/U{1499 0 178 -29 1321 1493 sc
178 1493 m
381 1493 l
381 586 l
381 426 410 311 468 240 c
526 170 620 135 750 135 c
879 135 973 170 1031 240 c
1089 311 1118 426 1118 586 c
1118 1493 l
1321 1493 l
1321 561 l
1321 366 1273 219 1176 120 c
1080 21 938 -29 750 -29 c
561 -29 419 21 322 120 c
226 219 178 366 178 561 c
178 1493 l

ce} _d
/V{1401 0 16 0 1384 1493 sc
586 0 m
16 1493 l
227 1493 l
700 236 l
1174 1493 l
1384 1493 l
815 0 l
586 0 l

ce} _d
/a{1255 0 123 -29 1069 1147 sc
702 563 m
553 563 450 546 393 512 c
336 478 307 420 307 338 c
307 273 328 221 371 182 c
414 144 473 125 547 125 c
649 125 731 161 792 233 c
854 306 885 402 885 522 c
885 563 l
702 563 l

1069 639 m
1069 0 l
885 0 l
885 170 l
843 102 791 52 728 19 c
665 -13 589 -29 498 -29 c
383 -29 292 3 224 67 c
157 132 123 218 123 326 c
123 452 165 547 249 611 c
334 675 460 707 627 707 c
885 707 l
885 725 l
885 810 857 875 801 921 c
746 968 668 991 567 991 c
503 991 441 983 380 968 c
319 953 261 930 205 899 c
205 1069 l
272 1095 338 1114 401 1127 c
464 1140 526 1147 586 1147 c
748 1147 869 1105 949 1021 c
1029 937 1069 810 1069 639 c

ce} _d
/c{1126 0 113 -29 999 1147 sc
999 1077 m
999 905 l
947 934 895 955 842 969 c
790 984 737 991 684 991 c
565 991 472 953 406 877 c
340 802 307 696 307 559 c
307 422 340 316 406 240 c
472 165 565 127 684 127 c
737 127 790 134 842 148 c
895 163 947 184 999 213 c
999 43 l
948 19 894 1 839 -11 c
784 -23 726 -29 664 -29 c
495 -29 361 24 262 130 c
163 236 113 379 113 559 c
113 742 163 885 263 990 c
364 1095 501 1147 676 1147 c
733 1147 788 1141 842 1129 c
896 1118 948 1100 999 1077 c

ce} _d
/d{1300 0 113 -29 1114 1556 sc
930 950 m
930 1556 l
1114 1556 l
1114 0 l
930 0 l
930 168 l
891 101 842 52 783 19 c
724 -13 654 -29 571 -29 c
436 -29 325 25 240 133 c
155 241 113 383 113 559 c
113 735 155 877 240 985 c
325 1093 436 1147 571 1147 c
654 1147 724 1131 783 1098 c
842 1066 891 1017 930 950 c

303 559 m
303 424 331 317 386 240 c
442 163 519 125 616 125 c
713 125 790 163 846 240 c
902 317 930 424 930 559 c
930 694 902 800 846 877 c
790 954 713 993 616 993 c
519 993 442 954 386 877 c
331 800 303 694 303 559 c

ce} _d
/e{1260 0 113 -29 1151 1147 sc
1151 606 m
1151 516 l
305 516 l
313 389 351 293 419 226 c
488 160 583 127 705 127 c
776 127 844 136 910 153 c
977 170 1043 196 1108 231 c
1108 57 l
1042 29 974 8 905 -7 c
836 -22 765 -29 694 -29 c
515 -29 374 23 269 127 c
165 231 113 372 113 549 c
113 732 162 878 261 985 c
360 1093 494 1147 662 1147 c
813 1147 932 1098 1019 1001 c
1107 904 1151 773 1151 606 c

967 660 m
966 761 937 841 882 901 c
827 961 755 991 664 991 c
561 991 479 962 417 904 c
356 846 320 764 311 659 c
967 660 l

ce} _d
/g{1300 0 113 -426 1114 1147 sc
930 573 m
930 706 902 810 847 883 c
792 956 715 993 616 993 c
517 993 440 956 385 883 c
330 810 303 706 303 573 c
303 440 330 337 385 264 c
440 191 517 154 616 154 c
715 154 792 191 847 264 c
902 337 930 440 930 573 c

1114 139 m
1114 -52 1072 -193 987 -286 c
902 -379 773 -426 598 -426 c
533 -426 472 -421 415 -411 c
358 -402 302 -387 248 -367 c
248 -188 l
302 -217 355 -239 408 -253 c
461 -267 514 -274 569 -274 c
690 -274 780 -242 840 -179 c
900 -116 930 -21 930 106 c
930 197 l
892 131 843 82 784 49 c
725 16 654 0 571 0 c
434 0 323 52 239 157 c
155 262 113 400 113 573 c
113 746 155 885 239 990 c
323 1095 434 1147 571 1147 c
654 1147 725 1131 784 1098 c
843 1065 892 1016 930 950 c
930 1120 l
1114 1120 l
1114 139 l

ce} _d
/h{1298 0 186 0 1124 1556 sc
1124 676 m
1124 0 l
940 0 l
940 670 l
940 776 919 855 878 908 c
837 961 775 987 692 987 c
593 987 514 955 457 892 c
400 829 371 742 371 633 c
371 0 l
186 0 l
186 1556 l
371 1556 l
371 946 l
415 1013 467 1064 526 1097 c
586 1130 655 1147 733 1147 c
862 1147 959 1107 1025 1027 c
1091 948 1124 831 1124 676 c

ce} _d
/i{569 0 193 0 377 1556 sc
193 1120 m
377 1120 l
377 0 l
193 0 l
193 1120 l

193 1556 m
377 1556 l
377 1323 l
193 1323 l
193 1556 l

ce} _d
/l{569 0 193 0 377 1556 sc
193 1556 m
377 1556 l
377 0 l
193 0 l
193 1556 l

ce} _d
/n{1298 0 186 0 1124 1147 sc
1124 676 m
1124 0 l
940 0 l
940 670 l
940 776 919 855 878 908 c
837 961 775 987 692 987 c
593 987 514 955 457 892 c
400 829 371 742 371 633 c
371 0 l
186 0 l
186 1120 l
371 1120 l
371 946 l
415 1013 467 1064 526 1097 c
586 1130 655 1147 733 1147 c
862 1147 959 1107 1025 1027 c
1091 948 1124 831 1124 676 c

ce} _d
/o{1253 0 113 -29 1141 1147 sc
627 991 m
528 991 450 952 393 875 c
336 798 307 693 307 559 c
307 425 335 319 392 242 c
449 165 528 127 627 127 c
725 127 803 166 860 243 c
917 320 946 426 946 559 c
946 692 917 797 860 874 c
803 952 725 991 627 991 c

627 1147 m
787 1147 913 1095 1004 991 c
1095 887 1141 743 1141 559 c
1141 376 1095 232 1004 127 c
913 23 787 -29 627 -29 c
466 -29 340 23 249 127 c
158 232 113 376 113 559 c
113 743 158 887 249 991 c
340 1095 466 1147 627 1147 c

ce} _d
/p{1300 0 186 -426 1188 1147 sc
371 168 m
371 -426 l
186 -426 l
186 1120 l
371 1120 l
371 950 l
410 1017 458 1066 517 1098 c
576 1131 647 1147 729 1147 c
865 1147 975 1093 1060 985 c
1145 877 1188 735 1188 559 c
1188 383 1145 241 1060 133 c
975 25 865 -29 729 -29 c
647 -29 576 -13 517 19 c
458 52 410 101 371 168 c

997 559 m
997 694 969 800 913 877 c
858 954 781 993 684 993 c
587 993 510 954 454 877 c
399 800 371 694 371 559 c
371 424 399 317 454 240 c
510 163 587 125 684 125 c
781 125 858 163 913 240 c
969 317 997 424 997 559 c

ce} _d
/r{842 0 186 0 842 1147 sc
842 948 m
821 960 799 969 774 974 c
750 980 723 983 694 983 c
590 983 510 949 454 881 c
399 814 371 717 371 590 c
371 0 l
186 0 l
186 1120 l
371 1120 l
371 946 l
410 1014 460 1064 522 1097 c
584 1130 659 1147 748 1147 c
761 1147 775 1146 790 1144 c
805 1143 822 1140 841 1137 c
842 948 l

ce} _d
/s{1067 0 111 -29 967 1147 sc
907 1087 m
907 913 l
855 940 801 960 745 973 c
689 986 631 993 571 993 c
480 993 411 979 365 951 c
320 923 297 881 297 825 c
297 782 313 749 346 724 c
379 700 444 677 543 655 c
606 641 l
737 613 829 573 884 522 c
939 471 967 400 967 309 c
967 205 926 123 843 62 c
761 1 648 -29 504 -29 c
444 -29 381 -23 316 -11 c
251 0 183 18 111 41 c
111 231 l
179 196 246 169 312 151 c
378 134 443 125 508 125 c
595 125 661 140 708 169 c
755 199 778 241 778 295 c
778 345 761 383 727 410 c
694 437 620 462 506 487 c
442 502 l
328 526 246 563 195 612 c
144 662 119 730 119 817 c
119 922 156 1004 231 1061 c
306 1118 412 1147 549 1147 c
617 1147 681 1142 741 1132 c
801 1122 856 1107 907 1087 c

ce} _d
/t{803 0 55 0 754 1438 sc
375 1438 m
375 1120 l
754 1120 l
754 977 l
375 977 l
375 369 l
375 278 387 219 412 193 c
437 167 488 154 565 154 c
754 154 l
754 0 l
565 0 l
423 0 325 26 271 79 c
217 132 190 229 190 369 c
190 977 l
55 977 l
55 1120 l
190 1120 l
190 1438 l
375 1438 l

ce} _d
/y{1212 0 61 -426 1151 1120 sc
659 -104 m
607 -237 556 -324 507 -365 c
458 -406 392 -426 309 -426 c
162 -426 l
162 -272 l
270 -272 l
321 -272 360 -260 388 -236 c
416 -212 447 -155 481 -66 c
514 18 l
61 1120 l
256 1120 l
606 244 l
956 1120 l
1151 1120 l
659 -104 l

ce} _d
end readonly def

/BuildGlyph {
 exch begin
 CharStrings exch
 2 copy known not {pop /.notdef} if
 true 3 1 roll get exec
 end
} _d

/BuildChar {
 1 index /Encoding get exch get
 1 index /BuildGlyph get exec
} _d

FontName currentdict end definefont pop
end
%%EndProlog
mpldict begin
54 216 translate
504 360 0 0 clipbox
gsave
0 0 m
504 0 l
504 360 l
0 360 l
cl
1.000 setgray
fill
grestore
gsave
55.772054 41.96 m
493.2 41.96 l
493.2 349.2 l
55.772054 349.2 l
cl
1.000 setgray
fill
grestore
gsave
437.428 307.24 55.772 41.96 clipbox
75.655142 -70885.749693 m
82.591103 -70885.749693 l
82.591103 106.386694 l
75.655142 106.386694 l
cl
0.000 setgray
fill
grestore
gsave
437.428 307.24 55.772 41.96 clipbox
168.134624 -70885.749693 m
175.070585 -70885.749693 l
175.070585 131.864128 l
168.134624 131.864128 l
cl
0.000 setgray
fill
grestore
gsave
437.428 307.24 55.772 41.96 clipbox
260.614105 -70885.749693 m
267.550066 -70885.749693 l
267.550066 144.126469 l
260.614105 144.126469 l
cl
0.000 setgray
fill
grestore
gsave
437.428 307.24 55.772 41.96 clipbox
353.093586 -70885.749693 m
360.029547 -70885.749693 l
360.029547 151.402531 l
353.093586 151.402531 l
cl
0.000 setgray
fill
grestore
gsave
437.428 307.24 55.772 41.96 clipbox
445.573067 -70885.749693 m
452.509028 -70885.749693 l
452.509028 157.712006 l
445.573067 157.712006 l
cl
0.000 setgray
fill
grestore
gsave
437.428 307.24 55.772 41.96 clipbox
82.591103 -70885.749693 m
89.527065 -70885.749693 l
89.527065 94.667023 l
82.591103 94.667023 l
cl
0.000 0.000 1.000 setrgbcolor
fill
grestore
gsave
437.428 307.24 55.772 41.96 clipbox
175.070585 -70885.749693 m
182.006546 -70885.749693 l
182.006546 110.748561 l
175.070585 110.748561 l
cl
0.000 0.000 1.000 setrgbcolor
fill
grestore
gsave
437.428 307.24 55.772 41.96 clipbox
267.550066 -70885.749693 m
274.486027 -70885.749693 l
274.486027 121.878814 l
267.550066 121.878814 l
cl
0.000 0.000 1.000 setrgbcolor
fill
grestore
gsave
437.428 307.24 55.772 41.96 clipbox
360.029547 -70885.749693 m
366.965508 -70885.749693 l
366.965508 134.521376 l
360.029547 134.521376 l
cl
0.000 0.000 1.000 setrgbcolor
fill
grestore
gsave
437.428 307.24 55.772 41.96 clipbox
452.509028 -70885.749693 m
459.444989 -70885.749693 l
459.444989 143.969943 l
452.509028 143.969943 l
cl
0.000 0.000 1.000 setrgbcolor
fill
grestore
gsave
437.428 307.24 55.772 41.96 clipbox
89.527065 -70885.749693 m
96.463026 -70885.749693 l
96.463026 94.529238 l
89.527065 94.529238 l
cl
1.000 0.000 0.000 setrgbcolor
fill
grestore
gsave
437.428 307.24 55.772 41.96 clipbox
182.006546 -70885.749693 m
188.942507 -70885.749693 l
188.942507 110.033399 l
182.006546 110.033399 l
cl
1.000 0.000 0.000 setrgbcolor
fill
grestore
gsave
437.428 307.24 55.772 41.96 clipbox
274.486027 -70885.749693 m
281.421988 -70885.749693 l
281.421988 121.961753 l
274.486027 121.961753 l
cl
1.000 0.000 0.000 setrgbcolor
fill
grestore
gsave
437.428 307.24 55.772 41.96 clipbox
366.965508 -70885.749693 m
373.901469 -70885.749693 l
373.901469 134.422997 l
366.965508 134.422997 l
cl
1.000 0.000 0.000 setrgbcolor
fill
grestore
gsave
437.428 307.24 55.772 41.96 clipbox
459.444989 -70885.749693 m
466.38095 -70885.749693 l
466.38095 144.204328 l
459.444989 144.204328 l
cl
1.000 0.000 0.000 setrgbcolor
fill
grestore
gsave
437.428 307.24 55.772 41.96 clipbox
96.463026 -70885.749693 m
103.398987 -70885.749693 l
103.398987 47.472 l
96.463026 47.472 l
cl
0.000 0.500 0.000 setrgbcolor
fill
grestore
gsave
437.428 307.24 55.772 41.96 clipbox
188.942507 -70885.749693 m
195.878468 -70885.749693 l
195.878468 67.463684 l
188.942507 67.463684 l
cl
0.000 0.500 0.000 setrgbcolor
fill
grestore
gsave
437.428 307.24 55.772 41.96 clipbox
281.421988 -70885.749693 m
288.357949 -70885.749693 l
288.357949 79.202666 l
281.421988 79.202666 l
cl
0.000 0.500 0.000 setrgbcolor
fill
grestore
gsave
437.428 307.24 55.772 41.96 clipbox
373.901469 -70885.749693 m
380.83743 -70885.749693 l
380.83743 87.753993 l
373.901469 87.753993 l
cl
0.000 0.500 0.000 setrgbcolor
fill
grestore
gsave
437.428 307.24 55.772 41.96 clipbox
466.38095 -70885.749693 m
473.316912 -70885.749693 l
473.316912 95.558419 l
466.38095 95.558419 l
cl
0.000 0.500 0.000 setrgbcolor
fill
grestore
0.800 setlinewidth
1 setlinejoin
0 setlinecap
[] 0 setdash
0.000 setgray
gsave
/o {
gsave
newpath
translate
0.8 setlinewidth
1 setlinejoin

0 setlinecap

0 0 m
0 -3.5 l

gsave
0.000 setgray
fill
grestore
stroke
grestore
} bind def
89.5271 41.96 o
grestore
/DejaVuSans 10.000 selectfont
gsave

83.1677 27.3662 translate
0 rotate
0 0 m /four glyphshow
6.3623 0 m /zero glyphshow
grestore
gsave
/o {
gsave
newpath
translate
0.8 setlinewidth
1 setlinejoin

0 setlinecap

0 0 m
0 -3.5 l

gsave
0.000 setgray
fill
grestore
stroke
grestore
} bind def
182.007 41.96 o
grestore
/DejaVuSans 10.000 selectfont
gsave

175.647 27.3662 translate
0 rotate
0 0 m /eight glyphshow
6.3623 0 m /zero glyphshow
grestore
gsave
/o {
gsave
newpath
translate
0.8 setlinewidth
1 setlinejoin

0 setlinecap

0 0 m
0 -3.5 l

gsave
0.000 setgray
fill
grestore
stroke
grestore
} bind def
274.486 41.96 o
grestore
/DejaVuSans 10.000 selectfont
gsave

264.947 27.3662 translate
0 rotate
0 0 m /one glyphshow
6.3623 0 m /two glyphshow
12.7246 0 m /zero glyphshow
grestore
gsave
/o {
gsave
newpath
translate
0.8 setlinewidth
1 setlinejoin

0 setlinecap

0 0 m
0 -3.5 l

gsave
0.000 setgray
fill
grestore
stroke
grestore
} bind def
366.966 41.96 o
grestore
/DejaVuSans 10.000 selectfont
gsave

357.426 27.3662 translate
0 rotate
0 0 m /one glyphshow
6.3623 0 m /six glyphshow
12.7246 0 m /zero glyphshow
grestore
gsave
/o {
gsave
newpath
translate
0.8 setlinewidth
1 setlinejoin

0 setlinecap

0 0 m
0 -3.5 l

gsave
0.000 setgray
fill
grestore
stroke
grestore
} bind def
459.445 41.96 o
grestore
/DejaVuSans 10.000 selectfont
gsave

449.906 27.3662 translate
0 rotate
0 0 m /two glyphshow
6.3623 0 m /zero glyphshow
12.7246 0 m /zero glyphshow
grestore
/DejaVuSans 10.000 selectfont
gsave

207.517 13.6944 translate
0 rotate
0 0 m /T glyphshow
6.1084 0 m /space glyphshow
9.28711 0 m /parenleft glyphshow
13.1885 0 m /p glyphshow
19.5361 0 m /l glyphshow
22.3145 0 m /a glyphshow
28.4424 0 m /n glyphshow
34.7803 0 m /n glyphshow
41.1182 0 m /i glyphshow
43.8965 0 m /n glyphshow
50.2344 0 m /g glyphshow
56.582 0 m /space glyphshow
59.7607 0 m /s glyphshow
64.9707 0 m /t glyphshow
68.8916 0 m /e glyphshow
75.0439 0 m /p glyphshow
81.3916 0 m /s glyphshow
86.6016 0 m /space glyphshow
89.7803 0 m /p glyphshow
96.1279 0 m /e glyphshow
102.28 0 m /r glyphshow
106.392 0 m /space glyphshow
109.57 0 m /U glyphshow
116.89 0 m /A glyphshow
123.105 0 m /V glyphshow
129.946 0 m /parenright glyphshow
grestore
gsave
/o {
gsave
newpath
translate
0.8 setlinewidth
1 setlinejoin

0 setlinecap

-0 0 m
-3.5 0 l

gsave
0.000 setgray
fill
grestore
stroke
grestore
} bind def
55.7721 93.2734 o
grestore
gsave
24.7721 89.3124 translate
0 rotate
/DejaVuSans 10.0 selectfont
0 0.0640625 moveto
/one glyphshow
6.3623 0.0640625 moveto
/zero glyphshow
/DejaVuSans 7.0 selectfont
12.8203 3.89219 moveto
/minus glyphshow
18.6855 3.89219 moveto
/one glyphshow
grestore
gsave
/o {
gsave
newpath
translate
0.8 setlinewidth
1 setlinejoin

0 setlinecap

-0 0 m
-3.5 0 l

gsave
0.000 setgray
fill
grestore
stroke
grestore
} bind def
55.7721 164.323 o
grestore
gsave
30.7721 159.863 translate
0 rotate
/DejaVuSans 10.0 selectfont
0 0.976562 moveto
/one glyphshow
6.3623 0.976562 moveto
/zero glyphshow
/DejaVuSans 7.0 selectfont
12.8203 4.80469 moveto
/zero glyphshow
grestore
gsave
/o {
gsave
newpath
translate
0.8 setlinewidth
1 setlinejoin

0 setlinecap

-0 0 m
-3.5 0 l

gsave
0.000 setgray
fill
grestore
stroke
grestore
} bind def
55.7721 235.374 o
grestore
gsave
30.7721 231.413 translate
0 rotate
/DejaVuSans 10.0 selectfont
0 0.0640625 moveto
/one glyphshow
6.3623 0.0640625 moveto
/zero glyphshow
/DejaVuSans 7.0 selectfont
12.8203 3.89219 moveto
/one glyphshow
grestore
gsave
/o {
gsave
newpath
translate
0.8 setlinewidth
1 setlinejoin

0 setlinecap

-0 0 m
-3.5 0 l

gsave
0.000 setgray
fill
grestore
stroke
grestore
} bind def
55.7721 306.424 o
grestore
gsave
30.7721 301.963 translate
0 rotate
/DejaVuSans 10.0 selectfont
0 0.976562 moveto
/one glyphshow
6.3623 0.976562 moveto
/zero glyphshow
/DejaVuSans 7.0 selectfont
12.8203 4.80469 moveto
/two glyphshow
grestore
0.600 setlinewidth
gsave
/o {
gsave
newpath
translate
0.6 setlinewidth
1 setlinejoin

0 setlinecap

-0 0 m
-2 0 l

gsave
0.000 setgray
fill
grestore
stroke
grestore
} bind def
55.7721 43.6115 o
grestore
gsave
/o {
gsave
newpath
translate
0.6 setlinewidth
1 setlinejoin

0 setlinecap

-0 0 m
-2 0 l

gsave
0.000 setgray
fill
grestore
stroke
grestore
} bind def
55.7721 56.1228 o
grestore
gsave
/o {
gsave
newpath
translate
0.6 setlinewidth
1 setlinejoin

0 setlinecap

-0 0 m
-2 0 l

gsave
0.000 setgray
fill
grestore
stroke
grestore
} bind def
55.7721 64.9997 o
grestore
gsave
/o {
gsave
newpath
translate
0.6 setlinewidth
1 setlinejoin

0 setlinecap

-0 0 m
-2 0 l

gsave
0.000 setgray
fill
grestore
stroke
grestore
} bind def
55.7721 71.8852 o
grestore
gsave
/o {
gsave
newpath
translate
0.6 setlinewidth
1 setlinejoin

0 setlinecap

-0 0 m
-2 0 l

gsave
0.000 setgray
fill
grestore
stroke
grestore
} bind def
55.7721 77.511 o
grestore
gsave
/o {
gsave
newpath
translate
0.6 setlinewidth
1 setlinejoin

0 setlinecap

-0 0 m
-2 0 l

gsave
0.000 setgray
fill
grestore
stroke
grestore
} bind def
55.7721 82.2676 o
grestore
gsave
/o {
gsave
newpath
translate
0.6 setlinewidth
1 setlinejoin

0 setlinecap

-0 0 m
-2 0 l

gsave
0.000 setgray
fill
grestore
stroke
grestore
} bind def
55.7721 86.3879 o
grestore
gsave
/o {
gsave
newpath
translate
0.6 setlinewidth
1 setlinejoin

0 setlinecap

-0 0 m
-2 0 l

gsave
0.000 setgray
fill
grestore
stroke
grestore
} bind def
55.7721 90.0223 o
grestore
gsave
/o {
gsave
newpath
translate
0.6 setlinewidth
1 setlinejoin

0 setlinecap

-0 0 m
-2 0 l

gsave
0.000 setgray
fill
grestore
stroke
grestore
} bind def
55.7721 114.662 o
grestore
gsave
/o {
gsave
newpath
translate
0.6 setlinewidth
1 setlinejoin

0 setlinecap

-0 0 m
-2 0 l

gsave
0.000 setgray
fill
grestore
stroke
grestore
} bind def
55.7721 127.173 o
grestore
gsave
/o {
gsave
newpath
translate
0.6 setlinewidth
1 setlinejoin

0 setlinecap

-0 0 m
-2 0 l

gsave
0.000 setgray
fill
grestore
stroke
grestore
} bind def
55.7721 136.05 o
grestore
gsave
/o {
gsave
newpath
translate
0.6 setlinewidth
1 setlinejoin

0 setlinecap

-0 0 m
-2 0 l

gsave
0.000 setgray
fill
grestore
stroke
grestore
} bind def
55.7721 142.935 o
grestore
gsave
/o {
gsave
newpath
translate
0.6 setlinewidth
1 setlinejoin

0 setlinecap

-0 0 m
-2 0 l

gsave
0.000 setgray
fill
grestore
stroke
grestore
} bind def
55.7721 148.561 o
grestore
gsave
/o {
gsave
newpath
translate
0.6 setlinewidth
1 setlinejoin

0 setlinecap

-0 0 m
-2 0 l

gsave
0.000 setgray
fill
grestore
stroke
grestore
} bind def
55.7721 153.318 o
grestore
gsave
/o {
gsave
newpath
translate
0.6 setlinewidth
1 setlinejoin

0 setlinecap

-0 0 m
-2 0 l

gsave
0.000 setgray
fill
grestore
stroke
grestore
} bind def
55.7721 157.438 o
grestore
gsave
/o {
gsave
newpath
translate
0.6 setlinewidth
1 setlinejoin

0 setlinecap

-0 0 m
-2 0 l

gsave
0.000 setgray
fill
grestore
stroke
grestore
} bind def
55.7721 161.072 o
grestore
gsave
/o {
gsave
newpath
translate
0.6 setlinewidth
1 setlinejoin

0 setlinecap

-0 0 m
-2 0 l

gsave
0.000 setgray
fill
grestore
stroke
grestore
} bind def
55.7721 185.712 o
grestore
gsave
/o {
gsave
newpath
translate
0.6 setlinewidth
1 setlinejoin

0 setlinecap

-0 0 m
-2 0 l

gsave
0.000 setgray
fill
grestore
stroke
grestore
} bind def
55.7721 198.223 o
grestore
gsave
/o {
gsave
newpath
translate
0.6 setlinewidth
1 setlinejoin

0 setlinecap

-0 0 m
-2 0 l

gsave
0.000 setgray
fill
grestore
stroke
grestore
} bind def
55.7721 207.1 o
grestore
gsave
/o {
gsave
newpath
translate
0.6 setlinewidth
1 setlinejoin

0 setlinecap

-0 0 m
-2 0 l

gsave
0.000 setgray
fill
grestore
stroke
grestore
} bind def
55.7721 213.985 o
grestore
gsave
/o {
gsave
newpath
translate
0.6 setlinewidth
1 setlinejoin

0 setlinecap

-0 0 m
-2 0 l

gsave
0.000 setgray
fill
grestore
stroke
grestore
} bind def
55.7721 219.611 o
grestore
gsave
/o {
gsave
newpath
translate
0.6 setlinewidth
1 setlinejoin

0 setlinecap

-0 0 m
-2 0 l

gsave
0.000 setgray
fill
grestore
stroke
grestore
} bind def
55.7721 224.368 o
grestore
gsave
/o {
gsave
newpath
translate
0.6 setlinewidth
1 setlinejoin

0 setlinecap

-0 0 m
-2 0 l

gsave
0.000 setgray
fill
grestore
stroke
grestore
} bind def
55.7721 228.488 o
grestore
gsave
/o {
gsave
newpath
translate
0.6 setlinewidth
1 setlinejoin

0 setlinecap

-0 0 m
-2 0 l

gsave
0.000 setgray
fill
grestore
stroke
grestore
} bind def
55.7721 232.122 o
grestore
gsave
/o {
gsave
newpath
translate
0.6 setlinewidth
1 setlinejoin

0 setlinecap

-0 0 m
-2 0 l

gsave
0.000 setgray
fill
grestore
stroke
grestore
} bind def
55.7721 256.762 o
grestore
gsave
/o {
gsave
newpath
translate
0.6 setlinewidth
1 setlinejoin

0 setlinecap

-0 0 m
-2 0 l

gsave
0.000 setgray
fill
grestore
stroke
grestore
} bind def
55.7721 269.273 o
grestore
gsave
/o {
gsave
newpath
translate
0.6 setlinewidth
1 setlinejoin

0 setlinecap

-0 0 m
-2 0 l

gsave
0.000 setgray
fill
grestore
stroke
grestore
} bind def
55.7721 278.15 o
grestore
gsave
/o {
gsave
newpath
translate
0.6 setlinewidth
1 setlinejoin

0 setlinecap

-0 0 m
-2 0 l

gsave
0.000 setgray
fill
grestore
stroke
grestore
} bind def
55.7721 285.035 o
grestore
gsave
/o {
gsave
newpath
translate
0.6 setlinewidth
1 setlinejoin

0 setlinecap

-0 0 m
-2 0 l

gsave
0.000 setgray
fill
grestore
stroke
grestore
} bind def
55.7721 290.661 o
grestore
gsave
/o {
gsave
newpath
translate
0.6 setlinewidth
1 setlinejoin

0 setlinecap

-0 0 m
-2 0 l

gsave
0.000 setgray
fill
grestore
stroke
grestore
} bind def
55.7721 295.418 o
grestore
gsave
/o {
gsave
newpath
translate
0.6 setlinewidth
1 setlinejoin

0 setlinecap

-0 0 m
-2 0 l

gsave
0.000 setgray
fill
grestore
stroke
grestore
} bind def
55.7721 299.538 o
grestore
gsave
/o {
gsave
newpath
translate
0.6 setlinewidth
1 setlinejoin

0 setlinecap

-0 0 m
-2 0 l

gsave
0.000 setgray
fill
grestore
stroke
grestore
} bind def
55.7721 303.173 o
grestore
gsave
/o {
gsave
newpath
translate
0.6 setlinewidth
1 setlinejoin

0 setlinecap

-0 0 m
-2 0 l

gsave
0.000 setgray
fill
grestore
stroke
grestore
} bind def
55.7721 327.812 o
grestore
gsave
/o {
gsave
newpath
translate
0.6 setlinewidth
1 setlinejoin

0 setlinecap

-0 0 m
-2 0 l

gsave
0.000 setgray
fill
grestore
stroke
grestore
} bind def
55.7721 340.323 o
grestore
gsave
/o {
gsave
newpath
translate
0.6 setlinewidth
1 setlinejoin

0 setlinecap

-0 0 m
-2 0 l

gsave
0.000 setgray
fill
grestore
stroke
grestore
} bind def
55.7721 349.2 o
grestore
/DejaVuSans 10.000 selectfont
gsave

18.6939 150.666 translate
90 rotate
0 0 m /P glyphshow
6.03027 0 m /l glyphshow
8.80859 0 m /a glyphshow
14.9365 0 m /n glyphshow
21.2744 0 m /n glyphshow
27.6123 0 m /i glyphshow
30.3906 0 m /n glyphshow
36.7285 0 m /g glyphshow
43.0762 0 m /space glyphshow
46.2549 0 m /d glyphshow
52.6025 0 m /e glyphshow
58.7549 0 m /l glyphshow
61.5332 0 m /a glyphshow
67.6611 0 m /y glyphshow
73.5791 0 m /space glyphshow
76.7578 0 m /parenleft glyphshow
80.6592 0 m /s glyphshow
85.8691 0 m /parenright glyphshow
grestore
0.800 setlinewidth
0 setlinejoin
2 setlinecap
gsave
55.772054 41.96 m
55.772054 349.2 l
stroke
grestore
gsave
493.2 41.96 m
493.2 349.2 l
stroke
grestore
gsave
55.772054 41.96 m
493.2 41.96 l
stroke
grestore
gsave
55.772054 349.2 m
493.2 349.2 l
stroke
grestore
1.000 setlinewidth
0 setlinecap
0.800 setgray
gsave
319.715625 282.5125 m
486.2 282.5125 l
487.533333 282.5125 488.2 283.179167 488.2 284.5125 c
488.2 342.2 l
488.2 343.533333 487.533333 344.2 486.2 344.2 c
319.715625 344.2 l
318.382292 344.2 317.715625 343.533333 317.715625 342.2 c
317.715625 284.5125 l
317.715625 283.179167 318.382292 282.5125 319.715625 282.5125 c
cl
gsave
1.000 setgray
fill
grestore
stroke
grestore
gsave
321.715625 332.60625 m
341.715625 332.60625 l
341.715625 339.60625 l
321.715625 339.60625 l
cl
0.000 setgray
fill
grestore
0.000 setgray
/DejaVuSans 10.000 selectfont
gsave

349.716 332.606 translate
0 rotate
0 0 m /P glyphshow
5.90527 0 m /r glyphshow
9.7666 0 m /o glyphshow
15.8848 0 m /p glyphshow
22.2324 0 m /o glyphshow
28.3506 0 m /s glyphshow
33.5605 0 m /e glyphshow
39.7129 0 m /d glyphshow
46.0605 0 m /space glyphshow
49.2393 0 m /K glyphshow
55.7969 0 m /r glyphshow
59.9082 0 m /i glyphshow
62.6865 0 m /g glyphshow
69.0342 0 m /i glyphshow
71.8125 0 m /n glyphshow
78.1504 0 m /g glyphshow
84.498 0 m /space glyphshow
87.6768 0 m /a glyphshow
93.8047 0 m /p glyphshow
100.152 0 m /p glyphshow
106.5 0 m /r glyphshow
110.361 0 m /o glyphshow
116.479 0 m /a glyphshow
122.607 0 m /c glyphshow
128.105 0 m /h glyphshow
grestore
gsave
321.715625 317.934375 m
341.715625 317.934375 l
341.715625 324.934375 l
321.715625 324.934375 l
cl
0.000 0.000 1.000 setrgbcolor
fill
grestore
/DejaVuSans 10.000 selectfont
gsave

349.716 317.934 translate
0 rotate
0 0 m /G glyphshow
7.74902 0 m /r glyphshow
11.6104 0 m /e glyphshow
17.7627 0 m /e glyphshow
23.915 0 m /d glyphshow
30.2627 0 m /y glyphshow
36.1807 0 m /space glyphshow
39.3594 0 m /K glyphshow
45.917 0 m /r glyphshow
50.0283 0 m /i glyphshow
52.8066 0 m /g glyphshow
59.1543 0 m /i glyphshow
61.9326 0 m /n glyphshow
68.2705 0 m /g glyphshow
74.6182 0 m /space glyphshow
77.7969 0 m /a glyphshow
83.9248 0 m /p glyphshow
90.2725 0 m /p glyphshow
96.6201 0 m /r glyphshow
100.481 0 m /o glyphshow
106.6 0 m /a glyphshow
112.728 0 m /c glyphshow
118.226 0 m /h glyphshow
grestore
gsave
321.715625 303.2625 m
341.715625 303.2625 l
341.715625 310.2625 l
321.715625 310.2625 l
cl
1.000 0.000 0.000 setrgbcolor
fill
grestore
/DejaVuSans 10.000 selectfont
gsave

349.716 303.262 translate
0 rotate
0 0 m /G glyphshow
7.74902 0 m /r glyphshow
11.6104 0 m /e glyphshow
17.7627 0 m /e glyphshow
23.915 0 m /d glyphshow
30.2627 0 m /y glyphshow
36.1807 0 m /space glyphshow
39.3594 0 m /D glyphshow
47.0596 0 m /L glyphshow
52.6309 0 m /space glyphshow
55.8096 0 m /a glyphshow
61.9375 0 m /p glyphshow
68.2852 0 m /p glyphshow
74.6328 0 m /r glyphshow
78.4941 0 m /o glyphshow
84.6123 0 m /a glyphshow
90.7402 0 m /c glyphshow
96.2383 0 m /h glyphshow
grestore
gsave
321.715625 288.590625 m
341.715625 288.590625 l
341.715625 295.590625 l
321.715625 295.590625 l
cl
0.000 0.500 0.000 setrgbcolor
fill
grestore
/DejaVuSans 10.000 selectfont
gsave

349.716 288.591 translate
0 rotate
0 0 m /P glyphshow
5.90527 0 m /r glyphshow
9.7666 0 m /o glyphshow
15.8848 0 m /p glyphshow
22.2324 0 m /o glyphshow
28.3506 0 m /s glyphshow
33.5605 0 m /e glyphshow
39.7129 0 m /d glyphshow
46.0605 0 m /space glyphshow
49.2393 0 m /D glyphshow
56.9395 0 m /L glyphshow
62.5107 0 m /space glyphshow
65.6895 0 m /a glyphshow
71.8174 0 m /p glyphshow
78.165 0 m /p glyphshow
84.5127 0 m /r glyphshow
88.374 0 m /o glyphshow
94.4922 0 m /a glyphshow
100.62 0 m /c glyphshow
106.118 0 m /h glyphshow
grestore

end
showpage
