0.000000 0.000000 0.000000 0.000000 0.000000 0.000000 0.000000 0.000000 0.000000 0.000000 0.000000 0.000000 0.000000 0.000000 0.000000 0.000000 0.000000 0.000000 0.000000 0.000000 0.000000 0.000000 0.000000 0.000000 0.000000 0.000000 0.000000 0.000000 0.000000 0.000000 0.000000 0.000000 0.000000 0.000000 0.000000 0.000000 0.000000 0.000000 0.000000 0.000000 0.000000 0.000000 0.000000 0.000000 0.000000 0.000000 0.000000 0.000000 0.000000 0.000000 0.000000 0.000000 0.000000 0.000000 0.000000 0.000000 0.000000 0.000000 0.000000 0.000000 0.000000 0.000000 0.000000 0.000000 0.000000 0.000000 0.000000 0.000000 0.000000 0.000000 0.000000 0.000000 0.000000 0.000000 0.000000 0.000000 0.000000 0.000000 0.000000 0.000000 0.000000 0.000000 0.000000 0.000000 0.000000 0.000000 0.000000 0.000000 0.000000 0.000000 0.000000 0.000000 0.000000 0.000000 0.000000 0.000000 0.000000 0.000000 0.000000 0.000000 0.000000 0.000000 0.000000
0.000000 0.000000 0.000000 0.000000 0.000000 0.000000 0.000000 0.000000 0.000000 0.000000 0.000000 0.000000 0.000000 0.000000 0.000000 0.000000 0.000000 0.000000 0.000000 0.000000 0.000000 0.000000 0.000000 0.000000 0.000000 0.000000 0.000000 0.000000 0.000000 0.000000 0.000000 0.000000 0.000000 0.000000 0.000000 0.000000 0.000000 0.000000 0.000000 0.000000 0.000000 0.000000 0.000000 0.000000 0.000000 0.000000 0.000000 0.000000 0.000000 0.000000 0.000000 0.000000 0.000000 0.000000 0.000000 0.000000 0.000000 0.000000 0.000000 0.000000 0.000000 0.000000 0.000000 0.000000 0.000000 0.000000 0.000000 0.000000 0.000000 0.000000 0.000000 0.000000 0.000000 0.000000 0.000000 0.000000 0.000000 0.000000 0.000000 0.000000 0.000000 0.000000 0.000000 0.000000 0.000000 0.000000 0.000000 0.000000 0.000000 0.000000 0.000000 0.000000 0.000000 0.000000 0.000000 0.000000 0.000000 0.000000 0.000000 0.000000 0.000000 0.000000 0.000000
0.000000 0.000000 0.000000 0.000000 0.000000 0.000000 0.000000 0.000000 0.000000 0.000000 0.000000 0.000000 0.000000 0.000000 0.000000 0.000000 0.000000 0.000000 0.000000 0.000000 0.000000 0.000000 0.000000 0.000000 0.000000 0.000000 0.000000 0.000000 0.000000 0.000000 0.000000 0.000000 0.000000 0.000000 0.000000 0.000000 0.000000 0.000000 0.000000 0.000000 0.000000 0.000000 0.000000 0.000000 0.000000 0.000000 0.000000 0.000000 0.000000 0.000000 0.000000 0.000000 0.000000 0.000000 0.000000 0.000000 0.000000 0.000000 0.000000 0.000000 0.000000 0.000000 0.000000 0.000000 0.000000 0.000000 0.000000 0.000000 0.000000 0.000000 0.000000 0.000000 0.000000 0.000000 0.000000 0.000000 0.000000 0.000000 0.000000 0.000000 0.000000 0.000000 0.000000 0.000000 0.000000 0.000000 0.000000 0.000000 0.000000 0.000000 0.000000 0.000000 0.000000 0.000000 0.000000 0.000000 0.000000 0.000000 0.000000 0.000000 0.000000 0.000000 0.000000
0.000000 0.000000 0.000000 0.000000 0.000000 0.000000 0.000000 0.000000 0.000000 0.000000 0.000000 0.000000 0.000000 0.000000 0.000000 0.000000 0.000000 0.000000 0.000000 0.000000 0.000000 0.000000 0.000000 0.000000 0.000000 0.000000 0.000000 0.000000 0.000000 0.000000 0.000000 0.000000 0.000000 0.000000 0.000000 0.000000 0.000000 0.000000 0.000000 0.000000 0.000000 0.000000 0.000000 0.000000 0.000000 0.000000 0.000000 0.000000 0.000000 0.000000 0.000000 0.000000 0.000000 0.000000 0.000000 0.000000 0.000000 0.000000 0.000000 0.000000 0.000000 0.000000 0.000000 0.000000 0.000000 0.000000 0.000000 0.000000 0.000000 0.000000 0.000000 0.000000 0.000000 0.000000 0.000000 0.000000 0.000000 0.000000 0.000000 0.000000 0.000000 0.000000 0.000000 0.000000 0.000000 0.000000 0.000000 0.000000 0.000000 0.000000 0.000000 0.000000 0.000000 0.000000 0.000000 0.000000 0.000000 0.000000 0.000000 0.000000 0.000000 0.000000 0.000000
0.000000 0.000000 0.000000 0.000000 0.000000 0.000000 0.000000 0.000000 0.000000 0.000000 0.000000 0.000000 0.000000 0.000000 0.000000 0.000000 0.000000 17.531236 17.531236 17.531236 17.531236 17.531236 17.531236 17.531236 17.531236 17.531236 17.531236 0.000000 0.000000 0.000000 0.000000 0.000000 0.000000 0.000000 0.000000 0.000000 0.000000 0.000000 0.000000 0.000000 0.000000 0.000000 0.000000 0.000000 0.000000 0.000000 0.000000 0.000000 0.000000 0.000000 0.000000 0.000000 0.000000 0.000000 0.000000 0.000000 0.000000 0.000000 0.000000 0.000000 0.000000 0.000000 0.000000 0.000000 0.000000 0.000000 0.000000 0.000000 0.000000 0.000000 0.000000 0.000000 0.000000 0.000000 0.000000 0.000000 0.000000 0.000000 0.000000 0.000000 0.000000 0.000000 0.000000 0.000000 0.000000 0.000000 0.000000 0.000000 0.000000 0.000000 0.000000 0.000000 0.000000 0.000000 0.000000 0.000000 0.000000 0.000000 0.000000 0.000000 0.000000 0.000000 0.000000
0.000000 0.000000 0.000000 0.000000 0.000000 0.000000 0.000000 0.000000 0.000000 0.000000 0.000000 0.000000 0.000000 0.000000 0.000000 0.000000 0.000000 17.531236 17.531236 17.531236 17.531236 17.531236 17.531236 17.531236 17.531236 17.531236 17.531236 0.000000 0.000000 0.000000 0.000000 0.000000 0.000000 0.000000 0.000000 0.000000 0.000000 0.000000 0.000000 0.000000 0.000000 0.000000 0.000000 0.000000 0.000000 0.000000 0.000000 0.000000 0.000000 0.000000 0.000000 0.000000 0.000000 0.000000 0.000000 0.000000 0.000000 0.000000 0.000000 0.000000 0.000000 0.000000 0.000000 0.000000 0.000000 0.000000 0.000000 0.000000 0.000000 0.000000 0.000000 0.000000 0.000000 0.000000 0.000000 0.000000 0.000000 0.000000 0.000000 0.000000 0.000000 0.000000 0.000000 0.000000 0.000000 0.000000 0.000000 0.000000 0.000000 0.000000 0.000000 0.000000 0.000000 0.000000 0.000000 0.000000 0.000000 0.000000 0.000000 0.000000 0.000000 0.000000 0.000000
0.000000 0.000000 0.000000 0.000000 0.000000 0.000000 0.000000 0.000000 0.000000 0.000000 0.000000 0.000000 0.000000 0.000000 0.000000 0.000000 0.000000 17.531236 17.531236 17.531236 17.531236 17.531236 17.531236 17.531236 17.531236 17.531236 17.531236 0.000000 0.000000 19.828644 19.828644 19.828644 19.828644 19.828644 19.828644 0.000000 0.000000 0.000000 0.000000 0.000000 0.000000 0.000000 0.000000 0.000000 0.000000 0.000000 0.000000 0.000000 0.000000 0.000000 0.000000 0.000000 0.000000 0.000000 0.000000 0.000000 0.000000 0.000000 0.000000 0.000000 0.000000 0.000000 10.797962 10.797962 10.797962 10.797962 10.797962 10.797962 0.000000 0.000000 0.000000 0.000000 10.718653 10.718653 10.718653 10.718653 10.718653 10.718653 0.000000 0.000000 0.000000 0.000000 0.000000 0.000000 0.000000 0.000000 0.000000 18.692339 18.692339 18.692339 18.692339 18.692339 18.692339 18.692339 18.692339 18.692339 18.692339 0.000000 0.000000 0.000000 0.000000 0.000000 0.000000
0.000000 0.000000 0.000000 0.000000 0.000000 0.000000 0.000000 0.000000 0.000000 0.000000 0.000000 0.000000 0.000000 0.000000 0.000000 0.000000 0.000000 17.531236 17.531236 17.531236 17.531236 17.531236 17.531236 17.531236 17.531236 17.531236 17.531236 0.000000 0.000000 19.828644 19.828644 19.828644 19.828644 19.828644 19.828644 0.000000 0.000000 0.000000 0.000000 0.000000 0.000000 0.000000 0.000000 0.000000 0.000000 0.000000 0.000000 0.000000 0.000000 0.000000 0.000000 0.000000 0.000000 0.000000 0.000000 0.000000 0.000000 0.000000 0.000000 0.000000 0.000000 0.000000 10.797962 10.797962 10.797962 10.797962 10.797962 10.797962 0.000000 0.000000 0.000000 0.000000 10.718653 10.718653 10.718653 10.718653 10.718653 10.718653 0.000000 0.000000 0.000000 0.000000 0.000000 0.000000 0.000000 0.000000 0.000000 18.692339 18.692339 18.692339 18.692339 18.692339 18.692339 18.692339 18.692339 18.692339 18.692339 0.000000 0.000000 0.000000 0.000000 0.000000 0.000000
0.000000 0.000000 0.000000 0.000000 0.000000 0.000000 0.000000 0.000000 0.000000 0.000000 0.000000 0.000000 0.000000 0.000000 0.000000 0.000000 0.000000 17.531236 17.531236 17.531236 17.531236 17.531236 17.531236 17.531236 17.531236 17.531236 17.531236 0.000000 0.000000 19.828644 19.828644 19.828644 19.828644 19.828644 19.828644 0.000000 0.000000 0.000000 0.000000 0.000000 0.000000 0.000000 0.000000 0.000000 0.000000 0.000000 0.000000 0.000000 0.000000 0.000000 0.000000 0.000000 0.000000 0.000000 0.000000 0.000000 0.000000 0.000000 0.000000 0.000000 0.000000 0.000000 10.797962 10.797962 10.797962 10.797962 10.797962 10.797962 0.000000 0.000000 0.000000 0.000000 10.718653 10.718653 10.718653 10.718653 10.718653 10.718653 0.000000 0.000000 0.000000 0.000000 0.000000 0.000000 0.000000 0.000000 0.000000 18.692339 18.692339 18.692339 18.692339 18.692339 18.692339 18.692339 18.692339 18.692339 18.692339 0.000000 0.000000 0.000000 0.000000 0.000000 0.000000
0.000000 0.000000 0.000000 0.000000 0.000000 0.000000 0.000000 0.000000 0.000000 0.000000 0.000000 0.000000 0.000000 0.000000 0.000000 0.000000 0.000000 17.531236 17.531236 17.531236 17.531236 17.531236 17.531236 17.531236 17.531236 17.531236 17.531236 0.000000 0.000000 19.828644 19.828644 19.828644 19.828644 19.828644 19.828644 0.000000 0.000000 0.000000 0.000000 0.000000 0.000000 0.000000 0.000000 0.000000 0.000000 0.000000 0.000000 0.000000 0.000000 0.000000 0.000000 0.000000 0.000000 0.000000 0.000000 0.000000 0.000000 0.000000 0.000000 0.000000 0.000000 0.000000 10.797962 10.797962 10.797962 10.797962 10.797962 10.797962 0.000000 0.000000 0.000000 0.000000 10.718653 10.718653 10.718653 10.718653 10.718653 10.718653 0.000000 0.000000 0.000000 0.000000 0.000000 0.000000 0.000000 0.000000 0.000000 18.692339 18.692339 18.692339 18.692339 18.692339 18.692339 18.692339 18.692339 18.692339 18.692339 0.000000 0.000000 0.000000 0.000000 0.000000 0.000000
0.000000 0.000000 0.000000 0.000000 0.000000 0.000000 0.000000 0.000000 0.000000 0.000000 0.000000 0.000000 0.000000 0.000000 0.000000 0.000000 0.000000 17.531236 17.531236 17.531236 17.531236 17.531236 17.531236 17.531236 17.531236 17.531236 17.531236 0.000000 0.000000 19.828644 19.828644 19.828644 19.828644 19.828644 19.828644 0.000000 0.000000 0.000000 0.000000 0.000000 0.000000 0.000000 0.000000 0.000000 0.000000 0.000000 0.000000 0.000000 0.000000 0.000000 0.000000 0.000000 0.000000 0.000000 0.000000 0.000000 0.000000 0.000000 0.000000 0.000000 0.000000 0.000000 10.797962 10.797962 10.797962 10.797962 10.797962 10.797962 0.000000 0.000000 0.000000 0.000000 10.718653 10.718653 10.718653 10.718653 10.718653 10.718653 0.000000 0.000000 0.000000 0.000000 0.000000 0.000000 0.000000 0.000000 0.000000 18.692339 18.692339 18.692339 18.692339 18.692339 18.692339 18.692339 18.692339 18.692339 18.692339 0.000000 0.000000 0.000000 0.000000 0.000000 0.000000
0.000000 0.000000 0.000000 0.000000 0.000000 0.000000 0.000000 0.000000 0.000000 0.000000 0.000000 0.000000 0.000000 0.000000 0.000000 0.000000 0.000000 17.531236 17.531236 17.531236 17.531236 17.531236 17.531236 17.531236 17.531236 17.531236 17.531236 0.000000 0.000000 19.828644 19.828644 19.828644 19.828644 19.828644 19.828644 0.000000 0.000000 0.000000 0.000000 0.000000 0.000000 0.000000 0.000000 0.000000 0.000000 0.000000 0.000000 17.736362 17.736362 17.736362 17.736362 17.736362 17.736362 17.736362 17.736362 0.000000 0.000000 0.000000 0.000000 0.000000 0.000000 0.000000 10.797962 10.797962 10.797962 10.797962 10.797962 10.797962 0.000000 0.000000 0.000000 0.000000 10.718653 10.718653 10.718653 10.718653 10.718653 10.718653 0.000000 0.000000 0.000000 0.000000 0.000000 0.000000 0.000000 0.000000 0.000000 18.692339 18.692339 18.692339 18.692339 18.692339 18.692339 18.692339 18.692339 18.692339 18.692339 0.000000 0.000000 0.000000 0.000000 0.000000 0.000000
0.000000 0.000000 0.000000 0.000000 0.000000 0.000000 0.000000 0.000000 0.000000 0.000000 0.000000 0.000000 0.000000 0.000000 0.000000 0.000000 0.000000 20.294351 20.294351 20.294351 20.294351 20.294351 20.294351 20.294351 20.294351 20.294351 20.294351 0.000000 0.000000 19.828644 19.828644 19.828644 19.828644 19.828644 19.828644 0.000000 0.000000 0.000000 0.000000 0.000000 0.000000 0.000000 0.000000 0.000000 0.000000 0.000000 0.000000 17.736362 17.736362 17.736362 17.736362 17.736362 17.736362 17.736362 17.736362 0.000000 0.000000 0.000000 0.000000 0.000000 0.000000 0.000000 10.797962 10.797962 10.797962 10.797962 10.797962 10.797962 0.000000 0.000000 0.000000 0.000000 10.718653 10.718653 10.718653 10.718653 10.718653 10.718653 0.000000 0.000000 0.000000 0.000000 0.000000 0.000000 0.000000 0.000000 0.000000 18.692339 18.692339 18.692339 18.692339 18.692339 18.692339 18.692339 18.692339 18.692339 18.692339 0.000000 0.000000 0.000000 0.000000 0.000000 0.000000
0.000000 0.000000 0.000000 0.000000 0.000000 0.000000 0.000000 0.000000 0.000000 0.000000 0.000000 0.000000 0.000000 0.000000 0.000000 0.000000 0.000000 20.294351 20.294351 20.294351 20.294351 20.294351 20.294351 20.294351 20.294351 20.294351 20.294351 0.000000 0.000000 19.828644 19.828644 19.828644 19.828644 19.828644 19.828644 0.000000 0.000000 0.000000 0.000000 0.000000 0.000000 0.000000 0.000000 0.000000 0.000000 0.000000 0.000000 17.736362 17.736362 17.736362 17.736362 17.736362 17.736362 17.736362 17.736362 0.000000 0.000000 0.000000 0.000000 0.000000 0.000000 0.000000 0.000000 0.000000 0.000000 0.000000 0.000000 0.000000 0.000000 0.000000 0.000000 0.000000 0.000000 0.000000 0.000000 0.000000 0.000000 0.000000 0.000000 0.000000 0.000000 0.000000 0.000000 0.000000 0.000000 0.000000 0.000000 0.000000 0.000000 0.000000 0.000000 0.000000 0.000000 0.000000 0.000000 0.000000 0.000000 0.000000 0.000000 0.000000 0.000000 0.000000 0.000000
0.000000 0.000000 0.000000 0.000000 0.000000 0.000000 0.000000 0.000000 0.000000 0.000000 0.000000 0.000000 0.000000 0.000000 0.000000 0.000000 0.000000 20.294351 20.294351 20.294351 20.294351 20.294351 20.294351 20.294351 20.294351 20.294351 20.294351 0.000000 0.000000 19.828644 19.828644 19.828644 19.828644 19.828644 19.828644 0.000000 0.000000 0.000000 0.000000 0.000000 0.000000 0.000000 0.000000 0.000000 0.000000 0.000000 0.000000 17.736362 17.736362 17.736362 17.736362 17.736362 17.736362 17.736362 17.736362 0.000000 0.000000 0.000000 0.000000 0.000000 0.000000 0.000000 0.000000 0.000000 0.000000 0.000000 0.000000 0.000000 0.000000 0.000000 0.000000 0.000000 0.000000 0.000000 0.000000 0.000000 0.000000 0.000000 0.000000 0.000000 0.000000 0.000000 0.000000 0.000000 0.000000 0.000000 0.000000 0.000000 0.000000 0.000000 0.000000 0.000000 0.000000 0.000000 0.000000 0.000000 0.000000 0.000000 0.000000 0.000000 0.000000 0.000000 0.000000
0.000000 0.000000 0.000000 0.000000 0.000000 0.000000 0.000000 0.000000 0.000000 0.000000 0.000000 0.000000 0.000000 0.000000 0.000000 0.000000 0.000000 20.294351 20.294351 20.294351 20.294351 20.294351 20.294351 20.294351 20.294351 20.294351 20.294351 0.000000 0.000000 19.828644 19.828644 19.828644 19.828644 19.828644 19.828644 0.000000 0.000000 0.000000 0.000000 0.000000 0.000000 0.000000 0.000000 0.000000 0.000000 0.000000 0.000000 17.736362 17.736362 17.736362 17.736362 17.736362 17.736362 17.736362 17.736362 0.000000 0.000000 0.000000 0.000000 0.000000 0.000000 0.000000 0.000000 0.000000 0.000000 0.000000 0.000000 0.000000 0.000000 0.000000 0.000000 0.000000 0.000000 0.000000 0.000000 0.000000 0.000000 0.000000 0.000000 0.000000 0.000000 0.000000 0.000000 0.000000 0.000000 0.000000 0.000000 0.000000 0.000000 0.000000 0.000000 0.000000 0.000000 0.000000 0.000000 0.000000 0.000000 0.000000 0.000000 0.000000 0.000000 0.000000 0.000000
0.000000 0.000000 0.000000 0.000000 0.000000 0.000000 0.000000 0.000000 0.000000 0.000000 0.000000 0.000000 0.000000 0.000000 0.000000 0.000000 0.000000 20.294351 20.294351 20.294351 20.294351 20.294351 20.294351 20.294351 20.294351 20.294351 20.294351 0.000000 0.000000 19.828644 19.828644 19.828644 19.828644 19.828644 19.828644 0.000000 0.000000 0.000000 0.000000 0.000000 0.000000 0.000000 0.000000 0.000000 0.000000 0.000000 0.000000 17.736362 17.736362 17.736362 17.736362 17.736362 17.736362 17.736362 17.736362 0.000000 0.000000 0.000000 0.000000 0.000000 0.000000 0.000000 19.027820 19.027820 19.027820 19.027820 19.027820 19.027820 0.000000 0.000000 0.000000 0.000000 18.888065 18.888065 18.888065 18.888065 18.888065 18.888065 0.000000 0.000000 0.000000 0.000000 0.000000 0.000000 0.000000 0.000000 0.000000 0.000000 0.000000 0.000000 0.000000 0.000000 0.000000 0.000000 0.000000 0.000000 0.000000 0.000000 0.000000 0.000000 0.000000 0.000000 0.000000
0.000000 0.000000 0.000000 0.000000 0.000000 0.000000 0.000000 0.000000 0.000000 0.000000 0.000000 0.000000 0.000000 0.000000 0.000000 0.000000 0.000000 20.294351 20.294351 20.294351 20.294351 20.294351 20.294351 20.294351 20.294351 20.294351 20.294351 0.000000 0.000000 19.828644 19.828644 19.828644 19.828644 19.828644 19.828644 0.000000 0.000000 0.000000 0.000000 0.000000 0.000000 0.000000 0.000000 0.000000 0.000000 0.000000 0.000000 17.736362 17.736362 17.736362 17.736362 17.736362 17.736362 17.736362 17.736362 0.000000 0.000000 0.000000 0.000000 0.000000 0.000000 0.000000 19.027820 19.027820 19.027820 19.027820 19.027820 19.027820 0.000000 0.000000 0.000000 0.000000 18.888065 18.888065 18.888065 18.888065 18.888065 18.888065 0.000000 0.000000 0.000000 0.000000 0.000000 0.000000 0.000000 0.000000 0.000000 32.171631 32.171631 32.171631 32.171631 32.171631 32.171631 32.171631 32.171631 32.171631 32.171631 0.000000 0.000000 0.000000 0.000000 0.000000 0.000000
0.000000 0.000000 0.000000 0.000000 0.000000 0.000000 0.000000 0.000000 0.000000 0.000000 0.000000 0.000000 0.000000 0.000000 0.000000 0.000000 0.000000 20.294351 20.294351 20.294351 20.294351 20.294351 20.294351 20.294351 20.294351 20.294351 20.294351 0.000000 0.000000 19.828644 19.828644 19.828644 19.828644 19.828644 19.828644 0.000000 0.000000 0.000000 0.000000 0.000000 0.000000 0.000000 0.000000 0.000000 0.000000 0.000000 0.000000 17.736362 17.736362 17.736362 17.736362 17.736362 17.736362 17.736362 17.736362 0.000000 0.000000 0.000000 0.000000 0.000000 0.000000 0.000000 19.027820 19.027820 19.027820 19.027820 19.027820 19.027820 0.000000 0.000000 0.000000 0.000000 18.888065 18.888065 18.888065 18.888065 18.888065 18.888065 0.000000 0.000000 0.000000 0.000000 0.000000 0.000000 0.000000 0.000000 0.000000 32.171631 32.171631 32.171631 32.171631 32.171631 32.171631 32.171631 32.171631 32.171631 32.171631 0.000000 0.000000 0.000000 0.000000 0.000000 0.000000
0.000000 0.000000 0.000000 0.000000 0.000000 0.000000 0.000000 0.000000 0.000000 0.000000 0.000000 0.000000 0.000000 0.000000 0.000000 0.000000 0.000000 20.294351 20.294351 20.294351 20.294351 20.294351 20.294351 20.294351 20.294351 20.294351 20.294351 0.000000 0.000000 0.000000 0.000000 0.000000 0.000000 0.000000 0.000000 0.000000 0.000000 0.000000 0.000000 0.000000 0.000000 0.000000 0.000000 0.000000 0.000000 0.000000 0.000000 17.736362 17.736362 17.736362 17.736362 17.736362 17.736362 17.736362 17.736362 0.000000 0.000000 0.000000 0.000000 0.000000 0.000000 0.000000 19.027820 19.027820 19.027820 19.027820 19.027820 19.027820 0.000000 0.000000 0.000000 0.000000 18.888065 18.888065 18.888065 18.888065 18.888065 18.888065 0.000000 0.000000 0.000000 0.000000 0.000000 0.000000 0.000000 0.000000 0.000000 32.171631 32.171631 32.171631 32.171631 32.171631 32.171631 32.171631 32.171631 32.171631 32.171631 0.000000 0.000000 0.000000 0.000000 0.000000 0.000000
0.000000 0.000000 0.000000 0.000000 0.000000 0.000000 0.000000 0.000000 0.000000 0.000000 0.000000 0.000000 0.000000 0.000000 0.000000 0.000000 0.000000 20.294351 20.294351 20.294351 20.294351 20.294351 20.294351 20.294351 20.294351 20.294351 20.294351 0.000000 0.000000 0.000000 0.000000 0.000000 0.000000 0.000000 0.000000 0.000000 0.000000 0.000000 0.000000 0.000000 0.000000 0.000000 0.000000 0.000000 0.000000 0.000000 0.000000 17.736362 17.736362 17.736362 17.736362 17.736362 17.736362 17.736362 17.736362 0.000000 0.000000 0.000000 0.000000 0.000000 0.000000 0.000000 19.027820 19.027820 19.027820 19.027820 19.027820 19.027820 0.000000 0.000000 0.000000 0.000000 18.888065 18.888065 18.888065 18.888065 18.888065 18.888065 0.000000 0.000000 0.000000 0.000000 0.000000 0.000000 0.000000 0.000000 0.000000 32.171631 32.171631 32.171631 32.171631 32.171631 32.171631 32.171631 32.171631 32.171631 32.171631 0.000000 0.000000 0.000000 0.000000 0.000000 0.000000
0.000000 0.000000 0.000000 0.000000 0.000000 0.000000 0.000000 0.000000 0.000000 0.000000 0.000000 0.000000 0.000000 0.000000 0.000000 0.000000 0.000000 15.069034 15.069034 15.069034 15.069034 15.069034 15.069034 15.069034 15.069034 15.069034 15.069034 0.000000 0.000000 0.000000 0.000000 0.000000 0.000000 0.000000 0.000000 0.000000 0.000000 0.000000 0.000000 0.000000 0.000000 0.000000 0.000000 0.000000 0.000000 0.000000 0.000000 0.000000 0.000000 0.000000 0.000000 0.000000 0.000000 0.000000 0.000000 0.000000 0.000000 0.000000 0.000000 0.000000 0.000000 0.000000 19.027820 19.027820 19.027820 19.027820 19.027820 19.027820 0.000000 0.000000 0.000000 0.000000 18.888065 18.888065 18.888065 18.888065 18.888065 18.888065 0.000000 0.000000 0.000000 0.000000 0.000000 0.000000 0.000000 0.000000 0.000000 32.171631 32.171631 32.171631 32.171631 32.171631 32.171631 32.171631 32.171631 32.171631 32.171631 0.000000 0.000000 0.000000 0.000000 0.000000 0.000000
0.000000 0.000000 0.000000 0.000000 0.000000 0.000000 0.000000 0.000000 0.000000 0.000000 0.000000 0.000000 0.000000 0.000000 0.000000 0.000000 0.000000 15.069034 15.069034 15.069034 15.069034 15.069034 15.069034 15.069034 15.069034 15.069034 15.069034 0.000000 0.000000 0.000000 0.000000 0.000000 0.000000 0.000000 0.000000 0.000000 0.000000 0.000000 0.000000 0.000000 0.000000 0.000000 0.000000 0.000000 0.000000 0.000000 0.000000 0.000000 0.000000 0.000000 0.000000 0.000000 0.000000 0.000000 0.000000 0.000000 0.000000 0.000000 0.000000 0.000000 0.000000 0.000000 19.027820 19.027820 19.027820 19.027820 19.027820 19.027820 0.000000 0.000000 0.000000 0.000000 18.888065 18.888065 18.888065 18.888065 18.888065 18.888065 0.000000 0.000000 0.000000 0.000000 0.000000 0.000000 0.000000 0.000000 0.000000 32.171631 32.171631 32.171631 32.171631 32.171631 32.171631 32.171631 32.171631 32.171631 32.171631 0.000000 0.000000 0.000000 0.000000 0.000000 0.000000
0.000000 0.000000 0.000000 0.000000 0.000000 0.000000 0.000000 0.000000 0.000000 0.000000 0.000000 0.000000 0.000000 0.000000 0.000000 0.000000 0.000000 15.069034 15.069034 15.069034 15.069034 15.069034 15.069034 15.069034 15.069034 15.069034 15.069034 0.000000 0.000000 0.000000 0.000000 0.000000 0.000000 0.000000 0.000000 0.000000 0.000000 0.000000 0.000000 0.000000 0.000000 0.000000 0.000000 0.000000 0.000000 0.000000 0.000000 0.000000 0.000000 0.000000 0.000000 0.000000 0.000000 0.000000 0.000000 0.000000 0.000000 0.000000 0.000000 0.000000 0.000000 0.000000 19.027820 19.027820 19.027820 19.027820 19.027820 19.027820 0.000000 0.000000 0.000000 0.000000 18.888065 18.888065 18.888065 18.888065 18.888065 18.888065 0.000000 0.000000 0.000000 0.000000 0.000000 0.000000 0.000000 0.000000 0.000000 32.171631 32.171631 32.171631 32.171631 32.171631 32.171631 32.171631 32.171631 32.171631 32.171631 0.000000 0.000000 0.000000 0.000000 0.000000 0.000000
0.000000 0.000000 0.000000 0.000000 0.000000 0.000000 0.000000 0.000000 0.000000 0.000000 0.000000 0.000000 0.000000 0.000000 0.000000 0.000000 0.000000 15.069034 15.069034 15.069034 15.069034 15.069034 15.069034 15.069034 15.069034 15.069034 15.069034 0.000000 0.000000 0.000000 0.000000 0.000000 0.000000 0.000000 0.000000 0.000000 0.000000 0.000000 0.000000 0.000000 0.000000 0.000000 0.000000 0.000000 0.000000 0.000000 0.000000 0.000000 0.000000 0.000000 0.000000 0.000000 0.000000 0.000000 0.000000 0.000000 0.000000 0.000000 0.000000 0.000000 0.000000 0.000000 19.027820 19.027820 19.027820 19.027820 19.027820 19.027820 0.000000 0.000000 0.000000 0.000000 18.888065 18.888065 18.888065 18.888065 18.888065 18.888065 0.000000 0.000000 0.000000 0.000000 0.000000 0.000000 0.000000 0.000000 0.000000 32.171631 32.171631 32.171631 32.171631 32.171631 32.171631 32.171631 32.171631 32.171631 32.171631 0.000000 0.000000 0.000000 0.000000 0.000000 0.000000
0.000000 0.000000 0.000000 0.000000 19.083572 19.083572 19.083572 19.083572 19.083572 19.083572 19.083572 19.083572 0.000000 0.000000 0.000000 0.000000 0.000000 15.069034 15.069034 15.069034 15.069034 15.069034 15.069034 15.069034 15.069034 15.069034 15.069034 0.000000 0.000000 0.000000 0.000000 0.000000 0.000000 0.000000 0.000000 0.000000 0.000000 0.000000 0.000000 0.000000 0.000000 0.000000 0.000000 0.000000 0.000000 0.000000 0.000000 0.000000 0.000000 0.000000 0.000000 0.000000 0.000000 0.000000 0.000000 0.000000 0.000000 0.000000 0.000000 0.000000 0.000000 0.000000 19.027820 19.027820 19.027820 19.027820 19.027820 19.027820 0.000000 0.000000 0.000000 0.000000 18.888065 18.888065 18.888065 18.888065 18.888065 18.888065 0.000000 0.000000 0.000000 0.000000 0.000000 0.000000 0.000000 0.000000 0.000000 32.171631 32.171631 32.171631 32.171631 32.171631 32.171631 32.171631 32.171631 32.171631 32.171631 0.000000 0.000000 0.000000 0.000000 0.000000 0.000000
0.000000 0.000000 0.000000 0.000000 19.083572 19.083572 19.083572 19.083572 19.083572 19.083572 19.083572 19.083572 0.000000 0.000000 0.000000 0.000000 0.000000 15.069034 15.069034 15.069034 15.069034 15.069034 15.069034 15.069034 15.069034 15.069034 15.069034 0.000000 0.000000 0.000000 0.000000 0.000000 0.000000 0.000000 0.000000 0.000000 0.000000 0.000000 0.000000 0.000000 0.000000 0.000000 0.000000 0.000000 0.000000 0.000000 0.000000 0.000000 0.000000 0.000000 0.000000 0.000000 0.000000 0.000000 0.000000 0.000000 0.000000 0.000000 0.000000 0.000000 0.000000 0.000000 19.027820 19.027820 19.027820 19.027820 19.027820 19.027820 0.000000 0.000000 0.000000 0.000000 18.888065 18.888065 18.888065 18.888065 18.888065 18.888065 0.000000 0.000000 0.000000 0.000000 0.000000 0.000000 0.000000 0.000000 0.000000 32.171631 32.171631 32.171631 32.171631 32.171631 32.171631 32.171631 32.171631 32.171631 32.171631 0.000000 0.000000 0.000000 0.000000 0.000000 0.000000
0.000000 0.000000 0.000000 0.000000 19.083572 19.083572 19.083572 19.083572 19.083572 19.083572 19.083572 19.083572 0.000000 0.000000 0.000000 0.000000 0.000000 0.000000 0.000000 0.000000 0.000000 0.000000 0.000000 0.000000 0.000000 0.000000 0.000000 0.000000 0.000000 0.000000 0.000000 0.000000 0.000000 0.000000 0.000000 0.000000 0.000000 0.000000 0.000000 0.000000 0.000000 0.000000 0.000000 0.000000 0.000000 0.000000 0.000000 0.000000 0.000000 0.000000 0.000000 0.000000 0.000000 0.000000 0.000000 0.000000 0.000000 0.000000 0.000000 0.000000 0.000000 0.000000 19.027820 19.027820 19.027820 19.027820 19.027820 19.027820 0.000000 0.000000 0.000000 0.000000 18.888065 18.888065 18.888065 18.888065 18.888065 18.888065 0.000000 0.000000 0.000000 0.000000 0.000000 0.000000 0.000000 0.000000 0.000000 32.171631 32.171631 32.171631 32.171631 32.171631 32.171631 32.171631 32.171631 32.171631 32.171631 0.000000 0.000000 0.000000 0.000000 0.000000 0.000000
0.000000 0.000000 0.000000 0.000000 19.083572 19.083572 19.083572 19.083572 19.083572 19.083572 19.083572 19.083572 0.000000 0.000000 0.000000 0.000000 0.000000 0.000000 0.000000 0.000000 0.000000 0.000000 0.000000 0.000000 0.000000 0.000000 0.000000 0.000000 0.000000 0.000000 0.000000 0.000000 0.000000 0.000000 0.000000 0.000000 0.000000 0.000000 0.000000 0.000000 0.000000 0.000000 0.000000 0.000000 0.000000 0.000000 0.000000 0.000000 0.000000 0.000000 0.000000 0.000000 0.000000 0.000000 0.000000 0.000000 0.000000 0.000000 0.000000 0.000000 0.000000 0.000000 19.027820 19.027820 19.027820 19.027820 19.027820 19.027820 0.000000 0.000000 0.000000 0.000000 18.888065 18.888065 18.888065 18.888065 18.888065 18.888065 0.000000 0.000000 0.000000 0.000000 0.000000 0.000000 0.000000 0.000000 0.000000 32.171631 32.171631 32.171631 32.171631 32.171631 32.171631 32.171631 32.171631 32.171631 32.171631 0.000000 0.000000 0.000000 0.000000 0.000000 0.000000
0.000000 0.000000 0.000000 0.000000 19.083572 19.083572 19.083572 19.083572 19.083572 19.083572 19.083572 19.083572 0.000000 0.000000 0.000000 0.000000 0.000000 0.000000 0.000000 0.000000 0.000000 0.000000 0.000000 0.000000 0.000000 0.000000 0.000000 0.000000 0.000000 0.000000 0.000000 0.000000 0.000000 0.000000 0.000000 0.000000 0.000000 0.000000 0.000000 0.000000 0.000000 0.000000 0.000000 0.000000 0.000000 0.000000 0.000000 0.000000 0.000000 0.000000 0.000000 0.000000 0.000000 0.000000 0.000000 0.000000 0.000000 0.000000 0.000000 0.000000 0.000000 0.000000 0.000000 0.000000 0.000000 0.000000 0.000000 0.000000 0.000000 0.000000 0.000000 0.000000 0.000000 0.000000 0.000000 0.000000 0.000000 0.000000 0.000000 0.000000 0.000000 0.000000 0.000000 0.000000 0.000000 0.000000 0.000000 32.171631 32.171631 32.171631 32.171631 32.171631 32.171631 32.171631 32.171631 32.171631 32.171631 0.000000 0.000000 0.000000 0.000000 0.000000 0.000000
0.000000 0.000000 0.000000 0.000000 19.083572 19.083572 19.083572 19.083572 19.083572 19.083572 19.083572 19.083572 0.000000 0.000000 0.000000 0.000000 0.000000 0.000000 0.000000 0.000000 0.000000 0.000000 0.000000 0.000000 0.000000 0.000000 0.000000 0.000000 0.000000 0.000000 0.000000 0.000000 0.000000 0.000000 0.000000 0.000000 0.000000 0.000000 0.000000 0.000000 0.000000 0.000000 0.000000 0.000000 0.000000 0.000000 0.000000 0.000000 0.000000 0.000000 0.000000 0.000000 0.000000 0.000000 0.000000 0.000000 0.000000 0.000000 0.000000 0.000000 0.000000 0.000000 0.000000 0.000000 0.000000 0.000000 0.000000 0.000000 0.000000 0.000000 0.000000 0.000000 0.000000 0.000000 0.000000 0.000000 0.000000 0.000000 0.000000 0.000000 0.000000 0.000000 0.000000 0.000000 0.000000 0.000000 0.000000 0.000000 0.000000 0.000000 0.000000 0.000000 0.000000 0.000000 0.000000 0.000000 0.000000 0.000000 0.000000 0.000000 0.000000 0.000000 0.000000
0.000000 0.000000 0.000000 0.000000 19.083572 19.083572 19.083572 19.083572 19.083572 19.083572 19.083572 19.083572 0.000000 0.000000 0.000000 0.000000 0.000000 0.000000 0.000000 0.000000 0.000000 0.000000 0.000000 0.000000 0.000000 0.000000 0.000000 0.000000 0.000000 0.000000 0.000000 0.000000 0.000000 0.000000 0.000000 0.000000 0.000000 0.000000 0.000000 0.000000 0.000000 0.000000 0.000000 0.000000 0.000000 0.000000 0.000000 0.000000 0.000000 0.000000 0.000000 0.000000 0.000000 0.000000 0.000000 0.000000 0.000000 0.000000 0.000000 0.000000 0.000000 0.000000 0.000000 0.000000 0.000000 0.000000 0.000000 0.000000 0.000000 0.000000 0.000000 0.000000 0.000000 0.000000 0.000000 0.000000 0.000000 0.000000 0.000000 0.000000 0.000000 0.000000 0.000000 0.000000 0.000000 0.000000 0.000000 0.000000 0.000000 0.000000 0.000000 0.000000 0.000000 0.000000 0.000000 0.000000 0.000000 0.000000 0.000000 0.000000 0.000000 0.000000 0.000000
0.000000 0.000000 0.000000 0.000000 19.083572 19.083572 19.083572 19.083572 19.083572 19.083572 19.083572 19.083572 0.000000 0.000000 0.000000 0.000000 0.000000 0.000000 0.000000 0.000000 0.000000 0.000000 0.000000 0.000000 0.000000 0.000000 0.000000 0.000000 0.000000 0.000000 0.000000 0.000000 0.000000 0.000000 0.000000 0.000000 0.000000 0.000000 0.000000 0.000000 0.000000 0.000000 0.000000 0.000000 0.000000 0.000000 0.000000 0.000000 0.000000 0.000000 0.000000 0.000000 0.000000 0.000000 0.000000 0.000000 0.000000 0.000000 0.000000 0.000000 0.000000 0.000000 14.208455 14.208455 14.208455 14.208455 14.208455 14.208455 0.000000 0.000000 0.000000 0.000000 0.000000 0.000000 0.000000 0.000000 0.000000 0.000000 0.000000 0.000000 0.000000 0.000000 0.000000 0.000000 0.000000 0.000000 0.000000 0.000000 0.000000 0.000000 0.000000 0.000000 0.000000 0.000000 0.000000 0.000000 0.000000 0.000000 0.000000 0.000000 0.000000 0.000000 0.000000
0.000000 0.000000 0.000000 0.000000 19.083572 19.083572 19.083572 19.083572 19.083572 19.083572 19.083572 19.083572 0.000000 0.000000 0.000000 0.000000 0.000000 0.000000 0.000000 0.000000 0.000000 0.000000 0.000000 0.000000 0.000000 0.000000 0.000000 0.000000 0.000000 0.000000 0.000000 0.000000 0.000000 0.000000 0.000000 0.000000 0.000000 0.000000 0.000000 0.000000 0.000000 0.000000 0.000000 0.000000 0.000000 0.000000 0.000000 0.000000 0.000000 0.000000 0.000000 0.000000 0.000000 0.000000 0.000000 0.000000 0.000000 0.000000 0.000000 0.000000 0.000000 0.000000 14.208455 14.208455 14.208455 14.208455 14.208455 14.208455 0.000000 0.000000 0.000000 0.000000 0.000000 0.000000 0.000000 0.000000 0.000000 0.000000 0.000000 0.000000 0.000000 0.000000 0.000000 0.000000 0.000000 0.000000 0.000000 0.000000 0.000000 0.000000 0.000000 0.000000 0.000000 0.000000 0.000000 0.000000 0.000000 0.000000 0.000000 0.000000 0.000000 0.000000 0.000000
0.000000 0.000000 0.000000 0.000000 19.083572 19.083572 19.083572 19.083572 19.083572 19.083572 19.083572 19.083572 0.000000 0.000000 0.000000 0.000000 0.000000 22.329545 22.329545 22.329545 22.329545 22.329545 22.329545 22.329545 22.329545 22.329545 22.329545 0.000000 0.000000 0.000000 0.000000 0.000000 0.000000 0.000000 0.000000 0.000000 0.000000 0.000000 0.000000 0.000000 0.000000 0.000000 0.000000 0.000000 0.000000 0.000000 0.000000 18.144082 18.144082 18.144082 18.144082 18.144082 18.144082 18.144082 18.144082 0.000000 0.000000 0.000000 0.000000 0.000000 0.000000 0.000000 14.208455 14.208455 14.208455 14.208455 14.208455 14.208455 0.000000 0.000000 0.000000 0.000000 0.000000 0.000000 0.000000 0.000000 0.000000 0.000000 0.000000 0.000000 0.000000 0.000000 0.000000 0.000000 0.000000 0.000000 0.000000 18.788101 18.788101 18.788101 18.788101 18.788101 18.788101 18.788101 18.788101 18.788101 18.788101 0.000000 0.000000 0.000000 0.000000 0.000000 0.000000
0.000000 0.000000 0.000000 0.000000 17.395263 17.395263 17.395263 17.395263 17.395263 17.395263 17.395263 17.395263 0.000000 0.000000 0.000000 0.000000 0.000000 22.329545 22.329545 22.329545 22.329545 22.329545 22.329545 22.329545 22.329545 22.329545 22.329545 0.000000 0.000000 0.000000 0.000000 0.000000 0.000000 0.000000 0.000000 0.000000 0.000000 0.000000 0.000000 0.000000 0.000000 0.000000 0.000000 0.000000 0.000000 0.000000 0.000000 18.144082 18.144082 18.144082 18.144082 18.144082 18.144082 18.144082 18.144082 0.000000 0.000000 0.000000 0.000000 0.000000 0.000000 0.000000 14.208455 14.208455 14.208455 14.208455 14.208455 14.208455 0.000000 0.000000 0.000000 0.000000 0.000000 0.000000 0.000000 0.000000 0.000000 0.000000 0.000000 0.000000 0.000000 0.000000 0.000000 0.000000 0.000000 0.000000 0.000000 18.788101 18.788101 18.788101 18.788101 18.788101 18.788101 18.788101 18.788101 18.788101 18.788101 0.000000 0.000000 0.000000 0.000000 0.000000 0.000000
0.000000 0.000000 0.000000 0.000000 17.395263 17.395263 17.395263 17.395263 17.395263 17.395263 17.395263 17.395263 0.000000 0.000000 0.000000 0.000000 0.000000 22.329545 22.329545 22.329545 22.329545 22.329545 22.329545 22.329545 22.329545 22.329545 22.329545 0.000000 0.000000 0.000000 0.000000 0.000000 0.000000 0.000000 0.000000 0.000000 0.000000 0.000000 0.000000 0.000000 0.000000 0.000000 0.000000 0.000000 0.000000 0.000000 0.000000 18.144082 18.144082 18.144082 18.144082 18.144082 18.144082 18.144082 18.144082 0.000000 0.000000 0.000000 0.000000 0.000000 0.000000 0.000000 14.208455 14.208455 14.208455 14.208455 14.208455 14.208455 0.000000 0.000000 0.000000 0.000000 0.000000 0.000000 0.000000 0.000000 0.000000 0.000000 0.000000 0.000000 0.000000 0.000000 0.000000 0.000000 0.000000 0.000000 0.000000 18.788101 18.788101 18.788101 18.788101 18.788101 18.788101 18.788101 18.788101 18.788101 18.788101 0.000000 0.000000 0.000000 0.000000 0.000000 0.000000
0.000000 0.000000 0.000000 0.000000 17.395263 17.395263 17.395263 17.395263 17.395263 17.395263 17.395263 17.395263 0.000000 0.000000 0.000000 0.000000 0.000000 22.329545 22.329545 22.329545 22.329545 22.329545 22.329545 22.329545 22.329545 22.329545 22.329545 0.000000 0.000000 0.000000 0.000000 0.000000 0.000000 0.000000 0.000000 0.000000 0.000000 0.000000 0.000000 0.000000 0.000000 0.000000 0.000000 0.000000 0.000000 0.000000 0.000000 18.144082 18.144082 18.144082 18.144082 18.144082 18.144082 18.144082 18.144082 0.000000 0.000000 0.000000 0.000000 0.000000 0.000000 0.000000 14.208455 14.208455 14.208455 14.208455 14.208455 14.208455 0.000000 0.000000 0.000000 0.000000 0.000000 0.000000 0.000000 0.000000 0.000000 0.000000 0.000000 0.000000 0.000000 0.000000 0.000000 0.000000 0.000000 0.000000 0.000000 18.788101 18.788101 18.788101 18.788101 18.788101 18.788101 18.788101 18.788101 18.788101 18.788101 0.000000 0.000000 0.000000 0.000000 0.000000 0.000000
0.000000 0.000000 0.000000 0.000000 17.395263 17.395263 17.395263 17.395263 17.395263 17.395263 17.395263 17.395263 0.000000 0.000000 0.000000 0.000000 0.000000 22.329545 22.329545 22.329545 22.329545 22.329545 22.329545 22.329545 22.329545 22.329545 22.329545 0.000000 0.000000 0.000000 0.000000 0.000000 0.000000 0.000000 0.000000 0.000000 0.000000 0.000000 0.000000 0.000000 0.000000 0.000000 0.000000 0.000000 0.000000 0.000000 0.000000 18.144082 18.144082 18.144082 18.144082 18.144082 18.144082 18.144082 18.144082 0.000000 0.000000 0.000000 0.000000 0.000000 0.000000 0.000000 14.208455 14.208455 14.208455 14.208455 14.208455 14.208455 0.000000 0.000000 0.000000 0.000000 0.000000 0.000000 0.000000 0.000000 0.000000 0.000000 0.000000 0.000000 0.000000 0.000000 0.000000 0.000000 0.000000 0.000000 0.000000 18.788101 18.788101 18.788101 18.788101 18.788101 18.788101 18.788101 18.788101 18.788101 18.788101 0.000000 0.000000 0.000000 0.000000 0.000000 0.000000
0.000000 0.000000 0.000000 0.000000 17.395263 17.395263 17.395263 17.395263 17.395263 17.395263 17.395263 17.395263 0.000000 0.000000 0.000000 0.000000 0.000000 22.329545 22.329545 22.329545 22.329545 22.329545 22.329545 22.329545 22.329545 22.329545 22.329545 0.000000 0.000000 0.000000 0.000000 0.000000 0.000000 0.000000 0.000000 0.000000 0.000000 0.000000 0.000000 0.000000 0.000000 0.000000 0.000000 0.000000 0.000000 0.000000 0.000000 18.144082 18.144082 18.144082 18.144082 18.144082 18.144082 18.144082 18.144082 0.000000 0.000000 0.000000 0.000000 0.000000 0.000000 0.000000 14.208455 14.208455 14.208455 14.208455 14.208455 14.208455 0.000000 0.000000 0.000000 0.000000 0.000000 0.000000 0.000000 0.000000 0.000000 0.000000 0.000000 0.000000 0.000000 0.000000 0.000000 0.000000 0.000000 0.000000 0.000000 18.788101 18.788101 18.788101 18.788101 18.788101 18.788101 18.788101 18.788101 18.788101 18.788101 0.000000 0.000000 0.000000 0.000000 0.000000 0.000000
0.000000 0.000000 0.000000 0.000000 17.395263 17.395263 17.395263 17.395263 17.395263 17.395263 17.395263 17.395263 0.000000 0.000000 0.000000 0.000000 0.000000 22.329545 22.329545 22.329545 22.329545 22.329545 22.329545 22.329545 22.329545 22.329545 22.329545 0.000000 0.000000 0.000000 0.000000 0.000000 0.000000 0.000000 0.000000 0.000000 0.000000 0.000000 0.000000 0.000000 0.000000 0.000000 0.000000 0.000000 0.000000 0.000000 0.000000 18.144082 18.144082 18.144082 18.144082 18.144082 18.144082 18.144082 18.144082 0.000000 0.000000 0.000000 0.000000 0.000000 0.000000 0.000000 14.208455 14.208455 14.208455 14.208455 14.208455 14.208455 0.000000 0.000000 0.000000 0.000000 0.000000 0.000000 0.000000 0.000000 0.000000 0.000000 0.000000 0.000000 0.000000 0.000000 0.000000 0.000000 0.000000 0.000000 0.000000 18.788101 18.788101 18.788101 18.788101 18.788101 18.788101 18.788101 18.788101 18.788101 18.788101 0.000000 0.000000 0.000000 0.000000 0.000000 0.000000
0.000000 0.000000 0.000000 0.000000 17.395263 17.395263 17.395263 17.395263 17.395263 17.395263 17.395263 17.395263 0.000000 0.000000 0.000000 0.000000 0.000000 22.329545 22.329545 22.329545 22.329545 22.329545 22.329545 22.329545 22.329545 22.329545 22.329545 0.000000 0.000000 0.000000 0.000000 0.000000 0.000000 0.000000 0.000000 0.000000 0.000000 0.000000 0.000000 0.000000 0.000000 0.000000 0.000000 0.000000 0.000000 0.000000 0.000000 18.144082 18.144082 18.144082 18.144082 18.144082 18.144082 18.144082 18.144082 0.000000 0.000000 0.000000 0.000000 0.000000 0.000000 0.000000 14.208455 14.208455 14.208455 14.208455 14.208455 14.208455 0.000000 0.000000 0.000000 0.000000 0.000000 0.000000 0.000000 0.000000 0.000000 0.000000 0.000000 0.000000 0.000000 0.000000 0.000000 0.000000 0.000000 0.000000 0.000000 18.788101 18.788101 18.788101 18.788101 18.788101 18.788101 18.788101 18.788101 18.788101 18.788101 0.000000 0.000000 0.000000 0.000000 0.000000 0.000000
0.000000 0.000000 0.000000 0.000000 17.395263 17.395263 17.395263 17.395263 17.395263 17.395263 17.395263 17.395263 0.000000 0.000000 0.000000 0.000000 0.000000 22.329545 22.329545 22.329545 22.329545 22.329545 22.329545 22.329545 22.329545 22.329545 22.329545 0.000000 0.000000 0.000000 0.000000 0.000000 0.000000 0.000000 0.000000 0.000000 0.000000 0.000000 0.000000 0.000000 0.000000 0.000000 0.000000 0.000000 0.000000 0.000000 0.000000 18.144082 18.144082 18.144082 18.144082 18.144082 18.144082 18.144082 18.144082 0.000000 0.000000 0.000000 0.000000 0.000000 0.000000 0.000000 0.000000 0.000000 0.000000 0.000000 0.000000 0.000000 0.000000 0.000000 0.000000 0.000000 0.000000 0.000000 0.000000 0.000000 0.000000 0.000000 0.000000 0.000000 0.000000 0.000000 0.000000 0.000000 0.000000 0.000000 0.000000 0.000000 0.000000 0.000000 0.000000 0.000000 0.000000 0.000000 0.000000 0.000000 0.000000 0.000000 0.000000 0.000000 0.000000 0.000000 0.000000
0.000000 0.000000 0.000000 0.000000 0.000000 0.000000 0.000000 0.000000 0.000000 0.000000 0.000000 0.000000 0.000000 0.000000 0.000000 0.000000 0.000000 0.000000 0.000000 0.000000 0.000000 0.000000 0.000000 0.000000 0.000000 0.000000 0.000000 0.000000 0.000000 0.000000 0.000000 0.000000 0.000000 0.000000 0.000000 0.000000 0.000000 0.000000 0.000000 0.000000 0.000000 0.000000 0.000000 0.000000 0.000000 0.000000 0.000000 0.000000 0.000000 0.000000 0.000000 0.000000 0.000000 0.000000 0.000000 0.000000 0.000000 0.000000 0.000000 0.000000 0.000000 0.000000 0.000000 0.000000 0.000000 0.000000 0.000000 0.000000 0.000000 0.000000 0.000000 0.000000 0.000000 0.000000 0.000000 0.000000 0.000000 0.000000 0.000000 0.000000 0.000000 0.000000 0.000000 0.000000 0.000000 0.000000 0.000000 0.000000 0.000000 0.000000 0.000000 0.000000 0.000000 0.000000 0.000000 0.000000 0.000000 0.000000 0.000000 0.000000 0.000000 0.000000 0.000000
0.000000 0.000000 0.000000 0.000000 0.000000 0.000000 0.000000 0.000000 0.000000 0.000000 0.000000 0.000000 0.000000 0.000000 0.000000 0.000000 0.000000 0.000000 0.000000 0.000000 0.000000 0.000000 0.000000 0.000000 0.000000 0.000000 0.000000 0.000000 0.000000 0.000000 0.000000 0.000000 0.000000 0.000000 0.000000 0.000000 0.000000 0.000000 0.000000 0.000000 0.000000 0.000000 0.000000 0.000000 0.000000 0.000000 0.000000 0.000000 0.000000 0.000000 0.000000 0.000000 0.000000 0.000000 0.000000 0.000000 0.000000 0.000000 0.000000 0.000000 0.000000 0.000000 0.000000 0.000000 0.000000 0.000000 0.000000 0.000000 0.000000 0.000000 0.000000 0.000000 0.000000 0.000000 0.000000 0.000000 0.000000 0.000000 0.000000 0.000000 0.000000 0.000000 0.000000 0.000000 0.000000 0.000000 0.000000 0.000000 0.000000 0.000000 0.000000 0.000000 0.000000 0.000000 0.000000 0.000000 0.000000 0.000000 0.000000 0.000000 0.000000 0.000000 0.000000
0.000000 0.000000 0.000000 0.000000 0.000000 0.000000 0.000000 0.000000 0.000000 0.000000 0.000000 0.000000 0.000000 0.000000 0.000000 0.000000 0.000000 0.000000 0.000000 0.000000 0.000000 0.000000 0.000000 0.000000 0.000000 0.000000 0.000000 0.000000 0.000000 0.000000 0.000000 0.000000 0.000000 0.000000 0.000000 0.000000 0.000000 0.000000 0.000000 0.000000 0.000000 0.000000 0.000000 0.000000 0.000000 0.000000 0.000000 0.000000 0.000000 0.000000 0.000000 0.000000 0.000000 0.000000 0.000000 0.000000 0.000000 0.000000 0.000000 0.000000 0.000000 0.000000 0.000000 0.000000 0.000000 0.000000 0.000000 0.000000 0.000000 0.000000 0.000000 0.000000 0.000000 0.000000 0.000000 0.000000 0.000000 0.000000 0.000000 0.000000 0.000000 0.000000 0.000000 0.000000 0.000000 0.000000 0.000000 0.000000 0.000000 0.000000 0.000000 0.000000 0.000000 0.000000 0.000000 0.000000 0.000000 0.000000 0.000000 0.000000 0.000000 0.000000 0.000000
0.000000 0.000000 0.000000 0.000000 0.000000 0.000000 0.000000 0.000000 0.000000 0.000000 0.000000 0.000000 0.000000 0.000000 0.000000 0.000000 0.000000 0.000000 0.000000 0.000000 0.000000 0.000000 0.000000 0.000000 0.000000 0.000000 0.000000 0.000000 0.000000 0.000000 0.000000 0.000000 0.000000 0.000000 0.000000 0.000000 0.000000 0.000000 0.000000 0.000000 0.000000 0.000000 0.000000 0.000000 0.000000 0.000000 0.000000 0.000000 0.000000 0.000000 0.000000 0.000000 0.000000 0.000000 0.000000 0.000000 0.000000 0.000000 0.000000 0.000000 0.000000 0.000000 0.000000 0.000000 0.000000 0.000000 0.000000 0.000000 0.000000 0.000000 0.000000 0.000000 0.000000 0.000000 0.000000 0.000000 0.000000 0.000000 0.000000 0.000000 0.000000 0.000000 0.000000 0.000000 0.000000 0.000000 0.000000 0.000000 0.000000 0.000000 0.000000 0.000000 0.000000 0.000000 0.000000 0.000000 0.000000 0.000000 0.000000 0.000000 0.000000 0.000000 0.000000
0.000000 0.000000 0.000000 0.000000 0.000000 0.000000 0.000000 0.000000 0.000000 0.000000 0.000000 0.000000 0.000000 0.000000 0.000000 0.000000 0.000000 0.000000 0.000000 0.000000 0.000000 0.000000 0.000000 0.000000 0.000000 0.000000 0.000000 0.000000 0.000000 0.000000 0.000000 0.000000 0.000000 0.000000 0.000000 0.000000 0.000000 0.000000 0.000000 0.000000 0.000000 0.000000 0.000000 0.000000 0.000000 0.000000 0.000000 0.000000 0.000000 0.000000 0.000000 0.000000 0.000000 0.000000 0.000000 0.000000 0.000000 0.000000 0.000000 0.000000 0.000000 0.000000 0.000000 0.000000 0.000000 0.000000 0.000000 0.000000 0.000000 0.000000 0.000000 0.000000 0.000000 0.000000 0.000000 0.000000 0.000000 0.000000 0.000000 0.000000 0.000000 0.000000 0.000000 0.000000 0.000000 0.000000 0.000000 0.000000 0.000000 0.000000 0.000000 0.000000 0.000000 0.000000 0.000000 0.000000 0.000000 0.000000 0.000000 0.000000 0.000000 0.000000 0.000000
0.000000 0.000000 0.000000 0.000000 0.000000 0.000000 0.000000 0.000000 0.000000 0.000000 0.000000 0.000000 0.000000 0.000000 0.000000 0.000000 0.000000 0.000000 0.000000 0.000000 0.000000 0.000000 0.000000 0.000000 0.000000 0.000000 0.000000 0.000000 0.000000 0.000000 0.000000 0.000000 0.000000 0.000000 0.000000 0.000000 0.000000 0.000000 0.000000 13.098277 13.098277 13.098277 13.098277 13.098277 13.098277 0.000000 0.000000 0.000000 0.000000 0.000000 0.000000 0.000000 0.000000 0.000000 0.000000 0.000000 0.000000 0.000000 0.000000 0.000000 0.000000 0.000000 0.000000 0.000000 0.000000 0.000000 0.000000 0.000000 0.000000 0.000000 0.000000 0.000000 0.000000 0.000000 0.000000 0.000000 0.000000 0.000000 0.000000 0.000000 0.000000 0.000000 0.000000 0.000000 0.000000 14.228539 14.228539 14.228539 14.228539 14.228539 14.228539 14.228539 13.719192 13.719192 13.719192 13.719192 13.719192 13.719192 13.719192 0.000000 0.000000 0.000000 0.000000
0.000000 0.000000 0.000000 0.000000 0.000000 0.000000 0.000000 0.000000 0.000000 0.000000 0.000000 0.000000 0.000000 0.000000 0.000000 0.000000 0.000000 0.000000 0.000000 0.000000 0.000000 0.000000 0.000000 0.000000 0.000000 0.000000 0.000000 0.000000 0.000000 0.000000 0.000000 0.000000 0.000000 0.000000 0.000000 0.000000 0.000000 0.000000 0.000000 13.098277 13.098277 13.098277 13.098277 13.098277 13.098277 0.000000 0.000000 0.000000 0.000000 0.000000 0.000000 0.000000 0.000000 0.000000 0.000000 0.000000 0.000000 0.000000 0.000000 0.000000 0.000000 0.000000 0.000000 0.000000 0.000000 0.000000 0.000000 0.000000 0.000000 0.000000 0.000000 0.000000 0.000000 0.000000 0.000000 0.000000 0.000000 0.000000 0.000000 0.000000 0.000000 0.000000 0.000000 0.000000 0.000000 14.228539 14.228539 14.228539 14.228539 14.228539 14.228539 14.228539 13.719192 13.719192 13.719192 13.719192 13.719192 13.719192 13.719192 0.000000 0.000000 0.000000 0.000000
0.000000 0.000000 0.000000 0.000000 0.000000 0.000000 8.153455 8.153455 8.153455 8.153455 8.153455 0.000000 0.000000 0.000000 0.000000 0.000000 0.000000 0.000000 0.000000 9.605411 9.605411 9.605411 9.605411 9.605411 9.605411 9.605411 9.605411 9.605411 0.000000 0.000000 0.000000 6.149749 6.149749 6.149749 6.149749 6.149749 6.149749 0.000000 0.000000 13.098277 13.098277 13.098277 13.098277 13.098277 13.098277 0.000000 0.000000 0.000000 0.000000 0.000000 0.000000 0.000000 0.000000 0.000000 0.000000 0.000000 0.000000 0.000000 0.000000 0.000000 0.000000 0.000000 0.000000 0.000000 0.000000 0.000000 0.000000 0.000000 0.000000 0.000000 0.000000 0.000000 12.163691 12.163691 12.163691 12.163691 12.163691 12.163691 0.000000 0.000000 0.000000 0.000000 0.000000 0.000000 0.000000 14.228539 14.228539 14.228539 14.228539 14.228539 14.228539 14.228539 13.719192 13.719192 13.719192 13.719192 13.719192 13.719192 13.719192 0.000000 0.000000 0.000000 0.000000
0.000000 0.000000 0.000000 0.000000 0.000000 0.000000 8.153455 8.153455 8.153455 8.153455 8.153455 0.000000 0.000000 0.000000 0.000000 0.000000 0.000000 0.000000 0.000000 9.605411 9.605411 9.605411 9.605411 9.605411 9.605411 9.605411 9.605411 9.605411 0.000000 0.000000 0.000000 6.149749 6.149749 6.149749 6.149749 6.149749 6.149749 0.000000 0.000000 13.098277 13.098277 13.098277 13.098277 13.098277 13.098277 0.000000 0.000000 0.000000 0.000000 0.000000 0.000000 0.000000 0.000000 0.000000 0.000000 0.000000 0.000000 0.000000 0.000000 0.000000 0.000000 0.000000 0.000000 0.000000 0.000000 0.000000 0.000000 0.000000 0.000000 0.000000 0.000000 0.000000 12.163691 12.163691 12.163691 12.163691 12.163691 12.163691 0.000000 0.000000 0.000000 0.000000 0.000000 0.000000 0.000000 14.228539 14.228539 14.228539 14.228539 14.228539 14.228539 14.228539 13.719192 13.719192 13.719192 13.719192 13.719192 13.719192 13.719192 0.000000 0.000000 0.000000 0.000000
0.000000 0.000000 0.000000 0.000000 0.000000 0.000000 8.153455 8.153455 8.153455 8.153455 8.153455 0.000000 0.000000 0.000000 0.000000 0.000000 0.000000 0.000000 0.000000 9.605411 9.605411 9.605411 9.605411 9.605411 9.605411 9.605411 9.605411 9.605411 0.000000 0.000000 0.000000 6.149749 6.149749 6.149749 6.149749 6.149749 6.149749 0.000000 0.000000 13.098277 13.098277 13.098277 13.098277 13.098277 13.098277 0.000000 0.000000 0.000000 0.000000 0.000000 0.000000 0.000000 0.000000 0.000000 0.000000 0.000000 0.000000 0.000000 0.000000 0.000000 0.000000 0.000000 0.000000 0.000000 0.000000 0.000000 0.000000 0.000000 0.000000 0.000000 0.000000 0.000000 12.163691 12.163691 12.163691 12.163691 12.163691 12.163691 0.000000 0.000000 0.000000 0.000000 0.000000 0.000000 0.000000 14.228539 14.228539 14.228539 14.228539 14.228539 14.228539 14.228539 13.719192 13.719192 13.719192 13.719192 13.719192 13.719192 13.719192 0.000000 0.000000 0.000000 0.000000
0.000000 0.000000 0.000000 0.000000 0.000000 0.000000 8.153455 8.153455 8.153455 8.153455 8.153455 0.000000 0.000000 0.000000 0.000000 0.000000 0.000000 0.000000 0.000000 9.605411 9.605411 9.605411 9.605411 9.605411 9.605411 9.605411 9.605411 9.605411 0.000000 0.000000 0.000000 6.149749 6.149749 6.149749 6.149749 6.149749 6.149749 0.000000 0.000000 13.098277 13.098277 13.098277 13.098277 13.098277 13.098277 0.000000 0.000000 0.000000 0.000000 0.000000 0.000000 0.000000 0.000000 0.000000 0.000000 0.000000 0.000000 0.000000 0.000000 0.000000 0.000000 0.000000 0.000000 0.000000 0.000000 0.000000 0.000000 0.000000 0.000000 0.000000 0.000000 0.000000 12.163691 12.163691 12.163691 12.163691 12.163691 12.163691 0.000000 0.000000 0.000000 0.000000 0.000000 0.000000 0.000000 14.228539 14.228539 14.228539 14.228539 14.228539 14.228539 14.228539 13.719192 13.719192 13.719192 13.719192 13.719192 13.719192 13.719192 0.000000 0.000000 0.000000 0.000000
0.000000 0.000000 0.000000 0.000000 0.000000 0.000000 8.153455 8.153455 8.153455 8.153455 8.153455 0.000000 0.000000 0.000000 0.000000 0.000000 0.000000 0.000000 0.000000 9.605411 9.605411 9.605411 9.605411 9.605411 9.605411 9.605411 9.605411 9.605411 0.000000 0.000000 0.000000 6.149749 6.149749 6.149749 6.149749 6.149749 6.149749 0.000000 0.000000 13.098277 13.098277 13.098277 13.098277 13.098277 13.098277 0.000000 0.000000 0.000000 0.000000 0.000000 0.000000 0.000000 0.000000 0.000000 0.000000 0.000000 0.000000 0.000000 0.000000 0.000000 0.000000 0.000000 0.000000 0.000000 0.000000 0.000000 0.000000 0.000000 0.000000 0.000000 0.000000 0.000000 12.163691 12.163691 12.163691 12.163691 12.163691 12.163691 0.000000 0.000000 0.000000 0.000000 0.000000 0.000000 0.000000 14.228539 14.228539 14.228539 14.228539 14.228539 14.228539 14.228539 13.719192 13.719192 13.719192 13.719192 13.719192 13.719192 13.719192 0.000000 0.000000 0.000000 0.000000
0.000000 0.000000 0.000000 0.000000 0.000000 0.000000 8.153455 8.153455 8.153455 8.153455 8.153455 0.000000 0.000000 0.000000 0.000000 0.000000 0.000000 0.000000 0.000000 0.000000 0.000000 0.000000 0.000000 0.000000 0.000000 0.000000 0.000000 0.000000 0.000000 0.000000 0.000000 0.000000 0.000000 0.000000 0.000000 0.000000 0.000000 0.000000 0.000000 13.098277 13.098277 13.098277 13.098277 13.098277 13.098277 0.000000 0.000000 0.000000 0.000000 0.000000 0.000000 0.000000 0.000000 0.000000 0.000000 0.000000 0.000000 0.000000 0.000000 0.000000 0.000000 0.000000 0.000000 0.000000 0.000000 0.000000 0.000000 0.000000 0.000000 0.000000 0.000000 0.000000 12.163691 12.163691 12.163691 12.163691 12.163691 12.163691 0.000000 0.000000 0.000000 0.000000 0.000000 0.000000 0.000000 14.228539 14.228539 14.228539 14.228539 14.228539 14.228539 14.228539 13.719192 13.719192 13.719192 13.719192 13.719192 13.719192 13.719192 0.000000 0.000000 0.000000 0.000000
0.000000 0.000000 0.000000 0.000000 0.000000 0.000000 8.153455 8.153455 8.153455 8.153455 8.153455 0.000000 0.000000 0.000000 0.000000 0.000000 0.000000 0.000000 0.000000 0.000000 0.000000 0.000000 0.000000 0.000000 0.000000 0.000000 0.000000 0.000000 0.000000 0.000000 0.000000 0.000000 0.000000 0.000000 0.000000 0.000000 0.000000 0.000000 0.000000 13.098277 13.098277 13.098277 13.098277 13.098277 13.098277 0.000000 0.000000 0.000000 0.000000 0.000000 0.000000 0.000000 0.000000 0.000000 0.000000 0.000000 0.000000 0.000000 0.000000 0.000000 0.000000 0.000000 0.000000 0.000000 0.000000 0.000000 0.000000 0.000000 0.000000 0.000000 0.000000 0.000000 12.163691 12.163691 12.163691 12.163691 12.163691 12.163691 0.000000 0.000000 0.000000 0.000000 0.000000 0.000000 0.000000 14.228539 14.228539 14.228539 14.228539 14.228539 14.228539 14.228539 13.719192 13.719192 13.719192 13.719192 13.719192 13.719192 13.719192 0.000000 0.000000 0.000000 0.000000
0.000000 0.000000 0.000000 0.000000 0.000000 0.000000 8.153455 8.153455 8.153455 8.153455 8.153455 0.000000 0.000000 0.000000 0.000000 0.000000 0.000000 0.000000 0.000000 0.000000 0.000000 0.000000 0.000000 0.000000 0.000000 0.000000 0.000000 0.000000 0.000000 0.000000 0.000000 0.000000 0.000000 0.000000 0.000000 0.000000 0.000000 0.000000 0.000000 0.000000 0.000000 0.000000 0.000000 0.000000 0.000000 0.000000 0.000000 0.000000 0.000000 0.000000 0.000000 0.000000 0.000000 0.000000 0.000000 0.000000 0.000000 0.000000 0.000000 0.000000 0.000000 0.000000 0.000000 0.000000 0.000000 0.000000 0.000000 0.000000 0.000000 0.000000 0.000000 0.000000 12.163691 12.163691 12.163691 12.163691 12.163691 12.163691 0.000000 0.000000 0.000000 0.000000 0.000000 0.000000 0.000000 11.975328 11.975328 11.975328 11.975328 11.975328 11.975328 11.975328 0.000000 0.000000 0.000000 0.000000 0.000000 0.000000 0.000000 0.000000 0.000000 0.000000 0.000000
0.000000 0.000000 0.000000 0.000000 0.000000 0.000000 0.000000 0.000000 0.000000 0.000000 0.000000 0.000000 0.000000 0.000000 0.000000 0.000000 0.000000 0.000000 0.000000 0.000000 0.000000 0.000000 0.000000 0.000000 0.000000 0.000000 0.000000 0.000000 0.000000 0.000000 0.000000 0.000000 0.000000 0.000000 0.000000 0.000000 0.000000 0.000000 0.000000 0.000000 0.000000 0.000000 0.000000 0.000000 0.000000 0.000000 0.000000 0.000000 0.000000 0.000000 0.000000 0.000000 0.000000 0.000000 0.000000 0.000000 0.000000 0.000000 0.000000 0.000000 0.000000 0.000000 0.000000 0.000000 0.000000 0.000000 0.000000 0.000000 0.000000 0.000000 0.000000 0.000000 0.000000 0.000000 0.000000 0.000000 0.000000 0.000000 0.000000 0.000000 0.000000 0.000000 0.000000 0.000000 0.000000 11.975328 11.975328 11.975328 11.975328 11.975328 11.975328 11.975328 0.000000 0.000000 0.000000 0.000000 0.000000 0.000000 0.000000 0.000000 0.000000 0.000000 0.000000
0.000000 0.000000 0.000000 0.000000 0.000000 0.000000 0.000000 0.000000 0.000000 0.000000 0.000000 0.000000 0.000000 0.000000 0.000000 0.000000 0.000000 0.000000 0.000000 0.000000 0.000000 0.000000 0.000000 0.000000 0.000000 0.000000 0.000000 0.000000 0.000000 0.000000 0.000000 3.939017 3.939017 3.939017 3.939017 3.939017 3.939017 0.000000 0.000000 0.000000 0.000000 9.189138 9.189138 9.189138 9.189138 9.189138 9.189138 9.189138 9.189138 9.189138 9.189138 9.189138 9.189138 0.000000 0.000000 0.000000 0.000000 0.000000 0.000000 0.000000 0.000000 0.000000 0.000000 0.000000 0.000000 0.000000 0.000000 0.000000 0.000000 0.000000 0.000000 0.000000 0.000000 0.000000 0.000000 0.000000 0.000000 0.000000 0.000000 0.000000 0.000000 0.000000 0.000000 0.000000 0.000000 11.975328 11.975328 11.975328 11.975328 11.975328 11.975328 11.975328 0.000000 0.000000 0.000000 0.000000 0.000000 0.000000 0.000000 0.000000 0.000000 0.000000 0.000000
0.000000 0.000000 0.000000 0.000000 0.000000 0.000000 0.000000 0.000000 0.000000 0.000000 0.000000 0.000000 0.000000 0.000000 0.000000 0.000000 0.000000 0.000000 0.000000 0.000000 0.000000 0.000000 0.000000 0.000000 0.000000 0.000000 0.000000 0.000000 0.000000 0.000000 0.000000 3.939017 3.939017 3.939017 3.939017 3.939017 3.939017 0.000000 0.000000 0.000000 0.000000 9.189138 9.189138 9.189138 9.189138 9.189138 9.189138 9.189138 9.189138 9.189138 9.189138 9.189138 9.189138 0.000000 0.000000 0.000000 0.000000 0.000000 0.000000 0.000000 0.000000 0.000000 0.000000 0.000000 0.000000 0.000000 0.000000 0.000000 0.000000 0.000000 0.000000 0.000000 0.000000 0.000000 0.000000 0.000000 0.000000 0.000000 0.000000 0.000000 0.000000 0.000000 0.000000 0.000000 0.000000 11.975328 11.975328 11.975328 11.975328 11.975328 11.975328 11.975328 0.000000 0.000000 0.000000 0.000000 0.000000 0.000000 0.000000 0.000000 0.000000 0.000000 0.000000
0.000000 0.000000 0.000000 0.000000 0.000000 0.000000 0.000000 0.000000 0.000000 0.000000 0.000000 0.000000 0.000000 0.000000 0.000000 0.000000 0.000000 0.000000 0.000000 0.000000 0.000000 0.000000 0.000000 0.000000 0.000000 0.000000 0.000000 0.000000 0.000000 0.000000 0.000000 3.939017 3.939017 3.939017 3.939017 3.939017 3.939017 0.000000 0.000000 0.000000 0.000000 9.189138 9.189138 9.189138 9.189138 9.189138 9.189138 9.189138 9.189138 9.189138 9.189138 9.189138 9.189138 0.000000 0.000000 0.000000 0.000000 0.000000 0.000000 0.000000 0.000000 0.000000 0.000000 0.000000 0.000000 0.000000 0.000000 0.000000 0.000000 0.000000 0.000000 0.000000 0.000000 0.000000 0.000000 0.000000 0.000000 0.000000 0.000000 0.000000 0.000000 0.000000 0.000000 0.000000 0.000000 11.975328 11.975328 11.975328 11.975328 11.975328 11.975328 11.975328 0.000000 0.000000 0.000000 0.000000 0.000000 0.000000 0.000000 0.000000 0.000000 0.000000 0.000000
0.000000 0.000000 0.000000 0.000000 0.000000 0.000000 7.130990 7.130990 7.130990 7.130990 7.130990 0.000000 0.000000 0.000000 0.000000 0.000000 0.000000 0.000000 0.000000 0.000000 0.000000 0.000000 0.000000 0.000000 0.000000 0.000000 0.000000 0.000000 0.000000 0.000000 0.000000 0.000000 0.000000 0.000000 0.000000 0.000000 0.000000 0.000000 0.000000 0.000000 0.000000 0.000000 0.000000 0.000000 0.000000 0.000000 0.000000 0.000000 0.000000 0.000000 0.000000 0.000000 0.000000 0.000000 0.000000 0.000000 0.000000 0.000000 0.000000 0.000000 0.000000 0.000000 10.042421 10.042421 10.042421 10.042421 10.042421 10.042421 0.000000 0.000000 0.000000 0.000000 10.192569 10.192569 10.192569 10.192569 10.192569 10.192569 0.000000 0.000000 0.000000 0.000000 0.000000 0.000000 0.000000 11.975328 11.975328 11.975328 11.975328 11.975328 11.975328 11.975328 0.000000 0.000000 0.000000 0.000000 0.000000 0.000000 0.000000 0.000000 0.000000 0.000000 0.000000
0.000000 0.000000 0.000000 0.000000 0.000000 0.000000 7.130990 7.130990 7.130990 7.130990 7.130990 0.000000 0.000000 0.000000 0.000000 0.000000 0.000000 0.000000 0.000000 0.000000 0.000000 0.000000 0.000000 0.000000 0.000000 0.000000 0.000000 0.000000 0.000000 0.000000 0.000000 0.000000 0.000000 0.000000 0.000000 0.000000 0.000000 0.000000 0.000000 0.000000 0.000000 0.000000 0.000000 0.000000 0.000000 0.000000 0.000000 0.000000 0.000000 0.000000 0.000000 0.000000 0.000000 0.000000 0.000000 0.000000 0.000000 0.000000 0.000000 0.000000 0.000000 0.000000 10.042421 10.042421 10.042421 10.042421 10.042421 10.042421 0.000000 0.000000 0.000000 0.000000 10.192569 10.192569 10.192569 10.192569 10.192569 10.192569 0.000000 0.000000 0.000000 0.000000 0.000000 0.000000 0.000000 11.975328 11.975328 11.975328 11.975328 11.975328 11.975328 11.975328 0.000000 0.000000 0.000000 0.000000 0.000000 0.000000 0.000000 0.000000 0.000000 0.000000 0.000000
0.000000 0.000000 0.000000 0.000000 0.000000 0.000000 7.130990 7.130990 7.130990 7.130990 7.130990 0.000000 0.000000 0.000000 0.000000 0.000000 0.000000 0.000000 0.000000 0.000000 0.000000 0.000000 0.000000 0.000000 0.000000 0.000000 0.000000 0.000000 0.000000 0.000000 0.000000 0.000000 0.000000 0.000000 0.000000 0.000000 0.000000 0.000000 0.000000 0.000000 0.000000 0.000000 0.000000 0.000000 0.000000 0.000000 0.000000 0.000000 0.000000 0.000000 0.000000 0.000000 0.000000 0.000000 0.000000 0.000000 0.000000 0.000000 0.000000 0.000000 0.000000 0.000000 10.042421 10.042421 10.042421 10.042421 10.042421 10.042421 0.000000 0.000000 0.000000 0.000000 10.192569 10.192569 10.192569 10.192569 10.192569 10.192569 0.000000 0.000000 0.000000 0.000000 0.000000 0.000000 0.000000 11.123870 11.123870 11.123870 11.123870 11.123870 11.123870 11.123870 10.725662 10.725662 10.725662 10.725662 10.725662 10.725662 10.725662 0.000000 0.000000 0.000000 0.000000
0.000000 0.000000 0.000000 0.000000 0.000000 0.000000 7.130990 7.130990 7.130990 7.130990 7.130990 0.000000 0.000000 0.000000 0.000000 0.000000 0.000000 0.000000 0.000000 0.000000 0.000000 0.000000 0.000000 0.000000 0.000000 0.000000 0.000000 0.000000 0.000000 0.000000 0.000000 0.000000 0.000000 0.000000 0.000000 0.000000 0.000000 0.000000 0.000000 0.000000 0.000000 0.000000 0.000000 0.000000 0.000000 0.000000 0.000000 0.000000 0.000000 0.000000 0.000000 0.000000 0.000000 0.000000 0.000000 0.000000 0.000000 0.000000 0.000000 0.000000 0.000000 0.000000 10.042421 10.042421 10.042421 10.042421 10.042421 10.042421 0.000000 0.000000 0.000000 0.000000 10.192569 10.192569 10.192569 10.192569 10.192569 10.192569 0.000000 0.000000 0.000000 0.000000 0.000000 0.000000 0.000000 11.123870 11.123870 11.123870 11.123870 11.123870 11.123870 11.123870 10.725662 10.725662 10.725662 10.725662 10.725662 10.725662 10.725662 0.000000 0.000000 0.000000 0.000000
0.000000 0.000000 0.000000 0.000000 0.000000 0.000000 7.130990 7.130990 7.130990 7.130990 7.130990 0.000000 0.000000 0.000000 0.000000 0.000000 0.000000 0.000000 0.000000 0.000000 0.000000 0.000000 0.000000 0.000000 0.000000 0.000000 0.000000 0.000000 0.000000 0.000000 0.000000 3.471296 3.471296 3.471296 3.471296 3.471296 3.471296 0.000000 0.000000 0.000000 0.000000 0.000000 0.000000 0.000000 0.000000 0.000000 0.000000 0.000000 0.000000 0.000000 0.000000 0.000000 0.000000 0.000000 0.000000 0.000000 0.000000 0.000000 0.000000 0.000000 0.000000 0.000000 10.042421 10.042421 10.042421 10.042421 10.042421 10.042421 0.000000 0.000000 0.000000 0.000000 10.192569 10.192569 10.192569 10.192569 10.192569 10.192569 0.000000 0.000000 0.000000 0.000000 0.000000 0.000000 0.000000 11.123870 11.123870 11.123870 11.123870 11.123870 11.123870 11.123870 10.725662 10.725662 10.725662 10.725662 10.725662 10.725662 10.725662 0.000000 0.000000 0.000000 0.000000
0.000000 0.000000 0.000000 0.000000 0.000000 0.000000 7.130990 7.130990 7.130990 7.130990 7.130990 0.000000 0.000000 0.000000 0.000000 0.000000 0.000000 0.000000 0.000000 0.000000 0.000000 0.000000 0.000000 0.000000 0.000000 0.000000 0.000000 0.000000 0.000000 0.000000 0.000000 3.471296 3.471296 3.471296 3.471296 3.471296 3.471296 0.000000 0.000000 0.000000 0.000000 0.000000 0.000000 0.000000 0.000000 0.000000 0.000000 0.000000 0.000000 0.000000 0.000000 0.000000 0.000000 0.000000 0.000000 0.000000 0.000000 0.000000 0.000000 0.000000 0.000000 0.000000 10.042421 10.042421 10.042421 10.042421 10.042421 10.042421 0.000000 0.000000 0.000000 0.000000 10.192569 10.192569 10.192569 10.192569 10.192569 10.192569 0.000000 0.000000 0.000000 0.000000 0.000000 0.000000 0.000000 11.123870 11.123870 11.123870 11.123870 11.123870 11.123870 11.123870 10.725662 10.725662 10.725662 10.725662 10.725662 10.725662 10.725662 0.000000 0.000000 0.000000 0.000000
0.000000 0.000000 0.000000 0.000000 0.000000 0.000000 0.000000 0.000000 0.000000 0.000000 0.000000 0.000000 0.000000 0.000000 0.000000 0.000000 0.000000 0.000000 0.000000 0.000000 0.000000 0.000000 0.000000 0.000000 0.000000 0.000000 0.000000 0.000000 0.000000 0.000000 0.000000 0.000000 0.000000 0.000000 0.000000 0.000000 0.000000 0.000000 0.000000 0.000000 0.000000 0.000000 0.000000 0.000000 0.000000 0.000000 0.000000 0.000000 0.000000 0.000000 0.000000 0.000000 0.000000 0.000000 0.000000 0.000000 0.000000 0.000000 0.000000 0.000000 0.000000 0.000000 0.000000 0.000000 0.000000 0.000000 0.000000 0.000000 0.000000 0.000000 0.000000 0.000000 0.000000 0.000000 0.000000 0.000000 0.000000 0.000000 0.000000 0.000000 0.000000 0.000000 0.000000 0.000000 0.000000 11.123870 11.123870 11.123870 11.123870 11.123870 11.123870 11.123870 10.725662 10.725662 10.725662 10.725662 10.725662 10.725662 10.725662 0.000000 0.000000 0.000000 0.000000
0.000000 0.000000 0.000000 0.000000 0.000000 0.000000 0.000000 0.000000 0.000000 0.000000 0.000000 0.000000 0.000000 0.000000 0.000000 0.000000 0.000000 0.000000 0.000000 0.000000 0.000000 0.000000 0.000000 0.000000 0.000000 0.000000 0.000000 0.000000 0.000000 0.000000 0.000000 0.000000 0.000000 0.000000 0.000000 0.000000 0.000000 0.000000 0.000000 0.000000 0.000000 0.000000 0.000000 0.000000 0.000000 0.000000 0.000000 0.000000 0.000000 0.000000 0.000000 0.000000 0.000000 0.000000 0.000000 0.000000 0.000000 0.000000 0.000000 0.000000 0.000000 0.000000 0.000000 0.000000 0.000000 0.000000 0.000000 0.000000 0.000000 0.000000 0.000000 0.000000 0.000000 0.000000 0.000000 0.000000 0.000000 0.000000 0.000000 0.000000 0.000000 0.000000 0.000000 0.000000 0.000000 11.123870 11.123870 11.123870 11.123870 11.123870 11.123870 11.123870 10.725662 10.725662 10.725662 10.725662 10.725662 10.725662 10.725662 0.000000 0.000000 0.000000 0.000000
0.000000 0.000000 0.000000 0.000000 0.000000 0.000000 0.000000 0.000000 0.000000 0.000000 0.000000 0.000000 0.000000 0.000000 0.000000 0.000000 0.000000 0.000000 0.000000 0.000000 0.000000 0.000000 0.000000 0.000000 0.000000 0.000000 0.000000 0.000000 0.000000 0.000000 0.000000 0.000000 0.000000 0.000000 0.000000 0.000000 0.000000 0.000000 0.000000 0.000000 0.000000 0.000000 0.000000 0.000000 0.000000 0.000000 0.000000 0.000000 0.000000 0.000000 0.000000 0.000000 0.000000 0.000000 0.000000 0.000000 0.000000 0.000000 0.000000 0.000000 0.000000 0.000000 0.000000 0.000000 0.000000 0.000000 0.000000 0.000000 0.000000 0.000000 0.000000 0.000000 0.000000 0.000000 0.000000 0.000000 0.000000 0.000000 0.000000 0.000000 0.000000 0.000000 0.000000 0.000000 0.000000 0.000000 0.000000 0.000000 0.000000 0.000000 0.000000 0.000000 0.000000 0.000000 0.000000 0.000000 0.000000 0.000000 0.000000 0.000000 0.000000 0.000000 0.000000
0.000000 0.000000 0.000000 0.000000 0.000000 0.000000 0.000000 0.000000 0.000000 0.000000 0.000000 0.000000 0.000000 0.000000 0.000000 0.000000 0.000000 0.000000 0.000000 0.000000 0.000000 0.000000 0.000000 0.000000 0.000000 0.000000 0.000000 0.000000 0.000000 0.000000 0.000000 0.000000 0.000000 0.000000 0.000000 0.000000 0.000000 0.000000 0.000000 0.000000 0.000000 0.000000 0.000000 0.000000 0.000000 0.000000 0.000000 0.000000 0.000000 0.000000 0.000000 0.000000 0.000000 0.000000 0.000000 0.000000 0.000000 0.000000 0.000000 0.000000 0.000000 0.000000 0.000000 0.000000 0.000000 0.000000 0.000000 0.000000 0.000000 0.000000 0.000000 0.000000 0.000000 0.000000 0.000000 0.000000 0.000000 0.000000 0.000000 0.000000 0.000000 0.000000 0.000000 0.000000 0.000000 0.000000 0.000000 0.000000 0.000000 0.000000 0.000000 0.000000 0.000000 0.000000 0.000000 0.000000 0.000000 0.000000 0.000000 0.000000 0.000000 0.000000 0.000000
0.000000 0.000000 0.000000 0.000000 0.000000 0.000000 0.000000 0.000000 0.000000 0.000000 0.000000 0.000000 0.000000 0.000000 0.000000 0.000000 0.000000 0.000000 0.000000 0.000000 0.000000 0.000000 0.000000 0.000000 0.000000 0.000000 0.000000 0.000000 0.000000 0.000000 0.000000 0.000000 0.000000 0.000000 0.000000 0.000000 0.000000 0.000000 0.000000 0.000000 0.000000 0.000000 0.000000 0.000000 0.000000 0.000000 0.000000 0.000000 0.000000 0.000000 0.000000 0.000000 0.000000 0.000000 0.000000 0.000000 0.000000 0.000000 0.000000 0.000000 0.000000 0.000000 0.000000 0.000000 0.000000 0.000000 0.000000 0.000000 0.000000 0.000000 0.000000 0.000000 0.000000 0.000000 0.000000 0.000000 0.000000 0.000000 0.000000 0.000000 0.000000 0.000000 0.000000 0.000000 0.000000 0.000000 0.000000 0.000000 0.000000 0.000000 0.000000 0.000000 0.000000 0.000000 0.000000 0.000000 0.000000 0.000000 0.000000 0.000000 0.000000 0.000000 0.000000
0.000000 0.000000 0.000000 0.000000 0.000000 0.000000 0.000000 0.000000 0.000000 0.000000 0.000000 0.000000 0.000000 0.000000 0.000000 0.000000 0.000000 0.000000 0.000000 0.000000 0.000000 0.000000 0.000000 0.000000 0.000000 0.000000 0.000000 0.000000 0.000000 0.000000 0.000000 0.000000 0.000000 0.000000 0.000000 0.000000 0.000000 0.000000 0.000000 0.000000 0.000000 0.000000 0.000000 0.000000 0.000000 0.000000 0.000000 0.000000 0.000000 0.000000 0.000000 0.000000 0.000000 0.000000 0.000000 0.000000 0.000000 0.000000 0.000000 0.000000 0.000000 0.000000 0.000000 0.000000 0.000000 0.000000 0.000000 0.000000 0.000000 0.000000 0.000000 0.000000 0.000000 0.000000 0.000000 0.000000 0.000000 0.000000 0.000000 0.000000 0.000000 0.000000 0.000000 0.000000 0.000000 0.000000 0.000000 0.000000 0.000000 0.000000 0.000000 0.000000 0.000000 0.000000 0.000000 0.000000 0.000000 0.000000 0.000000 0.000000 0.000000 0.000000 0.000000
0.000000 0.000000 0.000000 0.000000 0.000000 0.000000 0.000000 0.000000 0.000000 0.000000 0.000000 0.000000 0.000000 0.000000 0.000000 0.000000 0.000000 0.000000 0.000000 0.000000 0.000000 0.000000 0.000000 0.000000 0.000000 0.000000 0.000000 0.000000 0.000000 0.000000 0.000000 0.000000 0.000000 0.000000 0.000000 0.000000 0.000000 0.000000 0.000000 0.000000 0.000000 0.000000 0.000000 0.000000 0.000000 0.000000 0.000000 0.000000 0.000000 0.000000 0.000000 0.000000 0.000000 0.000000 0.000000 0.000000 0.000000 0.000000 0.000000 0.000000 0.000000 0.000000 0.000000 0.000000 0.000000 0.000000 0.000000 0.000000 0.000000 0.000000 0.000000 0.000000 0.000000 0.000000 0.000000 0.000000 0.000000 0.000000 0.000000 0.000000 0.000000 0.000000 0.000000 0.000000 0.000000 0.000000 0.000000 0.000000 0.000000 0.000000 0.000000 0.000000 0.000000 0.000000 0.000000 0.000000 0.000000 0.000000 0.000000 0.000000 0.000000 0.000000 0.000000
0.000000 0.000000 0.000000 0.000000 0.000000 0.000000 0.000000 0.000000 0.000000 0.000000 0.000000 0.000000 0.000000 0.000000 0.000000 0.000000 0.000000 0.000000 0.000000 0.000000 0.000000 0.000000 0.000000 0.000000 0.000000 0.000000 0.000000 0.000000 0.000000 0.000000 0.000000 0.000000 0.000000 0.000000 0.000000 0.000000 0.000000 0.000000 0.000000 0.000000 0.000000 0.000000 0.000000 0.000000 0.000000 0.000000 0.000000 0.000000 0.000000 0.000000 0.000000 0.000000 0.000000 0.000000 0.000000 0.000000 0.000000 0.000000 0.000000 0.000000 21.062347 21.062347 21.062347 21.062347 21.062347 21.062347 21.062347 18.850257 18.850257 18.850257 18.850257 18.850257 18.850257 18.850257 17.668062 17.668062 17.668062 17.668062 17.668062 17.668062 0.000000 0.000000 0.000000 0.000000 0.000000 0.000000 0.000000 0.000000 0.000000 0.000000 0.000000 0.000000 0.000000 17.950830 17.950830 17.950830 17.950830 17.950830 17.950830 0.000000 0.000000 0.000000 0.000000
0.000000 0.000000 0.000000 0.000000 0.000000 0.000000 0.000000 0.000000 0.000000 0.000000 0.000000 0.000000 0.000000 0.000000 0.000000 0.000000 0.000000 0.000000 0.000000 0.000000 0.000000 0.000000 0.000000 0.000000 0.000000 0.000000 0.000000 0.000000 0.000000 0.000000 0.000000 0.000000 0.000000 0.000000 0.000000 0.000000 0.000000 0.000000 0.000000 0.000000 0.000000 0.000000 0.000000 0.000000 0.000000 0.000000 0.000000 0.000000 0.000000 0.000000 0.000000 0.000000 0.000000 0.000000 0.000000 0.000000 0.000000 0.000000 0.000000 0.000000 21.062347 21.062347 21.062347 21.062347 21.062347 21.062347 21.062347 18.850257 18.850257 18.850257 18.850257 18.850257 18.850257 18.850257 17.668062 17.668062 17.668062 17.668062 17.668062 17.668062 0.000000 0.000000 0.000000 0.000000 0.000000 0.000000 0.000000 0.000000 0.000000 0.000000 0.000000 0.000000 0.000000 17.950830 17.950830 17.950830 17.950830 17.950830 17.950830 0.000000 0.000000 0.000000 0.000000
0.000000 0.000000 0.000000 0.000000 0.000000 0.000000 8.541348 8.541348 8.541348 8.541348 8.541348 0.000000 0.000000 0.000000 0.000000 0.000000 0.000000 0.000000 0.000000 15.346589 15.346589 15.346589 15.346589 15.346589 15.346589 15.346589 15.346589 0.000000 0.000000 0.000000 0.000000 14.864589 14.864589 14.864589 14.864589 14.864589 14.864589 14.864589 14.864589 0.000000 0.000000 0.000000 0.000000 20.031543 20.031543 20.031543 20.031543 20.031543 20.031543 20.031543 20.031543 20.031543 20.031543 0.000000 0.000000 0.000000 0.000000 0.000000 0.000000 0.000000 21.062347 21.062347 21.062347 21.062347 21.062347 21.062347 21.062347 18.850257 18.850257 18.850257 18.850257 18.850257 18.850257 18.850257 17.668062 17.668062 17.668062 17.668062 17.668062 17.668062 0.000000 0.000000 0.000000 0.000000 0.000000 0.000000 0.000000 0.000000 0.000000 0.000000 0.000000 0.000000 0.000000 17.950830 17.950830 17.950830 17.950830 17.950830 17.950830 0.000000 0.000000 0.000000 0.000000
0.000000 0.000000 0.000000 0.000000 0.000000 0.000000 8.541348 8.541348 8.541348 8.541348 8.541348 0.000000 0.000000 0.000000 0.000000 0.000000 0.000000 0.000000 0.000000 15.346589 15.346589 15.346589 15.346589 15.346589 15.346589 15.346589 15.346589 0.000000 0.000000 0.000000 0.000000 14.864589 14.864589 14.864589 14.864589 14.864589 14.864589 14.864589 14.864589 0.000000 0.000000 0.000000 0.000000 20.031543 20.031543 20.031543 20.031543 20.031543 20.031543 20.031543 20.031543 20.031543 20.031543 0.000000 0.000000 0.000000 0.000000 0.000000 0.000000 0.000000 21.062347 21.062347 21.062347 21.062347 21.062347 21.062347 21.062347 18.850257 18.850257 18.850257 18.850257 18.850257 18.850257 18.850257 17.668062 17.668062 17.668062 17.668062 17.668062 17.668062 0.000000 0.000000 0.000000 0.000000 0.000000 0.000000 0.000000 0.000000 0.000000 0.000000 0.000000 0.000000 0.000000 17.950830 17.950830 17.950830 17.950830 17.950830 17.950830 0.000000 0.000000 0.000000 0.000000
0.000000 0.000000 0.000000 0.000000 0.000000 0.000000 8.541348 8.541348 8.541348 8.541348 8.541348 0.000000 0.000000 0.000000 0.000000 0.000000 0.000000 0.000000 0.000000 15.346589 15.346589 15.346589 15.346589 15.346589 15.346589 15.346589 15.346589 0.000000 0.000000 0.000000 0.000000 14.864589 14.864589 14.864589 14.864589 14.864589 14.864589 14.864589 14.864589 0.000000 0.000000 0.000000 0.000000 20.031543 20.031543 20.031543 20.031543 20.031543 20.031543 20.031543 20.031543 20.031543 20.031543 0.000000 0.000000 0.000000 0.000000 0.000000 0.000000 0.000000 21.062347 21.062347 21.062347 21.062347 21.062347 21.062347 21.062347 18.850257 18.850257 18.850257 18.850257 18.850257 18.850257 18.850257 17.668062 17.668062 17.668062 17.668062 17.668062 17.668062 0.000000 0.000000 0.000000 0.000000 0.000000 0.000000 0.000000 0.000000 0.000000 0.000000 0.000000 0.000000 0.000000 17.950830 17.950830 17.950830 17.950830 17.950830 17.950830 0.000000 0.000000 0.000000 0.000000
0.000000 0.000000 0.000000 0.000000 0.000000 0.000000 8.541348 8.541348 8.541348 8.541348 8.541348 0.000000 0.000000 0.000000 0.000000 0.000000 0.000000 0.000000 0.000000 15.346589 15.346589 15.346589 15.346589 15.346589 15.346589 15.346589 15.346589 0.000000 0.000000 0.000000 0.000000 14.864589 14.864589 14.864589 14.864589 14.864589 14.864589 14.864589 14.864589 0.000000 0.000000 0.000000 0.000000 20.031543 20.031543 20.031543 20.031543 20.031543 20.031543 20.031543 20.031543 20.031543 20.031543 0.000000 0.000000 0.000000 0.000000 0.000000 0.000000 0.000000 21.062347 21.062347 21.062347 21.062347 21.062347 21.062347 21.062347 18.850257 18.850257 18.850257 18.850257 18.850257 18.850257 18.850257 17.668062 17.668062 17.668062 17.668062 17.668062 17.668062 0.000000 0.000000 0.000000 0.000000 0.000000 0.000000 0.000000 0.000000 0.000000 0.000000 0.000000 0.000000 0.000000 17.950830 17.950830 17.950830 17.950830 17.950830 17.950830 0.000000 0.000000 0.000000 0.000000
0.000000 0.000000 0.000000 0.000000 0.000000 0.000000 8.541348 8.541348 8.541348 8.541348 8.541348 0.000000 0.000000 0.000000 0.000000 0.000000 0.000000 0.000000 0.000000 15.346589 15.346589 15.346589 15.346589 15.346589 15.346589 15.346589 15.346589 0.000000 0.000000 0.000000 0.000000 14.864589 14.864589 14.864589 14.864589 14.864589 14.864589 14.864589 14.864589 0.000000 0.000000 0.000000 0.000000 20.031543 20.031543 20.031543 20.031543 20.031543 20.031543 20.031543 20.031543 20.031543 20.031543 0.000000 0.000000 0.000000 0.000000 0.000000 0.000000 0.000000 21.062347 21.062347 21.062347 21.062347 21.062347 21.062347 21.062347 18.850257 18.850257 18.850257 18.850257 18.850257 18.850257 18.850257 17.668062 17.668062 17.668062 17.668062 17.668062 17.668062 0.000000 0.000000 0.000000 0.000000 0.000000 0.000000 0.000000 0.000000 0.000000 0.000000 0.000000 0.000000 0.000000 17.950830 17.950830 17.950830 17.950830 17.950830 17.950830 0.000000 0.000000 0.000000 0.000000
0.000000 0.000000 0.000000 0.000000 0.000000 0.000000 8.541348 8.541348 8.541348 8.541348 8.541348 0.000000 0.000000 0.000000 0.000000 0.000000 0.000000 0.000000 0.000000 15.346589 15.346589 15.346589 15.346589 15.346589 15.346589 15.346589 15.346589 0.000000 0.000000 0.000000 0.000000 14.864589 14.864589 14.864589 14.864589 14.864589 14.864589 14.864589 14.864589 0.000000 0.000000 0.000000 0.000000 20.031543 20.031543 20.031543 20.031543 20.031543 20.031543 20.031543 20.031543 20.031543 20.031543 0.000000 0.000000 0.000000 0.000000 0.000000 0.000000 0.000000 21.062347 21.062347 21.062347 21.062347 21.062347 21.062347 21.062347 18.850257 18.850257 18.850257 18.850257 18.850257 18.850257 18.850257 17.668062 17.668062 17.668062 17.668062 17.668062 17.668062 0.000000 0.000000 0.000000 0.000000 0.000000 0.000000 0.000000 0.000000 0.000000 0.000000 0.000000 0.000000 0.000000 17.950830 17.950830 17.950830 17.950830 17.950830 17.950830 0.000000 0.000000 0.000000 0.000000
0.000000 0.000000 0.000000 0.000000 0.000000 0.000000 8.541348 8.541348 8.541348 8.541348 8.541348 0.000000 0.000000 0.000000 0.000000 0.000000 0.000000 0.000000 0.000000 15.346589 15.346589 15.346589 15.346589 15.346589 15.346589 15.346589 15.346589 0.000000 0.000000 0.000000 0.000000 14.864589 14.864589 14.864589 14.864589 14.864589 14.864589 14.864589 14.864589 0.000000 0.000000 0.000000 0.000000 20.031543 20.031543 20.031543 20.031543 20.031543 20.031543 20.031543 20.031543 20.031543 20.031543 0.000000 0.000000 0.000000 0.000000 0.000000 0.000000 0.000000 21.062347 21.062347 21.062347 21.062347 21.062347 21.062347 21.062347 18.850257 18.850257 18.850257 18.850257 18.850257 18.850257 18.850257 17.668062 17.668062 17.668062 17.668062 17.668062 17.668062 0.000000 0.000000 0.000000 0.000000 0.000000 0.000000 0.000000 0.000000 0.000000 0.000000 0.000000 0.000000 0.000000 17.950830 17.950830 17.950830 17.950830 17.950830 17.950830 0.000000 0.000000 0.000000 0.000000
0.000000 0.000000 0.000000 0.000000 0.000000 0.000000 8.541348 8.541348 8.541348 8.541348 8.541348 0.000000 0.000000 0.000000 0.000000 0.000000 0.000000 0.000000 0.000000 15.346589 15.346589 15.346589 15.346589 15.346589 15.346589 15.346589 15.346589 0.000000 0.000000 0.000000 0.000000 14.864589 14.864589 14.864589 14.864589 14.864589 14.864589 14.864589 14.864589 0.000000 0.000000 0.000000 0.000000 20.031543 20.031543 20.031543 20.031543 20.031543 20.031543 20.031543 20.031543 20.031543 20.031543 0.000000 0.000000 0.000000 0.000000 0.000000 0.000000 0.000000 21.062347 21.062347 21.062347 21.062347 21.062347 21.062347 21.062347 18.850257 18.850257 18.850257 18.850257 18.850257 18.850257 18.850257 17.668062 17.668062 17.668062 17.668062 17.668062 17.668062 0.000000 0.000000 0.000000 0.000000 0.000000 0.000000 0.000000 0.000000 0.000000 0.000000 0.000000 0.000000 0.000000 17.950830 17.950830 17.950830 17.950830 17.950830 17.950830 0.000000 0.000000 0.000000 0.000000
0.000000 0.000000 0.000000 0.000000 0.000000 0.000000 0.000000 0.000000 0.000000 0.000000 0.000000 0.000000 0.000000 0.000000 0.000000 0.000000 0.000000 0.000000 0.000000 0.000000 0.000000 0.000000 0.000000 0.000000 0.000000 0.000000 0.000000 0.000000 0.000000 0.000000 0.000000 0.000000 0.000000 0.000000 0.000000 0.000000 0.000000 0.000000 0.000000 0.000000 0.000000 0.000000 0.000000 0.000000 0.000000 0.000000 0.000000 0.000000 0.000000 0.000000 0.000000 0.000000 0.000000 0.000000 0.000000 0.000000 0.000000 0.000000 0.000000 0.000000 21.062347 21.062347 21.062347 21.062347 21.062347 21.062347 21.062347 18.850257 18.850257 18.850257 18.850257 18.850257 18.850257 18.850257 17.668062 17.668062 17.668062 17.668062 17.668062 17.668062 0.000000 0.000000 0.000000 0.000000 0.000000 0.000000 0.000000 0.000000 0.000000 0.000000 0.000000 0.000000 0.000000 17.950830 17.950830 17.950830 17.950830 17.950830 17.950830 0.000000 0.000000 0.000000 0.000000
0.000000 0.000000 0.000000 0.000000 0.000000 0.000000 0.000000 0.000000 0.000000 0.000000 0.000000 0.000000 0.000000 0.000000 0.000000 0.000000 0.000000 0.000000 0.000000 0.000000 0.000000 0.000000 0.000000 0.000000 0.000000 0.000000 0.000000 0.000000 0.000000 0.000000 0.000000 0.000000 0.000000 0.000000 0.000000 0.000000 0.000000 0.000000 0.000000 0.000000 0.000000 0.000000 0.000000 0.000000 0.000000 0.000000 0.000000 0.000000 0.000000 0.000000 0.000000 0.000000 0.000000 0.000000 0.000000 0.000000 0.000000 0.000000 0.000000 0.000000 21.062347 21.062347 21.062347 21.062347 21.062347 21.062347 21.062347 18.850257 18.850257 18.850257 18.850257 18.850257 18.850257 18.850257 17.668062 17.668062 17.668062 17.668062 17.668062 17.668062 0.000000 0.000000 0.000000 0.000000 0.000000 0.000000 0.000000 0.000000 0.000000 0.000000 0.000000 0.000000 0.000000 17.950830 17.950830 17.950830 17.950830 17.950830 17.950830 0.000000 0.000000 0.000000 0.000000
0.000000 0.000000 0.000000 0.000000 0.000000 0.000000 0.000000 0.000000 0.000000 0.000000 0.000000 0.000000 0.000000 0.000000 0.000000 0.000000 0.000000 0.000000 0.000000 0.000000 0.000000 0.000000 0.000000 0.000000 0.000000 0.000000 0.000000 0.000000 0.000000 0.000000 0.000000 0.000000 0.000000 0.000000 0.000000 0.000000 0.000000 0.000000 0.000000 0.000000 0.000000 0.000000 0.000000 0.000000 0.000000 0.000000 0.000000 0.000000 0.000000 0.000000 0.000000 0.000000 0.000000 0.000000 0.000000 0.000000 0.000000 0.000000 0.000000 0.000000 0.000000 0.000000 0.000000 0.000000 0.000000 0.000000 0.000000 0.000000 0.000000 0.000000 0.000000 0.000000 0.000000 0.000000 0.000000 0.000000 0.000000 0.000000 0.000000 0.000000 0.000000 0.000000 0.000000 0.000000 0.000000 0.000000 0.000000 0.000000 0.000000 0.000000 0.000000 0.000000 0.000000 0.000000 0.000000 0.000000 0.000000 0.000000 0.000000 0.000000 0.000000 0.000000 0.000000
0.000000 0.000000 0.000000 0.000000 0.000000 0.000000 0.000000 0.000000 0.000000 0.000000 0.000000 0.000000 0.000000 0.000000 0.000000 0.000000 0.000000 0.000000 0.000000 0.000000 0.000000 0.000000 0.000000 0.000000 0.000000 0.000000 0.000000 0.000000 0.000000 0.000000 0.000000 0.000000 0.000000 0.000000 0.000000 0.000000 0.000000 0.000000 0.000000 0.000000 0.000000 0.000000 0.000000 0.000000 0.000000 0.000000 0.000000 0.000000 0.000000 0.000000 0.000000 0.000000 0.000000 0.000000 0.000000 0.000000 0.000000 0.000000 0.000000 0.000000 0.000000 0.000000 0.000000 0.000000 0.000000 0.000000 0.000000 0.000000 0.000000 0.000000 0.000000 0.000000 0.000000 0.000000 0.000000 0.000000 0.000000 0.000000 0.000000 0.000000 0.000000 0.000000 0.000000 0.000000 0.000000 0.000000 0.000000 0.000000 0.000000 0.000000 0.000000 0.000000 0.000000 0.000000 0.000000 0.000000 0.000000 0.000000 0.000000 0.000000 0.000000 0.000000 0.000000
0.000000 0.000000 0.000000 0.000000 0.000000 0.000000 0.000000 0.000000 0.000000 0.000000 0.000000 0.000000 0.000000 0.000000 0.000000 0.000000 0.000000 0.000000 0.000000 0.000000 0.000000 0.000000 0.000000 0.000000 0.000000 0.000000 0.000000 0.000000 0.000000 0.000000 0.000000 0.000000 0.000000 0.000000 0.000000 0.000000 0.000000 0.000000 0.000000 0.000000 0.000000 0.000000 0.000000 0.000000 0.000000 0.000000 0.000000 0.000000 0.000000 0.000000 0.000000 0.000000 0.000000 0.000000 0.000000 0.000000 0.000000 0.000000 0.000000 0.000000 0.000000 0.000000 0.000000 0.000000 0.000000 0.000000 0.000000 0.000000 0.000000 0.000000 0.000000 0.000000 0.000000 0.000000 0.000000 0.000000 0.000000 0.000000 0.000000 0.000000 0.000000 0.000000 0.000000 0.000000 0.000000 0.000000 0.000000 0.000000 0.000000 0.000000 0.000000 0.000000 0.000000 0.000000 0.000000 0.000000 0.000000 0.000000 0.000000 0.000000 0.000000 0.000000 0.000000
0.000000 0.000000 0.000000 0.000000 0.000000 0.000000 0.000000 0.000000 0.000000 0.000000 0.000000 0.000000 0.000000 0.000000 0.000000 0.000000 0.000000 0.000000 0.000000 0.000000 0.000000 0.000000 0.000000 0.000000 0.000000 0.000000 0.000000 0.000000 0.000000 0.000000 0.000000 0.000000 0.000000 0.000000 0.000000 0.000000 0.000000 0.000000 0.000000 0.000000 0.000000 0.000000 0.000000 0.000000 0.000000 0.000000 0.000000 0.000000 0.000000 0.000000 0.000000 0.000000 0.000000 0.000000 0.000000 0.000000 0.000000 0.000000 0.000000 0.000000 0.000000 0.000000 0.000000 0.000000 0.000000 0.000000 0.000000 0.000000 0.000000 0.000000 0.000000 0.000000 0.000000 0.000000 0.000000 0.000000 0.000000 0.000000 0.000000 0.000000 0.000000 0.000000 0.000000 0.000000 0.000000 0.000000 0.000000 0.000000 0.000000 0.000000 0.000000 0.000000 0.000000 0.000000 0.000000 0.000000 0.000000 0.000000 0.000000 0.000000 0.000000 0.000000 0.000000
0.000000 0.000000 0.000000 0.000000 0.000000 0.000000 0.000000 0.000000 0.000000 0.000000 0.000000 0.000000 0.000000 0.000000 0.000000 0.000000 0.000000 0.000000 0.000000 0.000000 0.000000 0.000000 0.000000 0.000000 0.000000 0.000000 0.000000 0.000000 0.000000 0.000000 0.000000 0.000000 0.000000 0.000000 0.000000 0.000000 0.000000 0.000000 0.000000 0.000000 0.000000 0.000000 0.000000 0.000000 0.000000 0.000000 0.000000 0.000000 0.000000 0.000000 0.000000 0.000000 0.000000 0.000000 0.000000 0.000000 0.000000 0.000000 0.000000 0.000000 0.000000 0.000000 0.000000 0.000000 0.000000 0.000000 0.000000 0.000000 0.000000 0.000000 0.000000 0.000000 0.000000 0.000000 0.000000 0.000000 0.000000 0.000000 0.000000 0.000000 0.000000 0.000000 0.000000 0.000000 0.000000 0.000000 0.000000 0.000000 0.000000 0.000000 0.000000 0.000000 0.000000 0.000000 0.000000 0.000000 0.000000 0.000000 0.000000 0.000000 0.000000 0.000000 0.000000
0.000000 0.000000 0.000000 0.000000 13.464540 13.464540 13.464540 13.464540 13.464540 13.464540 13.464540 13.464540 0.000000 0.000000 0.000000 0.000000 0.000000 0.000000 0.000000 0.000000 0.000000 0.000000 0.000000 0.000000 0.000000 0.000000 0.000000 0.000000 0.000000 0.000000 0.000000 0.000000 0.000000 0.000000 0.000000 0.000000 0.000000 0.000000 0.000000 0.000000 0.000000 0.000000 0.000000 0.000000 0.000000 0.000000 0.000000 0.000000 0.000000 0.000000 0.000000 0.000000 0.000000 0.000000 0.000000 0.000000 0.000000 0.000000 0.000000 0.000000 0.000000 0.000000 0.000000 0.000000 0.000000 0.000000 0.000000 0.000000 0.000000 0.000000 0.000000 0.000000 0.000000 0.000000 0.000000 0.000000 0.000000 0.000000 0.000000 0.000000 0.000000 0.000000 0.000000 0.000000 0.000000 0.000000 0.000000 0.000000 0.000000 0.000000 0.000000 0.000000 0.000000 0.000000 0.000000 0.000000 0.000000 0.000000 0.000000 0.000000 0.000000 0.000000 0.000000
0.000000 0.000000 0.000000 0.000000 13.464540 13.464540 13.464540 13.464540 13.464540 13.464540 13.464540 13.464540 0.000000 0.000000 0.000000 0.000000 0.000000 0.000000 0.000000 0.000000 0.000000 0.000000 0.000000 0.000000 0.000000 0.000000 0.000000 0.000000 0.000000 0.000000 0.000000 0.000000 0.000000 0.000000 0.000000 0.000000 0.000000 0.000000 0.000000 0.000000 0.000000 0.000000 0.000000 0.000000 0.000000 0.000000 0.000000 0.000000 0.000000 0.000000 0.000000 0.000000 0.000000 0.000000 0.000000 0.000000 0.000000 0.000000 0.000000 0.000000 0.000000 0.000000 0.000000 0.000000 0.000000 0.000000 0.000000 0.000000 0.000000 0.000000 0.000000 0.000000 0.000000 0.000000 0.000000 0.000000 0.000000 0.000000 0.000000 0.000000 0.000000 0.000000 0.000000 0.000000 0.000000 0.000000 0.000000 0.000000 0.000000 0.000000 0.000000 0.000000 0.000000 0.000000 0.000000 0.000000 0.000000 0.000000 0.000000 0.000000 0.000000 0.000000 0.000000
0.000000 0.000000 0.000000 0.000000 13.464540 13.464540 13.464540 13.464540 13.464540 13.464540 13.464540 13.464540 0.000000 0.000000 0.000000 0.000000 0.000000 0.000000 0.000000 9.006921 9.006921 9.006921 9.006921 9.006921 9.006921 9.006921 9.006921 9.006921 9.006921 9.006921 9.006921 0.000000 0.000000 0.000000 0.000000 5.131305 5.131305 5.131305 5.131305 5.131305 5.131305 5.131305 0.000000 0.000000 0.000000 0.000000 0.000000 0.000000 0.000000 0.000000 0.000000 0.000000 0.000000 0.000000 0.000000 0.000000 0.000000 0.000000 0.000000 0.000000 0.000000 0.000000 4.944038 4.944038 4.944038 4.944038 4.944038 4.944038 0.000000 0.000000 0.000000 0.000000 4.646272 4.646272 4.646272 4.646272 4.646272 4.646272 0.000000 0.000000 0.000000 0.000000 0.000000 0.000000 0.000000 0.000000 0.000000 0.000000 0.000000 0.000000 0.000000 0.000000 0.000000 0.000000 0.000000 0.000000 0.000000 0.000000 0.000000 0.000000 0.000000 0.000000 0.000000
0.000000 0.000000 0.000000 0.000000 13.464540 13.464540 13.464540 13.464540 13.464540 13.464540 13.464540 13.464540 0.000000 0.000000 0.000000 0.000000 0.000000 0.000000 0.000000 9.006921 9.006921 9.006921 9.006921 9.006921 9.006921 9.006921 9.006921 9.006921 9.006921 9.006921 9.006921 0.000000 0.000000 0.000000 0.000000 5.131305 5.131305 5.131305 5.131305 5.131305 5.131305 5.131305 0.000000 0.000000 0.000000 0.000000 0.000000 0.000000 0.000000 0.000000 0.000000 0.000000 0.000000 0.000000 0.000000 0.000000 0.000000 0.000000 0.000000 0.000000 0.000000 0.000000 4.944038 4.944038 4.944038 4.944038 4.944038 4.944038 0.000000 0.000000 0.000000 0.000000 4.646272 4.646272 4.646272 4.646272 4.646272 4.646272 0.000000 0.000000 0.000000 0.000000 0.000000 0.000000 0.000000 0.000000 0.000000 0.000000 0.000000 0.000000 0.000000 0.000000 0.000000 0.000000 0.000000 0.000000 0.000000 0.000000 0.000000 0.000000 0.000000 0.000000 0.000000
0.000000 0.000000 0.000000 0.000000 13.464540 13.464540 13.464540 13.464540 13.464540 13.464540 13.464540 13.464540 0.000000 0.000000 0.000000 0.000000 0.000000 0.000000 0.000000 9.006921 9.006921 9.006921 9.006921 9.006921 9.006921 9.006921 9.006921 9.006921 9.006921 9.006921 9.006921 0.000000 0.000000 0.000000 0.000000 5.131305 5.131305 5.131305 5.131305 5.131305 5.131305 5.131305 0.000000 0.000000 0.000000 0.000000 0.000000 0.000000 0.000000 0.000000 0.000000 0.000000 0.000000 0.000000 0.000000 0.000000 0.000000 0.000000 0.000000 0.000000 0.000000 0.000000 4.944038 4.944038 4.944038 4.944038 4.944038 4.944038 0.000000 0.000000 0.000000 0.000000 4.646272 4.646272 4.646272 4.646272 4.646272 4.646272 0.000000 0.000000 0.000000 0.000000 0.000000 0.000000 0.000000 0.000000 0.000000 0.000000 0.000000 0.000000 0.000000 0.000000 0.000000 0.000000 0.000000 0.000000 0.000000 0.000000 0.000000 0.000000 0.000000 0.000000 0.000000
0.000000 0.000000 0.000000 0.000000 13.464540 13.464540 13.464540 13.464540 13.464540 13.464540 13.464540 13.464540 0.000000 0.000000 0.000000 0.000000 0.000000 0.000000 0.000000 0.000000 0.000000 0.000000 0.000000 0.000000 0.000000 0.000000 0.000000 0.000000 0.000000 0.000000 0.000000 0.000000 0.000000 0.000000 0.000000 0.000000 0.000000 0.000000 0.000000 0.000000 0.000000 0.000000 0.000000 0.000000 0.000000 0.000000 0.000000 0.000000 0.000000 0.000000 0.000000 0.000000 0.000000 0.000000 0.000000 0.000000 0.000000 0.000000 0.000000 0.000000 0.000000 0.000000 0.000000 0.000000 0.000000 0.000000 0.000000 0.000000 0.000000 0.000000 0.000000 0.000000 0.000000 0.000000 0.000000 0.000000 0.000000 0.000000 0.000000 0.000000 0.000000 0.000000 0.000000 0.000000 0.000000 0.000000 0.000000 0.000000 0.000000 0.000000 0.000000 0.000000 0.000000 0.000000 0.000000 0.000000 0.000000 0.000000 0.000000 0.000000 0.000000 0.000000 0.000000
0.000000 0.000000 0.000000 0.000000 13.464540 13.464540 13.464540 13.464540 13.464540 13.464540 13.464540 13.464540 0.000000 0.000000 0.000000 0.000000 0.000000 0.000000 0.000000 0.000000 0.000000 0.000000 0.000000 0.000000 0.000000 0.000000 0.000000 0.000000 0.000000 0.000000 0.000000 0.000000 0.000000 0.000000 0.000000 0.000000 0.000000 0.000000 0.000000 0.000000 0.000000 0.000000 0.000000 0.000000 0.000000 0.000000 0.000000 0.000000 0.000000 0.000000 0.000000 0.000000 0.000000 0.000000 0.000000 0.000000 0.000000 0.000000 0.000000 0.000000 0.000000 0.000000 0.000000 0.000000 0.000000 0.000000 0.000000 0.000000 0.000000 0.000000 0.000000 0.000000 0.000000 0.000000 0.000000 0.000000 0.000000 0.000000 0.000000 0.000000 0.000000 0.000000 0.000000 0.000000 0.000000 0.000000 0.000000 0.000000 0.000000 0.000000 0.000000 0.000000 0.000000 0.000000 0.000000 0.000000 0.000000 0.000000 0.000000 0.000000 0.000000 0.000000 0.000000
0.000000 0.000000 0.000000 0.000000 0.000000 0.000000 0.000000 0.000000 0.000000 0.000000 0.000000 0.000000 0.000000 0.000000 0.000000 0.000000 0.000000 0.000000 0.000000 0.000000 0.000000 0.000000 0.000000 0.000000 0.000000 0.000000 0.000000 0.000000 0.000000 0.000000 0.000000 0.000000 0.000000 0.000000 0.000000 0.000000 0.000000 0.000000 0.000000 0.000000 0.000000 0.000000 0.000000 0.000000 0.000000 0.000000 0.000000 0.000000 0.000000 0.000000 0.000000 0.000000 0.000000 0.000000 0.000000 0.000000 0.000000 0.000000 0.000000 0.000000 0.000000 0.000000 0.000000 0.000000 0.000000 0.000000 0.000000 0.000000 0.000000 0.000000 0.000000 0.000000 0.000000 0.000000 0.000000 0.000000 0.000000 0.000000 0.000000 0.000000 0.000000 0.000000 0.000000 0.000000 0.000000 0.000000 0.000000 0.000000 0.000000 0.000000 0.000000 0.000000 0.000000 0.000000 0.000000 0.000000 0.000000 0.000000 0.000000 0.000000 0.000000 0.000000 0.000000
0.000000 0.000000 0.000000 0.000000 0.000000 0.000000 0.000000 0.000000 0.000000 0.000000 0.000000 0.000000 0.000000 0.000000 0.000000 0.000000 0.000000 0.000000 0.000000 0.000000 0.000000 0.000000 0.000000 0.000000 0.000000 0.000000 0.000000 0.000000 0.000000 0.000000 0.000000 0.000000 0.000000 0.000000 0.000000 0.000000 0.000000 0.000000 0.000000 0.000000 0.000000 0.000000 0.000000 0.000000 0.000000 0.000000 0.000000 0.000000 0.000000 0.000000 0.000000 0.000000 0.000000 0.000000 0.000000 0.000000 0.000000 0.000000 0.000000 0.000000 0.000000 0.000000 0.000000 0.000000 0.000000 0.000000 0.000000 0.000000 0.000000 0.000000 0.000000 0.000000 0.000000 0.000000 0.000000 0.000000 0.000000 0.000000 0.000000 0.000000 0.000000 0.000000 0.000000 0.000000 0.000000 0.000000 0.000000 0.000000 0.000000 0.000000 0.000000 0.000000 0.000000 0.000000 0.000000 0.000000 0.000000 0.000000 0.000000 0.000000 0.000000 0.000000 0.000000
0.000000 0.000000 0.000000 0.000000 0.000000 0.000000 0.000000 0.000000 0.000000 0.000000 0.000000 0.000000 0.000000 0.000000 0.000000 0.000000 0.000000 0.000000 0.000000 0.000000 0.000000 0.000000 0.000000 0.000000 0.000000 0.000000 0.000000 0.000000 0.000000 0.000000 0.000000 0.000000 0.000000 0.000000 0.000000 0.000000 0.000000 0.000000 0.000000 0.000000 0.000000 0.000000 0.000000 0.000000 0.000000 0.000000 0.000000 0.000000 0.000000 0.000000 0.000000 0.000000 0.000000 0.000000 0.000000 0.000000 0.000000 0.000000 0.000000 0.000000 0.000000 0.000000 0.000000 0.000000 0.000000 0.000000 0.000000 0.000000 0.000000 0.000000 0.000000 0.000000 0.000000 0.000000 0.000000 0.000000 0.000000 0.000000 0.000000 0.000000 0.000000 0.000000 0.000000 0.000000 0.000000 0.000000 0.000000 0.000000 0.000000 0.000000 0.000000 0.000000 0.000000 0.000000 0.000000 0.000000 0.000000 0.000000 0.000000 0.000000 0.000000 0.000000 0.000000
0.000000 0.000000 0.000000 0.000000 0.000000 0.000000 0.000000 0.000000 0.000000 0.000000 0.000000 0.000000 0.000000 0.000000 0.000000 0.000000 0.000000 0.000000 0.000000 0.000000 0.000000 0.000000 0.000000 0.000000 0.000000 0.000000 0.000000 0.000000 0.000000 0.000000 0.000000 0.000000 0.000000 0.000000 0.000000 0.000000 0.000000 0.000000 0.000000 0.000000 0.000000 0.000000 0.000000 0.000000 0.000000 0.000000 0.000000 0.000000 0.000000 0.000000 0.000000 0.000000 0.000000 0.000000 0.000000 0.000000 0.000000 0.000000 0.000000 0.000000 0.000000 0.000000 0.000000 0.000000 0.000000 0.000000 0.000000 0.000000 0.000000 0.000000 0.000000 0.000000 0.000000 0.000000 0.000000 0.000000 0.000000 0.000000 0.000000 0.000000 0.000000 0.000000 0.000000 0.000000 0.000000 0.000000 0.000000 0.000000 0.000000 0.000000 0.000000 0.000000 0.000000 0.000000 0.000000 0.000000 0.000000 0.000000 0.000000 0.000000 0.000000 0.000000 0.000000
